0,degree_centralization,163,316,361,613,631
1,0.2318181818,0.3681818182,0.088961039,0.349350649350649,0.1266233766,0.1448051948
2,0.1646185356,0.3110599078,0.0688684076,0.279825908858167,0.0947260625,0.1477214542
3,0.21325051760000002,0.2559006211,0.0716356108,0.214492753623188,0.0910973085,0.1436853002
4,0.17449217449999999,0.2340992341,0.0852480852,0.217449217449217,0.1545121545,0.1288711289
5,0.1419406576,0.2174552259,0.0864742048,0.221732157177225,0.1395348837,0.1356589147
6,0.1241408935,0.2007087629,0.0661512027,0.212199312714777,0.1559278351,0.1495919244
7,0.1187262028,0.1604361371,0.0860159225,0.183627552786431,0.1412253375,0.1488404292
8,0.10448179269999999,0.1514005602,0.1105042017,0.185994397759104,0.1380952381,0.1473389356
9,0.1064975873,0.150263719,0.0972954775,0.17383009763214,0.1183929974,0.1613735832
10,0.08724832210000001,0.1218937058,0.1072918556,0.140758207872302,0.1492835117,0.1652457827
11,0.0774735305,0.1221613728,0.1379335524,0.1390288426433,0.1483023001,0.1353778751
12,0.0840481786,0.1375146886,0.112720329,0.113924794359577,0.1632491187,0.1511457109
13,0.0741179256,0.1183045229,0.090930618,0.141747572815534,0.1589391428,0.1574236325
14,0.0740251283,0.1284187543,0.0897303302,0.148912127480273,0.1395847698,0.1685244771
15,0.0839277443,0.1383974062,0.083279296,0.150100355102671,0.1263702331,0.1713601976
16,0.084482158,0.1271089434,0.0770417558,0.15642263474842,0.1222813915,0.1725476534
17,0.0866988145,0.104299779,0.0768937111,0.165662045408881,0.1226039783,0.1646172393
18,0.08446072449999999,0.1073504274,0.0814082214,0.13958485958486,0.1273097273,0.155970696
19,0.068446378,0.1187133347,0.0685518423,0.116696328521521,0.1215872388,0.1602267484
20,0.0686104696,0.1081280472,0.0666591823,0.11067273971431,0.1153451373,0.1360234368
21,0.0549203049,0.0896656272,0.061785343,0.127464483714484,0.113539501,0.1170954608
22,0.0598899593,0.0773938768,0.0626163824,0.109569885672928,0.0952280569,0.1171940328
23,0.047869855499999996,0.0733216353,0.0640524589,0.0972864728134543,0.0930962581,0.1076637346
24,0.043648615599999996,0.0751115026,0.0551770897,0.0907218729677,0.1024947996,0.1243387098
25,0.0449604928,0.0687694826,0.0595374253,0.0911805820307536,0.0866878967,0.1091176844
26,0.04787504769999999,0.0591572295,0.0572531341,0.080682444755482,0.0777513194,0.1016623344
27,0.042898394900000004,0.0561174503,0.0558080603,0.0821381303514032,0.076473347,0.0932675757
28,0.038257482999999995,0.0570752811,0.0458425124,0.0803826046809671,0.0762582512,0.1004650719
29,0.036626066,0.0516871767,0.043421874,0.0735666781193694,0.06807422,0.0863614441
30,0.0315926411,0.0506732804,0.0352919554,0.0696394607477638,0.0686937025,0.0811658072
31,0.0299082641,0.044861866,0.0362756043,0.0714899851683168,0.065564733,0.0716638519
32,0.0268543068,0.0422465247,0.0378170724,0.0649824893109598,0.0609148529,0.0749775476
33,0.026925230699999997,0.0431786975,0.0309790086,0.0583979731807686,0.0593442964,0.0685230036
34,0.026601117599999998,0.040220797,0.0324015632,0.0496759306389766,0.0532028007,0.0651911048
35,0.0240785413,0.0353983885,0.0297793125,0.0506772448307072,0.0523744876,0.059327767
36,0.0234404296,0.0332110302,0.0298614398,0.0504739884479164,0.050233801,0.0539319424
37,0.022584241499999998,0.0306597886,0.0276055811,0.0431069081422766,0.0502637148,0.0536177218
38,0.024734325,0.0303205111,0.0250787049,0.040845302069025,0.0444366581,0.0471560343
39,0.023329527599999997,0.0299896246,0.0236367331,0.0372911747898177,0.0417461524,0.0508475891
40,0.0190580543,0.0259487717,0.0230120091,0.0356761218403863,0.0359632788,0.0464574566
