Vertices 334
40 "#265"
142 "#314"
280 "#88"
176 "#71"
205 "#3"
223 "#191"
12 "#146"
233 "#318"
320 "#68"
8 "#85"
222 "#134"
325 "#321"
41 "#111"
292 "#301"
209 "#225"
136 "#280"
99 "#172"
226 "#170"
43 "#285"
246 "#118"
211 "#89"
159 "#75"
17 "#74"
287 "#175"
77 "#234"
78 "#306"
47 "#22"
137 "#63"
252 "#177"
303 "#133"
92 "#126"
203 "#182"
306 "#54"
75 "#127"
31 "#24"
327 "#229"
121 "#316"
250 "#6"
157 "#113"
286 "#240"
122 "#87"
152 "#90"
263 "#308"
19 "#197"
3 "#184"
22 "#263"
245 "#299"
186 "#66"
215 "#150"
321 "#320"
24 "#130"
14 "#33"
71 "#235"
181 "#100"
124 "#164"
169 "#241"
218 "#251"
266 "#27"
197 "#183"
304 "#256"
242 "#181"
241 "#228"
315 "#230"
259 "#214"
68 "#25"
194 "#76"
59 "#328"
202 "#65"
18 "#120"
288 "#210"
53 "#155"
104 "#166"
322 "#165"
200 "#109"
232 "#29"
146 "#204"
174 "#268"
179 "#86"
60 "#147"
189 "#203"
130 "#212"
313 "#56"
154 "#36"
86 "#221"
264 "#307"
85 "#323"
128 "#283"
247 "#269"
87 "#140"
323 "#242"
269 "#79"
69 "#317"
254 "#47"
50 "#96"
89 "#152"
302 "#188"
229 "#138"
112 "#169"
201 "#282"
57 "#226"
220 "#329"
299 "#275"
26 "#303"
93 "#220"
91 "#105"
256 "#244"
249 "#258"
216 "#95"
272 "#309"
66 "#14"
163 "#122"
11 "#286"
274 "#296"
143 "#291"
255 "#255"
119 "#18"
96 "#192"
271 "#81"
268 "#94"
230 "#277"
102 "#143"
171 "#216"
318 "#53"
173 "#332"
133 "#237"
90 "#115"
196 "#279"
311 "#276"
139 "#110"
328 "#5"
238 "#189"
297 "#78"
248 "#325"
30 "#23"
56 "#218"
101 "#28"
145 "#187"
10 "#193"
314 "#7"
160 "#104"
192 "#50"
231 "#236"
65 "#217"
188 "#330"
129 "#141"
210 "#245"
155 "#290"
35 "#80"
115 "#168"
267 "#246"
149 "#298"
312 "#153"
213 "#162"
126 "#46"
51 "#84"
27 "#93"
316 "#123"
221 "#2"
331 "#180"
62 "#262"
114 "#62"
23 "#39"
9 "#52"
332 "#200"
153 "#199"
228 "#224"
183 "#12"
32 "#194"
161 "#131"
84 "#243"
235 "#159"
290 "#186"
275 "#326"
162 "#295"
72 "#67"
2 "#260"
240 "#284"
34 "#293"
227 "#208"
88 "#37"
190 "#32"
105 "#219"
13 "#102"
148 "#215"
324 "#163"
276 "#322"
46 "#107"
285 "#179"
307 "#69"
206 "#135"
111 "#178"
21 "#20"
6 "#267"
74 "#97"
191 "#145"
295 "#106"
37 "#17"
151 "#45"
140 "#4"
110 "#103"
95 "#278"
79 "#13"
131 "#129"
296 "#98"
309 "#310"
82 "#132"
208 "#21"
334 "#223"
170 "#297"
94 "#304"
167 "#8"
187 "#248"
67 "#257"
185 "#324"
83 "#148"
168 "#173"
123 "#91"
317 "#114"
305 "#207"
182 "#190"
204 "#136"
138 "#259"
63 "#70"
42 "#124"
28 "#64"
329 "#271"
70 "#38"
282 "#213"
52 "#319"
98 "#35"
195 "#149"
257 "#331"
1 "#167"
58 "#137"
80 "#1"
277 "#73"
198 "#121"
224 "#195"
150 "#160"
319 "#157"
166 "#281"
278 "#205"
326 "#253"
283 "#227"
212 "#232"
333 "#31"
180 "#201"
49 "#72"
330 "#9"
116 "#158"
107 "#40"
308 "#82"
207 "#198"
262 "#48"
178 "#15"
193 "#287"
7 "#0"
76 "#302"
225 "#261"
127 "#60"
141 "#171"
261 "#202"
73 "#315"
38 "#196"
175 "#300"
265 "#142"
239 "#247"
300 "#222"
184 "#185"
172 "#77"
291 "#57"
284 "#19"
106 "#44"
293 "#209"
147 "#233"
199 "#139"
273 "#264"
251 "#92"
55 "#49"
165 "#34"
164 "#16"
158 "#249"
234 "#313"
103 "#26"
108 "#327"
281 "#206"
15 "#117"
61 "#112"
301 "#125"
135 "#272"
243 "#238"
310 "#266"
253 "#119"
125 "#305"
156 "#101"
39 "#333"
217 "#42"
117 "#294"
100 "#273"
120 "#61"
260 "#11"
5 "#174"
64 "#154"
144 "#108"
270 "#211"
29 "#41"
236 "#58"
134 "#156"
20 "#128"
298 "#30"
118 "#270"
132 "#151"
97 "#252"
294 "#55"
244 "#250"
36 "#10"
25 "#144"
45 "#116"
44 "#312"
237 "#254"
81 "#161"
113 "#51"
54 "#289"
16 "#292"
219 "#83"
258 "#176"
279 "#59"
177 "#43"
48 "#311"
33 "#231"
109 "#274"
289 "#99"
214 "#288"
4 "#239"
Edges
292 178
77 100
284 12
333 1
4 67
315 147
174 40
210 256
263 125
148 318
331 3
284 88
308 137
298 107
296 12
217 23
300 188
213 187
137 14
235 64
132 182
109 218
163 198
202 41
290 3
292 136
45 8
259 207
184 110
47 164
216 17
272 78
278 224
26 309
201 182
20 109
35 13
273 238
257 173
38 145
55 87
20 177
98 227
149 274
95 77
101 9
40 62
90 191
77 112
79 314
99 131
107 320
295 207
334 33
311 230
244 250
15 84
119 190
26 108
126 153
262 301
29 239
263 26
160 278
308 19
227 288
15 195
137 154
25 253
238 156
61 228
167 318
62 247
181 204
222 315
262 15
328 48
138 6
63 119
176 195
202 14
42 280
223 290
124 224
158 129
316 88
86 65
238 266
331 178
88 160
262 211
287 140
1 289
53 280
136 95
47 24
13 318
267 288
5 290
69 52
19 278
296 198
316 30
262 296
323 114
115 1
214 202
70 298
76 307
251 193
312 33
146 193
98 218
217 222
129 160
305 65
247 186
14 165
75 24
111 227
293 148
114 80
15 176
277 161
89 271
58 246
56 281
284 328
171 300
319 160
324 81
158 316
331 206
64 53
332 182
42 92
315 20
199 303
198 301
253 156
119 186
152 331
261 296
243 71
1 293
231 241
101 130
139 36
255 247
172 36
156 191
311 11
329 6
166 240
40 255
119 208
269 165
205 10
253 328
83 129
56 171
282 227
185 173
1 129
94 257
280 110
68 36
30 163
219 334
181 64
293 139
248 264
137 21
83 223
32 50
295 113
270 14
161 70
231 255
118 257
207 180
139 294
182 295
222 159
295 278
288 9
305 55
3 332
138 47
316 203
74 289
216 326
7 223
202 61
327 126
192 141
261 133
178 163
6 239
87 67
215 170
189 158
219 90
306 187
48 325
147 323
213 170
13 119
306 13
11 128
60 55
252 242
217 209
131 203
24 272
196 230
177 251
13 228
15 253
130 294
33 158
112 150
116 43
210 169
251 27
76 230
298 202
271 152
260 6
145 147
127 226
166 245
240 117
30 46
24 204
186 112
142 173
116 211
191 74
196 334
118 231
100 138
207 213
320 42
73 52
259 75
192 223
42 63
174 47
284 46
48 264
83 331
97 22
190 279
312 35
106 92
189 197
162 240
328 102
57 270
129 11
36 268
119 7
216 262
274 82
85 222
265 102
76 3
172 252
89 231
170 34
289 183
34 214
173 121
183 291
34 54
74 57
292 117
175 155
194 36
192 10
200 139
104 77
318 99
240 199
189 216
205 306
178 181
270 184
216 54
61 295
199 62
110 144
86 110
138 218
300 194
7 151
20 18
259 65
91 183
144 303
292 274
57 93
110 18
274 21
257 39
112 293
320 23
140 228
248 173
307 14
89 303
1 330
80 116
199 161
144 20
30 115
75 229
73 39
260 126
296 317
279 148
24 143
38 146
226 181
279 309
46 152
261 238
73 257
224 145
94 121
24 81
51 257
176 250
12 195
321 257
316 266
181 305
63 202
13 160
277 282
291 177
244 326
105 294
227 65
123 179
194 137
76 245
153 312
254 284
106 320
107 282
37 110
285 160
26 264
31 319
86 303
284 207
104 252
239 70
231 33
9 115
92 20
152 314
70 297
116 235
262 101
266 205
90 160
89 164
326 152
264 263
196 43
75 312
211 49
51 203
284 320
333 35
192 237
28 47
179 64
126 119
32 295
179 330
192 166
195 191
185 321
286 267
255 256
316 92
105 139
47 211
235 37
199 190
24 112
90 240
184 226
278 71
225 176
287 113
270 322
82 131
62 225
324 254
17 252
61 139
198 202
45 221
17 310
113 271
246 28
307 322
116 183
167 7
206 154
30 8
168 91
100 190
106 156
198 61
248 198
54 45
170 311
266 122
52 94
43 162
79 103
281 12
257 185
256 84
131 254
14 300
154 186
315 184
42 140
89 183
20 137
126 140
274 302
224 223
286 231
225 101
295 91
29 192
256 168
48 272
319 47
278 165
244 208
275 108
48 275
315 32
327 216
169 89
232 80
104 282
52 233
64 216
131 61
253 4
320 103
260 133
222 58
165 318
74 322
140 55
82 27
300 130
149 11
97 329
12 319
105 227
274 155
133 141
53 198
80 260
165 190
211 72
180 76
71 40
179 160
288 305
243 147
12 320
12 88
270 20
88 57
161 101
221 1
218 6
219 139
99 246
62 310
227 228
320 92
10 96
111 317
333 246
25 52
42 253
167 56
271 107
77 286
200 294
53 116
250 186
179 90
229 81
86 202
32 312
203 226
135 170
16 299
283 288
23 154
157 68
176 330
75 7
118 329
291 139
139 207
26 59
178 243
95 65
322 81
86 197
80 96
86 130
140 66
160 144
160 157
314 8
67 135
270 209
199 304
178 186
218 283
112 232
77 187
217 184
123 47
266 206
43 151
255 67
211 208
304 273
86 103
110 224
244 122
189 317
190 30
65 300
326 135
316 120
198 251
260 211
327 319
251 114
20 115
129 89
30 36
39 272
209 259
282 63
239 118
120 333
146 180
198 111
155 161
217 327
182 126
161 42
297 64
53 154
330 307
20 57
249 6
266 154
192 315
238 201
173 31
208 53
280 308
70 190
306 140
291 296
109 2
106 279
84 286
270 243
102 83
144 211
75 204
72 259
318 66
304 6
14 27
157 178
331 323
224 150
75 203
152 176
208 232
98 177
100 225
28 314
16 245
266 110
175 11
326 225
234 125
295 159
156 50
46 330
74 159
265 15
163 82
219 197
139 204
253 94
106 297
215 312
113 103
15 76
123 182
16 49
109 329
30 119
33 67
271 324
324 301
209 293
270 223
193 292
314 232
166 140
3 217
139 241
279 28
261 71
128 264
160 140
295 57
50 28
210 286
323 288
109 97
331 271
173 298
186 269
105 57
67 6
106 101
58 30
106 72
246 42
109 244
130 301
293 281
15 92
202 297
278 116
97 12
34 193
104 235
49 320
12 95
172 41
277 194
27 329
127 50
264 188
178 288
82 204
296 230
183 268
128 155
226 88
22 100
181 296
50 106
144 297
199 232
108 178
266 289
208 215
165 61
261 271
78 263
210 72
280 226
199 229
248 275
70 29
47 8
328 308
239 315
58 303
47 35
176 217
57 228
90 123
91 212
92 217
183 3
296 110
53 119
9 253
223 184
46 45
329 82
334 293
100 283
53 115
278 41
320 254
16 193
152 199
39 85
30 284
133 158
166 43
13 334
181 15
136 76
193 133
170 37
278 206
136 175
93 144
7 130
231 283
333 127
80 106
213 8
66 179
28 98
311 201
157 115
113 331
215 156
71 323
144 268
37 101
161 184
295 294
66 269
190 81
122 42
105 148
308 192
140 249
41 3
162 136
266 81
196 54
37 217
151 80
15 194
65 140
108 41
4 155
280 289
108 142
316 250
18 15
25 83
219 120
257 59
109 313
283 147
67 176
329 234
72 204
271 246
298 98
327 300
111 203
75 289
165 13
133 28
161 116
14 262
65 56
79 207
305 148
190 205
200 119
186 120
43 34
150 60
128 162
66 139
169 283
11 155
231 258
139 217
296 303
91 306
3 37
26 69
147 205
207 14
101 190
293 236
265 260
322 112
280 266
146 10
279 289
76 201
191 198
33 239
59 186
51 187
312 81
188 185
303 270
165 265
285 197
220 276
77 233
32 302
238 49
314 7
141 296
133 108
147 221
272 213
195 42
199 301
104 87
58 57
164 9
174 6
85 328
284 176
26 73
210 289
277 172
244 282
198 174
296 61
217 126
2 67
277 314
243 286
53 41
311 95
7 24
71 255
303 295
22 329
208 183
268 279
227 250
119 90
128 170
271 219
281 5
315 102
15 113
245 259
194 216
10 204
22 310
21 161
67 138
29 186
305 90
280 190
260 158
46 79
127 319
5 12
9 264
317 89
15 41
151 126
277 320
14 127
93 228
178 269
98 14
326 77
186 91
182 186
37 322
264 220
178 58
309 94
47 242
253 36
31 211
94 173
260 92
285 168
269 116
196 42
249 117
21 298
179 82
152 317
203 258
236 26
329 326
276 234
310 35
13 5
25 244
115 289
206 14
208 250
150 318
229 206
38 332
75 12
49 217
191 30
28 100
58 176
289 152
63 155
248 48
223 22
13 295
276 173
267 231
93 114
165 167
185 125
157 106
175 274
212 318
148 287
99 198
107 284
288 90
97 285
209 282
52 85
208 127
208 1
36 38
190 235
18 103
32 180
235 212
159 23
82 199
271 100
224 5
8 33
280 163
122 152
157 103
1 150
282 293
166 230
33 283
27 90
227 332
133 256
208 202
174 249
266 235
317 61
102 101
242 203
61 68
318 140
320 313
198 260
65 120
153 146
204 58
84 158
168 127
64 269
113 96
315 4
24 96
14 107
181 228
24 267
317 28
165 217
303 293
309 28
251 168
114 150
114 91
105 314
197 37
256 100
33 84
81 66
214 11
188 233
298 49
30 13
61 250
206 107
111 184
206 131
238 10
180 319
34 87
195 287
44 309
267 160
36 51
54 117
114 165
322 53
25 280
220 142
333 157
176 35
25 170
265 74
29 31
23 137
119 271
219 181
211 120
199 124
10 188
9 35
264 173
280 14
38 219
53 10
294 190
33 135
301 228
278 38
50 196
73 108
43 175
292 255
190 141
211 14
223 332
280 206
160 194
305 317
21 114
129 171
5 194
231 107
289 316
5 287
55 320
102 27
94 185
116 249
90 291
294 152
40 317
217 211
63 30
96 223
6 109
132 254
156 123
127 150
166 238
50 333
182 261
85 125
297 126
39 309
297 50
83 137
21 64
147 241
121 309
68 20
104 64
272 276
173 85
294 227
172 208
313 131
5 258
31 177
240 303
43 246
209 238
157 306
257 248
7 190
267 241
81 23
245 162
318 79
178 298
295 200
272 257
114 316
283 140
51 24
80 183
312 203
174 67
279 21
3 223
291 82
75 163
17 144
87 312
153 107
106 5
228 197
25 294
202 184
111 183
32 152
62 217
174 143
251 35
126 79
67 218
88 279
56 105
119 194
254 199
307 284
156 160
192 304
93 137
297 41
205 42
144 122
266 92
123 27
307 181
266 322
102 304
249 2
212 256
192 101
71 267
192 262
41 100
303 222
88 87
185 309
197 139
261 118
284 306
202 265
18 316
146 64
214 83
130 304
322 171
23 284
301 194
191 28
38 279
313 278
78 220
297 150
332 79
333 55
297 198
40 331
292 214
32 88
68 250
195 268
17 81
5 226
191 120
177 137
32 246
35 64
35 232
131 238
4 101
272 275
328 216
82 252
254 216
143 66
63 62
172 152
189 10
306 51
21 313
115 19
70 211
197 252
291 37
156 291
200 198
111 89
164 253
77 283
63 28
34 95
29 222
277 165
236 122
156 5
266 68
196 95
194 217
304 174
159 327
100 334
98 184
79 306
260 83
18 204
277 334
145 82
114 178
246 179
184 285
320 137
27 265
318 33
309 108
317 144
14 265
50 252
59 173
14 273
164 101
242 141
286 158
156 298
30 4
139 144
310 329
42 12
4 133
263 310
208 300
139 154
275 73
271 161
42 68
139 203
224 189
46 41
277 177
301 223
236 66
180 145
21 144
31 91
96 144
201 75
296 103
212 133
307 66
298 12
123 51
279 177
247 249
239 259
157 179
260 127
268 172
178 113
282 334
36 80
281 270
296 146
90 139
138 313
229 282
123 50
215 93
308 284
260 194
313 208
293 252
92 284
129 29
55 183
215 217
86 105
249 244
150 146
285 62
162 319
146 160
1 319
287 21
4 286
272 69
107 23
152 100
176 131
98 96
222 8
94 125
80 98
314 106
28 13
200 321
236 277
203 189
301 265
71 84
42 148
251 245
109 100
140 106
308 289
254 98
69 77
92 165
201 274
6 315
253 258
212 119
186 1
221 106
279 93
47 249
60 248
273 237
285 290
123 119
53 303
90 50
309 321
115 331
30 80
47 297
282 72
137 195
115 282
224 57
210 77
51 91
113 213
10 153
187 158
212 147
101 118
192 112
218 191
24 19
147 256
263 121
59 85
80 57
236 140
152 211
63 75
209 314
279 154
115 333
116 322
266 334
149 166
275 69
46 251
145 189
284 318
207 228
53 1
259 20
101 154
180 60
120 243
172 190
80 159
135 92
101 13
325 309
29 47
28 78
83 215
171 293
38 223
177 60
9 208
20 74
289 19
282 74
88 20
26 35
300 165
276 332
179 306
240 54
94 330
176 13
287 3
215 54
71 242
9 260
151 180
53 187
124 235
198 139
298 159
77 84
101 151
40 128
328 111
243 84
126 88
261 189
51 68
309 33
72 137
56 288
48 125
270 129
66 177
217 133
189 133
55 165
173 233
207 65
235 146
325 26
286 323
161 158
98 141
143 162
202 173
34 149
220 234
307 187
158 137
285 13
49 269
315 93
221 287
139 160
297 51
116 124
133 235
79 198
14 119
224 156
174 60
332 42
294 15
328 332
226 287
69 59
78 275
289 177
140 206
227 224
28 205
99 168
328 218
294 45
165 250
315 42
310 246
248 34
110 213
277 246
197 75
288 15
133 323
149 53
294 202
12 87
172 71
315 231
51 152
252 129
31 25
303 115
30 56
271 96
222 190
255 27
140 159
310 79
247 6
29 317
217 118
295 191
289 277
254 266
135 6
262 31
74 203
178 68
268 65
294 86
301 202
157 99
45 14
116 204
91 157
180 156
170 76
112 296
82 151
74 313
14 142
239 267
328 211
172 271
9 139
293 14
224 180
75 199
41 198
137 65
147 127
316 301
36 122
286 239
216 4
210 276
107 307
158 212
219 140
313 310
58 197
221 186
269 4
102 191
211 58
269 256
54 169
126 315
56 306
11 240
36 309
200 50
10 113
199 131
173 325
258 72
197 71
6 97
154 251
50 47
234 263
259 53
93 293
175 161
188 69
311 193
137 190
28 266
207 46
310 6
47 31
151 330
191 68
239 139
289 31
168 301
42 1
177 68
70 294
38 89
74 169
262 219
216 7
29 131
18 186
310 247
103 132
104 298
26 134
190 201
236 232
264 309
210 231
78 188
81 35
310 218
220 125
246 163
98 27
303 197
253 144
42 37
291 15
165 122
236 131
272 85
22 271
29 195
305 67
112 118
306 288
150 222
204 238
134 124
86 282
45 320
187 243
256 33
119 267
101 131
91 46
71 21
314 177
258 226
114 159
52 276
18 181
63 269
193 114
219 308
202 122
19 316
121 69
172 314
213 239
12 308
213 167
164 153
320 29
312 278
35 308
89 289
167 303
137 330
161 35
198 92
94 48
311 288
48 59
280 101
286 278
212 184
187 231
37 319
55 156
200 312
134 3
333 63
221 265
139 76
110 289
15 301
89 181
246 232
75 176
256 15
221 139
232 317
262 319
82 96
252 141
127 165
283 281
159 90
176 160
238 153
82 242
260 225
56 86
216 298
37 191
144 9
138 329
322 104
233 325
109 326
165 212
88 18
312 3
80 154
323 210
217 127
234 94
59 73
132 266
293 65
9 134
68 41
130 1
320 47
31 282
291 232
167 187
155 240
30 53
172 29
88 28
79 80
148 93
211 7
108 220
114 164
216 313
6 62
41 75
9 297
300 67
84 210
111 242
132 90
144 74
157 8
7 280
140 119
101 116
207 96
200 181
70 129
320 293
2 272
116 279
226 145
248 188
250 231
132 177
33 327
271 250
279 79
24 140
209 86
91 209
121 104
53 35
221 199
90 163
308 303
68 200
198 206
202 227
50 164
179 295
261 324
285 203
307 320
310 273
106 107
180 302
52 185
31 109
283 210
284 298
268 126
270 105
16 43
14 80
232 61
261 277
199 107
245 309
245 34
8 15
278 148
192 165
245 274
3 296
288 209
180 238
267 4
145 177
268 8
294 164
171 65
274 240
45 32
157 268
17 127
190 305
253 115
46 323
216 229
281 8
178 293
323 174
327 67
305 216
1 302
99 187
154 91
19 204
241 187
152 222
92 212
186 159
163 232
3 97
291 25
82 206
90 64
68 296
180 96
150 280
63 306
202 307
152 8
104 8
115 91
270 170
2 97
27 68
60 129
257 69
270 137
190 243
141 235
156 290
141 285
280 156
41 296
80 150
178 156
140 151
35 311
215 333
52 78
212 224
246 98
84 104
262 75
333 167
29 28
270 32
278 150
209 33
50 320
84 194
11 281
243 308
70 331
179 21
26 94
253 203
53 65
227 313
178 46
17 74
50 157
168 187
20 311
261 285
294 30
243 256
127 90
178 333
90 61
197 203
153 176
267 187
239 14
3 16
306 29
261 70
106 119
324 30
91 49
138 40
123 173
94 209
216 181
107 154
296 92
153 23
284 82
293 253
230 201
247 118
260 299
111 101
125 59
171 148
156 242
156 268
44 98
37 80
41 213
150 261
201 110
244 118
120 122
307 277
315 37
282 253
277 159
115 298
160 249
99 122
165 161
220 175
198 3
173 39
208 27
282 57
280 12
310 254
256 258
104 180
243 114
15 66
141 10
186 322
128 175
221 28
203 36
193 141
251 148
209 19
20 268
31 291
141 112
194 123
138 72
125 73
330 107
229 163
143 13
3 20
201 140
13 31
1 250
88 64
297 254
252 170
281 117
12 333
9 279
61 176
123 302
304 329
266 157
142 321
105 288
14 21
56 153
129 86
13 8
39 204
219 211
104 176
232 250
144 277
270 120
284 36
23 42
12 154
87 102
255 100
34 155
333 70
68 105
76 16
310 140
220 63
77 4
190 71
111 7
98 178
48 44
106 146
61 223
63 122
40 247
198 16
80 5
45 203
119 23
219 248
280 24
140 98
93 213
170 47
137 215
183 204
214 305
90 156
64 81
164 298
181 331
21 65
145 260
167 269
152 328
242 30
130 334
249 109
295 262
231 88
129 216
124 176
260 262
135 118
15 246
38 34
196 274
39 188
175 149
269 122
137 250
2 165
34 125
131 262
330 302
262 191
216 284
259 270
323 283
25 60
333 47
299 128
187 147
312 317
38 182
258 331
24 161
256 40
139 88
194 296
67 208
283 174
70 51
135 40
254 14
303 131
96 76
233 220
30 60
269 227
243 161
140 288
201 11
141 3
197 141
157 206
202 269
270 61
35 269
36 298
163 303
289 141
139 115
174 218
228 65
88 312
54 201
295 104
6 237
193 165
32 110
233 69
253 202
202 255
65 311
310 170
232 130
307 255
178 273
13 289
239 256
287 330
34 309
21 68
222 49
55 159
23 254
24 229
61 188
332 89
70 153
173 188
213 330
271 183
239 241
117 11
198 119
111 207
73 237
177 204
304 214
269 200
254 183
59 321
227 93
211 122
45 238
21 75
281 334
279 31
90 246
299 117
70 50
86 259
283 90
146 315
205 307
325 143
289 80
228 25
3 187
79 88
124 9
103 291
110 318
10 302
292 323
262 332
21 56
249 101
78 53
145 83
2 202
111 145
25 129
9 202
110 106
230 170
102 312
313 232
334 222
318 271
27 320
272 108
200 49
13 172
125 78
95 128
306 27
126 33
193 80
236 40
264 125
192 28
273 146
154 141
87 132
287 178
123 139
252 90
72 186
29 179
277 313
266 202
3 242
225 40
241 283
248 292
170 320
144 166
297 268
193 128
297 201
92 282
78 321
235 38
102 242
53 255
89 35
121 85
176 317
266 14
232 37
8 123
277 1
226 313
29 274
118 177
290 203
3 140
47 186
31 162
30 268
310 289
55 64
227 208
313 217
233 121
282 270
98 92
91 61
254 68
139 282
187 315
286 133
19 37
184 17
30 269
50 35
2 100
7 192
88 36
19 294
9 221
46 145
191 103
49 231
42 217
20 89
16 196
60 112
228 156
326 2
207 126
140 167
163 119
58 131
33 277
13 156
287 268
20 197
35 179
28 306
36 18
305 169
73 48
78 257
319 134
75 232
297 81
67 62
316 318
112 319
38 167
331 208
163 9
137 204
154 30
221 254
327 252
4 9
44 69
258 290
77 293
205 194
239 71
217 152
17 277
180 182
314 258
184 328
266 107
145 35
327 267
56 282
71 148
294 253
88 151
252 99
10 293
47 45
159 305
66 35
141 145
159 176
159 49
130 226
237 218
112 266
66 49
10 214
4 280
162 257
286 71
9 325
134 64
154 301
19 197
302 187
26 234
206 166
134 192
217 307
179 79
182 227
156 33
138 249
172 126
65 130
134 177
124 305
178 79
136 128
228 293
188 52
293 187
83 12
48 142
95 240
261 302
308 101
66 308
190 299
110 66
186 132
142 233
257 263
292 328
127 209
193 170
280 88
59 220
72 97
189 183
88 115
108 187
297 18
250 329
101 269
261 278
250 202
259 178
186 308
298 333
99 261
7 278
186 328
277 9
56 284
33 38
248 39
285 242
9 72
317 25
126 328
103 266
240 209
133 231
299 295
157 104
13 181
161 222
124 140
267 84
181 268
251 151
80 274
308 319
104 115
97 70
182 148
153 66
288 252
1 164
178 30
229 168
141 318
147 327
49 328
7 285
88 224
260 157
195 83
105 290
83 295
217 17
10 314
115 64
36 315
254 271
90 133
206 320
218 273
81 53
158 238
319 219
252 114
66 293
259 180
21 42
330 329
93 175
175 201
133 312
88 222
328 159
269 214
18 208
284 8
219 103
103 33
164 55
312 326
182 238
306 3
241 202
19 45
21 37
163 61
110 207
322 154
60 200
155 93
55 301
163 328
317 295
314 302
112 194
124 81
14 134
100 244
103 47
63 49
205 41
131 148
131 116
288 65
316 35
40 22
306 313
180 19
281 163
181 98
150 91
215 261
265 113
316 284
109 304
101 110
246 269
189 168
170 43
226 7
264 44
16 143
135 140
40 12
152 251
96 67
41 289
89 218
224 313
284 291
16 156
29 90
84 251
157 7
105 24
306 266
300 53
299 162
108 69
150 141
178 169
50 291
171 198
286 315
312 221
77 71
266 217
2 92
135 255
85 286
123 152
307 169
76 143
257 169
122 32
280 119
285 111
90 318
174 165
273 109
5 331
12 35
77 222
320 183
158 86
47 119
206 307
202 17
106 284
129 296
271 297
278 332
14 113
56 300
294 55
298 88
213 64
330 28
47 82
169 286
198 194
310 104
102 224
137 92
144 301
92 50
221 63
107 270
276 110
17 221
22 67
207 21
324 1
159 254
152 146
165 284
8 164
301 112
281 42
172 42
95 43
150 53
278 189
29 289
317 163
217 205
108 128
310 1
92 107
184 157
207 1
301 110
86 41
71 216
217 113
209 224
268 37
85 248
35 221
281 54
158 167
60 102
302 83
198 18
15 299
168 89
113 27
25 93
315 7
190 29
107 110
206 258
320 145
199 182
35 152
50 205
288 130
90 13
155 196
261 72
326 247
31 66
83 255
27 88
303 275
221 81
329 315
207 10
203 318
261 109
128 194
297 308
144 200
43 245
316 328
20 206
123 113
178 20
169 160
151 8
223 261
48 39
45 277
156 266
156 83
317 46
115 202
130 68
293 288
227 193
29 45
9 21
326 62
61 264
38 72
22 135
23 205
250 172
216 126
94 39
13 177
225 138
61 63
200 3
45 246
271 23
298 294
164 313
192 119
202 236
70 208
46 286
114 192
143 172
133 327
286 305
196 117
261 96
212 71
133 17
319 150
149 128
254 164
311 206
93 282
147 133
110 216
325 121
314 243
159 237
137 131
217 293
133 77
70 232
284 192
177 297
5 289
61 269
97 194
318 49
104 213
36 165
5 99
303 217
291 83
324 287
35 271
192 180
88 143
60 219
320 133
21 178
41 180
325 85
176 280
116 221
151 242
101 28
231 320
59 275
220 121
300 36
282 281
105 156
208 51
95 16
99 37
219 158
8 35
111 99
161 172
204 161
79 98
107 35
228 288
67 129
251 280
113 126
269 331
148 282
219 323
132 41
173 321
307 287
39 265
318 106
241 84
181 199
124 114
33 208
117 274
231 327
72 13
13 227
21 148
296 197
204 236
172 297
13 107
38 19
150 285
214 274
65 55
34 311
202 313
215 41
143 155
66 40
60 202
149 214
152 131
82 305
322 64
323 92
186 28
157 270
146 189
118 195
56 260
17 45
235 213
316 153
183 287
296 297
333 88
9 160
197 114
85 108
321 69
174 273
40 325
271 25
253 301
25 18
108 276
126 285
138 304
49 9
110 105
296 120
270 187
54 97
198 45
185 192
140 286
291 72
192 79
79 224
11 162
242 99
303 63
134 288
285 5
184 66
184 331
174 93
185 78
167 33
135 174
9 135
102 266
180 159
323 175
170 292
184 141
175 54
20 317
242 24
148 68
222 229
135 304
40 16
91 251
207 302
234 85
251 224
159 61
321 74
332 251
309 272
150 324
244 138
254 236
261 179
68 240
279 182
68 294
144 118
7 106
271 1
97 236
183 83
280 243
36 314
89 85
107 295
129 195
311 320
254 313
1 286
78 325
17 1
255 218
320 149
285 252
310 193
56 228
27 204
160 316
98 205
307 178
312 96
20 120
20 217
37 92
37 262
324 116
100 118
292 245
312 2
45 120
205 103
80 200
157 308
190 12
12 37
36 82
285 29
81 134
240 175
287 267
48 213
34 166
46 87
32 177
243 42
253 41
51 268
229 232
74 21
239 210
222 17
207 23
79 278
328 181
66 105
265 291
316 314
132 89
214 67
7 281
122 43
170 329
137 113
260 113
272 220
35 189
23 251
245 240
37 333
46 160
333 15
199 29
259 216
176 32
169 77
23 291
46 195
153 180
124 8
144 91
45 269
285 310
186 330
252 102
65 182
8 134
219 157
184 93
16 54
313 211
191 129
105 171
69 264
23 112
253 198
133 38
148 130
75 167
9 31
270 334
202 18
197 99
8 79
242 313
272 173
74 181
93 14
147 4
107 192
206 51
167 135
322 185
204 280
207 145
50 110
313 23
195 258
65 328
197 279
227 262
257 138
209 228
308 57
314 70
5 203
257 234
110 326
38 64
230 16
108 233
115 124
186 156
215 219
37 328
28 19
142 185
224 261
83 190
98 306
152 105
13 158
27 127
74 33
80 165
224 25
18 285
323 103
38 148
224 271
209 79
334 101
90 92
96 202
26 48
322 165
220 94
52 55
254 312
318 123
65 148
206 123
168 271
65 57
280 287
209 281
282 212
131 32
51 86
283 98
330 320
221 119
302 282
245 306
41 2
286 12
235 303
225 247
158 241
307 41
82 222
313 298
324 295
140 90
230 301
237 115
237 22
232 102
227 234
189 213
102 184
49 1
41 331
262 88
182 287
220 321
210 211
79 302
131 162
248 69
308 203
97 304
15 334
249 118
122 31
186 259
31 114
81 103
332 224
147 329
155 16
127 213
99 49
148 17
121 52
31 32
71 315
238 140
5 251
303 176
28 219
288 7
313 330
271 209
12 157
288 215
49 208
260 328
261 19
280 229
251 165
75 15
211 204
298 80
19 92
28 119
266 194
198 164
78 73
295 181
161 261
46 265
197 17
314 132
154 89
235 322
5 199
15 307
50 99
140 169
5 34
226 41
316 252
286 21
89 63
104 212
276 28
234 218
112 287
289 129
274 143
106 252
334 242
229 82
54 95
174 97
85 104
265 168
224 75
207 266
274 11
67 12
256 283
228 305
328 178
110 19
183 302
111 42
70 163
322 134
113 210
298 303
271 180
311 43
120 62
103 223
294 250
181 320
53 301
199 256
322 182
154 132
250 178
5 46
148 172
163 45
80 32
116 112
224 302
154 216
67 49
330 162
260 312
303 82
37 308
48 188
78 234
65 251
208 164
31 260
37 88
154 7
32 326
132 129
201 43
291 30
328 114
53 29
162 230
292 43
70 159
79 116
51 219
27 191
178 306
77 205
178 282
100 249
168 290
37 159
77 298
87 129
111 141
292 93
223 146
223 327
196 284
95 229
221 65
253 278
313 239
127 215
67 326
158 315
94 85
14 250
249 326
137 29
79 284
196 292
202 91
107 254
115 116
112 324
188 263
221 217
268 70
86 99
72 328
113 191
36 334
191 19
153 128
119 320
59 89
45 222
45 90
20 179
195 11
33 105
106 49
102 80
211 33
59 233
262 275
3 88
163 43
247 67
137 88
43 143
36 47
323 205
64 70
113 80
221 232
23 298
326 165
66 291
212 294
18 246
96 332
232 139
33 48
84 186
222 204
139 127
140 14
178 110
111 226
220 325
284 103
117 55
334 228
298 279
284 269
161 31
270 56
10 124
262 25
152 68
30 112
134 320
249 316
157 328
24 199
22 174
285 135
160 67
100 197
222 251
257 220
288 4
279 235
165 47
297 169
81 112
70 330
208 61
80 291
150 124
223 207
331 197
87 191
88 318
272 26
132 315
195 124
158 283
261 153
72 148
36 280
21 140
290 177
25 74
15 31
317 164
283 228
64 285
292 51
7 199
159 150
14 183
294 115
17 8
155 54
25 130
165 81
10 41
50 33
206 87
231 82
304 166
219 32
10 19
174 116
167 66
13 184
53 171
298 314
202 167
199 193
62 100
103 112
20 295
17 194
48 263
199 280
42 270
305 7
334 221
125 39
52 325
129 102
110 287
47 291
187 210
220 275
179 57
268 71
180 299
81 195
2 281
74 28
324 231
121 125
239 327
63 17
51 111
35 178
152 196
284 190
139 27
261 207
3 258
222 163
82 183
176 143
134 1
176 47
264 78
223 32
164 61
141 42
10 186
206 101
51 120
266 41
302 278
139 41
159 17
181 291
329 21
184 129
26 173
140 284
284 178
39 59
214 245
98 33
123 229
262 303
65 116
299 136
70 284
305 227
140 41
245 318
113 333
182 189
4 283
320 294
176 99
295 72
194 99
53 160
238 96
265 23
122 79
35 289
92 305
116 232
47 229
284 48
20 204
296 216
81 243
37 167
46 84
49 101
259 224
132 235
61 247
170 166
102 290
264 272
39 44
6 244
84 235
63 156
174 175
116 14
243 141
165 313
183 260
157 244
210 243
228 29
71 81
23 221
305 303
91 1
64 164
59 94
274 76
97 62
323 326
254 80
318 137
167 196
33 147
25 242
81 137
171 209
56 208
251 211
182 39
297 27
294 266
106 126
43 230
261 20
203 99
201 193
113 176
3 51
171 249
86 334
226 164
166 274
243 307
40 100
279 288
32 96
256 104
182 10
161 178
114 20
106 68
238 207
273 32
314 119
71 215
62 109
251 107
145 267
161 60
322 150
5 242
1 245
263 142
182 85
98 242
280 207
16 149
291 249
202 21
190 50
267 77
28 107
51 165
120 79
164 72
249 81
127 49
123 191
136 143
59 121
31 79
104 160
249 312
54 162
200 190
47 41
324 298
170 332
140 165
145 182
131 163
106 103
293 62
180 197
332 68
240 24
139 302
37 294
315 283
291 194
52 26
313 194
116 98
215 139
14 223
192 191
222 64
308 271
195 66
151 99
30 192
285 107
170 50
11 132
178 222
113 21
230 11
111 168
108 265
60 134
212 4
212 231
36 55
311 333
209 231
241 169
12 312
3 98
304 40
170 85
105 316
171 82
295 269
115 334
27 280
219 127
56 197
327 256
178 72
236 30
114 97
99 178
176 63
239 304
126 107
223 206
7 70
162 149
174 80
300 112
40 6
128 90
206 178
126 47
128 201
277 303
152 330
50 295
38 181
247 97
132 307
235 297
213 134
72 307
179 328
319 170
82 123
148 103
330 145
262 312
37 290
177 56
311 245
168 144
189 259
197 185
253 305
89 114
218 118
111 60
131 168
20 224
258 99
139 133
197 47
31 55
72 36
23 134
38 189
96 7
41 32
168 37
163 231
88 174
80 333
90 91
174 299
218 110
155 301
147 40
288 259
20 14
25 58
155 299
259 93
56 130
159 46
206 74
322 213
121 188
270 23
59 142
174 286
277 126
211 284
23 123
20 291
19 189
6 230
290 181
324 246
64 318
277 301
326 22
186 273
171 228
122 15
248 309
207 281
260 119
193 214
143 292
248 125
160 250
227 47
141 236
169 84
82 46
45 109
137 165
90 134
133 181
198 271
303 178
198 82
214 143
51 144
178 159
22 138
286 182
45 18
131 204
290 50
236 308
114 14
23 88
207 182
173 125
66 171
212 254
308 265
315 128
155 95
271 50
7 92
41 317
21 36
137 159
49 176
145 96
170 51
146 302
172 107
212 241
253 252
195 148
124 307
220 48
192 80
259 283
265 129
300 318
47 250
21 132
235 115
50 137
167 22
123 77
279 322
327 212
206 127
113 221
221 262
133 308
199 68
56 263
97 116
35 148
82 302
161 290
88 83
89 34
104 91
197 3
334 301
77 33
129 77
229 58
177 254
330 219
235 195
4 103
323 256
270 305
158 87
265 100
151 165
216 146
286 306
294 157
52 264
312 129
16 292
254 328
89 60
203 184
225 75
64 126
58 106
195 114
50 13
146 258
235 63
189 96
17 288
182 146
79 55
194 101
22 244
170 95
260 279
209 65
66 220
277 82
231 247
213 115
45 287
317 280
221 61
72 288
156 74
279 222
115 191
225 193
172 72
145 120
319 209
21 229
146 32
258 215
236 318
276 264
20 162
269 56
28 262
262 107
291 184
192 211
236 46
315 77
215 60
299 245
334 184
232 277
7 318
308 23
35 238
156 314
99 38
135 180
6 115
119 82
209 53
89 223
14 228
65 31
70 221
158 239
297 307
112 104
8 14
28 232
236 151
20 113
259 293
312 195
252 41
195 236
29 151
326 273
140 266
14 124
113 228
112 213
104 238
23 267
82 297
8 36
54 274
45 160
323 182
151 64
39 264
97 156
292 311
198 295
254 197
158 333
195 221
309 233
298 84
279 278
217 265
188 275
226 330
27 192
216 118
200 266
8 260
88 232
243 323
46 295
192 103
87 83
137 217
17 269
290 204
7 168
166 292
206 45
284 289
10 14
95 11
46 23
19 323
260 217
144 41
24 58
45 239
83 191
27 152
111 82
180 273
98 329
140 161
186 55
183 175
92 277
205 25
9 80
50 168
106 120
160 58
30 183
258 116
310 135
246 180
72 217
320 151
300 270
17 279
288 300
308 320
221 68
272 271
167 164
194 14
199 195
147 134
64 308
130 184
308 287
253 207
93 284
295 261
175 34
195 301
227 12
63 110
303 172
297 206
114 67
89 83
124 324
235 86
126 194
51 271
96 262
113 316
57 305
302 100
140 112
140 86
232 184
314 186
51 116
250 328
178 268
255 329
181 211
12 197
173 234
303 139
16 145
117 155
308 144
229 68
320 238
229 201
310 50
301 114
83 268
81 110
121 39
141 330
208 305
293 56
242 101
203 198
99 222
69 94
225 5
25 89
318 98
24 90
242 314
210 33
287 91
238 178
194 159
216 50
129 161
213 258
95 201
99 165
46 139
55 51
204 63
83 112
205 151
243 169
111 293
259 56
199 224
208 86
270 131
112 326
231 71
270 293
97 237
57 1
25 181
326 92
308 91
102 16
70 127
51 119
68 88
316 9
214 170
16 128
177 303
219 278
118 212
129 72
99 294
50 62
296 252
204 272
195 87
42 313
274 230
72 37
58 123
66 41
137 53
64 3
132 284
33 243
198 9
245 196
77 68
67 109
218 28
156 320
161 206
257 264
297 251
185 276
307 273
210 171
318 144
151 308
211 254
95 135
20 13
7 184
42 301
8 158
48 78
104 179
106 333
212 143
63 165
291 12
331 99
151 202
146 278
64 301
77 212
163 224
12 177
130 259
94 44
181 314
99 31
225 273
229 250
195 289
265 296
274 289
271 277
308 70
198 243
179 258
138 97
43 318
14 118
227 303
228 137
242 251
301 152
140 139
319 122
320 87
131 285
120 217
155 92
329 183
86 57
32 260
223 8
184 120
202 209
14 90
155 149
106 226
295 167
167 246
93 308
147 194
63 27
221 66
157 139
125 108
147 331
114 119
163 110
178 246
217 55
25 79
196 175
51 251
203 208
215 194
323 187
103 9
81 150
332 65
266 33
183 157
55 72
252 92
157 284
68 113
175 245
313 126
81 219
3 5
237 118
214 177
203 126
230 175
80 307
238 5
57 217
137 156
149 190
300 179
206 199
57 150
197 242
140 46
66 213
306 159
36 204
6 188
64 330
270 109
22 273
235 105
22 111
193 155
110 79
268 122
315 33
37 38
64 219
299 311
216 279
177 41
61 4
61 254
25 127
62 135
154 120
253 208
79 54
154 131
242 260
120 28
21 241
311 196
227 75
252 297
259 148
56 286
30 98
30 262
58 16
215 129
114 30
60 146
181 105
102 286
175 311
303 18
205 232
198 110
79 163
171 259
240 201
126 42
4 36
334 54
251 228
4 251
279 23
263 39
179 27
178 80
46 333
144 124
17 271
150 301
295 266
103 51
253 103
112 58
286 317
49 221
72 306
283 327
85 276
21 86
322 68
217 242
76 118
253 216
16 166
207 168
118 62
313 80
260 47
50 323
174 164
281 127
9 333
112 318
74 70
35 330
35 84
266 84
172 269
133 246
122 20
270 87
261 10
149 299
72 70
132 331
216 156
40 246
217 247
53 211
36 13
185 59
29 88
211 179
222 24
246 74
175 214
249 223
184 79
153 114
295 260
70 12
210 132
147 207
106 150
242 253
278 310
171 164
116 262
201 299
166 155
63 292
304 260
333 24
98 104
117 202
237 174
70 301
307 87
134 128
113 152
171 46
284 266
322 324
50 111
316 42
162 180
81 115
201 34
118 109
281 315
24 82
205 330
327 49
118 22
116 154
5 172
116 218
135 2
167 137
334 91
180 328
39 304
225 156
298 37
308 191
328 74
126 266
285 57
51 287
243 77
277 215
141 290
254 301
150 45
280 254
136 311
165 29
134 45
195 223
184 290
176 262
122 119
195 168
204 14
70 23
209 57
253 229
266 277
77 12
132 265
46 172
294 333
312 320
87 332
268 328
71 156
127 101
314 219
132 47
315 30
189 32
187 70
54 193
111 287
34 136
126 298
49 30
214 136
333 308
225 249
182 284
179 205
320 258
287 312
260 301
20 161
136 133
39 234
102 138
304 100
9 195
213 39
12 32
293 86
93 195
301 71
158 147
244 329
115 317
298 328
266 309
304 218
313 36
253 226
153 172
62 237
159 251
86 89
65 51
217 29
177 37
29 126
52 309
310 304
221 203
105 53
133 128
41 45
266 145
181 32
255 249
3 208
288 326
39 276
95 292
182 13
97 118
96 226
25 138
163 42
191 12
287 141
207 130
190 223
308 172
110 102
205 165
43 85
119 177
57 130
127 254
34 16
324 32
296 333
217 121
83 186
123 251
249 135
297 219
202 126
27 239
127 272
38 126
13 303
271 88
162 201
328 265
329 67
24 120
15 135
219 74
245 54
324 319
307 319
167 98
167 268
279 22
71 68
282 130
81 235
31 225
60 195
300 13
13 74
177 318
130 91
214 240
209 192
101 324
53 328
145 80
181 225
2 77
144 81
160 261
254 70
64 66
200 4
262 305
328 29
276 29
137 140
10 317
313 107
11 299
196 193
46 294
178 313
74 279
79 315
207 278
73 185
18 289
217 182
259 228
142 39
244 225
42 167
220 185
177 81
109 247
236 21
151 28
247 329
209 105
164 278
225 77
268 219
246 118
84 323
287 14
261 15
105 26
167 306
222 260
83 316
259 161
15 150
103 213
231 158
290 226
105 281
135 225
140 150
261 102
261 146
204 310
104 17
112 4
33 165
230 193
141 258
140 29
276 121
124 51
308 258
145 25
39 321
308 102
291 123
111 258
113 9
67 40
37 279
313 318
264 149
318 21
250 221
333 189
123 211
221 247
236 126
170 155
215 68
118 23
126 262
250 88
224 160
89 102
77 223
221 95
243 10
1 243
256 314
168 21
101 139
105 293
8 165
229 66
35 279
81 79
72 271
172 242
198 183
298 307
215 260
301 36
254 241
66 72
330 23
146 88
308 246
309 257
297 199
71 210
231 265
29 298
78 309
330 88
231 146
79 252
77 231
51 99
211 308
31 267
303 319
14 46
253 105
202 331
258 20
190 308
154 83
273 271
39 275
123 330
272 207
245 230
31 277
20 250
279 7
286 256
303 32
206 83
164 154
297 72
330 192
141 308
3 111
86 270
163 53
161 58
218 76
62 304
303 211
183 101
26 78
292 76
2 118
167 17
322 316
300 92
96 167
157 165
333 179
214 117
131 114
3 226
40 244
238 189
64 49
324 290
14 120
208 278
155 136
79 176
138 255
23 8
63 262
76 155
65 105
64 13
186 164
166 253
139 37
281 57
161 130
254 279
137 302
193 1
219 172
54 292
50 314
68 165
300 189
229 160
186 268
23 286
119 64
31 14
70 147
191 25
106 61
103 23
230 143
44 325
201 63
129 288
114 68
213 324
298 260
43 36
85 263
330 68
267 283
299 76
303 33
89 330
30 27
294 42
104 273
275 85
48 309
41 316
264 59
63 67
291 217
57 163
148 322
32 53
92 35
57 279
271 61
40 329
299 166
93 68
297 317
198 88
34 18
125 276
250 205
60 194
7 53
44 85
269 88
79 262
28 236
55 285
23 132
189 204
11 196
208 83
209 152
248 276
83 211
3 119
303 4
141 267
221 157
231 152
236 59
88 241
66 330
232 46
49 265
83 177
163 191
4 256
4 229
250 63
67 149
5 117
57 71
217 64
146 165
218 100
271 174
65 169
78 75
43 299
138 273
72 58
70 266
33 212
233 125
138 310
75 98
321 73
232 101
101 231
150 6
202 210
200 67
307 127
327 229
92 114
159 24
20 303
210 158
189 132
212 242
251 1
45 323
231 217
126 20
170 16
57 249
271 91
107 12
251 72
