*Vertices 334
287 "#148"
257 "#16"
36 "#14"
170 "#272"
297 "#191"
228 "#294"
158 "#235"
142 "#278"
58 "#211"
88 "#63"
66 "#295"
49 "#283"
328 "#83"
272 "#247"
62 "#49"
32 "#236"
236 "#180"
47 "#260"
45 "#259"
65 "#240"
89 "#70"
229 "#323"
25 "#38"
198 "#32"
43 "#164"
73 "#45"
306 "#204"
194 "#187"
289 "#314"
254 "#196"
322 "#257"
166 "#316"
181 "#239"
104 "#184"
309 "#218"
120 "#59"
78 "#36"
77 "#17"
331 "#5"
149 "#26"
63 "#232"
9 "#50"
176 "#167"
112 "#143"
38 "#208"
14 "#100"
75 "#155"
301 "#189"
131 "#177"
182 "#181"
295 "#108"
156 "#264"
279 "#157"
317 "#10"
264 "#64"
134 "#302"
300 "#304"
318 "#1"
311 "#42"
223 "#21"
241 "#156"
135 "#300"
302 "#224"
20 "#65"
160 "#331"
102 "#252"
109 "#207"
81 "#233"
291 "#135"
116 "#43"
211 "#149"
237 "#47"
271 "#293"
148 "#268"
231 "#214"
333 "#116"
35 "#27"
82 "#28"
153 "#126"
146 "#213"
141 "#223"
216 "#3"
326 "#151"
71 "#145"
29 "#178"
3 "#197"
86 "#29"
230 "#162"
28 "#92"
119 "#267"
203 "#85"
42 "#256"
177 "#310"
22 "#279"
125 "#333"
95 "#121"
151 "#281"
84 "#217"
162 "#107"
143 "#20"
235 "#265"
330 "#57"
79 "#140"
288 "#160"
270 "#297"
53 "#176"
27 "#195"
69 "#185"
324 "#51"
64 "#73"
327 "#238"
243 "#119"
258 "#319"
39 "#202"
127 "#96"
305 "#46"
179 "#169"
319 "#179"
100 "#244"
157 "#56"
97 "#91"
253 "#250"
33 "#105"
37 "#147"
220 "#8"
98 "#118"
171 "#106"
87 "#15"
93 "#138"
106 "#299"
56 "#287"
247 "#22"
192 "#318"
206 "#262"
145 "#34"
139 "#263"
138 "#284"
256 "#61"
248 "#277"
217 "#215"
180 "#25"
265 "#37"
72 "#127"
144 "#123"
325 "#193"
167 "#307"
294 "#102"
126 "#200"
213 "#271"
214 "#286"
52 "#94"
34 "#290"
26 "#274"
130 "#113"
269 "#261"
136 "#292"
124 "#54"
296 "#152"
41 "#212"
108 "#222"
31 "#39"
293 "#93"
175 "#298"
260 "#308"
255 "#40"
320 "#220"
285 "#78"
117 "#186"
70 "#7"
219 "#203"
121 "#6"
67 "#130"
261 "#101"
74 "#68"
284 "#19"
225 "#242"
30 "#210"
46 "#154"
68 "#270"
313 "#77"
197 "#227"
1 "#75"
172 "#165"
286 "#289"
55 "#206"
11 "#273"
290 "#190"
334 "#225"
103 "#255"
122 "#33"
99 "#201"
222 "#183"
105 "#84"
50 "#305"
168 "#120"
163 "#198"
133 "#226"
76 "#122"
321 "#115"
232 "#245"
2 "#110"
329 "#327"
268 "#131"
201 "#170"
48 "#229"
85 "#128"
154 "#243"
91 "#248"
140 "#171"
129 "#97"
111 "#95"
107 "#30"
196 "#282"
60 "#230"
277 "#174"
123 "#87"
21 "#62"
314 "#103"
298 "#306"
234 "#150"
245 "#80"
283 "#69"
114 "#82"
185 "#114"
204 "#322"
273 "#205"
227 "#44"
178 "#141"
238 "#320"
316 "#329"
187 "#125"
128 "#146"
292 "#168"
280 "#253"
307 "#66"
221 "#228"
226 "#231"
165 "#0"
94 "#132"
83 "#24"
18 "#258"
308 "#58"
118 "#192"
250 "#280"
92 "#313"
96 "#246"
137 "#23"
212 "#303"
210 "#99"
19 "#48"
240 "#60"
132 "#291"
13 "#71"
267 "#266"
188 "#79"
54 "#285"
115 "#173"
44 "#324"
312 "#311"
315 "#325"
224 "#221"
209 "#2"
239 "#12"
150 "#52"
101 "#53"
59 "#159"
205 "#86"
207 "#31"
200 "#41"
281 "#142"
186 "#209"
189 "#309"
40 "#332"
215 "#249"
152 "#166"
303 "#117"
169 "#139"
304 "#137"
155 "#136"
262 "#234"
246 "#13"
276 "#81"
90 "#111"
266 "#312"
249 "#182"
259 "#35"
332 "#296"
202 "#109"
233 "#72"
10 "#158"
80 "#90"
275 "#254"
61 "#88"
244 "#301"
5 "#76"
282 "#67"
174 "#129"
8 "#55"
17 "#163"
299 "#172"
113 "#11"
218 "#269"
159 "#18"
7 "#153"
193 "#317"
23 "#144"
6 "#112"
190 "#194"
242 "#276"
278 "#175"
208 "#188"
161 "#9"
263 "#251"
274 "#199"
12 "#4"
4 "#133"
323 "#219"
16 "#124"
252 "#275"
310 "#315"
110 "#326"
24 "#161"
51 "#330"
15 "#216"
199 "#321"
195 "#98"
147 "#104"
164 "#89"
191 "#328"
57 "#74"
251 "#288"
184 "#134"
173 "#241"
183 "#237"
*Edges
154 133
80 78
90 130
302 65
210 255
75 67
308 14
14 153
168 314
292 39
210 314
37 61
255 14
71 65
188 308
193 166
250 214
309 148
278 231
116 326
18 275
262 32
44 199
27 254
241 234
287 234
324 209
37 211
253 54
27 30
310 323
306 23
314 255
117 251
65 234
102 30
333 76
3 175
116 17
243 268
200 21
186 275
295 48
165 281
267 235
334 194
332 270
137 29
174 71
133 249
47 91
293 210
183 63
219 273
281 95
296 261
241 255
171 76
136 7
325 33
163 325
222 90
116 283
327 187
178 105
112 140
246 16
248 136
281 227
296 65
274 33
79 63
184 118
275 295
113 124
73 164
324 127
309 226
235 254
220 239
129 292
172 241
308 117
266 260
303 52
72 62
64 239
247 295
90 111
215 24
228 54
41 232
95 291
140 202
236 117
129 62
311 24
68 69
69 131
187 16
137 247
46 195
71 7
327 69
232 32
104 140
79 10
299 273
127 123
224 292
288 171
186 94
130 168
68 131
104 46
79 292
14 52
291 172
147 6
171 208
94 15
72 127
146 15
22 106
6 185
129 130
129 234
243 83
312 298
295 27
285 105
194 290
195 211
153 55
204 260
208 38
332 128
105 137
118 168
208 301
115 59
246 241
219 34
306 49
6 216
248 244
186 93
202 46
179 91
247 9
59 84
172 233
40 189
334 224
101 233
171 5
235 183
81 156
275 196
153 231
4 27
283 123
334 206
81 221
176 99
143 313
12 174
224 325
47 66
181 173
128 16
180 82
101 276
323 153
178 76
235 179
319 118
108 179
128 268
313 276
80 121
57 107
104 188
274 118
128 296
153 45
90 194
1 317
59 104
61 317
172 17
251 242
227 247
104 230
178 117
194 326
63 75
59 108
62 239
320 81
141 266
109 275
245 6
284 12
54 320
85 139
206 275
66 248
168 155
163 202
241 59
178 71
206 268
176 151
208 314
132 46
22 271
118 15
213 93
107 62
118 34
158 225
211 79
99 215
160 299
224 221
203 2
36 265
222 280
133 59
200 201
93 292
79 163
57 246
17 55
173 288
212 300
273 334
43 176
272 23
3 242
243 171
123 128
287 30
302 146
268 31
189 125
194 211
253 141
233 57
32 148
17 112
231 327
113 62
69 243
141 280
140 304
226 173
41 85
14 133
174 3
297 246
175 279
237 101
259 305
131 140
140 96
28 17
308 113
26 135
118 226
110 329
47 92
85 211
314 295
59 279
65 154
194 147
1 21
24 279
237 294
123 120
275 134
202 93
196 135
242 154
301 79
174 2
173 63
30 141
306 118
3 249
24 144
323 211
307 208
238 286
93 299
198 301
28 71
314 241
188 27
195 249
217 183
135 3
279 292
190 219
326 294
27 91
187 94
184 168
103 253
58 303
17 24
123 137
183 232
178 172
151 134
195 208
170 322
79 132
324 150
62 233
325 133
79 291
52 187
141 99
306 256
175 54
183 226
287 145
239 28
199 160
196 270
158 24
333 220
16 129
112 116
126 301
301 273
237 281
28 150
174 299
117 3
146 140
311 230
151 138
277 295
225 262
64 305
305 165
300 316
148 109
260 212
280 130
144 321
130 114
16 116
155 67
34 235
106 3
204 329
291 174
51 312
175 134
246 107
307 76
118 279
327 232
83 78
3 163
169 105
71 158
163 10
119 42
48 299
130 23
328 281
231 249
35 264
38 152
40 167
292 84
34 135
26 100
279 226
59 184
63 235
217 55
54 138
75 208
131 124
27 39
57 178
251 47
147 115
132 22
178 8
21 305
249 22
176 75
172 290
137 288
334 100
72 71
131 65
288 321
325 190
191 316
293 52
307 3
37 39
273 319
97 302
152 263
281 234
2 236
152 133
296 146
269 22
140 256
186 91
91 226
3 322
317 88
113 220
263 280
264 237
329 226
168 306
144 153
79 135
98 201
94 153
240 188
147 16
27 287
141 75
286 68
84 176
289 266
334 186
212 329
204 312
295 9
38 108
226 93
244 186
196 271
268 153
16 122
37 231
316 189
174 131
166 191
230 53
27 273
319 140
195 279
254 274
61 274
41 148
29 84
99 306
194 155
211 163
178 283
246 86
177 51
246 80
93 85
97 237
295 135
270 214
51 298
137 2
233 317
18 170
181 91
15 243
75 85
271 302
17 154
146 291
138 236
194 170
69 164
298 212
115 303
22 322
299 27
178 107
236 194
320 224
27 244
210 180
133 30
305 107
168 172
121 116
1 128
324 83
151 115
141 154
77 188
261 178
170 93
291 179
146 243
198 122
154 91
275 253
252 33
279 230
174 1
76 234
189 252
141 116
274 81
225 173
144 296
62 161
235 131
65 272
248 131
82 69
14 249
167 316
105 82
86 159
252 323
197 102
75 297
266 92
59 288
3 301
150 288
241 7
156 310
96 306
281 53
179 55
304 262
117 100
318 62
243 211
61 2
320 303
191 260
173 221
33 291
38 69
231 22
152 195
89 117
202 278
75 200
39 290
11 213
90 247
247 130
205 35
184 309
178 64
222 188
252 222
201 14
159 19
217 155
10 85
204 315
153 292
188 89
231 334
288 221
198 82
251 232
7 129
68 309
90 330
176 38
88 21
255 318
55 119
198 317
131 5
266 125
41 334
84 279
39 66
3 118
127 155
189 280
294 318
4 99
106 213
126 109
285 313
171 255
131 232
237 12
261 245
65 183
286 211
227 311
84 37
85 120
61 288
287 293
11 133
13 133
184 128
222 26
29 140
190 46
103 332
291 293
33 10
276 243
265 77
300 92
33 186
157 1
176 238
116 14
182 277
287 268
200 157
208 95
152 296
94 219
215 169
141 10
32 60
270 141
234 136
30 277
201 291
281 314
164 261
201 53
118 244
37 291
29 319
188 276
79 296
175 119
225 268
280 160
68 34
93 176
29 288
93 135
140 327
46 279
319 333
109 14
69 130
102 253
331 293
85 268
169 60
248 201
29 241
245 285
208 290
104 278
306 175
155 39
2 130
141 109
80 291
19 237
190 90
206 170
225 60
154 170
195 45
41 224
270 99
150 171
84 295
99 47
133 131
42 63
121 230
124 53
108 43
133 182
38 163
147 150
79 114
273 85
155 240
98 13
274 306
217 278
33 108
305 12
30 241
135 252
232 14
140 278
170 274
56 135
309 141
39 206
145 126
30 302
278 314
28 13
256 72
211 241
11 253
297 277
207 311
273 104
319 231
195 302
60 226
280 225
295 43
234 23
71 230
227 159
68 43
222 174
222 262
178 259
287 261
11 262
103 131
212 312
96 173
3 45
38 272
262 104
20 123
236 201
39 118
28 202
287 11
9 317
165 188
233 223
289 204
232 226
227 308
31 145
91 131
53 308
26 268
29 93
276 198
213 322
68 322
221 197
23 173
222 306
56 196
219 325
166 44
295 236
270 15
66 75
17 278
292 243
140 65
102 156
238 204
281 87
331 157
64 184
108 141
202 262
175 286
154 63
152 65
145 116
55 117
76 59
151 213
230 333
178 274
332 286
227 98
69 95
171 147
115 249
241 230
39 24
73 201
311 200
60 39
290 27
296 23
142 91
12 90
171 246
299 178
283 145
295 26
193 183
37 24
244 172
154 81
263 81
177 167
165 13
34 106
59 163
2 288
140 170
178 236
140 314
275 11
89 57
58 168
128 183
334 303
80 105
202 290
105 188
246 237
295 71
125 192
46 289
327 158
69 231
19 70
167 193
287 66
311 145
314 23
246 234
144 43
238 229
178 278
214 271
169 261
100 146
39 172
65 91
11 65
59 10
131 87
272 183
99 206
158 170
250 281
89 277
7 296
178 141
180 245
45 102
273 274
43 307
159 220
267 225
156 45
186 151
243 244
279 303
120 74
259 246
128 117
151 332
314 327
17 255
306 2
217 224
68 18
291 94
30 234
232 63
81 136
65 109
284 78
90 241
234 226
48 106
148 23
248 183
259 233
184 245
13 237
194 163
148 43
268 320
324 159
13 287
321 73
218 148
168 39
276 281
76 184
195 272
195 119
162 5
207 19
40 312
320 304
241 2
176 128
168 325
33 100
21 130
90 288
15 230
93 38
257 283
184 288
261 24
326 37
235 221
163 334
46 328
256 19
155 262
201 39
266 251
306 132
147 107
327 195
156 112
61 107
152 256
173 130
4 296
170 26
4 325
116 80
93 72
126 140
234 7
205 33
5 208
234 218
100 287
59 153
306 139
205 171
115 225
59 245
179 3
230 195
63 158
271 278
33 116
195 280
183 287
82 278
324 283
331 159
58 37
65 176
172 69
243 27
90 98
249 47
271 41
73 145
45 184
194 65
234 115
91 292
272 226
281 146
123 30
267 56
82 292
299 306
151 310
273 302
263 302
228 175
299 29
82 265
55 211
291 162
120 307
194 221
268 141
149 165
307 137
60 243
183 231
162 25
301 4
155 230
52 230
27 183
175 322
173 183
155 3
58 38
110 238
104 231
286 132
93 287
263 23
162 279
213 298
183 71
307 168
293 13
195 65
34 303
76 4
263 178
260 50
255 107
130 8
288 328
210 35
270 134
43 188
290 178
198 150
112 287
169 234
235 18
24 163
103 42
34 286
141 277
299 67
308 239
184 101
174 154
38 274
47 206
67 81
144 37
113 268
42 68
328 291
76 144
272 274
308 28
234 190
47 280
37 279
256 48
333 137
261 243
288 301
18 253
6 33
7 194
23 291
138 172
206 81
139 243
331 180
189 92
253 218
325 48
320 334
23 195
236 85
216 14
117 230
79 319
323 334
72 174
28 311
211 179
155 291
14 108
43 17
97 293
259 237
317 73
115 292
258 177
185 144
273 194
205 287
261 294
38 133
159 282
48 182
45 181
96 297
308 233
57 116
202 152
328 182
118 71
158 91
68 100
104 179
250 81
250 217
191 310
95 328
138 213
110 119
73 285
191 193
43 162
85 107
333 117
281 197
153 173
288 91
197 81
58 175
9 147
108 170
99 94
271 234
23 289
175 201
95 76
81 4
26 133
128 116
153 207
115 53
67 26
299 297
154 99
85 94
249 219
327 3
309 303
312 329
277 118
90 147
272 194
283 245
84 175
207 137
185 130
168 198
10 87
145 205
100 130
33 211
155 184
1 19
41 291
289 310
33 23
7 4
2 98
61 216
179 96
235 102
316 229
334 272
64 159
292 162
239 324
268 274
35 307
163 141
73 307
152 140
179 304
1 308
55 11
323 3
234 24
195 127
250 154
212 51
38 234
149 162
176 156
97 116
45 275
230 291
231 102
254 176
33 93
161 230
75 197
302 262
53 222
320 84
252 196
79 205
248 228
127 314
327 7
165 185
268 154
146 311
306 73
253 215
211 137
103 7
112 65
19 77
58 141
109 99
176 306
229 92
273 235
61 97
34 252
48 100
187 162
65 232
236 95
236 320
168 98
167 298
222 81
253 197
106 251
184 129
303 321
116 328
254 325
29 89
225 32
175 56
91 162
250 251
117 190
104 66
271 104
89 163
260 139
33 279
208 154
152 323
249 29
126 77
323 235
160 167
54 66
159 14
330 211
288 28
332 100
282 137
306 126
156 263
303 237
171 157
162 37
6 159
250 244
320 138
29 272
65 130
111 169
200 254
130 321
144 281
222 91
172 43
80 67
218 230
250 270
226 288
205 161
322 119
37 104
120 265
296 276
33 215
160 44
135 248
217 96
230 75
139 131
302 179
250 254
129 52
106 270
89 282
63 290
100 292
304 280
94 174
287 228
79 237
281 11
24 295
312 300
138 286
30 58
133 163
301 270
153 249
290 176
10 17
306 26
279 281
28 97
74 202
61 188
81 253
126 63
195 182
37 249
291 39
123 239
306 295
153 78
13 123
169 195
241 210
334 309
84 213
256 309
89 308
333 39
173 268
249 235
241 24
89 38
171 236
115 118
60 215
198 28
245 147
245 150
117 287
51 160
45 326
5 308
24 103
181 132
318 121
1 247
43 46
49 270
269 56
323 103
73 162
91 130
270 334
190 222
207 8
41 211
37 89
244 59
265 202
4 1
234 81
96 272
314 87
294 89
82 19
119 53
4 85
235 206
248 323
175 104
112 10
88 127
290 236
327 40
303 13
228 309
276 324
166 289
287 121
242 151
160 260
277 246
100 178
246 12
174 11
33 42
254 23
140 124
236 147
146 206
184 304
317 124
246 245
215 32
103 81
141 243
49 197
30 186
52 184
184 10
288 62
190 231
75 150
298 234
274 154
319 328
130 108
109 24
162 217
302 84
143 12
202 129
184 154
245 35
222 184
120 39
50 266
289 125
295 286
208 104
42 59
254 68
94 168
326 273
152 297
47 303
144 195
263 68
297 194
304 292
93 4
87 99
184 94
211 299
334 242
331 246
56 289
139 27
104 30
75 311
271 135
294 111
149 261
81 215
246 307
14 3
248 332
146 38
171 292
270 179
259 59
319 60
284 185
28 216
188 297
61 211
42 280
287 184
42 26
100 153
202 183
246 305
320 3
59 170
310 238
141 15
247 143
85 176
155 195
136 270
54 22
65 243
101 121
303 267
142 218
146 46
243 288
22 232
291 281
306 39
238 316
246 13
139 47
68 253
297 314
211 295
268 94
234 293
94 224
326 85
100 232
246 61
60 278
310 49
42 274
34 186
78 123
93 174
141 297
134 242
172 235
133 4
54 332
245 205
303 95
330 112
22 235
59 262
320 30
313 328
197 272
88 165
172 263
297 321
189 191
232 146
314 334
182 46
31 220
187 272
271 183
3 53
25 143
94 4
252 275
214 29
130 118
92 51
179 142
181 95
53 29
321 162
121 120
186 53
45 232
153 140
291 84
5 281
269 242
46 30
70 16
307 37
162 27
152 230
13 319
178 13
27 141
59 205
225 215
81 146
296 140
295 173
169 208
197 234
302 60
10 126
14 57
322 299
10 205
298 199
247 77
183 109
69 249
319 178
190 142
174 122
304 257
293 318
15 170
10 128
126 95
41 279
4 174
200 164
153 98
187 67
118 194
140 194
286 195
292 174
186 320
325 99
54 186
112 111
317 246
33 288
316 266
108 148
214 132
151 302
302 27
284 143
125 277
257 282
57 318
195 237
231 323
160 277
73 74
37 146
271 66
288 23
279 60
85 23
276 176
197 295
178 219
261 304
74 153
39 171
173 290
217 146
200 318
7 148
78 308
132 332
160 50
87 161
24 59
215 243
219 44
29 163
128 33
31 121
26 269
231 133
3 182
69 50
168 14
190 24
17 128
273 163
251 67
226 154
93 132
293 145
295 61
103 153
16 288
156 100
115 85
1 178
241 27
316 329
57 261
333 234
230 60
235 278
206 27
188 114
291 296
82 256
172 273
272 232
67 262
254 69
276 287
166 260
17 115
201 243
70 25
70 240
18 280
248 34
18 156
238 295
14 130
10 11
82 46
185 234
125 312
243 123
93 58
308 145
230 242
63 18
307 4
269 222
38 154
148 119
176 32
248 54
73 261
42 138
147 255
24 275
24 43
258 192
328 33
241 195
241 131
241 41
327 181
97 178
312 44
225 218
239 216
7 142
304 154
23 168
189 315
49 134
97 333
211 251
236 255
234 251
163 235
306 211
13 107
195 215
187 37
306 287
33 273
184 85
288 116
169 325
20 247
152 200
154 53
92 166
117 201
73 28
334 84
152 319
67 146
151 271
137 118
165 143
208 325
168 213
205 276
226 319
163 184
17 89
198 256
14 151
234 141
213 292
107 162
138 178
222 290
236 73
334 37
252 134
187 110
219 84
334 146
99 333
140 292
84 79
1 268
161 294
217 275
129 111
188 10
154 75
24 233
292 176
99 38
207 164
29 243
201 277
309 252
217 334
268 72
234 135
179 171
14 200
303 128
202 287
154 306
87 74
28 21
307 23
116 321
199 329
42 194
139 280
307 111
115 3
108 112
288 84
126 38
263 211
45 103
65 26
144 313
7 169
120 13
33 46
315 39
255 101
243 179
41 309
298 315
60 172
273 190
7 291
93 116
219 290
37 234
222 249
66 142
303 153
93 262
296 202
19 198
72 33
274 59
249 104
164 117
235 141
208 118
155 179
241 299
100 230
63 68
181 297
73 165
27 270
211 182
53 261
147 172
76 150
320 129
113 202
47 241
135 242
30 213
129 210
320 148
319 115
152 158
266 300
118 131
176 275
276 182
146 131
29 222
216 171
93 238
204 286
224 85
130 171
77 121
208 162
140 176
161 314
33 178
77 328
107 318
142 34
249 168
240 77
168 76
4 84
276 285
110 298
10 224
182 173
247 36
218 108
135 225
24 287
257 268
15 102
215 221
40 212
236 249
287 146
259 128
234 55
39 181
299 202
160 40
257 317
195 71
75 175
283 86
80 13
75 169
7 60
187 295
297 322
21 80
263 258
139 156
141 211
47 39
104 41
23 67
45 29
256 182
75 304
175 22
234 207
130 194
9 169
21 122
13 108
183 320
201 299
7 168
195 140
181 320
276 161
334 234
333 13
302 272
94 73
101 223
231 326
147 198
239 4
334 7
6 276
234 29
296 195
76 101
261 195
27 190
140 32
136 91
277 11
99 91
297 128
246 46
181 128
78 145
182 15
174 287
235 41
224 140
129 195
65 279
43 205
211 314
324 73
187 168
164 71
75 319
170 128
252 301
210 313
219 296
28 33
141 190
118 173
7 178
319 141
327 221
222 333
212 193
196 221
125 7
172 202
55 95
148 280
188 116
56 320
292 168
110 166
17 279
334 133
43 14
87 247
178 55
251 39
239 180
238 301
192 316
162 185
208 293
153 281
47 146
80 240
4 274
108 291
322 47
109 153
28 5
6 87
47 277
156 166
106 134
53 72
176 14
328 88
40 92
109 217
163 136
287 91
100 261
11 18
130 311
268 211
48 42
198 314
262 271
280 231
303 161
263 154
162 307
295 266
1 107
174 102
287 148
320 26
229 44
183 133
112 257
234 311
258 204
153 211
330 124
302 58
65 222
16 98
93 22
165 77
279 311
196 218
114 155
55 263
74 82
123 7
131 153
69 309
314 291
77 23
261 202
287 333
170 263
85 89
309 133
256 70
277 131
74 265
81 69
219 158
289 148
288 200
147 76
214 184
156 103
139 125
235 277
120 208
33 17
224 18
32 100
56 213
4 184
200 331
329 189
75 104
150 83
136 79
215 226
218 303
32 119
301 234
194 1
175 27
176 281
226 211
327 274
189 266
163 33
203 307
99 39
133 148
77 294
91 235
162 59
226 267
287 73
27 296
131 104
281 259
90 87
58 230
235 225
96 60
306 62
181 96
261 79
63 60
137 133
187 333
1 61
62 172
334 281
123 74
65 327
304 129
58 311
272 206
140 230
65 221
134 26
116 53
278 109
304 227
241 23
204 125
168 62
149 88
310 215
11 222
75 130
211 187
7 73
7 131
194 67
7 63
278 197
319 320
287 215
69 306
34 29
185 1
130 162
163 291
136 214
196 136
324 21
100 268
306 219
79 327
1 64
323 11
99 163
235 251
15 289
233 171
181 79
197 48
48 96
94 334
271 218
49 139
17 176
164 127
60 81
234 195
183 327
29 148
267 299
21 284
74 314
138 49
168 108
7 45
306 273
222 232
196 251
272 181
162 202
244 102
82 143
291 215
194 107
318 124
206 269
103 34
59 271
295 32
10 94
39 45
194 27
290 4
160 166
222 277
43 291
179 10
82 80
154 197
320 306
60 15
232 59
37 296
33 194
302 323
248 219
290 81
201 301
123 173
323 287
273 232
179 154
150 330
58 323
174 129
133 314
14 197
37 273
207 80
252 303
211 152
297 18
67 24
178 273
96 225
114 268
71 85
93 250
249 255
262 173
235 224
234 46
122 324
187 115
289 316
233 43
177 243
269 170
130 30
221 202
61 111
333 176
106 151
40 238
291 299
262 152
230 190
317 324
159 276
61 80
42 47
134 136
79 7
233 265
288 126
253 176
290 287
121 202
302 287
136 252
176 279
104 279
32 30
236 202
241 38
219 288
315 110
171 172
154 224
306 241
162 328
81 172
241 112
69 226
110 189
255 78
90 278
184 104
243 230
239 150
244 288
295 162
259 216
107 113
196 26
52 164
167 189
67 278
41 67
83 245
159 113
251 244
323 291
26 273
5 8
232 11
43 208
297 168
174 211
279 90
333 231
332 138
26 181
301 303
219 103
329 11
37 52
206 148
290 46
143 28
250 228
94 249
175 38
230 76
43 79
225 212
84 206
188 107
171 86
249 182
218 17
217 75
82 78
323 288
311 98
33 249
77 255
194 139
212 167
199 191
240 87
149 21
163 196
55 181
278 22
250 175
66 175
257 157
3 128
100 99
120 185
252 56
281 67
85 52
291 15
302 118
210 237
3 208
295 324
283 87
137 77
104 115
83 149
34 115
308 77
276 268
219 38
261 98
301 241
58 187
250 187
45 99
134 22
137 104
23 56
293 60
157 21
135 49
39 187
301 306
151 148
177 40
17 230
261 127
112 7
222 231
137 176
33 247
277 303
281 29
128 115
135 138
225 179
252 63
246 70
319 53
18 119
30 69
171 293
173 93
310 166
195 235
78 259
131 43
78 88
85 296
61 126
245 171
257 25
314 307
202 174
259 28
311 31
264 137
299 278
59 176
71 14
188 74
297 304
160 43
254 271
116 64
231 42
332 22
156 96
4 29
261 89
330 247
59 319
24 117
11 272
4 257
117 1
157 31
276 328
261 118
186 133
132 196
242 10
302 133
11 289
232 24
172 156
158 181
102 11
115 30
217 241
84 41
181 224
208 107
171 211
93 34
42 320
146 163
320 290
328 2
94 164
132 197
21 249
242 24
263 299
284 227
94 171
313 21
152 146
252 271
67 297
265 129
153 118
108 292
236 84
36 77
312 302
55 38
249 84
227 20
181 65
138 196
128 140
87 23
156 238
241 115
304 55
175 214
320 146
280 27
130 63
279 75
32 186
88 247
122 88
114 87
317 62
144 328
151 104
313 299
9 19
43 178
322 263
131 30
158 100
32 321
10 152
172 34
39 175
189 312
145 268
284 283
15 48
183 323
33 75
18 213
264 143
317 150
327 129
262 178
120 89
307 2
332 106
322 229
13 256
224 263
84 130
323 155
188 48
62 220
139 134
248 93
42 45
83 216
249 303
145 326
288 142
112 268
192 199
224 243
183 59
33 162
32 38
112 184
42 263
48 126
193 148
281 72
274 79
113 311
211 27
118 254
217 139
294 240
119 46
1 164
23 262
201 219
40 4
230 196
62 283
73 161
191 34
197 134
117 187
64 2
190 163
186 231
274 301
39 225
154 269
248 325
63 48
236 55
118 73
297 303
56 139
184 65
183 314
296 333
154 104
39 69
46 52
78 162
277 10
206 102
252 277
71 112
310 258
277 119
118 333
258 298
225 323
108 334
286 166
311 321
47 148
288 122
216 282
301 278
120 124
230 59
77 147
241 42
186 15
162 297
196 69
167 110
166 204
81 306
190 137
192 177
83 180
224 279
74 205
215 108
49 34
195 118
241 76
334 55
171 9
333 236
59 269
80 233
333 10
271 242
230 299
54 190
224 118
301 10
218 42
15 301
85 314
299 179
2 180
209 318
84 187
53 273
4 287
59 201
307 247
279 320
104 301
136 332
268 303
278 144
289 193
174 161
162 24
259 97
94 23
208 193
308 124
11 17
172 133
303 273
76 97
110 316
167 260
28 153
30 334
289 44
292 61
325 56
277 52
264 257
80 86
217 174
63 215
170 213
103 18
153 243
107 224
120 243
183 288
288 279
57 127
55 141
217 226
59 29
268 217
287 130
195 94
266 110
137 296
147 33
23 333
181 183
23 100
222 4
155 90
75 1
243 197
237 64
320 221
59 323
290 301
94 79
67 304
153 113
174 155
329 229
257 164
196 75
127 161
81 173
128 47
182 281
207 83
107 28
261 14
104 16
290 262
150 62
215 272
145 328
41 315
225 81
303 240
253 289
219 217
288 169
172 201
311 20
18 71
58 104
160 189
11 212
138 251
158 128
118 178
26 11
221 158
52 6
288 241
38 59
131 225
19 12
213 139
36 311
152 179
291 77
176 280
13 64
287 128
233 240
242 252
35 168
38 3
179 306
94 67
59 97
15 104
93 197
14 75
234 296
141 242
139 68
243 32
226 126
325 140
309 84
247 13
160 192
85 256
226 68
27 97
72 182
163 63
155 4
60 287
320 63
323 249
270 172
210 14
18 148
222 304
199 204
148 140
233 64
96 278
262 270
62 223
137 331
327 292
48 226
230 285
152 194
268 307
288 107
315 238
202 2
102 68
55 289
7 287
93 268
159 284
84 100
292 303
281 154
314 35
197 45
215 202
203 80
309 279
34 196
7 27
77 105
192 175
76 243
306 43
79 26
114 285
277 29
41 146
125 177
134 272
15 158
1 116
217 38
264 129
128 131
211 10
202 39
248 252
85 33
249 278
144 299
9 237
148 139
310 234
326 128
120 20
252 106
26 41
334 54
291 169
103 69
55 260
41 94
46 200
105 62
157 282
241 75
137 231
54 244
31 324
289 167
256 9
16 333
44 55
265 276
43 169
329 225
293 61
67 195
203 97
126 219
23 109
47 18
41 186
81 232
140 320
3 13
147 25
178 3
118 309
221 154
188 85
311 7
292 10
68 267
216 223
333 95
20 304
39 117
119 269
173 195
240 122
326 295
96 75
198 178
74 264
290 130
224 182
319 302
307 114
208 266
94 30
219 319
95 182
130 320
213 148
55 249
202 33
19 107
40 191
7 155
85 293
81 46
53 278
77 20
333 129
269 334
123 71
206 45
293 155
92 298
295 251
231 30
332 278
200 304
140 133
128 250
232 154
327 118
132 54
187 77
21 74
91 63
116 237
148 69
30 45
320 262
98 174
115 186
63 225
250 67
179 67
195 17
133 58
49 248
160 229
74 78
35 77
281 140
248 134
164 57
49 214
313 105
249 273
274 87
320 241
177 110
326 90
174 334
2 43
94 133
230 46
284 19
129 279
290 184
292 154
4 80
292 252
174 268
206 320
315 160
24 145
169 293
303 9
309 3
244 156
297 293
51 167
129 4
66 135
325 171
100 67
48 140
14 111
196 186
230 225
99 71
101 89
263 26
266 193
47 125
261 221
69 297
267 243
234 79
55 45
201 249
131 179
14 148
174 320
19 255
37 224
1 129
243 45
219 71
235 140
262 109
260 315
204 167
195 252
124 230
180 307
222 94
291 306
178 291
38 138
27 195
311 333
255 124
260 34
108 270
195 149
230 184
213 146
2 33
331 73
128 129
323 173
119 280
59 152
78 311
89 233
181 197
81 304
152 187
262 140
29 268
118 13
189 289
222 309
176 79
151 54
182 90
69 41
266 286
312 252
306 195
236 328
162 201
201 115
318 137
187 314
228 151
112 135
220 28
135 54
225 118
315 51
90 200
120 237
131 299
73 21
184 333
52 210
303 129
231 302
267 322
156 322
14 231
83 185
87 62
69 33
243 188
230 10
296 121
265 130
17 7
255 97
130 277
37 4
265 122
33 112
32 112
130 302
157 74
276 169
295 317
152 126
141 112
13 47
320 195
109 228
109 230
102 290
268 17
40 230
8 116
317 318
161 268
174 208
273 296
141 128
334 292
273 200
304 169
33 41
178 53
197 182
123 153
164 61
97 146
129 87
95 287
92 315
262 81
171 116
47 269
44 40
48 262
328 71
14 307
126 267
36 143
262 176
277 117
280 85
99 62
225 3
176 334
17 225
334 128
152 226
55 71
17 23
225 99
318 86
110 211
299 62
246 205
275 154
72 276
146 109
250 231
49 22
206 118
119 24
242 183
306 173
265 35
44 316
75 224
88 14
154 196
195 13
37 152
117 188
312 289
237 220
173 48
96 63
215 68
3 229
332 250
153 213
249 174
303 16
197 226
25 82
124 304
41 100
188 187
74 292
261 268
126 163
39 179
90 262
126 299
145 155
69 187
87 20
199 316
234 194
115 218
148 33
172 10
287 181
236 262
63 39
126 148
137 8
34 334
255 113
35 114
47 199
41 261
120 195
277 175
161 328
182 117
63 65
43 292
271 248
327 75
56 275
7 105
263 225
141 230
178 307
140 13
71 152
117 104
282 207
43 59
199 260
131 115
45 67
131 252
266 312
2 108
197 334
334 115
42 29
144 333
26 68
91 60
202 84
260 229
202 137
15 29
76 221
15 137
162 89
67 46
123 321
14 15
3 60
318 246
311 3
46 181
165 283
221 275
101 303
142 214
108 94
43 179
93 221
231 38
173 186
142 204
302 61
248 184
249 2
118 27
76 321
98 222
235 218
99 153
182 27
135 47
319 291
33 261
325 274
109 320
269 65
271 138
314 294
207 159
253 30
78 159
73 16
297 126
14 117
56 66
222 33
111 311
178 48
72 67
120 162
181 117
224 58
42 102
93 94
105 324
168 303
139 75
167 46
252 253
5 296
169 249
268 107
40 298
291 81
329 100
275 32
288 287
67 268
118 228
41 152
190 30
102 275
247 21
160 310
38 174
77 78
224 328
172 141
281 292
303 234
323 224
269 274
31 127
5 124
161 5
33 29
253 139
173 194
82 140
39 273
290 2
314 1
17 162
252 244
106 49
149 130
17 57
322 253
137 4
222 278
37 140
4 95
168 85
46 94
117 53
290 215
101 162
230 43
319 296
267 166
256 25
182 140
96 188
152 332
198 23
328 127
81 58
232 215
15 274
65 79
186 135
223 20
253 268
4 72
94 205
270 54
45 182
87 112
91 201
126 39
7 51
7 217
289 315
163 270
75 299
62 97
249 319
54 68
329 195
85 153
326 236
320 322
27 60
57 72
75 119
302 38
154 76
37 325
140 102
164 174
255 82
13 126
230 211
324 200
314 120
129 99
163 139
148 68
1 188
23 115
255 10
328 237
243 323
60 158
107 249
254 301
212 66
50 192
66 244
69 222
23 144
305 265
2 257
334 302
245 33
27 58
133 84
51 93
153 76
17 107
7 190
296 299
39 208
290 274
22 142
326 23
219 291
237 61
133 202
126 273
146 181
230 99
269 139
162 240
114 9
172 99
4 46
123 313
85 302
114 74
168 3
171 291
51 173
33 251
41 320
64 180
61 79
57 64
84 23
303 114
93 158
113 324
178 116
277 319
113 330
222 104
297 145
35 328
173 202
81 213
119 253
152 325
58 55
61 98
128 274
200 121
187 235
46 24
7 254
87 59
50 43
23 310
319 327
316 193
178 234
108 40
243 98
262 309
60 194
19 130
325 197
148 84
300 258
296 179
234 117
140 204
249 221
142 263
200 128
243 174
84 299
312 32
301 235
83 195
224 73
67 99
314 52
11 47
34 251
121 240
271 115
1 291
92 160
129 3
218 213
184 320
326 131
176 250
140 93
306 27
271 109
101 107
234 103
224 194
221 142
230 287
4 64
30 103
59 99
56 251
154 45
183 155
176 222
37 202
33 99
319 89
140 5
13 171
37 178
85 182
159 307
174 7
98 176
24 161
207 321
24 89
4 333
310 312
224 152
115 110
278 117
273 241
122 168
290 273
46 88
14 156
315 199
231 225
109 41
46 38
67 33
204 40
275 263
22 151
11 69
171 84
298 140
187 98
249 186
191 229
144 276
129 118
281 156
91 281
293 116
158 303
230 23
10 303
22 45
246 67
261 37
104 144
276 279
141 204
302 153
72 128
41 133
108 323
299 169
133 274
14 140
124 107
192 278
236 231
111 124
215 148
64 245
290 94
48 249
243 140
218 44
105 233
218 206
334 47
70 305
231 179
308 240
145 239
179 334
64 268
265 143
4 208
38 30
107 105
198 288
46 254
112 303
253 327
251 136
104 320
82 113
59 4
28 123
13 146
137 121
139 34
256 257
91 279
158 292
182 53
288 3
267 148
196 81
62 123
137 184
142 193
235 104
299 85
161 86
20 113
321 259
131 187
59 172
118 170
224 24
249 53
266 298
205 123
108 188
23 71
288 224
107 307
85 29
320 225
314 303
243 163
321 137
234 148
46 277
322 42
69 236
140 241
222 48
112 72
107 79
78 143
224 65
251 84
210 171
23 281
53 288
55 133
118 332
7 326
310 50
189 44
321 234
302 54
43 281
221 231
107 128
188 219
204 224
155 190
296 91
208 274
124 243
42 13
47 26
263 91
3 147
69 57
91 306
95 307
244 271
55 104
146 58
148 228
288 181
267 156
130 26
67 291
234 297
117 131
221 319
195 197
152 190
23 219
65 291
184 162
38 22
251 228
318 161
311 313
7 1
129 161
15 18
252 251
107 69
273 154
291 253
290 211
111 67
286 269
90 73
218 53
263 139
104 182
42 213
105 314
50 316
62 35
38 221
323 325
39 278
219 56
146 148
163 231
137 203
14 164
183 295
332 91
262 108
137 3
187 292
184 72
201 222
65 148
217 323
293 161
237 198
246 207
15 65
132 319
266 160
146 108
180 116
296 281
133 24
321 147
38 232
278 30
174 76
302 141
29 69
19 143
68 280
271 142
154 327
192 329
59 325
292 328
201 41
33 235
27 160
170 125
163 91
254 49
269 66
228 196
328 105
326 59
75 24
287 61
100 173
116 154
123 201
7 132
279 119
155 129
205 105
20 28
304 71
132 10
313 145
288 163
32 302
120 174
278 248
43 296
173 327
284 25
222 115
310 189
190 76
190 263
275 119
230 3
211 178
314 10
75 251
42 291
102 267
212 92
281 46
190 243
267 244
111 52
297 273
174 234
278 15
195 287
27 112
331 14
151 34
70 333
2 90
280 267
133 67
81 65
18 38
184 71
60 262
178 60
46 204
59 187
291 30
276 162
7 201
70 161
51 204
179 75
78 120
177 266
252 295
290 279
121 198
333 153
307 259
311 79
98 256
178 281
222 211
256 194
313 86
248 175
181 58
53 75
161 122
303 302
50 315
131 53
213 230
332 219
39 296
321 246
69 89
272 75
155 333
14 327
304 296
24 79
147 256
56 136
304 178
186 58
239 19
261 129
141 241
260 40
239 245
195 161
67 64
253 85
176 230
286 54
314 75
131 253
66 286
53 34
328 5
250 156
260 208
219 184
268 34
314 112
4 178
82 308
328 52
159 314
178 27
206 119
1 78
313 80
118 94
90 24
3 296
32 217
299 295
256 207
201 287
80 164
262 100
39 96
128 232
55 146
163 204
161 88
261 281
115 82
181 60
239 21
265 303
176 320
63 174
198 268
270 175
15 3
201 267
73 10
26 262
202 52
275 243
292 272
137 87
304 30
47 103
333 241
48 156
334 29
181 153
166 48
169 77
126 23
137 326
131 182
241 94
60 23
275 170
206 103
295 257
319 168
128 313
39 131
210 46
7 283
294 122
47 58
85 38
250 273
242 302
263 267
76 303
17 328
49 302
238 226
120 308
297 148
242 22
104 85
128 188
244 138
115 274
10 49
172 255
166 167
55 323
154 69
279 170
177 260
11 23
7 211
131 3
23 327
293 46
62 14
155 225
4 140
180 257
27 71
114 247
106 178
60 295
201 211
94 154
49 55
181 268
134 286
295 202
235 190
207 220
54 55
184 302
128 187
261 84
112 243
204 193
4 177
38 190
187 202
3 186
332 196
292 24
5 120
307 16
239 284
277 301
129 153
60 301
149 305
131 79
151 132
174 37
123 69
297 73
132 250
222 196
58 231
319 222
257 150
39 137
1 89
58 217
281 54
88 205
228 271
71 202
64 101
292 13
139 59
148 303
316 38
185 2
249 320
176 232
77 239
283 1
158 154
244 279
17 205
67 117
72 89
233 114
235 119
268 142
314 99
164 20
104 287
73 305
317 83
332 135
187 5
112 59
195 66
29 13
242 66
224 309
84 273
156 168
183 262
55 291
243 222
100 272
279 34
255 294
234 41
207 72
267 275
134 214
27 163
136 132
104 32
3 251
9 83
244 332
42 172
27 32
42 170
291 38
30 217
277 37
28 164
225 234
151 214
162 324
198 264
334 277
78 268
156 275
27 117
119 183
308 278
221 130
67 171
152 219
74 223
16 117
301 174
148 302
278 94
293 7
176 234
267 218
132 295
65 55
126 293
74 180
286 135
186 95
104 89
155 201
175 323
62 261
211 11
218 156
216 21
4 187
316 160
39 325
18 322
274 26
115 39
49 228
202 268
142 174
100 118
275 148
302 320
69 23
236 251
144 303
18 218
242 136
26 186
40 91
109 30
100 250
22 69
69 244
292 191
196 109
289 274
306 130
323 146
292 302
119 81
25 239
269 226
172 196
125 92
59 254
58 15
195 314
147 145
301 181
172 314
284 165
106 286
147 69
140 184
289 177
72 291
295 67
293 124
256 219
288 65
4 181
206 243
45 18
230 183
147 307
115 41
10 137
241 132
221 99
217 13
176 301
306 163
222 71
225 281
26 22
29 301
192 231
297 163
37 232
186 142
262 179
246 88
177 212
264 120
163 170
320 231
182 98
42 201
139 241
142 135
187 120
262 69
275 213
255 159
186 228
106 154
87 79
201 148
288 254
22 250
26 18
320 222
45 290
334 222
234 193
267 115
100 152
39 194
288 292
11 27
241 323
113 147
187 27
306 249
140 53
334 241
116 198
203 265
172 163
165 198
249 322
178 66
204 298
123 144
224 90
81 43
304 153
98 73
114 25
146 186
225 277
232 224
235 3
71 217
106 166
117 200
32 287
13 24
188 306
150 243
129 296
38 42
215 154
329 191
262 211
254 190
264 317
10 302
120 19
291 129
196 54
227 202
328 53
195 294
301 118
7 53
242 4
186 131
119 325
28 227
279 302
112 326
74 31
147 10
2 147
318 180
128 278
180 284
29 190
71 168
131 297
38 195
310 212
234 104
297 262
250 290
293 164
94 230
192 37
49 250
69 169
13 82
292 295
232 58
80 123
253 234
34 54
231 288
207 129
323 109
243 281
130 237
89 75
79 144
171 241
225 100
211 69
252 138
270 151
41 179
231 109
240 216
86 245
80 97
79 22
23 187
272 39
241 130
107 59
286 214
85 148
303 276
163 183
96 65
292 67
43 202
212 191
30 221
39 254
194 279
236 22
64 150
211 46
125 238
213 68
206 59
200 321
327 81
221 155
311 259
47 213
18 139
205 295
316 204
4 43
107 247
72 211
9 305
156 323
67 10
257 291
258 199
72 155
281 320
9 150
25 122
190 66
260 298
299 168
134 56
229 110
53 5
82 331
321 37
118 236
254 194
46 140
269 225
241 303
194 325
281 287
156 115
236 100
240 105
330 52
219 87
306 13
230 148
34 69
8 311
119 244
195 123
325 310
3 7
69 67
287 248
279 327
165 291
139 93
195 259
172 122
274 232
264 318
111 230
219 187
59 235
58 41
168 139
322 26
140 302
3 79
129 187
62 17
283 282
81 218
1 16
58 270
142 211
297 13
90 75
107 120
211 115
285 21
270 251
186 188
32 181
216 78
278 162
225 95
53 224
314 115
17 311
332 271
277 124
20 245
127 172
128 163
312 167
223 124
276 87
9 283
249 30
267 110
247 291
291 268
68 243
211 2
67 85
29 291
141 321
326 234
55 154
256 317
129 295
62 208
293 38
122 171
30 235
65 104
195 205
234 304
292 234
322 269
267 139
243 333
168 144
325 301
94 261
227 282
25 9
297 153
109 116
247 127
283 101
236 94
222 288
296 186
325 232
221 60
75 178
280 11
211 59
28 293
211 63
107 324
164 268
41 218
334 141
102 112
257 313
22 168
205 122
47 102
326 211
16 120
107 93
65 263
213 219
47 267
73 222
289 327
257 223
90 137
315 206
194 190
124 52
241 281
253 277
230 67
22 213
260 44
120 53
320 66
197 232
147 127
287 278
235 215
155 314
30 13
327 272
288 75
82 124
202 230
52 241
85 173
96 182
77 46
136 99
154 48
310 229
271 215
256 95
142 250
327 301
146 277
57 122
271 34
175 179
253 46
199 327
62 71
215 152
55 204
128 7
217 69
194 188
75 242
243 202
276 202
9 245
262 250
152 225
187 232
173 184
87 302
309 250
126 208
32 131
117 249
130 291
213 24
184 152
235 56
89 224
58 190
249 226
63 197
55 243
155 12
44 176
225 194
205 64
155 107
39 82
307 129
182 130
302 291
275 197
56 310
18 334
100 290
303 226
243 265
72 69
53 277
304 291
236 104
117 328
96 117
208 146
212 266
290 333
250 196
153 230
15 75
141 291
242 270
226 290
268 71
65 256
269 178
224 108
226 281
45 141
47 49
186 191
195 99
247 14
198 108
13 155
231 273
3 39
256 277
255 94
233 207
283 223
95 97
6 205
148 45
163 222
261 39
219 67
17 295
162 147
26 275
188 317
54 208
41 272
39 94
277 126
319 236
201 82
154 299
256 157
172 230
268 321
99 52
255 21
192 167
84 197
114 203
202 144
310 119
158 267
215 109
99 219
60 197
213 263
33 268
208 219
147 216
55 15
104 263
107 82
230 272
118 163
172 288
137 116
105 211
12 265
66 138
319 230
138 214
180 77
66 194
82 194
33 102
304 78
296 24
303 77
194 145
201 215
261 140
125 274
234 154
172 226
266 44
10 290
227 243
195 126
97 147
99 248
195 248
48 23
188 198
39 279
68 175
130 184
112 94
151 142
9 205
131 332
333 321
140 172
177 189
154 136
29 226
225 226
196 262
135 251
10 241
188 272
306 4
67 147
51 170
145 153
288 43
322 199
104 73
208 204
287 144
334 58
309 244
41 99
46 250
104 172
222 225
288 14
146 158
123 311
43 13
220 143
102 133
325 289
197 128
257 247
234 140
195 309
187 268
1 295
181 14
145 3
175 269
283 20
126 190
94 13
247 165
304 314
173 215
213 119
264 165
279 29
60 183
112 296
224 172
320 141
137 171
299 319
211 13
113 98
56 138
59 69
172 108
49 174
193 312
91 303
34 23
290 267
290 195
232 48
52 2
113 165
55 292
27 47
332 228
261 276
53 234
28 80
138 267
28 236
177 191
53 41
91 327
152 69
187 231
208 254
277 323
78 265
37 42
257 20
48 65
256 259
90 184
101 307
23 290
301 323
122 85
145 77
249 179
68 7
196 134
243 9
190 297
146 299
46 221
184 202
84 3
151 184
159 52
172 47
47 37
310 298
61 243
328 80
297 46
60 296
12 240
52 90
210 97
4 54
215 65
15 171
43 23
37 93
307 313
305 61
28 328
158 224
136 22
135 151
186 217
119 67
252 66
108 303
204 117
247 185
226 176
152 221
117 292
63 181
276 89
312 229
79 130
105 307
269 267
156 29
10 279
11 172
128 195
41 323
168 34
174 281
59 147
163 301
119 84
262 18
33 38
158 197
51 289
153 205
146 141
40 192
278 243
47 279
37 188
137 216
15 176
315 56
284 237
302 224
27 45
297 68
2 73
43 183
111 137
65 173
195 53
170 235
227 223
179 323
188 124
261 52
146 230
63 327
91 278
130 319
12 73
301 262
27 186
287 295
208 163
245 97
64 161
4 55
119 278
20 1
153 288
121 195
279 235
73 152
117 130
323 166
170 182
152 39
47 304
101 90
115 133
135 118
84 67
188 59
154 293
136 106
103 148
140 119
230 24
157 137
54 115
224 142
172 67
304 94
10 288
106 55
179 230
190 47
73 116
88 24
115 291
308 165
219 272
332 225
94 131
84 323
287 119
208 10
18 182
179 69
44 125
99 3
295 152
174 79
52 247
115 29
269 280
99 58
163 299
22 270
330 314
110 69
72 220
131 11
215 112
213 267
66 196
334 262
255 112
142 178
274 155
172 152
271 299
278 115
123 97
64 195
77 256
80 2
234 319
291 128
323 273
147 131
248 56
241 153
242 213
307 74
23 131
200 161
72 15
147 116
155 79
212 79
298 191
21 19
40 50
174 306
162 304
263 148
189 199
194 306
290 269
84 26
2 25
226 128
125 298
35 78
78 20
306 225
119 69
106 79
232 244
1 305
308 74
278 320
9 73
330 105
94 271
147 73
43 128
214 22
304 281
45 59
79 190
311 287
302 248
95 169
235 269
241 190
288 80
171 296
4 71
17 224
144 35
183 182
286 131
218 47
136 228
163 14
148 253
299 277
29 326
208 273
186 190
126 162
323 46
39 183
16 153
234 328
174 162
292 208
304 243
234 245
264 205
230 271
278 139
319 288
131 27
230 131
101 52
140 322
39 163
296 178
191 289
110 300
137 265
129 233
184 93
217 133
173 197
27 1
281 37
143 21
219 254
248 250
83 159
138 249
113 209
201 146
266 258
278 295
311 77
59 13
78 171
84 211
241 46
99 29
139 212
241 295
91 23
228 59
177 44
52 256
96 215
181 37
251 271
142 71
140 173
236 75
90 33
199 238
237 80
73 155
85 222
73 311
288 285
163 34
115 140
93 155
206 291
235 38
113 304
109 334
153 65
33 287
80 305
94 140
249 152
28 234
137 74
297 23
188 21
306 93
315 167
307 144
53 55
170 34
176 172
153 289
59 267
84 94
49 252
169 333
5 64
227 330
10 142
33 188
127 294
266 167
136 263
125 93
287 67
219 27
155 115
152 213
59 309
56 151
312 34
48 215
314 261
46 131
121 28
220 296
332 134
195 225
311 140
123 259
79 281
176 7
218 280
201 140
46 311
181 221
23 10
303 41
300 329
187 85
76 202
323 75
69 281
87 101
14 187
41 278
252 142
182 71
231 146
145 233
24 56
267 211
115 174
173 112
303 299
267 170
307 72
291 168
97 281
125 110
284 220
244 68
107 137
111 284
244 151
41 79
101 24
176 235
272 248
238 235
288 4
78 70
201 133
277 279
269 197
213 55
296 42
315 235
53 259
162 137
184 169
294 147
8 246
10 154
63 131
89 147
55 118
200 13
3 40
45 109
286 196
154 58
152 277
188 274
33 14
88 72
295 171
173 273
312 92
235 263
327 60
48 267
326 71
30 224
272 131
287 274
288 97
288 187
186 182
226 148
90 117
275 268
306 30
225 154
190 112
293 146
115 299
133 248
115 173
52 137
147 155
246 77
79 183
172 269
10 71
152 232
6 171
258 224
281 90
280 253
92 50
39 93
292 230
221 79
224 38
101 257
208 94
13 128
259 161
175 244
271 54
194 38
54 291
211 294
329 266
100 45
302 39
167 238
166 163
29 273
165 93
46 292
41 195
102 103
83 97
15 24
272 316
193 40
139 109
194 176
100 24
164 330
65 197
331 20
202 190
33 91
79 39
22 34
281 195
296 233
271 286
38 41
293 254
147 17
149 283
96 252
43 102
117 147
77 257
178 320
125 300
147 94
225 41
36 165
288 179
23 72
68 103
297 225
125 329
130 183
263 226
277 59
85 231
183 32
293 299
188 328
33 118
285 179
172 261
195 105
276 165
32 81
104 69
130 74
67 221
156 232
94 72
135 29
320 94
65 174
272 293
151 196
37 23
288 291
214 54
302 129
246 64
328 131
174 230
94 62
10 297
262 24
202 24
221 84
119 156
197 153
286 252
39 153
133 151
131 280
282 264
45 168
162 9
213 46
232 39
254 43
297 118
275 42
306 82
319 263
261 224
73 211
288 7
45 196
305 143
296 327
116 295
226 65
294 82
162 314
118 202
25 88
61 17
170 219
243 75
201 319
325 135
123 88
170 139
60 280
78 73
14 286
3 292
261 145
7 323
303 123
303 12
146 268
306 7
17 292
253 213
279 319
106 218
104 302
103 269
93 296
165 74
175 125
42 139
272 58
245 195
69 66
262 96
226 17
124 105
176 174
82 155
171 43
47 55
54 108
66 34
302 119
67 76
119 197
24 297
76 233
260 189
319 39
108 287
205 114
303 166
91 54
243 325
233 276
266 45
10 153
128 112
103 26
254 65
38 117
279 272
216 283
13 218
324 157
178 5
156 42
279 111
194 328
225 296
155 220
43 170
230 4
13 69
181 33
129 317
201 104
264 255
189 50
16 295
238 92
29 183
291 181
280 213
22 295
302 79
194 96
176 47
297 146
211 287
38 167
14 87
248 292
100 231
312 315
84 179
170 280
48 43
236 67
6 17
13 328
115 176
325 186
208 309
245 130
55 79
231 262
66 22
176 163
180 330
295 147
242 312
133 288
152 75
137 149
145 83
79 177
162 141
77 200
107 297
67 205
323 38
254 290
51 125
323 91
323 174
219 109
326 93
306 58
143 80
327 67
211 112
293 20
109 39
314 67
164 321
69 122
67 206
52 200
94 333
120 295
23 128
132 155
12 150
319 69
241 279
233 306
48 208
278 130
55 309
64 330
41 273
191 92
294 62
117 95
285 328
131 195
290 232
59 321
221 225
120 239
198 257
333 57
46 144
78 220
147 88
129 182
175 190
272 94
84 104
147 288
150 113
306 208
179 311
314 169
4 241
302 112
63 179
14 279
62 143
118 299
89 328
16 162
3 91
14 183
276 308
272 154
259 37
188 82
186 108
88 318
223 293
286 49
293 201
112 123
258 226
15 17
215 299
273 162
179 217
302 288
272 27
130 93
87 195
59 268
264 246
302 186
161 287
141 323
79 150
47 230
40 128
185 171
151 24
250 252
207 264
76 24
79 45
46 288
320 119
152 276
182 321
52 174
41 91
72 46
113 168
114 129
202 104
295 64
120 129
120 35
263 218
79 112
39 277
260 329
303 155
98 137
226 293
113 317
190 59
195 117
222 131
302 173
328 205
82 237
27 89
200 319
277 91
130 153
68 156
174 30
225 279
146 133
45 118
239 143
155 10
5 233
178 333
162 99
68 252
328 107
302 219
137 259
77 73
176 162
240 127
79 128
169 97
324 161
276 256
177 300
260 300
60 217
319 194
94 53
11 103
117 69
267 103
68 319
68 152
175 151
319 22
126 290
214 34
249 277
59 22
172 306
198 234
309 272
165 324
223 245
7 263
287 45
224 59
172 221
255 62
104 299
111 216
82 128
16 184
154 262
29 37
175 195
107 283
301 190
312 316
168 301
121 124
178 287
287 126
230 219
146 75
199 269
72 85
35 257
304 208
225 224
252 332
163 130
178 195
39 210
122 35
148 249
283 144
288 294
93 172
194 301
130 295
292 179
93 334
91 215
182 122
27 102
117 56
130 217
180 198
35 247
56 22
158 182
301 65
324 247
291 97
203 291
195 33
275 269
86 247
194 274
326 178
305 78
259 73
252 297
79 287
271 56
293 194
63 226
296 326
266 238
195 243
304 99
184 142
38 7
324 304
213 38
61 123
313 130
11 218
198 107
154 181
123 326
45 174
331 282
236 176
231 184
243 84
107 86
87 333
272 93
230 77
222 7
156 201
143 74
241 179
67 105
57 5
41 184
148 42
148 187
11 79
133 291
120 23
300 44
132 49
137 311
234 181
115 236
116 13
277 333
32 277
296 173
288 249
3 177
276 105
94 14
333 3
87 109
15 126
22 183
19 137
116 211
133 323
266 51
246 172
188 133
112 23
22 96
118 103
268 20
2 105
96 158
38 332
268 224
139 277
137 283
182 75
64 285
205 293
91 133
265 64
202 122
234 94
69 79
48 94
67 32
171 319
91 81
246 69
176 287
90 6
280 206
20 62
277 213
202 328
166 315
289 160
312 191
55 320
299 221
291 120
300 204
75 21
195 190
286 235
116 278
105 52
281 59
116 284
115 26
321 16
334 181
251 332
114 164
183 190
132 148
163 129
52 162
100 18
320 58
75 195
235 49
225 319
205 2
251 54
320 309
313 85
90 43
158 226
37 117
158 69
187 182
112 37
105 294
128 241
84 232
162 261
278 188
29 7
145 12
322 99
182 67
277 93
134 132
236 135
50 125
268 333
204 266
79 32
172 276
107 58
262 65
327 235
211 231
197 184
297 325
196 175
287 328
62 284
55 100
229 177
14 26
170 119
14 137
330 87
185 64
322 84
119 47
314 13
46 206
93 316
170 7
333 246
334 152
278 327
163 71
313 188
211 23
235 55
42 18
253 67
79 117
243 121
290 190
24 172
290 278
128 94
260 163
255 35
325 281
75 4
47 152
152 241
287 77
33 333
329 119
303 178
4 201
246 97
174 39
248 58
273 13
264 284
10 195
198 273
323 13
108 99
334 250
60 272
184 183
195 116
207 223
14 115
196 292
16 243
332 235
73 299
41 48
328 164
174 75
246 161
26 213
187 321
187 189
285 162
307 311
166 192
287 37
26 27
134 54
170 218
118 10
1 198
225 169
153 147
38 252
176 94
54 250
325 84
274 30
11 315
161 20
94 288
198 39
280 183
187 76
84 231
334 271
263 323
144 87
126 146
219 270
322 211
45 139
81 45
78 227
178 91
195 16
32 281
184 201
307 287
334 90
221 66
117 120
13 137
288 81
224 303
162 2
145 159
159 36
303 333
131 319
15 160
174 103
30 301
218 24
62 5
299 21
99 40
62 86
262 327
234 268
248 174
3 269
309 267
195 310
263 47
97 112
332 33
123 293
281 81
323 292
265 311
308 114
205 52
225 58
229 51
4 291
170 148
170 102
243 321
46 197
67 52
227 216
34 44
315 177
267 26
2 122
10 99
1 120
164 72
176 152
236 33
66 172
319 84
316 260
254 261
224 141
187 242
237 78
93 244
163 281
14 274
315 40
96 154
174 215
185 19
233 202
75 10
89 77
234 80
260 110
291 292
272 314
219 172
178 12
39 334
153 187
10 200
281 326
327 225
38 178
15 140
90 83
201 334
176 187
102 213
175 251
14 79
118 4
290 118
270 291
268 4
211 3
327 323
108 319
301 94
133 320
276 171
195 111
276 194
36 116
44 310
281 283
151 286
220 70
173 154
74 243
112 171
328 321
19 264
55 129
334 140
62 147
31 113
92 193
298 50
35 52
219 118
38 79
169 4
222 84
329 160
133 15
248 27
152 107
175 138
4 216
308 86
307 216
35 20
46 99
236 41
90 295
102 65
29 17
292 205
146 176
43 187
53 176
225 75
333 157
296 116
179 322
272 81
141 43
53 69
3 219
235 146
78 281
195 333
130 299
303 184
121 180
30 3
291 176
210 111
268 54
243 113
303 305
234 43
312 160
26 152
306 133
23 7
134 250
201 306
244 214
220 25
137 36
14 180
50 27
102 119
321 153
32 182
261 124
281 148
235 68
183 225
289 238
51 191
64 31
137 20
295 254
332 231
249 176
306 190
256 171
73 239
287 55
102 26
150 216
233 99
190 221
317 85
197 190
66 154
329 310
221 211
196 290
186 222
259 261
24 3
268 288
218 232
251 309
286 160
23 287
117 82
234 211
295 276
291 237
22 251
204 177
265 205
310 140
179 293
221 41
298 289
82 328
286 270
8 255
287 46
169 67
65 45
123 234
303 98
7 89
158 112
144 16
177 139
147 224
48 85
249 269
71 79
274 190
163 158
300 50
46 84
179 303
170 10
140 287
334 291
69 24
73 276
204 191
220 307
298 334
62 187
104 243
22 248
275 139
166 266
139 178
30 309
136 66
112 281
264 122
284 145
134 244
236 140
319 176
248 301
16 168
119 191
210 311
89 78
301 39
119 38
232 148
97 198
270 34
195 186
300 298
279 231
272 243
225 56
272 296
3 187
126 328
55 176
288 24
287 235
33 224
234 128
55 109
174 314
218 275
41 128
297 27
26 24
67 326
157 210
176 107
274 67
315 310
175 332
21 283
67 277
119 68
329 315
95 7
269 130
188 90
179 59
305 264
155 304
230 93
168 170
206 156
177 316
243 196
81 243
107 21
275 302
23 151
327 37
213 235
208 58
178 268
223 83
10 69
285 85
208 218
190 208
268 117
319 144
306 107
228 244
5 116
91 183
278 279
123 14
180 247
42 268
77 69
211 118
211 297
62 124
67 4
306 183
278 262
152 235
226 100
84 48
112 234
246 72
117 205
3 4
93 274
202 307
163 274
97 124
56 27
189 231
305 331
87 307
178 96
35 31
252 243
172 179
290 297
261 198
32 10
303 183
236 288
103 275
289 212
164 291
303 116
138 152
280 22
210 306
13 277
260 312
95 165
91 96
279 222
44 193
117 267
188 30
32 274
171 261
183 154
186 295
127 129
9 88
12 257
160 204
139 183
53 66
121 161
23 46
176 104
198 80
130 33
12 77
146 269
174 117
302 244
163 32
310 177
27 208
292 94
85 130
93 137
109 79
144 95
160 300
171 118
303 18
58 10
103 170
219 269
88 105
243 156
59 17
14 77
193 300
21 113
284 112
306 48
236 277
214 243
313 265
299 125
130 314
35 180
186 309
241 218
156 271
72 16
211 283
298 272
122 241
138 136
2 176
248 139
80 57
271 60
102 131
321 195
205 239
100 251
288 130
311 237
216 276
153 95
173 60
287 131
26 232
314 19
231 67
120 168
211 334
17 325
165 130
75 65
182 309
103 91
113 122
195 30
81 96
3 306
24 333
249 304
232 309
42 244
171 159
146 249
303 243
234 272
225 197
299 226
99 27
320 217
121 46
215 97
39 268
69 16
125 193
12 331
10 206
116 314
34 47
273 132
327 96
326 89
153 250
265 307
320 271
194 85
145 292
38 334
216 245
242 132
164 205
329 167
106 196
40 229
273 155
23 27
291 307
327 172
273 30
163 218
243 330
259 165
287 194
132 34
284 291
38 10
292 297
108 55
214 252
123 231
43 297
256 159
326 241
83 21
235 236
25 85
109 84
255 291
138 132
297 272
246 265
50 177
261 207
275 66
198 114
69 252
170 231
130 55
141 104
80 307
231 129
292 200
301 16
171 2
104 17
315 79
197 241
218 54
288 261
55 166
34 131
218 152
302 15
163 108
111 261
231 152
190 171
323 332
5 74
275 277
140 63
1 13
45 263
176 46
160 298
248 142
49 316
129 176
140 215
75 183
332 34
38 303
55 224
66 184
32 260
78 328
163 82
303 194
51 238
185 285
252 71
278 46
62 82
133 27
193 298
70 243
52 264
302 41
2 7
152 24
237 277
179 183
296 243
267 94
155 169
178 99
126 279
207 5
239 185
228 135
133 272
69 228
169 10
163 60
66 267
270 248
130 38
294 203
158 56
219 73
50 312
188 152
165 268
132 271
210 277
221 236
301 297
326 321
215 181
211 117
309 13
134 295
192 300
194 179
142 229
262 103
200 287
38 187
4 215
276 85
80 62
274 3
320 43
60 195
37 46
287 133
263 66
286 190
128 309
182 168
110 218
71 127
325 27
226 71
168 230
306 85
14 333
193 329
207 130
149 124
26 154
299 333
88 62
71 198
128 97
136 213
81 176
102 163
314 236
97 7
161 78
105 5
219 134
321 277
248 151
4 225
10 62
302 55
170 134
329 238
17 232
201 48
288 296
184 18
171 120
117 32
253 14
134 135
201 296
268 304
292 128
3 142
259 285
90 245
46 17
127 111
174 190
106 44
241 117
261 176
53 260
152 94
45 250
257 1
255 67
168 151
122 14
93 14
215 67
58 109
306 46
249 206
128 69
208 133
55 136
289 45
154 3
166 63
219 60
309 243
47 59
75 79
45 225
310 277
1 169
67 96
144 128
69 320
326 262
257 128
222 130
274 126
211 120
114 33
91 262
55 273
3 299
291 276
179 173
28 194
140 167
41 254
272 320
290 142
305 86
287 313
179 290
120 37
261 328
11 269
184 314
277 199
100 170
97 294
99 320
162 227
259 95
162 90
292 287
291 184
79 271
97 24
290 104
133 290
56 168
135 303
236 48
207 128
126 325
199 177
157 153
99 84
171 277
39 2
84 65
143 145
115 135
221 75
140 169
73 246
195 270
17 314
53 32
320 15
203 28
331 256
53 163
113 265
35 113
154 30
29 131
52 190
304 101
174 178
21 318
236 168
94 169
231 322
53 190
236 24
243 158
292 71
277 81
48 110
205 237
293 190
108 63
75 162
98 188
236 187
148 152
52 128
112 174
233 188
161 247
212 258
195 153
60 38
140 109
202 55
316 213
299 59
191 110
23 62
55 41
272 91
90 10
319 104
246 311
278 63
2 246
221 17
117 299
270 252
198 259
13 148
326 118
41 142
177 298
112 169
75 95
81 184
232 174
155 136
78 247
30 303
58 60
230 130
85 90
45 214
280 275
112 172
310 192
295 30
45 11
101 78
91 221
277 289
24 4
280 103
147 14
120 31
75 73
39 327
84 38
158 155
178 176
232 280
2 295
331 98
239 36
294 88
75 55
319 278
181 175
297 219
218 172
50 289
116 87
130 261
293 203
272 163
261 232
331 13
224 13
74 211
32 91
175 142
186 68
186 225
292 110
307 89
206 139
26 280
283 130
268 124
223 97
30 327
316 125
276 114
211 281
106 138
90 145
207 36
279 94
320 67
286 56
202 59
261 146
290 58
261 237
78 283
178 284
323 309
146 128
292 280
133 292
94 319
187 91
308 140
276 13
20 291
155 276
334 43
299 236
63 153
7 90
261 284
161 57
33 48
307 62
219 301
327 68
237 292
223 282
303 133
168 327
133 195
51 189
108 140
145 10
27 288
37 285
299 106
279 233
47 222
303 284
161 257
96 155
198 21
3 297
153 87
195 43
190 271
287 75
256 255
250 253
38 320
116 268
326 188
255 114
320 126
128 225
275 75
55 84
10 146
262 181
201 274
297 178
295 169
112 321
94 71
164 16
206 100
92 260
243 155
39 176
196 142
323 268
183 195
291 58
186 48
274 320
322 206
237 7
14 328
219 334
210 198
154 201
38 24
15 131
239 165
179 273
184 323
39 295
102 218
114 85
12 239
18 269
299 302
268 41
228 270
17 301
277 104
212 119
267 178
184 190
26 225
279 150
62 153
21 105
164 98
99 208
62 279
123 257
331 287
249 112
313 112
140 69
39 133
105 114
218 119
93 95
308 150
101 95
219 202
278 3
279 172
47 170
81 334
36 305
75 321
178 230
249 299
160 177
245 188
122 105
51 50
165 78
68 108
283 64
11 235
301 59
249 42
121 282
21 2
189 186
63 43
110 40
60 241
126 3
165 19
118 293
127 257
59 193
135 190
89 5
85 1
256 176
325 306
281 130
179 208
302 126
15 84
296 148
81 187
132 13
78 114
245 243
315 300
180 97
299 140
41 108
129 162
50 292
185 147
292 119
33 155
202 79
11 225
287 58
123 83
68 272
105 277
83 144
218 334
146 183
145 223
320 59
228 45
220 128
58 108
291 313
82 220
91 280
28 285
215 151
308 198
148 236
218 139
104 306
92 167
108 248
184 96
304 89
154 128
82 77
210 168
66 134
68 45
41 154
321 183
37 269
216 205
172 14
197 91
26 302
76 17
1 73
217 41
278 294
193 315
263 102
16 78
35 101
16 291
311 89
105 129
307 85
61 23
115 65
232 323
309 302
85 259
11 170
101 4
241 292
219 274
131 49
79 141
289 260
305 237
86 35
144 118
212 160
168 29
256 305
186 85
68 153
270 142
241 3
293 3
23 178
169 205
281 131
179 181
90 230
212 46
55 221
12 83
55 126
163 253
277 163
65 323
46 11
263 134
10 47
163 290
261 236
80 243
262 45
323 148
46 256
49 234
76 259
306 153
242 54
215 327
76 80
54 252
218 63
208 131
72 178
46 225
85 287
234 295
30 225
192 229
263 119
107 294
254 319
322 218
16 208
200 195
29 38
234 276
234 17
61 64
38 109
132 142
11 202
255 200
87 180
69 75
205 61
267 133
202 60
260 125
156 26
87 237
215 59
276 143
137 1
176 119
193 192
241 291
102 322
332 154
74 105
174 182
265 207
309 146
334 290
202 195
249 194
57 123
221 63
211 190
256 21
248 224
48 29
274 10
19 305
283 198
133 93
243 287
104 156
140 306
96 3
109 304
279 243
97 33
158 272
278 219
321 10
242 104
12 111
68 199
155 37
304 107
295 185
169 162
25 318
95 128
234 163
235 81
258 44
281 274
197 47
37 251
73 57
21 4
117 140
94 87
236 182
141 91
305 276
166 136
83 164
115 194
297 39
65 225
21 7
90 234
143 5
269 263
171 64
299 129
142 54
65 126
155 94
282 20
321 90
129 109
231 160
129 230
62 122
236 87
326 87
194 123
32 48
136 142
97 39
168 60
147 202
321 240
274 47
246 256
165 116
180 203
245 157
224 291
67 27
325 293
234 327
84 76
180 220
7 257
263 75
170 14
109 163
29 68
274 82
221 262
19 265
2 239
184 1
49 142
299 213
305 82
296 13
96 100
163 226
321 89
43 259
2 23
44 213
115 38
182 181
27 148
65 3
121 76
155 309
22 244
119 58
229 298
104 274
328 326
85 240
162 171
10 269
11 279
171 90
227 82
25 86
213 132
113 283
53 320
78 239
234 95
254 132
80 77
59 140
45 327
63 32
30 292
8 83
267 42
321 237
78 157
301 139
295 123
95 46
178 39
188 161
267 93
66 250
304 90
27 174
146 42
163 225
29 206
119 231
304 174
236 53
152 169
231 90
3 332
93 191
192 260
311 290
250 135
312 192
154 7
325 43
251 49
254 129
174 96
24 219
190 334
125 199
145 227
140 186
291 85
161 220
174 169
74 220
61 71
46 249
244 75
64 82
297 254
103 291
321 69
104 93
127 122
174 81
13 184
271 225
326 144
187 255
63 81
312 177
67 79
222 233
65 142
186 288
218 269
27 333
260 51
328 308
178 112
327 66
166 300
128 253
176 296
197 288
186 176
93 322
163 219
314 333
6 311
73 256
215 3
334 248
246 130
112 283
236 14
79 139
50 258
61 6
148 102
325 55
261 128
117 58
117 217
77 237
52 291
201 75
176 195
306 248
239 20
160 125
286 22
82 122
32 272
186 292
115 46
117 41
139 103
140 190
278 173
295 81
119 99
243 23
295 139
185 129
325 299
43 154
289 68
53 179
245 2
167 242
122 67
187 307
243 172
327 4
69 303
241 17
245 313
156 170
278 229
108 171
274 243
196 241
147 178
179 287
141 292
77 161
281 288
276 5
273 186
231 174
96 49
72 333
234 22
174 24
4 249
333 307
1 74
38 186
24 231
2 265
296 253
287 320
34 134
79 253
23 322
327 94
154 100
168 134
29 217
241 53
304 12
7 213
278 33
27 126
21 165
3 194
91 48
55 152
268 214
254 79
200 207
48 146
248 242
152 201
214 66
44 167
289 199
303 328
301 178
7 99
213 134
48 221
235 292
286 251
184 326
270 84
161 203
309 173
125 40
314 38
72 304
301 41
184 174
84 281
151 289
183 196
228 214
241 174
235 156
221 33
41 187
140 174
38 197
321 255
136 244
174 23
122 72
47 133
213 306
234 2
33 34
31 123
52 185
190 3
224 327
172 319
291 22
268 155
35 82
104 39
208 59
131 201
30 182
168 95
254 38
211 140
222 189
305 28
190 129
183 13
181 69
252 249
209 86
134 251
226 262
287 296
197 215
58 174
175 135
181 226
95 179
206 26
119 139
216 145
259 317
139 179
91 328
237 234
167 191
38 297
202 116
251 132
38 188
141 174
178 314
41 32
192 289
215 14
24 278
266 199
179 4
228 22
195 301
295 215
325 118
108 104
116 226
127 210
274 117
32 24
323 42
241 201
123 52
226 327
3 59
202 13
126 118
66 251
1 57
295 105
194 208
44 50
153 180
288 176
29 173
23 274
68 334
203 318
138 228
132 56
213 103
38 183
3 279
301 45
215 296
76 223
325 181
164 311
99 155
170 68
184 67
47 231
14 100
220 9
217 67
300 40
244 142
52 236
307 77
204 248
74 122
44 315
153 178
156 151
112 274
117 260
274 69
61 307
103 263
117 290
133 141
155 84
317 308
194 59
142 100
96 112
90 174
83 283
189 242
184 108
198 307
56 153
127 105
132 115
15 281
80 308
63 168
116 161
106 132
304 25
210 71
29 108
178 146
4 304
122 299
150 220
14 179
121 152
252 197
153 234
55 218
208 187
179 274
47 68
77 1
159 237
46 32
281 270
166 195
103 218
99 272
188 140
85 279
242 106
218 153
226 96
222 235
242 103
159 116
272 3
33 158
65 41
16 95
64 12
17 152
144 259
15 224
51 40
181 81
178 30
201 327
25 78
295 33
112 152
230 268
71 299
307 200
272 287
198 255
247 285
278 23
101 284
32 197
145 118
137 308
248 214
69 278
233 283
175 288
27 3
134 225
282 120
254 140
236 186
113 145
192 191
68 287
181 225
287 18
55 163
290 231
178 94
295 280
63 194
264 159
328 1
45 208
293 147
75 7
91 243
183 252
26 241
161 101
4 12
102 63
293 230
62 314
306 297
307 294
169 32
10 91
83 88
184 285
259 77
199 212
175 242
292 58
268 184
287 156
328 114
38 322
193 238
153 295
225 272
146 195
233 1
104 321
268 43
40 266
93 42
25 21
77 233
156 309
58 39
297 241
144 174
235 231
129 61
114 304
215 176
299 190
184 133
67 2
325 94
179 128
32 219
241 43
332 186
116 256
47 38
182 139
183 56
245 276
295 49
39 309
73 53
217 302
306 334
43 225
89 220
34 56
135 22
144 243
69 292
177 329
17 291
303 220
172 38
115 69
65 99
224 146
79 133
281 55
28 19
35 165
275 39
180 243
80 107
156 251
247 282
91 302
194 184
236 222
34 175
211 53
221 303
129 268
307 161
39 67
299 182
212 189
186 224
80 257
92 192
123 282
287 314
7 32
273 146
309 37
39 182
259 297
332 187
273 152
137 301
93 290
67 222
227 200
288 303
29 67
145 19
320 103
138 270
85 116
302 115
288 230
330 239
240 328
141 208
231 41
81 226
178 194
61 311
288 17
55 248
110 160
129 178
186 118
161 46
160 191
243 295
65 39
229 258
318 257
78 295
59 217
10 24
11 267
24 225
159 87
14 46
243 173
20 150
88 207
67 148
292 95
224 301
267 104
273 174
288 306
201 69
299 311
314 176
333 163
98 333
74 198
11 263
73 153
92 316
333 158
151 250
47 272
267 173
297 140
163 254
235 201
113 207
319 43
108 133
190 288
202 171
213 156
91 225
325 58
195 79
38 81
56 26
269 213
233 14
298 316
119 133
229 289
94 117
263 327
80 87
155 292
263 18
32 65
241 311
202 17
87 324
303 85
153 274
136 54
293 15
251 248
30 55
195 319
129 39
33 290
296 200
256 74
292 41
261 222
63 117
232 4
155 327
151 26
277 17
246 210
64 89
253 206
87 145
48 24
125 166
327 202
85 288
132 178
100 187
328 277
100 197
217 290
329 40
296 182
269 38
259 294
171 33
123 4
204 251
47 175
224 168
116 308
156 184
46 232
72 230
65 325
103 322
161 295
135 136
271 38
253 235
130 202
249 71
330 220
144 234
322 10
323 186
242 228
261 117
59 89
247 331
48 268
20 13
315 45
330 308
29 278
263 175
86 87
203 123
46 174
273 325
235 302
297 4
192 110
39 71
144 165
294 293
179 228
121 57
186 55
91 100
235 103
206 213
172 321
102 230
262 136
194 201
128 217
257 174
55 142
15 4
23 319
199 300
136 151
28 162
220 129
42 319
151 323
319 17
4 238
123 164
301 230
198 62
216 246
162 259
286 136
254 306
131 244
277 302
112 230
123 207
309 58
169 201
91 190
129 314
247 207
199 312
186 141
320 323
104 186
263 59
310 51
215 23
1 195
91 67
96 183
112 220
68 166
4 132
247 223
111 152
242 286
31 265
24 123
134 10
119 103
38 204
211 91
234 236
233 241
302 109
299 7
318 143
227 113
130 43
48 158
332 213
30 323
85 304
153 194
55 230
64 83
46 106
333 131
7 281
67 37
312 258
195 39
79 230
226 141
153 38
315 192
281 111
260 238
214 196
122 307
140 249
196 248
59 40
233 293
109 297
210 10
262 332
33 165
33 13
56 280
3 325
73 83
43 38
208 253
273 3
200 94
240 101
154 178
112 278
266 229
38 13
44 53
181 241
142 4
156 32
141 69
179 176
279 7
182 102
46 262
93 7
15 309
102 53
43 41
83 120
211 75
272 34
131 167
124 98
205 314
75 290
16 211
6 295
276 37
237 211
27 301
327 58
75 235
215 42
7 260
35 19
198 29
33 89
172 165
111 314
81 326
301 42
88 240
300 167
118 117
288 58
75 291
10 266
314 274
223 264
1 5
163 241
3 152
262 4
140 120
316 315
8 259
183 221
30 108
276 2
326 79
87 67
303 169
253 263
44 212
96 129
69 210
195 57
44 32
279 156
185 90
297 208
135 268
129 281
102 280
255 52
113 239
201 278
169 268
185 245
302 154
184 276
57 82
94 225
129 137
321 291
324 227
98 288
140 24
48 298
251 214
29 201
196 208
330 202
128 46
38 128
217 84
327 22
73 291
118 155
76 124
199 166
144 2
304 188
222 133
207 239
324 2
193 32
277 69
39 23
3 109
115 188
79 108
182 69
32 172
199 51
34 250
90 243
314 21
43 27
198 130
128 67
118 267
93 301
250 274
85 327
135 167
164 86
108 76
226 321
57 94
38 249
96 104
299 69
258 238
324 330
10 109
235 280
232 225
250 271
95 243
25 116
161 245
289 119
102 14
271 49
293 80
168 243
117 116
154 243
182 222
217 99
285 52
176 58
3 62
202 185
69 275
268 75
153 299
55 173
61 28
327 269
148 322
204 212
202 90
276 288
88 162
312 238
302 234
53 71
172 131
267 206
123 159
191 69
22 173
192 238
256 12
109 91
127 14
200 126
141 187
59 218
206 30
282 305
29 24
290 309
328 23
199 310
53 133
53 67
231 135
246 82
16 76
72 131
79 178
24 246
69 94
150 256
37 176
112 28
30 146
95 309
146 172
81 292
153 112
131 308
17 307
114 52
65 60
241 93
158 323
243 213
152 288
59 27
184 115
329 298
15 226
314 73
128 277
162 200
219 95
140 138
161 155
268 249
31 9
28 161
277 198
21 114
115 71
59 148
219 100
106 263
87 220
75 273
71 309
110 92
328 128
220 77
245 162
115 277
75 320
299 225
79 297
291 117
243 12
31 227
16 97
292 172
195 278
148 26
295 10
222 140
14 48
286 267
5 145
155 59
162 95
252 175
131 290
151 251
178 165
181 168
217 309
288 271
268 241
174 146
5 80
52 278
22 138
61 172
45 47
214 42
53 144
238 160
9 324
114 283
18 108
114 313
62 78
34 32
202 65
321 95
29 116
309 17
278 131
166 329
59 303
40 310
110 142
179 184
8 237
2 195
156 269
7 314
274 172
