*Vertices 115
38 "#39"
27 "#48"
54 "#20"
11 "#96"
111 "#38"
48 "#31"
34 "#3"
115 "#80"
6 "#99"
88 "#106"
75 "#69"
104 "#30"
22 "#74"
90 "#2"
107 "#17"
114 "#104"
100 "#103"
13 "#7"
28 "#65"
94 "#102"
68 "#12"
40 "#92"
96 "#90"
98 "#105"
37 "#0"
87 "#87"
17 "#33"
8 "#43"
93 "#4"
70 "#44"
2 "#68"
18 "#6"
105 "#64"
43 "#61"
36 "#95"
44 "#47"
109 "#60"
86 "#57"
66 "#51"
20 "#5"
84 "#55"
73 "#110"
62 "#50"
29 "#23"
82 "#97"
47 "#114"
60 "#101"
67 "#75"
24 "#94"
103 "#58"
42 "#9"
61 "#81"
31 "#86"
77 "#63"
9 "#25"
12 "#14"
95 "#45"
23 "#1"
50 "#49"
76 "#24"
39 "#111"
16 "#91"
72 "#19"
64 "#46"
57 "#85"
15 "#29"
113 "#84"
101 "#88"
35 "#21"
63 "#72"
45 "#54"
19 "#78"
112 "#73"
33 "#56"
53 "#35"
30 "#32"
21 "#11"
59 "#107"
83 "#108"
85 "#83"
78 "#26"
1 "#15"
65 "#42"
89 "#70"
49 "#59"
10 "#89"
91 "#71"
97 "#67"
74 "#52"
26 "#62"
55 "#53"
14 "#66"
4 "#77"
110 "#98"
108 "#10"
80 "#28"
71 "#109"
32 "#93"
41 "#82"
46 "#41"
52 "#112"
92 "#79"
99 "#16"
51 "#100"
7 "#34"
79 "#36"
5 "#18"
69 "#27"
25 "#40"
3 "#22"
81 "#37"
106 "#13"
56 "#76"
58 "#8"
102 "#113"
*Edges
44 49
61 113
99 9
67 3
42 17
28 50
8 12
28 91
2 1
20 95
91 29
1 44
26 30
53 64
34 35
23 29
5 97
106 107
42 57
7 1
18 107
67 49
29 18
57 16
48 105
50 60
41 113
50 96
48 68
87 10
1 55
82 36
79 85
53 107
103 15
105 35
79 54
50 15
30 67
50 79
115 92
30 80
42 22
18 97
43 30
28 32
37 12
75 29
23 22
17 77
87 24
1 28
4 113
21 45
52 88
100 60
30 41
72 70
14 107
64 104
96 87
102 98
72 7
66 1
94 23
16 9
26 37
97 99
28 49
2 58
37 66
42 31
94 17
19 41
15 4
16 76
66 5
64 40
87 29
94 89
9 69
80 45
89 112
63 41
100 24
76 35
110 78
64 105
114 88
31 44
87 31
9 107
30 105
72 58
104 80
87 40
30 103
29 67
76 75
41 24
9 72
37 91
29 104
110 22
68 9
84 25
46 33
15 96
34 109
32 42
92 2
56 63
64 54
26 77
27 69
27 13
56 22
46 25
34 74
25 21
13 79
52 83
42 79
5 112
50 58
49 68
24 51
5 20
18 49
64 67
109 17
7 79
8 7
24 6
115 62
25 23
26 64
88 47
68 12
42 28
31 106
2 14
114 52
53 84
28 40
94 109
6 4
74 21
77 50
108 66
103 74
89 56
84 76
50 17
50 80
40 32
104 27
106 44
87 51
84 44
7 70
51 36
69 100
23 50
71 59
16 40
34 75
30 53
34 7
28 115
25 41
35 2
43 95
3 97
58 54
40 56
9 80
6 36
51 60
21 26
91 44
111 99
115 98
54 72
70 79
107 103
50 69
87 97
10 32
77 3
24 39
113 19
43 108
108 105
76 48
26 25
72 79
66 21
24 47
75 63
56 42
82 81
79 58
62 27
75 50
41 4
106 105
29 1
80 112
26 104
74 43
80 21
112 63
15 90
1 86
83 102
87 101
25 45
41 92
76 93
114 71
80 58
105 44
67 26
79 69
114 83
50 108
69 38
35 70
24 29
63 22
30 61
17 30
112 42
31 98
87 38
10 40
38 7
29 105
70 34
104 49
22 104
69 107
45 23
73 114
61 64
43 62
87 2
96 109
4 96
81 54
76 66
28 35
26 17
69 80
7 107
94 14
62 75
97 28
103 70
111 23
11 17
27 80
42 50
105 27
67 63
113 17
55 109
96 57
25 55
47 19
34 53
79 76
73 47
3 104
5 8
20 33
111 13
21 86
87 99
49 76
75 21
11 51
80 25
7 68
4 85
47 67
5 76
97 33
70 97
39 71
25 24
39 59
97 105
45 104
27 81
1 15
27 5
23 26
87 49
35 3
32 96
24 3
69 6
61 85
29 59
36 110
72 105
87 68
28 20
112 8
21 68
57 94
48 84
81 112
23 54
81 106
8 18
23 42
60 11
22 89
53 95
18 9
67 91
33 29
9 1
12 107
66 75
108 23
21 81
64 27
74 58
66 33
28 68
107 27
75 7
105 54
73 71
82 6
77 37
95 76
105 5
81 107
75 78
28 70
2 30
31 101
3 39
48 3
30 108
80 54
19 61
12 64
64 80
22 87
83 67
98 110
95 2
70 5
47 52
64 37
67 56
40 96
46 23
77 106
42 94
88 39
29 65
85 31
7 65
3 107
84 65
66 104
95 37
37 8
64 20
80 107
26 75
60 82
92 107
79 87
102 47
53 106
98 59
94 36
58 38
60 24
22 11
5 72
41 69
87 57
112 55
43 53
39 83
9 8
41 85
36 60
109 1
73 39
67 89
80 70
18 55
61 4
76 112
2 105
92 113
67 33
92 109
11 36
99 35
98 114
9 58
75 102
14 49
65 44
92 67
64 81
30 25
42 115
95 108
77 42
62 76
7 5
53 79
48 58
74 28
97 75
3 99
12 81
46 20
60 72
68 86
106 108
22 8
28 29
108 21
54 37
109 103
3 12
20 93
9 86
87 11
65 48
98 83
96 18
101 96
77 85
79 77
38 81
79 80
17 51
35 75
8 75
76 77
65 21
53 108
67 112
75 15
103 21
86 66
4 92
27 37
31 77
40 68
27 25
43 111
21 17
48 5
69 28
5 12
34 76
105 37
23 15
69 25
62 64
63 107
106 95
49 69
64 79
99 74
10 76
23 77
64 43
103 29
69 81
10 48
81 93
68 34
113 85
38 2
14 58
74 68
63 113
3 70
109 77
89 63
78 64
85 69
107 99
42 14
64 97
98 71
94 77
112 93
64 15
115 4
38 65
79 68
42 92
61 54
64 106
115 34
87 5
38 62
73 98
113 11
59 102
55 63
26 92
49 27
66 74
112 44
108 77
59 73
66 62
103 79
114 59
54 3
103 92
47 59
47 39
11 6
50 104
1 3
71 47
2 80
3 19
108 99
91 49
103 80
70 38
87 28
14 41
71 83
40 57
113 107
27 44
62 59
27 43
75 41
102 71
67 2
11 110
113 77
48 21
66 95
111 58
11 82
8 72
54 12
75 112
26 46
83 73
47 49
67 75
84 106
102 73
86 74
94 107
75 55
32 101
32 31
9 30
75 1
49 83
97 29
42 110
31 112
42 13
87 32
20 29
63 103
109 63
93 27
94 32
96 16
106 48
29 78
42 53
26 66
23 106
5 58
51 22
24 36
85 19
76 78
41 1
78 37
107 37
78 26
43 13
80 81
78 59
48 82
32 20
72 75
79 34
22 18
14 30
13 109
104 67
61 103
95 107
29 48
16 87
75 104
79 2
28 75
45 50
24 55
47 3
107 25
107 93
95 64
64 13
109 107
50 68
55 35
42 15
39 98
3 91
54 50
38 66
111 80
92 63
105 49
84 29
85 42
1 5
76 108
26 95
100 6
57 14
15 111
93 44
71 88
34 106
107 44
79 49
21 38
10 101
9 76
18 30
29 3
82 110
82 100
112 106
100 36
30 16
86 58
34 26
42 83
33 38
21 90
68 103
109 11
79 111
30 92
23 104
45 108
87 76
56 112
78 77
21 7
80 106
51 77
89 14
23 18
95 42
46 14
74 93
110 60
38 49
112 91
1 8
13 58
24 19
34 40
65 81
58 44
37 92
58 68
63 7
74 40
38 18
38 11
8 42
95 93
40 18
7 103
62 95
107 42
32 16
100 25
78 102
47 114
99 43
83 88
23 105
65 46
58 21
111 8
61 81
108 62
80 44
88 73
115 60
95 79
27 67
115 75
86 103
15 104
41 2
50 72
89 107
37 30
32 23
17 80
68 66
58 1
44 5
41 57
94 100
49 2
75 30
96 10
106 14
15 10
29 27
106 15
90 66
47 83
69 24
10 31
12 48
54 68
34 97
43 2
42 106
48 35
93 99
41 103
76 26
42 1
41 26
55 69
31 81
6 25
21 104
105 82
109 113
26 33
35 7
35 115
58 62
50 1
67 22
100 11
64 96
104 91
60 94
59 115
99 23
4 19
72 68
48 97
76 7
22 112
110 1
35 97
61 41
99 105
105 25
58 107
27 48
77 11
26 3
18 109
90 23
81 49
57 32
20 97
65 106
81 48
11 94
