*Vertices 405
14 "#324"
139 "#398"
329 "#2"
11 "#242"
114 "#314"
118 "#185"
378 "#125"
157 "#308"
42 "#177"
97 "#306"
33 "#52"
274 "#397"
54 "#265"
275 "#272"
4 "#78"
63 "#0"
67 "#157"
107 "#137"
145 "#368"
341 "#5"
50 "#281"
224 "#205"
173 "#63"
24 "#401"
39 "#268"
176 "#158"
237 "#378"
127 "#154"
298 "#290"
38 "#400"
131 "#139"
58 "#302"
271 "#332"
289 "#73"
13 "#334"
356 "#389"
338 "#366"
95 "#133"
322 "#226"
231 "#209"
354 "#36"
325 "#117"
314 "#320"
403 "#203"
35 "#6"
196 "#20"
235 "#356"
261 "#348"
162 "#343"
304 "#147"
106 "#271"
194 "#212"
282 "#247"
206 "#24"
376 "#140"
180 "#274"
370 "#383"
72 "#54"
221 "#244"
120 "#105"
188 "#29"
396 "#88"
300 "#162"
2 "#252"
155 "#393"
303 "#119"
55 "#295"
217 "#253"
80 "#26"
272 "#373"
230 "#172"
150 "#196"
8 "#14"
220 "#83"
238 "#201"
297 "#174"
158 "#28"
234 "#85"
281 "#317"
108 "#337"
190 "#326"
20 "#360"
94 "#120"
66 "#218"
249 "#144"
371 "#84"
273 "#353"
294 "#1"
317 "#31"
74 "#42"
305 "#129"
346 "#53"
73 "#390"
189 "#296"
358 "#122"
135 "#342"
369 "#16"
265 "#293"
372 "#32"
29 "#206"
266 "#318"
209 "#164"
326 "#232"
186 "#186"
367 "#392"
126 "#187"
264 "#211"
219 "#61"
163 "#77"
105 "#104"
203 "#266"
246 "#307"
330 "#181"
7 "#44"
175 "#300"
247 "#386"
355 "#396"
366 "#322"
318 "#115"
391 "#313"
277 "#301"
159 "#382"
241 "#213"
312 "#161"
153 "#282"
400 "#299"
323 "#245"
392 "#254"
292 "#288"
385 "#112"
64 "#87"
137 "#260"
28 "#107"
134 "#171"
333 "#3"
130 "#375"
309 "#351"
278 "#35"
331 "#285"
37 "#237"
199 "#100"
40 "#64"
269 "#357"
395 "#370"
121 "#69"
78 "#198"
205 "#118"
337 "#333"
350 "#25"
267 "#151"
310 "#72"
76 "#227"
315 "#27"
236 "#182"
257 "#286"
399 "#376"
321 "#239"
151 "#372"
71 "#138"
394 "#199"
311 "#269"
401 "#404"
65 "#216"
85 "#381"
182 "#309"
313 "#155"
187 "#294"
211 "#215"
75 "#97"
183 "#354"
25 "#59"
344 "#134"
351 "#303"
68 "#11"
377 "#146"
222 "#8"
387 "#23"
386 "#287"
152 "#380"
226 "#403"
258 "#229"
60 "#228"
6 "#37"
260 "#102"
53 "#336"
268 "#222"
129 "#315"
279 "#163"
343 "#17"
253 "#66"
146 "#148"
379 "#259"
353 "#358"
133 "#127"
23 "#321"
348 "#170"
48 "#130"
316 "#325"
49 "#214"
193 "#225"
88 "#279"
172 "#67"
324 "#121"
373 "#135"
17 "#39"
102 "#289"
248 "#9"
256 "#128"
327 "#136"
46 "#204"
280 "#391"
227 "#241"
308 "#379"
93 "#341"
244 "#57"
285 "#359"
352 "#258"
81 "#79"
169 "#384"
195 "#159"
86 "#362"
3 "#89"
91 "#49"
96 "#291"
207 "#191"
83 "#51"
177 "#142"
115 "#377"
232 "#76"
27 "#180"
161 "#165"
5 "#98"
84 "#347"
10 "#338"
243 "#62"
382 "#267"
286 "#109"
52 "#124"
339 "#312"
259 "#344"
15 "#173"
110 "#297"
215 "#304"
43 "#30"
364 "#385"
251 "#335"
240 "#92"
166 "#94"
365 "#55"
349 "#50"
347 "#123"
204 "#48"
228 "#399"
34 "#329"
359 "#169"
59 "#236"
111 "#145"
363 "#331"
116 "#70"
262 "#126"
47 "#108"
319 "#202"
270 "#184"
287 "#263"
307 "#230"
375 "#363"
119 "#270"
255 "#346"
233 "#101"
197 "#233"
208 "#106"
124 "#12"
178 "#256"
100 "#350"
179 "#45"
143 "#328"
214 "#114"
36 "#91"
136 "#243"
381 "#223"
397 "#113"
101 "#194"
90 "#278"
254 "#71"
223 "#224"
41 "#275"
132 "#33"
283 "#219"
148 "#311"
201 "#369"
77 "#188"
89 "#255"
384 "#116"
32 "#143"
225 "#367"
200 "#47"
79 "#110"
389 "#340"
61 "#339"
19 "#248"
62 "#238"
216 "#208"
147 "#200"
144 "#330"
174 "#193"
122 "#19"
239 "#249"
357 "#316"
98 "#56"
293 "#374"
160 "#231"
402 "#41"
140 "#234"
360 "#277"
104 "#10"
368 "#371"
252 "#131"
82 "#192"
342 "#103"
388 "#99"
51 "#364"
30 "#221"
16 "#235"
336 "#95"
138 "#60"
345 "#210"
168 "#388"
383 "#75"
18 "#153"
276 "#80"
404 "#280"
185 "#40"
398 "#220"
335 "#195"
99 "#21"
1 "#82"
45 "#292"
210 "#262"
306 "#273"
191 "#43"
361 "#276"
390 "#46"
69 "#178"
117 "#349"
149 "#207"
109 "#168"
31 "#160"
123 "#365"
340 "#190"
291 "#251"
156 "#310"
212 "#176"
290 "#327"
171 "#175"
154 "#319"
181 "#250"
380 "#34"
301 "#257"
167 "#395"
213 "#402"
87 "#149"
263 "#141"
165 "#65"
198 "#93"
405 "#197"
70 "#264"
288 "#74"
332 "#323"
192 "#90"
103 "#183"
250 "#246"
229 "#345"
302 "#7"
320 "#167"
164 "#217"
57 "#394"
142 "#261"
9 "#111"
184 "#305"
362 "#387"
299 "#284"
296 "#68"
374 "#58"
128 "#298"
44 "#361"
21 "#18"
22 "#22"
113 "#81"
112 "#179"
202 "#156"
26 "#15"
56 "#86"
218 "#355"
242 "#13"
328 "#240"
284 "#152"
125 "#96"
334 "#4"
170 "#352"
92 "#283"
141 "#150"
295 "#189"
12 "#166"
245 "#38"
393 "#132"
*Edges
146 340
289 254
298 194
331 373
224 101
39 256
287 195
254 25
369 350
76 47
322 342
46 142
161 311
126 27
159 115
303 52
249 149
201 12
58 386
75 344
41 118
210 129
200 334
348 158
277 159
200 122
266 114
153 311
90 291
311 291
16 319
102 386
92 299
238 45
91 310
155 274
207 81
343 179
216 171
191 286
88 180
61 2
364 272
264 348
215 307
377 183
34 184
398 62
238 221
306 59
157 275
62 160
211 223
59 157
323 304
246 215
317 204
87 79
363 190
78 16
134 262
332 87
101 37
176 55
193 265
170 338
225 61
376 381
227 66
305 224
97 386
134 27
96 183
299 175
189 360
405 216
12 106
101 212
73 167
399 308
359 4
65 2
212 287
53 285
194 109
301 106
262 252
217 181
346 369
5 12
169 274
265 31
393 295
136 279
19 136
236 29
162 37
103 309
2 209
379 377
258 44
230 384
237 145
237 137
356 228
183 70
194 41
118 89
263 227
140 211
14 266
184 144
327 9
270 319
216 391
204 200
80 387
58 257
46 62
303 347
313 398
208 9
311 290
118 197
358 99
183 382
230 106
176 306
285 180
68 222
220 186
293 215
29 141
202 252
221 62
321 37
325 166
220 166
348 186
397 22
170 20
304 241
299 50
49 382
31 205
382 322
254 342
316 54
82 84
237 88
322 193
275 340
177 241
64 387
366 23
153 217
21 380
403 82
345 59
100 224
231 241
261 389
113 56
197 62
180 142
363 217
403 229
262 221
11 58
136 345
391 367
320 314
258 96
216 223
82 212
140 87
339 136
119 178
379 303
222 158
112 171
30 325
271 129
201 364
141 265
246 175
187 114
405 89
345 394
61 123
377 275
377 37
345 357
190 181
297 216
160 328
70 12
47 171
360 282
271 339
48 120
396 75
315 347
230 174
129 182
49 262
215 339
84 53
338 183
220 371
111 258
106 225
87 186
276 36
133 252
239 100
332 112
345 18
50 270
120 105
295 181
314 281
398 265
403 207
275 19
64 198
236 45
50 225
69 282
108 183
326 136
290 160
330 212
257 45
134 2
312 36
42 95
177 305
289 79
307 19
263 334
136 221
30 321
156 110
392 171
222 349
312 376
78 31
11 131
27 175
214 383
39 338
285 247
344 384
394 405
96 202
18 305
2 227
11 207
392 47
82 319
224 29
183 181
287 211
405 105
326 348
192 254
393 345
15 96
339 144
379 62
148 268
320 20
319 286
157 297
298 400
327 394
393 171
297 381
223 15
164 187
400 31
340 239
223 29
34 366
161 216
393 288
69 387
85 226
325 176
279 105
265 102
119 203
265 340
243 390
110 73
184 82
206 347
41 356
115 38
292 45
209 229
213 59
378 275
128 137
240 278
93 231
103 398
173 317
337 2
306 340
180 82
83 22
153 379
226 73
11 405
295 231
132 202
151 73
400 102
236 337
2 382
165 343
77 340
263 209
66 274
41 210
166 1
61 309
321 29
68 243
322 398
357 322
313 348
297 67
331 386
363 114
292 362
137 216
322 293
292 231
236 27
70 301
58 100
291 230
164 195
118 112
277 119
141 109
27 292
342 146
201 370
319 292
109 193
313 326
320 279
342 77
140 320
403 110
167 251
392 178
71 51
162 241
340 295
87 304
246 134
82 297
160 39
147 297
129 366
399 60
176 142
231 194
148 129
306 69
125 388
1 372
382 76
233 288
229 309
309 41
148 27
44 93
217 256
291 37
60 76
382 356
140 45
92 404
297 242
27 393
122 243
95 304
262 114
46 398
246 216
374 354
207 109
289 47
319 46
389 216
103 182
393 112
238 327
134 107
202 377
239 345
341 146
242 202
93 300
158 126
9 22
70 89
202 211
276 333
42 301
55 190
211 160
238 246
319 149
220 146
69 58
100 86
274 249
29 397
73 38
361 300
379 89
403 46
192 371
39 187
396 279
264 136
301 398
376 88
342 176
141 50
70 129
191 219
155 213
120 32
146 303
233 336
75 222
126 320
99 91
113 330
312 382
348 178
81 163
200 373
239 89
253 105
239 195
54 203
227 221
77 216
171 342
312 62
227 14
348 42
37 150
125 288
290 265
386 176
323 275
62 95
297 239
229 164
164 109
155 152
344 342
51 264
58 338
13 100
236 39
95 322
186 116
305 216
62 348
277 223
162 314
357 266
71 320
187 306
49 359
82 11
162 353
136 300
39 69
222 350
30 31
113 133
199 65
180 397
18 112
135 108
47 146
52 325
367 213
113 208
196 8
284 307
158 192
87 292
340 62
13 86
352 55
382 215
338 84
363 106
324 358
46 71
16 160
197 282
178 146
373 241
170 285
42 12
289 214
263 325
16 76
388 319
217 11
94 50
364 168
101 344
378 27
28 131
33 374
227 5
376 177
133 173
149 262
87 49
10 215
377 118
226 169
20 123
223 282
189 398
134 187
337 97
34 190
90 176
155 151
246 271
126 113
340 393
286 254
257 34
203 186
81 310
149 78
405 18
217 307
271 182
228 395
127 338
389 61
55 153
297 394
11 103
140 136
368 237
143 266
106 178
358 303
361 110
112 291
301 230
16 41
18 150
286 376
365 191
206 354
134 299
342 27
178 123
405 156
118 105
217 107
275 337
237 159
137 2
292 300
267 195
76 307
400 142
382 216
373 268
103 340
7 240
15 331
282 321
355 115
354 179
161 340
312 311
142 55
270 55
387 296
328 62
171 307
279 377
47 287
198 126
18 337
131 373
267 69
171 348
18 31
154 377
203 306
119 332
16 86
313 359
150 108
164 154
129 110
49 285
241 87
112 178
158 68
233 284
48 239
262 384
81 335
375 119
220 81
398 209
322 199
12 43
309 225
36 52
2 361
91 393
342 134
97 353
118 386
345 216
27 97
271 268
249 384
292 102
148 126
127 246
203 227
48 146
136 252
160 161
70 47
383 25
296 196
137 239
224 404
155 226
233 3
49 398
126 29
210 142
373 393
12 126
257 90
260 200
368 115
31 197
279 116
203 142
200 297
150 295
278 74
11 271
305 283
77 352
42 323
335 264
230 347
94 111
346 43
297 230
257 96
29 311
346 253
41 90
203 29
69 236
164 359
140 134
331 249
15 141
81 383
404 292
77 258
46 348
110 400
295 195
107 207
78 199
367 159
175 189
317 242
312 358
392 186
212 157
383 335
242 43
403 31
231 177
132 52
1 315
262 328
110 264
5 134
240 372
38 399
223 103
403 150
306 360
297 287
369 294
392 59
26 384
71 270
146 282
95 298
102 62
368 145
172 64
82 340
171 32
58 88
262 75
342 336
203 11
233 31
354 74
199 127
134 271
258 117
231 331
63 71
170 261
166 40
288 192
195 276
354 333
49 96
292 361
52 302
269 290
348 309
210 181
177 342
88 55
159 247
397 79
250 207
143 351
194 142
273 218
230 136
29 134
398 211
91 105
349 276
147 343
313 277
13 182
6 317
348 194
265 355
2 308
313 297
293 395
305 202
373 112
264 127
362 370
262 47
377 48
233 60
402 166
101 23
159 24
65 351
276 141
230 400
162 117
199 262
322 330
381 231
161 137
150 319
356 274
86 110
307 202
154 23
241 144
82 30
233 393
342 94
112 129
3 205
149 49
1 4
256 373
27 258
161 306
16 285
335 136
100 261
269 186
371 79
79 83
312 217
198 141
107 116
238 379
190 357
159 152
182 34
95 192
33 376
282 238
180 405
154 264
89 201
396 205
382 178
306 257
300 264
5 191
338 95
342 327
130 226
257 92
239 378
55 277
23 77
57 364
69 194
18 342
180 330
13 12
164 403
224 241
95 394
345 270
316 182
39 48
171 224
87 215
360 322
127 207
151 85
28 387
359 325
330 319
251 259
26 42
227 46
386 103
378 164
289 310
93 112
181 377
14 34
146 71
197 250
144 82
195 88
116 28
335 307
227 29
21 26
82 405
236 330
398 134
234 373
266 49
402 348
300 397
19 42
194 162
195 344
231 227
309 162
109 393
312 58
12 30
156 90
52 270
348 128
276 105
77 339
2 392
251 86
198 18
126 225
298 128
379 403
346 113
275 186
314 54
9 300
286 387
14 129
203 270
351 392
134 72
177 316
297 19
242 219
67 393
25 305
328 270
71 167
41 110
295 62
25 5
160 279
31 146
109 118
249 386
29 286
31 95
37 88
215 90
74 179
27 140
33 349
373 376
269 225
218 340
213 247
323 306
28 397
119 268
213 272
163 1
120 194
328 103
243 342
379 114
159 92
344 359
119 39
134 126
223 148
55 351
332 307
62 106
261 61
370 355
84 389
196 354
391 143
241 391
227 16
280 167
34 258
328 375
190 97
54 142
394 186
177 109
141 262
230 175
405 66
240 232
67 336
292 309
42 129
283 314
164 90
264 186
321 211
366 246
28 43
37 60
141 136
12 18
105 262
378 249
179 341
271 184
118 194
363 117
360 42
314 340
253 248
42 110
15 404
244 72
123 255
296 26
201 272
217 127
339 225
368 272
132 372
239 129
273 51
18 224
27 60
129 391
230 195
285 135
65 320
197 70
370 38
215 298
196 22
195 126
140 258
53 154
41 292
199 185
15 325
137 224
98 17
132 125
303 197
344 397
216 307
392 182
316 49
298 249
162 58
305 230
393 111
160 321
123 389
100 170
46 254
405 295
94 397
187 128
54 108
59 258
173 243
379 88
327 96
287 29
313 252
59 131
268 275
110 366
342 185
88 401
180 175
65 357
176 281
291 156
110 38
199 405
53 263
303 381
197 160
221 152
216 30
5 276
198 82
61 297
96 398
101 207
312 300
252 327
138 173
19 249
379 77
181 291
107 109
391 239
94 161
32 26
105 195
176 18
301 287
269 216
238 300
109 111
376 96
378 100
109 264
130 183
297 59
352 381
264 367
164 376
389 345
47 378
95 333
283 215
191 288
340 42
303 59
400 211
87 183
269 118
359 338
156 34
149 51
26 200
71 252
224 96
223 26
384 358
148 156
263 400
121 32
120 63
157 182
202 141
5 128
62 181
140 171
34 76
351 251
175 101
60 376
332 190
118 187
54 181
155 370
354 52
58 298
39 147
212 250
2 275
30 352
241 249
210 92
12 47
225 311
39 239
321 262
401 272
168 38
132 330
312 361
260 36
258 164
332 176
227 216
195 10
304 373
359 31
176 318
50 199
398 264
100 140
236 405
202 186
66 352
231 160
215 100
113 304
77 47
113 325
328 37
200 220
354 25
48 342
254 37
394 299
197 140
363 366
268 348
122 91
65 11
298 120
61 170
176 275
127 171
19 11
124 374
155 85
215 82
392 332
44 53
210 378
179 243
197 148
204 380
357 249
118 193
64 36
18 9
70 323
210 183
303 174
270 258
236 134
25 208
181 13
184 215
44 224
118 216
296 342
235 57
353 218
359 42
318 191
273 112
262 176
91 77
43 195
322 16
132 94
295 142
191 179
296 397
66 50
150 207
97 13
210 265
370 24
291 203
194 112
14 182
50 175
394 46
49 75
250 344
299 251
315 6
261 111
144 156
84 225
65 51
123 42
103 217
23 352
325 349
31 120
275 140
215 366
171 263
176 59
343 124
374 68
338 23
272 159
84 93
46 144
398 193
399 197
258 256
179 262
123 10
63 124
9 387
130 117
61 54
250 156
152 272
403 171
12 322
49 106
178 246
372 249
249 127
67 320
33 208
126 251
319 67
77 313
283 195
220 248
326 322
180 39
388 336
136 238
378 87
250 326
345 236
220 279
211 307
230 186
267 376
88 177
154 16
216 366
30 313
230 171
140 95
376 37
287 359
113 390
14 332
330 379
237 332
403 71
132 138
18 32
47 383
55 50
313 199
202 287
176 77
333 7
363 16
359 77
96 101
267 347
176 190
147 324
167 169
126 274
260 138
136 142
7 354
300 320
248 327
103 146
92 134
193 18
293 355
335 182
298 386
175 404
323 221
330 75
19 176
325 282
5 154
16 34
331 193
298 175
239 284
195 78
378 384
58 14
270 81
269 392
359 299
324 384
201 355
5 318
147 149
331 128
223 373
159 197
287 78
141 88
203 70
333 199
91 111
120 39
147 12
382 298
217 335
153 88
57 308
319 137
233 212
241 10
319 373
101 358
256 111
330 134
323 92
142 66
64 165
204 122
109 148
48 95
101 195
168 247
307 328
101 103
345 295
177 113
81 377
178 236
379 70
156 126
291 405
208 48
276 81
369 104
298 41
169 155
254 146
42 207
202 5
307 229
110 34
244 33
403 217
122 121
141 372
217 137
69 178
203 42
75 107
284 304
348 54
202 194
23 157
200 318
31 396
183 135
191 105
319 171
72 198
177 48
89 194
275 118
110 236
258 357
81 126
59 32
117 389
303 255
82 2
208 373
350 276
151 145
151 308
238 26
84 108
219 134
127 404
76 127
379 48
69 92
187 292
144 370
297 392
92 66
320 89
291 136
245 302
66 235
241 29
124 122
291 42
392 271
61 86
303 276
217 394
156 392
305 134
308 226
363 53
190 143
103 305
161 300
252 165
275 221
236 12
146 37
60 375
135 177
190 311
319 77
384 405
211 142
257 379
186 335
193 101
135 150
404 150
216 398
47 131
238 111
342 15
31 62
311 193
338 303
29 78
321 16
340 322
265 368
271 377
402 127
53 400
16 42
370 280
225 53
28 80
241 36
241 193
220 120
231 50
338 161
119 51
393 77
20 39
113 385
122 380
78 326
331 252
346 354
306 178
389 5
250 275
19 60
112 313
16 251
236 293
62 37
77 58
138 26
268 366
50 128
159 201
12 49
13 277
129 266
213 145
240 35
202 321
395 38
87 164
313 116
321 146
160 239
360 156
208 112
386 27
229 118
24 226
180 119
62 142
212 382
278 372
261 53
242 40
102 157
177 18
171 88
153 50
65 387
237 367
181 287
277 382
313 128
177 70
306 106
161 50
47 109
386 54
316 16
144 212
208 87
12 312
267 32
239 283
197 29
265 195
368 169
296 87
298 292
82 223
279 286
130 85
86 170
405 227
322 109
112 94
111 286
387 205
54 49
66 49
285 322
60 258
206 243
57 401
312 284
198 160
297 11
177 144
17 25
339 156
90 31
309 170
77 147
379 335
75 377
202 398
174 292
7 402
142 291
69 281
159 401
230 74
87 400
345 2
12 229
263 19
247 145
319 112
65 313
127 323
343 22
202 212
87 171
4 113
46 235
193 69
88 361
185 40
60 62
267 126
56 242
258 238
206 33
53 292
209 136
357 92
116 18
236 185
352 344
325 295
167 30
102 37
11 284
288 35
140 60
177 164
5 238
345 106
270 308
404 161
75 305
71 258
392 117
235 62
197 161
278 207
337 230
140 9
41 95
142 403
221 77
227 106
292 287
366 93
61 251
61 51
203 87
195 311
152 355
277 265
179 212
69 15
39 114
378 166
277 66
381 379
107 342
127 320
54 223
169 38
264 14
394 340
250 328
249 140
178 55
184 195
357 87
199 120
52 118
382 311
88 92
201 55
98 219
355 364
330 297
29 332
370 368
301 23
312 392
188 91
225 34
317 387
87 359
119 101
223 241
203 404
294 248
256 107
137 238
210 19
243 333
126 150
131 383
71 230
290 96
107 81
264 94
121 372
62 273
239 16
153 45
146 284
68 132
65 88
250 140
272 395
292 301
268 81
270 127
146 307
368 85
118 212
238 310
11 312
273 93
164 5
273 351
219 105
209 254
390 179
30 65
297 10
402 112
180 339
350 206
398 195
320 263
105 286
91 124
180 386
195 203
236 322
108 259
60 101
59 47
8 22
299 27
328 284
366 78
227 283
114 86
49 164
227 280
28 402
391 137
309 235
48 304
216 15
264 235
101 387
74 253
268 146
347 79
106 153
337 108
32 222
358 60
210 335
316 84
107 373
128 31
232 220
26 267
216 282
82 397
216 373
107 345
273 61
199 62
89 31
187 340
347 249
373 75
75 263
388 198
44 330
202 185
2 106
153 293
403 378
359 107
29 303
355 159
277 323
357 251
389 221
298 316
384 82
347 212
95 389
292 118
31 312
263 161
152 57
313 230
31 313
393 62
322 239
17 7
314 187
12 60
109 48
27 286
22 173
357 285
209 373
182 70
271 19
298 59
12 101
331 360
372 219
237 197
19 183
327 376
274 146
388 342
405 147
307 94
275 65
319 348
71 202
88 90
394 118
164 358
202 127
303 25
324 29
378 162
115 155
34 287
89 142
228 355
339 230
10 82
109 381
205 81
321 14
48 207
189 41
301 273
38 228
69 134
105 333
246 182
289 95
405 311
67 298
132 288
95 64
37 287
182 394
119 118
76 184
229 339
303 192
281 37
31 27
141 279
67 312
380 327
175 325
216 378
100 400
246 314
146 182
263 105
275 211
171 381
391 283
341 21
264 11
182 275
219 243
219 104
394 378
300 305
92 16
88 330
367 364
378 109
225 13
126 400
87 32
11 345
303 221
354 208
15 258
209 56
153 257
311 203
16 31
122 196
158 327
233 252
173 248
27 384
87 5
393 262
134 255
14 148
342 256
132 256
252 175
160 37
42 97
60 29
340 153
96 367
384 112
300 186
16 59
314 134
193 236
164 203
383 121
48 19
303 334
345 144
393 185
38 193
39 181
343 354
209 184
363 5
203 392
161 46
133 317
388 176
269 230
256 31
150 263
146 249
300 154
69 247
283 31
116 288
263 136
165 369
50 306
283 47
231 256
192 343
320 194
230 236
313 66
177 63
339 186
240 179
386 128
39 50
79 319
382 398
48 221
301 332
225 86
194 102
379 148
126 207
225 171
386 297
141 181
282 137
29 357
165 91
198 359
332 157
314 339
354 302
47 28
134 158
355 213
143 263
217 119
298 391
220 383
141 320
9 79
240 165
148 246
275 24
270 225
328 65
366 301
202 178
169 130
137 394
112 376
44 338
77 403
76 90
73 368
252 209
29 279
86 53
164 14
65 264
49 326
330 225
387 40
335 224
128 236
397 204
215 5
223 39
100 178
102 211
195 209
257 299
3 220
270 146
242 288
239 212
82 285
121 243
82 267
285 51
74 7
317 141
37 23
303 392
85 364
185 365
134 109
294 242
134 186
89 14
184 109
88 108
328 195
64 56
66 193
262 311
207 321
281 224
288 289
231 143
340 197
71 295
48 371
187 381
325 41
258 400
199 132
225 400
378 144
312 106
259 49
93 146
62 293
376 146
252 75
161 105
263 29
100 273
147 335
358 195
15 144
236 15
306 34
259 174
239 303
351 236
15 29
240 126
38 87
218 326
227 330
141 107
221 314
337 339
158 372
274 207
332 97
133 327
143 285
345 322
384 387
20 61
305 373
227 69
61 100
320 264
6 204
207 398
250 76
388 111
246 5
213 226
209 268
75 101
399 272
106 88
243 313
23 148
113 31
86 162
19 258
265 92
216 211
144 391
154 328
246 307
328 303
194 211
393 176
405 164
31 231
136 177
233 161
182 361
106 217
382 134
9 244
142 150
210 357
270 27
235 269
304 270
326 323
137 209
280 169
181 11
218 108
119 112
235 108
53 20
87 29
143 112
77 311
331 292
263 251
114 351
339 148
90 92
313 339
87 326
281 139
64 121
167 136
117 183
238 381
102 119
247 280
126 295
134 123
312 403
62 327
248 56
171 326
292 110
62 311
396 47
195 320
72 35
157 18
269 326
75 82
223 382
297 323
182 101
115 274
20 15
91 294
258 246
313 378
281 34
366 313
328 174
217 203
109 376
318 387
375 223
118 311
286 146
100 123
192 358
212 16
335 231
303 69
223 322
43 72
275 39
217 404
344 32
239 161
304 127
15 193
340 323
20 47
263 393
279 174
69 120
112 161
376 78
316 34
190 337
23 42
121 80
209 161
323 47
373 279
223 376
238 405
245 122
224 202
254 405
78 75
292 120
117 111
10 404
127 286
57 213
129 154
194 377
324 146
141 403
340 142
239 382
46 19
236 5
299 229
321 59
230 263
239 286
171 241
14 141
352 142
325 160
239 12
264 176
212 30
277 88
3 198
195 291
223 297
82 90
368 364
212 103
49 217
14 366
219 403
310 192
266 190
293 301
327 101
321 330
235 389
46 77
313 62
134 150
65 405
45 259
63 374
10 84
62 247
269 180
339 112
194 30
201 152
351 376
21 200
370 293
78 87
128 337
229 404
239 238
70 162
250 29
128 67
114 194
70 119
315 346
152 97
17 296
27 82
35 248
46 11
37 235
256 48
111 211
150 198
358 95
303 66
379 111
223 231
50 193
29 268
258 392
16 197
344 197
347 312
253 296
53 183
321 194
120 36
44 100
328 373
253 192
39 210
296 98
398 180
191 383
128 239
338 2
49 101
47 397
249 343
254 118
271 351
223 134
157 10
180 381
49 231
259 298
284 75
2 199
37 282
19 37
231 88
382 55
371 113
210 34
78 176
292 405
239 36
143 271
207 242
227 397
259 348
296 222
306 144
178 252
132 118
210 203
275 161
231 367
124 64
131 327
125 75
67 75
16 186
267 377
302 242
103 54
237 201
162 229
105 42
219 324
73 367
60 286
233 199
12 279
137 360
220 27
251 193
57 69
30 291
231 101
140 127
87 194
191 63
307 197
51 90
11 180
231 403
254 43
397 328
134 230
195 318
377 381
133 253
242 127
358 52
344 276
208 101
294 350
202 166
212 191
261 269
120 22
12 32
263 216
230 96
390 240
236 299
264 128
323 368
286 303
20 229
157 266
342 28
37 49
46 179
193 216
280 272
397 221
295 320
13 353
81 250
49 304
233 263
367 152
187 51
64 396
26 393
40 99
96 298
156 224
59 364
71 323
127 60
394 322
31 373
221 120
118 27
140 118
176 295
65 110
95 387
320 321
323 239
322 195
219 349
348 70
23 97
305 141
154 339
205 52
107 48
403 62
32 161
277 50
76 59
391 281
114 97
263 224
90 312
244 303
77 320
266 281
138 256
311 14
85 169
116 78
119 357
403 313
390 158
100 184
235 178
377 252
301 386
193 119
246 339
115 213
46 224
181 175
9 206
323 103
162 170
221 193
71 239
269 309
284 230
342 248
288 310
42 377
363 189
127 377
282 393
54 378
345 46
106 100
220 374
296 179
171 301
187 142
59 146
227 299
195 30
347 5
216 225
225 308
126 15
271 360
162 389
358 253
357 51
103 258
206 21
403 134
106 405
133 116
210 360
203 102
139 364
91 26
392 339
141 271
300 32
328 5
94 30
65 106
404 66
180 216
158 91
57 115
171 54
337 314
2 54
321 379
81 304
149 126
162 189
121 83
39 89
221 391
258 109
377 347
149 140
239 181
234 1
97 339
372 263
379 76
82 29
308 237
248 240
115 395
381 318
65 394
291 180
196 243
41 238
34 143
108 60
105 68
233 134
117 338
262 109
275 287
328 159
195 137
125 105
120 30
255 100
5 248
346 344
398 282
352 301
393 378
212 141
95 11
284 282
194 265
272 247
77 131
110 381
22 244
77 198
282 274
125 138
76 257
363 351
300 72
42 102
378 31
103 310
181 226
271 403
128 189
366 156
283 237
394 120
31 393
100 271
378 361
85 159
49 197
336 72
91 196
28 233
50 404
56 276
71 249
400 366
286 220
265 360
282 250
167 38
260 31
283 254
86 375
194 82
321 156
116 253
345 81
309 386
22 317
142 16
202 405
312 50
362 401
193 319
340 326
352 255
65 189
15 231
58 356
314 153
99 121
251 225
65 119
293 228
137 335
322 15
223 224
286 307
369 315
90 332
144 216
103 15
374 113
184 229
380 252
311 394
323 195
358 305
335 195
154 82
180 150
92 400
31 37
203 49
398 311
405 92
394 14
391 271
334 122
222 245
101 355
127 405
277 303
346 95
237 218
15 202
128 46
162 269
398 344
211 59
41 23
386 142
137 212
280 201
54 382
294 198
321 376
32 134
229 178
217 392
298 154
401 280
358 278
348 269
28 109
233 319
74 64
297 42
161 307
238 166
366 186
160 191
90 301
326 170
361 89
306 392
262 98
277 209
309 251
391 182
47 176
106 97
37 70
146 11
207 82
38 337
282 342
325 249
195 254
393 254
64 118
96 70
70 320
382 42
62 18
277 236
221 164
84 264
126 146
171 189
46 207
297 220
286 358
139 395
161 65
86 338
19 359
76 19
144 180
216 178
179 4
312 89
265 150
32 2
112 386
140 82
16 330
118 378
344 49
202 310
5 37
297 103
216 403
327 138
313 183
389 100
263 186
229 401
239 60
396 385
381 361
57 274
58 366
101 19
169 57
143 71
339 126
203 15
78 394
227 30
18 379
74 317
59 148
140 321
15 158
190 118
170 54
99 36
174 195
256 230
31 209
351 181
319 208
129 357
141 376
357 323
267 116
142 405
173 91
170 259
212 97
270 285
118 236
38 280
258 46
12 134
235 338
375 229
265 292
154 340
287 392
291 154
90 331
12 46
176 9
321 324
154 181
95 327
363 266
103 397
136 394
238 91
100 238
388 118
129 23
136 227
210 2
322 275
180 227
238 216
315 25
85 370
62 345
207 381
332 183
384 36
201 57
316 86
311 217
348 249
325 154
206 64
217 320
151 306
317 124
19 325
348 103
164 44
107 327
147 326
239 251
292 23
39 357
72 358
106 291
297 270
173 127
184 176
199 111
173 56
114 277
129 386
265 273
126 39
156 184
362 382
268 140
76 101
302 204
3 252
158 7
43 46
50 320
40 104
319 75
155 368
76 377
27 199
241 37
300 393
190 339
303 30
258 221
300 271
177 127
246 42
134 212
68 43
311 392
31 176
240 27
38 145
164 149
335 363
146 162
25 64
378 405
390 354
113 276
47 313
291 249
176 137
20 265
225 237
161 277
46 174
146 13
161 320
5 327
293 247
60 392
203 386
325 60
126 258
255 156
363 45
66 197
390 289
14 326
194 378
256 163
235 261
110 102
205 378
180 352
297 348
303 313
218 309
344 283
76 97
326 119
356 241
77 277
46 193
67 202
253 209
352 382
183 10
360 292
5 176
125 111
356 24
327 43
84 400
340 403
356 184
303 205
237 73
373 324
16 392
359 194
398 249
192 48
131 48
357 93
142 301
139 201
192 35
275 37
200 397
236 348
109 29
139 209
312 47
78 11
126 335
18 353
132 253
84 275
199 71
114 50
294 40
19 146
142 65
84 261
20 224
229 392
402 35
279 270
257 404
308 227
89 291
257 320
63 373
291 275
197 275
154 392
127 398
368 274
283 194
297 397
313 282
118 3
103 123
311 239
249 227
236 359
47 217
119 60
231 193
53 182
330 256
9 31
77 82
253 75
42 44
232 371
153 306
258 76
342 279
319 328
194 12
326 102
87 256
237 356
107 133
250 352
339 366
143 246
295 273
360 46
259 353
67 171
83 371
322 134
253 256
120 249
306 290
41 277
162 53
394 313
178 184
348 164
397 286
299 266
89 363
185 354
66 322
101 230
120 146
378 335
313 148
101 15
58 92
130 395
290 357
56 396
47 354
173 354
95 320
71 393
325 254
150 402
328 379
284 303
277 89
47 52
12 286
279 5
278 195
251 39
36 223
352 162
14 71
19 89
297 241
338 123
83 17
199 149
67 303
63 372
219 179
204 372
56 166
357 47
191 342
396 3
240 243
177 263
292 50
208 349
211 28
300 336
315 40
181 381
36 335
332 62
112 136
248 191
281 238
106 321
382 348
262 347
363 88
285 61
355 280
238 60
284 178
371 253
15 297
171 197
28 4
221 233
325 357
186 194
360 171
176 185
157 306
349 83
54 297
288 43
352 379
295 78
203 178
103 73
255 273
144 386
266 34
209 284
197 45
360 357
321 89
59 10
342 62
144 29
380 124
403 26
147 28
339 176
405 61
383 18
64 267
6 387
290 361
398 187
44 230
32 249
126 77
236 51
353 44
381 270
172 387
105 33
363 23
373 210
180 321
1 26
348 95
247 348
386 231
182 265
103 197
328 140
146 134
105 385
258 209
220 43
268 30
205 320
300 265
303 203
333 121
226 237
82 347
62 271
100 14
244 350
376 180
40 122
27 312
116 195
332 271
207 149
363 337
300 286
347 94
345 118
372 105
223 141
328 258
183 366
295 178
110 298
86 231
207 313
62 306
18 42
344 270
12 189
65 134
270 313
390 40
252 303
45 264
91 31
258 180
382 70
56 380
321 19
197 379
235 16
160 78
39 66
186 389
355 168
149 39
134 393
198 105
325 264
171 81
96 320
278 304
405 300
141 240
386 209
364 247
379 268
25 186
376 45
189 54
239 148
204 334
25 172
161 41
41 11
28 278
132 173
118 116
157 337
112 116
373 202
90 55
62 339
282 81
111 271
361 241
11 189
273 330
141 32
107 233
210 241
62 326
60 161
106 261
211 339
85 247
42 287
172 7
249 150
283 297
369 245
345 65
238 313
29 391
359 146
72 233
297 299
54 216
203 147
319 372
322 46
349 1
114 146
214 206
67 62
50 382
9 209
6 397
77 70
398 238
231 109
28 318
176 380
305 369
102 175
318 270
154 157
2 78
92 137
81 243
221 157
56 349
11 93
169 237
158 6
48 26
258 190
290 215
382 114
261 55
187 146
112 254
211 264
62 319
55 299
96 404
233 179
255 170
168 283
207 73
47 319
366 207
325 398
276 248
88 118
49 312
328 251
170 53
239 292
49 404
87 313
397 19
256 133
154 251
12 304
42 283
175 360
310 358
343 248
25 374
284 348
325 191
121 276
386 12
262 354
96 194
309 271
221 143
14 325
117 353
332 217
94 205
60 189
5 171
81 103
264 183
283 41
128 41
300 12
2 212
376 5
265 11
124 33
308 5
69 202
197 345
332 311
141 160
317 219
216 142
162 164
212 322
344 48
199 134
41 42
131 342
301 338
28 67
223 258
227 312
269 251
318 220
41 102
71 20
382 238
23 180
164 106
293 367
392 386
264 319
111 12
307 37
28 195
208 188
1 253
283 12
258 174
43 22
393 133
141 197
324 52
379 177
377 394
391 246
273 323
221 16
325 223
238 46
135 229
126 275
136 46
379 187
169 247
23 266
352 47
403 282
64 369
82 339
316 366
308 167
392 136
153 145
232 191
257 170
280 155
114 339
297 129
392 195
313 224
327 37
271 14
405 332
149 223
205 219
365 242
52 87
240 220
345 149
146 343
188 329
119 128
236 120
375 51
249 403
258 330
43 377
328 76
149 398
193 76
304 347
214 385
235 135
272 226
382 281
121 26
64 288
319 224
387 270
164 327
34 322
105 208
176 239
37 212
250 82
367 169
161 100
123 29
231 182
282 306
79 268
265 361
95 379
388 36
235 18
277 70
319 128
208 209
187 239
50 348
247 322
76 202
111 363
97 129
100 97
224 92
28 305
5 127
16 277
139 367
2 311
401 62
151 115
194 398
33 334
293 356
118 303
241 377
66 331
25 296
326 37
299 382
49 60
193 403
18 200
198 260
254 263
331 180
71 95
325 109
387 26
358 48
16 184
42 328
364 159
230 286
90 175
35 191
275 394
291 223
131 343
102 164
167 293
27 230
377 137
335 392
49 193
404 190
43 91
80 63
395 308
20 359
98 402
191 120
393 199
238 384
20 295
60 50
180 210
205 254
120 321
128 108
352 217
183 386
195 238
5 357
237 152
42 20
282 391
118 23
351 97
138 192
69 268
87 386
122 21
117 20
109 319
69 211
350 199
21 199
225 44
178 398
195 348
279 288
373 178
76 306
69 118
356 177
299 189
277 299
378 217
82 60
73 221
160 318
306 291
233 205
2 178
22 166
112 320
167 272
224 351
191 192
240 333
126 383
4 371
398 29
199 37
278 219
265 161
87 348
337 264
313 100
106 251
171 118
199 31
107 398
210 221
117 313
11 37
333 380
82 281
102 312
199 341
299 34
308 362
405 91
270 355
53 108
30 366
283 403
42 267
15 311
93 100
248 302
161 359
79 209
143 118
395 169
5 200
146 109
127 283
67 282
324 186
101 305
220 31
191 289
303 307
378 52
138 28
239 258
144 171
111 255
215 363
82 227
161 62
377 78
171 42
387 374
211 37
128 153
392 164
320 283
344 71
109 217
52 253
305 344
86 47
41 295
231 175
250 171
88 62
382 291
177 39
191 200
254 30
282 20
69 171
307 47
364 399
90 50
187 145
87 300
389 34
176 112
91 233
32 342
32 64
240 31
223 109
176 256
134 377
335 282
49 2
204 21
160 147
243 383
196 113
46 114
235 69
175 100
237 370
391 337
229 108
91 199
67 9
316 134
332 171
31 320
265 230
347 278
373 318
313 381
143 290
209 377
23 215
96 271
27 101
294 387
257 247
344 82
343 200
108 106
120 327
69 137
376 101
74 240
275 199
395 159
343 6
2 58
182 290
269 338
405 49
76 282
34 55
302 219
128 110
257 252
298 282
74 387
289 334
67 160
14 337
13 316
312 279
300 202
46 264
185 204
28 304
79 234
114 251
227 250
221 378
2 217
332 51
205 68
56 109
314 148
70 251
131 12
307 330
304 116
146 241
392 149
337 293
160 142
402 31
325 220
291 69
345 305
284 286
327 373
96 144
39 96
201 145
287 295
127 59
340 400
45 88
305 342
198 256
270 347
13 230
37 295
141 87
175 48
270 286
100 225
349 28
325 347
81 46
48 292
340 186
283 89
60 136
290 223
178 84
128 224
48 140
305 79
261 183
296 350
39 128
303 178
11 224
244 32
223 256
111 335
287 174
282 136
156 97
51 13
49 129
112 348
90 330
160 71
323 183
354 245
75 398
400 127
366 290
338 273
189 187
105 327
32 236
61 259
94 82
49 277
392 265
205 348
403 10
55 146
12 344
102 212
176 224
82 236
53 235
15 373
231 23
12 35
292 70
71 187
227 15
185 68
13 135
164 193
64 166
22 373
235 268
70 357
317 99
175 14
38 272
43 371
103 134
190 87
151 210
265 250
174 297
250 150
275 209
14 319
272 370
340 203
54 283
271 157
19 189
140 59
97 283
136 239
394 15
229 117
403 89
48 27
40 296
322 19
250 321
270 103
28 75
28 232
361 69
305 295
113 1
179 105
102 101
232 296
343 383
216 88
252 111
240 222
249 118
95 323
47 345
24 280
78 49
140 62
242 384
231 216
325 131
231 27
228 362
32 16
9 305
226 367
60 236
255 195
372 40
313 5
191 36
87 267
211 298
397 340
379 404
27 256
284 319
233 276
18 55
138 334
285 71
191 350
30 211
210 106
241 228
88 19
239 112
290 44
352 119
313 14
151 146
62 256
251 183
9 177
285 325
321 76
333 242
332 348
20 263
312 216
198 146
54 84
102 363
223 67
73 272
230 69
192 242
143 16
319 174
247 228
397 63
344 268
320 137
176 384
129 178
286 7
262 227
23 144
371 243
273 322
181 320
331 299
366 281
373 320
301 212
305 327
106 303
189 88
132 158
87 160
223 19
120 176
230 223
59 18
346 121
325 275
290 129
143 41
223 381
194 39
356 280
143 366
396 74
339 157
301 238
395 280
199 67
296 132
403 263
241 95
386 106
391 157
197 136
136 281
16 136
29 95
123 261
43 83
281 297
219 341
142 304
152 362
102 59
25 200
368 251
281 285
397 373
41 37
23 164
238 335
244 26
311 86
162 175
41 216
175 47
304 32
85 167
94 236
146 92
46 147
386 265
284 12
396 333
186 312
195 56
94 46
307 78
136 76
3 111
356 352
19 231
297 207
36 91
240 124
37 65
34 309
184 154
325 323
6 310
80 397
188 374
312 140
211 305
379 295
254 344
307 34
54 70
103 46
14 160
322 254
325 342
156 76
62 118
180 27
286 6
328 164
235 216
254 165
180 70
17 252
116 105
280 362
277 42
303 318
316 184
93 135
379 287
212 14
300 178
404 44
301 218
357 55
101 95
405 174
194 233
186 252
171 398
203 134
405 327
120 256
382 357
396 81
22 99
84 218
222 377
28 171
13 309
90 265
190 71
209 246
263 313
127 31
102 142
263 358
93 184
48 398
178 361
50 129
223 331
181 103
59 134
36 242
373 342
314 403
392 118
175 361
313 382
77 238
224 207
174 148
282 5
12 359
268 357
77 331
16 250
84 375
223 92
47 292
176 340
327 113
87 179
326 94
28 253
180 199
321 44
277 178
134 326
201 115
182 69
301 400
216 69
238 114
54 146
5 384
34 183
400 88
153 392
21 172
5 233
279 60
196 204
192 372
300 338
392 142
100 108
309 53
136 176
54 298
38 361
207 95
35 303
241 273
398 394
110 58
65 197
250 217
65 207
279 253
325 348
227 238
95 295
299 87
161 312
264 66
87 255
224 285
323 283
223 180
232 374
394 376
181 404
351 290
29 326
2 270
250 92
383 344
239 141
215 292
53 353
136 198
180 306
268 264
9 336
223 307
129 314
281 77
89 59
31 164
47 37
159 381
249 183
119 160
325 339
230 359
378 25
227 76
164 146
403 210
55 41
164 338
377 64
290 264
87 19
96 54
191 52
82 95
35 146
168 237
369 252
129 249
101 18
87 244
246 84
221 11
213 168
226 139
114 297
49 387
65 84
297 72
39 59
265 223
69 65
150 78
303 156
367 38
139 356
164 30
126 101
224 193
74 200
106 275
316 212
216 147
212 15
326 298
42 264
313 2
194 84
377 373
263 221
398 89
324 359
240 36
30 279
351 300
143 257
265 270
359 284
142 217
152 183
366 337
345 5
92 114
338 275
67 195
268 372
60 90
76 10
345 268
5 320
110 88
229 100
201 399
393 236
52 347
82 379
378 264
95 243
287 313
382 307
92 57
189 82
66 150
110 5
401 395
346 35
251 111
309 389
15 256
144 366
269 382
336 32
372 342
262 325
146 352
54 12
356 168
353 285
84 183
321 199
105 30
95 69
319 321
214 397
88 227
169 272
119 82
183 93
280 151
131 209
224 15
263 291
49 301
191 186
357 139
42 187
300 127
71 271
209 29
15 194
295 313
297 382
146 251
156 95
91 185
66 345
194 76
166 185
87 90
357 366
63 161
312 258
372 296
154 351
308 367
229 225
77 146
43 25
87 109
227 256
108 314
265 187
87 102
41 209
293 273
167 395
320 239
87 118
405 275
367 178
42 202
18 373
220 233
303 9
102 128
375 135
11 160
322 65
79 320
2 136
135 338
134 328
397 208
258 337
281 73
273 257
297 319
156 174
155 175
270 161
3 383
69 177
46 295
90 305
11 209
193 399
151 257
118 46
357 378
217 42
73 356
59 323
94 253
143 363
98 172
241 303
16 109
159 46
381 27
193 87
387 319
352 313
250 182
150 96
304 327
236 137
127 305
157 268
402 146
144 227
50 174
65 171
61 216
19 239
127 87
83 68
84 263
71 340
87 306
328 194
115 228
294 245
268 360
210 311
187 257
283 110
254 207
31 405
259 100
18 119
87 405
66 87
141 55
94 393
233 312
108 195
394 295
380 220
265 149
287 330
138 333
87 57
318 324
331 19
405 231
82 62
253 79
299 161
183 229
295 283
178 177
50 259
89 18
57 139
82 15
322 136
146 177
263 27
290 363
357 381
345 211
45 55
366 97
212 123
304 319
134 352
256 344
119 262
344 373
109 254
96 47
263 304
257 55
284 377
304 236
88 190
195 39
394 176
176 300
4 31
15 335
4 256
265 299
322 2
208 286
293 227
54 119
82 298
78 241
300 306
312 180
103 95
116 312
326 2
354 220
176 118
217 306
177 67
204 25
376 265
252 236
227 62
39 335
164 127
171 146
69 160
171 339
263 249
370 139
137 379
70 123
193 268
360 277
324 131
264 153
279 127
127 347
113 116
219 204
372 383
192 188
110 177
194 60
219 21
160 227
126 307
307 59
340 127
120 5
176 97
134 241
58 175
321 186
278 179
96 386
351 15
311 265
11 54
194 256
105 185
9 47
323 290
107 165
166 371
49 103
405 194
4 163
264 382
59 376
39 118
392 275
193 209
210 11
223 193
67 306
283 251
172 369
95 13
313 136
275 298
122 373
348 281
217 386
164 398
357 283
140 12
380 9
322 174
221 199
162 10
344 377
398 397
20 264
317 310
47 286
333 253
306 93
234 198
232 116
248 312
311 330
55 211
119 146
325 216
230 42
331 265
394 174
49 357
187 236
318 325
373 252
265 308
88 93
313 229
377 52
179 205
154 95
344 15
141 113
178 238
111 107
203 325
55 126
96 106
153 135
34 386
325 1
37 69
177 306
28 83
14 258
264 241
220 126
170 235
301 88
34 251
86 84
221 386
19 62
285 13
356 355
60 39
37 136
193 202
315 354
328 29
58 41
361 171
321 241
161 54
160 212
233 146
270 46
269 389
394 62
367 399
128 142
71 60
43 320
348 228
186 270
47 58
195 70
33 358
103 69
76 11
221 12
308 139
46 158
335 269
145 167
397 326
309 117
373 46
109 312
14 156
177 121
382 189
64 111
216 96
79 276
164 112
134 118
251 227
82 187
295 370
116 69
357 18
108 70
235 255
249 133
65 41
91 248
119 207
186 292
232 134
376 111
96 76
202 78
298 295
6 8
135 389
31 387
143 210
378 49
104 256
75 371
211 50
55 101
171 340
291 301
175 92
257 227
73 313
177 197
140 379
252 354
188 43
374 42
239 15
249 305
95 382
305 133
82 175
254 208
282 249
118 348
144 157
120 27
197 181
395 370
334 95
34 119
265 225
182 238
380 147
31 322
58 400
261 108
251 235
356 375
136 153
210 283
63 343
101 166
117 225
379 401
194 258
278 263
398 66
319 94
39 221
246 320
249 351
40 200
240 28
134 300
87 271
361 50
290 95
171 137
275 180
96 112
311 275
42 220
45 106
180 137
268 397
359 46
211 195
137 49
251 93
176 149
390 200
120 373
124 8
270 171
18 131
283 18
265 96
290 314
286 5
195 394
300 273
364 152
128 361
224 323
68 165
364 228
131 56
210 398
212 72
22 4
49 182
55 149
384 202
330 284
76 394
143 295
363 42
89 262
300 209
398 110
312 55
225 108
394 323
219 256
29 212
341 242
116 25
49 29
109 101
232 380
317 172
20 84
100 117
303 396
220 141
103 330
277 90
300 29
354 200
136 275
120 276
18 144
378 186
402 3
128 55
277 322
290 337
381 378
255 290
352 106
359 126
314 144
219 113
328 323
46 37
352 311
281 386
125 260
201 226
301 34
252 378
345 273
74 165
14 161
122 63
235 130
35 358
55 136
207 318
330 133
319 48
72 232
179 30
339 224
192 234
111 282
275 273
191 245
146 256
160 31
92 110
222 317
68 94
405 230
321 60
321 70
363 353
289 4
197 46
245 243
231 29
252 381
395 399
164 300
282 55
190 10
89 76
359 199
203 82
3 244
209 278
74 141
275 61
299 337
18 250
377 158
129 156
194 306
178 299
42 59
252 279
199 374
65 141
227 239
386 94
170 106
322 39
174 101
363 316
101 405
82 126
197 382
90 221
84 309
372 224
227 197
222 17
3 317
314 180
307 250
133 177
200 289
298 69
289 263
19 284
292 137
207 94
273 367
76 216
273 108
157 77
200 376
141 39
353 51
224 239
207 363
348 154
224 136
156 287
305 32
96 12
339 357
236 42
39 100
78 303
195 176
246 351
377 268
328 282
216 11
56 200
65 303
32 227
66 328
258 227
317 192
326 328
134 231
316 210
146 265
187 149
236 77
244 342
269 183
198 341
279 47
44 363
383 354
238 263
51 53
264 400
189 331
153 332
376 1
114 144
15 377
196 232
207 151
325 193
120 56
326 398
190 314
258 250
270 189
140 210
172 165
300 262
340 211
382 67
209 389
210 303
96 71
142 311
243 63
268 112
136 216
242 179
319 25
229 187
166 387
11 320
275 44
36 105
161 348
87 290
15 320
246 292
142 332
335 150
316 15
398 266
66 27
23 382
5 62
33 67
324 63
394 114
103 42
270 54
290 164
18 156
300 279
306 142
197 290
353 229
141 311
339 183
123 53
257 148
95 373
384 78
215 357
29 291
340 249
368 293
404 291
112 134
286 134
26 177
25 72
149 381
63 83
87 178
3 373
303 109
183 314
107 334
76 157
319 223
156 65
178 49
166 28
292 386
194 11
320 216
149 203
297 193
328 31
18 71
258 363
368 92
93 309
42 82
165 198
231 282
221 252
348 193
114 281
86 207
249 190
195 69
154 215
184 15
297 388
48 127
186 397
194 376
39 16
43 383
259 53
54 197
208 191
326 376
364 251
177 31
18 216
384 263
107 393
171 211
305 193
227 42
397 202
26 113
73 139
398 228
272 115
62 330
79 31
161 110
290 70
345 379
181 2
195 391
303 206
387 204
345 178
340 147
405 186
133 52
199 3
235 38
136 274
356 370
203 89
19 378
149 193
296 1
400 197
340 101
141 328
89 227
166 9
340 126
191 8
20 251
397 342
78 297
122 336
141 249
60 106
361 148
20 92
107 305
319 393
352 178
282 182
372 253
154 30
95 236
28 354
44 135
331 101
42 118
47 227
304 30
328 71
316 156
260 336
373 89
313 33
236 320
376 287
180 217
268 103
129 194
104 310
171 395
308 355
144 246
233 164
306 286
397 372
298 20
203 71
275 78
291 128
49 224
53 157
275 190
280 159
270 348
335 110
139 145
154 322
363 382
58 282
83 98
51 255
305 323
19 319
336 166
179 342
307 339
112 77
37 386
14 134
264 43
313 305
173 64
13 389
197 88
238 224
131 239
106 34
12 112
61 84
191 252
226 57
248 242
165 248
301 2
239 246
42 153
351 129
308 155
121 165
194 67
294 243
221 60
295 314
325 248
290 136
146 347
380 374
309 291
31 372
48 404
209 286
402 74
328 147
239 126
116 222
139 322
9 286
70 250
180 14
335 340
297 127
381 114
78 286
373 322
228 326
67 109
45 360
71 301
306 218
47 180
46 2
355 73
77 264
303 32
123 225
23 14
30 405
244 371
218 339
363 129
220 177
386 403
91 222
185 388
34 332
89 69
194 61
71 322
158 200
384 146
217 160
111 300
350 303
354 121
179 176
363 144
316 180
60 405
111 90
29 322
132 248
67 70
70 352
89 218
208 109
400 361
55 5
169 73
97 357
161 242
382 301
84 162
126 193
288 263
118 184
42 270
133 95
297 71
249 62
300 106
153 62
271 290
194 224
48 103
62 114
46 250
193 97
259 152
268 292
102 290
193 228
364 39
250 295
113 252
394 348
176 48
338 239
164 322
112 90
398 338
261 282
299 128
120 340
53 277
268 392
52 77
265 15
392 95
14 382
37 325
54 268
182 143
319 335
330 318
404 377
385 21
78 282
197 394
348 241
67 49
200 278
283 252
387 121
211 48
90 186
111 240
180 299
176 249
384 199
331 337
323 181
318 74
252 120
320 298
39 224
141 193
281 20
122 222
298 325
79 124
16 88
112 42
167 152
49 153
5 148
404 153
197 241
50 187
130 364
171 345
44 211
381 66
351 203
395 356
216 153
303 271
250 126
258 10
239 97
338 51
127 345
377 163
49 345
88 142
329 83
232 208
114 19
387 43
286 227
246 14
45 187
96 363
354 248
207 405
87 303
291 39
176 82
376 268
279 176
126 263
353 62
275 18
242 173
300 75
335 2
114 174
255 93
320 18
88 15
391 351
354 98
82 316
19 348
92 76
183 271
87 121
308 152
250 319
325 316
137 271
278 256
157 162
9 107
26 188
282 198
313 176
231 119
119 210
178 197
9 312
128 405
112 60
332 339
16 139
388 163
170 73
55 320
195 54
109 158
367 280
155 362
114 184
51 399
60 11
15 181
315 204
118 150
3 165
223 392
392 379
279 306
31 195
391 23
140 227
39 352
202 279
290 49
357 182
103 153
102 162
363 157
58 295
142 20
284 31
95 252
243 132
173 63
88 103
364 362
164 66
161 268
134 340
73 370
236 227
64 227
95 383
266 154
171 149
71 298
249 92
163 32
211 251
106 142
212 236
274 201
191 372
185 72
229 338
377 207
351 182
16 384
85 57
171 162
15 187
130 73
193 320
57 399
228 399
305 87
144 176
10 255
363 404
94 358
236 112
202 46
36 198
333 33
147 174
285 225
307 300
396 289
401 167
380 405
113 347
366 134
398 381
106 39
32 202
217 39
57 293
11 67
304 286
316 190
157 29
52 344
15 391
300 327
53 197
164 69
9 179
243 79
28 208
160 34
81 374
238 209
110 164
313 126
351 11
266 144
226 14
225 331
396 146
274 213
379 216
11 62
79 105
264 137
31 306
282 364
101 198
30 156
231 313
127 106
345 76
363 14
48 66
345 401
181 29
146 306
245 132
77 78
88 49
330 184
112 392
141 5
396 304
116 335
195 141
379 39
123 46
277 189
344 328
74 264
2 164
116 220
55 186
175 405
154 156
110 153
240 279
1 3
89 382
82 382
242 133
320 88
338 162
185 158
347 305
85 345
164 299
134 239
15 128
220 324
26 149
119 348
380 262
300 403
266 337
207 340
369 33
261 391
131 141
330 339
359 321
114 215
88 187
134 182
153 189
300 189
37 111
130 60
160 356
331 119
367 401
363 292
269 61
129 355
351 366
151 355
386 332
331 255
377 216
290 195
396 336
37 265
257 277
170 225
162 261
212 140
162 51
325 67
29 216
3 206
62 109
372 233
393 208
92 160
200 346
241 398
230 91
257 300
150 38
377 220
292 143
193 103
356 175
130 209
319 78
100 111
270 126
31 249
363 300
65 127
233 150
78 373
313 153
62 321
109 296
287 137
359 195
326 126
364 356
29 66
71 140
9 186
255 161
51 309
314 71
209 310
271 161
6 25
310 75
380 105
227 171
348 15
166 214
11 231
159 123
75 5
227 41
106 258
208 79
398 39
193 211
166 198
323 320
138 318
390 196
193 345
179 79
310 99
325 16
20 285
243 204
405 223
299 292
360 50
402 343
346 325
207 134
220 330
97 316
231 229
73 308
92 164
297 219
239 282
178 39
29 14
27 215
324 95
61 154
355 167
377 311
14 112
298 88
212 353
292 55
387 295
304 233
311 187
220 267
316 65
254 297
300 74
148 381
325 358
153 287
208 387
328 227
23 106
147 31
306 137
263 140
207 216
174 255
389 229
180 71
394 61
136 41
397 118
83 125
359 327
335 101
219 320
331 110
252 398
320 387
72 99
287 217
174 231
320 235
328 12
344 403
236 392
42 184
67 256
32 133
180 58
45 87
57 151
76 119
278 4
81 258
45 299
91 133
302 138
330 337
297 87
300 293
368 320
318 378
241 263
44 235
186 48
216 62
211 379
139 362
281 151
321 325
15 134
213 370
378 75
149 287
263 376
294 260
172 390
49 58
271 405
325 57
238 403
239 31
271 285
239 5
339 400
337 405
78 335
314 271
285 154
237 364
271 338
123 92
283 377
18 45
133 212
147 224
199 209
202 208
392 210
193 134
200 242
72 42
110 130
27 47
123 38
241 106
284 134
303 153
359 118
353 84
45 110
143 298
222 196
400 299
207 319
279 31
110 307
389 251
247 368
380 17
198 240
223 146
310 380
115 226
98 387
403 203
48 59
232 42
195 148
77 232
42 393
269 156
360 238
278 36
125 173
203 312
221 309
283 327
207 249
398 108
109 77
342 204
156 143
403 348
238 339
58 203
275 95
87 249
284 32
235 225
186 171
215 51
348 187
399 401
194 136
286 347
384 253
312 28
271 164
150 54
221 70
41 92
147 394
130 38
53 71
63 390
68 380
258 199
154 175
316 215
14 2
232 284
373 69
160 66
181 48
71 348
69 49
88 112
29 373
120 54
331 311
48 194
325 50
162 255
212 320
224 394
357 45
378 195
265 269
292 285
131 336
76 262
247 218
122 350
299 153
273 231
193 377
290 88
372 297
148 298
393 32
90 209
297 45
396 43
195 61
112 381
143 162
150 112
384 288
398 65
76 171
87 381
269 282
54 109
228 274
270 303
278 64
363 103
115 247
104 278
106 44
117 86
332 154
321 11
60 251
109 268
298 291
324 109
262 236
331 361
252 146
18 95
393 186
154 148
243 124
96 330
256 103
398 197
252 241
209 77
15 378
282 119
127 197
226 264
30 320
258 170
177 11
49 64
260 173
34 270
231 42
151 24
61 320
354 278
297 279
129 356
271 95
2 39
167 115
224 370
264 307
67 164
115 152
379 182
404 128
215 76
371 296
131 384
373 369
392 357
85 145
248 179
282 160
190 246
323 233
337 23
376 181
203 39
298 30
252 393
265 140
313 58
303 257
358 262
176 143
9 402
96 238
281 16
126 397
164 238
114 23
27 37
176 96
91 161
254 113
207 262
343 74
64 312
197 216
251 84
363 97
211 66
146 264
106 359
262 379
25 124
9 344
103 316
171 48
382 280
327 303
405 134
306 275
79 340
106 216
111 66
178 114
330 345
404 110
335 66
282 322
274 355
241 211
82 306
67 398
153 309
112 213
62 282
153 109
256 166
110 189
14 403
283 398
262 52
246 139
117 261
377 254
256 216
214 286
30 398
102 50
104 75
52 28
327 18
374 192
77 95
98 369
75 387
392 39
376 396
203 140
142 70
45 386
258 249
112 284
54 78
322 150
46 338
108 353
101 152
43 81
376 300
28 113
378 81
16 386
379 69
378 89
351 339
206 121
94 62
186 326
381 373
320 393
402 313
18 291
373 181
120 116
49 221
401 364
241 313
160 137
365 278
304 378
66 344
60 345
277 285
29 114
55 100
69 48
88 249
251 178
7 165
261 229
323 96
312 313
77 150
211 164
373 163
397 256
84 339
163 380
114 246
184 14
357 203
30 220
93 51
102 184
229 65
381 78
187 404
257 128
46 210
40 369
267 27
37 319
180 54
252 211
266 322
171 19
9 193
166 373
225 114
39 300
85 401
287 311
225 181
149 216
27 88
241 149
134 301
339 194
67 66
199 220
299 71
330 144
315 388
64 47
294 196
267 197
237 24
2 50
224 54
349 245
26 9
236 171
101 106
306 305
170 117
317 68
22 383
403 255
269 353
157 106
191 171
179 28
137 363
340 384
153 171
150 227
96 18
199 323
269 84
157 357
318 402
66 330
76 197
297 41
285 139
315 342
171 279
129 102
62 48
153 202
230 163
319 295
25 253
392 82
211 377
227 394
186 29
47 208
238 268
61 53
72 374
70 167
136 405
112 300
141 192
315 350
384 52
340 87
249 15
62 261
250 186
177 134
252 63
134 227
322 335
105 15
226 51
244 222
125 220
149 194
41 103
247 66
198 327
87 263
47 214
306 249
28 346
268 332
167 226
76 137
359 250
164 128
306 11
152 247
84 285
65 332
350 35
78 238
85 356
327 1
267 71
102 153
231 212
135 174
119 194
195 2
171 120
77 42
75 325
97 142
15 271
176 56
87 101
13 16
139 65
314 230
116 343
227 281
157 298
13 170
137 395
238 126
356 401
82 233
27 53
7 303
46 397
62 300
75 141
398 321
74 336
298 164
315 68
281 377
185 378
400 34
326 307
146 179
131 236
82 221
5 277
129 339
209 37
295 164
370 375
199 236
119 306
67 300
148 136
380 7
375 123
224 283
76 303
384 312
70 356
139 368
268 32
239 76
344 95
325 122
155 367
237 229
400 41
47 248
238 75
126 194
129 394
96 88
141 11
3 369
193 328
289 124
277 292
300 95
66 167
253 260
176 312
95 75
186 149
47 22
221 352
211 149
153 273
47 267
398 393
220 373
301 180
404 58
194 252
380 146
388 94
267 191
145 362
394 216
326 54
251 210
92 144
308 370
262 32
404 251
247 274
122 233
256 284
18 369
368 24
273 292
290 118
126 291
388 127
134 264
281 154
2 379
10 378
79 286
322 393
44 183
402 317
89 392
395 73
380 179
36 206
320 233
242 254
196 63
27 79
37 59
379 235
141 45
308 247
31 49
227 252
108 112
19 137
76 13
385 56
49 112
309 210
35 5
124 244
226 117
151 130
291 45
399 151
83 248
73 362
320 382
348 12
33 240
74 17
53 229
10 251
88 404
292 251
380 198
404 70
151 238
384 141
397 243
15 171
96 209
146 320
253 405
127 158
377 16
400 320
146 300
133 344
359 270
176 92
356 115
68 104
88 228
79 236
359 90
95 65
284 208
175 224
202 295
258 69
377 297
310 138
372 185
316 319
13 123
37 195
235 376
31 236
345 181
312 242
4 214
161 106
127 403
140 189
149 379
32 381
269 400
103 281
28 245
128 109
180 12
362 168
150 87
233 260
258 147
10 180
282 400
112 53
190 378
82 366
175 97
249 112
285 201
402 185
240 204
221 290
306 379
77 5
106 392
121 91
97 379
95 131
134 100
53 273
111 5
15 270
304 164
141 267
76 392
270 128
241 189
187 103
174 392
71 34
206 276
275 70
233 75
319 181
54 313
330 59
223 66
274 379
195 300
224 230
399 226
311 47
118 301
249 394
210 313
243 43
328 149
197 323
322 49
307 227
49 270
157 34
404 268
304 224
73 247
61 37
106 70
109 405
353 10
77 43
31 318
304 4
174 77
405 90
283 164
291 312
301 405
82 129
80 206
155 272
161 132
392 49
106 381
75 25
337 281
169 399
250 129
287 102
57 395
37 50
241 183
2 300
72 205
272 362
195 36
28 313
209 151
352 330
330 94
287 386
186 42
78 141
52 373
262 87
286 120
319 249
243 83
297 208
177 394
210 137
175 153
194 161
359 312
89 221
163 196
216 275
405 387
392 270
255 271
146 290
112 16
41 386
199 105
186 374
96 189
207 312
59 209
215 135
134 312
90 231
105 214
16 90
75 52
39 199
92 96
332 277
327 16
65 279
303 107
340 344
23 272
259 135
127 42
280 137
279 358
303 268
49 210
136 82
303 348
321 96
179 63
333 124
92 54
364 308
156 215
99 206
403 298
320 12
403 307
394 262
101 129
328 41
21 253
271 153
139 151
223 311
236 216
264 101
392 403
182 71
59 186
109 112
69 76
83 132
254 69
372 200
404 197
51 269
154 180
89 275
18 371
352 54
55 47
134 149
276 385
386 126
292 66
103 142
5 288
231 180
397 171
155 168
106 183
150 12
212 77
402 243
263 18
148 143
296 81
109 360
154 12
315 165
110 87
227 261
285 314
194 238
69 224
2 274
74 397
357 281
111 220
95 134
394 263
210 171
161 11
397 249
319 251
190 142
110 225
30 330
214 208
300 114
332 137
12 29
382 217
360 92
321 227
321 373
196 158
258 65
214 75
375 53
228 168
128 266
217 210
286 28
120 254
71 133
69 252
69 212
382 48
77 324
93 182
210 275
404 262
127 133
14 348
37 394
263 122
212 154
248 234
67 113
320 28
66 195
75 150
313 202
76 366
292 332
161 224
69 78
384 303
396 161
325 366
51 10
44 263
87 191
25 212
135 61
384 133
197 210
135 273
285 389
109 11
348 322
67 30
236 152
174 229
178 161
336 5
251 285
277 45
174 117
106 400
340 224
352 326
373 164
120 133
379 271
389 70
36 131
59 221
268 311
87 103
197 150
212 374
223 361
366 180
44 61
371 5
174 12
87 309
118 103
319 210
179 52
68 124
180 140
386 259
393 141
100 338
78 153
27 405
20 237
87 207
269 27
209 177
398 11
168 24
163 188
377 11
172 40
67 176
161 30
216 126
45 90
118 144
213 70
4 240
158 394
142 110
12 402
61 338
146 95
350 341
307 282
115 117
265 50
125 199
211 110
233 342
97 47
328 405
156 87
154 187
359 176
372 252
371 87
144 189
69 353
201 213
169 159
228 401
297 123
174 283
32 146
371 1
273 203
230 373
238 175
106 71
270 298
104 242
89 311
9 267
335 18
195 32
13 375
127 134
337 184
297 48
152 280
319 262
42 306
258 230
290 157
291 55
194 66
187 331
131 31
382 181
39 134
328 60
352 137
30 312
16 110
147 5
320 103
194 393
49 306
275 119
174 197
62 30
376 175
120 82
285 259
102 151
123 51
69 119
167 237
281 15
231 39
5 64
379 94
191 149
323 351
60 197
63 81
282 66
372 35
246 290
205 9
180 194
295 5
306 376
224 77
231 398
161 113
267 177
180 202
160 65
335 389
140 359
282 194
135 381
20 44
161 142
297 337
13 71
71 65
92 183
210 86
292 103
258 62
282 112
176 100
18 94
161 31
180 404
237 38
305 136
315 94
113 81
157 184
272 274
374 7
45 331
324 231
271 281
88 299
251 44
236 328
227 298
26 249
304 267
359 394
327 195
12 161
307 92
341 158
243 372
100 353
241 381
308 169
254 137
331 153
177 149
295 141
55 378
34 82
109 75
362 293
229 180
10 117
405 379
344 223
395 155
266 332
251 53
182 23
271 195
182 77
316 306
101 303
386 49
39 164
153 360
277 195
48 49
35 25
174 295
34 140
394 12
74 312
19 181
55 224
68 7
118 325
301 210
124 56
298 161
257 110
78 158
113 284
201 181
392 197
376 176
364 239
246 316
31 295
207 41
305 393
95 321
112 266
121 172
115 237
182 86
24 197
332 114
230 397
325 94
50 269
88 61
147 249
9 385
106 18
262 318
181 277
11 140
148 41
238 161
260 171
161 190
314 109
286 322
309 375
68 262
345 15
160 320
259 292
248 222
314 352
66 283
141 216
246 251
10 285
353 235
42 400
300 343
161 55
136 404
220 315
132 40
84 135
136 270
189 238
142 264
249 114
381 322
181 78
129 283
15 170
255 183
175 177
62 291
299 322
377 383
298 106
22 214
264 339
347 318
240 396
247 401
22 243
208 303
9 214
325 344
379 231
132 48
189 15
43 376
394 101
348 29
322 77
61 114
19 103
2 375
270 65
378 189
129 144
229 405
259 117
21 83
34 235
137 175
360 197
110 266
189 45
76 405
335 305
382 123
247 24
338 389
96 45
354 116
19 106
142 361
369 377
150 31
303 335
392 292
260 343
369 248
289 276
248 146
398 270
65 239
350 124
59 212
312 286
99 380
322 161
193 352
377 160
271 190
355 38
319 305
403 12
203 19
185 260
162 273
379 221
405 195
20 82
393 65
158 350
36 377
249 2
286 68
401 293
128 360
5 177
89 178
248 113
328 59
161 221
146 141
165 276
379 119
342 125
398 345
133 288
347 177
114 59
303 70
126 30
146 335
280 57
250 5
133 377
139 38
216 342
153 238
231 303
262 230
142 360
405 95
405 215
304 264
82 78
65 307
78 101
28 378
79 56
59 394
263 133
230 147
183 73
176 301
277 335
225 90
71 304
236 357
345 177
178 258
343 374
271 201
393 344
394 87
299 398
112 162
120 178
314 164
377 215
127 241
386 360
52 31
135 218
248 289
195 325
313 255
109 316
5 112
232 378
110 29
83 179
175 237
223 49
361 37
29 331
136 400
262 126
11 307
352 325
291 119
266 82
151 368
210 82
153 70
118 153
386 15
17 125
267 387
164 223
398 377
23 142
145 280
196 192
389 108
284 39
356 57
47 339
381 30
236 231
360 58
184 335
163 6
77 61
41 319
79 350
345 264
60 307
141 47
363 265
301 89
405 345
250 48
326 268
396 198
334 343
284 335
143 235
97 181
299 308
402 147
400 332
403 224
312 209
304 174
47 250
127 393
170 44
363 156
129 143
343 35
119 62
78 103
322 283
16 379
391 62
184 363
73 228
339 379
270 164
193 197
269 59
387 383
157 14
10 225
240 3
115 399
285 229
69 141
291 86
279 32
136 161
304 253
91 64
53 283
270 11
339 381
392 37
299 96
267 224
376 18
275 328
252 87
178 239
30 373
316 290
241 147
212 297
225 183
49 154
287 337
262 263
66 203
58 94
18 247
223 147
320 14
55 246
397 209
112 295
323 266
19 45
174 209
27 185
82 147
253 378
28 348
174 131
240 286
142 137
18 146
321 300
41 257
225 273
212 194
384 302
255 338
217 37
297 275
322 78
387 165
344 4
120 126
339 292
141 129
63 347
54 5
383 98
211 312
189 102
68 303
325 138
290 307
151 38
134 81
208 242
182 258
215 97
347 121
42 65
11 386
132 230
387 71
247 38
319 55
75 230
180 335
258 39
62 44
11 142
117 273
41 181
348 199
137 65
196 40
303 81
97 144
383 288
49 340
397 318
12 391
368 183
264 223
110 78
381 101
126 64
340 320
182 76
146 186
263 153
110 373
298 123
94 199
340 78
321 94
300 4
270 330
48 403
54 362
116 74
263 287
112 224
393 103
104 91
261 190
373 88
46 5
334 380
79 132
11 326
382 39
176 147
13 10
29 171
46 178
90 404
184 153
381 34
108 118
319 42
187 12
60 183
65 114
46 400
57 272
88 71
57 181
109 345
339 306
375 273
319 405
303 306
293 169
95 314
278 233
115 14
192 198
296 219
385 333
141 76
130 272
171 265
266 171
46 180
192 390
56 47
5 153
34 2
365 317
210 291
29 235
171 249
144 178
174 134
177 76
394 342
60 397
377 278
344 322
312 171
69 38
121 68
32 240
255 297
70 13
188 245
156 271
378 215
163 192
96 69
359 170
48 312
76 174
101 77
29 75
320 199
97 62
212 251
367 66
274 167
113 372
395 201
153 140
345 224
274 140
328 291
229 251
132 91
107 103
186 236
190 313
323 319
382 190
331 41
65 231
9 30
300 259
223 30
47 209
182 190
100 30
103 16
114 319
43 185
127 379
263 383
328 221
54 311
87 231
304 320
14 12
372 374
186 383
145 370
224 327
140 207
194 344
35 294
126 60
158 289
46 236
343 220
76 381
217 291
53 143
49 256
72 252
349 173
262 107
28 105
382 118
237 151
165 354
360 400
301 311
265 282
148 215
186 304
5 377
251 157
55 137
343 378
371 260
296 383
221 189
359 283
59 367
55 118
326 241
111 305
47 48
76 55
27 233
195 177
106 89
164 51
363 311
273 269
48 300
225 255
91 232
130 309
49 264
154 227
216 277
298 398
275 137
388 242
128 101
305 263
349 22
305 383
290 389
155 130
254 312
258 136
148 337
160 106
1 243
98 341
30 43
150 309
149 320
287 106
173 28
256 126
377 171
66 53
16 403
3 56
143 82
227 18
307 236
253 199
393 258
5 65
351 285
357 160
298 89
95 174
247 398
191 121
88 41
40 317
339 363
36 185
327 250
187 231
363 71
114 357
275 134
42 305
348 150
11 311
359 326
392 211
109 190
2 76
290 266
345 283
181 114
221 27
281 119
161 394
261 338
97 381
220 192
335 37
114 366
384 297
326 321
129 174
376 233
236 142
153 183
368 136
129 92
381 292
379 151
161 67
342 47
2 89
89 197
181 119
279 209
359 340
117 157
295 372
229 44
60 326
191 381
129 5
12 230
349 105
123 251
107 1
5 402
58 399
158 343
171 374
263 112
299 255
251 326
132 305
183 389
205 325
145 364
270 148
176 91
394 331
151 247
177 29
265 339
382 128
180 136
18 49
264 193
377 231
340 95
235 142
356 152
175 42
96 361
177 404
212 312
398 331
74 163
328 171
287 382
30 88
42 181
43 105
121 263
308 280
299 102
107 7
118 251
28 77
376 405
146 277
309 76
393 265
268 241
33 276
150 360
368 152
18 69
12 55
124 214
331 71
307 16
215 403
177 19
241 103
332 44
110 299
264 305
149 312
187 345
306 88
367 24
189 58
96 293
370 130
328 30
23 273
43 192
6 74
212 186
77 153
29 265
286 113
120 28
109 209
270 29
75 383
345 29
87 126
262 240
249 253
49 118
220 56
252 90
391 303
112 195
208 56
258 219
312 346
257 360
340 193
360 19
66 118
20 300
386 55
19 282
243 98
202 207
29 193
168 225
275 82
279 67
386 88
87 254
102 45
281 215
249 361
225 20
14 154
207 39
179 373
78 177
369 99
37 96
102 314
15 66
136 137
30 134
317 397
306 118
54 175
183 61
160 140
327 71
41 299
212 224
165 22
268 359
329 294
69 175
395 364
384 320
239 114
378 282
328 39
320 46
404 298
45 241
381 45
387 87
323 377
207 352
12 119
174 264
18 249
264 283
184 182
398 55
390 278
230 348
34 97
92 398
193 140
218 66
209 378
164 303
355 382
264 216
198 65
137 304
106 262
233 113
306 301
308 356
58 238
290 312
164 332
34 114
283 175
70 66
140 282
110 359
404 189
180 15
37 141
111 263
324 377
19 16
177 193
376 320
186 150
26 199
377 402
377 32
2 400
118 195
88 300
54 295
19 31
11 15
347 26
77 335
282 277
103 356
221 180
71 87
364 181
209 405
262 324
197 339
71 264
360 71
167 139
227 403
112 378
278 242
126 78
195 216
286 252
194 164
302 390
397 223
269 86
305 109
322 180
176 277
341 390
159 151
67 74
121 289
381 28
394 404
11 59
305 239
250 281
300 282
258 375
330 9
141 324
351 142
189 231
69 238
353 225
225 130
96 153
271 148
218 398
217 54
186 13
292 164
49 62
45 29
164 58
182 363
305 166
149 273
273 280
256 1
38 57
193 381
30 241
345 207
335 202
289 346
201 338
381 160
116 297
342 263
403 180
104 83
267 48
68 74
405 382
175 144
375 44
399 355
137 382
284 5
71 154
313 118
105 260
300 16
162 259
79 249
78 397
118 106
243 163
291 403
378 351
343 8
199 268
251 59
330 275
254 191
212 112
189 100
207 69
252 305
41 303
382 5
200 177
149 283
391 190
334 341
134 218
18 279
94 256
293 237
353 328
171 379
207 271
193 225
319 320
382 210
112 103
194 92
89 54
186 319
318 304
398 364
2 203
111 32
301 18
109 382
47 25
63 68
256 25
334 219
369 47
41 348
226 190
178 212
18 212
290 251
298 119
183 20
263 36
316 271
223 136
127 210
254 402
169 360
248 198
129 126
165 124
136 118
338 285
83 26
346 166
292 351
303 119
313 95
356 226
188 242
313 29
47 61
313 325
270 224
3 64
366 84
266 304
227 392
209 335
38 368
362 110
207 92
71 251
141 252
46 335
126 49
294 173
244 166
90 146
180 203
177 59
67 127
161 381
224 189
366 295
336 333
271 89
55 203
62 128
212 300
145 395
142 249
73 57
295 360
372 369
386 241
212 87
224 180
298 90
258 231
148 221
326 27
22 253
2 305
189 120
5 322
361 272
389 170
394 282
315 253
309 183
23 239
136 159
18 39
270 394
215 401
66 357
239 230
190 171
42 92
392 41
320 197
195 12
47 88
93 13
186 297
190 50
69 319
152 293
400 356
157 54
376 150
384 393
81 343
200 365
27 357
405 284
313 86
28 9
190 326
401 151
148 316
162 235
395 237
202 195
287 39
126 86
300 94
322 144
216 323
316 231
166 385
197 264
192 31
298 257
87 301
107 131
88 360
340 263
266 184
242 390
291 379
171 158
48 56
25 249
167 370
105 343
39 325
97 154
297 197
47 75
144 203
186 337
158 220
111 103
31 112
270 320
54 345
252 318
100 301
61 218
325 332
75 388
268 216
82 393
334 336
364 167
241 65
398 147
194 90
270 116
391 151
203 128
284 141
187 215
298 193
190 27
177 354
325 256
405 149
12 291
107 136
149 264
401 76
400 96
210 136
390 349
310 208
328 136
195 93
378 77
269 164
191 31
134 291
70 15
308 293
11 44
171 347
62 367
143 97
192 373
238 328
330 219
394 19
82 231
65 319
67 270
275 217
31 397
233 317
199 387
54 53
174 10
73 159
15 127
48 241
5 262
185 294
101 69
71 256
134 304
342 161
277 58
216 176
193 194
70 312
359 208
148 366
144 71
283 187
294 43
323 76
285 182
205 305
322 215
286 164
219 166
120 16
181 76
174 323
102 15
402 176
216 90
137 202
77 405
386 162
200 254
397 146
249 91
171 27
311 337
111 396
321 264
241 161
175 71
342 91
136 348
99 276
124 204
141 134
286 328
212 313
190 42
178 275
379 103
69 256
187 195
164 76
292 400
51 100
67 137
376 209
325 252
34 215
179 82
282 44
20 93
259 306
73 152
324 118
19 90
34 246
12 179
321 195
5 275
136 30
250 160
202 283
42 249
76 142
283 268
109 186
274 251
206 349
5 131
358 208
178 320
66 140
20 175
150 174
288 118
273 298
123 69
36 177
178 304
339 137
59 19
377 321
197 11
15 44
148 357
8 63
360 146
27 320
323 119
99 198
224 126
18 103
195 59
310 116
182 299
125 5
182 148
10 144
18 75
322 241
249 164
130 368
90 29
70 344
295 207
284 263
292 366
8 390
298 14
223 32
155 139
177 398
133 118
324 253
38 159
210 150
268 11
59 239
363 261
335 19
120 258
304 141
97 148
29 400
153 348
208 388
221 160
178 326
210 320
399 280
351 215
287 178
41 170
134 62
344 286
317 21
144 271
371 158
82 380
352 181
38 246
128 184
44 19
2 340
291 215
336 75
290 281
405 224
257 88
29 92
129 225
171 187
312 405
48 180
287 353
378 319
202 216
295 156
221 86
16 326
69 372
39 159
141 177
151 362
359 227
325 230
200 141
119 89
118 48
41 76
186 119
211 118
39 97
340 150
16 118
109 174
403 221
264 31
214 63
263 292
20 389
307 42
125 371
62 400
193 266
50 189
146 69
19 250
194 323
59 281
27 2
238 400
264 331
195 263
123 273
78 298
300 198
179 124
377 166
174 321
58 55
56 279
404 331
287 58
253 77
362 247
274 320
323 186
100 309
37 216
312 275
236 126
255 307
106 189
195 81
162 313
46 100
321 323
212 270
26 165
90 69
268 322
49 11
128 301
174 393
71 337
306 181
354 1
54 110
321 193
256 224
384 49
109 176
5 303
56 371
207 12
184 95
266 148
365 263
127 187
141 207
262 82
172 116
382 293
166 199
11 238
404 140
177 355
402 224
182 378
236 224
193 210
128 88
241 230
67 405
26 191
13 325
283 49
87 201
210 18
366 142
368 367
136 361
379 11
241 207
312 69
118 318
106 119
176 131
12 86
186 52
230 335
313 131
303 114
218 266
333 99
318 9
97 292
18 313
177 336
223 335
70 199
323 265
375 30
84 18
140 323
275 239
295 307
92 46
2 328
373 197
140 19
101 286
9 101
321 197
146 74
95 328
108 117
189 89
400 153
392 70
325 31
335 405
16 61
298 265
332 144
204 63
282 16
55 263
142 42
200 36
323 258
147 146
120 239
223 403
254 241
270 134
322 216
169 168
194 37
96 263
89 164
383 369
283 328
307 62
363 391
143 144
176 344
112 270
55 404
120 19
393 56
59 194
190 239
89 394
52 383
62 404
228 145
126 9
15 405
284 376
258 307
161 339
295 337
144 186
359 211
313 373
264 389
306 337
89 61
231 277
179 206
207 394
75 286
128 216
62 277
253 347
3 166
271 101
95 305
392 55
255 20
76 186
47 105
32 101
107 197
376 397
49 15
250 114
242 343
341 172
390 204
215 119
328 306
165 383
217 381
353 255
153 197
189 405
216 189
265 190
321 304
240 192
162 285
164 27
11 328
299 246
199 191
71 275
117 53
219 133
107 177
334 242
306 321
375 93
97 141
163 146
384 120
325 246
400 50
269 117
107 284
379 161
373 284
291 352
321 252
373 161
55 313
240 120
107 252
88 82
397 1
400 316
107 29
37 330
331 177
56 40
312 322
201 151
211 231
106 50
155 73
186 101
100 269
92 287
78 174
65 133
161 45
9 334
342 26
107 263
177 233
101 283
335 386
85 308
148 332
200 396
127 330
110 250
213 395
59 391
242 276
378 258
376 186
102 92
379 344
327 109
221 340
171 103
74 380
269 285
95 23
90 297
400 128
323 330
92 34
12 299
33 303
175 13
159 368
211 308
154 210
370 228
208 185
303 113
15 283
392 180
294 72
59 282
338 403
141 358
303 296
241 300
28 25
199 181
71 397
203 65
312 16
184 129
258 215
301 251
37 286
301 392
366 157
293 213
169 24
255 2
87 25
230 87
228 139
304 249
271 299
274 226
190 187
335 306
81 186
319 154
252 394
313 264
398 112
88 10
202 348
267 49
125 336
19 18
162 225
151 300
248 127
29 359
167 247
61 381
328 219
392 231
338 90
279 91
207 146
95 361
182 90
65 66
108 175
230 340
166 342
70 50
29 174
263 82
56 296
278 387
241 221
356 159
380 354
238 110
30 11
380 312
367 201
260 132
230 60
60 95
348 126
327 176
61 263
356 2
237 272
389 174
249 48
274 295
91 372
106 311
84 255
77 375
15 27
42 101
279 11
203 275
287 360
252 392
191 374
285 283
180 207
98 276
292 238
149 376
391 49
339 250
233 30
335 249
234 387
263 331
28 224
46 256
252 1
330 55
179 327
343 118
355 197
336 199
74 313
67 31
30 360
134 161
314 47
223 210
398 118
260 158
153 367
258 134
257 211
49 241
265 55
50 110
273 235
51 44
333 206
400 265
209 95
82 67
378 404
229 259
249 301
136 77
307 112
210 54
161 291
200 388
340 264
85 395
14 339
50 180
213 368
248 188
110 268
262 46
297 12
129 332
219 245
373 253
280 366
219 343
220 138
21 191
180 103
339 257
209 81
363 326
313 151
5 82
79 166
202 95
390 334
315 188
306 103
42 189
112 126
183 353
87 181
75 166
70 143
171 286
212 136
305 330
134 321
177 303
11 150
156 190
207 301
398 5
121 18
354 64
292 12
149 153
312 14
223 176
141 161
100 10
105 318
274 159
403 39
320 54
197 357
160 154
171 275
397 177
189 112
231 224
54 29
126 327
289 344
244 286
317 232
282 71
266 246
224 183
113 83
136 381
303 324
256 378
137 23
17 64
171 160
61 93
235 20
357 379
101 127
57 368
178 290
111 267
16 241
348 291
94 91
96 273
344 134
344 348
258 70
180 86
30 193
336 12
130 152
20 135
96 331
88 316
71 231
397 164
18 108
158 118
140 16
369 107
363 65
268 27
313 67
78 212
312 221
80 5
364 190
195 134
382 127
394 146
42 322
148 34
239 373
171 382
150 195
101 265
348 146
209 42
141 127
253 43
170 404
279 195
157 143
67 340
24 404
233 380
58 102
222 384
256 262
279 28
157 186
161 189
231 345
358 105
10 309
306 127
312 239
5 289
227 27
125 248
399 247
70 217
405 359
360 148
180 399
128 2
168 401
393 30
263 232
77 106
23 153
269 170
333 278
112 13
128 321
111 328
253 95
346 358
166 4
193 142
318 3
369 79
199 22
378 298
149 238
42 144
339 263
31 43
392 352
261 273
246 263
313 342
30 252
312 142
94 249
31 300
39 254
101 29
92 227
318 32
195 312
201 337
288 294
78 403
167 155
263 32
382 187
225 389
397 276
1 81
296 286
254 383
207 179
397 365
386 398
238 264
343 278
384 186
156 246
1 121
267 249
161 48
66 219
242 253
194 216
269 53
102 331
77 295
174 335
184 164
384 252
47 111
236 160
350 262
293 201
359 11
112 271
331 257
228 57
316 14
235 287
374 1
177 160
319 159
359 301
324 66
337 156
77 241
335 42
250 20
197 361
292 195
387 322
65 148
13 235
28 107
27 212
210 164
109 15
81 248
12 211
393 377
65 147
26 195
296 64
322 325
252 383
285 100
405 19
56 262
140 327
145 308
113 146
197 366
257 400
376 299
118 177
371 310
202 9
301 330
204 349
300 373
34 337
227 291
5 330
251 331
147 295
27 105
304 166
76 71
361 398
294 188
263 95
68 17
179 318
297 176
101 391
235 23
171 217
323 30
70 2
350 343
90 366
126 282
325 202
193 137
376 32
400 223
31 211
146 42
386 266
102 379
311 386
234 253
47 92
41 109
387 82
189 377
245 124
233 103
47 120
388 350
164 308
71 227
366 127
78 320
309 259
127 238
350 253
212 111
159 370
117 84
12 216
229 88
114 156
268 39
394 403
123 281
231 47
54 239
266 251
186 3
405 198
158 315
392 325
125 133
239 299
289 242
216 241
149 239
229 170
211 246
90 344
370 168
360 344
206 104
330 42
235 86
31 321
191 284
6 17
27 150
387 254
224 359
330 126
368 246
221 76
298 137
230 78
322 319
309 338
102 339
335 95
70 112
319 263
285 44
66 304
85 328
5 114
382 392
67 277
241 275
307 265
37 398
2 31
127 322
77 207
312 141
179 393
270 300
85 139
376 393
106 137
338 306
63 22
313 82
164 225
323 292
183 129
237 85
258 154
400 14
223 112
248 75
109 31
15 37
153 20
266 271
88 292
134 303
87 82
263 41
263 371
233 116
144 301
336 48
127 109
337 137
167 213
126 328
252 263
106 361
65 375
46 47
14 273
131 198
34 23
239 268
153 160
67 5
69 42
6 296
381 54
54 241
15 319
330 405
23 110
303 349
262 216
298 50
325 384
44 39
56 6
211 250
192 79
353 213
263 398
30 306
30 261
202 109
377 136
143 381
86 183
327 66
113 47
158 245
63 296
23 193
396 253
211 95
160 258
270 236
250 62
258 282
356 136
274 293
93 170
318 267
62 304
118 43
337 215
50 255
374 134
360 174
378 91
128 297
143 281
225 93
304 177
246 312
167 399
221 247
271 146
16 351
6 196
164 29
168 399
249 256
26 27
160 12
28 7
315 22
236 325
174 224
206 334
112 197
31 105
144 275
268 120
161 195
5 300
205 103
246 357
119 66
249 5
284 310
20 338
109 396
2 44
181 252
76 344
353 106
366 77
110 360
292 2
182 144
225 355
112 141
308 401
236 49
92 292
225 283
222 26
111 160
281 148
211 362
152 292
254 64
239 150
293 280
171 62
118 120
134 202
330 397
221 119
236 90
94 268
229 171
34 103
49 9
249 300
326 319
141 345
176 30
12 271
229 123
214 347
128 353
62 141
154 382
290 382
41 111
96 151
262 283
272 293
353 156
305 326
54 275
377 27
386 382
12 405
251 261
334 124
384 327
258 97
159 130
323 82
106 382
66 77
182 95
287 351
229 357
298 118
323 378
117 218
181 330
127 181
5 319
303 290
209 347
295 101
382 142
222 284
285 309
368 379
251 258
287 335
2 277
404 320
101 90
305 77
75 342
328 313
19 238
19 149
174 143
109 373
103 231
314 266
291 11
263 298
87 195
342 378
208 65
298 363
317 262
254 240
319 134
370 82
153 312
198 208
192 369
67 103
250 75
18 111
211 93
59 335
318 358
345 290
22 387
181 297
258 263
141 263
245 79
120 9
88 250
397 9
291 2
275 265
212 70
148 363
39 46
43 390
127 11
213 73
163 371
115 73
46 96
181 274
269 66
141 175
236 103
6 242
22 254
154 366
262 386
182 41
317 206
258 241
150 48
178 70
291 54
210 69
55 95
311 177
288 199
286 132
59 382
396 383
343 138
175 32
65 352
319 111
257 287
95 359
107 83
220 4
125 64
241 378
396 87
292 175
303 31
300 153
131 113
321 136
264 311
226 355
174 403
313 48
283 216
220 147
162 377
394 199
279 161
66 290
284 347
247 306
28 209
281 14
97 268
230 243
339 299
324 127
273 362
29 213
209 119
222 124
60 330
22 7
205 384
18 267
392 212
96 38
235 345
96 223
111 230
15 156
179 113
207 342
265 213
129 237
254 147
32 70
327 60
345 373
253 26
187 38
132 133
261 49
118 393
19 109
178 301
287 352
292 304
325 324
220 1
320 359
104 33
384 254
11 263
16 203
347 220
187 299
250 37
78 147
257 265
330 76
337 193
357 403
211 254
367 355
295 65
115 362
358 36
168 57
53 10
265 375
94 109
21 222
27 39
110 140
114 143
257 50
311 279
316 129
309 283
78 344
53 381
348 398
330 378
62 363
53 93
75 62
252 258
211 283
392 54
319 36
351 14
270 59
375 146
141 270
249 307
117 13
350 289
104 179
264 29
313 41
321 114
44 150
42 15
306 351
377 197
11 184
295 171
143 89
160 19
42 378
112 160
86 218
127 150
87 176
73 280
236 203
194 108
170 183
241 345
268 363
322 137
383 313
282 65
104 383
306 29
389 259
405 171
216 209
208 98
34 187
354 91
301 265
279 191
325 210
117 178
245 105
140 41
78 59
374 138
311 212
76 199
111 344
194 5
318 59
70 283
174 126
312 118
236 127
46 305
18 228
396 394
230 179
46 134
117 197
185 346
220 254
375 251
252 300
137 291
103 10
64 345
22 248
282 210
178 379
312 305
332 363
392 291
131 307
383 204
298 300
250 270
251 320
209 203
239 87
360 5
388 166
191 198
129 275
52 5
181 152
61 238
297 203
331 277
200 222
24 399
325 126
89 112
298 189
96 392
337 110
118 321
184 339
187 90
391 339
239 50
335 295
263 43
208 333
5 342
342 87
133 222
168 73
224 254
186 328
189 49
76 117
404 277
141 321
46 95
197 101
67 304
47 197
194 259
208 77
263 203
392 144
28 324
71 69
264 360
303 19
360 366
404 41
52 318
252 210
283 62
320 215
26 346
97 274
377 320
42 178
289 21
193 71
340 286
24 355
113 232
198 127
334 196
209 202
42 262
80 233
61 353
357 143
12 146
334 305
401 102
240 234
43 256
390 6
244 68
383 310
291 313
371 131
126 219
150 119
307 18
250 263
92 141
371 81
123 235
205 330
389 10
27 313
186 211
134 160
282 11
83 402
252 180
295 52
337 114
112 227
136 119
54 30
120 279
87 202
140 267
273 299
79 242
58 174
102 148
290 97
85 367
136 189
59 257
101 312
15 279
27 340
142 263
31 46
26 5
254 134
146 322
275 382
290 148
111 176
277 128
103 164
76 144
114 164
197 109
311 39
274 38
382 126
58 331
175 148
257 344
93 10
391 97
112 400
169 151
360 298
156 137
215 29
37 157
320 29
61 108
211 397
198 348
299 218
314 332
392 58
303 249
245 1
109 106
282 212
333 56
394 48
117 51
357 78
3 74
79 46
101 184
11 16
69 67
27 54
373 343
164 208
244 7
351 144
382 143
152 23
198 307
357 178
201 167
88 2
69 53
218 10
126 380
227 126
112 277
117 255
275 58
18 36
310 67
53 82
157 156
233 186
295 300
280 130
382 29
111 330
233 131
286 82
349 131
194 195
295 30
394 81
86 103
265 239
82 174
312 307
330 239
275 150
11 228
22 26
252 289
322 264
283 19
123 379
378 95
156 290
94 373
382 270
325 390
37 381
58 291
157 287
249 269
48 335
180 328
96 303
110 31
182 217
229 93
88 331
382 37
201 24
231 66
198 373
68 329
339 5
215 391
221 231
183 235
357 13
48 359
204 343
281 97
87 46
13 44
386 316
358 268
123 157
90 281
133 3
202 311
107 313
270 361
82 66
116 289
282 311
140 55
39 123
383 232
282 264
148 391
5 41
311 70
90 340
208 132
252 253
87 291
201 168
161 199
95 256
161 217
297 325
114 16
198 216
309 29
81 403
16 258
319 282
118 270
297 137
395 274
178 394
391 314
116 30
67 54
239 307
390 396
253 387
12 275
161 186
31 223
195 190
91 75
306 283
150 101
216 59
252 319
164 48
147 396
5 56
282 268
207 142
250 161
48 60
141 242
218 225
229 398
367 209
352 89
114 119
332 297
176 381
264 323
194 221
19 186
118 242
264 195
133 373
373 28
208 32
47 335
239 321
388 46
283 16
307 283
362 237
404 323
181 331
211 18
363 246
392 345
22 341
273 13
404 71
164 224
194 270
184 193
113 320
308 339
352 110
59 320
42 331
21 188
328 239
236 398
181 311
353 137
61 162
323 66
136 303
380 207
246 140
380 121
344 387
37 312
91 46
29 137
203 160
117 61
73 401
364 115
106 297
12 314
30 90
238 320
120 208
146 221
354 124
71 134
319 327
101 93
11 126
203 281
75 320
264 61
47 112
49 199
82 16
380 343
147 101
198 254
42 126
235 238
157 190
357 23
209 150
340 270
258 110
210 236
219 127
96 266
393 95
66 30
348 287
56 289
397 262
85 272
48 322
77 107
254 216
325 343
348 239
210 70
176 387
345 146
78 312
89 137
107 140
257 308
318 384
171 194
37 223
222 302
399 41
78 120
297 154
361 246
38 155
145 24
177 262
25 232
186 82
197 328
117 251
348 18
306 311
109 283
193 283
82 18
112 279
34 320
274 399
60 370
309 108
134 137
31 36
347 163
62 27
315 17
39 263
319 331
131 118
146 398
388 372
49 291
53 15
59 326
120 397
273 229
383 5
230 207
126 268
23 314
142 169
266 100
190 331
377 317
31 262
330 230
310 113
82 150
279 69
71 16
269 229
183 211
265 216
323 34
358 202
107 238
235 84
29 27
59 27
316 144
319 238
235 259
71 394
47 181
259 87
304 305
102 55
259 29
58 361
18 67
102 88
392 282
259 241
193 356
67 328
173 80
326 197
41 144
203 20
197 291
294 402
361 41
194 292
193 359
181 284
127 216
45 361
305 360
218 49
203 106
3 188
72 104
183 123
123 77
53 338
238 103
268 393
307 5
44 261
186 386
155 24
81 15
24 139
313 250
404 221
192 91
325 6
398 71
95 384
252 31
207 78
335 403
375 100
15 136
376 305
295 140
277 351
212 86
147 198
212 220
307 89
276 4
320 378
217 207
241 323
68 252
338 218
363 187
161 96
273 45
127 114
348 258
256 245
176 241
221 183
114 306
271 102
293 159
36 192
178 137
76 12
284 320
160 109
205 74
39 283
181 301
202 18
297 195
75 6
331 194
385 47
59 226
282 217
147 134
146 312
291 283
256 320
31 132
94 88
126 178
381 268
207 316
161 310
75 327
300 150
264 102
236 283
363 136
256 313
394 42
350 234
172 22
206 25
76 31
300 71
313 211
209 5
381 345
379 305
344 31
283 223
371 343
5 42
248 26
301 39
75 149
160 118
18 179
379 360
236 164
400 357
109 161
210 345
235 10
158 354
249 39
403 106
232 289
264 30
105 173
241 198
186 56
29 149
295 270
356 326
223 360
209 326
72 371
94 324
136 393
382 129
330 50
95 331
178 291
238 262
305 286
255 229
70 42
250 11
403 324
298 42
223 396
18 284
87 135
254 66
375 170
300 303
103 303
30 345
323 128
120 87
2 306
325 224
103 228
109 210
131 305
325 334
401 221
322 50
77 162
62 239
287 94
314 368
90 328
403 161
37 140
238 18
298 49
397 112
171 218
148 144
70 69
394 337
367 130
190 134
323 164
322 37
208 161
127 120
177 281
319 66
333 113
335 263
19 224
221 357
331 123
404 265
41 175
394 126
109 71
280 228
42 376
146 283
381 19
140 352
235 41
140 223
230 112
285 18
340 227
283 11
313 12
49 216
342 320
283 128
377 191
52 242
180 153
323 180
73 274
156 193
211 327
405 75
326 227
86 10
161 5
346 107
89 181
195 95
264 114
363 230
38 142
71 247
8 21
164 285
33 222
105 52
137 119
373 113
398 223
134 89
141 18
281 144
358 300
5 206
8 387
274 24
177 373
268 58
93 285
29 136
393 249
11 61
381 202
362 169
32 325
360 29
150 357
191 136
394 180
351 23
178 195
42 241
279 109
123 84
177 212
31 12
347 376
263 63
392 181
356 272
163 220
140 221
76 326
378 201
5 66
277 221
381 209
161 108
371 342
137 203
359 300
26 380
344 126
120 233
139 401
118 230
122 191
74 242
250 405
211 238
342 25
81 138
92 181
153 117
12 282
12 87
324 278
242 318
243 80
273 30
203 393
305 3
146 29
272 12
12 59
192 396
114 87
363 314
192 354
229 61
275 301
55 175
251 231
180 187
224 129
242 48
48 378
399 293
388 74
77 257
129 114
130 69
120 377
231 301
392 177
384 74
113 344
150 328
67 275
281 316
11 5
74 127
3 288
346 310
369 32
348 34
67 307
5 278
258 203
402 248
212 171
192 200
258 20
127 361
308 159
71 277
299 250
325 137
273 259
398 340
312 59
351 382
350 26
312 173
389 161
351 127
384 319
328 305
79 214
338 353
184 399
253 402
209 207
303 283
19 217
36 32
363 118
348 179
288 248
303 50
238 48
141 318
93 128
374 158
315 343
297 363
236 201
126 43
112 27
15 175
118 381
366 102
340 5
116 81
89 176
27 208
311 126
280 85
359 74
159 155
227 37
291 400
348 360
28 344
301 153
344 327
2 299
283 37
344 37
116 318
22 350
277 187
136 269
313 60
156 266
21 166
162 100
292 221
106 299
248 305
33 83
390 383
5 254
35 286
301 203
127 255
189 400
258 53
397 37
292 190
33 289
62 337
109 220
114 386
109 30
65 373
393 402
55 331
343 199
111 82
321 77
305 398
140 286
340 140
389 44
31 227
290 5
391 277
25 304
403 405
336 387
300 367
71 284
281 186
401 274
54 160
307 134
305 92
27 49
13 46
181 153
18 257
323 312
263 120
251 182
39 281
300 82
171 303
4 243
33 372
160 101
216 376
99 296
281 195
46 148
108 13
41 360
264 86
14 338
42 345
111 372
109 402
19 78
88 145
41 236
286 161
46 82
76 313
321 263
371 297
318 161
267 81
26 394
325 327
66 279
157 114
12 321
9 276
312 319
361 55
376 322
201 130
249 279
20 259
115 145
26 262
146 127
254 268
62 23
15 305
211 322
297 112
7 83
312 135
124 276
147 403
269 108
64 21
344 300
274 103
396 79
157 246
209 39
9 171
268 134
281 323
12 81
275 386
186 402
60 120
34 290
120 81
172 99
138 35
258 404
241 305
57 24
135 53
355 85
184 306
45 58
186 158
140 89
180 2
250 305
320 328
38 293
175 178
51 84
335 28
257 134
86 259
73 364
282 221
360 337
50 283
295 110
173 371
197 48
74 376
21 354
72 158
11 227
16 65
112 82
212 48
52 3
300 248
311 137
123 66
16 247
207 282
164 60
297 304
152 24
298 381
256 113
46 249
217 398
190 229
403 149
146 70
242 397
123 128
263 373
89 210
77 195
262 29
346 116
195 15
292 54
359 319
197 239
188 22
394 32
378 199
29 111
19 197
166 27
3 393
320 150
368 355
74 8
376 319
391 345
102 47
390 188
357 331
217 29
368 281
275 60
334 179
246 96
60 16
209 141
6 289
127 111
194 373
63 113
24 73
112 394
131 393
91 260
223 65
323 150
387 191
92 87
33 165
111 84
110 126
201 73
235 270
210 238
27 348
112 261
170 108
352 58
222 327
147 29
47 371
386 312
136 66
129 197
325 258
161 376
194 150
170 10
187 361
241 12
60 153
356 213
275 403
278 212
306 322
128 292
402 341
134 391
193 218
120 313
91 262
284 403
265 41
230 18
206 83
300 166
86 309
321 307
152 85
144 263
63 121
97 392
106 14
385 120
50 14
30 108
341 387
360 335
312 310
181 271
85 115
79 28
260 342
199 186
161 70
233 303
248 346
194 29
375 261
253 222
332 287
146 73
160 127
60 55
339 153
376 62
161 171
381 335
263 267
250 143
286 378
319 90
235 100
210 195
373 249
190 203
94 230
96 90
181 77
230 59
274 280
202 249
65 277
29 381
11 12
328 376
241 62
18 312
225 143
361 360
202 312
103 12
357 316
358 378
213 130
65 300
234 64
116 383
106 123
161 185
303 394
176 361
303 72
368 2
88 323
177 324
238 95
223 59
190 153
382 119
107 344
88 51
249 382
201 308
28 207
185 21
345 101
108 20
96 95
221 171
137 241
42 326
64 18
304 69
344 146
295 129
15 129
311 78
287 291
65 164
226 293
347 141
154 58
30 231
45 298
1 56
74 134
5 393
161 140
209 363
326 239
20 261
370 151
34 363
236 88
373 186
303 227
382 246
130 247
209 112
94 344
166 344
346 122
103 27
314 70
212 5
174 120
94 303
176 32
231 81
283 360
369 125
352 295
340 379
101 54
286 71
277 224
362 85
376 313
330 335
382 174
244 83
118 15
16 303
135 10
76 58
106 180
352 159
46 310
404 193
287 256
88 175
45 327
293 155
178 211
19 67
87 60
94 70
202 230
71 287
106 141
289 383
160 314
62 361
82 224
223 328
54 134
287 194
155 355
230 48
282 405
393 327
344 358
92 225
90 311
146 379
301 216
310 1
231 153
310 343
153 298
65 381
10 61
157 148
69 97
322 337
182 337
249 363
353 251
277 316
142 241
134 23
399 155
12 323
183 330
377 146
120 71
142 397
354 296
42 300
187 66
398 41
102 391
284 227
223 194
49 363
351 217
42 11
221 84
348 373
60 216
62 378
381 77
361 313
161 303
287 171
11 136
136 18
355 145
137 301
180 89
368 401
391 34
300 37
5 102
310 198
78 224
23 297
263 207
37 313
375 10
58 229
313 239
308 183
77 102
305 186
339 290
32 131
134 181
283 405
338 13
32 177
394 41
93 235
246 281
363 100
311 300
141 64
295 321
55 239
309 44
212 263
311 323
217 5
120 1
161 176
323 282
179 253
225 301
21 342
239 95
239 140
164 19
134 320
35 300
256 30
292 141
127 263
323 146
179 288
232 177
182 328
237 143
79 113
176 2
112 11
354 6
230 46
324 71
105 393
320 118
366 271
261 285
96 50
304 193
158 81
330 87
176 207
236 403
255 285
32 252
405 54
100 53
31 103
397 163
218 183
47 87
58 332
126 319
241 283
79 48
177 174
389 65
381 305
272 308
344 131
274 168
16 394
42 134
136 403
301 236
290 11
5 260
144 37
23 290
96 377
28 214
257 178
22 354
13 255
186 53
136 379
289 208
66 340
250 216
286 253
179 383
323 217
247 193
74 18
217 397
66 215
262 202
395 226
254 311
303 6
209 197
252 48
164 71
224 227
373 48
392 323
320 164
12 39
78 161
58 300
48 133
361 357
323 55
287 126
397 216
95 124
157 97
184 300
263 191
295 281
89 139
353 170
382 227
241 194
35 127
215 157
281 339
360 404
367 228
265 189
316 157
218 53
239 144
139 271
127 343
187 110
330 118
250 34
69 257
259 10
400 311
202 393
161 153
111 78
360 37
405 307
117 375
76 187
236 182
216 299
396 104
146 253
201 401
11 313
137 300
89 297
398 60
377 405
124 196
37 58
314 34
104 374
207 376
154 143
87 18
90 190
72 81
267 379
276 188
232 248
258 321
218 313
45 175
240 374
94 405
32 239
287 298
230 100
186 330
160 42
91 72
62 16
396 249
273 20
34 135
268 270
11 300
50 359
46 106
129 134
228 375
221 29
295 348
120 2
202 161
253 278
380 196
136 45
314 154
403 101
231 298
163 253
317 75
283 373
176 377
316 314
382 300
324 347
156 203
101 46
36 372
177 249
77 392
12 118
236 107
128 351
34 153
130 139
20 309
319 392
15 112
322 231
203 230
282 235
141 186
178 77
86 229
185 48
70 270
114 12
223 316
383 374
177 278
268 195
176 202
400 45
317 318
405 14
391 184
231 393
68 21
165 25
48 327
43 71
180 164
373 264
316 136
123 96
135 287
245 196
162 251
64 199
243 185
47 104
156 2
44 108
315 276
215 231
330 23
105 9
300 109
354 63
295 16
249 221
60 227
25 52
193 12
75 1
156 23
385 74
51 389
107 72
15 337
58 66
213 24
359 209
208 219
230 270
174 386
212 348
386 29
41 123
11 319
270 87
404 389
397 233
292 96
35 387
303 287
300 381
405 305
193 78
299 263
195 286
168 130
63 254
328 321
216 78
376 375
262 303
194 249
57 130
294 234
343 387
300 309
127 46
139 159
300 96
257 292
380 206
37 238
72 36
161 125
209 194
19 221
127 321
319 118
111 161
282 148
44 273
374 116
9 103
246 61
136 231
176 238
255 108
335 128
346 99
172 35
27 141
103 344
132 6
378 391
230 300
382 60
165 373
306 325
313 299
134 25
194 19
88 54
265 5
368 168
20 271
57 370
397 75
47 83
39 130
80 390
208 268
304 146
133 111
233 166
291 15
174 94
215 266
41 89
315 63
146 239
109 221
40 63
311 178
216 71
325 268
1 185
283 144
110 90
221 178
136 62
59 70
310 121
126 18
220 79
270 256
141 282
14 331
157 351
376 156
38 152
284 224
300 404
320 392
285 183
101 300
392 102
119 239
284 254
71 161
210 176
320 379
231 117
143 23
363 161
239 389
220 28
48 5
103 66
86 51
224 181
383 373
348 203
345 297
178 20
225 153
6 79
320 177
370 115
314 157
203 61
18 324
247 57
332 375
254 219
393 12
98 384
173 220
233 241
197 95
155 401
108 162
24 167
47 202
214 204
45 78
403 197
26 385
330 313
322 257
65 330
199 15
283 313
370 367
9 346
17 349
190 15
252 256
275 195
23 339
258 236
219 369
27 297
59 45
217 326
381 141
108 123
82 151
62 405
169 213
293 181
326 258
209 391
325 200
361 102
324 330
405 361
386 366
332 239
186 216
345 306
164 34
277 270
259 93
325 141
11 393
27 94
183 162
154 283
11 324
290 37
254 178
87 283
349 104
141 126
283 178
187 403
37 142
369 343
177 202
348 39
306 150
193 393
247 356
112 111
79 141
91 315
119 42
185 315
20 95
152 145
288 232
81 9
213 379
183 375
125 3
252 131
182 114
133 42
384 42
78 46
19 328
249 377
313 392
274 364
147 207
163 369
89 168
282 90
379 210
7 21
223 101
182 156
306 89
152 139
280 213
110 246
124 83
381 263
103 384
375 23
160 230
144 181
372 104
275 352
79 202
92 187
119 316
360 90
361 322
207 335
313 292
359 54
216 34
243 18
102 251
307 58
160 291
201 170
222 325
29 106
160 323
15 298
132 315
337 357
359 37
87 366
152 401
297 47
182 277
379 323
41 47
134 297
194 54
365 206
190 218
381 321
34 221
48 126
400 376
137 250
386 171
95 164
237 404
181 227
41 119
181 256
236 23
202 388
320 241
47 230
200 87
158 43
364 370
66 325
119 84
137 107
301 119
351 281
77 53
300 313
328 32
68 107
216 120
166 297
198 174
46 219
96 58
153 15
312 304
108 180
268 352
268 231
23 392
71 150
96 136
299 203
250 134
182 382
331 175
128 58
338 93
269 41
82 160
146 229
79 47
194 316
239 405
260 43
251 92
195 252
319 309
148 351
332 143
269 123
311 97
108 93
43 279
112 347
330 48
12 176
334 6
330 27
370 171
27 290
311 148
399 356
378 94
383 342
134 348
339 283
295 66
359 373
211 403
34 330
128 338
262 223
311 197
194 18
199 310
305 49
119 290
284 267
256 9
60 54
114 150
101 316
376 56
313 146
306 51
395 368
77 25
18 326
82 335
251 13
185 373
106 58
54 236
28 238
319 307
330 93
181 106
97 184
373 25
338 111
70 287
86 123
209 322
175 399
212 298
96 59
43 240
137 39
264 95
376 87
203 339
231 270
130 106
41 291
166 171
153 187
236 241
12 148
29 298
284 35
154 203
226 364
264 62
89 141
73 399
377 376
298 331
135 117
68 6
177 332
321 55
5 146
164 393
253 6
38 85
327 15
134 184
246 18
120 231
65 177
55 298
224 357
332 156
272 139
45 41
398 90
223 5
112 331
193 269
265 153
192 64
155 57
160 224
123 353
320 305
159 167
2 159
218 170
375 20
98 388
283 392
191 380
71 178
331 50
339 405
137 45
241 5
311 194
53 271
29 379
340 404
142 394
307 352
2 194
210 48
384 335
232 192
343 253
228 60
342 37
157 78
177 42
19 291
251 311
231 142
39 23
384 284
253 336
207 118
107 245
29 211
95 369
14 357
118 277
197 59
387 284
275 94
342 193
224 12
90 95
337 60
55 344
273 379
160 76
158 242
404 211
54 37
233 200
275 96
282 203
150 313
87 146
326 41
96 254
239 199
120 79
57 237
296 374
49 275
269 20
173 245
127 209
216 101
39 323
177 75
171 183
312 127
287 16
38 213
85 319
398 212
331 389
49 140
128 322
146 39
121 43
95 284
76 129
146 56
161 59
279 385
99 7
150 47
202 12
51 229
212 232
203 239
265 84
372 350
69 62
250 330
345 254
250 184
160 307
361 271
210 287
103 322
126 405
308 368
405 321
62 54
50 58
179 349
178 209
102 247
42 89
260 248
158 296
50 223
309 181
5 76
354 107
303 305
401 38
243 296
379 316
136 359
27 186
389 319
293 73
61 311
253 91
292 189
171 180
377 109
15 2
359 212
325 311
342 384
216 212
223 270
257 102
263 405
50 344
230 164
208 385
81 216
174 208
359 119
149 300
320 268
126 105
287 5
365 232
163 276
31 338
47 351
50 313
86 20
212 55
136 344
39 360
239 47
1 22
398 27
313 179
314 114
390 219
122 354
189 283
111 301
180 183
154 152
345 335
146 236
251 15
50 249
34 382
389 353
5 186
312 95
87 61
125 233
101 137
269 13
327 94
369 334
91 371
42 148
392 140
111 15
379 195
363 357
97 282
219 158
190 290
250 32
18 184
158 204
178 180
348 327
103 140
107 402
279 295
231 5
87 177
134 87
370 169
48 105
379 319
151 213
215 171
62 323
95 337
152 168
295 328
42 2
195 353
267 260
207 325
41 96
166 315
207 174
14 215
264 194
112 220
123 170
316 376
398 140
42 54
86 255
284 62
68 33
65 361
42 212
69 297
225 261
153 292
94 298
403 58
194 295
175 174
207 37
395 355
318 278
303 64
372 43
402 284
132 56
391 316
47 320
310 232
134 101
389 255
227 194
301 164
136 323
153 76
300 384
102 11
249 312
311 164
114 316
194 322
231 330
404 5
118 265
306 54
9 313
88 265
340 319
376 118
187 360
266 187
205 7
33 91
141 214
340 160
259 338
331 268
108 224
301 215
274 367
32 335
263 90
163 64
249 209
391 227
107 149
113 6
292 197
270 156
220 249
35 17
126 285
219 12
47 258
134 131
208 233
364 38
382 273
174 108
41 66
313 397
31 202
111 352
357 183
225 215
29 30
2 330
114 377
405 42
375 285
346 138
299 193
243 236
295 2
46 18
200 349
249 111
204 40
194 183
178 162
352 102
193 335
229 150
387 365
369 121
397 121
102 96
313 324
265 44
118 297
290 332
136 352
112 67
285 117
56 198
111 236
394 144
81 104
378 197
187 89
376 26
355 237
307 363
88 162
178 217
392 238
121 188
151 293
193 282
43 207
283 381
278 248
376 48
101 31
41 153
40 21
12 113
327 11
298 92
332 391
303 282
246 88
2 112
34 93
307 70
264 381
212 393
79 205
381 301
327 254
307 209
300 250
252 248
160 326
251 291
33 31
326 261
9 141
65 82
179 270
262 195
40 75
117 235
250 377
223 359
99 165
272 378
140 306
158 254
100 84
360 403
94 52
238 174
314 366
12 319
140 307
220 19
193 382
365 74
216 116
285 212
66 339
300 263
47 303
284 249
253 263
380 267
205 341
266 316
147 67
270 77
202 74
287 143
271 180
191 81
89 287
372 81
19 54
54 106
77 309
372 94
201 322
264 375
328 15
175 187
313 340
193 373
149 37
215 271
239 11
162 319
342 253
387 371
23 250
68 72
160 110
230 11
184 20
377 186
228 169
194 49
337 144
384 347
18 79
87 133
161 326
299 18
14 114
50 45
396 242
283 59
375 250
53 313
118 332
43 107
40 25
283 30
92 178
251 100
262 296
179 403
16 249
11 175
393 256
404 241
238 393
315 56
252 11
292 142
261 353
139 399
95 111
260 234
324 346
169 150
30 174
158 288
5 263
208 276
327 334
46 287
237 155
255 259
61 156
405 46
102 357
55 62
185 318
306 401
136 358
36 350
48 339
171 134
208 82
293 187
223 227
25 214
114 311
89 217
219 185
335 41
67 126
30 16
364 155
103 137
84 382
335 265
312 65
250 41
38 236
161 118
18 281
328 292
316 23
289 206
24 272
126 292
199 376
374 310
32 191
97 134
377 378
363 277
50 15
86 299
23 181
54 394
69 295
180 238
256 267
216 150
297 295
221 306
153 58
87 93
24 293
289 17
295 376
377 70
178 386
379 376
214 122
377 325
287 142
277 31
81 322
320 313
26 75
342 56
96 127
64 317
132 371
220 127
161 42
36 234
176 26
109 320
352 306
90 73
216 14
90 171
353 20
69 31
29 65
356 112
75 223
274 139
360 193
179 3
249 342
176 81
127 95
221 250
359 128
216 164
270 246
37 153
148 184
222 354
311 326
5 101
305 71
401 301
121 349
377 233
195 142
250 12
209 61
31 60
244 289
364 293
118 186
283 231
202 342
46 150
378 102
19 28
269 339
190 19
66 241
177 330
348 131
266 325
303 325
386 175
351 156
103 179
194 325
264 231
252 43
193 110
123 146
34 282
271 16
112 403
281 141
173 206
259 123
3 192
94 25
332 57
197 106
128 162
230 131
373 36
344 252
173 104
255 263
299 386
285 218
310 278
264 270
71 319
270 140
129 361
247 139
297 273
335 87
287 197
82 230
59 14
141 377
191 220
123 309
356 167
203 197
403 189
280 237
126 69
325 405
295 82
145 293
129 19
101 238
191 47
151 274
130 282
223 84
318 297
394 150
333 387
128 175
216 5
130 237
69 191
23 223
284 177
36 396
318 37
255 135
305 146
18 377
364 169
198 230
338 225
271 136
300 285
401 115
345 397
305 89
318 313
251 250
325 345
178 241
130 356
218 100
78 37
29 283
62 112
265 70
29 376
109 282
250 136
185 279
48 393
20 112
48 166
360 55
197 316
319 147
164 382
60 320
77 148
386 50
102 332
165 341
30 60
64 240
112 69
256 116
5 335
186 221
323 298
94 69
46 209
128 90
122 32
150 92
94 295
74 279
403 59
161 230
133 300
333 172
126 46
310 286
162 357
113 220
156 297
369 22
345 89
263 295
345 202
290 377
101 153
244 374
291 364
21 208
103 120
236 297
51 261
214 276
351 149
291 270
111 392
79 5
359 109
259 51
271 97
221 300
286 403
46 146
190 215
33 219
273 170
279 323
161 319
211 306
234 6
202 267
238 59
185 32
228 183
209 213
274 362
254 82
51 203
77 29
199 102
53 389
250 239
151 395
101 285
175 265
405 398
64 325
199 402
352 216
31 335
101 291
58 176
326 357
106 94
379 5
190 194
23 119
256 191
194 268
254 341
142 328
150 281
295 224
240 196
34 255
12 110
82 89
388 199
90 129
186 105
164 135
67 91
15 87
342 238
343 222
163 113
328 274
31 208
270 238
273 353
120 67
200 109
282 42
261 218
189 381
229 235
263 345
53 306
339 34
327 82
231 284
80 72
389 273
153 386
12 16
2 119
344 267
293 190
146 263
8 317
58 292
291 70
326 262
15 18
363 271
88 217
75 384
185 343
164 153
277 69
48 289
227 344
345 223
70 16
377 359
303 302
285 110
58 330
78 405
277 212
348 69
37 323
181 328
347 358
66 308
380 109
378 39
88 50
203 287
143 86
339 182
236 305
256 81
264 117
74 405
54 102
202 101
166 127
314 135
366 381
284 241
210 348
324 36
357 194
90 18
201 169
71 191
225 51
203 322
141 101
339 266
378 262
340 74
102 298
235 61
405 212
34 321
382 146
71 139
164 174
109 136
403 373
319 139
113 21
27 324
49 171
275 142
231 404
77 394
307 137
62 322
111 16
308 197
88 77
62 212
320 398
62 251
22 125
82 330
142 230
51 115
270 195
227 300
24 364
377 66
209 320
194 141
349 47
43 236
87 260
303 359
74 241
193 34
239 249
398 389
202 359
175 49
198 207
179 27
195 140
231 366
84 170
275 16
227 367
192 26
246 97
153 226
387 79
224 120
281 92
326 19
238 271
393 403
166 72
100 135
77 54
64 262
15 47
106 228
204 43
104 294
138 371
366 29
129 18
62 286
195 110
231 59
194 27
319 182
394 82
241 39
170 251
277 82
28 276
167 368
231 320
311 375
231 328
250 394
305 197
142 58
391 110
379 109
325 320
47 164
233 286
176 105
187 281
123 95
161 119
189 313
230 15
327 125
199 173
160 136
62 154
63 278
114 148
95 107
306 297
209 110
122 7
12 311
287 119
378 12
357 291
212 31
375 235
359 187
114 76
57 159
403 295
229 13
177 7
137 12
348 64
153 90
323 11
398 148
391 357
120 41
257 401
111 403
57 190
91 68
64 347
45 394
199 397
318 64
247 370
264 184
266 391
400 405
148 19
193 361
337 271
321 275
120 238
205 262
298 252
38 24
256 383
78 268
137 14
236 264
116 260
243 192
213 399
319 158
128 20
277 203
93 212
266 89
109 143
307 263
44 117
260 278
356 169
166 286
