*Vertices 77
56 "#21"
16 "#41"
1 "#12"
64 "#5"
8 "#32"
21 "#40"
47 "#59"
29 "#34"
42 "#36"
12 "#70"
25 "#65"
4 "#45"
32 "#52"
6 "#61"
63 "#75"
5 "#1"
35 "#66"
69 "#26"
71 "#35"
36 "#73"
55 "#25"
2 "#15"
23 "#43"
3 "#69"
14 "#20"
76 "#38"
7 "#16"
61 "#14"
68 "#51"
45 "#22"
72 "#67"
13 "#23"
52 "#0"
28 "#57"
48 "#19"
57 "#50"
54 "#54"
60 "#42"
44 "#27"
19 "#9"
67 "#55"
30 "#72"
77 "#10"
39 "#44"
20 "#6"
62 "#33"
15 "#28"
65 "#60"
11 "#46"
33 "#29"
46 "#68"
43 "#53"
10 "#71"
66 "#3"
22 "#49"
31 "#63"
9 "#7"
26 "#30"
24 "#8"
38 "#62"
53 "#64"
18 "#17"
70 "#37"
51 "#18"
58 "#47"
59 "#74"
37 "#4"
50 "#24"
27 "#48"
75 "#58"
41 "#76"
74 "#2"
40 "#31"
49 "#39"
17 "#13"
73 "#11"
34 "#56"
*Edges
29 2
43 2
71 6
18 44
40 45
23 59
64 51
1 40
22 5
44 22
53 72
43 3
32 68
35 46
36 3
24 1
40 56
76 42
29 56
73 24
58 2
71 42
27 44
70 49
70 47
7 32
19 33
14 61
22 25
44 15
37 32
11 17
54 5
63 10
20 72
53 51
76 24
27 52
11 4
63 41
24 28
59 36
16 5
47 20
32 24
15 55
26 13
36 12
36 19
77 53
42 15
2 33
68 3
60 13
71 66
2 65
58 47
64 11
6 4
39 29
23 52
9 42
27 70
18 4
52 4
68 51
24 40
77 22
19 4
36 41
1 28
18 70
51 27
20 49
17 71
12 59
1 73
53 7
11 53
52 68
16 35
16 38
27 11
43 65
64 34
19 35
75 32
4 71
15 26
27 13
19 9
72 51
76 6
37 7
6 7
24 51
31 50
17 35
4 37
71 77
34 13
38 11
68 34
72 11
62 73
18 45
34 16
67 60
19 41
71 19
4 38
18 17
72 45
19 17
15 75
27 37
30 36
67 17
22 2
53 21
19 2
56 46
57 24
61 18
13 5
63 12
13 67
15 76
15 70
25 47
4 42
46 49
30 43
16 60
5 7
27 21
40 70
8 52
30 59
50 4
47 49
18 15
24 49
14 52
27 58
71 11
23 51
22 26
72 13
41 59
31 62
1 61
38 45
20 43
69 31
49 34
53 8
74 73
59 26
54 77
41 12
39 49
21 38
69 50
24 9
17 60
3 29
42 24
68 73
12 30
38 69
47 35
56 50
72 40
38 34
14 5
23 48
45 14
53 47
19 59
52 18
7 77
13 53
27 26
45 61
53 56
39 75
64 16
56 43
8 6
53 52
7 76
50 68
47 27
28 32
26 5
19 22
73 28
61 40
59 63
4 46
29 48
18 58
68 77
31 45
43 36
47 44
64 72
7 45
39 45
23 2
5 38
27 15
52 11
42 75
53 5
44 49
72 7
17 66
40 73
57 3
71 67
76 23
52 38
51 61
39 51
50 3
18 71
40 13
32 73
71 8
37 50
77 6
75 13
53 46
20 18
20 65
64 4
24 2
22 33
58 53
42 11
15 39
50 57
28 68
36 63
75 33
38 62
30 63
28 75
50 47
42 19
60 40
38 50
36 10
27 40
31 38
3 23
64 13
73 75
50 77
61 23
8 21
18 19
41 30
29 23
51 2
46 6
51 40
4 57
39 42
46 47
16 21
22 3
22 15
61 52
22 54
4 68
76 9
21 5
67 58
19 23
27 53
4 77
24 58
6 32
58 51
30 3
68 49
34 72
57 49
44 25
45 56
33 3
29 51
57 68
48 51
56 7
56 39
70 44
77 57
18 37
18 27
31 42
4 17
48 39
3 2
37 64
65 66
23 36
58 60
1 68
33 17
1 75
77 8
26 54
3 48
