*Vertices 187
46 "#87"
93 "#25"
167 "#141"
79 "#34"
32 "#183"
4 "#176"
145 "#126"
84 "#81"
23 "#155"
104 "#134"
143 "#30"
52 "#146"
121 "#152"
73 "#3"
146 "#66"
182 "#47"
134 "#61"
122 "#123"
171 "#185"
16 "#77"
96 "#43"
140 "#130"
133 "#101"
152 "#128"
130 "#86"
108 "#98"
162 "#156"
61 "#35"
56 "#90"
148 "#164"
15 "#95"
165 "#29"
7 "#55"
183 "#57"
5 "#103"
124 "#19"
119 "#80"
137 "#21"
78 "#22"
172 "#177"
95 "#38"
25 "#1"
125 "#114"
160 "#178"
135 "#117"
136 "#26"
68 "#89"
138 "#162"
51 "#54"
59 "#44"
105 "#186"
156 "#180"
44 "#157"
41 "#150"
113 "#52"
158 "#88"
69 "#39"
107 "#184"
151 "#15"
109 "#78"
83 "#120"
33 "#182"
2 "#49"
120 "#93"
54 "#99"
91 "#11"
45 "#70"
149 "#148"
179 "#85"
9 "#37"
175 "#158"
30 "#91"
24 "#140"
74 "#46"
8 "#41"
187 "#4"
127 "#74"
67 "#139"
75 "#175"
36 "#45"
174 "#84"
118 "#8"
123 "#79"
178 "#20"
106 "#133"
150 "#119"
153 "#97"
147 "#121"
3 "#48"
1 "#71"
86 "#174"
19 "#42"
101 "#64"
115 "#92"
99 "#169"
169 "#5"
112 "#171"
66 "#16"
131 "#104"
21 "#18"
180 "#115"
50 "#149"
57 "#124"
72 "#110"
28 "#63"
55 "#96"
13 "#160"
70 "#75"
129 "#166"
163 "#173"
170 "#28"
6 "#118"
88 "#7"
18 "#12"
97 "#151"
26 "#125"
181 "#51"
39 "#136"
164 "#145"
35 "#23"
94 "#72"
14 "#138"
48 "#109"
62 "#73"
63 "#163"
37 "#122"
27 "#137"
80 "#107"
176 "#179"
161 "#60"
12 "#172"
77 "#31"
89 "#58"
114 "#111"
141 "#9"
173 "#154"
60 "#68"
155 "#24"
154 "#129"
65 "#83"
10 "#69"
166 "#13"
17 "#170"
142 "#56"
126 "#65"
71 "#67"
64 "#6"
98 "#94"
82 "#17"
53 "#113"
20 "#10"
102 "#147"
139 "#143"
144 "#108"
103 "#53"
117 "#82"
111 "#32"
157 "#131"
110 "#168"
185 "#165"
47 "#102"
116 "#106"
186 "#116"
85 "#62"
38 "#33"
31 "#132"
34 "#36"
81 "#0"
100 "#135"
58 "#142"
184 "#112"
40 "#50"
132 "#100"
22 "#127"
87 "#14"
76 "#27"
159 "#40"
42 "#167"
11 "#161"
43 "#181"
128 "#105"
29 "#59"
177 "#153"
90 "#76"
168 "#159"
92 "#144"
49 "#2"
*Edges
130 56
55 98
144 116
68 158
173 162
9 34
130 71
68 130
46 20
172 176
132 37
157 9
142 89
38 29
164 24
40 166
100 14
126 165
167 41
146 163
67 39
66 159
122 6
109 119
124 42
59 73
77 120
106 137
184 52
73 141
26 6
106 22
176 17
160 32
26 41
44 99
172 105
131 116
24 121
59 56
92 48
35 81
27 67
120 179
177 115
178 91
117 109
103 21
130 155
123 18
70 45
71 131
102 92
186 6
128 116
114 116
74 34
65 109
182 7
100 67
131 59
51 132
139 149
29 84
54 107
49 93
177 80
13 185
83 37
167 182
80 64
156 32
80 48
2 126
186 64
108 47
85 142
76 31
25 50
10 45
64 87
184 144
23 26
163 35
69 29
39 168
173 138
186 180
177 59
11 159
70 155
134 142
65 113
177 179
120 15
141 76
96 89
113 178
96 2
187 9
38 39
153 54
27 171
9 89
1 94
46 56
127 56
107 134
114 53
103 87
156 112
152 106
167 52
64 136
109 84
146 130
80 31
67 53
174 65
36 88
15 55
187 76
108 98
31 106
105 121
35 18
100 6
160 163
41 58
181 159
128 83
133 47
129 117
11 185
26 97
129 177
51 159
74 89
100 63
170 49
81 3
1 87
124 67
66 170
124 169
126 3
178 141
165 134
2 9
53 48
120 123
8 76
177 102
121 101
48 58
113 19
126 119
59 34
187 82
40 117
113 91
93 157
96 79
145 130
156 43
43 112
93 156
84 101
106 100
81 72
154 39
69 91
108 79
156 171
151 59
176 86
13 162
29 51
38 2
187 134
58 92
175 162
17 160
186 135
35 71
71 98
41 177
180 37
63 110
37 122
105 86
59 138
24 41
55 153
6 145
83 147
64 145
53 128
125 186
39 152
24 52
31 152
107 71
25 64
69 3
178 165
101 9
110 168
43 186
141 121
178 78
182 64
179 87
167 24
170 93
187 71
37 42
14 154
101 127
144 125
69 81
78 61
84 16
169 159
63 13
145 37
61 115
69 76
32 33
10 40
107 176
101 182
184 24
97 164
72 48
2 165
33 105
85 160
38 76
34 113
87 20
182 187
104 36
84 117
39 22
31 154
136 151
134 8
125 25
93 171
43 107
117 146
23 42
90 70
122 26
161 35
7 60
19 22
114 135
81 28
92 149
142 118
158 48
61 159
99 129
44 138
155 143
177 58
181 49
127 62
141 7
17 32
137 88
170 181
122 159
23 138
79 89
89 137
147 37
146 155
171 146
31 27
27 86
118 95
39 100
133 181
27 142
85 176
46 30
187 19
4 75
180 138
117 16
112 121
25 96
121 52
32 43
76 143
75 100
177 121
164 32
35 78
47 54
104 108
52 134
138 63
107 156
26 135
114 48
26 76
178 166
64 51
88 96
64 45
173 94
126 187
119 174
178 134
92 177
87 140
145 186
38 74
121 59
99 162
22 108
4 160
38 69
149 41
118 151
22 87
119 117
155 62
25 76
111 127
76 89
127 29
43 163
76 18
152 22
32 105
41 50
181 185
182 79
89 95
180 145
150 135
157 124
64 144
140 154
175 99
41 109
97 58
140 31
180 129
160 43
31 119
20 159
156 54
12 33
89 19
70 94
158 56
46 120
101 25
157 100
59 127
67 9
181 88
92 75
24 153
120 11
72 53
145 147
126 8
135 86
76 106
60 89
77 151
7 95
150 186
162 177
57 96
23 13
159 62
94 127
147 186
124 40
69 93
183 69
101 3
12 27
30 68
12 32
140 152
62 70
134 18
64 1
93 183
71 24
85 62
176 75
52 92
117 18
4 156
76 24
12 172
162 138
133 98
186 157
168 162
26 145
107 4
185 63
88 42
4 112
119 80
165 71
129 175
86 141
24 139
111 54
173 13
161 3
36 137
94 111
15 98
98 187
139 143
127 125
101 113
123 23
179 58
101 88
149 176
16 174
141 151
8 124
127 117
36 9
43 33
55 54
173 140
141 35
32 75
186 25
76 74
67 157
63 23
23 99
170 2
141 118
43 75
2 155
24 97
24 149
123 119
115 56
35 111
115 30
181 132
110 138
72 184
153 158
105 107
76 146
177 50
51 181
72 46
70 108
111 5
146 161
11 123
181 175
124 87
94 32
169 108
53 74
41 92
158 120
137 19
18 29
128 114
46 77
23 11
44 185
187 101
78 155
50 167
14 64
10 67
161 1
153 52
130 30
87 104
7 178
80 124
44 162
141 97
92 162
171 32
43 17
88 37
86 33
185 173
73 7
85 81
80 72
71 52
8 67
50 139
140 19
23 129
6 63
126 143
86 180
171 157
2 30
30 158
129 138
21 29
129 131
20 35
87 136
109 75
103 20
186 57
43 176
1 136
5 55
63 44
146 124
182 94
132 133
125 63
107 160
76 23
94 87
140 67
120 68
21 9
104 106
138 168
135 147
64 165
177 52
50 24
105 160
182 9
102 107
41 164
169 18
31 14
8 187
111 10
92 24
43 12
34 60
23 185
101 29
67 154
152 100
128 80
181 174
80 14
74 113
49 30
59 125
145 83
137 155
169 47
82 8
47 55
37 150
179 37
151 21
45 72
27 157
179 20
157 154
159 46
4 33
27 39
161 155
97 41
81 103
52 164
51 36
79 88
127 5
140 106
42 179
158 129
23 110
173 42
9 8
106 67
37 26
64 20
26 72
129 42
26 147
186 37
33 71
178 103
12 4
56 79
72 116
42 44
176 94
161 81
147 150
176 32
161 184
138 185
162 38
115 54
120 56
121 164
180 122
173 64
88 141
48 125
129 162
63 129
91 74
120 153
76 137
99 185
25 170
146 81
150 72
41 10
112 176
170 95
7 113
184 48
72 10
113 78
149 52
157 22
141 36
25 3
131 53
95 42
64 73
125 116
30 184
40 87
41 52
182 96
130 115
121 92
123 61
138 148
131 48
153 143
159 79
170 79
103 46
142 95
98 19
68 56
143 24
157 106
180 4
11 173
105 12
15 133
78 111
15 153
35 43
2 80
185 129
113 28
185 175
155 69
153 5
154 104
137 91
148 13
162 23
25 2
30 179
97 76
164 92
115 156
117 123
14 140
179 103
60 91
35 7
72 114
138 99
99 107
167 155
21 178
132 174
122 150
124 10
92 158
163 75
57 135
153 47
140 94
167 92
72 98
149 85
85 159
96 8
143 52
62 45
177 138
140 27
89 110
79 66
57 37
45 127
107 32
86 107
59 162
89 91
172 107
179 66
150 125
136 75
45 90
102 176
65 186
126 76
77 157
25 36
150 57
14 119
181 59
136 17
177 180
170 51
78 18
44 11
45 136
148 162
128 72
33 134
151 142
113 3
162 63
96 117
152 74
91 6
147 180
89 82
186 122
118 60
186 77
120 103
113 82
186 91
58 164
80 30
134 166
88 95
71 155
134 105
149 97
57 26
4 105
132 54
60 161
161 48
121 149
50 92
110 182
44 110
72 144
58 109
183 49
67 31
59 144
178 28
86 59
80 1
170 36
50 164
117 101
98 153
119 16
158 46
53 152
112 163
31 157
9 25
53 116
179 76
94 90
82 96
54 127
4 172
108 133
127 123
11 95
163 123
10 166
46 71
132 153
7 143
44 13
5 47
34 21
157 18
87 45
120 23
48 30
20 78
168 98
146 89
110 15
105 59
143 184
68 46
155 49
66 93
174 84
80 53
83 186
48 116
89 88
44 129
2 89
115 68
163 17
174 25
6 98
140 64
64 94
176 4
95 113
94 62
140 110
42 110
100 154
60 114
87 182
114 145
6 168
182 82
161 30
29 49
145 80
61 182
6 150
47 15
106 8
35 169
113 119
165 73
123 76
136 25
114 131
116 184
123 109
122 57
38 155
120 115
121 41
11 175
65 126
86 12
3 143
120 183
129 59
183 56
105 171
66 166
134 71
9 82
153 184
4 43
160 156
165 87
134 126
144 142
67 22
93 29
59 118
166 165
124 9
61 96
127 90
69 149
41 47
34 82
133 153
187 52
17 12
130 52
131 72
44 6
167 71
43 34
130 186
167 187
140 158
104 27
32 112
187 155
123 29
174 109
43 105
67 158
144 127
10 141
55 133
110 11
122 145
160 176
110 129
60 73
111 132
177 131
161 71
83 4
172 86
76 177
27 100
158 95
33 171
136 28
29 183
54 99
19 2
88 57
182 11
121 50
71 60
18 20
83 180
96 74
120 130
164 139
129 11
9 95
122 83
169 146
139 153
36 181
180 107
73 126
180 150
176 163
101 64
137 38
103 35
187 130
54 94
65 6
34 186
108 87
181 57
79 183
64 31
58 52
132 98
45 26
33 17
65 119
182 155
159 93
182 1
116 80
140 100
30 87
141 60
150 45
165 10
155 81
117 38
130 153
133 54
180 128
21 78
94 136
186 103
148 173
152 27
105 17
154 27
113 25
76 11
74 82
18 127
44 23
115 179
92 100
95 18
167 26
86 121
145 135
135 122
74 146
173 99
2 161
158 10
37 96
120 79
91 21
120 127
29 76
69 78
61 66
111 18
1 184
159 95
109 16
159 45
155 7
94 45
48 144
42 138
31 18
145 150
161 69
134 76
102 52
80 20
179 130
138 13
65 84
41 139
96 181
182 89
76 157
99 112
178 73
38 19
7 64
6 135
130 47
180 160
108 153
84 127
133 51
38 89
95 148
79 61
184 114
83 150
39 104
142 178
178 98
7 101
165 40
26 182
65 181
137 2
160 171
19 78
171 44
32 109
126 113
113 22
2 48
161 141
136 113
106 36
61 177
166 124
7 91
8 157
86 171
60 59
71 72
117 130
70 40
50 58
60 95
26 141
121 139
70 1
130 24
185 125
101 18
150 25
9 170
182 41
168 44
24 187
48 5
142 184
2 36
61 49
35 64
64 126
71 178
42 175
104 3
22 140
26 150
95 91
112 75
58 24
175 92
49 78
99 148
94 164
1 62
118 77
165 142
141 24
186 32
113 96
100 104
162 39
4 163
159 70
171 17
12 107
28 3
125 131
127 64
172 33
164 10
112 54
85 155
71 105
5 54
60 35
157 156
172 156
167 121
87 10
93 79
176 156
163 107
27 106
42 168
169 64
109 96
152 67
111 20
182 88
10 150
56 30
115 158
137 7
83 6
107 52
186 26
47 139
119 84
2 184
141 77
30 1
163 32
45 122
127 132
50 80
25 28
