*Vertices 94
73 "#15"
62 "#84"
45 "#66"
71 "#25"
22 "#72"
68 "#58"
24 "#9"
44 "#63"
51 "#34"
92 "#44"
67 "#75"
3 "#47"
2 "#41"
42 "#61"
56 "#70"
21 "#74"
58 "#43"
1 "#31"
12 "#57"
32 "#77"
75 "#24"
27 "#89"
91 "#32"
7 "#6"
55 "#85"
89 "#2"
38 "#87"
86 "#19"
61 "#18"
60 "#69"
48 "#79"
9 "#62"
52 "#76"
63 "#16"
34 "#13"
40 "#22"
69 "#81"
64 "#23"
17 "#50"
13 "#20"
4 "#93"
26 "#28"
37 "#14"
15 "#35"
8 "#29"
10 "#37"
82 "#60"
83 "#12"
20 "#36"
72 "#38"
78 "#59"
74 "#42"
70 "#54"
53 "#67"
87 "#0"
14 "#30"
28 "#21"
76 "#51"
43 "#1"
30 "#86"
16 "#40"
50 "#82"
39 "#80"
25 "#4"
90 "#45"
6 "#90"
19 "#46"
18 "#11"
77 "#56"
54 "#48"
88 "#39"
94 "#91"
66 "#53"
11 "#5"
57 "#33"
5 "#8"
47 "#55"
79 "#68"
85 "#10"
33 "#17"
29 "#64"
46 "#65"
35 "#73"
41 "#3"
80 "#52"
49 "#83"
84 "#92"
81 "#71"
31 "#26"
65 "#49"
36 "#27"
93 "#88"
59 "#7"
23 "#78"
*Edges
34 60
94 93
3 58
5 72
80 44
80 58
23 39
93 27
40 85
17 8
8 34
60 86
73 61
29 83
92 5
53 13
78 71
85 91
15 63
29 54
68 79
13 77
51 4
20 92
80 19
21 48
7 64
90 24
13 44
71 12
32 23
17 60
24 1
40 15
71 88
8 7
67 56
45 11
13 42
4 27
62 49
48 50
56 7
4 1
59 76
79 41
68 58
38 66
9 35
69 39
94 37
46 25
56 35
59 24
88 87
19 68
23 50
34 63
22 3
16 38
75 82
79 92
62 43
84 93
34 42
79 20
16 51
20 61
86 34
67 81
57 28
84 27
16 76
43 10
81 37
8 65
25 42
4 6
56 31
55 30
17 67
28 75
75 35
50 69
69 29
74 80
44 43
83 42
31 73
36 25
7 11
45 75
73 5
64 40
83 91
81 22
17 50
45 19
24 5
76 90
6 21
19 20
60 91
58 59
45 82
75 47
40 74
68 18
37 7
46 2
77 68
41 92
6 30
4 66
81 3
4 84
62 32
57 74
6 84
72 47
50 83
24 64
21 78
8 60
65 28
64 79
7 47
22 7
33 80
37 66
62 39
64 91
39 46
80 72
89 71
22 37
89 75
77 8
64 11
53 82
24 41
24 82
36 78
70 78
38 6
14 46
27 38
47 80
78 88
51 58
68 74
93 4
24 79
65 90
31 22
3 29
53 64
29 50
38 93
69 32
78 83
4 55
61 40
51 63
71 16
78 12
55 94
50 58
18 19
22 21
44 31
7 43
72 10
88 36
71 63
89 40
48 23
76 92
51 59
59 90
33 20
55 85
88 57
33 58
48 83
80 49
43 31
10 68
90 10
67 16
9 77
65 57
3 25
45 87
29 7
50 21
75 67
11 16
70 7
39 48
78 61
14 47
35 21
50 32
39 49
30 84
68 3
28 47
20 80
66 85
10 61
87 9
13 40
16 15
3 37
64 87
51 12
20 10
45 68
6 12
21 52
22 52
29 21
35 81
36 45
15 51
17 34
10 25
62 23
42 8
77 73
75 40
55 37
16 35
66 87
45 86
61 18
89 15
64 82
16 9
85 64
46 80
83 72
78 89
75 3
53 8
54 80
19 33
7 46
85 37
9 75
45 50
12 4
83 64
11 86
67 35
83 11
43 26
51 68
83 21
80 40
2 36
14 75
41 13
25 2
46 49
76 89
54 44
33 25
47 79
37 86
56 21
55 66
71 51
81 31
81 7
94 6
47 29
51 3
29 59
87 82
19 58
90 26
10 29
54 14
46 54
41 47
84 55
57 78
34 13
38 1
89 26
12 88
6 92
73 24
32 39
80 31
4 30
65 75
33 10
6 93
37 31
85 38
73 1
3 15
33 2
76 62
47 64
91 40
43 54
31 7
36 19
49 76
63 16
63 26
75 88
26 10
18 47
43 80
50 30
4 38
60 37
13 80
49 69
10 65
28 18
57 68
8 46
36 46
59 68
88 54
15 58
46 41
5 79
41 8
42 77
89 12
80 29
46 42
94 30
47 3
57 75
57 36
54 82
26 76
80 18
17 37
33 68
37 8
43 65
68 72
87 44
42 36
2 58
33 3
94 27
90 70
54 87
22 67
7 41
4 21
85 83
46 65
24 47
79 82
79 72
39 80
13 24
48 78
13 18
13 47
50 39
90 43
72 77
56 22
29 25
51 6
83 40
49 23
85 16
36 14
38 94
6 27
27 30
58 43
57 19
17 86
28 59
3 10
68 36
82 88
70 16
65 26
94 89
23 58
13 8
24 60
61 66
75 87
7 3
58 65
74 65
13 66
59 3
18 72
90 28
22 35
78 29
79 18
69 23
77 5
64 66
37 56
28 68
79 53
67 52
1 5
72 26
61 13
45 30
43 29
40 88
68 65
51 26
28 74
26 71
94 84
56 52
85 7
21 69
2 42
62 69
78 69
73 92
