*Vertices 115
86 "#106"
83 "#112"
13 "#60"
107 "#110"
46 "#27"
28 "#100"
35 "#72"
114 "#79"
27 "#90"
16 "#14"
15 "#86"
26 "#29"
6 "#32"
105 "#71"
48 "#75"
50 "#5"
62 "#80"
51 "#67"
79 "#107"
112 "#11"
90 "#34"
69 "#2"
81 "#111"
39 "#28"
80 "#53"
84 "#37"
1 "#4"
55 "#42"
67 "#30"
25 "#44"
77 "#36"
21 "#3"
36 "#26"
92 "#65"
34 "#69"
85 "#96"
37 "#12"
19 "#35"
56 "#83"
103 "#70"
49 "#95"
53 "#104"
100 "#19"
110 "#16"
22 "#9"
20 "#6"
87 "#0"
32 "#24"
82 "#98"
76 "#10"
24 "#84"
29 "#102"
14 "#101"
40 "#50"
63 "#58"
60 "#43"
9 "#81"
70 "#99"
97 "#64"
65 "#89"
68 "#77"
73 "#109"
54 "#1"
111 "#91"
106 "#94"
57 "#108"
115 "#46"
78 "#33"
23 "#8"
42 "#18"
43 "#66"
101 "#55"
94 "#23"
64 "#92"
38 "#114"
10 "#20"
58 "#49"
45 "#62"
12 "#21"
104 "#51"
3 "#54"
98 "#82"
113 "#61"
71 "#45"
47 "#25"
93 "#63"
59 "#13"
8 "#93"
89 "#87"
109 "#97"
33 "#39"
96 "#48"
52 "#74"
4 "#85"
88 "#17"
17 "#56"
11 "#103"
102 "#68"
44 "#40"
5 "#57"
99 "#78"
72 "#15"
2 "#52"
61 "#7"
66 "#105"
74 "#76"
31 "#47"
30 "#38"
41 "#59"
95 "#31"
7 "#73"
108 "#113"
18 "#22"
91 "#41"
75 "#88"
*Edges
59 100
88 91
82 50
41 33
63 30
3 104
99 60
1 97
2 96
71 54
22 34
47 39
12 112
94 101
11 85
73 86
75 8
44 7
101 97
44 89
63 112
75 64
13 43
70 85
76 89
115 77
7 103
39 110
30 2
71 39
73 107
107 79
90 63
102 30
98 97
28 6
39 54
15 98
73 79
42 84
29 15
20 52
23 95
48 105
108 86
15 8
27 5
6 35
38 25
99 62
103 74
43 32
17 10
112 101
79 111
69 19
97 2
92 67
75 65
42 18
12 55
33 87
35 103
87 32
107 81
19 90
67 32
98 99
38 57
46 92
57 52
17 30
44 19
54 84
101 20
25 72
66 79
90 8
48 35
75 30
20 36
46 115
107 89
13 22
61 71
91 113
108 79
63 102
62 56
103 36
94 18
80 16
22 95
2 112
8 49
40 16
40 48
14 109
23 102
105 83
83 107
105 13
44 50
111 58
46 78
40 34
19 110
37 52
92 62
1 31
85 106
62 24
93 2
111 15
27 65
111 27
76 79
41 5
24 28
67 46
92 96
74 35
97 9
41 9
111 89
111 4
89 8
113 26
43 46
104 25
63 43
58 13
40 98
47 110
9 52
100 34
84 58
41 52
28 109
17 45
64 15
47 41
26 59
15 65
52 97
86 83
20 105
72 17
96 67
77 88
111 13
31 88
43 115
107 106
37 6
22 23
32 69
69 18
95 89
37 98
39 69
79 100
22 21
13 51
77 42
88 63
10 106
10 80
17 113
35 16
46 113
90 39
90 47
9 56
61 104
73 57
105 79
37 76
14 29
115 63
60 31
69 104
93 54
110 59
81 86
98 114
19 18
58 60
89 65
86 79
27 15
46 33
49 109
5 47
13 33
97 96
95 72
94 6
31 84
10 113
75 109
52 114
33 18
60 2
16 76
105 111
96 87
9 98
69 5
45 87
32 78
115 2
35 7
35 36
114 99
21 92
90 5
23 25
15 109
18 10
78 63
21 102
44 47
10 93
44 90
97 37
85 29
106 49
57 83
45 44
9 99
26 40
21 25
14 49
104 14
9 68
35 31
8 5
94 37
55 58
42 112
94 87
11 29
2 101
17 26
42 41
48 44
86 107
102 22
73 108
52 11
102 13
31 61
80 42
96 54
55 78
31 32
33 32
39 84
32 101
62 98
20 92
97 41
17 63
52 74
4 64
53 81
86 38
98 43
25 52
57 17
62 114
38 73
74 48
15 43
115 78
63 55
73 111
111 69
76 20
45 32
110 90
55 18
37 30
70 28
101 21
107 87
48 32
19 60
63 12
7 48
85 109
13 87
12 61
99 56
14 3
62 2
18 37
26 92
115 112
87 80
58 78
14 82
17 23
2 55
84 97
20 35
103 16
31 105
24 104
105 36
53 108
72 22
104 56
65 111
20 57
104 39
33 5
13 73
81 108
3 20
32 7
27 90
83 73
103 20
80 89
11 109
22 101
16 26
27 8
28 106
16 105
6 52
92 91
16 100
27 52
73 53
102 94
58 71
12 78
92 58
12 32
54 97
88 115
8 64
70 29
88 60
1 55
51 26
2 92
91 46
13 96
16 31
61 22
2 10
6 11
102 77
27 25
22 94
59 40
96 33
85 49
23 30
84 63
21 20
102 112
58 73
13 94
35 70
34 6
64 111
32 58
52 28
68 98
27 89
50 94
90 60
41 69
102 51
111 83
81 66
43 50
78 41
42 10
63 46
41 3
30 101
88 1
58 79
2 88
91 60
110 44
52 70
76 94
26 10
36 72
39 58
87 43
95 8
114 37
32 18
20 16
31 63
2 56
13 32
105 7
35 105
26 20
44 104
101 102
46 41
31 97
2 77
70 6
111 75
73 81
17 83
2 54
98 52
24 9
87 93
115 60
11 73
14 70
100 50
3 28
81 83
18 6
107 108
59 113
34 59
46 1
30 39
64 27
8 52
86 66
8 109
84 30
12 58
6 76
83 13
107 66
31 20
18 76
106 55
68 62
8 4
26 34
101 67
9 62
50 29
47 33
107 53
51 89
71 84
51 107
26 21
1 113
48 103
38 52
15 4
4 76
84 1
37 50
10 112
94 51
25 77
111 16
37 41
101 12
3 39
77 84
51 106
20 50
36 54
58 26
31 101
7 52
71 22
35 52
34 16
16 4
112 30
29 109
61 60
80 8
21 10
36 2
42 72
97 61
86 57
92 56
33 78
14 85
3 71
90 61
60 63
75 27
53 86
109 106
104 28
59 10
23 72
1 106
93 96
36 93
54 20
10 101
24 99
18 2
24 68
41 114
103 52
63 61
14 28
60 54
49 29
36 16
97 20
40 100
75 89
10 51
7 45
84 88
71 12
37 113
10 22
107 57
31 19
82 29
63 58
4 80
99 68
82 90
104 71
24 54
38 53
57 25
44 76
76 80
106 14
92 1
100 43
65 8
83 58
54 58
24 56
90 31
106 82
69 47
3 44
1 91
53 51
60 98
65 64
82 109
92 113
102 25
109 70
108 66
94 80
70 11
20 94
