*Vertices 149
112 "#145"
125 "#92"
28 "#148"
101 "#12"
93 "#134"
133 "#49"
84 "#127"
145 "#60"
117 "#119"
103 "#108"
33 "#83"
76 "#98"
92 "#86"
6 "#63"
81 "#5"
61 "#40"
74 "#113"
66 "#62"
94 "#31"
105 "#138"
115 "#130"
77 "#0"
109 "#61"
147 "#115"
16 "#79"
14 "#147"
124 "#41"
5 "#128"
86 "#73"
52 "#76"
39 "#64"
64 "#129"
119 "#69"
26 "#24"
87 "#133"
72 "#10"
139 "#94"
36 "#43"
99 "#65"
27 "#99"
7 "#142"
51 "#50"
47 "#36"
148 "#55"
29 "#116"
12 "#122"
32 "#56"
60 "#16"
137 "#96"
138 "#11"
1 "#48"
68 "#112"
31 "#131"
19 "#143"
9 "#88"
98 "#27"
57 "#71"
146 "#2"
42 "#17"
17 "#114"
113 "#144"
24 "#117"
78 "#30"
130 "#66"
141 "#77"
13 "#58"
23 "#75"
40 "#74"
73 "#21"
111 "#68"
54 "#107"
30 "#93"
89 "#106"
132 "#67"
69 "#109"
114 "#95"
50 "#37"
80 "#85"
10 "#4"
123 "#78"
144 "#105"
126 "#80"
45 "#110"
121 "#45"
20 "#118"
96 "#140"
97 "#59"
46 "#104"
106 "#1"
95 "#72"
82 "#82"
53 "#23"
44 "#7"
128 "#19"
2 "#13"
120 "#70"
67 "#89"
143 "#146"
35 "#51"
135 "#102"
75 "#38"
62 "#123"
90 "#26"
118 "#28"
108 "#136"
88 "#15"
104 "#97"
11 "#14"
149 "#120"
110 "#100"
127 "#42"
71 "#6"
18 "#33"
58 "#111"
107 "#47"
43 "#34"
83 "#121"
4 "#29"
129 "#81"
21 "#35"
38 "#125"
15 "#101"
102 "#53"
142 "#132"
55 "#84"
25 "#22"
49 "#20"
116 "#135"
34 "#87"
3 "#52"
65 "#124"
56 "#126"
8 "#103"
22 "#44"
122 "#139"
48 "#46"
41 "#137"
59 "#8"
91 "#25"
140 "#39"
37 "#57"
70 "#91"
134 "#3"
136 "#9"
63 "#54"
79 "#32"
131 "#90"
85 "#18"
100 "#141"
*Edges
138 98
30 17
25 43
59 113
122 33
99 123
95 69
84 69
4 126
77 120
128 8
61 53
130 91
57 23
38 58
77 145
92 86
85 67
54 56
60 57
59 44
96 135
21 82
50 49
50 9
82 33
23 86
26 146
102 39
25 73
64 20
17 66
61 40
125 99
115 15
145 34
90 82
137 11
36 82
97 125
80 13
127 120
32 135
96 110
18 103
104 58
3 35
1 135
11 88
129 22
138 75
112 14
51 140
147 145
69 103
124 46
1 26
102 146
55 138
37 68
132 63
70 68
133 149
8 103
20 69
64 145
36 40
22 79
42 62
129 105
32 127
71 11
138 106
137 16
101 3
3 40
36 96
13 11
54 120
4 59
13 57
1 116
135 5
112 7
10 32
120 94
114 90
66 127
87 8
35 148
115 128
71 111
99 75
62 34
85 91
8 89
138 42
85 60
32 66
54 136
123 80
92 124
26 37
141 60
119 61
42 123
68 80
81 32
76 6
140 121
59 86
60 23
36 149
37 78
114 67
27 1
19 35
2 70
128 3
8 4
31 44
40 111
25 47
44 118
13 2
75 96
112 116
124 4
124 59
124 40
148 11
25 103
140 13
102 35
148 90
147 88
75 41
10 26
62 8
130 43
18 21
46 61
11 133
138 85
99 30
86 83
149 38
111 99
146 114
60 81
109 136
26 46
42 134
100 132
130 124
120 95
133 18
126 102
39 2
146 77
79 73
98 38
88 4
128 50
86 6
97 136
83 148
51 120
49 72
73 85
6 121
86 98
86 80
126 104
45 98
1 60
30 9
148 10
72 53
79 139
114 73
118 50
137 131
147 1
102 81
55 70
17 91
11 6
57 111
85 76
141 139
6 10
22 134
146 3
51 35
135 74
84 146
145 124
138 124
44 125
6 126
30 137
141 39
113 18
78 7
75 59
129 80
72 101
131 136
3 134
98 21
3 21
53 36
82 80
3 39
66 6
59 133
36 132
70 125
79 99
116 32
138 10
106 146
16 128
118 43
84 13
145 3
35 43
3 69
48 97
55 72
49 88
2 85
84 6
148 61
140 69
81 25
146 71
59 33
81 2
60 77
123 141
118 63
10 40
104 95
58 17
86 48
36 66
60 78
78 22
126 37
112 100
42 145
100 85
10 2
66 138
22 107
39 121
8 57
117 131
16 32
28 97
130 40
30 135
102 135
70 131
36 124
99 101
46 22
14 122
61 23
14 11
49 134
81 47
95 63
11 90
72 10
128 54
98 134
98 35
78 118
91 94
13 124
99 3
139 82
84 75
118 107
70 72
3 79
42 72
97 132
84 65
74 24
118 72
11 140
121 69
111 8
141 131
13 92
68 36
58 68
49 57
22 61
25 107
132 37
39 10
95 142
95 28
31 127
48 3
33 132
51 90
128 88
83 30
114 139
32 120
42 85
3 32
42 82
71 17
3 88
8 26
55 2
94 49
5 22
54 59
16 78
59 126
8 45
36 71
40 106
84 71
139 71
79 62
103 49
144 135
101 37
27 29
56 149
32 27
89 33
51 57
69 51
18 22
26 36
84 142
17 35
69 94
37 140
80 85
98 124
100 89
52 22
34 6
23 119
56 146
101 25
26 130
121 108
131 114
95 16
55 128
90 4
78 59
102 72
50 56
84 22
47 61
46 4
72 129
145 98
114 78
85 118
142 85
79 132
149 91
109 76
140 40
78 44
34 16
80 97
37 81
60 13
132 55
99 107
72 110
97 118
22 66
42 35
17 4
53 119
115 87
64 93
4 145
93 7
97 1
39 43
95 53
124 125
138 23
146 66
30 128
92 121
51 46
65 96
37 3
85 107
129 126
148 130
81 6
43 42
109 39
47 21
40 23
1 43
114 137
92 42
60 95
124 123
82 53
82 138
88 145
114 52
42 111
18 140
42 129
77 53
47 26
6 39
144 61
59 22
124 101
14 43
36 97
111 79
85 18
43 124
125 58
23 118
109 85
103 72
88 18
73 18
148 72
29 123
128 97
20 115
59 139
69 15
21 106
11 98
73 136
4 55
48 36
36 104
90 53
58 16
84 68
84 56
109 40
75 1
7 77
114 121
36 112
29 58
91 6
29 85
56 29
73 141
132 94
49 31
127 98
35 63
60 94
59 72
43 145
17 68
132 70
70 106
1 129
35 110
145 134
25 111
148 67
56 37
86 1
126 85
95 118
8 80
142 147
51 33
26 80
8 35
107 126
111 11
126 92
8 146
104 72
98 10
143 45
26 122
86 54
29 1
23 91
74 20
69 79
43 94
141 54
95 140
25 135
64 99
78 18
140 120
87 135
109 78
104 2
140 41
35 33
82 35
73 46
11 17
63 3
50 123
11 123
58 21
82 117
29 20
126 55
43 123
27 100
38 55
123 110
21 86
79 136
75 78
34 1
48 18
88 53
133 97
85 48
26 9
147 43
57 102
147 106
22 51
70 17
106 61
36 13
108 98
85 140
29 26
83 12
47 77
148 127
15 8
132 46
146 60
106 2
60 5
31 59
144 89
82 86
92 106
30 123
25 146
72 34
103 74
73 57
8 9
6 8
68 60
122 54
101 38
85 120
1 9
148 34
55 129
118 10
64 24
47 33
118 135
78 46
19 96
101 116
21 43
135 71
19 121
112 6
129 113
36 81
66 10
35 18
17 118
24 99
95 148
113 106
11 39
65 135
134 35
34 38
64 5
29 82
133 136
85 65
101 77
77 110
99 73
120 146
2 110
120 135
70 141
35 91
3 61
72 23
6 44
18 148
144 85
48 95
133 109
25 6
6 107
71 22
144 54
147 27
19 75
97 39
21 2
9 117
106 22
142 115
101 18
107 31
138 132
73 134
139 116
98 3
129 58
26 3
60 21
22 138
130 60
67 62
138 46
4 36
72 138
16 55
101 131
104 50
136 25
34 139
107 146
46 85
99 138
136 67
33 30
36 146
71 15
85 86
70 79
94 63
2 91
20 58
135 138
50 101
98 9
100 9
140 49
59 95
97 13
124 60
9 3
143 108
93 47
22 90
110 76
131 86
71 102
137 89
137 141
79 84
80 62
137 123
95 85
25 50
89 103
123 65
48 127
128 20
43 60
129 142
19 113
77 1
9 97
124 66
144 132
71 20
42 55
6 123
5 149
51 39
132 110
91 1
101 55
16 61
76 147
129 117
96 2
44 134
134 32
21 101
26 19
109 130
43 121
61 127
63 75
68 48
47 32
67 115
33 1
82 48
79 48
98 4
141 74
140 103
119 13
51 1
141 34
130 70
27 49
73 123
128 118
18 125
23 100
1 132
75 71
15 136
35 74
44 17
127 24
37 131
26 53
112 113
9 147
137 107
8 10
92 81
91 51
134 65
41 113
126 67
118 4
117 5
68 117
23 26
136 42
115 79
71 35
59 53
110 104
5 42
90 124
140 22
3 11
76 146
39 66
98 53
27 15
33 78
82 4
119 14
136 99
71 126
147 33
7 6
110 127
11 77
118 39
90 81
94 107
71 40
114 129
53 101
48 136
43 24
120 73
21 65
53 34
112 85
63 121
119 73
48 105
69 107
16 21
16 40
95 92
88 107
75 76
71 44
148 49
48 124
124 37
133 9
88 71
144 122
57 91
119 101
50 111
65 87
29 38
50 110
34 111
103 134
106 133
63 31
61 2
77 42
59 48
107 115
40 79
1 55
40 25
127 100
111 101
129 82
85 133
37 109
39 9
71 138
71 55
3 73
120 97
146 142
21 121
4 74
59 11
27 97
80 132
6 132
24 50
99 25
100 116
128 67
73 106
53 10
23 145
17 102
136 86
124 72
13 70
136 70
90 97
47 146
98 144
6 146
73 138
27 92
29 81
82 78
63 107
50 60
135 10
84 46
30 106
103 20
39 67
13 102
73 84
129 59
103 121
72 135
72 30
15 47
25 129
59 146
126 134
94 124
86 94
61 134
60 80
81 106
47 66
60 32
129 148
37 28
49 141
97 43
33 146
136 132
85 97
20 50
31 95
57 25
28 128
64 38
120 106
2 77
120 144
11 106
90 61
70 34
106 18
74 127
120 68
128 43
39 61
136 91
21 130
111 2
111 48
32 107
57 124
137 129
104 78
132 137
88 60
141 2
35 85
65 146
99 128
40 149
66 13
104 125
76 27
41 7
54 101
92 71
36 138
133 102
129 86
16 141
34 66
57 126
87 24
31 109
48 130
5 120
13 77
59 32
3 8
81 57
80 90
30 115
110 33
134 144
82 94
109 146
126 58
41 96
130 74
51 3
134 60
8 60
59 94
76 111
16 77
96 100
33 127
130 53
5 56
78 140
148 44
147 69
40 52
60 75
56 61
23 48
64 31
133 4
26 11
127 53
128 69
78 113
89 15
133 52
3 96
99 112
10 76
76 96
43 57
21 146
24 146
55 121
140 124
2 9
15 76
74 22
86 140
43 61
89 90
75 18
62 6
79 9
132 128
47 91
31 12
111 84
75 10
60 118
78 12
85 23
102 59
26 18
102 138
37 88
91 101
37 65
36 85
71 131
36 101
143 41
89 121
36 128
138 2
82 25
76 42
98 93
62 44
13 134
14 65
34 73
45 58
44 114
45 132
89 47
16 35
50 141
61 42
24 44
98 77
29 111
97 3
13 59
2 35
129 49
133 137
58 39
98 110
12 76
6 60
134 89
78 107
120 123
40 84
134 48
117 147
135 85
128 60
130 112
10 44
60 135
130 10
76 104
21 107
11 86
87 88
137 116
39 32
71 136
12 79
69 17
110 54
70 145
74 17
31 112
53 109
78 92
19 116
93 95
147 22
95 24
102 110
135 23
66 2
106 66
5 71
108 22
92 97
37 91
23 13
26 43
106 103
114 147
35 141
137 9
51 32
31 29
5 139
83 80
80 16
86 124
110 24
132 146
3 70
128 48
102 70
143 134
4 57
99 21
131 9
136 75
44 132
57 86
65 94
44 110
49 19
35 70
32 35
6 97
128 46
129 138
49 76
42 27
49 66
146 126
52 120
1 139
23 107
117 3
54 70
81 103
53 12
126 128
15 95
67 139
90 47
121 53
135 107
77 52
135 70
75 39
59 97
51 2
46 119
20 68
148 97
73 81
21 52
149 142
109 25
42 26
127 118
147 124
75 110
126 30
32 115
25 78
141 8
123 111
85 89
31 92
36 67
75 107
136 82
67 70
57 1
69 62
108 28
14 19
109 97
124 120
127 102
23 21
59 55
145 92
110 107
56 115
147 96
115 91
104 145
15 135
22 53
120 79
57 141
118 116
102 95
57 76
42 46
44 66
141 4
63 90
96 134
57 21
118 141
115 38
110 116
35 45
80 55
109 32
1 134
68 2
140 8
136 138
125 109
98 82
95 30
39 139
99 59
136 23
51 44
114 91
114 55
47 128
124 53
142 76
21 24
98 146
51 88
15 133
11 75
104 83
72 39
127 72
84 127
143 144
73 87
129 36
106 48
33 98
131 53
39 119
85 134
123 72
135 46
132 109
121 22
137 127
85 70
92 135
18 124
79 30
71 8
22 119
46 147
40 148
85 1
134 31
130 24
39 125
124 106
35 37
6 119
10 90
147 50
66 131
52 95
106 79
21 12
14 125
129 73
27 110
131 102
101 48
33 138
145 57
42 45
77 138
146 82
140 111
50 102
83 40
99 110
58 134
106 78
57 72
86 40
30 92
44 94
34 91
148 51
1 82
103 70
124 30
25 118
101 98
2 98
146 23
54 123
115 64
28 136
17 9
66 128
79 95
129 43
93 34
90 113
61 122
80 2
36 41
106 51
55 92
91 21
25 36
121 16
21 144
63 135
87 34
56 122
114 42
126 111
82 34
27 133
88 118
26 95
13 78
1 32
126 80
127 42
66 101
66 46
124 141
21 59
44 37
42 75
50 106
74 23
43 13
118 106
63 50
102 73
144 112
24 139
94 135
44 2
123 82
66 38
146 79
97 8
80 107
40 141
55 28
18 134
140 148
60 126
106 72
71 60
89 83
9 47
101 104
55 29
115 73
26 133
94 1
29 5
101 46
29 61
78 84
77 75
141 145
67 109
98 140
21 1
44 60
38 84
127 81
38 89
78 21
102 32
136 32
42 130
100 47
78 97
70 9
32 22
37 16
19 2
37 117
129 4
4 39
142 12
33 128
98 102
84 62
40 35
101 118
10 57
127 126
39 21
141 140
45 91
89 36
77 102
119 124
16 20
10 18
32 52
105 113
99 85
1 12
101 128
136 88
33 8
59 73
136 128
9 48
79 130
136 98
75 101
67 9
48 63
13 109
70 74
38 137
77 136
14 68
122 143
40 119
77 125
26 44
47 88
60 14
126 25
47 53
71 125
52 136
145 40
102 148
90 94
10 15
6 85
48 13
26 121
32 97
147 60
3 13
37 32
36 141
49 10
1 136
86 74
10 63
61 21
132 9
132 4
42 141
112 19
113 28
81 59
52 127
25 44
40 93
144 110
15 146
18 2
38 147
66 55
87 91
50 148
118 123
105 130
22 20
136 121
140 118
35 44
44 98
32 33
51 76
121 36
59 47
130 71
64 86
6 141
90 36
129 9
87 66
133 125
29 76
89 125
71 66
133 16
57 94
84 89
72 79
145 107
50 42
21 75
93 96
145 73
64 26
130 83
142 56
34 47
111 121
32 17
119 127
67 77
141 91
109 59
135 142
18 67
53 43
98 104
74 100
51 147
35 83
74 53
114 118
34 10
2 124
82 147
78 128
7 115
33 61
148 63
95 4
22 131
2 36
11 23
145 66
115 121
110 8
82 31
145 11
53 38
30 24
79 47
96 137
111 120
3 86
124 71
2 12
10 78
131 54
20 132
90 19
67 107
105 32
33 2
108 116
44 119
67 4
47 110
59 63
130 50
25 42
73 55
72 92
26 2
43 37
31 71
33 3
94 26
30 42
124 121
117 40
59 138
27 38
27 146
67 86
120 143
141 48
77 63
45 112
16 92
131 92
145 72
19 100
91 131
79 148
21 102
24 86
102 48
114 104
36 24
28 143
18 139
43 108
131 90
36 78
23 62
99 94
136 81
143 84
98 71
73 101
42 83
66 109
142 81
98 1
79 18
39 15
104 73
98 78
67 99
92 2
53 96
43 52
3 87
85 98
102 137
27 131
99 119
83 142
20 125
45 110
6 120
100 129
85 37
50 26
73 69
145 50
135 117
42 2
67 132
16 22
133 117
138 130
85 57
73 39
144 141
53 37
34 19
141 9
11 38
2 140
101 34
86 144
82 101
7 20
69 141
111 132
53 102
145 78
72 1
11 44
123 140
147 103
39 26
72 61
142 31
125 66
8 32
133 2
18 146
91 71
37 80
18 143
59 37
44 39
73 43
117 16
52 50
58 67
81 3
60 49
1 123
94 131
92 22
103 42
59 1
61 13
145 102
118 40
133 140
88 91
23 124
106 129
31 55
84 82
51 11
109 28
80 102
133 119
119 48
90 145
95 23
132 29
148 89
85 119
121 18
39 126
89 140
71 63
149 60
97 42
30 44
77 71
68 29
146 51
149 104
68 126
16 86
139 63
3 53
138 146
51 132
48 73
94 53
55 11
130 66
76 143
18 59
71 101
26 136
79 124
41 56
107 138
39 86
11 2
50 66
6 61
62 16
50 53
141 22
101 4
72 97
32 95
52 128
91 140
51 97
2 136
65 136
35 121
107 143
26 40
67 32
89 34
108 31
134 50
16 44
131 109
23 129
138 54
55 89
1 44
1 47
35 120
6 99
90 77
84 139
148 131
79 94
96 97
88 30
65 72
67 130
64 55
99 61
145 32
94 128
88 90
9 107
47 35
101 90
33 68
143 88
148 33
52 45
107 136
1 124
13 35
22 13
128 104
35 128
117 96
77 45
78 4
50 1
28 81
142 15
12 84
59 52
133 46
137 45
146 63
133 73
121 23
49 107
82 135
22 130
77 18
126 40
75 104
122 87
123 149
135 126
133 81
107 139
11 79
110 89
102 18
73 108
88 28
125 126
24 103
32 11
140 71
120 11
18 28
95 8
33 45
139 81
76 134
95 25
10 37
21 22
10 144
132 22
46 89
109 43
71 137
91 43
81 16
98 129
84 39
139 54
79 49
18 131
140 147
138 24
30 62
28 98
134 66
116 7
29 16
57 20
39 128
92 53
73 76
15 73
63 60
22 145
77 92
95 129
111 47
79 101
127 4
61 26
51 60
10 94
54 80
77 80
84 130
44 123
125 118
104 7
86 35
53 44
106 47
10 83
10 101
5 65
66 98
111 23
137 24
96 122
72 35
51 107
27 112
123 9
98 34
136 66
75 4
37 102
117 32
145 116
19 93
38 73
58 118
120 72
60 97
51 68
62 104
96 51
25 77
86 88
57 110
38 70
112 105
116 64
109 114
69 133
141 23
9 121
54 46
24 72
36 84
48 139
112 96
42 71
33 86
101 112
61 1
39 93
138 115
80 130
136 130
70 104
102 49
81 15
72 4
21 128
101 137
33 129
22 9
85 101
8 27
42 3
5 31
47 134
136 104
75 65
59 20
29 136
29 135
59 10
132 121
145 97
26 120
17 26
125 2
75 32
25 2
50 57
3 67
102 22
141 13
98 107
7 99
47 139
80 1
145 47
35 101
47 118
22 101
19 11
102 78
104 103
47 42
128 72
37 15
13 146
37 136
34 130
130 49
91 78
11 91
54 51
127 51
107 42
139 124
2 47
63 37
119 110
81 63
72 21
107 33
123 16
133 57
49 78
125 45
89 28
17 148
146 110
89 98
30 139
4 97
25 106
72 108
98 37
101 52
102 144
32 125
130 7
42 16
32 77
18 39
86 72
39 101
123 106
48 75
107 124
130 149
42 49
47 18
9 57
51 137
31 1
135 8
95 57
24 54
62 100
4 91
46 139
130 126
32 138
62 115
35 126
6 63
21 19
1 90
146 97
55 61
66 3
120 74
7 122
37 86
81 128
117 19
4 110
2 79
136 114
136 144
76 99
50 44
134 24
147 149
102 20
98 130
110 131
136 145
23 128
119 50
17 3
48 67
4 35
90 9
69 65
67 25
79 45
76 20
99 1
117 94
102 26
81 140
129 130
126 42
39 120
24 102
79 34
86 101
120 42
32 21
78 103
102 82
53 35
66 99
109 118
76 148
92 76
61 37
129 85
3 54
120 102
98 23
3 78
120 60
84 85
127 133
32 140
111 95
18 111
110 135
102 141
91 128
11 72
56 114
134 125
135 131
80 145
140 35
75 102
81 146
125 33
35 52
84 53
76 74
48 26
15 147
148 133
45 126
138 3
85 13
55 69
137 98
148 47
109 3
125 85
42 102
145 86
25 51
63 56
18 4
15 34
51 21
98 36
11 81
53 107
29 69
50 136
126 44
109 33
106 99
82 59
41 22
115 84
134 141
57 109
24 70
49 125
12 149
20 110
4 147
109 116
139 85
38 92
132 114
105 7
134 130
140 128
37 42
148 128
123 55
36 72
128 149
75 90
45 48
62 135
111 30
119 19
144 46
6 23
84 110
121 118
84 43
99 148
126 9
109 99
91 132
73 124
40 63
93 8
144 140
53 133
8 30
122 19
30 78
72 44
74 45
114 40
97 11
112 137
8 34
102 93
37 19
6 3
138 26
126 72
1 53
118 91
18 114
3 132
77 22
37 97
121 130
127 71
145 51
148 123
133 94
121 77
52 118
86 9
47 4
52 137
59 7
118 133
69 76
99 92
103 115
71 69
132 115
103 1
136 63
144 145
110 69
90 6
42 79
35 133
86 138
45 10
131 26
149 119
43 133
72 50
28 148
10 46
124 142
16 134
8 129
95 89
32 147
134 100
52 86
27 144
111 46
71 94
130 90
117 8
88 131
102 25
72 66
43 136
127 79
11 16
94 137
147 68
101 106
63 109
50 3
95 27
49 59
62 5
101 51
121 66
59 90
50 94
115 12
57 127
25 1
36 32
32 101
39 34
90 93
115 21
25 114
69 134
20 23
1 131
136 36
34 114
112 10
95 40
39 99
19 28
2 49
4 32
121 137
23 131
44 13
135 17
87 21
66 91
24 92
44 128
74 134
75 57
95 101
85 32
125 114
16 85
104 121
135 127
118 145
62 128
27 109
119 36
77 65
59 101
81 113
51 4
138 21
19 41
88 39
73 142
55 79
106 15
138 97
37 111
88 2
79 10
104 147
51 143
69 6
43 76
145 148
97 88
55 107
22 47
139 49
78 130
139 51
78 136
55 137
86 81
98 25
39 74
91 72
94 111
79 51
100 51
49 6
44 28
117 54
92 51
137 33
5 134
53 83
14 28
122 92
141 138
60 37
138 60
53 79
140 6
136 140
36 3
30 57
11 114
16 126
136 40
6 59
67 30
124 127
26 14
114 81
59 127
110 51
119 11
92 134
91 135
143 145
53 81
75 8
127 85
44 3
42 13
22 17
140 134
18 82
1 40
139 4
96 71
31 101
99 134
50 10
52 1
71 59
132 130
3 1
125 131
19 5
130 127
77 141
65 78
115 31
123 89
46 146
136 85
24 66
62 57
4 16
50 13
43 34
99 26
58 148
50 107
104 77
99 68
137 134
128 53
19 17
125 103
52 23
14 103
134 63
86 65
96 15
17 119
13 111
122 90
94 4
100 72
133 6
81 34
102 118
106 59
148 104
86 120
27 98
25 34
136 101
129 132
39 132
31 83
124 77
57 58
106 100
18 126
37 23
19 47
42 9
71 72
18 54
22 1
79 123
68 109
48 140
125 65
120 90
121 94
132 87
146 1
135 141
93 14
5 20
86 76
86 139
98 120
130 115
60 47
109 73
128 40
6 43
119 4
55 13
3 118
32 119
127 132
133 75
57 35
6 14
121 90
51 77
144 3
18 33
99 132
34 119
37 2
36 73
21 90
47 48
88 127
88 146
126 75
111 3
97 134
11 34
109 77
37 4
47 16
26 111
137 130
79 8
140 102
133 121
16 76
45 68
85 66
35 90
148 8
78 132
47 120
128 4
30 69
35 119
118 130
33 39
42 137
104 102
146 118
55 48
16 9
39 16
73 8
32 118
111 1
83 93
77 40
99 42
85 75
23 77
52 121
23 22
102 63
145 130
8 76
2 120
120 22
130 6
38 65
132 58
22 124
52 125
81 51
79 75
55 75
16 33
1 37
146 123
61 118
85 137
4 79
133 77
1 128
91 100
73 53
17 125
112 122
91 54
138 118
110 66
81 120
70 60
35 94
144 130
145 2
40 44
71 18
131 63
41 60
16 129
56 35
102 99
124 45
72 139
91 129
17 14
126 61
118 77
55 78
127 29
66 119
31 84
118 33
127 35
127 10
149 85
44 88
35 80
48 51
85 146
42 91
91 139
118 69
46 81
81 18
27 135
27 127
35 107
89 128
81 21
46 43
148 88
146 124
127 106
142 52
37 135
92 119
121 24
23 36
101 140
48 146
83 136
145 127
61 63
9 14
99 16
48 49
15 29
147 136
111 90
21 127
25 137
23 101
141 94
97 69
3 60
53 49
99 130
97 107
43 134
26 72
83 94
146 141
120 61
124 88
7 138
94 75
32 91
40 121
137 60
26 98
30 120
40 30
21 10
66 18
92 130
119 137
130 8
39 82
46 48
38 119
48 81
92 80
7 21
56 117
144 44
139 108
136 18
130 57
36 70
4 1
22 11
79 25
120 40
132 26
73 42
102 40
43 85
17 16
27 103
68 24
29 84
138 6
26 51
90 48
20 147
10 117
61 73
110 67
51 63
22 80
70 39
24 29
12 14
148 22
117 103
39 80
43 44
4 13
140 79
130 102
46 44
102 124
139 70
136 12
141 20
77 89
149 31
83 56
97 16
43 127
24 97
71 115
129 46
22 98
107 91
56 64
112 5
85 148
66 90
123 23
87 56
21 76
51 136
39 130
118 11
29 33
45 17
32 55
140 3
34 127
25 3
24 58
110 46
49 30
104 66
60 40
133 31
120 126
142 57
114 87
2 131
32 132
46 90
118 1
50 132
73 17
96 52
37 92
73 2
25 93
95 29
27 13
58 74
52 66
44 61
66 88
5 39
106 114
45 119
128 73
1 88
27 105
77 114
125 147
71 145
82 109
14 105
52 141
128 49
4 22
66 126
88 77
10 133
35 68
14 100
44 23
111 33
102 106
125 30
50 59
37 108
2 76
98 118
23 81
128 145
76 72
121 15
121 48
2 144
16 119
91 41
66 97
13 71
39 53
81 12
31 68
5 1
57 78
23 89
145 25
141 92
107 47
56 16
92 9
146 75
80 111
95 55
108 35
38 12
103 58
123 26
15 144
78 127
135 13
63 86
119 86
106 111
43 111
14 52
80 25
113 14
76 144
52 80
88 13
60 98
22 35
129 13
140 145
53 75
34 51
59 119
145 10
2 45
33 81
121 146
45 117
72 146
129 27
7 55
123 132
119 26
15 42
34 32
136 35
107 59
23 147
147 19
34 85
134 79
90 117
3 2
46 70
66 60
82 55
78 148
86 18
129 103
21 136
84 120
100 93
49 71
50 71
136 148
13 1
128 98
98 99
137 31
122 77
81 124
115 40
148 105
133 3
110 130
107 81
64 122
60 38
146 52
136 102
54 95
138 47
15 59
82 145
140 73
98 94
51 59
49 61
88 72
35 75
65 36
17 29
144 82
130 61
63 133
61 36
55 102
27 132
43 77
14 41
36 109
67 21
97 21
81 104
117 42
68 129
68 135
95 146
29 90
127 25
34 128
30 131
65 23
75 98
25 97
21 50
111 134
18 62
129 101
106 140
137 2
49 146
5 57
121 141
47 94
72 20
122 44
81 85
135 103
11 136
72 85
121 57
76 54
53 148
94 22
44 95
56 9
23 125
48 6
33 119
33 112
138 4
51 118
120 128
26 85
95 127
110 125
91 10
137 70
85 88
141 107
30 1
10 30
76 141
39 138
145 37
123 32
129 17
141 129
66 111
104 46
142 75
25 53
68 98
130 123
97 135
53 2
50 47
91 22
135 16
36 95
38 87
148 20
95 94
98 109
34 29
147 92
99 121
73 35
92 79
109 117
39 131
84 97
4 117
34 9
4 49
80 127
37 79
11 132
8 67
63 87
73 33
79 102
81 101
73 118
107 73
94 110
35 139
121 147
91 133
95 41
4 69
68 108
95 72
32 43
45 81
99 124
53 51
101 121
106 109
53 106
141 25
134 51
129 92
73 66
143 19
72 33
