*Vertices 284
141 "#242"
101 "#109"
28 "#152"
73 "#9"
2 "#80"
88 "#10"
242 "#282"
191 "#252"
254 "#57"
61 "#65"
263 "#218"
224 "#75"
221 "#76"
135 "#87"
84 "#213"
237 "#283"
121 "#214"
74 "#100"
107 "#51"
266 "#19"
86 "#111"
258 "#115"
148 "#157"
142 "#71"
140 "#163"
116 "#50"
202 "#220"
102 "#84"
169 "#143"
70 "#173"
55 "#79"
27 "#25"
38 "#130"
206 "#239"
209 "#171"
15 "#204"
108 "#199"
115 "#167"
196 "#189"
83 "#225"
246 "#62"
118 "#187"
82 "#277"
18 "#48"
119 "#186"
43 "#223"
230 "#70"
14 "#146"
212 "#52"
144 "#182"
105 "#142"
149 "#155"
252 "#180"
129 "#274"
25 "#206"
106 "#227"
267 "#165"
166 "#149"
71 "#56"
40 "#132"
165 "#154"
147 "#126"
137 "#114"
240 "#243"
46 "#183"
239 "#248"
22 "#102"
100 "#215"
89 "#3"
117 "#232"
257 "#193"
85 "#46"
173 "#175"
204 "#112"
228 "#241"
146 "#212"
120 "#6"
109 "#169"
264 "#192"
69 "#53"
113 "#245"
29 "#158"
226 "#164"
214 "#60"
44 "#64"
187 "#15"
13 "#99"
192 "#216"
222 "#170"
193 "#184"
63 "#124"
233 "#250"
265 "#83"
94 "#33"
52 "#131"
24 "#266"
172 "#222"
199 "#198"
6 "#116"
153 "#136"
253 "#54"
241 "#256"
274 "#190"
281 "#269"
227 "#94"
136 "#246"
47 "#148"
57 "#161"
223 "#18"
30 "#271"
171 "#30"
34 "#177"
189 "#29"
261 "#35"
249 "#36"
168 "#22"
33 "#123"
163 "#236"
251 "#263"
111 "#253"
195 "#20"
112 "#135"
275 "#128"
17 "#88"
259 "#104"
48 "#147"
139 "#249"
225 "#191"
31 "#179"
277 "#26"
247 "#279"
104 "#72"
125 "#264"
203 "#89"
183 "#119"
72 "#159"
50 "#217"
78 "#17"
271 "#43"
67 "#162"
130 "#77"
197 "#32"
229 "#221"
59 "#55"
60 "#166"
272 "#93"
156 "#254"
79 "#156"
126 "#262"
213 "#13"
8 "#120"
122 "#145"
170 "#197"
235 "#4"
26 "#42"
270 "#178"
216 "#259"
128 "#226"
215 "#59"
87 "#108"
36 "#270"
5 "#207"
154 "#1"
219 "#260"
58 "#125"
37 "#176"
39 "#107"
210 "#105"
159 "#67"
65 "#219"
10 "#24"
232 "#2"
255 "#144"
182 "#110"
133 "#58"
64 "#153"
200 "#137"
234 "#141"
54 "#265"
177 "#229"
260 "#151"
238 "#38"
32 "#237"
236 "#196"
66 "#21"
217 "#188"
103 "#49"
269 "#224"
248 "#181"
244 "#172"
91 "#86"
198 "#210"
194 "#134"
127 "#96"
207 "#160"
167 "#117"
174 "#200"
77 "#11"
158 "#255"
96 "#281"
205 "#268"
3 "#61"
80 "#127"
186 "#122"
4 "#273"
176 "#240"
150 "#98"
188 "#113"
98 "#85"
155 "#91"
75 "#45"
145 "#234"
164 "#34"
56 "#233"
250 "#168"
201 "#257"
279 "#174"
16 "#209"
175 "#95"
62 "#267"
11 "#118"
23 "#150"
208 "#23"
41 "#14"
161 "#7"
278 "#185"
49 "#106"
211 "#258"
152 "#275"
283 "#121"
92 "#0"
282 "#194"
218 "#140"
276 "#66"
68 "#129"
151 "#63"
220 "#133"
256 "#73"
157 "#278"
284 "#31"
93 "#195"
231 "#251"
53 "#39"
143 "#280"
20 "#228"
12 "#247"
280 "#139"
1 "#276"
184 "#92"
95 "#211"
45 "#12"
131 "#244"
180 "#261"
90 "#272"
110 "#69"
124 "#74"
245 "#138"
19 "#5"
181 "#208"
42 "#103"
243 "#41"
185 "#78"
262 "#44"
21 "#205"
81 "#235"
273 "#238"
7 "#27"
76 "#202"
160 "#37"
99 "#203"
179 "#81"
35 "#90"
138 "#8"
134 "#40"
123 "#16"
162 "#28"
114 "#230"
51 "#82"
268 "#47"
132 "#68"
190 "#97"
178 "#101"
9 "#201"
97 "#231"
*Edges
47 94
18 185
71 164
95 252
190 207
78 230
52 273
94 85
189 187
164 208
262 246
64 124
64 127
209 95
272 52
95 118
38 124
75 258
261 220
230 267
52 267
60 87
80 200
35 42
173 255
160 74
173 250
118 278
218 136
110 218
77 235
86 155
39 256
203 59
207 221
207 231
212 183
216 105
186 181
63 24
14 203
257 12
48 200
244 272
192 48
84 263
283 122
72 190
98 91
265 80
80 262
116 107
91 86
18 284
279 90
104 88
78 272
74 96
67 104
172 16
238 18
5 226
110 58
119 258
34 173
96 183
66 265
44 144
172 14
174 109
120 184
248 118
189 137
72 17
67 210
85 259
75 102
142 276
192 64
107 89
100 278
234 270
87 209
206 29
42 179
173 43
164 167
114 11
168 51
142 28
221 48
209 125
151 130
215 78
181 251
121 38
111 140
257 37
184 150
122 281
97 25
52 68
2 182
151 79
135 220
208 134
227 14
263 258
18 124
246 212
38 74
261 51
255 83
273 205
213 223
222 46
137 27
117 22
105 84
11 250
68 278
124 234
167 51
87 57
202 58
67 174
58 155
42 183
279 283
254 153
35 72
136 182
208 243
221 130
112 14
58 13
224 124
92 249
87 49
255 204
182 19
4 258
32 167
49 105
192 183
226 193
153 3
264 68
116 89
204 153
47 166
196 137
207 230
137 50
149 184
78 183
136 122
168 19
14 87
114 239
102 159
116 74
276 277
229 68
46 165
48 87
30 220
28 146
78 127
215 164
276 197
134 262
259 258
209 202
200 34
210 86
102 137
40 32
209 263
271 3
284 183
56 121
138 104
89 160
115 245
35 93
244 108
38 178
151 138
171 80
55 264
175 128
143 82
199 283
280 230
88 44
246 77
73 214
146 166
266 272
167 77
69 59
265 268
150 146
248 147
229 106
112 282
224 27
150 74
167 196
156 136
257 241
84 169
106 172
74 245
211 248
154 155
283 67
78 89
256 77
42 198
170 17
204 260
137 161
236 184
22 147
162 123
125 118
43 248
43 153
220 152
173 172
95 52
192 98
200 22
38 194
250 6
73 210
183 22
137 259
158 157
109 8
283 192
51 45
46 9
176 111
195 246
49 207
47 229
17 135
259 23
173 13
95 202
28 226
232 130
258 146
40 8
56 11
10 280
41 92
196 236
137 246
51 44
83 95
232 224
162 215
137 209
82 279
192 257
139 186
33 84
38 119
266 189
261 94
66 107
15 28
170 35
74 69
259 80
254 223
204 42
69 98
170 186
60 206
178 121
202 46
270 203
52 148
232 104
155 222
259 130
64 267
82 36
132 159
144 5
76 182
210 258
49 185
249 94
53 27
236 199
162 265
224 133
33 206
160 142
202 207
113 49
208 7
270 15
130 39
37 273
47 127
49 37
67 272
149 82
5 172
253 227
229 129
175 74
243 271
237 62
79 72
11 52
255 166
95 217
46 182
115 54
266 102
193 130
217 109
170 201
203 74
108 196
42 248
9 106
118 63
199 165
5 200
59 135
235 276
112 227
123 230
60 84
267 185
85 243
28 224
283 90
35 17
244 5
21 67
74 129
154 230
36 247
183 16
80 188
81 12
153 184
16 282
55 227
43 280
248 34
151 75
73 246
101 104
153 24
146 217
179 104
169 132
133 14
236 56
182 7
275 153
162 214
198 105
259 267
134 2
172 118
190 71
167 170
261 232
155 259
147 68
166 57
79 218
139 248
71 212
229 218
155 236
159 160
190 282
204 214
124 102
10 159
152 4
49 206
135 224
161 171
66 212
8 147
66 58
123 224
46 257
119 65
137 22
226 190
51 165
186 155
253 3
72 130
153 79
135 28
140 79
188 147
176 193
35 194
277 51
37 23
266 224
148 217
113 176
186 213
204 93
63 22
153 112
178 248
266 73
81 163
14 80
134 154
106 74
245 153
222 174
40 250
204 210
23 102
46 275
190 32
200 13
51 17
244 146
99 101
64 97
127 213
147 214
267 105
33 80
6 26
212 213
176 37
177 147
11 88
274 217
115 181
172 163
45 116
245 71
200 68
83 50
218 269
54 216
67 278
137 52
110 132
217 174
14 100
98 262
44 259
71 29
245 81
11 184
50 47
32 121
105 239
174 278
271 277
106 218
232 40
50 22
155 88
101 5
15 239
177 111
161 59
81 242
226 57
88 234
151 256
108 217
175 179
179 91
62 200
202 43
138 256
137 97
245 260
81 222
90 149
93 109
92 105
72 188
153 186
143 191
39 234
259 223
127 91
283 37
250 220
258 155
149 194
6 245
246 112
138 215
6 150
187 268
206 21
144 256
166 87
208 116
107 75
101 76
177 228
19 213
118 193
81 191
103 284
27 41
225 47
38 145
167 64
268 208
203 200
260 270
212 18
18 164
221 256
103 59
71 185
184 167
200 72
127 57
39 135
115 112
6 277
11 127
117 15
271 215
178 230
49 269
122 235
122 151
129 201
66 162
258 236
83 137
227 194
200 194
202 146
92 214
198 229
17 58
43 56
283 38
147 210
184 190
254 169
158 211
22 55
283 276
41 48
239 152
32 81
134 61
18 116
80 236
272 132
110 61
135 80
33 64
142 75
131 143
73 35
248 97
183 115
21 240
202 39
284 189
91 267
20 172
22 27
121 70
104 123
225 68
91 248
111 39
120 275
75 17
17 93
111 54
177 128
153 42
76 22
46 248
222 115
19 224
218 257
123 8
236 244
27 171
214 266
187 27
244 63
254 164
185 218
225 20
87 283
57 275
145 177
152 54
22 52
15 97
265 44
102 246
188 256
74 63
276 222
44 276
154 243
183 150
58 179
66 102
136 239
29 196
254 132
262 71
185 14
210 188
193 109
39 70
161 116
225 60
181 227
128 209
266 2
184 196
281 274
97 177
33 239
209 264
6 217
17 256
197 208
27 223
133 6
128 236
179 7
119 242
72 250
13 146
269 148
253 69
87 105
218 230
255 102
259 8
7 61
166 218
25 43
176 97
52 283
136 39
140 155
49 224
249 17
150 28
194 48
224 148
73 92
118 6
170 229
144 55
107 204
223 53
284 238
71 223
64 260
79 29
43 259
137 13
140 90
280 102
117 163
280 202
127 105
168 18
267 152
16 233
28 22
260 124
91 67
16 186
234 139
5 49
16 263
246 154
195 268
49 38
147 107
80 218
139 273
171 138
204 6
185 41
183 275
61 197
168 214
38 131
67 149
142 86
198 100
39 259
102 78
135 42
249 160
148 55
89 197
238 138
44 209
271 130
20 42
102 31
93 50
121 81
245 124
53 230
227 27
198 95
49 104
207 233
80 74
26 167
179 223
194 254
52 257
19 232
208 104
217 49
218 52
60 167
174 252
95 146
159 218
103 17
51 13
222 279
209 179
234 141
63 39
169 5
72 132
53 75
198 121
155 25
8 182
58 148
3 150
162 134
220 142
49 80
64 257
239 12
283 107
243 40
94 73
272 147
241 247
209 244
259 38
41 151
144 21
270 175
234 149
5 263
212 208
190 271
216 233
189 271
55 70
246 133
176 156
33 24
230 91
67 184
226 210
13 140
65 67
204 167
266 284
98 123
61 184
244 202
228 111
276 120
109 70
88 266
170 79
50 135
69 77
96 190
190 80
230 37
224 179
148 29
91 2
124 134
284 107
165 270
103 178
140 226
155 135
185 66
194 267
210 51
192 121
87 95
184 51
25 122
177 24
53 19
210 122
236 228
49 190
80 197
220 2
98 268
272 255
142 189
262 137
262 197
55 248
184 256
250 209
200 46
236 165
69 92
217 11
78 10
43 16
50 54
78 213
232 75
74 259
221 218
166 35
1 6
261 63
188 255
22 43
119 174
7 214
243 259
179 2
214 268
213 107
258 71
274 31
93 270
225 219
163 139
223 184
100 68
183 131
193 104
236 183
173 237
47 234
230 104
151 33
44 203
248 37
69 94
47 102
275 55
155 49
28 79
95 51
75 277
45 221
269 74
284 208
84 278
128 63
149 124
11 97
226 4
265 94
21 282
172 210
244 76
91 258
72 11
139 228
176 275
60 39
260 273
184 155
262 261
39 77
23 183
52 199
97 95
71 13
196 84
83 175
209 109
103 223
110 26
146 263
142 190
74 61
235 253
228 128
116 142
17 42
50 65
49 275
76 193
144 184
230 6
204 49
76 144
168 130
230 22
81 93
35 165
68 193
43 74
265 48
175 48
49 89
237 72
198 255
123 232
274 263
173 170
185 203
95 74
53 41
275 174
21 38
141 57
224 214
218 184
47 35
2 184
259 98
203 168
166 115
2 26
95 90
279 255
127 227
29 209
13 258
67 61
123 164
118 233
177 57
130 224
227 18
238 45
282 264
277 59
57 264
209 70
153 262
98 92
96 109
40 185
19 249
121 147
174 97
52 29
68 150
129 194
91 116
101 265
67 182
137 136
122 112
136 252
154 138
200 40
121 52
257 58
64 15
77 179
197 235
164 153
74 236
22 39
239 9
282 163
236 257
43 169
192 186
255 194
177 100
101 140
13 104
17 203
239 31
51 74
250 219
72 6
123 195
199 203
202 199
28 151
48 255
71 92
192 247
155 197
225 115
68 256
258 262
191 177
215 22
178 170
223 127
276 91
175 49
260 80
130 245
195 169
225 135
48 35
170 11
178 124
167 86
105 182
275 47
275 196
35 188
232 175
133 155
94 14
37 193
214 159
74 279
103 154
214 243
126 46
5 182
12 79
249 227
3 212
55 80
274 2
134 161
120 102
255 214
266 187
110 85
265 132
271 168
224 63
250 46
55 38
103 73
186 218
220 264
262 179
19 271
81 97
9 142
253 107
147 15
35 69
39 245
149 127
34 247
230 55
63 139
105 61
234 51
211 126
258 224
224 41
40 17
84 172
21 95
221 52
190 75
77 73
65 100
184 103
73 254
256 2
37 2
22 91
175 162
178 138
150 273
79 31
23 124
108 136
14 230
19 255
247 219
2 190
186 185
168 92
51 68
159 17
283 119
149 91
230 133
15 150
267 115
69 124
230 132
178 257
213 182
213 98
264 105
148 221
235 261
223 40
275 149
150 112
137 122
181 87
115 105
112 23
177 222
233 119
80 204
241 64
264 273
233 49
24 149
152 251
235 10
85 232
206 205
106 65
184 258
10 44
55 92
79 43
151 215
276 155
284 161
115 259
37 105
281 6
244 248
7 73
77 271
183 277
82 241
53 94
231 255
102 68
190 157
35 283
146 106
167 113
178 184
188 15
264 196
213 169
170 227
147 201
173 70
3 215
22 280
132 45
6 80
207 67
269 175
107 133
91 72
149 28
35 208
234 23
140 221
218 33
226 72
224 110
147 186
42 215
60 30
137 263
108 264
257 20
56 48
57 224
25 121
271 49
183 272
14 89
182 33
9 63
215 214
135 26
39 45
53 87
238 107
264 225
254 155
136 125
79 125
100 269
257 219
183 35
243 224
7 69
280 67
14 109
60 259
71 261
194 113
177 121
77 138
236 181
210 57
209 224
272 105
113 182
164 27
275 126
16 72
80 227
212 45
101 222
49 260
232 185
45 27
188 133
41 116
7 243
179 258
7 210
259 262
108 79
44 70
236 194
279 43
162 164
112 276
14 144
271 212
280 108
266 47
188 101
98 182
167 31
193 55
4 90
13 127
150 64
76 115
137 184
135 170
104 188
166 14
25 65
33 260
32 109
64 263
185 160
150 192
167 42
220 93
258 140
140 178
59 187
140 52
166 194
197 272
58 80
6 141
48 39
114 148
151 19
193 248
32 16
8 128
109 224
55 102
209 146
109 49
136 141
212 266
280 37
143 37
40 179
121 137
246 67
49 74
195 130
23 6
162 112
17 248
259 189
184 265
217 28
245 90
173 68
74 107
42 210
67 255
229 63
232 147
189 7
79 115
11 33
66 178
45 262
248 109
214 59
100 20
257 252
101 279
50 42
125 152
223 45
9 15
26 69
169 109
77 105
179 78
13 181
215 223
60 74
118 111
258 153
229 174
167 256
221 74
83 126
150 101
8 165
276 169
108 166
227 87
8 215
167 11
3 246
103 221
104 53
174 17
47 122
124 8
69 167
184 221
194 163
38 75
279 178
196 52
91 58
35 146
6 108
54 62
131 46
169 31
22 231
161 235
169 114
120 45
18 208
159 52
14 116
122 248
183 220
236 148
86 44
115 16
6 192
208 58
235 26
186 261
117 267
88 261
170 153
117 38
46 255
258 175
81 184
206 155
197 168
115 132
102 18
227 203
127 252
150 55
197 154
74 210
178 258
27 249
252 105
48 225
39 266
103 10
179 234
78 195
152 281
210 39
282 150
60 260
89 91
148 145
15 121
52 173
258 63
54 36
41 132
128 67
13 177
279 81
26 78
280 62
221 71
224 182
150 52
162 71
130 124
172 148
120 38
164 134
267 193
175 118
258 141
114 153
19 254
149 48
153 137
105 109
36 157
101 144
84 74
179 127
232 10
125 67
13 79
207 34
132 160
246 27
61 238
97 136
124 10
221 98
112 188
97 96
207 151
159 179
122 34
10 41
139 156
232 116
102 35
38 72
218 200
42 165
155 144
282 67
179 174
150 195
188 115
142 104
214 88
240 206
10 249
132 104
230 41
113 258
53 133
42 108
57 233
64 25
252 198
278 86
183 265
106 43
15 128
69 154
31 281
29 25
46 231
119 136
202 79
20 43
171 133
104 124
147 11
106 247
185 61
71 26
204 178
266 261
243 110
52 102
224 35
272 64
47 183
140 166
260 172
264 207
147 63
274 182
252 260
243 133
166 5
114 87
42 43
155 29
182 93
85 89
264 167
85 238
43 229
65 135
123 261
3 232
35 122
229 172
224 102
102 101
26 234
229 128
109 255
135 214
227 72
113 240
4 24
191 20
119 83
73 197
218 5
135 47
52 268
165 182
220 113
8 48
22 119
212 155
40 257
182 197
90 96
112 47
45 261
265 266
156 207
207 11
225 211
169 111
251 241
68 275
85 266
179 27
189 26
33 16
34 236
87 245
74 226
283 225
276 262
186 61
91 19
42 251
62 90
22 218
101 33
278 43
198 79
58 60
272 119
22 48
43 260
117 72
227 258
19 6
265 3
143 233
268 223
149 185
209 172
120 80
80 172
276 124
224 275
121 99
235 88
148 280
250 65
151 124
135 167
11 204
171 59
105 8
163 5
79 260
11 252
84 229
22 167
282 68
158 180
258 265
204 22
110 259
88 246
52 165
240 15
81 54
31 225
250 272
203 39
194 34
52 51
218 155
25 202
246 58
149 218
28 272
107 71
112 39
155 207
231 72
92 232
122 206
197 232
173 76
51 6
268 77
33 142
265 77
47 51
242 106
109 275
190 167
184 166
267 218
61 69
18 254
244 46
136 183
246 187
59 35
127 103
256 214
275 142
21 211
47 188
279 177
148 215
255 171
105 65
31 229
125 83
99 48
194 122
269 135
171 175
129 121
203 184
28 231
166 190
117 273
279 174
38 5
271 71
208 276
218 280
41 55
270 17
258 37
115 252
141 38
57 99
3 61
218 169
61 10
81 145
249 85
235 246
244 109
66 73
101 121
23 244
272 72
86 141
9 119
208 266
141 28
138 221
98 20
132 256
103 215
209 220
118 122
160 147
244 165
120 271
267 143
36 192
210 134
11 38
85 223
60 49
59 276
49 170
214 190
239 209
68 35
215 91
222 207
120 284
272 153
56 259
219 96
132 18
254 235
252 269
123 266
99 49
225 202
58 97
25 166
184 94
102 207
270 82
67 140
94 120
197 227
51 31
189 55
185 161
117 217
161 184
164 66
200 38
91 13
29 124
183 214
144 34
223 49
169 215
259 150
110 169
259 270
194 108
97 272
231 166
78 133
229 220
64 185
246 89
130 133
57 23
218 182
268 78
132 164
141 52
148 76
2 60
260 218
283 100
129 147
155 148
184 173
241 281
108 119
121 131
275 64
60 204
264 274
197 238
167 129
76 196
65 5
214 130
22 272
257 217
46 252
207 196
140 25
146 50
88 74
50 191
103 259
75 127
13 35
258 274
217 72
142 132
224 261
98 223
5 146
51 259
197 132
78 69
252 57
111 193
74 153
257 72
280 252
108 219
245 239
115 8
217 283
276 8
74 260
209 274
185 122
221 47
133 49
258 3
210 151
133 80
270 229
209 91
34 50
81 63
17 213
48 167
5 149
39 29
282 198
16 139
12 125
11 209
165 79
272 235
21 109
188 224
144 49
233 231
122 234
54 252
169 158
87 146
5 194
182 92
59 190
179 271
5 95
88 138
101 174
126 239
186 42
144 175
214 26
272 102
140 244
23 241
134 133
71 116
220 184
39 226
134 213
165 127
15 229
166 149
88 154
218 105
248 192
167 75
144 190
88 134
166 200
264 130
181 118
28 105
158 152
104 190
228 145
207 229
82 146
210 69
123 223
2 78
58 167
170 255
60 23
19 227
66 220
282 6
149 132
93 38
199 225
261 154
183 204
196 72
159 98
225 39
210 89
131 35
138 39
260 102
38 248
69 171
74 58
217 220
79 280
209 99
95 176
86 101
111 34
43 99
37 42
129 62
193 149
167 63
47 39
232 178
117 225
182 258
44 178
208 103
196 6
184 179
242 216
260 272
171 266
220 175
243 45
190 165
235 178
41 162
22 276
128 16
243 197
81 150
231 273
178 254
68 190
21 210
163 95
256 85
24 80
246 74
159 27
23 275
163 140
283 210
40 255
228 131
265 151
277 261
210 11
149 29
276 259
70 259
192 109
201 182
181 106
68 245
208 66
234 46
152 201
232 168
106 233
182 17
149 51
106 259
71 41
72 84
51 284
5 87
26 7
256 200
166 137
112 38
45 127
222 150
170 248
184 246
208 168
35 175
223 3
112 194
123 124
27 116
276 3
79 70
79 90
55 75
82 177
210 203
275 8
112 48
167 175
49 23
112 145
98 255
223 10
169 167
61 153
144 46
226 114
96 86
88 232
101 194
200 181
200 42
253 147
214 6
256 258
213 161
226 51
165 149
238 120
151 223
34 267
55 17
45 104
241 129
65 64
263 121
232 268
225 5
186 58
234 116
42 67
261 212
134 277
169 136
240 117
264 136
183 279
95 105
170 117
221 79
148 64
102 283
139 70
21 121
234 52
203 33
230 19
123 19
41 73
33 112
72 230
254 47
31 76
2 151
39 110
272 150
269 23
276 104
147 259
262 224
58 8
201 34
170 198
239 150
116 59
126 100
121 181
38 61
88 59
260 21
14 101
86 274
161 120
174 166
150 13
106 80
197 85
270 135
195 53
272 18
76 240
169 194
60 70
111 229
94 19
87 94
96 234
28 133
148 102
38 87
168 73
122 200
7 171
193 99
270 167
104 69
169 10
71 268
217 128
109 178
204 148
120 52
55 147
11 258
271 208
78 91
274 167
183 260
171 94
218 150
18 161
212 7
120 2
150 21
70 135
213 35
29 43
113 147
243 227
166 228
164 107
62 180
147 6
168 194
86 130
138 41
191 125
272 88
46 48
116 85
53 101
233 166
218 64
204 129
216 204
193 22
210 133
258 247
45 160
203 245
250 194
83 35
172 79
141 131
124 271
250 122
227 259
46 156
141 283
81 42
87 224
244 255
161 104
193 159
20 76
255 38
282 250
227 255
127 23
252 109
112 52
48 248
195 179
161 151
5 97
101 212
209 148
253 124
212 78
57 61
13 175
197 254
62 1
6 102
284 277
140 108
260 148
14 70
167 91
275 222
212 162
114 32
250 118
254 138
14 47
220 8
227 33
133 92
66 268
217 9
29 245
239 81
91 104
107 73
127 118
122 48
240 175
6 185
234 159
38 276
159 61
132 168
253 120
98 185
60 193
122 278
280 46
138 189
49 55
49 226
262 130
279 265
261 77
42 220
210 264
115 37
80 66
131 201
51 49
232 74
113 108
112 182
69 168
234 93
244 229
167 155
255 148
13 26
72 182
23 101
255 169
210 256
256 173
36 119
231 252
93 267
8 271
127 159
28 220
272 171
80 256
87 168
60 51
132 154
38 33
257 79
219 42
150 142
71 249
88 185
13 207
80 280
57 204
87 122
109 158
53 42
67 15
39 220
63 185
48 164
66 134
190 275
89 130
202 170
105 112
92 116
255 93
40 25
167 13
276 134
8 55
40 74
127 7
189 171
243 189
214 51
257 124
124 165
192 273
101 259
22 263
245 207
18 275
91 80
166 165
122 166
22 244
232 69
233 146
113 225
135 122
80 276
87 167
25 119
218 215
95 259
48 257
122 98
216 50
83 140
89 52
102 155
220 63
232 253
7 238
169 261
29 5
255 221
144 67
274 202
230 194
257 237
131 101
30 157
62 166
101 80
283 59
172 280
21 280
113 145
248 250
39 73
155 108
258 204
73 213
215 123
182 188
190 56
138 179
239 218
73 175
107 142
90 65
204 100
224 234
53 171
50 68
218 190
248 56
153 5
119 196
229 105
159 259
64 76
80 151
47 215
101 130
248 225
270 119
265 280
190 86
190 73
115 220
202 220
226 8
220 269
132 98
190 267
180 4
188 225
193 115
279 80
245 11
258 51
199 184
116 53
262 120
106 101
127 278
171 190
137 34
40 9
249 189
67 14
162 77
14 228
81 218
278 137
159 13
257 234
118 258
183 181
238 102
268 224
161 254
183 196
135 175
50 79
52 70
139 219
252 4
283 250
272 243
222 38
175 173
137 69
33 108
114 23
170 105
31 190
57 108
114 158
248 150
36 158
115 170
161 55
48 32
74 35
48 6
109 37
90 216
85 195
104 40
218 118
222 165
144 270
150 213
148 140
66 190
277 249
253 151
130 160
147 194
226 179
29 3
97 163
171 271
226 14
7 120
75 162
200 33
19 256
226 167
117 188
114 244
213 41
258 80
77 259
283 190
165 157
90 54
158 242
40 57
210 279
282 177
69 194
127 121
200 53
139 84
67 55
10 98
193 38
157 144
223 80
42 270
166 119
39 199
82 282
99 188
195 138
80 65
76 190
95 14
22 254
42 212
267 149
186 80
165 239
190 69
3 35
114 83
26 162
178 122
184 89
230 68
229 60
70 31
239 131
274 21
18 277
28 8
215 71
139 114
244 65
92 130
280 42
158 54
63 184
84 182
229 245
212 17
216 16
236 93
137 151
261 134
52 3
274 48
6 60
3 175
62 72
132 75
182 28
9 259
45 110
137 274
222 265
112 148
74 275
11 269
155 123
27 182
280 130
148 113
1 264
91 120
190 55
228 141
200 79
133 150
126 259
101 268
181 252
284 160
167 15
12 217
222 87
189 74
39 155
244 252
138 255
40 56
152 62
184 110
265 86
115 117
3 183
47 108
207 105
51 18
243 92
269 229
143 24
284 262
79 147
218 86
124 3
47 250
218 178
247 173
147 80
34 109
60 48
23 179
149 137
208 135
105 38
48 44
14 268
21 136
214 116
130 53
140 184
133 271
261 160
47 267
71 42
75 159
135 38
224 166
221 28
206 47
81 181
76 204
221 260
146 198
39 185
267 142
198 118
61 132
7 230
29 64
144 100
149 121
239 40
67 33
29 181
229 50
188 167
158 281
156 178
22 233
258 173
224 29
133 91
253 138
171 91
6 21
110 271
52 80
267 178
162 171
236 136
245 228
106 202
205 22
47 173
113 190
166 144
39 201
21 169
50 248
118 265
45 162
214 91
3 47
137 257
200 283
33 31
168 127
6 190
22 42
196 42
252 51
91 254
199 252
235 124
166 211
135 210
135 177
49 259
243 262
258 28
149 147
75 276
13 3
46 172
270 57
212 123
109 128
189 103
215 167
47 203
96 202
19 69
136 22
175 147
62 70
6 124
6 57
22 169
166 248
260 48
230 243
21 93
106 25
183 71
153 105
71 112
92 164
136 163
77 224
244 32
34 115
250 130
255 186
71 22
67 37
202 180
196 255
53 151
137 229
91 35
68 38
16 76
7 235
127 52
174 93
144 105
123 204
183 114
55 266
282 30
179 55
240 42
166 135
84 152
266 27
11 86
13 234
29 118
119 204
210 50
56 139
131 220
95 237
88 197
212 89
44 28
260 63
262 268
163 240
85 276
95 70
257 127
6 167
134 55
149 104
51 189
117 64
152 241
199 83
147 134
166 272
27 151
126 62
71 44
193 51
141 242
76 150
94 138
9 169
196 135
31 202
155 273
70 207
203 189
44 2
58 70
62 244
31 108
201 72
74 276
168 154
82 167
271 10
158 231
222 146
70 281
75 44
146 269
234 40
228 119
219 129
167 25
85 73
80 194
51 69
195 88
132 52
39 104
188 51
267 135
256 255
238 189
135 183
7 41
163 180
233 176
179 183
218 55
215 41
143 33
22 18
220 147
207 204
72 165
14 252
200 104
134 18
97 234
184 182
58 38
200 37
229 81
55 13
200 111
246 75
199 226
164 142
127 275
124 230
206 269
224 37
8 244
207 57
114 273
49 75
136 37
88 227
228 273
276 69
158 192
166 34
280 113
42 266
245 47
3 7
256 243
136 16
83 15
270 86
79 98
75 164
73 124
218 9
199 91
252 167
71 102
183 193
186 31
60 196
218 233
237 269
188 86
9 58
192 202
224 33
54 23
245 108
252 148
238 103
182 235
26 276
52 18
57 230
172 182
209 252
190 100
178 104
61 151
146 152
259 10
47 237
266 124
280 122
181 263
266 33
133 42
153 244
86 6
95 50
184 215
7 271
224 134
85 215
235 150
196 67
41 187
2 93
84 199
3 165
122 165
11 68
93 200
93 193
159 215
203 16
210 175
109 139
213 27
274 145
31 14
156 52
13 279
58 39
121 188
5 278
256 11
165 100
209 184
97 105
275 184
223 232
162 221
214 71
247 64
178 233
182 231
156 101
279 109
227 116
220 221
153 192
276 77
137 91
272 33
108 252
20 96
15 140
46 272
186 76
58 135
151 268
145 239
205 152
137 10
166 175
208 69
10 230
133 160
74 220
45 35
95 170
191 273
26 223
39 133
256 230
186 257
32 274
63 40
67 35
110 221
79 144
210 108
58 102
215 98
14 44
40 147
45 197
65 20
20 33
153 107
137 48
213 190
245 175
175 280
49 283
167 57
179 39
122 52
226 173
74 29
222 30
107 268
12 38
3 112
89 87
77 232
38 52
140 16
281 65
153 20
77 213
36 174
139 204
234 65
142 224
252 166
40 199
277 238
135 235
196 70
136 20
263 93
192 137
181 42
253 73
210 259
33 93
186 20
18 61
106 58
185 159
38 220
107 266
275 194
7 262
18 123
240 200
252 28
49 211
237 113
209 9
216 152
29 48
26 98
44 194
104 26
29 194
176 90
157 220
270 258
11 37
249 123
59 253
138 243
173 127
258 121
146 54
103 3
272 167
206 181
51 138
42 33
114 259
203 71
63 140
265 213
7 268
105 122
98 236
147 2
248 173
142 88
39 5
94 66
22 14
261 86
200 255
74 224
178 250
200 165
13 15
134 6
281 33
132 133
111 156
180 152
212 124
88 265
13 198
29 173
217 15
93 57
143 113
137 245
68 91
36 242
264 233
58 127
76 60
54 48
254 2
283 147
18 189
250 31
14 79
134 195
55 183
63 254
49 277
190 150
171 276
14 13
200 183
124 132
246 220
147 98
188 14
249 178
6 207
153 281
244 258
38 77
132 188
126 13
183 87
227 230
154 185
258 280
140 109
26 103
29 275
155 203
88 256
234 113
255 153
48 47
105 150
31 48
6 63
87 260
22 101
59 150
135 193
267 8
11 150
94 238
71 55
250 139
178 176
100 57
129 24
219 202
270 250
31 193
135 265
133 179
17 144
38 8
225 15
159 226
271 51
83 131
100 6
19 243
212 85
278 145
178 239
142 105
270 278
22 70
236 108
20 62
163 273
21 72
50 198
280 72
203 73
8 50
59 104
60 241
169 67
101 66
203 196
262 275
283 73
14 200
144 99
254 107
34 31
68 71
146 155
42 189
94 243
211 251
169 135
260 23
25 37
218 258
34 226
213 94
170 278
101 89
246 61
68 61
140 80
245 219
64 5
89 262
252 225
94 262
279 278
199 29
25 52
159 189
93 217
47 29
38 37
159 64
34 204
183 252
55 265
168 61
91 151
128 79
170 118
167 122
50 13
104 236
85 204
185 55
194 244
99 181
59 223
123 130
166 80
166 6
161 41
279 193
264 217
139 31
28 218
48 169
164 151
8 233
167 258
70 86
227 6
283 39
215 168
31 86
237 260
113 273
68 25
92 124
127 17
122 218
59 41
64 229
59 179
46 228
161 224
150 223
61 167
13 267
112 245
198 244
148 110
11 263
190 199
109 52
255 179
108 218
279 200
127 175
264 147
220 98
272 91
33 49
258 234
168 45
145 93
48 199
150 245
128 260
179 17
224 15
62 201
210 130
273 282
109 229
127 120
220 263
49 92
268 253
259 63
162 235
130 51
34 99
193 184
127 166
40 83
112 40
198 231
88 160
93 137
169 184
218 115
58 7
105 258
255 110
43 5
42 260
171 261
22 268
17 257
166 279
216 186
28 244
124 214
52 57
262 171
199 42
98 42
194 39
226 63
249 232
66 69
42 113
65 4
266 221
213 168
147 39
279 68
30 273
140 175
144 149
163 22
133 187
191 67
106 50
255 31
9 149
68 48
138 277
208 238
101 93
282 83
235 213
218 278
39 280
2 194
107 262
111 240
265 256
282 42
235 42
160 11
80 248
22 40
29 57
178 24
92 63
29 210
271 88
198 202
80 40
159 165
35 260
104 11
210 146
183 104
84 186
89 275
199 256
234 98
137 25
186 245
167 89
179 279
279 258
227 130
190 175
260 147
127 221
129 211
275 182
80 165
128 20
172 169
222 93
204 230
45 7
185 59
259 131
21 167
270 170
105 193
67 267
144 224
69 127
130 38
279 70
85 45
30 259
227 120
198 279
11 90
12 62
142 3
25 46
258 14
59 86
118 21
282 280
122 260
46 31
148 190
33 183
236 79
223 234
193 172
191 228
267 6
85 151
206 222
120 160
66 168
70 200
114 140
137 265
127 14
189 77
60 62
63 252
230 71
204 40
74 265
179 71
78 168
12 114
33 135
258 52
220 70
93 250
133 175
108 139
159 203
277 194
109 150
79 190
169 11
155 192
225 148
174 182
224 127
73 47
225 126
277 255
79 241
79 186
103 13
33 98
228 146
9 229
78 164
9 28
105 149
94 132
142 170
9 163
30 172
278 149
44 235
162 185
55 215
75 101
91 130
256 53
249 134
142 261
86 89
154 26
218 120
129 157
38 66
280 24
16 74
97 273
176 166
208 59
106 165
107 94
182 96
8 170
184 48
91 57
229 216
51 185
237 241
141 68
101 199
164 103
35 22
229 267
220 84
85 51
178 31
69 155
172 174
101 63
267 79
165 144
166 31
220 112
14 29
52 204
93 144
134 254
215 89
194 283
224 92
167 246
19 268
267 49
198 126
108 148
221 40
101 151
44 187
12 206
233 39
220 279
196 155
177 278
152 199
251 22
184 35
12 43
5 13
213 7
197 69
167 52
6 29
142 148
77 51
266 159
180 247
193 167
232 7
212 232
107 130
153 163
78 87
74 264
183 117
191 137
61 183
189 110
160 110
65 192
23 210
32 14
250 112
84 135
188 184
272 184
178 65
110 246
276 190
163 244
250 13
190 7
181 93
50 275
69 261
87 101
150 58
255 23
203 182
53 210
108 278
25 209
193 264
210 149
80 144
108 149
174 121
15 25
252 281
14 169
208 3
99 272
160 268
2 204
39 27
272 42
238 63
119 70
163 278
277 116
251 270
40 258
29 23
254 214
44 179
65 181
255 124
76 170
172 202
138 102
47 161
52 220
263 100
168 98
157 117
200 207
102 85
204 133
123 238
20 179
163 111
275 146
138 11
50 121
22 188
141 31
233 31
7 162
199 21
127 35
149 17
13 179
253 52
237 191
197 94
19 103
162 168
266 249
245 236
168 124
102 127
227 155
219 50
78 182
29 172
47 119
148 15
212 161
107 110
168 171
212 116
49 249
109 148
21 108
41 137
46 43
280 221
196 199
40 224
58 123
175 17
261 203
183 39
116 189
82 176
47 156
260 8
227 268
237 220
101 83
255 112
266 59
179 276
42 123
51 232
221 107
102 91
202 81
15 216
264 39
194 12
252 150
100 115
249 261
210 62
118 9
104 162
14 33
167 227
196 112
196 9
235 142
209 119
37 15
84 202
283 112
104 10
29 100
107 265
79 95
60 155
185 130
36 280
267 31
87 195
74 135
230 284
60 79
151 195
184 40
135 45
260 15
95 2
199 198
280 231
48 151
92 208
166 43
232 2
249 262
235 151
207 64
230 87
146 101
250 258
245 255
119 190
174 57
168 268
153 270
49 182
88 230
277 246
31 121
50 150
61 272
195 266
190 50
88 162
223 6
46 204
18 27
181 144
54 24
87 82
234 28
47 131
8 186
200 191
12 251
149 282
72 283
95 141
167 93
204 118
156 33
265 204
264 70
51 22
274 200
33 161
258 48
268 17
45 52
86 72
199 170
257 68
68 185
193 203
270 21
165 248
185 272
176 140
69 22
47 64
196 181
259 246
223 73
28 67
138 120
74 183
274 136
74 122
233 228
209 112
118 186
264 34
35 39
16 150
63 88
60 101
178 163
115 56
147 245
274 63
267 275
15 182
77 130
204 116
226 178
186 49
15 237
137 135
185 10
58 1
60 272
224 256
86 222
18 249
122 236
264 199
46 137
260 264
212 134
61 261
79 222
7 107
228 17
276 42
73 261
169 238
5 79
148 4
44 35
40 101
248 149
139 93
98 276
171 3
67 279
150 147
223 63
170 140
275 42
112 203
98 183
280 14
8 204
169 174
118 149
135 19
202 226
224 223
200 147
200 121
28 130
6 173
6 40
245 170
13 33
26 138
242 241
133 223
35 31
275 31
78 61
54 274
224 245
6 178
173 196
240 81
147 257
37 130
140 220
153 122
230 175
151 212
267 283
65 128
163 220
169 283
109 79
262 35
165 98
58 279
86 256
246 79
162 268
46 34
204 248
42 283
275 123
118 115
252 194
74 238
159 155
237 219
66 19
110 265
50 122
60 173
26 168
121 144
9 272
75 61
175 150
116 150
110 182
148 124
277 151
22 58
162 266
60 248
186 52
227 115
160 73
141 117
225 147
271 45
279 65
207 217
74 213
236 5
40 108
35 117
108 255
38 170
42 24
213 271
27 276
170 48
44 250
222 255
43 233
105 251
47 153
138 66
155 190
239 97
6 28
264 93
248 101
20 269
144 39
124 59
270 35
200 86
259 280
58 205
188 87
93 257
40 42
11 149
220 274
86 58
85 182
121 136
104 6
86 14
4 81
207 118
176 48
194 229
236 114
137 14
232 238
48 10
267 155
93 87
112 214
177 68
282 283
225 275
26 243
7 168
26 120
4 201
205 36
131 275
125 278
217 137
223 7
5 140
67 127
265 221
12 34
253 75
40 270
130 135
261 164
21 226
83 188
135 68
230 188
102 257
267 222
66 42
249 168
221 279
160 212
36 32
230 66
194 178
115 46
61 124
75 87
53 214
94 246
230 140
103 101
276 261
232 133
233 117
202 5
147 135
173 179
102 13
166 173
268 238
265 59
187 92
55 98
68 246
184 37
213 102
128 146
243 232
69 102
203 35
264 166
258 72
243 182
283 56
74 149
284 61
210 280
188 209
224 8
142 69
183 79
193 35
165 221
196 99
270 184
6 101
164 26
88 135
69 71
207 42
138 235
255 154
5 76
13 112
122 146
245 172
234 99
94 75
224 203
153 52
40 66
204 38
252 200
22 77
253 85
87 86
164 284
150 63
6 113
110 256
197 195
59 61
280 274
103 94
249 89
110 135
172 68
174 9
64 38
28 82
80 222
51 267
62 24
225 81
133 3
264 17
104 272
218 238
10 73
48 70
76 79
53 107
129 158
77 249
112 113
15 278
46 227
252 6
243 284
258 242
83 198
165 37
203 256
272 74
114 60
211 31
206 149
238 78
42 274
61 280
9 79
148 21
78 55
202 269
175 32
255 135
166 86
27 162
140 182
123 7
260 104
18 262
94 51
250 234
102 49
220 270
263 283
128 29
122 199
12 200
105 257
178 81
172 177
216 29
135 71
76 57
258 49
123 127
161 52
39 153
265 51
71 259
242 193
95 29
245 179
103 69
259 116
214 277
39 109
142 66
56 6
148 20
183 140
279 248
186 112
110 8
177 194
142 159
280 147
231 43
33 25
109 203
29 200
176 139
61 55
98 8
99 67
64 231
178 199
123 48
212 254
105 260
30 54
84 181
182 283
109 6
38 34
255 210
138 103
193 250
40 165
200 125
82 194
204 252
245 122
127 185
188 89
265 72
55 220
181 60
10 85
233 101
57 221
150 38
43 34
35 187
200 260
111 182
248 74
32 192
169 1
135 153
223 110
194 15
283 40
276 135
227 31
48 234
224 75
154 160
210 223
52 274
226 115
87 147
172 95
164 135
200 234
41 212
256 104
41 175
155 223
204 172
93 112
95 267
54 20
266 203
262 59
127 182
265 22
206 6
222 258
255 11
33 265
223 88
99 118
124 87
83 68
170 222
72 64
31 37
140 167
63 20
57 28
167 233
196 64
275 86
11 74
280 215
106 170
67 29
189 71
226 108
212 39
38 71
174 135
107 161
115 205
176 240
221 160
18 261
18 35
130 22
224 22
278 39
67 105
226 96
91 108
125 201
248 179
140 246
154 124
142 18
204 86
177 80
124 31
116 39
210 190
150 132
29 207
136 282
47 40
53 162
124 166
2 13
141 227
232 63
199 279
80 155
42 182
259 279
2 168
66 179
275 117
91 17
35 60
184 115
188 156
29 104
140 211
210 230
267 183
40 233
87 88
42 100
95 16
150 149
276 207
116 268
30 205
209 283
166 42
212 61
2 88
122 175
178 265
259 13
218 72
101 128
228 56
5 63
192 194
213 133
214 160
12 13
270 102
102 165
149 181
94 10
113 140
183 109
2 223
39 236
143 158
216 205
234 63
154 171
92 213
101 147
7 254
33 274
51 73
234 6
272 265
7 256
242 207
278 115
254 6
220 15
66 153
87 72
222 259
50 25
23 61
19 266
13 9
108 227
65 210
238 171
18 223
172 239
67 260
127 37
99 194
164 161
81 263
107 137
93 14
159 276
26 59
44 66
101 35
155 44
265 124
133 110
251 143
265 8
194 218
99 22
194 225
109 165
74 26
250 252
260 190
18 266
34 124
73 187
12 173
74 132
6 18
218 34
282 101
119 191
150 122
250 57
92 45
93 108
199 79
101 58
112 68
21 42
263 101
34 188
75 284
113 119
14 102
261 167
139 141
6 129
260 20
236 156
168 175
183 103
258 5
145 12
177 12
218 148
254 256
215 35
110 103
208 26
214 212
55 106
171 142
245 143
153 169
48 193
150 30
227 105
91 265
86 153
75 243
230 255
217 280
190 8
11 130
278 146
8 155
82 121
269 226
223 227
32 9
135 194
193 221
190 4
44 134
40 19
199 227
25 13
264 21
77 61
132 105
205 16
95 60
130 148
208 107
200 182
64 203
85 138
195 59
208 51
131 217
47 169
99 70
275 125
63 95
132 212
83 70
63 141
282 20
38 217
200 238
71 104
185 226
246 135
112 83
87 29
40 225
79 99
270 205
182 30
170 165
280 277
237 163
74 159
150 193
67 236
110 283
83 158
23 11
178 144
164 185
198 156
236 182
158 250
225 32
27 234
270 182
116 138
260 111
75 103
155 46
122 55
50 181
283 121
71 53
222 220
220 72
193 275
16 207
38 2
77 88
19 71
254 189
73 276
267 87
145 111
140 204
133 71
30 204
123 253
52 124
248 196
13 194
84 37
182 74
196 145
44 77
18 71
68 273
270 142
273 177
75 73
73 271
184 43
8 52
51 98
40 280
136 225
251 49
217 40
284 132
227 34
264 76
173 31
276 195
47 207
158 259
93 24
108 9
121 148
256 63
237 12
150 135
276 123
157 24
74 190
45 107
159 147
112 140
44 261
147 43
144 267
29 175
50 173
196 37
212 103
82 46
3 66
87 64
103 55
218 234
206 245
244 265
138 45
239 240
225 193
179 15
147 178
27 268
12 231
257 210
142 103
265 26
83 108
186 283
132 179
145 283
238 261
58 118
76 93
161 168
102 63
178 154
13 155
254 147
69 53
13 218
104 223
154 262
200 15
227 204
185 78
18 215
139 113
51 2
203 34
234 72
72 181
140 72
213 132
211 201
224 132
282 247
17 148
155 52
33 72
117 139
206 115
271 223
283 284
259 144
109 95
221 35
42 72
81 146
122 127
64 35
178 40
192 12
137 272
167 161
179 51
162 130
24 90
227 195
264 202
31 194
274 206
46 167
58 224
282 167
272 101
210 212
42 59
25 76
102 182
91 75
207 28
73 53
254 215
31 260
140 122
137 139
214 187
48 174
135 258
26 22
17 227
154 77
14 210
231 148
208 110
74 184
205 139
258 87
232 230
233 281
42 142
127 21
123 258
186 166
267 100
11 48
81 143
7 135
184 23
13 52
175 161
13 115
120 107
279 270
79 264
11 262
164 80
19 45
240 247
157 146
284 195
112 109
13 39
116 262
10 208
55 262
132 10
142 238
29 190
155 188
17 2
39 150
67 148
104 197
191 178
193 39
64 153
122 230
256 23
99 236
27 107
226 55
248 79
133 212
33 201
120 132
130 48
74 6
151 105
81 48
182 272
82 205
27 73
12 32
165 183
155 47
181 229
150 179
15 230
78 73
256 18
86 165
217 23
244 112
206 209
221 153
275 204
90 1
259 86
11 3
80 34
88 187
27 88
130 188
123 77
220 253
63 121
214 68
284 138
73 116
230 262
49 156
157 147
137 55
142 165
9 42
256 150
109 33
200 221
201 220
27 200
209 122
215 59
202 183
135 41
206 13
102 181
28 167
74 112
217 47
258 193
25 173
109 25
155 204
197 212
102 41
184 68
254 213
214 89
264 270
238 92
26 127
283 272
245 2
213 214
181 233
50 204
255 99
280 118
94 44
202 13
68 170
218 74
183 63
178 165
32 113
229 165
252 139
102 171
48 267
244 31
7 18
258 17
226 22
61 122
21 248
46 35
68 217
126 56
160 195
85 133
158 237
31 220
1 22
123 254
148 185
190 178
276 151
84 128
208 213
163 63
57 17
268 203
240 255
64 100
162 189
82 101
224 73
183 227
182 146
64 265
176 194
267 15
73 120
258 20
250 149
212 159
212 187
132 185
64 135
80 44
94 203
220 5
35 120
199 56
280 203
14 76
87 13
92 162
91 200
278 97
52 58
181 146
281 58
182 107
82 86
130 42
266 53
119 200
259 186
19 186
4 122
80 35
57 196
130 150
212 256
6 222
149 148
216 143
79 150
105 263
231 184
117 255
71 58
119 80
119 259
29 248
35 155
110 173
266 161
198 205
210 220
68 124
283 81
246 71
264 15
67 204
100 101
19 138
76 236
220 130
127 63
108 37
199 17
265 60
120 11
177 141
111 280
196 43
83 250
166 210
203 169
155 271
112 127
250 87
146 204
60 57
232 94
52 255
266 11
38 210
274 248
137 57
115 173
16 98
180 264
128 218
42 257
225 198
45 94
37 33
234 229
94 2
49 79
14 74
155 217
34 95
148 222
142 19
262 91
187 249
148 115
135 149
203 234
52 103
46 226
178 217
235 210
25 20
80 215
42 56
248 267
176 260
8 221
97 21
101 74
22 253
148 128
257 5
87 279
51 50
166 225
39 68
212 10
87 155
271 122
94 59
220 245
96 158
96 112
61 268
94 223
101 266
18 133
179 217
112 46
133 89
265 270
149 283
38 14
225 137
84 50
248 153
24 111
149 86
147 76
237 178
220 25
279 155
53 120
12 121
94 227
156 226
34 101
8 14
21 106
35 27
42 39
184 13
161 88
283 280
156 260
166 129
27 262
277 35
121 210
216 251
198 177
258 58
104 42
155 130
186 142
22 185
40 282
230 223
193 224
182 32
73 164
45 179
199 149
21 68
208 186
280 191
36 251
196 278
47 49
174 130
128 127
86 203
178 73
9 34
272 35
131 282
183 234
214 98
107 223
66 110
271 80
19 277
193 165
275 72
208 277
133 262
72 34
133 215
89 55
230 234
35 246
95 137
143 29
146 248
56 143
2 203
184 105
44 275
265 35
50 112
122 29
234 188
87 176
65 200
218 225
48 273
116 19
138 208
153 156
110 72
44 162
25 100
163 173
156 203
170 54
205 180
186 150
267 119
265 134
284 256
257 193
78 275
179 270
58 229
256 99
260 28
246 215
23 144
98 2
157 74
13 18
238 69
122 15
254 243
141 87
231 226
15 2
32 70
48 119
51 107
182 204
266 61
200 196
69 44
64 175
265 171
222 112
249 194
121 156
119 234
33 147
109 218
74 141
98 39
78 33
140 259
25 181
99 220
232 167
227 79
28 128
182 137
132 249
19 259
224 169
174 245
14 220
23 270
105 140
283 255
284 10
125 54
199 240
232 154
275 124
86 258
214 69
82 170
93 199
75 10
56 25
139 121
212 44
80 241
253 104
55 167
131 137
134 102
263 122
147 74
280 174
226 17
72 121
32 263
56 227
6 93
116 168
243 124
25 83
182 210
36 125
125 199
118 37
75 178
205 119
23 113
161 74
272 142
269 270
259 66
66 213
167 74
215 187
85 66
207 146
138 61
100 226
42 120
111 149
116 213
92 175
219 82
49 184
175 11
192 16
166 48
116 123
242 1
64 79
7 246
169 249
183 72
6 13
228 50
159 77
48 115
72 260
194 68
171 159
249 208
118 109
49 178
53 49
186 105
109 172
94 35
67 110
57 64
146 153
220 236
39 230
158 126
193 153
246 132
88 215
274 176
188 64
63 216
235 45
272 190
188 105
161 259
249 154
4 145
132 3
49 265
226 149
256 91
64 283
175 84
127 184
6 236
47 193
196 46
55 11
193 40
184 224
104 284
210 170
166 181
134 110
123 200
258 108
206 200
183 207
2 119
277 92
49 6
224 220
212 171
277 215
143 274
147 193
17 87
205 181
40 34
10 224
214 78
237 270
91 184
2 217
115 280
153 28
104 271
174 128
204 28
269 203
101 197
251 129
76 248
194 119
37 267
138 261
182 265
35 98
109 270
220 58
149 98
127 40
228 209
162 253
252 196
173 186
49 220
257 29
38 261
198 217
91 46
55 261
135 151
184 87
12 209
123 187
101 166
200 222
256 253
67 115
80 283
276 194
101 119
60 234
109 188
251 163
99 251
45 112
116 197
259 275
225 118
130 9
114 156
53 124
49 48
144 128
101 207
53 85
271 66
22 2
98 204
171 186
78 134
268 127
60 22
214 35
9 76
140 39
213 103
124 35
136 155
23 226
54 282
152 165
282 23
256 48
276 214
119 273
17 160
216 39
235 183
140 58
250 100
37 47
174 283
280 64
218 4
273 156
211 37
13 280
137 29
115 70
270 183
253 89
215 189
276 28
46 13
250 99
146 127
102 189
150 36
263 33
270 56
14 153
122 193
189 258
254 3
280 169
31 257
23 31
37 46
188 178
225 203
102 179
8 227
174 186
86 33
102 70
87 70
173 64
171 214
74 142
21 140
236 264
229 202
154 208
194 9
223 22
87 190
25 101
247 62
8 266
168 164
83 263
153 142
166 226
68 267
98 254
231 177
122 188
47 255
244 37
107 256
38 63
172 129
115 244
115 2
284 35
254 35
148 35
114 149
248 67
169 75
120 246
196 40
150 210
122 124
8 209
204 58
33 234
191 115
267 220
183 99
256 227
91 115
181 257
255 220
6 170
140 192
235 22
68 252
112 101
24 152
181 203
256 45
259 283
23 150
182 3
206 273
219 239
63 265
145 139
15 95
187 195
61 89
62 207
252 47
137 226
170 259
159 11
176 68
256 187
213 218
282 122
73 159
13 60
82 76
89 7
63 255
47 11
22 108
173 209
283 78
209 144
204 109
271 85
146 52
109 40
147 244
259 164
186 40
147 174
37 91
15 76
215 77
92 253
174 178
42 203
80 79
234 112
58 136
234 89
280 16
51 80
140 23
255 142
122 121
52 252
223 238
220 257
2 124
9 252
19 26
10 254
282 36
130 127
99 166
89 134
258 109
169 275
190 160
270 16
273 118
280 105
62 192
45 254
243 130
222 111
71 27
44 218
98 115
220 187
116 230
235 277
91 34
111 97
76 140
188 276
214 235
31 222
164 223
86 68
135 279
155 127
190 45
234 215
22 123
94 92
248 70
202 30
202 275
31 245
13 232
166 72
197 135
23 196
137 167
203 175
223 8
42 10
189 227
190 153
254 188
63 112
269 128
284 123
111 178
282 155
156 193
95 280
111 170
222 204
280 161
153 109
103 66
149 200
207 65
105 190
260 209
240 47
217 199
278 99
47 8
114 200
261 150
223 256
88 78
48 40
283 224
255 8
93 259
275 230
101 258
31 279
233 257
23 149
168 135
235 160
74 42
173 165
69 162
162 161
133 41
234 144
187 223
233 112
64 184
186 23
241 126
155 76
11 51
279 93
146 57
183 17
189 27
251 239
124 221
162 3
218 214
216 126
255 175
262 41
263 128
206 87
109 274
178 203
235 71
33 60
106 263
232 80
19 265
148 188
238 77
238 190
197 42
284 249
171 55
244 125
244 130
86 184
213 130
17 231
189 214
3 72
2 47
101 120
112 258
187 120
122 45
221 6
152 108
4 273
254 64
258 190
181 1
236 60
88 208
2 132
143 228
280 38
167 225
228 210
167 39
243 276
6 137
225 141
33 197
78 223
75 124
234 17
79 263
19 47
275 52
132 78
280 144
137 49
226 2
103 162
197 66
226 48
199 260
25 115
55 223
201 47
12 9
267 16
34 87
209 48
225 274
47 104
218 208
240 67
272 230
179 130
259 55
274 169
79 54
7 92
47 16
277 259
245 85
15 259
161 187
59 134
49 142
188 135
116 135
169 258
87 19
270 22
42 52
125 228
87 44
271 218
272 11
130 27
84 174
115 263
272 17
22 210
211 93
122 192
199 100
171 73
268 171
40 52
155 200
258 16
127 116
143 32
151 232
260 194
130 69
160 253
162 160
17 18
264 182
282 257
14 150
224 255
80 100
161 138
175 102
78 259
222 140
11 84
79 272
165 128
83 207
45 44
79 119
277 17
13 17
109 5
245 166
129 128
232 18
244 242
97 210
182 86
43 54
132 31
63 86
6 203
185 243
159 3
50 165
42 255
99 52
78 276
150 267
276 7
69 120
249 162
265 71
186 220
45 61
145 68
127 265
226 91
260 97
222 252
252 98
63 79
149 21
59 11
234 154
86 55
87 153
264 23
99 257
213 246
254 69
203 121
250 144
250 8
105 47
11 172
2 148
203 51
91 110
31 137
58 270
179 18
268 38
183 258
13 74
78 17
178 22
94 187
119 140
145 39
257 21
278 252
35 130
204 114
236 58
256 44
151 258
182 183
130 17
6 174
108 233
257 95
207 17
149 71
88 26
219 72
105 128
97 141
166 203
91 197
90 36
204 48
202 173
177 269
145 216
14 173
101 172
38 221
150 91
263 135
86 239
168 179
82 60
26 80
190 135
226 272
86 159
29 40
131 81
96 79
259 22
261 75
46 111
135 23
169 176
75 262
46 181
6 68
26 159
104 37
258 150
49 210
190 88
11 69
71 138
224 85
127 226
252 155
96 251
193 91
194 143
182 108
12 158
217 184
53 197
66 246
266 259
218 116
118 152
186 258
147 17
164 258
3 138
137 120
185 9
165 43
38 214
36 131
150 255
224 45
32 218
210 159
255 165
92 221
264 227
52 193
128 207
137 86
283 153
39 40
277 230
202 248
209 74
210 104
249 138
276 162
105 244
60 263
217 99
246 271
100 83
243 258
148 143
15 47
272 187
269 140
169 234
55 135
225 155
49 112
136 115
209 57
49 52
83 269
184 39
226 182
21 279
123 71
238 2
213 261
158 206
191 117
262 17
31 153
218 91
115 99
87 178
281 63
133 69
250 76
267 148
213 230
88 107
137 203
201 57
173 221
99 51
52 98
82 220
2 138
74 87
124 197
234 267
65 11
143 30
267 182
205 156
157 250
41 44
110 104
55 2
272 177
197 213
38 51
66 150
184 60
190 279
11 282
140 165
116 253
260 112
166 196
159 41
55 110
236 275
274 275
250 148
184 71
233 70
275 9
277 189
207 165
51 250
9 86
25 149
97 183
77 71
99 38
66 130
122 202
96 25
262 189
179 154
14 115
227 35
138 18
6 159
30 48
20 111
186 197
278 42
271 200
52 198
122 181
278 34
11 64
198 91
109 234
264 184
105 255
120 124
194 49
144 63
284 130
28 175
24 158
161 133
190 266
203 38
38 256
106 206
179 67
276 245
57 184
80 226
34 79
14 23
254 183
10 35
91 142
44 127
63 173
184 44
26 116
83 34
215 17
280 98
11 185
68 47
34 185
278 250
59 249
87 210
160 138
227 200
149 115
140 252
57 203
273 81
224 149
141 163
147 183
12 202
277 107
29 167
243 18
9 225
64 101
33 251
32 176
92 123
274 204
147 109
127 89
77 66
218 276
68 10
256 94
277 85
270 192
174 30
21 173
45 73
93 118
57 220
277 262
124 55
70 203
84 17
203 3
219 149
50 245
234 79
249 135
46 209
85 104
194 105
162 22
91 207
151 77
128 240
1 158
258 192
230 266
64 165
225 228
198 38
228 147
175 27
215 116
20 91
57 79
272 127
75 85
264 206
68 46
188 159
87 140
67 153
109 207
189 197
65 155
200 105
6 182
219 118
259 45
153 99
135 35
243 61
188 137
69 73
209 60
131 269
63 271
250 200
37 57
120 243
44 8
65 136
225 130
236 65
256 35
102 50
226 118
265 116
164 3
132 277
49 166
7 13
112 254
210 248
142 195
6 280
268 73
167 247
109 81
189 195
244 207
3 44
170 264
48 182
276 185
250 60
52 33
124 256
28 119
147 207
82 80
48 227
92 230
96 54
63 245
228 175
52 90
116 187
280 263
81 23
205 34
38 266
11 275
252 16
83 231
86 179
245 49
69 85
84 22
97 117
210 178
177 127
72 170
47 7
26 187
211 183
199 144
70 106
124 127
87 6
122 275
20 150
130 29
266 49
135 227
151 123
266 164
33 190
207 188
34 84
56 67
11 142
141 186
186 227
89 63
223 142
142 67
155 37
102 268
113 241
99 244
208 75
34 52
21 117
76 8
203 212
256 101
155 95
258 267
123 160
33 209
14 182
60 139
11 148
81 95
221 164
194 155
73 19
13 37
167 255
210 261
188 61
204 3
151 224
248 25
240 218
24 39
173 108
52 20
257 229
37 231
104 98
245 149
283 150
46 95
130 147
80 214
179 64
33 264
119 122
162 86
217 227
267 136
270 50
2 230
40 142
85 19
255 16
178 120
121 202
243 184
31 93
265 179
111 119
46 230
198 101
271 134
233 13
270 44
244 50
18 135
77 262
253 159
231 139
76 274
246 45
186 178
252 37
13 24
190 98
245 217
159 44
149 80
155 213
186 38
21 200
203 236
50 48
221 230
246 161
98 179
124 194
48 55
260 47
25 127
162 124
279 165
22 275
276 105
248 186
258 67
137 24
180 192
232 259
103 151
236 11
209 182
13 11
203 278
200 170
10 164
212 19
195 184
89 132
284 63
25 239
51 3
58 142
63 275
69 2
214 120
71 73
63 231
98 133
230 215
74 257
13 226
153 80
7 204
36 152
254 253
56 119
55 258
72 126
258 174
109 278
259 200
115 17
74 110
44 135
239 269
208 161
79 149
7 284
64 204
110 138
171 215
91 55
188 283
220 4
29 86
60 276
173 279
22 23
255 122
206 114
42 107
118 196
210 33
197 26
224 91
118 79
260 217
199 70
80 11
121 84
213 154
200 100
272 227
282 108
153 6
259 235
226 44
200 128
57 267
189 104
198 40
150 219
250 37
66 45
113 81
272 258
207 218
221 224
147 226
51 61
280 264
168 142
7 74
38 80
24 242
104 224
89 53
47 258
20 129
276 10
272 154
170 102
141 23
33 94
158 80
107 155
259 100
19 154
242 219
200 124
47 22
104 221
77 212
114 163
218 183
202 155
103 235
234 249
13 215
72 267
37 55
49 29
256 130
1 196
53 185
8 142
204 131
203 91
205 31
86 2
31 144
258 160
109 106
252 207
40 81
209 175
7 261
130 283
220 27
120 77
284 142
189 179
124 175
166 202
178 272
198 60
209 135
135 6
208 45
2 89
100 127
140 240
268 138
167 200
74 8
159 151
145 222
2 68
174 40
122 182
169 204
82 65
15 263
69 230
225 93
53 7
142 87
119 264
38 197
10 213
277 253
62 205
74 90
167 148
15 105
35 57
282 140
71 159
17 137
93 79
87 171
91 92
28 255
12 248
229 97
11 279
205 267
203 13
233 113
127 217
44 213
31 4
128 25
98 142
162 232
226 117
142 214
155 137
208 44
75 271
7 51
67 52
241 192
54 46
43 209
188 26
202 50
280 2
186 73
246 44
206 247
280 190
57 8
236 278
34 198
282 220
99 112
48 280
137 101
245 17
233 131
20 5
150 151
174 38
210 276
58 170
18 98
42 263
182 221
147 153
120 92
264 118
152 82
226 124
259 182
179 137
42 178
168 3
198 46
184 175
249 246
83 226
101 44
178 131
256 41
200 242
198 65
67 49
279 245
276 182
35 49
140 172
66 89
162 223
190 19
227 250
226 184
199 16
109 259
276 89
6 275
2 268
17 7
190 203
217 149
156 140
280 209
191 136
2 246
114 175
162 18
212 220
189 183
7 194
212 253
261 26
49 127
87 42
131 117
62 196
231 220
59 53
13 78
47 149
229 282
218 89
244 91
278 255
234 104
17 279
104 102
18 88
148 3
104 168
191 188
261 268
48 34
165 55
144 220
184 213
169 37
10 160
127 68
258 53
27 120
271 266
155 57
257 11
41 277
186 172
58 178
253 238
122 114
63 72
74 222
265 105
39 105
227 85
91 243
230 197
46 72
103 27
94 189
71 254
52 195
207 226
27 254
283 183
113 231
55 33
223 203
216 36
114 165
249 268
213 204
272 124
24 146
102 98
227 226
203 272
176 150
101 280
59 197
163 131
52 147
127 263
267 3
89 150
118 137
203 218
278 228
69 138
78 107
40 38
66 266
75 221
167 178
127 140
105 80
57 132
185 147
232 138
155 106
244 25
18 73
144 70
154 3
47 137
78 249
227 275
169 41
107 2
85 154
56 191
86 135
137 38
232 265
219 80
190 182
209 84
184 9
254 280
249 107
10 88
212 215
155 132
122 276
52 6
194 93
105 46
270 68
45 277
9 49
82 84
255 140
203 174
154 66
104 130
25 131
109 82
42 222
57 225
125 281
161 10
36 219
70 155
14 184
134 10
51 272
156 190
102 133
127 284
172 32
76 112
101 178
172 194
258 276
142 17
47 220
51 183
248 40
23 106
21 84
79 256
135 234
179 135
34 105
182 106
188 262
67 158
253 284
41 110
173 227
13 22
169 42
192 101
6 73
63 272
167 276
150 40
159 220
261 215
150 188
45 58
221 58
158 251
17 132
43 252
55 194
225 278
256 142
192 111
106 174
35 109
267 29
85 26
11 79
255 132
74 234
102 146
282 49
130 55
235 208
184 283
94 89
275 226
253 19
35 257
185 151
227 239
107 26
73 155
224 254
87 33
258 8
282 211
202 157
5 283
60 207
159 28
206 191
140 74
35 248
256 179
59 137
278 234
195 120
64 119
17 155
105 245
199 35
164 150
140 128
91 52
79 37
208 160
108 16
279 169
2 189
142 133
257 65
108 25
208 91
72 44
197 159
183 186
265 220
203 111
136 231
283 98
98 175
77 102
167 47
18 221
9 101
70 280
193 265
2 161
15 35
266 246
129 125
165 108
99 12
52 55
248 158
233 245
245 272
49 234
75 45
272 220
54 198
220 167
207 241
142 123
60 190
187 277
155 181
61 252
270 31
87 76
140 48
174 200
173 274
175 226
108 273
52 138
228 4
48 37
184 185
203 85
77 243
101 57
244 14
68 109
122 169
274 106
52 31
182 91
228 42
23 153
87 156
17 193
23 8
116 44
220 124
192 196
225 270
231 228
211 79
124 44
5 207
33 21
75 175
227 44
232 246
13 245
217 190
246 223
106 226
256 46
214 265
78 27
65 6
200 148
266 45
254 171
151 246
58 5
14 71
44 189
167 49
234 282
159 262
49 95
223 66
12 80
266 215
173 150
223 135
32 166
218 6
208 188
168 212
225 220
154 91
42 49
202 86
216 13
184 3
154 162
194 165
230 185
283 95
173 5
137 66
68 76
145 144
230 26
122 223
14 275
68 209
198 209
73 3
149 188
131 63
183 57
46 86
124 93
74 92
150 216
142 2
69 195
218 63
48 136
199 155
256 275
140 206
149 95
88 120
71 47
11 105
236 51
107 189
182 166
230 105
34 220
164 133
123 243
71 238
245 231
165 87
204 254
183 282
95 153
55 14
176 172
214 23
173 252
158 13
185 197
243 213
243 246
113 250
112 18
271 159
124 183
154 87
270 148
58 185
150 238
133 22
53 45
135 178
128 9
201 157
172 115
275 105
175 78
120 133
61 44
218 152
153 30
162 101
55 249
122 110
106 127
74 185
142 130
44 230
37 274
67 64
49 192
137 114
59 107
111 148
278 173
38 236
92 3
15 226
154 175
232 215
177 46
281 250
136 153
209 63
208 195
169 17
138 262
69 88
221 262
101 39
48 38
63 73
2 100
140 141
99 64
6 184
149 225
165 267
68 58
98 188
11 240
187 208
1 233
194 215
102 274
44 272
182 114
2 196
80 63
280 55
280 92
245 209
275 135
94 154
55 6
127 276
102 259
84 178
53 103
229 39
163 225
167 68
221 175
106 199
27 261
246 214
265 109
127 132
213 195
31 196
203 61
115 102
7 77
88 153
13 133
75 92
258 62
229 57
133 123
87 18
96 30
18 92
200 186
14 68
74 39
139 149
185 224
36 178
240 49
246 203
263 86
142 27
208 254
143 282
174 274
187 243
34 106
57 48
187 213
160 59
18 186
25 183
5 105
221 13
262 53
254 187
256 73
193 274
61 73
153 172
109 222
171 63
224 11
147 233
188 5
235 27
110 64
146 115
103 41
194 198
207 79
49 58
155 84
53 66
4 30
271 167
268 243
221 155
119 176
27 38
85 132
18 89
151 169
37 276
264 50
279 228
91 283
188 113
8 185
62 143
154 116
266 7
223 77
14 28
161 210
204 271
8 70
280 143
217 167
52 32
192 43
105 165
269 163
5 141
170 176
227 107
61 270
145 25
138 133
44 164
210 142
68 280
277 98
221 67
246 123
257 23
264 52
124 161
134 26
282 95
116 159
87 11
87 264
220 280
97 87
279 234
106 20
217 118
58 81
12 191
5 219
8 252
214 14
126 205
176 269
144 33
99 192
91 213
228 204
60 55
91 88
42 109
138 105
220 29
197 284
151 17
214 164
213 210
175 94
39 142
17 198
82 163
194 234
192 263
167 104
83 274
235 284
275 210
41 120
246 160
135 72
7 161
156 23
236 177
46 74
19 55
149 170
88 189
202 119
79 38
81 193
260 84
135 260
280 270
196 48
238 80
21 156
284 74
129 97
53 213
209 16
56 76
124 107
61 154
174 46
70 137
116 101
2 275
120 78
37 34
189 101
118 119
249 74
110 44
272 135
116 162
234 115
93 106
15 174
20 185
263 177
10 69
123 161
23 175
110 10
235 238
108 58
63 132
229 12
41 88
24 30
230 151
39 91
188 42
164 179
56 39
169 137
188 23
250 17
222 124
226 105
82 16
144 74
122 130
248 256
27 284
80 122
69 160
269 14
244 102
135 27
151 44
261 19
155 122
76 65
258 18
32 144
81 169
169 200
72 57
37 117
174 49
55 127
117 149
64 58
241 201
180 60
17 10
11 6
6 35
194 16
196 91
144 174
47 74
249 214
20 49
15 193
280 112
202 217
103 8
200 74
19 175
282 274
16 210
165 15
155 22
145 272
279 137
134 151
63 104
270 227
9 100
20 252
47 114
122 217
252 283
241 125
132 259
9 23
193 269
178 11
189 130
189 45
42 151
215 268
130 68
275 21
175 229
187 162
279 252
273 283
44 215
159 284
69 262
204 193
239 202
168 151
147 141
262 110
130 44
175 279
147 176
64 169
222 2
103 107
121 42
7 10
167 160
53 132
14 48
35 253
173 22
67 135
190 246
23 108
265 6
50 174
107 69
173 46
101 11
97 200
129 216
265 275
214 258
249 197
252 206
258 154
235 283
12 190
52 119
108 68
279 76
169 183
280 135
149 207
175 254
99 184
89 161
123 120
153 199
13 40
188 189
250 80
216 115
46 108
157 281
23 64
57 51
61 91
253 134
186 234
204 72
13 210
63 207
58 41
260 70
184 170
191 163
117 206
195 272
199 119
217 22
40 105
277 169
107 230
33 68
93 111
102 88
160 78
88 45
17 197
126 149
48 155
173 125
30 115
259 229
67 39
164 243
79 173
227 175
140 51
80 124
173 159
21 244
22 168
59 245
42 232
262 200
65 98
105 279
42 48
258 143
136 24
164 276
97 135
277 175
58 122
259 207
200 44
38 159
61 2
152 283
283 79
204 29
274 158
44 238
188 11
194 58
104 52
49 7
259 179
240 236
238 40
80 28
200 275
232 221
146 31
153 278
276 160
178 275
128 121
114 282
269 279
210 12
63 166
147 218
171 123
110 71
49 72
198 58
55 104
102 197
148 132
109 2
130 14
21 203
26 221
272 38
141 206
257 169
238 41
13 174
80 132
115 60
251 70
47 59
36 181
188 228
61 150
75 153
73 59
182 186
80 230
66 78
32 86
177 274
109 46
215 149
192 91
147 275
35 273
204 202
15 209
246 22
41 214
254 78
214 262
23 62
72 124
173 122
10 116
263 240
189 133
176 188
268 74
57 33
121 100
55 263
48 110
265 42
6 10
137 204
260 167
149 204
49 57
2 74
136 199
110 151
169 57
238 73
92 184
169 34
230 249
122 159
22 74
127 246
140 149
3 42
104 3
17 79
116 258
127 260
119 269
58 248
92 77
163 210
187 258
88 224
155 74
17 44
54 136
173 267
248 28
210 60
208 262
86 173
275 58
83 272
23 155
272 29
221 246
161 159
70 227
252 35
101 224
73 215
206 281
139 255
245 100
242 90
44 266
103 253
169 112
200 263
22 111
122 265
57 218
190 25
169 54
150 126
74 186
87 204
173 144
34 282
78 197
258 73
97 20
244 172
165 231
222 221
167 88
34 244
14 206
256 140
34 86
34 29
184 239
274 118
104 115
149 237
215 200
37 181
118 203
190 46
90 233
198 204
42 132
199 128
49 118
95 236
212 137
18 187
178 13
260 269
171 105
119 109
223 19
66 175
207 144
280 227
61 204
87 80
105 48
127 218
153 35
211 14
67 165
132 167
227 138
115 282
106 16
53 254
194 42
23 198
206 38
8 27
25 250
98 44
233 46
102 51
145 80
77 10
166 29
35 33
87 84
99 81
274 140
63 28
26 142
33 275
171 235
223 61
191 121
118 87
33 74
92 103
84 111
185 102
232 120
264 84
124 207
87 174
211 6
244 210
156 177
179 204
108 14
122 272
26 52
115 270
208 283
144 279
208 19
105 79
72 47
28 81
41 127
249 265
224 162
53 243
159 232
74 105
124 110
272 161
187 14
111 76
7 153
274 142
268 130
245 182
264 222
64 104
31 20
87 108
245 178
252 205
220 153
98 107
193 54
262 92
227 39
254 28
112 106
183 231
90 84
238 42
79 205
260 255
49 64
179 118
52 166
259 29
265 18
141 12
275 269
115 6
53 154
71 45
232 150
124 17
231 8
68 70
17 48
218 226
235 195
60 21
179 88
15 8
33 104
276 61
243 88
184 162
214 221
137 110
110 161
171 26
218 39
211 30
6 22
6 260
63 279
272 188
90 202
140 38
137 162
163 156
150 42
256 283
183 8
237 28
92 203
134 230
227 51
284 22
110 127
211 81
235 94
283 124
171 51
212 265
252 111
48 173
122 179
178 211
14 40
148 210
169 107
280 141
214 210
45 154
41 19
190 188
196 127
52 202
6 132
257 207
196 282
192 95
17 85
105 175
102 105
44 188
279 275
51 78
14 9
182 222
218 259
57 222
55 115
195 232
94 255
80 170
135 132
144 58
93 172
183 210
187 232
264 198
209 110
115 157
89 123
57 242
49 59
99 23
234 151
283 36
48 186
186 270
2 123
54 97
185 275
147 70
197 41
22 220
236 239
185 17
243 66
220 240
102 45
209 22
99 65
175 115
48 245
185 57
150 280
224 265
138 265
275 67
80 67
267 76
222 270
98 265
31 135
278 46
137 193
58 63
266 160
142 230
13 42
146 225
136 234
259 190
22 120
198 263
196 115
203 264
194 104
58 12
152 30
279 203
215 101
36 42
250 21
258 132
159 265
61 66
186 28
169 265
206 172
12 111
231 201
71 89
50 55
161 160
57 260
24 200
272 159
42 23
87 20
166 79
231 234
178 19
102 86
88 22
97 109
260 210
194 117
192 76
21 217
274 218
183 194
171 195
217 39
64 146
195 13
150 78
13 8
51 135
47 187
155 214
18 160
183 127
137 71
182 282
175 159
1 152
209 192
58 29
134 259
145 194
190 92
226 122
34 179
38 47
117 143
152 240
10 18
165 11
149 167
243 69
101 229
157 28
58 6
62 146
218 174
74 199
261 221
188 200
74 176
155 79
147 38
6 186
173 259
122 13
79 167
268 284
122 38
119 178
283 207
98 6
119 67
218 11
101 179
170 91
259 11
13 278
86 221
2 276
76 74
76 233
112 79
210 153
153 196
142 200
21 15
18 159
105 261
3 71
243 142
174 74
227 260
33 155
114 76
35 209
261 116
227 28
283 144
221 73
97 165
128 95
80 121
229 87
51 256
88 150
265 28
186 267
40 229
259 111
243 277
256 261
193 166
41 154
219 248
40 279
271 203
229 255
212 218
178 193
39 94
66 214
181 128
6 99
269 118
22 33
121 143
182 260
134 280
182 159
95 186
267 74
44 161
46 6
252 137
114 191
250 67
219 281
46 206
101 284
28 222
93 65
91 280
87 179
77 78
137 108
160 168
280 149
184 132
174 64
135 66
169 115
199 169
276 203
127 167
186 111
149 101
279 209
43 203
112 54
9 31
121 167
272 2
239 233
100 46
179 165
240 72
48 178
107 212
213 249
49 119
47 58
137 255
178 150
111 31
276 34
122 139
43 225
130 78
65 102
248 234
224 7
170 21
194 74
92 78
44 55
55 107
201 219
263 202
55 254
89 223
59 235
169 72
166 227
269 258
205 202
63 48
75 130
258 42
78 178
89 195
159 254
95 117
102 2
26 246
135 98
266 135
240 6
208 80
48 12
85 130
188 107
146 183
70 142
37 222
140 29
194 185
84 42
67 13
87 22
259 171
245 257
265 7
167 153
20 101
272 32
46 42
61 226
9 117
65 203
23 80
43 282
163 255
227 153
212 53
247 237
98 256
232 271
256 55
15 93
83 209
3 87
271 224
82 90
194 79
86 80
206 118
164 89
49 135
251 1
148 84
58 48
246 276
224 159
50 278
222 227
