,temp,degree_centralization,betweenness_centralization,closeness_centralization,eigenvector_centralization,global_clustcoeff,assortativity,diameter,avg_degree,modularity,density,avg_path_length,vertices,edges
1,Graph00,0.1448051948,0.0583559648,0.209318519,0.606565881,0.1628075253,0.0481956097,4,7.0357142857,0.2675281507,0.1279220779,2.2506493506,56,197
2,Graph01,0.1477214542,0.031149351,0.1350402012,0.4211060675,0.2061482821,-0.0629587643,3,11.8412698413,0.1825787578,0.1909882232,1.8924731183,63,373
3,Graph02,0.1436853002,0.0199914665,0.1105674449,0.39414187,0.2415566987,-0.0014411737,3,16.0857142857,0.1545308847,0.233126294,1.782194617,70,563
4,Graph03,0.1288711289,0.012695481,0.0955453235,0.36517171,0.2709652658,0.0336750173,3,20.0769230769,0.1273249072,0.2607392607,1.7439227439,78,783
5,Graph04,0.1356589147,0.0115084124,0.1011442157,0.3463473476,0.291864831,0.0511567796,3,23.3333333333,0.1158659516,0.2713178295,1.7326917936,87,1015
6,Graph05,0.1495919244,0.0113093098,0.1133480621,0.3600501209,0.3089322644,0.1069107331,3,26.6391752577,0.092437146,0.2774914089,1.7276632302,97,1292
7,Graph06,0.1488404292,0.0078806085,0.1117754419,0.3775977778,0.3188339741,0.1464543566,3,30.0740740741,0.0978025128,0.2810661128,1.7222222222,108,1624
8,Graph07,0.1473389356,0.0084970021,0.1097078241,0.3745160959,0.3265678709,0.1490818681,3,33.4666666667,0.0707798785,0.281232493,1.7212885154,120,2008
9,Graph08,0.1613735832,0.0089731594,0.1205441762,0.3838150825,0.3303698548,0.1767239026,3,36.5373134328,0.0834931944,0.2747166424,1.7288744249,134,2448
10,Graph09,0.1652457827,0.0068033993,0.1231006165,0.4000517543,0.3363824207,0.1891664346,3,39.5436241611,0.0820415822,0.2671866497,1.7380736441,149,2946
11,Graph10,0.1353778751,0.0065972355,0.0990326323,0.3860866295,0.3264923642,0.2314773344,3,42.6626506024,0.0987349068,0.2585615188,1.747645126,166,3541
12,Graph11,0.1511457109,0.0094140199,0.1099651692,0.3875575305,0.3189921008,0.1946103982,3,45.1891891892,0.1477870527,0.2455934195,1.7606345476,185,4180
13,Graph12,0.1574236325,0.008922314,0.1159693598,0.4219119172,0.3137247937,0.1716300023,3,47.7281553398,0.1722677971,0.23282027,1.7781671797,206,4916
14,Graph13,0.1685244771,0.0088221484,0.1277814325,0.4408358271,0.3097477212,0.1577871964,3,50.576419214,0.1883301699,0.2218264001,1.7976327281,229,5791
15,Graph14,0.1713601976,0.008208589,0.1300654461,0.4769227909,0.3055572257,0.1563914605,3,53.4745098039,0.1964280766,0.2105295662,1.8120734908,255,6818
16,Graph15,0.1725476534,0.010261578,0.1348513435,0.5012832858,0.3019554425,0.1793721801,3,56.1690140845,0.234465173,0.1984770816,1.8346936744,284,7976
17,Graph16,0.1646172393,0.008922418,0.1356593814,0.5002094028,0.2989337377,0.2318236029,3,59.1455696203,0.2418360161,0.1877637131,1.8611814346,316,9345
18,Graph17,0.155970696,0.0076065573,0.1352212625,0.506370474,0.292329008,0.2604088842,3,62.4102564103,0.2396565785,0.1783150183,1.8847537648,351,10953
19,Graph18,0.1602267484,0.0078173851,0.1441539673,0.5377783854,0.2875521525,0.2967710804,3,65.6717948718,0.2445990496,0.1688220948,1.9088787819,390,12806
20,Graph19,0.1360234368,0.0057168215,0.1348715036,0.5345317152,0.2799827231,0.3327545441,3,69.2378752887,0.243704669,0.1602728595,1.9360084681,433,14990
21,Graph20,0.1170954608,0.0051542938,0.1281821969,0.5246327961,0.2713201852,0.3521989565,3,72.7941787942,0.236641462,0.1516545392,1.9600225225,481,17507
22,Graph21,0.1171940328,0.0054371143,0.131328361,0.511656542,0.2636356691,0.3744499868,4,76.5355805243,0.2211738952,0.1435939597,1.9820674438,534,20435
23,Graph22,0.1076637346,0.0040293567,0.1283115101,0.5137859148,0.2546585985,0.3893896034,4,80.26306914,0.2420470366,0.1355795087,2.0010140832,593,23798
24,Graph23,0.1243387098,0.0062354376,0.1436373975,0.534968466,0.2457756077,0.3921327402,4,84.1851289833,0.2466649975,0.1279409255,2.0177989124,659,27739
25,Graph24,0.1091176844,0.004398997,0.1344205373,0.5383631441,0.2363333787,0.3999316294,4,88.2349726776,0.2266355426,0.120704477,2.0339679906,732,32294
26,Graph25,0.1016623344,0.0052271189,0.1270915916,0.5416228666,0.2264711966,0.4011522214,4,92.4501845018,0.2291378487,0.113854907,2.0500427172,813,37581
27,Graph26,0.0932675757,0.0038994292,0.1207847654,0.542528172,0.2168148249,0.406747922,4,96.8726467331,0.2522448563,0.1073976128,2.0679994991,903,43738
28,Graph27,0.1004650719,0.003676668,0.1203421447,0.566646892,0.2073645848,0.4068506372,4,101.333998006,0.2535818505,0.1011317345,2.0862800819,1003,50819
29,Graph28,0.0863614441,0.003214865,0.1124993225,0.5669867864,0.1979322181,0.4167416153,4,105.8797127469,0.2309680445,0.0951300204,2.1055713366,1114,58975
30,Graph29,0.0811658072,0.002896369,0.1096058312,0.5637512667,0.1882817934,0.4244781957,4,110.6790622474,0.2739129981,0.0895461669,2.1207836581,1237,68455
31,Graph30,0.0716638519,0.0026510121,0.1078430546,0.5569465269,0.1790625565,0.4268390292,4,115.6055312955,0.2666610217,0.0841992216,2.1349386325,1374,79421
32,Graph31,0.0749775476,0.0026698817,0.1061029291,0.5535991882,0.1699935413,0.4292312403,4,120.6592398427,0.2478557277,0.079120813,2.1476784909,1526,92063
33,Graph32,0.0685230036,0.0023257034,0.1044611598,0.5559685761,0.1613093571,0.4288551687,5,125.9905548996,0.2432594907,0.0744185203,2.1584920476,1694,106714
34,Graph33,0.0651911048,0.0022502992,0.1039070058,0.5518790801,0.1531553747,0.4315833313,5,131.4407230197,0.2605730145,0.0699152782,2.169425498,1881,123620
35,Graph34,0.059327767,0.0021661963,0.1039725239,0.5530611166,0.1449428612,0.4329135231,5,137.1829501916,0.2483188999,0.0657321275,2.1785776573,2088,143219
36,Graph35,0.0539319424,0.0020979276,0.1041939328,0.5542169876,0.137348406,0.4359447359,5,143.0396893874,0.2810436286,0.0617348681,2.1887578885,2318,165783
37,Graph36,0.0536177218,0.0019342142,0.1020087253,0.5564305075,0.129863801,0.4399864396,5,149.095219588,0.2599137063,0.0579685924,2.1989154632,2573,191811
38,Graph37,0.0471560343,0.001692788,0.0998546779,0.5569256772,0.1226813748,0.4396037181,5,155.3223661183,0.2534586294,0.054384582,2.2094278734,2857,221878
39,Graph38,0.0508475891,0.0015113611,0.0959969369,0.558766249,0.1158520491,0.4395786169,5,161.762295082,0.263100816,0.0510130227,2.2186134352,3172,256555
40,Graph39,0.0464574566,0.0013690523,0.0925123602,0.5635011131,0.1093147168,0.4416939059,5,168.4697529111,0.2818472722,0.0478607253,2.2274190894,3521,296591
