*Vertices 61
8 "#30"
40 "#39"
57 "#50"
2 "#5"
13 "#9"
11 "#56"
16 "#59"
52 "#53"
29 "#31"
4 "#2"
14 "#15"
15 "#6"
7 "#52"
38 "#46"
12 "#60"
33 "#36"
47 "#55"
32 "#43"
26 "#41"
59 "#0"
9 "#12"
22 "#38"
56 "#49"
51 "#21"
36 "#26"
50 "#7"
61 "#20"
48 "#29"
28 "#18"
19 "#57"
18 "#10"
3 "#27"
27 "#48"
55 "#16"
20 "#35"
5 "#3"
31 "#45"
60 "#42"
6 "#8"
44 "#13"
37 "#23"
34 "#17"
41 "#1"
58 "#22"
43 "#54"
21 "#44"
54 "#33"
46 "#24"
45 "#37"
53 "#4"
42 "#40"
17 "#11"
39 "#14"
30 "#25"
25 "#19"
23 "#34"
35 "#28"
49 "#58"
1 "#47"
10 "#51"
24 "#32"
*Edges
23 27
16 23
51 39
51 20
23 39
27 53
44 28
31 54
38 53
25 60
6 30
46 27
54 33
51 57
44 32
22 60
38 44
19 25
23 42
42 39
25 46
7 6
1 9
7 41
36 3
20 56
13 8
15 39
50 40
35 6
18 50
22 56
8 54
50 29
34 22
38 41
13 6
9 46
21 23
24 51
29 39
35 14
37 41
47 19
48 30
38 14
34 54
43 52
1 50
13 56
55 56
8 55
44 55
25 4
35 15
34 60
37 60
33 22
32 18
25 10
8 34
11 47
33 24
1 22
46 2
18 20
54 3
52 57
8 53
34 28
30 40
1 8
22 20
38 29
15 40
16 32
33 38
54 60
61 21
30 3
24 16
3 59
27 9
10 1
14 52
1 41
26 9
50 10
41 24
23 24
10 7
5 60
20 31
31 58
1 5
37 14
7 33
43 10
25 17
5 4
16 11
49 11
18 9
52 10
7 34
55 21
29 60
26 28
57 46
33 4
3 61
59 55
18 35
42 45
9 8
31 29
32 17
32 36
24 14
2 9
6 59
32 51
23 4
11 12
7 57
53 7
42 28
28 61
52 20
9 16
36 55
5 7
37 9
55 28
57 53
19 35
37 23
1 33
35 59
37 32
34 59
18 2
29 5
4 7
53 55
1 31
50 17
61 10
60 61
42 16
31 34
31 7
51 5
16 19
32 14
17 20
33 25
21 51
22 44
8 44
27 19
17 21
60 17
16 54
3 50
43 59
53 2
52 45
15 25
18 1
54 25
5 19
16 47
55 54
52 60
5 32
29 15
2 8
34 55
41 33
42 29
35 52
7 24
41 14
19 33
22 8
55 51
46 61
41 46
9 43
46 6
1 21
26 45
54 5
52 29
40 17
44 6
50 45
25 37
31 3
18 30
43 51
61 52
61 31
50 56
51 2
3 23
33 39
53 17
56 61
7 52
56 39
39 50
22 25
46 22
54 17
57 15
16 57
56 23
9 19
3 6
21 54
37 30
14 19
31 23
11 19
56 45
1 27
39 27
39 18
52 40
54 37
46 14
58 2
9 25
53 39
39 4
42 27
42 4
39 28
31 53
6 41
16 14
22 3
13 30
41 61
6 2
6 45
31 55
29 44
35 24
61 30
26 27
61 59
57 10
41 35
46 15
12 49
37 36
9 56
16 12
48 36
54 42
19 61
19 21
17 44
43 7
39 37
56 52
7 38
41 19
38 42
44 59
47 12
17 23
38 16
46 44
49 47
48 34
1 4
31 19
36 52
19 49
40 59
43 57
9 24
20 45
38 55
4 45
49 16
23 10
50 34
30 27
13 9
3 52
56 2
19 12
34 15
34 20
51 16
15 6
55 48
34 18
23 55
31 13
8 21
45 15
