*Vertices 55
46 "#38"
50 "#33"
24 "#30"
16 "#3"
19 "#25"
11 "#27"
9 "#53"
15 "#18"
49 "#2"
18 "#29"
48 "#50"
45 "#8"
32 "#37"
13 "#40"
31 "#21"
21 "#46"
20 "#28"
36 "#6"
44 "#4"
38 "#9"
43 "#1"
41 "#17"
28 "#5"
40 "#13"
47 "#47"
5 "#23"
3 "#22"
1 "#36"
4 "#34"
55 "#15"
7 "#19"
30 "#52"
10 "#51"
29 "#31"
37 "#20"
6 "#14"
17 "#7"
39 "#49"
42 "#12"
8 "#24"
35 "#48"
52 "#10"
33 "#44"
14 "#0"
27 "#26"
25 "#39"
54 "#43"
26 "#42"
51 "#32"
53 "#35"
2 "#54"
22 "#16"
12 "#11"
23 "#45"
34 "#41"
*Edges
43 8
42 24
15 22
6 13
30 2
41 50
47 46
7 12
30 23
38 45
40 15
8 55
13 32
45 8
12 53
17 32
6 15
53 39
17 25
43 30
5 4
48 2
12 54
40 21
32 9
23 44
49 32
11 46
11 50
41 23
4 22
55 51
5 19
18 22
46 8
22 21
42 7
12 50
28 3
37 39
27 5
20 45
45 30
31 51
11 14
7 46
41 17
5 54
52 20
30 49
6 29
45 40
41 15
6 52
12 33
29 16
45 36
12 40
42 8
23 37
52 41
27 18
2 9
50 23
7 8
9 26
40 14
29 23
25 12
29 36
4 13
31 16
41 46
30 10
50 16
41 36
39 9
43 37
22 39
9 55
42 47
44 22
14 37
44 30
51 4
16 30
24 22
24 40
47 1
2 10
53 32
22 23
27 9
43 21
24 33
54 31
42 52
21 29
33 47
38 42
54 40
1 43
5 43
26 7
36 20
1 7
29 17
45 19
53 52
46 1
30 48
13 35
43 20
1 51
13 15
48 10
11 27
49 13
21 13
51 42
7 36
29 26
36 25
9 30
35 8
54 27
46 40
32 34
49 1
37 8
11 4
30 1
12 26
54 52
30 21
53 46
29 9
43 47
24 44
6 49
44 6
4 35
44 21
4 33
52 19
55 54
9 48
10 9
53 9
41 14
7 49
18 19
8 28
50 26
6 17
38 39
19 38
47 16
16 26
13 29
35 47
17 47
22 31
6 36
6 4
