"","temp","degree_centralization","betweenness_centralization","closeness_centralization","eigenvector_centralization","global_clustcoeff","assortativity","diameter","avg_degree","modularity","density","avg_path_length","vertices","edges"
"1","Graph00",0.111111111111111,0.0772315854734566,0.133655179073111,0.552022159442981,0.143451143451143,-0.0789407252383946,6,6,0.305325987144169,0.111111111111111,2.45723905723906,55,165
"2","Graph01",0.0989071038251366,0.0689207450376168,0.145934618059463,0.353990423311597,0.199675324675325,-0.049035397133756,4,10.0655737704918,0.192537851860497,0.16775956284153,2.03934426229508,61,307
"3","Graph02",0.112818261633011,0.0560737116116406,0.146113607386062,0.398166207489551,0.24448381381865,0.111920521145879,4,13.4411764705882,0.153414668013732,0.200614574187884,1.93415276558385,68,457
"4","Graph03",0.12,0.033105302924276,0.115709615502564,0.388673649698267,0.286179864353034,0.208433065706077,3,17.12,0.104348026513718,0.231351351351351,1.86810810810811,75,642
"5","Graph04",0.169850132236262,0.035532984887171,0.123120934779216,0.438504876724316,0.308459422283356,0.233009689027548,3,20.0722891566265,0.116179244807166,0.244784014105201,1.8454305024978,83,833
"6","Graph05",0.163401815575729,0.0398787882255046,0.124716597367613,0.430920028265891,0.336666410276133,0.277008476399837,3,23.1304347826087,0.089310888829216,0.254180602006689,1.83755375059723,92,1064
"7","Graph06",0.146961754999029,0.0266294057128652,0.138908194959018,0.404453074221842,0.348923774073475,0.338829508182504,3,26.156862745098,0.110518578791564,0.258978839060377,1.81751116288099,102,1334
"8","Graph07",0.160477243994943,0.0329725200763811,0.142611599383466,0.415719585727608,0.356002898153406,0.333479147929274,3,29.0265486725664,0.104160655859607,0.259165613147914,1.81652970922882,113,1640
"9","Graph08",0.169354838709677,0.0365442564097785,0.163841834806195,0.439341732254195,0.359640446823365,0.361478972054814,3,32,0.123471625,0.258064516129032,1.81754838709677,125,2000
"10","Graph09",0.151697873690892,0.0237585819558023,0.127866679939379,0.430326992484184,0.36010427415413,0.372064536124872,3,35.2173913043478,0.117933326559298,0.257061250396699,1.81117105680736,138,2430
"11","Graph10",0.143604043220634,0.0252481053566967,0.139977327819128,0.393017481081647,0.352546180939751,0.398362751242629,4,38.3157894736842,0.147454451455138,0.253746950156849,1.82694318577902,152,2912
"12","Graph11",0.149415454804676,0.0184294539487021,0.136745107382831,0.422427846141995,0.354150255191543,0.341583046030668,3,41.0476190476191,0.216284844840951,0.245794126033647,1.83875106928999,168,3448
"13","Graph12",0.152820211515864,0.0243556442897609,0.152756242081836,0.432447953006396,0.359079484762802,0.291663288049769,3,43.8810810810811,0.231095923694125,0.238484136310223,1.84753231492362,185,4059
"14","Graph13",0.154447986090988,0.0185951551886687,0.14985039368376,0.442554316275622,0.362271515970424,0.286307348166835,3,46.6470588235294,0.273523201383268,0.229788467110982,1.85849512218681,204,4758
"15","Graph14",0.185257936507937,0.0198745386982524,0.184030190014236,0.504938300342844,0.369812361297524,0.310455829711225,4,49.5022222222222,0.267055259760337,0.220992063492063,1.88234126984127,225,5569
"16","Graph15",0.164000261198903,0.0159497042022429,0.162077300542322,0.492973992779969,0.371707395112586,0.348074834434846,4,52.491935483871,0.293453589592354,0.212517957424579,1.90067911714771,248,6509
"17","Graph16",0.158303706097824,0.0165678167359223,0.162263856955947,0.502471855473168,0.372008896044999,0.391203213836423,4,55.9413919413919,0.288588175898071,0.20566688213747,1.92278065072183,273,7636
"18","Graph17",0.149302325581395,0.0130507601199765,0.177635695669163,0.516842782736208,0.370526330227726,0.433089098692109,4,59.2093023255814,0.306426116510883,0.197364341085271,1.95782945736434,301,8911
"19","Graph18",0.151439595238962,0.0121308943976331,0.180003441380858,0.529695459352583,0.367628732707598,0.451199473547094,4,62.8734939759036,0.308740588730097,0.189950132857715,1.9904815637171,332,10437
"20","Graph19",0.148798562766674,0.0131785316809253,0.187966314557898,0.547885649989466,0.365035966002975,0.473338367149633,4,66.6885245901639,0.299401133156314,0.182708286548394,2.01618384609626,366,12204
"21","Graph20",0.146599508660173,0.01219316088535,0.195353008401644,0.556464094644285,0.361180745734148,0.500830816514305,4,71.0669975186104,0.291383593481789,0.176783575916941,2.03512215596953,403,14320
"22","Graph21",0.143645903239583,0.0112284228940803,0.190492805151583,0.549101485921219,0.354443460393685,0.523957193196005,4,75.3648648648649,0.289545488715155,0.17012384845342,2.05558944949464,444,16731
"23","Graph22",0.133607395487613,0.00954277682430098,0.184848290237254,0.549903128846044,0.347489143925908,0.544729699321419,4,79.799591002045,0.293588737429075,0.163523752053371,2.07496898990915,489,19511
"24","Graph23",0.129315417471427,0.00698355511617357,0.178665845043698,0.551865850681711,0.34082748916484,0.552935051502998,4,84.5576208178439,0.290373938240844,0.157462981038815,2.09052079223,538,22746
"25","Graph24",0.127406594411671,0.00852321766265031,0.185441085236323,0.545402507188206,0.333204514523857,0.558817558985546,5,89.7027027027027,0.325943893594823,0.151781222847213,2.10555288791329,592,26552
"26","Graph25",0.122991527899503,0.0086148248601852,0.157076832754591,0.55166579377576,0.325402239293519,0.571200048071447,5,94.9325153374233,0.327878927761167,0.145825676401572,2.12624277892435,652,30948
"27","Graph26",0.116121412726347,0.00835119626706233,0.162170674401694,0.557484471418788,0.317602536585224,0.578299500286638,5,100.740947075209,0.332476610590082,0.140503412936135,2.14884830402132,718,36166
"28","Graph27",0.108004042932088,0.00678953913675883,0.149366704045874,0.553585671360828,0.310122990260187,0.586707254380373,5,106.784810126582,0.316162414473319,0.135341964672474,2.16778168166723,790,42180
"29","Graph28",0.10931310420898,0.00530773678736104,0.148011991012796,0.5643938306022,0.301818372124003,0.592475867104206,5,113.116225546605,0.332078992944317,0.13031823219655,2.18733593886718,869,49149
"30","Graph29",0.0976604087712765,0.00520833182054488,0.146481714252421,0.551186341770286,0.293770227099238,0.598449445364509,5,119.734309623431,0.310698075326368,0.125376240443383,2.2015641087428,956,57233
"31","Graph30",0.103007094456484,0.00544439228920076,0.155370160876254,0.566177324199305,0.284981594478031,0.6011473436401,5,126.739543726236,0.316859500426984,0.120589480234287,2.21452319536346,1052,66665
"32","Graph31",0.0907146258488169,0.00425001576259831,0.148232901699366,0.55276448251223,0.276824352615755,0.607209991344314,5,134.043177892919,0.330935980768144,0.115854086337873,2.22532814452242,1158,77611
"33","Graph32",0.0992463938261267,0.00401312463920461,0.15084901873751,0.577560747311719,0.268884711042008,0.611845281103844,5,141.659340659341,0.3207031765938,0.111279921963347,2.23555279867703,1274,90237
"34","Graph33",0.087327067175372,0.00388140581341941,0.140946820403767,0.566316010076982,0.260625592797232,0.613310435444988,6,149.654778887304,0.337680319650742,0.106819970654749,2.24665080271785,1402,104908
"35","Graph34",0.090071222448899,0.00392334174639199,0.145136253383871,0.581011094022398,0.252443362807041,0.617341531552706,6,158.110174983798,0.308258246159733,0.102535781442152,2.25759780372932,1543,121982
"36","Graph35",0.0866151241746503,0.00358786739855001,0.141409679544159,0.582194663299347,0.244176942079706,0.617336569956424,6,167.014134275618,0.319630862742604,0.0984172859608829,2.27013929521577,1698,141795
"37","Graph36",0.0806444398312171,0.00375864236344703,0.139020020991268,0.576376137075004,0.236179654222522,0.616076396151355,6,176.436830835118,0.321509409553302,0.0945028552946533,2.28192923640509,1868,164792
"38","Graph37",0.0777053615638112,0.00277072458198237,0.127397792628202,0.575106346904983,0.22867303742557,0.618589024776419,6,186.393187347932,0.345792387649082,0.0907464397993826,2.29160121962487,2055,191519
"39","Graph38",0.0700248147698763,0.00277056864006979,0.1321003016098,0.56444134970585,0.220991785761779,0.621060267272559,6,196.74391862008,0.358826377811455,0.0870548312478228,2.29986731534719,2261,222419
"40","Graph39",0.0705511101457482,0.00238128277546506,0.131032586746674,0.575029698756057,0.213321129196272,0.622906621465378,6,207.539389067524,0.335768574020016,0.0834496940359968,2.30749091416847,2488,258179
