Vertices 127
123 "#33"
57 "#51"
25 "#12"
8 "#117"
33 "#104"
24 "#65"
96 "#55"
23 "#92"
74 "#31"
112 "#106"
72 "#3"
22 "#50"
110 "#94"
120 "#18"
78 "#118"
29 "#80"
41 "#82"
21 "#100"
42 "#48"
27 "#61"
69 "#108"
108 "#103"
83 "#34"
2 "#4"
119 "#101"
104 "#32"
75 "#1"
70 "#20"
114 "#93"
60 "#99"
95 "#22"
122 "#29"
47 "#60"
56 "#87"
6 "#72"
124 "#90"
46 "#28"
77 "#120"
39 "#6"
14 "#85"
121 "#64"
101 "#113"
66 "#17"
16 "#59"
100 "#126"
50 "#7"
28 "#54"
106 "#78"
20 "#77"
19 "#21"
105 "#39"
1 "#45"
111 "#96"
82 "#109"
65 "#102"
62 "#36"
5 "#95"
115 "#107"
68 "#10"
88 "#14"
71 "#66"
67 "#88"
85 "#63"
35 "#123"
26 "#42"
84 "#35"
55 "#43"
7 "#13"
12 "#46"
73 "#111"
37 "#56"
97 "#62"
18 "#91"
116 "#97"
36 "#119"
3 "#83"
58 "#105"
94 "#37"
9 "#58"
98 "#15"
90 "#81"
11 "#112"
125 "#16"
79 "#70"
64 "#84"
4 "#52"
89 "#57"
17 "#73"
91 "#67"
34 "#75"
10 "#40"
127 "#24"
51 "#19"
53 "#74"
63 "#25"
86 "#122"
32 "#121"
92 "#11"
99 "#76"
48 "#38"
87 "#9"
102 "#69"
126 "#5"
93 "#47"
13 "#0"
30 "#116"
107 "#23"
59 "#79"
38 "#30"
45 "#114"
43 "#98"
81 "#44"
80 "#71"
49 "#27"
109 "#115"
117 "#53"
54 "#89"
52 "#2"
61 "#125"
118 "#26"
44 "#110"
103 "#86"
76 "#49"
40 "#8"
15 "#124"
31 "#41"
113 "#68"
Edges
42 125
117 81
27 97
26 107
64 46
90 29
42 91
2 127
127 72
125 74
111 125
74 70
48 28
125 46
127 7
95 59
50 85
98 42
37 80
31 91
90 80
124 18
92 31
35 77
55 4
99 18
92 96
76 62
81 106
88 87
126 31
124 54
125 57
11 109
56 67
106 43
126 105
112 11
4 89
119 67
81 101
50 26
70 55
29 59
52 51
40 48
96 123
86 8
25 12
109 8
25 46
10 65
121 43
6 52
120 42
40 107
4 1
6 107
33 82
127 27
19 84
42 84
48 105
97 25
83 63
91 93
38 98
100 35
74 120
98 126
16 2
24 100
64 80
80 87
37 24
84 105
56 18
113 37
127 64
87 51
95 46
2 98
94 76
64 59
26 91
120 127
115 112
22 37
59 105
96 37
110 5
123 19
13 92
126 88
94 41
64 29
9 52
34 53
6 34
108 110
84 27
64 103
27 116
50 79
6 66
84 125
98 93
120 57
26 52
113 92
10 97
25 38
62 31
39 92
24 12
66 126
83 96
107 37
70 120
122 125
64 3
81 50
34 12
73 33
123 7
108 60
46 73
42 49
98 94
36 32
87 66
37 31
95 126
1 126
16 120
87 117
15 33
66 48
42 89
105 19
61 24
37 53
83 39
83 102
81 96
25 24
5 111
51 66
92 89
79 99
98 73
48 70
73 11
81 118
74 75
66 102
68 42
92 74
73 93
102 24
38 84
36 77
74 16
83 123
17 53
13 98
79 119
106 90
71 5
50 99
1 8
67 18
93 66
105 102
123 14
125 25
10 29
121 74
28 107
71 31
69 82
44 11
57 113
16 76
11 82
89 87
126 51
2 118
77 15
65 43
98 1
23 14
2 50
46 51
92 87
45 33
41 47
10 71
41 89
48 57
126 39
51 122
33 112
89 46
46 31
27 125
94 72
29 113
112 44
52 107
46 42
23 103
22 97
104 98
70 21
72 117
59 106
85 7
105 95
26 38
54 56
4 98
60 111
38 2
10 22
18 50
87 9
98 41
102 95
100 77
106 3
71 46
37 126
18 13
12 51
39 5
28 47
105 28
85 81
22 93
24 66
83 55
122 113
104 81
21 97
87 126
122 62
85 27
110 21
29 70
90 64
117 74
104 74
23 114
63 127
1 12
1 37
28 117
113 53
93 6
38 83
89 9
21 25
30 100
41 92
9 101
74 76
2 37
30 15
92 126
55 47
103 25
23 18
6 53
50 72
89 91
77 32
40 26
94 87
25 10
75 95
17 80
97 121
80 42
90 87
95 117
91 4
124 56
54 46
51 114
94 107
71 101
59 40
108 5
65 119
40 104
54 18
16 121
20 89
46 2
109 15
55 12
113 74
125 98
99 41
16 117
104 26
104 43
67 103
39 102
60 46
29 3
93 125
30 32
43 110
60 69
68 38
23 67
13 93
11 70
6 87
27 6
41 87
80 79
122 64
1 55
40 47
62 66
44 115
113 70
93 111
63 72
43 10
69 33
71 43
120 123
66 127
110 111
59 41
120 25
6 99
107 51
72 118
104 55
123 52
107 10
23 72
57 104
55 107
93 48
42 18
46 121
52 120
64 53
118 113
16 49
33 58
27 49
122 57
92 81
92 16
58 112
9 46
107 22
40 64
6 113
79 87
117 46
42 63
57 61
31 76
50 90
37 6
55 38
29 74
101 98
122 1
39 118
117 2
64 125
87 57
53 80
27 21
13 127
46 83
73 115
96 102
124 114
71 73
127 39
25 71
9 42
6 81
127 40
6 16
27 37
29 55
117 98
118 46
98 123
15 100
91 118
39 81
41 118
99 10
23 99
24 96
71 125
11 33
93 115
89 59
127 74
29 106
56 46
125 66
68 105
84 85
6 80
10 39
99 80
46 92
50 57
118 89
12 72
73 60
127 81
24 94
26 122
89 37
40 25
70 71
63 2
19 76
84 97
31 52
42 37
114 67
105 39
8 77
48 19
124 67
123 84
103 124
28 16
109 32
86 32
66 89
86 100
106 38
69 73
25 51
90 59
27 113
28 41
68 49
37 20
37 66
68 46
115 11
76 85
120 7
72 47
79 17
74 7
24 10
25 64
106 41
97 43
99 17
101 115
12 38
5 60
102 37
27 19
26 19
39 79
54 26
31 87
100 57
98 92
3 90
43 81
84 7
37 50
87 96
109 36
95 127
87 95
38 4
46 101
21 108
1 38
64 95
76 2
8 39
71 89
47 106
125 72
71 21
93 127
94 12
4 117
101 117
55 120
82 115
115 33
6 90
23 63
37 92
105 123
80 113
76 125
24 26
91 13
81 94
98 71
64 24
2 92
37 55
106 97
43 5
23 124
40 19
56 114
58 101
105 14
104 75
64 106
93 9
125 104
15 11
102 123
72 98
76 71
92 6
119 43
39 1
63 4
80 34
112 53
91 94
9 97
66 1
58 73
68 57
74 57
83 94
79 37
26 120
71 9
103 56
94 47
125 63
68 122
102 1
12 2
57 105
72 66
91 92
53 27
37 63
90 94
62 4
40 4
104 122
72 99
63 38
98 120
94 92
55 74
4 81
121 19
24 2
9 25
35 36
16 89
84 80
93 101
32 8
12 62
83 91
102 68
95 66
18 120
29 41
54 67
20 92
57 28
7 52
59 87
120 27
64 75
127 125
69 109
15 32
126 123
31 66
113 62
86 77
10 9
24 76
25 122
83 92
92 117
117 63
113 31
113 46
16 96
54 68
71 74
107 99
19 24
112 45
61 35
31 51
7 27
122 2
47 25
92 62
75 127
110 119
100 36
4 12
4 101
44 33
98 17
20 41
84 104
55 26
9 22
18 14
9 73
2 125
73 101
71 62
27 121
58 44
127 103
24 47
12 66
120 49
4 9
55 40
78 36
2 95
85 122
76 26
102 126
9 81
41 74
92 18
125 85
52 87
59 3
2 4
1 96
70 109
50 14
82 112
50 63
123 57
86 109
84 81
87 123
87 54
24 57
64 100
12 47
71 93
112 64
121 84
98 28
60 101
92 42
61 100
98 55
125 37
121 106
46 84
27 76
22 25
1 48
92 118
19 122
31 118
9 122
98 48
91 111
42 64
19 2
46 63
62 104
84 64
50 23
120 51
91 38
99 47
65 71
11 69
87 39
34 99
28 106
120 38
27 16
5 10
70 25
87 48
40 34
97 85
122 50
40 66
99 28
10 93
63 18
35 30
98 75
39 71
50 104
119 21
43 21
106 117
13 42
115 58
57 93
