Vertices 596
190 "#588"
301 "#559"
584 "#336"
291 "#70"
44 "#426"
275 "#161"
578 "#227"
160 "#75"
207 "#483"
433 "#372"
330 "#566"
321 "#301"
525 "#180"
132 "#242"
571 "#22"
136 "#59"
528 "#61"
6 "#385"
194 "#340"
73 "#25"
120 "#194"
216 "#369"
585 "#17"
158 "#344"
280 "#430"
392 "#201"
289 "#5"
564 "#42"
372 "#540"
137 "#292"
209 "#326"
422 "#193"
491 "#431"
477 "#504"
419 "#406"
225 "#394"
19 "#235"
186 "#546"
462 "#100"
114 "#492"
511 "#55"
210 "#58"
227 "#107"
187 "#0"
389 "#102"
534 "#282"
517 "#127"
208 "#26"
113 "#543"
548 "#51"
460 "#63"
386 "#27"
91 "#109"
382 "#544"
173 "#590"
143 "#485"
253 "#532"
432 "#49"
303 "#175"
177 "#65"
400 "#19"
387 "#539"
332 "#477"
2 "#215"
428 "#403"
276 "#374"
587 "#378"
381 "#595"
74 "#10"
287 "#85"
333 "#86"
3 "#295"
239 "#37"
384 "#320"
277 "#105"
195 "#199"
92 "#493"
554 "#82"
527 "#40"
343 "#496"
340 "#583"
157 "#452"
406 "#92"
247 "#481"
117 "#255"
383 "#150"
508 "#47"
79 "#535"
304 "#304"
478 "#290"
130 "#350"
315 "#297"
461 "#176"
126 "#488"
573 "#136"
156 "#157"
431 "#338"
150 "#237"
222 "#548"
80 "#525"
278 "#293"
112 "#441"
429 "#236"
25 "#569"
148 "#270"
396 "#287"
362 "#128"
66 "#456"
574 "#410"
55 "#528"
589 "#298"
326 "#464"
286 "#228"
165 "#521"
313 "#284"
223 "#480"
342 "#182"
125 "#418"
349 "#328"
32 "#345"
62 "#41"
226 "#77"
596 "#352"
175 "#64"
228 "#269"
15 "#415"
401 "#349"
142 "#148"
151 "#571"
348 "#515"
14 "#108"
248 "#159"
81 "#38"
273 "#460"
329 "#375"
174 "#509"
83 "#135"
67 "#132"
232 "#491"
102 "#139"
308 "#402"
155 "#260"
9 "#368"
553 "#417"
538 "#511"
23 "#591"
95 "#3"
440 "#565"
11 "#95"
560 "#13"
356 "#317"
482 "#467"
218 "#396"
65 "#241"
290 "#342"
196 "#278"
484 "#395"
48 "#103"
471 "#230"
147 "#461"
188 "#423"
398 "#195"
293 "#446"
162 "#519"
50 "#474"
438 "#83"
185 "#259"
138 "#229"
265 "#581"
212 "#125"
501 "#170"
541 "#152"
360 "#8"
365 "#12"
146 "#331"
28 "#249"
68 "#133"
214 "#275"
314 "#377"
475 "#321"
556 "#503"
219 "#530"
200 "#367"
323 "#524"
159 "#74"
58 "#563"
465 "#408"
545 "#165"
480 "#305"
486 "#45"
459 "#144"
69 "#62"
262 "#129"
270 "#324"
127 "#533"
26 "#366"
141 "#9"
152 "#578"
359 "#253"
49 "#113"
250 "#78"
215 "#166"
567 "#388"
180 "#178"
390 "#279"
242 "#203"
236 "#126"
116 "#211"
593 "#20"
444 "#214"
413 "#553"
364 "#299"
463 "#90"
267 "#294"
21 "#167"
378 "#343"
107 "#54"
503 "#459"
317 "#267"
561 "#296"
375 "#262"
297 "#183"
124 "#57"
230 "#451"
516 "#465"
402 "#156"
583 "#361"
591 "#381"
552 "#541"
521 "#271"
30 "#387"
104 "#23"
415 "#50"
260 "#52"
328 "#239"
547 "#518"
233 "#84"
35 "#557"
306 "#556"
166 "#151"
282 "#463"
354 "#142"
397 "#462"
581 "#18"
586 "#184"
99 "#412"
464 "#584"
443 "#186"
279 "#386"
450 "#327"
56 "#273"
85 "#81"
288 "#143"
448 "#121"
533 "#222"
153 "#438"
261 "#495"
502 "#404"
12 "#145"
496 "#213"
505 "#391"
189 "#147"
203 "#409"
399 "#91"
423 "#286"
170 "#442"
531 "#224"
334 "#251"
403 "#316"
351 "#168"
145 "#217"
312 "#567"
446 "#307"
416 "#36"
192 "#312"
414 "#552"
4 "#586"
473 "#478"
526 "#187"
441 "#89"
285 "#362"
84 "#118"
425 "#468"
256 "#470"
252 "#289"
246 "#247"
506 "#447"
118 "#238"
133 "#506"
318 "#188"
540 "#476"
131 "#400"
355 "#313"
90 "#208"
41 "#209"
178 "#376"
327 "#169"
254 "#359"
435 "#545"
229 "#577"
310 "#454"
357 "#124"
337 "#354"
550 "#389"
110 "#335"
409 "#104"
442 "#332"
204 "#256"
592 "#231"
205 "#308"
109 "#46"
379 "#119"
257 "#516"
213 "#471"
163 "#333"
202 "#198"
272 "#205"
292 "#507"
18 "#499"
245 "#190"
57 "#356"
495 "#318"
434 "#393"
346 "#334"
421 "#257"
211 "#48"
524 "#244"
24 "#551"
467 "#76"
468 "#323"
274 "#34"
418 "#380"
268 "#53"
411 "#73"
135 "#43"
182 "#437"
590 "#445"
53 "#196"
535 "#444"
544 "#414"
89 "#416"
569 "#311"
481 "#531"
344 "#234"
22 "#265"
51 "#97"
466 "#407"
40 "#99"
144 "#517"
42 "#472"
197 "#419"
453 "#455"
394 "#547"
231 "#576"
307 "#149"
358 "#570"
490 "#382"
515 "#137"
105 "#120"
376 "#490"
115 "#513"
499 "#141"
258 "#555"
451 "#365"
514 "#261"
129 "#508"
284 "#106"
476 "#96"
75 "#348"
37 "#101"
483 "#346"
562 "#56"
86 "#353"
1 "#399"
59 "#383"
206 "#87"
336 "#285"
492 "#526"
111 "#24"
266 "#219"
108 "#505"
536 "#355"
457 "#246"
377 "#291"
512 "#453"
426 "#580"
269 "#502"
193 "#263"
417 "#473"
168 "#360"
472 "#283"
469 "#549"
510 "#233"
437 "#587"
244 "#325"
420 "#529"
17 "#11"
374 "#514"
341 "#484"
558 "#206"
436 "#32"
94 "#173"
523 "#371"
522 "#220"
404 "#500"
339 "#240"
518 "#2"
38 "#497"
281 "#420"
470 "#405"
380 "#254"
458 "#15"
580 "#573"
259 "#174"
60 "#272"
352 "#277"
363 "#6"
369 "#146"
43 "#487"
388 "#79"
588 "#330"
295 "#425"
191 "#123"
88 "#200"
454 "#339"
249 "#80"
87 "#140"
479 "#422"
263 "#302"
331 "#538"
391 "#138"
449 "#593"
582 "#310"
311 "#364"
579 "#390"
96 "#162"
47 "#370"
576 "#68"
294 "#281"
410 "#594"
530 "#520"
456 "#155"
320 "#510"
271 "#564"
45 "#177"
338 "#14"
181 "#448"
316 "#245"
128 "#179"
497 "#435"
172 "#158"
546 "#29"
97 "#475"
350 "#111"
70 "#225"
179 "#232"
243 "#35"
474 "#357"
241 "#130"
54 "#427"
154 "#274"
171 "#363"
20 "#276"
412 "#185"
568 "#347"
63 "#469"
563 "#582"
82 "#66"
139 "#424"
238 "#164"
507 "#264"
373 "#379"
488 "#94"
322 "#398"
299 "#39"
121 "#562"
161 "#288"
513 "#337"
46 "#436"
353 "#512"
283 "#479"
300 "#191"
167 "#4"
335 "#44"
395 "#250"
385 "#300"
489 "#498"
106 "#115"
570 "#280"
445 "#88"
529 "#592"
8 "#489"
52 "#30"
565 "#226"
93 "#153"
27 "#428"
542 "#197"
237 "#218"
221 "#258"
366 "#204"
557 "#28"
34 "#207"
251 "#192"
559 "#527"
487 "#21"
393 "#329"
10 "#411"
447 "#432"
33 "#401"
149 "#221"
405 "#33"
493 "#429"
543 "#358"
539 "#60"
509 "#561"
407 "#558"
555 "#163"
424 "#554"
98 "#322"
551 "#154"
494 "#397"
183 "#434"
123 "#303"
122 "#216"
370 "#181"
119 "#212"
255 "#449"
347 "#440"
77 "#114"
537 "#542"
575 "#550"
309 "#522"
504 "#458"
16 "#71"
100 "#171"
519 "#116"
439 "#373"
455 "#351"
485 "#93"
325 "#392"
500 "#98"
134 "#457"
201 "#122"
36 "#189"
29 "#433"
64 "#421"
572 "#482"
169 "#384"
184 "#575"
220 "#223"
240 "#589"
594 "#248"
101 "#202"
224 "#306"
78 "#486"
319 "#523"
452 "#266"
361 "#413"
296 "#560"
302 "#494"
5 "#534"
368 "#117"
549 "#72"
61 "#210"
577 "#319"
71 "#1"
72 "#67"
305 "#568"
430 "#172"
566 "#466"
264 "#134"
31 "#131"
427 "#252"
595 "#268"
103 "#450"
164 "#443"
76 "#110"
408 "#501"
7 "#585"
324 "#314"
367 "#439"
371 "#16"
217 "#315"
298 "#160"
176 "#537"
235 "#309"
234 "#69"
198 "#572"
345 "#579"
39 "#243"
199 "#574"
532 "#112"
520 "#536"
498 "#31"
140 "#7"
13 "#341"
Edges
594 344
344 221
578 267
434 251
517 124
192 304
54 197
320 319
439 550
486 135
377 587
317 70
485 136
116 465
456 238
170 237
48 488
157 238
383 459
402 243
296 464
108 351
209 192
22 452
191 236
206 333
41 264
525 443
554 498
197 438
386 365
239 539
142 221
11 82
248 546
132 39
450 454
150 504
445 527
179 578
457 20
274 548
495 242
20 244
526 146
280 546
28 594
501 278
370 275
521 426
457 383
238 593
298 432
543 44
470 183
456 519
298 533
14 585
421 327
319 253
150 586
208 351
112 128
542 161
233 145
285 107
245 75
262 448
84 189
400 62
316 65
108 342
452 567
381 90
223 507
16 594
49 415
31 12
137 21
560 128
90 190
249 85
415 210
82 462
285 226
111 333
595 20
238 573
266 390
530 219
90 135
134 236
7 537
389 37
225 505
299 560
414 24
273 236
215 88
369 541
391 573
532 525
40 388
72 246
125 123
369 390
145 585
113 35
569 480
328 12
305 580
139 447
315 83
466 479
369 73
534 337
346 434
100 259
144 317
178 252
65 434
335 511
160 549
552 152
508 415
289 119
3 272
363 185
387 372
567 329
449 419
420 323
445 463
551 156
101 325
255 425
351 291
208 149
266 223
339 363
215 555
325 16
433 383
436 271
10 307
445 581
321 489
587 502
72 17
590 349
131 314
167 576
438 189
195 245
425 78
90 581
20 390
234 351
378 125
144 278
25 184
527 365
177 365
368 249
434 106
181 218
283 515
374 497
87 450
302 162
153 75
235 209
519 143
272 573
312 469
110 579
515 76
97 425
357 451
496 376
233 300
409 9
554 365
565 188
111 517
336 472
418 71
528 313
334 298
427 275
3 351
236 399
267 594
243 436
573 291
458 32
578 525
100 270
365 586
369 68
450 429
83 328
501 187
321 3
148 447
412 557
442 192
546 548
93 526
266 522
106 226
458 483
109 107
286 119
532 441
49 531
371 461
522 568
70 178
214 551
103 547
455 583
61 528
270 448
415 515
454 55
480 123
245 242
167 52
428 433
17 498
194 13
376 9
504 147
122 565
238 371
430 594
84 123
389 328
366 595
308 194
62 562
456 61
217 436
495 192
1 470
117 471
15 116
307 262
124 227
234 562
445 272
125 480
254 351
135 249
304 294
382 93
112 27
436 33
340 190
499 267
328 294
152 142
569 495
251 215
521 459
104 93
277 234
266 313
531 54
2 37
336 360
587 505
42 138
28 532
61 93
535 367
400 359
488 14
108 343
107 510
107 573
467 249
90 393
589 245
73 16
26 158
582 224
87 396
24 152
581 297
435 370
504 566
90 142
344 455
174 176
491 212
136 124
133 500
319 174
223 10
57 559
577 7
281 29
302 559
91 136
111 581
441 495
274 118
464 151
547 454
25 271
519 227
242 448
135 454
339 522
480 67
88 61
241 102
94 208
358 312
547 162
31 3
188 29
514 507
500 335
308 217
282 247
247 150
439 490
360 111
167 571
524 444
387 5
84 462
260 93
225 178
508 227
451 134
27 64
176 420
137 362
277 49
460 432
177 542
27 419
388 585
181 213
554 467
464 306
254 234
134 78
430 519
357 532
519 557
593 532
264 362
456 488
577 480
125 367
429 384
209 363
445 249
112 526
264 241
136 227
522 542
11 52
469 382
208 300
214 323
462 430
127 223
203 279
483 365
396 336
142 12
411 159
280 44
178 123
519 399
112 107
565 585
221 293
40 371
365 528
376 491
523 591
447 465
450 366
114 115
267 342
357 299
249 438
47 322
206 386
167 487
248 555
449 164
490 178
93 268
70 528
555 347
387 14
357 570
175 83
84 249
43 397
78 519
319 144
60 375
132 30
77 436
59 89
528 56
26 473
588 425
163 209
520 477
395 217
422 406
124 208
270 235
443 3
393 37
516 63
250 233
79 353
280 466
233 206
20 416
548 13
108 116
149 558
501 122
362 95
234 534
17 16
371 275
225 409
172 175
463 250
327 272
364 396
61 480
131 33
70 307
124 17
76 171
77 118
497 206
561 472
284 570
19 196
285 75
498 370
360 206
246 485
438 132
20 252
248 215
581 69
458 107
225 545
308 329
416 507
439 90
564 432
350 206
129 309
430 266
542 501
460 49
182 534
576 249
318 519
342 442
12 220
241 191
251 422
328 316
403 270
568 83
187 72
170 382
138 555
484 329
585 62
291 234
84 328
351 75
437 580
163 454
453 106
243 93
475 183
438 68
512 78
501 286
295 201
210 581
557 571
133 185
446 539
377 340
363 208
416 62
154 22
223 360
76 266
23 440
392 430
342 419
86 290
90 282
60 502
487 581
452 222
95 145
78 341
405 385
74 234
465 89
268 458
324 264
226 562
491 201
430 475
342 362
282 381
452 99
70 122
339 298
469 345
111 226
548 177
268 501
20 536
329 587
87 354
480 224
2 135
179 431
552 426
286 9
161 90
504 397
107 508
274 140
403 548
149 1
316 227
225 380
50 465
371 137
158 555
3 377
469 407
208 541
175 157
120 108
50 223
475 270
371 562
140 19
14 560
70 531
184 464
572 293
378 75
453 347
81 107
89 588
488 476
551 555
327 248
460 528
587 471
10 27
476 196
567 311
107 524
495 324
80 276
190 151
502 490
352 161
432 109
141 239
488 228
471 531
94 351
254 261
546 436
474 188
486 90
391 83
522 166
155 262
235 1
155 380
578 245
452 453
592 366
325 550
487 576
167 77
161 46
93 500
30 206
557 49
548 236
198 312
300 272
95 96
491 204
593 462
422 157
177 545
241 226
548 88
166 432
114 477
519 272
243 118
64 431
187 268
371 458
505 428
75 596
158 13
69 215
211 371
93 411
299 268
157 332
421 585
399 405
559 520
508 458
123 154
395 319
475 588
586 138
305 121
325 347
441 122
548 74
528 14
585 571
95 237
44 125
471 248
524 30
348 343
299 234
526 486
230 164
328 329
586 12
444 565
205 26
101 95
255 157
311 103
241 106
418 6
388 122
544 46
241 11
220 459
149 305
211 445
388 124
26 2
114 520
415 37
365 109
158 357
216 433
65 137
185 81
151 437
565 237
56 421
573 399
142 71
233 48
416 460
332 224
249 73
206 318
241 260
438 35
317 286
435 25
214 546
73 95
272 90
457 509
588 100
274 156
379 236
356 93
445 485
538 559
426 231
294 423
572 196
102 490
140 291
93 431
167 111
354 307
182 328
494 308
461 60
35 271
405 438
29 190
446 123
267 572
586 504
359 581
6 308
22 522
9 567
304 347
461 455
240 424
278 185
474 401
311 75
306 407
201 236
158 384
130 243
49 227
224 391
24 382
382 151
167 208
317 300
161 214
145 238
526 252
415 196
190 450
91 429
21 334
1 325
446 480
152 271
205 473
480 442
436 290
235 442
562 415
84 279
6 169
96 124
45 51
484 402
86 450
286 594
478 517
1 388
214 436
137 342
214 200
502 205
425 143
311 307
435 439
156 570
36 120
36 50
571 49
438 85
419 45
28 285
22 43
76 551
493 544
111 137
73 412
274 286
351 594
300 352
226 459
184 435
523 33
415 527
120 343
29 153
298 211
278 116
295 378
495 12
594 132
54 302
480 346
594 246
297 568
15 236
145 193
177 432
404 219
67 514
131 505
150 214
245 542
421 54
248 189
556 165
32 35
344 328
22 228
39 385
575 394
595 421
107 68
405 560
272 227
213 207
213 128
176 383
536 595
83 471
342 299
175 41
105 150
119 582
459 592
65 475
188 183
545 593
506 134
560 585
364 34
215 168
180 88
203 16
524 585
269 5
101 251
171 206
96 275
122 3
244 536
509 35
107 475
458 106
560 93
250 415
416 585
302 219
368 90
297 82
513 465
510 286
577 384
415 167
290 263
284 436
498 36
249 419
412 211
206 73
467 548
220 514
45 507
375 595
596 89
430 298
189 268
412 586
427 154
592 316
501 204
401 425
180 42
319 165
53 68
202 92
536 57
352 533
315 223
357 333
93 277
591 46
176 477
259 251
161 476
3 307
152 222
166 87
272 166
587 325
592 386
540 143
9 65
511 541
394 435
526 498
569 403
135 397
356 167
36 443
45 220
281 447
167 22
106 125
487 175
272 83
275 85
354 459
183 535
263 105
103 482
466 27
515 462
467 300
490 89
526 522
351 264
371 167
556 580
393 200
453 34
266 567
1 42
92 343
289 109
397 354
281 448
191 245
476 167
208 463
264 140
397 417
418 558
486 560
308 225
549 159
560 448
462 528
297 522
428 560
178 591
427 411
109 362
350 557
371 369
167 177
54 465
562 289
116 272
130 324
471 510
195 369
405 234
562 16
446 422
214 375
67 429
75 50
167 365
258 440
360 211
395 193
233 111
7 499
486 2
460 548
252 423
284 470
389 423
141 338
496 130
369 12
205 384
136 508
386 45
357 168
416 526
465 29
236 248
297 454
252 311
388 107
355 519
339 344
434 87
490 523
272 371
76 65
559 76
129 144
277 289
205 263
586 536
559 342
499 416
94 328
186 231
347 21
101 303
168 596
37 195
510 53
154 228
247 507
360 399
92 137
567 429
284 277
310 236
142 524
373 167
186 184
371 456
344 85
266 308
579 567
484 68
268 427
411 369
418 256
453 181
148 362
344 500
303 156
70 526
558 153
209 137
221 168
268 366
291 16
60 57
161 531
456 40
165 32
76 391
112 522
142 215
274 525
226 158
264 68
93 11
297 486
235 393
501 431
469 464
97 342
593 409
369 102
415 259
509 382
111 515
358 575
391 106
460 21
74 438
215 528
342 357
287 275
459 277
236 357
187 558
545 366
165 215
451 541
358 184
21 487
282 223
348 269
119 95
132 578
142 386
422 180
467 291
383 140
154 586
538 38
299 533
519 317
383 363
132 204
27 46
284 233
43 10
255 273
263 12
232 339
471 235
451 536
576 549
305 7
178 218
538 185
208 288
432 416
560 100
79 481
558 131
459 167
411 415
281 251
217 566
181 147
254 279
403 497
194 45
109 291
303 430
557 471
81 460
147 134
299 157
406 457
334 521
102 140
243 395
245 189
208 557
292 18
131 104
169 587
244 339
304 542
532 100
443 589
11 208
14 91
85 167
342 75
371 406
320 114
375 507
191 105
507 291
418 499
90 526
528 526
251 120
517 560
165 559
249 593
142 466
499 54
518 210
13 246
384 135
33 196
575 449
286 364
464 258
154 455
87 465
590 472
334 578
363 17
585 283
343 133
508 85
484 362
116 545
338 206
594 39
415 142
201 83
266 264
526 578
549 595
131 92
508 49
508 111
191 286
135 76
352 36
89 20
375 342
426 435
526 415
321 532
281 84
336 519
128 70
105 533
582 182
149 81
24 563
539 569
41 391
152 381
31 573
26 455
289 458
92 292
531 149
122 192
505 33
361 561
530 253
236 350
199 151
327 299
381 552
189 557
443 189
434 142
94 430
176 404
152 296
14 41
592 514
262 391
406 109
315 589
574 447
73 291
380 234
147 548
124 360
241 362
161 401
369 557
235 587
42 555
515 21
555 403
435 591
178 276
430 384
324 565
105 411
4 151
29 489
456 215
507 97
145 220
582 270
128 443
449 340
208 397
350 593
80 38
67 56
450 567
221 521
266 220
11 48
146 262
429 499
415 155
268 274
450 161
73 406
261 93
465 105
453 506
567 238
159 441
322 519
225 266
23 312
45 154
455 275
157 117
479 99
552 23
221 500
516 425
363 445
233 212
248 409
90 106
352 443
167 136
143 378
142 40
322 318
360 539
578 224
244 83
524 324
360 227
170 112
90 241
96 486
90 108
370 378
231 464
546 166
594 197
294 571
451 96
567 299
136 338
346 372
488 462
167 411
381 176
83 209
95 344
230 282
2 241
486 289
446 393
528 386
260 73
550 328
84 436
249 527
466 307
175 202
579 206
494 579
112 486
1 439
499 541
93 472
506 326
299 212
28 138
118 245
292 531
529 426
457 246
97 63
440 306
274 208
75 191
455 351
101 561
142 432
148 103
56 188
138 594
371 116
390 561
262 241
498 180
327 228
532 49
357 525
412 180
352 403
240 35
396 214
249 498
457 333
571 141
500 175
450 415
136 366
31 461
210 508
274 72
488 180
356 446
215 594
545 291
317 157
511 28
273 393
366 150
137 534
101 526
226 115
439 418
500 485
504 326
78 225
339 315
234 486
259 297
17 238
282 506
526 392
398 357
135 593
345 358
275 288
101 37
405 581
424 547
85 415
233 93
95 546
311 342
68 321
181 75
19 524
160 175
208 72
307 166
281 193
20 285
594 298
429 541
93 150
456 573
223 387
31 342
564 177
176 556
274 539
75 486
122 483
499 208
535 93
573 419
478 494
421 20
589 359
135 103
127 14
519 238
167 483
507 443
347 294
442 594
461 467
220 246
79 556
96 41
243 299
320 590
554 586
342 475
350 291
494 187
187 111
475 434
60 154
375 266
161 275
202 57
493 574
401 548
467 40
559 5
515 206
362 208
45 303
566 8
441 141
472 383
243 14
136 432
561 2
552 4
204 427
137 386
399 248
551 246
138 249
132 54
224 25
301 271
142 585
49 250
177 137
227 103
555 325
311 110
227 38
96 551
57 569
2 594
539 142
36 496
477 556
350 14
63 425
163 518
252 385
545 248
120 272
474 584
185 31
459 102
591 582
12 531
220 578
3 94
20 383
586 528
275 498
494 356
80 92
141 220
496 145
277 581
281 497
151 231
522 254
528 487
101 141
163 450
545 158
102 560
51 501
230 397
584 455
574 466
467 411
24 7
377 428
296 24
208 95
343 275
78 572
154 375
354 288
124 85
388 249
455 337
25 121
150 339
208 60
156 406
90 480
504 256
412 559
265 332
535 447
263 595
405 352
60 245
141 16
86 513
542 400
416 287
364 472
528 166
20 545
173 4
191 551
185 299
124 275
501 560
445 399
258 265
152 231
528 415
288 12
326 147
61 444
52 460
448 519
526 300
162 139
72 508
344 429
359 364
350 525
577 235
31 217
161 455
180 307
476 149
277 478
308 480
591 434
167 268
349 521
150 522
558 226
259 21
2 403
136 249
172 461
360 8
6 276
231 4
411 458
56 204
432 260
351 327
215 401
367 164
234 298
394 7
3 95
582 468
91 83
463 95
403 577
336 3
268 548
362 272
141 81
458 447
557 74
64 544
28 139
596 536
461 458
241 422
158 483
134 425
540 134
71 221
389 49
389 57
325 137
585 94
164 190
578 357
518 560
21 555
99 203
514 12
470 551
299 187
385 485
234 177
96 238
266 70
378 192
287 333
208 111
304 526
106 369
493 419
304 235
349 345
44 139
229 35
263 142
246 339
26 585
368 93
342 234
473 516
423 196
3 589
135 594
298 248
566 546
455 561
333 445
430 501
191 461
93 487
531 302
368 391
3 65
98 396
380 135
122 389
172 310
270 430
383 280
10 311
17 136
447 3
480 135
44 395
405 141
137 214
316 179
243 371
74 532
268 297
520 305
265 231
119 220
124 210
564 135
167 140
458 226
237 362
488 501
558 355
384 90
182 364
73 400
388 571
83 362
335 585
82 107
212 354
157 66
467 107
104 562
270 415
96 434
325 467
2 498
560 460
21 545
265 428
172 119
342 18
239 177
444 116
105 350
117 546
581 432
286 32
54 30
513 33
364 512
75 403
93 288
510 238
550 378
106 593
270 98
478 102
335 17
591 510
179 108
329 589
118 433
464 173
554 528
430 586
354 541
411 14
89 27
521 540
483 200
54 26
238 471
268 571
343 79
536 431
280 567
570 513
452 501
249 288
99 352
147 596
300 202
594 471
251 358
111 441
10 360
270 20
135 52
293 372
405 548
105 357
119 450
566 191
397 50
94 178
459 268
212 149
212 177
564 140
226 126
443 452
545 100
19 351
219 547
245 502
510 316
307 254
390 395
244 130
141 136
488 303
259 586
17 56
19 557
245 465
491 281
209 224
215 65
82 416
28 560
210 515
483 387
297 422
181 417
572 475
111 299
495 363
215 566
451 171
593 528
249 205
234 167
239 335
432 62
291 37
52 37
457 531
376 66
79 331
223 126
497 521
383 288
101 193
563 258
338 70
444 119
401 110
290 451
391 456
245 458
100 180
236 428
252 214
30 327
150 109
483 5
369 589
167 366
53 202
173 407
356 569
175 532
395 21
117 81
505 521
486 400
351 456
33 363
176 114
313 294
118 406
515 122
514 375
172 545
583 110
143 78
558 277
132 328
187 441
448 379
453 567
494 166
297 284
12 526
485 487
377 337
300 532
161 43
20 377
165 18
299 60
373 548
294 205
344 316
91 260
164 419
293 517
102 528
378 513
221 233
363 344
344 224
506 417
582 390
307 106
54 64
465 439
500 508
70 438
230 489
227 206
255 293
355 582
175 517
415 149
478 19
551 215
331 404
66 397
365 581
445 360
226 585
209 123
415 419
62 72
208 347
115 144
480 163
477 323
272 67
551 354
569 2
215 430
324 64
520 436
214 166
272 286
557 118
500 162
121 435
136 498
131 8
492 247
84 6
405 518
82 363
52 274
576 528
81 438
51 445
49 274
545 15
140 436
505 433
262 334
410 75
460 106
191 318
585 486
408 165
225 208
335 274
464 509
585 409
221 555
109 135
58 25
568 515
399 463
138 334
2 558
185 98
250 539
414 176
70 220
140 460
536 138
311 346
575 407
200 337
75 290
47 567
532 191
274 41
561 233
398 512
358 464
90 171
525 526
328 350
386 560
401 171
210 227
526 120
384 450
412 120
127 353
233 85
262 159
102 545
161 356
474 311
369 412
243 237
432 487
119 458
261 478
595 342
404 64
251 272
93 189
438 576
201 106
106 295
122 2
261 219
402 488
286 496
562 277
230 376
154 191
136 83
392 443
568 290
388 61
447 103
175 557
196 389
235 123
437 439
270 396
210 60
335 250
110 585
570 561
354 308
470 377
463 519
472 321
521 430
344 298
96 159
268 31
398 438
280 582
111 363
369 519
580 7
3 20
416 238
136 210
92 559
74 350
564 72
206 294
363 553
461 262
436 458
206 594
109 525
299 106
21 111
456 248
318 233
233 333
161 506
56 579
93 205
499 497
147 506
401 28
27 367
196 57
115 175
493 242
192 480
264 107
401 97
3 290
360 475
506 262
194 364
456 558
498 175
397 42
495 393
342 49
386 460
294 405
220 522
451 342
182 54
223 1
284 20
142 59
148 431
545 166
383 590
525 423
269 556
548 412
526 357
215 307
208 74
17 399
38 144
542 500
128 586
138 297
234 107
208 206
152 166
461 37
365 119
302 409
348 227
233 434
138 376
498 84
44 544
82 432
486 260
434 300
421 60
207 351
375 317
511 77
107 459
308 566
71 233
303 585
175 486
218 168
219 5
67 83
6 221
510 19
47 494
403 224
211 124
409 532
69 415
532 342
155 418
181 106
532 210
392 272
89 514
131 297
449 521
506 376
394 240
449 540
45 401
4 407
558 274
166 23
533 166
294 534
472 356
519 150
87 390
158 254
507 30
528 456
401 439
459 101
88 147
465 307
165 309
580 590
577 99
521 514
271 113
45 571
122 411
557 73
519 23
56 299
326 480
297 586
261 162
578 39
448 137
363 145
564 487
118 592
285 454
535 448
457 70
531 158
589 579
437 240
67 270
290 32
212 128
125 347
391 256
140 84
243 19
483 519
371 517
559 162
564 581
180 447
234 274
40 14
592 371
385 211
248 357
284 56
534 351
39 67
311 478
577 217
585 71
114 331
49 156
456 159
577 117
192 457
449 190
60 110
308 578
416 444
224 105
287 399
244 123
209 304
200 568
297 187
521 95
585 337
441 275
122 585
546 74
28 179
523 311
449 151
58 296
249 170
44 142
388 241
149 95
448 298
531 108
30 279
300 318
232 324
422 496
450 289
351 275
388 250
401 506
448 21
338 454
199 231
496 443
458 49
295 182
119 337
310 89
145 573
504 208
560 439
85 196
533 193
517 300
229 113
587 149
456 68
243 52
317 432
536 86
284 85
487 299
521 165
106 60
129 372
233 371
295 367
438 528
248 517
67 362
471 28
84 484
83 37
352 236
75 474
73 399
501 546
375 161
70 565
68 243
149 70
236 213
477 133
99 64
348 530
101 67
484 155
76 274
280 523
214 30
381 23
401 378
37 14
542 206
139 208
510 336
62 82
588 163
233 505
352 116
353 477
255 326
79 348
499 142
174 13
238 528
560 365
356 468
464 301
309 353
250 251
73 21
195 364
343 80
557 124
357 211
172 428
125 307
561 267
208 188
214 558
417 425
382 340
16 248
480 266
525 454
45 299
149 182
427 150
526 20
237 531
294 167
565 574
347 281
524 276
195 405
504 125
466 499
20 192
453 512
349 236
313 27
220 547
275 259
100 196
181 512
499 571
119 202
45 141
149 410
63 8
513 536
566 425
237 141
196 532
343 492
250 438
262 511
190 144
578 145
425 572
368 105
561 389
308 502
354 369
594 30
232 90
491 185
272 175
235 589
93 541
441 486
540 181
300 118
357 546
174 144
6 551
228 542
595 591
464 41
237 571
368 334
508 371
423 6
452 551
14 532
118 109
289 62
371 77
548 476
340 152
96 274
229 306
379 180
419 168
144 176
219 257
444 266
249 12
535 347
299 494
457 84
299 96
400 90
128 159
585 234
242 422
135 360
131 218
531 451
384 307
73 268
443 16
427 22
26 311
267 411
488 278
116 526
411 212
231 345
398 272
184 23
70 238
388 456
73 167
397 480
165 174
84 52
55 524
46 419
542 67
45 418
142 532
12 111
254 453
18 108
226 124
507 368
262 266
533 31
350 508
85 333
120 376
110 26
270 28
174 309
556 305
258 407
517 272
236 344
209 18
546 140
374 238
259 443
275 101
288 68
78 50
154 204
367 138
463 557
266 145
315 517
369 212
457 140
441 463
461 501
294 183
536 243
371 386
363 141
421 161
499 307
483 455
573 53
227 532
549 268
16 411
261 517
554 226
270 547
344 519
471 286
463 206
329 225
455 209
44 21
477 232
28 457
32 130
373 467
37 61
245 172
186 4
543 596
495 501
289 400
552 265
206 595
576 498
83 500
160 159
192 267
50 572
548 581
552 173
211 562
228 560
233 571
393 558
521 478
475 163
252 535
551 308
31 262
416 515
468 259
234 32
558 73
206 11
472 84
253 227
461 453
325 592
362 402
379 214
591 303
298 215
101 334
161 28
360 307
390 364
275 311
207 255
311 45
457 339
272 245
468 324
456 327
242 119
384 385
228 318
77 274
186 330
141 519
288 299
111 335
248 447
248 498
87 459
501 528
479 281
550 427
555 30
69 250
458 581
553 215
17 562
336 90
360 564
390 326
337 16
377 19
456 275
389 554
81 299
443 531
114 55
504 22
94 216
392 573
402 432
489 132
139 476
540 587
37 500
533 275
533 201
573 268
214 564
256 572
477 302
147 208
5 127
534 267
436 375
291 363
395 214
79 9
107 567
228 564
299 363
33 27
438 233
590 417
179 290
531 99
270 383
230 44
73 371
266 592
528 243
35 25
460 260
300 586
358 26
480 227
95 396
522 70
267 315
56 315
383 416
225 419
355 501
154 595
423 267
39 488
118 594
364 442
443 586
335 180
51 138
594 45
233 546
165 520
352 3
531 37
220 61
339 178
189 548
189 75
183 286
522 593
464 24
561 164
294 364
225 276
342 96
211 17
209 356
56 354
93 202
521 185
81 546
338 428
150 218
144 556
175 139
322 523
559 237
174 331
240 509
229 305
5 320
388 102
164 281
526 266
136 406
153 266
267 215
275 576
384 324
111 560
304 525
508 187
351 147
162 257
268 135
253 309
387 127
217 427
358 23
406 365
362 364
263 473
462 100
456 545
175 69
139 157
500 366
99 280
563 340
286 525
575 258
185 135
499 21
167 431
187 17
261 302
406 284
131 484
243 557
224 265
483 583
8 397
544 216
119 545
34 145
238 101
558 415
142 72
266 90
225 322
343 477
34 429
37 388
500 496
390 269
476 585
91 155
436 234
116 105
460 69
231 198
377 344
132 175
268 250
82 458
427 452
114 38
193 573
143 207
182 528
430 525
28 158
409 14
368 363
166 124
33 59
272 36
305 173
586 41
552 509
149 205
181 168
122 365
336 42
553 493
408 526
149 145
99 574
476 388
474 56
8 267
61 405
2 224
409 215
107 237
310 78
298 350
441 74
401 189
487 411
327 175
554 17
341 8
585 562
545 85
338 560
431 317
514 179
64 281
262 519
394 305
351 338
409 85
480 6
354 299
122 275
266 95
215 179
247 482
353 372
95 539
93 357
16 85
106 96
573 515
560 268
29 347
327 557
484 439
344 430
225 373
29 447
214 321
460 195
400 104
243 250
542 43
551 436
270 324
472 423
238 399
560 37
245 334
491 282
57 290
366 95
377 417
407 464
503 310
576 593
458 350
369 196
188 522
107 545
533 459
51 411
47 428
403 137
362 262
7 54
572 561
300 422
534 589
242 310
265 35
590 99
267 510
339 510
501 586
327 573
199 552
34 134
31 60
351 545
59 490
595 193
299 220
54 59
67 31
264 371
31 515
299 532
365 69
226 1
154 480
291 105
522 565
253 480
476 221
270 418
519 522
291 528
438 388
75 159
30 565
547 6
206 111
481 127
147 143
146 163
379 88
388 299
285 170
81 486
266 87
369 70
389 294
428 434
208 241
365 22
193 36
408 219
288 357
32 122
510 344
189 542
322 308
447 466
149 466
82 350
95 371
521 206
362 193
395 385
475 215
467 95
115 477
432 443
366 39
197 70
583 28
238 275
375 91
48 40
240 24
540 147
450 158
582 192
131 367
233 159
179 427
465 295
545 78
505 1
577 324
28 142
197 27
52 462
363 11
120 295
61 307
235 521
307 12
180 164
486 268
473 63
337 142
48 145
245 505
245 433
99 491
466 139
445 69
61 558
288 16
87 367
405 102
408 477
551 200
585 411
142 275
448 441
263 425
390 556
355 66
224 555
368 297
45 100
361 27
7 414
118 370
415 180
209 531
300 36
437 394
380 204
95 268
490 310
161 135
115 520
442 393
351 471
518 549
335 460
420 292
506 295
152 312
417 42
579 592
266 494
123 526
107 593
350 409
52 105
83 415
410 23
238 585
449 168
51 548
572 506
81 586
210 297
71 111
179 457
197 64
149 266
165 87
75 349
400 386
547 477
211 581
250 500
343 5
378 272
251 212
480 342
180 523
463 28
547 85
174 499
277 551
195 272
125 29
3 533
371 269
52 365
34 159
161 436
569 578
117 22
55 276
13 311
161 369
362 31
227 91
275 94
373 178
53 547
255 540
356 304
138 76
546 104
452 519
501 443
46 44
141 17
105 267
116 501
369 468
134 171
434 390
542 175
311 378
221 308
252 232
171 483
404 309
20 104
452 117
93 252
47 443
557 371
131 138
528 303
497 132
217 20
295 347
135 539
292 232
417 230
322 428
421 122
300 96
393 475
213 548
180 442
464 345
387 353
494 65
288 270
376 223
186 306
243 172
468 514
214 3
216 314
214 390
20 559
510 70
433 501
527 82
519 266
20 68
412 526
283 142
396 472
18 267
1 158
506 341
378 22
29 470
196 450
454 75
304 334
458 239
593 548
364 268
101 270
416 69
412 373
497 334
268 107
163 324
227 157
532 316
519 368
28 19
273 363
208 268
515 136
238 298
423 358
519 531
215 245
124 141
400 445
566 341
146 224
166 161
391 533
52 72
217 192
124 562
596 421
480 533
338 573
161 572
152 449
390 443
230 516
311 343
514 425
581 448
210 74
170 344
541 434
217 290
268 238
9 539
315 67
497 501
142 541
33 303
572 157
233 236
547 520
495 189
358 499
206 431
245 403
291 586
49 350
96 364
456 357
585 267
365 210
276 373
31 102
2 145
511 17
50 63
581 136
167 109
148 88
308 567
294 525
475 26
459 16
581 52
202 242
171 583
390 570
375 137
131 216
526 521
341 425
179 32
346 26
14 120
318 586
176 162
155 317
366 196
97 38
157 321
276 282
167 51
122 204
172 105
460 462
455 158
500 82
567 347
539 16
152 546
569 386
593 498
69 462
385 294
54 409
388 369
573 485
230 155
562 243
157 355
272 246
405 511
98 205
119 329
420 477
412 542
553 112
451 329
179 217
206 457
259 571
545 429
445 128
185 106
246 200
259 142
432 90
192 63
239 386
581 268
482 246
543 168
17 167
29 261
510 254
95 357
335 243
56 212
136 422
108 354
227 515
206 445
232 219
174 501
556 492
280 75
428 523
212 234
87 213
137 338
40 557
252 533
551 84
401 285
434 28
39 430
83 528
206 291
460 102
105 378
287 299
286 19
405 93
478 150
362 68
322 373
277 195
48 299
324 38
352 391
43 147
90 397
156 521
76 445
51 28
337 10
94 91
561 329
221 375
93 227
507 346
152 186
370 70
267 292
443 579
557 206
32 291
372 55
299 275
132 316
59 131
189 459
287 371
150 179
299 362
101 514
88 272
245 2
321 299
56 395
542 11
159 448
562 291
521 307
36 403
195 583
389 370
94 84
478 101
196 161
378 568
270 85
450 427
91 409
22 483
337 158
159 333
117 299
130 404
180 501
557 441
69 243
215 259
178 523
497 13
274 37
315 202
478 214
202 510
577 119
203 470
172 156
193 380
96 531
549 562
260 371
70 119
205 161
179 19
99 197
584 546
364 423
123 475
401 454
522 34
151 284
143 84
217 528
592 507
105 175
560 334
204 514
225 15
78 63
70 116
203 280
473 417
311 306
32 502
391 241
561 180
354 116
247 331
390 545
523 225
275 49
396 561
70 336
459 262
149 438
112 590
507 359
399 187
517 268
45 461
85 250
17 239
497 170
270 82
509 121
16 159
205 142
192 1
106 264
402 456
582 466
318 272
88 412
377 585
73 562
501 280
555 364
537 394
150 277
175 458
532 472
228 500
399 581
57 237
411 69
471 586
300 350
454 146
384 428
123 401
83 432
482 425
521 148
35 4
259 195
194 584
187 224
185 421
489 68
168 378
190 261
440 271
562 335
587 181
233 365
390 579
541 3
556 232
61 180
247 444
290 528
471 333
318 37
328 180
314 37
106 78
559 269
5 139
174 154
515 533
539 109
153 590
542 401
21 548
239 274
137 202
576 557
288 541
211 460
543 114
322 276
78 516
116 225
524 409
92 261
102 242
20 83
41 531
375 452
556 371
316 329
32 389
498 11
519 49
548 508
300 107
204 166
212 208
73 136
532 519
568 14
518 104
510 138
336 545
415 291
364 478
425 220
236 212
299 441
158 107
523 447
280 456
316 393
110 204
357 132
342 272
576 416
60 214
498 548
261 404
138 53
243 16
339 429
21 95
7 190
532 76
508 228
328 224
470 225
11 525
308 215
88 118
532 106
210 300
535 78
277 338
108 144
137 263
72 476
399 501
464 552
432 371
594 293
399 406
336 189
537 413
269 284
331 507
220 531
280 118
102 573
591 314
238 117
452 228
443 130
492 444
579 375
311 96
450 468
380 450
79 269
321 461
585 179
483 194
6 45
75 390
90 565
545 352
227 350
104 297
392 195
91 456
499 403
377 116
460 334
334 357
256 558
244 442
289 558
475 45
552 407
214 338
103 310
416 81
132 150
311 280
348 5
492 120
533 149
90 401
238 488
154 266
359 395
248 333
503 97
74 40
581 528
401 154
581 554
531 342
477 270
101 318
82 355
120 191
361 504
136 511
405 485
460 143
510 507
137 434
593 300
86 401
475 103
172 441
269 523
291 450
536 252
85 388
313 478
56 110
499 455
472 534
265 345
526 534
558 156
158 90
201 448
373 325
365 561
403 401
70 432
491 29
460 391
534 3
539 40
175 421
78 147
367 170
427 504
444 238
396 185
86 238
501 525
422 195
309 374
370 586
19 471
259 589
309 530
463 193
354 243
97 227
377 161
213 512
33 88
428 308
427 174
336 364
434 352
393 588
125 89
14 586
274 405
436 215
326 159
19 264
518 564
278 564
234 571
167 391
205 116
438 39
157 207
541 12
461 557
443 6
521 507
365 360
560 528
43 90
475 506
299 514
562 167
457 286
144 191
263 33
243 138
137 185
432 241
531 474
578 521
407 394
223 423
248 175
216 494
144 223
471 412
564 217
236 442
467 399
149 90
559 278
556 420
432 2
409 514
453 326
151 340
1 33
592 227
73 510
586 274
93 573
171 13
352 294
96 318
460 156
522 533
194 139
376 43
526 401
412 525
494 230
29 44
146 267
138 149
266 204
510 31
132 262
14 362
132 344
113 149
452 531
41 334
291 202
528 117
73 386
370 432
161 20
461 100
358 151
96 586
352 501
342 370
378 57
206 293
364 158
87 463
316 241
306 391
419 470
143 397
3 545
362 88
116 297
293 223
380 317
496 9
437 435
293 504
510 135
165 221
393 182
159 248
87 371
244 480
423 275
212 298
76 495
461 406
303 128
341 223
493 310
390 153
92 146
317 402
20 360
555 194
265 358
234 422
517 40
138 202
311 507
103 126
238 427
47 423
174 114
105 201
76 443
549 214
486 104
391 153
461 34
480 170
535 262
540 207
443 68
95 307
571 124
448 483
383 51
226 391
74 300
141 511
459 289
196 307
74 180
550 457
522 237
403 588
206 441
484 221
13 75
417 50
264 308
492 372
256 293
351 161
89 197
559 108
73 274
376 262
91 201
178 155
230 198
206 344
289 299
490 425
522 444
199 173
3 294
579 507
123 270
161 10
223 482
325 515
491 547
539 422
206 447
90 316
593 239
480 450
522 116
328 74
193 31
293 133
261 232
188 182
543 215
559 185
378 6
234 445
427 13
573 2
542 368
105 211
371 460
326 75
281 179
200 32
567 21
362 365
343 372
317 221
578 460
185 21
169 507
441 234
55 232
226 448
351 506
316 261
272 202
452 510
436 175
427 122
344 508
364 454
415 81
573 371
392 96
434 531
193 2
370 336
40 202
268 134
103 431
517 317
244 37
192 224
321 443
452 507
20 214
589 70
416 362
505 172
102 268
537 469
541 61
146 517
563 330
288 333
373 550
406 140
206 264
377 117
297 237
333 406
165 129
103 22
564 549
574 419
367 281
442 571
76 264
364 311
551 311
498 495
415 398
90 206
142 262
266 166
430 585
558 391
51 476
542 128
295 492
450 132
418 67
51 415
201 368
295 521
411 517
454 471
483 206
505 307
243 300
235 443
177 527
478 448
586 519
134 128
438 13
451 158
408 162
577 452
71 524
260 49
422 321
42 126
110 474
462 37
329 443
28 557
406 275
132 429
130 586
450 144
531 486
61 496
446 569
363 527
369 460
533 287
314 415
220 263
28 391
405 298
170 214
466 3
80 232
201 596
304 123
293 376
83 542
198 240
142 250
389 527
352 211
320 176
448 357
341 321
515 454
87 415
392 251
416 264
227 507
548 102
342 213
560 90
527 104
14 335
502 551
505 59
396 20
57 119
592 339
228 344
434 532
274 300
106 585
109 177
472 252
364 400
455 346
205 337
374 55
85 356
188 585
566 157
524 475
461 476
107 26
338 289
411 251
517 254
188 535
266 506
52 74
576 51
50 193
402 238
107 136
205 567
514 357
379 16
449 426
248 21
1 591
495 468
304 12
277 102
430 334
78 397
456 150
561 377
288 287
198 164
379 191
317 154
587 209
551 221
96 34
284 523
432 528
122 149
377 308
536 474
464 4
369 211
371 416
491 98
482 512
517 565
266 531
440 184
220 496
314 329
343 420
390 567
344 438
378 290
102 260
416 45
336 307
250 40
393 532
302 530
507 148
103 134
488 179
470 361
554 141
164 89
421 89
306 25
164 170
576 189
42 223
230 491
103 42
206 525
273 78
582 434
436 71
243 303
270 16
76 43
438 195
419 466
181 503
594 578
141 14
371 528
391 586
194 455
585 369
415 335
123 393
193 371
69 528
119 61
129 556
75 567
422 528
258 184
359 88
248 344
81 362
524 594
95 109
475 303
506 540
134 329
455 171
386 594
525 515
307 132
102 493
21 214
243 233
367 447
294 592
591 514
84 201
369 395
298 352
95 140
120 555
548 75
172 56
41 351
584 351
275 436
522 528
296 552
421 395
49 210
493 43
523 75
254 128
128 522
405 85
443 297
127 292
61 238
142 114
341 282
450 101
266 307
471 411
353 492
142 591
595 452
476 566
172 96
254 132
215 474
46 502
342 12
112 408
14 413
499 26
289 405
488 56
392 88
501 375
557 329
336 483
584 393
103 458
212 487
12 452
174 129
351 531
166 531
165 114
91 68
577 14
174 372
469 229
561 516
405 476
310 588
449 529
253 144
102 517
166 298
95 93
132 179
134 548
158 536
506 63
393 419
2 583
585 109
34 116
592 204
582 123
369 297
244 393
278 364
296 258
154 452
73 379
31 249
167 64
254 112
524 76
139 99
226 233
214 589
175 545
96 532
250 212
275 555
241 40
211 233
277 227
580 151
107 164
321 453
61 215
189 52
428 270
192 284
259 109
588 377
277 409
6 125
287 525
421 457
366 195
466 493
16 233
294 486
267 419
514 595
478 583
444 142
459 272
322 587
362 277
548 388
298 593
211 458
32 155
537 121
559 309
471 470
317 26
527 11
375 204
443 289
405 458
194 387
33 510
417 332
577 19
457 298
122 221
347 164
449 587
337 13
146 355
20 45
354 592
203 574
405 287
557 233
548 156
17 576
91 243
226 485
20 197
238 105
41 138
402 298
218 6
292 477
83 51
576 16
135 260
418 276
223 247
332 43
524 43
525 355
51 362
272 528
536 455
188 419
521 93
211 74
246 316
475 313
417 447
312 340
99 470
337 254
515 221
236 338
19 172
502 377
587 521
458 212
513 338
485 463
83 155
31 264
526 383
506 254
499 399
51 495
290 384
273 482
546 371
80 320
515 522
233 360
458 71
130 596
549 141
369 373
151 394
17 289
519 136
206 573
444 401
403 475
486 300
487 555
554 539
459 499
380 45
259 378
428 90
485 338
343 538
170 455
165 176
107 585
237 266
360 104
17 555
371 365
348 80
162 292
341 247
171 32
442 298
327 402
585 95
78 15
530 5
421 2
177 236
424 575
204 395
386 227
495 209
318 511
158 168
593 193
400 365
117 495
286 166
566 78
233 249
401 206
245 43
330 23
311 161
266 208
463 398
491 591
350 532
547 216
141 85
235 149
365 14
13 200
168 451
149 107
264 515
26 142
364 534
504 540
51 416
369 259
132 230
519 264
409 298
268 445
524 313
507 117
550 276
363 486
457 65
499 568
42 332
234 363
20 476
102 262
85 549
167 451
427 497
22 431
403 537
482 255
227 76
140 390
145 70
170 29
454 238
6 47
115 253
188 164
206 510
76 512
298 363
475 235
481 165
385 514
407 184
311 391
65 314
146 203
89 54
220 203
37 328
505 178
8 516
226 17
579 47
18 144
87 556
166 297
421 204
185 60
450 397
435 271
251 463
417 63
389 533
179 56
20 336
226 68
540 535
405 368
243 365
72 239
172 560
367 89
20 26
455 202
455 125
390 65
428 373
482 213
403 578
43 227
268 585
264 573
357 96
61 156
402 286
140 562
32 582
189 541
428 1
203 221
251 398
95 561
585 379
2 578
427 499
366 133
480 495
525 452
95 175
147 45
436 548
105 236
150 578
289 560
207 506
577 370
93 14
154 526
158 161
234 289
150 278
423 279
116 211
220 215
567 430
482 503
436 142
352 278
593 416
76 96
293 425
557 438
474 354
284 77
265 413
488 94
246 166
528 259
410 113
304 384
194 430
410 240
239 85
191 50
375 251
328 34
41 76
268 448
14 208
355 224
415 531
559 477
60 74
195 120
291 411
364 214
507 264
550 545
144 542
284 159
57 143
416 546
67 34
225 567
548 560
496 266
60 311
294 267
568 401
500 69
192 490
571 508
298 485
383 118
169 470
16 383
104 415
231 301
13 501
361 188
362 460
45 375
51 526
193 117
409 365
311 194
450 90
41 522
166 317
113 301
208 357
452 6
266 119
129 420
454 168
170 347
300 34
299 107
268 141
107 170
289 388
491 582
332 376
309 38
151 305
105 448
36 318
526 211
264 262
167 260
359 204
384 380
136 364
159 187
303 510
2 267
144 5
550 531
348 481
578 430
7 345
542 416
277 76
72 560
205 237
249 554
444 28
555 565
179 286
501 297
37 73
415 311
238 303
151 426
279 178
149 556
533 272
45 237
135 191
212 106
567 158
289 102
215 180
575 184
567 93
531 116
249 164
362 442
41 306
116 237
239 95
320 349
95 458
18 531
3 16
258 24
73 40
154 392
311 57
508 476
75 218
219 477
519 495
438 400
68 333
119 496
584 13
146 431
532 85
443 423
546 486
83 189
549 467
386 422
144 538
138 307
354 587
32 281
430 28
224 67
124 260
100 415
388 557
74 11
425 283
552 469
263 514
347 376
328 587
409 560
375 521
376 247
102 389
584 303
111 585
490 225
154 521
308 418
414 383
93 214
363 528
451 85
540 326
380 148
327 400
249 34
291 362
78 282
546 365
583 86
459 83
443 368
121 296
76 468
473 237
424 271
249 379
540 54
191 212
450 43
500 588
494 87
211 187
423 589
8 283
557 211
582 446
291 195
194 127
217 215
428 33
292 165
78 255
476 11
585 499
494 188
277 85
61 266
450 545
241 105
175 250
155 348
571 368
505 30
391 303
574 139
26 537
367 197
343 295
201 19
12 316
191 542
169 206
483 203
26 7
390 233
237 119
205 290
228 217
109 119
490 242
342 452
14 122
351 45
256 50
356 567
65 489
582 393
3 390
215 273
550 370
224 17
93 564
299 116
45 430
74 593
430 180
9 478
165 530
4 305
127 403
596 254
400 39
267 415
255 143
5 194
238 31
523 433
478 385
292 372
471 406
82 369
409 227
112 90
31 68
249 507
593 365
37 480
200 451
329 175
22 122
485 518
205 436
403 189
510 496
217 591
339 427
305 113
185 594
329 523
499 91
163 356
68 148
448 251
106 448
578 458
500 11
519 416
525 66
31 136
423 23
189 508
175 243
539 373
358 340
67 175
79 165
178 59
388 164
162 366
582 569
93 241
206 454
358 509
525 205
20 570
386 375
148 117
277 167
549 528
304 475
264 560
498 560
29 542
530 420
506 427
339 369
194 419
541 37
439 370
103 483
161 95
462 48
427 259
436 486
228 333
586 514
340 529
515 362
178 216
358 199
109 486
61 573
431 171
272 526
14 223
552 35
49 546
445 37
533 227
81 360
234 581
590 155
27 182
115 319
52 156
452 169
586 342
52 73
267 377
451 303
377 93
267 214
10 472
205 577
54 559
299 72
484 71
390 396
126 158
555 324
188 299
560 514
583 378
303 457
357 145
583 513
294 220
232 130
512 311
480 403
448 84
486 52
275 201
119 534
369 260
485 406
44 245
205 356
350 40
126 326
178 531
587 308
7 449
246 30
344 237
285 595
551 238
405 109
172 557
554 239
279 358
315 377
259 329
548 100
422 166
137 390
13 499
254 13
411 581
268 508
487 546
267 28
416 498
295 28
326 566
145 138
542 594
508 81
18 75
447 501
361 506
293 172
2 568
73 438
502 130
310 425
534 528
268 136
346 531
452 380
586 109
57 401
474 86
497 555
518 137
299 206
546 48
125 266
531 344
463 564
578 378
470 450
182 153
14 18
466 203
52 458
103 524
353 144
297 272
557 365
66 147
170 321
305 271
478 459
545 571
398 233
336 379
366 430
32 513
551 82
546 400
124 259
592 287
238 67
531 352
504 230
117 375
546 11
376 341
441 436
325 539
137 485
276 329
338 294
368 412
221 524
436 573
476 369
68 557
55 80
210 593
555 137
27 454
473 142
388 268
272 411
420 133
580 349
445 277
308 505
447 431
27 544
202 56
405 554
446 163
462 486
413 258
191 460
327 371
569 119
321 496
42 326
373 490
411 21
554 102
245 205
197 182
294 587
206 295
515 124
142 461
237 60
3 142
5 477
485 581
276 357
182 572
208 299
510 190
214 311
376 79
38 507
535 197
383 83
458 217
568 13
237 508
88 484
262 21
107 522
156 237
174 320
586 395
150 441
573 68
564 172
265 464
204 140
182 361
514 289
248 238
519 362
135 450
332 139
395 138
557 564
450 191
563 345
189 14
502 43
417 147
172 20
460 274
445 498
59 466
594 137
422 350
289 571
238 172
190 168
273 310
521 595
436 564
525 592
190 339
542 560
451 304
33 591
176 292
497 505
391 335
495 119
385 589
311 455
136 166
33 418
55 261
567 427
179 204
362 581
410 509
558 167
364 252
65 188
363 83
386 237
6 470
141 167
499 236
594 161
251 541
514 504
44 419
434 178
578 215
182 89
141 210
565 351
230 204
324 588
360 487
505 218
188 125
591 28
499 209
86 483
62 17
39 303
370 84
132 491
567 174
453 63
145 429
210 260
128 412
548 140
594 106
486 84
511 409
245 237
582 356
183 29
270 588
349 430
564 273
158 431
88 109
135 246
594 313
390 423
458 430
119 532
11 416
311 475
298 422
533 220
44 430
317 60
192 22
553 486
70 41
25 151
139 500
408 232
314 9
378 267
291 141
77 573
192 235
185 117
498 82
307 541
423 1
143 202
141 289
569 140
61 274
102 214
106 10
564 441
446 386
497 347
75 168
352 385
287 327
386 37
8 417
128 576
416 17
251 242
479 139
60 204
371 498
255 512
467 140
536 32
252 138
35 469
90 438
318 377
230 360
136 528
475 137
236 360
103 506
400 109
209 181
455 546
505 434
82 156
327 551
122 220
541 303
571 454
495 356
42 325
435 440
318 344
178 80
378 468
194 551
304 495
299 51
206 409
564 19
390 371
332 425
23 301
195 415
307 136
73 526
254 361
260 83
107 590
237 137
363 270
372 165
183 466
445 166
279 308
365 234
105 11
311 159
561 149
142 216
426 509
17 14
361 334
352 429
578 180
369 137
116 249
447 483
295 447
581 560
438 102
298 365
465 254
435 198
124 462
364 20
337 110
107 250
307 206
185 338
268 441
90 193
471 285
471 287
297 83
48 191
260 72
272 377
304 217
559 68
561 50
102 40
227 405
364 84
569 468
320 38
399 409
35 345
243 585
189 354
139 144
234 154
179 130
286 429
23 25
274 294
366 251
567 349
511 412
63 253
203 465
402 102
320 530
26 75
134 326
17 105
553 208
554 458
42 120
106 521
154 254
523 484
144 320
281 560
495 534
142 227
128 180
459 586
393 270
558 81
335 140
490 388
432 498
253 353
430 419
104 135
491 89
179 259
458 277
278 313
12 166
74 142
90 339
70 456
586 322
334 76
373 399
107 254
580 435
208 3
508 485
562 511
287 406
571 220
22 524
559 115
157 147
372 319
64 553
324 442
49 548
108 176
202 569
355 395
328 298
116 149
352 472
211 399
308 395
158 223
149 237
171 374
306 271
200 584
90 281
393 187
542 59
277 350
264 313
264 30
131 433
180 206
222 24
429 285
476 117
306 152
401 584
370 423
138 244
570 68
525 422
499 20
75 113
315 359
405 299
272 193
559 129
147 252
549 154
491 347
294 475
470 535
214 453
105 298
21 369
193 93
549 335
299 135
551 587
145 257
110 475
376 266
436 389
381 383
322 149
349 569
286 344
483 14
115 395
188 356
224 171
150 39
299 230
505 279
428 550
500 232
461 110
371 436
533 438
594 429
17 208
540 1
334 94
543 142
358 54
591 196
189 375
295 540
554 124
13 551
143 532
362 135
253 297
126 1
363 436
396 465
349 518
536 285
338 27
118 422
231 258
14 351
583 431
159 562
226 223
109 52
329 218
279 1
147 412
75 254
176 309
570 406
339 395
480 475
194 44
559 147
581 37
284 483
196 478
492 331
521 421
341 332
409 69
395 137
173 121
421 154
84 379
69 527
406 467
461 351
141 388
344 65
45 293
558 438
312 230
321 570
149 119
354 37
80 5
318 245
294 532
32 86
456 448
245 21
45 370
427 228
196 53
412 370
573 405
54 450
427 14
174 55
450 514
477 144
7 152
191 244
379 106
266 161
521 446
87 188
436 287
259 542
137 16
553 268
56 217
572 328
175 422
449 198
592 300
545 467
153 326
3 561
111 95
546 433
112 466
371 548
96 156
498 460
297 211
378 536
254 534
72 448
93 362
573 241
474 299
37 167
186 435
339 282
501 467
3 204
341 489
380 567
140 192
405 74
466 182
339 531
403 498
105 192
515 501
542 299
560 189
249 415
325 376
378 76
210 485
531 363
120 277
295 434
145 570
531 137
68 88
527 51
504 376
436 365
158 42
400 141
48 287
76 103
141 508
278 583
149 370
276 436
324 30
324 480
249 188
493 273
189 462
228 278
398 558
137 13
498 508
121 457
448 411
104 107
307 365
256 341
76 284
82 146
252 447
368 475
522 427
102 68
212 93
435 4
211 16
515 485
90 216
146 279
430 350
52 260
84 268
32 208
431 483
20 166
508 82
413 528
329 434
470 491
498 268
67 515
412 488
500 389
551 478
227 504
446 442
75 455
524 225
439 433
265 186
384 495
563 580
495 588
8 332
100 586
410 455
309 162
411 284
493 268
153 54
498 135
345 312
427 514
29 535
568 229
219 343
179 342
139 45
393 191
105 478
444 38
75 536
530 477
272 402
284 91
364 589
545 560
391 519
507 22
89 254
476 542
252 15
266 147
581 93
297 480
519 363
517 454
299 211
11 40
110 524
556 90
593 542
412 456
122 311
17 458
206 221
422 569
111 371
435 152
23 586
581 593
458 167
345 580
503 126
211 243
360 545
243 434
20 406
532 458
578 494
289 585
443 560
79 309
74 206
32 542
583 150
515 338
6 196
438 88
207 482
440 25
286 28
214 377
299 83
207 78
543 130
177 233
237 496
307 89
128 87
166 438
217 356
252 495
536 254
365 380
63 42
45 103
423 158
351 70
514 430
454 442
544 465
523 505
591 444
573 470
242 11
187 307
533 327
172 542
44 347
351 546
236 128
137 18
281 99
357 73
251 564
509 469
429 510
417 129
532 588
210 369
295 361
533 488
445 562
421 317
548 545
350 210
475 334
225 147
423 205
595 380
585 549
107 554
53 339
406 288
373 329
487 81
284 227
218 567
152 113
138 132
508 370
139 46
65 497
432 239
45 167
561 506
103 515
391 274
569 264
551 482
545 398
195 318
465 434
444 71
476 416
48 119
585 141
207 278
587 426
557 167
84 83
430 139
180 142
22 370
44 114
101 307
405 487
519 28
452 148
582 480
421 329
51 189
513 436
408 343
177 487
505 513
16 193
250 564
107 548
159 406
398 318
125 344
294 454
360 160
430 259
457 456
246 39
574 585
320 374
220 149
418 131
206 560
507 103
105 461
474 212
398 158
488 342
226 395
555 172
270 209
49 268
313 3
325 548
145 371
98 18
53 220
521 215
436 360
568 236
175 119
100 82
116 93
294 196
447 95
338 369
156 560
347 42
501 66
234 242
399 140
504 89
212 585
334 427
94 423
318 545
316 550
308 84
301 265
371 61
560 107
154 514
266 214
158 286
101 370
194 294
286 376
178 55
564 170
252 334
241 485
206 121
166 191
405 243
67 17
154 56
594 179
439 577
68 515
284 111
342 398
495 375
102 67
406 360
461 546
19 344
523 1
28 192
555 327
576 62
177 585
145 289
385 245
362 573
396 570
106 14
430 95
512 157
262 286
388 554
379 266
237 342
531 321
134 461
434 444
486 158
81 548
167 389
77 34
79 372
69 350
348 38
204 317
164 155
101 474
180 342
298 488
51 528
494 390
121 394
101 167
232 92
298 385
360 311
213 18
286 226
404 302
391 517
112 226
209 442
237 220
180 259
192 253
546 237
373 196
570 101
526 61
36 53
335 142
339 252
127 115
363 388
168 555
592 220
560 220
472 150
458 81
585 475
94 350
312 35
495 526
231 435
124 585
134 504
293 579
557 37
409 77
248 402
441 445
421 286
429 471
425 8
87 208
196 49
221 132
160 467
585 371
274 363
325 104
576 546
190 382
585 400
284 532
461 217
232 559
252 317
525 118
68 57
367 497
542 478
347 120
385 430
452 470
13 168
585 576
210 546
116 403
124 236
106 504
96 200
561 254
433 252
498 581
16 549
177 416
508 459
259 554
183 361
210 335
522 63
226 175
2 343
19 328
220 558
201 546
18 8
132 263
279 23
322 1
540 93
136 195
259 545
215 458
133 45
357 412
541 304
210 527
293 507
344 189
2 11
50 282
418 595
546 326
254 358
456 142
386 211
429 87
509 206
564 243
124 72
418 279
528 542
142 83
293 203
106 357
266 10
7 563
590 29
328 119
391 536
351 596
279 314
519 511
242 2
376 42
371 82
57 423
270 532
443 370
369 526
119 272
34 268
590 191
214 277
521 396
100 85
37 172
339 381
416 260
126 97
25 305
401 311
542 106
501 252
236 378
116 558
137 292
295 544
88 436
384 217
63 397
513 573
354 502
84 596
295 143
84 38
514 56
167 573
17 268
22 284
200 429
314 30
277 585
267 236
436 461
319 38
268 94
565 293
457 364
84 88
571 71
511 486
73 525
274 135
311 14
508 585
14 551
360 516
517 524
286 542
169 505
135 581
515 95
263 429
135 436
375 83
144 157
401 536
311 536
535 15
32 378
416 248
124 100
7 4
524 533
322 521
428 418
595 249
402 268
314 550
263 534
371 476
541 342
455 13
299 74
378 86
366 342
507 372
269 87
287 140
373 366
164 112
71 498
261 114
65 522
593 40
375 421
244 326
168 337
247 50
122 65
368 106
534 385
441 399
522 453
180 45
411 175
126 63
215 379
33 499
250 52
118 359
207 273
467 104
532 591
362 234
491 396
307 497
118 546
435 306
391 37
65 543
551 116
211 28
324 235
370 437
368 259
550 450
506 78
466 125
167 154
290 452
341 453
136 386
586 411
542 519
117 595
104 564
103 504
21 456
244 586
196 125
208 422
267 589
49 12
168 96
213 75
429 457
414 152
526 459
536 130
299 389
405 441
99 164
2 499
528 111
551 88
76 308
495 235
524 201
501 519
363 289
325 138
83 135
366 418
105 272
326 341
2 185
273 15
59 436
132 410
202 526
409 284
501 272
298 242
586 243
459 81
70 264
415 438
107 110
42 230
297 22
517 335
120 116
53 163
301 240
524 38
425 540
187 192
461 238
570 443
465 491
562 135
318 393
211 73
422 274
150 246
592 67
96 116
269 114
529 164
478 195
368 11
178 33
21 558
576 562
134 213
272 363
596 158
547 27
148 272
518 313
82 211
231 509
215 395
179 528
559 408
442 495
189 352
460 486
320 348
117 380
444 270
237 577
458 159
541 470
8 213
238 497
554 208
488 37
238 450
214 327
546 167
389 405
494 489
53 291
330 240
249 37
61 342
116 146
377 551
206 103
186 311
269 165
162 477
67 202
188 44
197 281
209 154
234 511
49 82
447 138
363 335
408 18
142 260
103 63
102 273
404 232
73 443
197 112
411 226
587 433
68 432
236 251
344 179
368 581
170 99
361 419
164 329
93 100
306 14
430 100
398 76
557 105
511 267
150 67
528 426
421 132
405 211
12 284
188 497
586 352
98 541
562 177
303 567
294 27
301 552
586 531
314 361
423 22
36 189
351 328
396 377
316 478
300 365
510 291
93 546
252 396
452 49
386 595
164 312
192 388
141 208
594 133
252 225
442 267
375 252
167 289
431 458
436 335
282 540
143 491
167 11
568 26
212 400
347 138
195 274
383 333
542 10
335 486
240 231
137 578
549 136
370 259
382 426
191 454
126 482
456 298
21 156
516 417
86 471
135 458
54 553
436 288
249 250
57 175
542 433
299 548
341 572
493 447
138 130
225 218
326 332
589 377
422 526
551 60
331 253
245 336
389 411
204 124
208 335
535 27
268 294
403 358
135 567
215 327
32 221
565 39
439 97
405 191
161 346
588 447
237 594
420 144
468 398
25 509
360 260
546 476
308 513
365 462
571 95
105 226
593 100
76 436
102 310
547 185
320 580
450 107
175 441
563 231
217 488
177 398
452 21
342 107
432 362
153 204
458 369
73 140
326 63
33 514
356 10
540 78
93 557
367 549
519 338
42 134
344 546
18 541
443 100
485 206
74 525
193 303
16 501
496 200
95 212
359 228
373 434
498 111
517 201
457 542
542 156
152 301
450 452
309 556
483 223
117 514
568 455
297 542
272 49
330 222
78 116
350 334
469 301
203 125
523 567
588 250
412 259
535 164
12 119
490 505
222 410
528 500
340 7
171 192
377 12
208 117
63 134
550 418
77 91
154 89
73 111
87 145
260 109
82 593
324 404
236 411
3 73
208 106
306 258
212 188
370 307
353 323
316 187
274 511
61 379
276 232
149 398
342 412
238 501
171 158
531 200
384 486
521 101
358 231
436 498
161 533
404 127
2 555
229 312
541 281
85 140
49 423
587 1
280 150
206 571
194 346
303 19
154 47
358 7
42 341
571 111
25 464
359 22
586 88
411 443
510 457
428 93
50 245
542 9
275 128
286 578
127 483
336 592
45 508
378 398
389 587
114 319
172 103
513 200
593 386
106 587
504 78
522 325
40 476
272 241
561 205
542 466
526 501
514 88
322 471
395 380
500 436
550 329
374 76
365 539
55 320
84 73
175 263
558 122
153 166
192 303
518 177
464 152
573 553
428 224
187 226
475 521
1 471
542 499
400 518
142 542
300 195
236 272
3 385
142 370
390 321
530 55
148 359
306 132
522 253
377 354
179 246
505 329
364 377
548 212
586 76
484 308
96 441
124 11
120 551
289 48
522 534
534 242
589 196
377 206
141 548
463 266
10 433
420 174
163 196
456 582
457 178
560 239
408 226
70 499
82 389
375 51
546 389
213 313
76 22
581 73
481 253
455 132
17 557
89 281
403 235
277 136
149 393
461 496
99 29
100 428
570 95
356 384
1 178
82 557
148 402
259 499
594 10
100 501
420 5
327 238
498 234
401 200
200 321
80 319
215 349
83 546
292 144
502 179
559 253
291 360
506 42
581 226
355 101
286 355
518 141
495 577
394 4
91 532
306 184
581 446
500 488
70 20
250 554
238 73
249 107
527 52
546 460
44 45
364 313
264 135
22 63
64 22
170 549
200 482
81 593
214 525
234 448
56 221
596 41
187 458
528 193
35 301
268 338
368 448
269 174
484 567
341 50
312 381
357 519
273 553
167 122
560 73
592 104
466 44
49 335
505 314
581 386
216 180
283 145
185 569
260 458
311 229
458 486
456 153
335 268
418 342
583 158
542 167
236 227
505 194
77 300
237 355
82 210
116 220
568 86
466 29
116 343
105 37
16 101
560 243
537 499
68 392
55 319
410 330
562 528
531 409
354 142
548 576
191 14
535 182
364 118
432 291
111 483
415 389
105 379
297 227
371 288
461 524
373 120
367 465
391 141
548 195
193 355
262 456
259 501
539 200
418 484
3 501
368 486
152 190
299 546
14 229
139 422
274 517
541 459
354 534
281 130
229 345
174 47
386 462
595 507
83 454
135 432
226 160
547 507
386 461
471 457
145 67
512 273
125 54
159 268
214 423
313 592
79 253
463 333
249 51
236 3
568 306
109 416
467 539
544 419
263 57
423 336
503 103
415 586
243 208
252 336
291 366
273 242
540 223
426 413
519 462
145 237
593 560
155 339
480 578
307 528
467 527
371 227
336 216
528 445
556 339
238 430
525 208
455 306
531 191
531 226
499 87
307 223
254 423
415 365
284 573
478 3
344 524
142 307
284 419
307 250
513 203
84 41
74 224
154 380
303 196
395 589
31 327
412 519
147 572
453 134
518 581
15 310
56 555
2 476
196 270
356 87
504 225
266 170
286 84
82 365
106 272
386 84
200 36
27 55
576 159
542 273
125 182
451 57
242 392
69 368
547 311
16 118
142 508
409 76
429 380
591 342
102 335
88 402
582 217
477 165
156 387
137 539
546 23
216 295
142 45
64 182
54 367
230 478
396 547
482 157
158 342
513 88
514 384
572 351
109 37
546 564
18 559
331 481
116 533
316 517
572 46
324 217
334 217
284 511
525 369
588 417
338 371
135 30
178 131
175 266
557 210
549 17
565 315
249 328
166 346
262 245
392 569
572 376
543 245
512 506
123 192
352 488
116 431
57 200
592 545
154 395
337 568
31 299
299 141
539 177
494 433
394 580
585 81
532 179
361 266
237 444
527 500
262 227
75 234
42 453
180 336
49 40
589 294
542 475
106 209
531 559
47 308
573 175
65 168
342 37
197 479
195 515
16 160
585 84
485 352
142 401
221 88
338 525
258 186
510 180
560 525
416 215
221 507
560 211
178 428
425 89
201 143
527 508
303 268
424 536
524 80
488 11
267 262
549 508
16 546
428 220
45 526
162 219
459 238
318 177
195 211
233 241
51 252
206 399
472 457
388 360
274 17
375 415
442 384
79 559
582 475
442 311
286 390
215 97
6 550
262 308
91 371
94 298
167 416
297 100
31 73
422 42
112 99
65 352
37 259
554 448
284 389
502 161
499 154
477 49
195 576
157 341
529 419
499 189
457 344
46 182
412 492
573 517
45 262
280 470
488 290
336 570
576 70
8 292
522 212
212 242
594 535
408 253
539 65
67 366
545 442
557 400
238 14
191 519
386 74
422 254
221 442
459 342
192 297
512 96
256 283
236 560
38 374
523 587
175 136
297 342
276 59
538 404
416 211
511 451
202 36
16 396
286 291
316 457
519 90
93 12
526 318
179 39
190 93
410 424
460 84
463 406
436 89
526 286
87 548
406 445
193 313
158 206
395 244
508 515
429 442
290 311
153 15
253 112
523 26
274 272
301 509
41 338
342 456
193 37
332 428
143 42
440 152
429 65
290 536
279 439
62 557
571 21
125 465
33 279
153 256
522 192
452 347
109 443
526 36
490 266
76 262
245 430
187 132
488 268
216 218
1 54
360 585
9 187
396 446
149 522
124 545
39 548
254 168
309 566
315 293
400 581
265 25
85 365
198 155
333 365
62 518
190 222
427 295
352 498
282 204
152 23
268 557
382 35
45 443
328 104
441 485
564 52
95 444
491 217
476 326
152 121
416 436
26 252
101 254
150 495
34 149
391 105
109 195
401 6
350 316
206 252
511 177
3 193
111 251
477 80
53 507
195 297
508 284
374 559
3 267
497 127
128 45
272 560
124 82
423 3
498 362
436 305
449 121
448 111
567 542
348 165
329 169
135 19
186 271
422 272
448 362
393 564
472 567
182 91
438 522
210 211
410 306
122 161
184 394
593 400
336 561
246 132
568 267
208 91
414 381
361 427
447 433
180 316
50 147
507 492
232 162
309 538
584 57
165 122
1 418
533 34
325 490
187 422
556 292
460 243
367 182
519 593
555 578
467 458
72 211
398 405
136 84
270 83
28 344
52 241
76 249
179 283
594 180
12 415
391 19
67 450
237 375
336 422
393 466
68 67
286 234
136 142
338 93
194 14
438 508
522 531
104 83
337 473
354 499
274 109
364 548
75 150
422 448
31 458
187 171
471 521
128 453
345 320
32 568
50 506
422 101
120 366
208 573
161 93
528 406
238 496
254 130
268 27
557 274
276 490
315 196
549 104
429 28
573 95
37 21
187 262
571 299
101 525
268 264
525 564
233 388
592 375
290 513
56 91
337 311
50 455
523 439
93 10
3 442
109 239
519 70
476 268
275 508
249 411
560 573
556 5
259 204
328 430
183 27
551 484
505 96
323 525
347 188
378 455
453 489
215 545
212 485
19 93
129 55
155 221
592 77
546 119
357 409
42 66
442 304
220 272
406 416
21 226
478 60
274 102
594 458
364 571
90 3
149 344
355 393
499 460
559 75
272 531
484 6
166 402
371 558
594 579
207 475
276 314
104 45
2 531
12 354
365 367
93 354
267 272
368 595
305 23
117 60
131 592
519 236
346 476
462 500
260 268
488 105
563 240
56 60
107 539
159 291
141 62
550 70
422 109
134 364
134 195
83 519
567 26
416 409
281 439
370 122
20 385
25 152
500 191
336 366
110 266
90 584
269 323
347 447
344 78
251 234
158 474
581 241
401 75
176 457
335 260
311 223
128 514
415 284
236 87
208 62
236 545
2 133
593 363
343 353
478 252
32 4
349 280
563 312
190 529
295 588
377 196
47 433
515 3
123 442
300 85
486 562
300 245
5 292
376 147
68 528
1 521
152 382
79 114
165 55
593 68
339 325
382 229
217 495
494 131
343 455
175 567
233 539
244 270
69 210
443 403
390 192
103 326
533 246
12 138
156 228
448 486
200 311
95 406
403 13
573 65
94 431
552 382
512 8
274 364
475 349
576 277
453 103
46 435
180 124
347 465
147 425
167 432
64 112
421 234
273 497
85 6
392 107
67 391
298 286
400 118
349 163
241 517
194 578
32 438
203 255
322 490
276 523
496 31
392 398
28 461
212 300
122 455
311 254
106 411
21 49
212 561
357 388
60 350
512 468
93 369
295 307
181 8
214 304
316 32
201 499
133 530
386 262
528 175
568 583
109 160
493 573
289 128
221 204
138 461
66 78
576 208
104 239
436 415
507 307
594 362
419 139
415 61
76 504
472 357
462 49
37 156
135 133
40 180
498 34
374 555
80 520
267 196
459 142
342 508
101 259
202 292
357 11
103 428
139 493
297 546
122 339
253 157
486 391
199 435
180 145
361 494
81 51
567 545
16 251
346 266
103 78
95 193
168 529
366 576
435 240
225 578
191 472
572 207
212 368
574 280
189 13
3 429
124 95
401 158
507 206
528 159
386 316
542 41
60 193
583 401
332 283
61 70
487 243
265 509
93 102
311 568
304 498
500 268
378 480
361 125
400 485
252 570
16 406
234 432
129 323
542 421
74 539
275 389
517 427
378 196
379 220
505 2
236 206
232 147
117 19
168 164
43 433
306 414
277 335
438 369
304 456
94 19
311 267
16 467
370 100
288 351
289 40
593 215
84 37
