Vertices 154
111 "#19"
99 "#6"
103 "#106"
18 "#117"
150 "#22"
97 "#99"
69 "#59"
67 "#138"
98 "#65"
116 "#61"
129 "#152"
144 "#144"
142 "#75"
61 "#53"
127 "#91"
125 "#20"
76 "#23"
106 "#68"
118 "#115"
134 "#12"
154 "#107"
40 "#150"
113 "#17"
145 "#94"
11 "#36"
31 "#46"
149 "#81"
9 "#49"
91 "#103"
140 "#72"
75 "#129"
92 "#1"
147 "#78"
95 "#55"
20 "#109"
96 "#95"
128 "#87"
58 "#90"
141 "#71"
55 "#105"
51 "#128"
24 "#96"
102 "#15"
101 "#39"
110 "#127"
36 "#130"
54 "#41"
66 "#31"
7 "#124"
15 "#74"
10 "#141"
146 "#50"
153 "#43"
8 "#58"
56 "#34"
100 "#51"
124 "#73"
130 "#84"
63 "#70"
2 "#32"
112 "#64"
68 "#3"
105 "#89"
70 "#136"
121 "#142"
143 "#57"
120 "#11"
88 "#125"
28 "#123"
86 "#2"
126 "#83"
107 "#48"
136 "#52"
114 "#132"
133 "#29"
138 "#42"
60 "#56"
12 "#114"
65 "#63"
13 "#35"
77 "#27"
27 "#0"
137 "#62"
25 "#25"
122 "#108"
148 "#77"
48 "#112"
19 "#126"
35 "#86"
152 "#16"
42 "#133"
71 "#147"
50 "#38"
1 "#116"
78 "#7"
139 "#28"
80 "#13"
104 "#67"
83 "#120"
44 "#151"
52 "#149"
64 "#45"
89 "#139"
16 "#100"
14 "#102"
62 "#76"
3 "#134"
115 "#79"
17 "#24"
123 "#10"
53 "#101"
39 "#137"
85 "#111"
135 "#18"
38 "#104"
41 "#135"
46 "#118"
33 "#54"
90 "#4"
117 "#119"
109 "#14"
73 "#21"
87 "#85"
37 "#98"
94 "#9"
34 "#47"
49 "#8"
81 "#131"
6 "#66"
72 "#140"
108 "#110"
4 "#113"
57 "#93"
132 "#145"
59 "#92"
26 "#69"
22 "#5"
84 "#40"
21 "#60"
5 "#33"
32 "#121"
47 "#122"
93 "#26"
29 "#146"
23 "#153"
30 "#37"
151 "#97"
74 "#82"
131 "#44"
43 "#88"
82 "#80"
119 "#143"
45 "#148"
79 "#30"
Edges
106 66
56 89
20 152
126 147
107 11
75 95
60 140
134 111
17 116
100 78
45 52
26 99
31 113
3 118
116 37
84 6
17 135
141 144
58 127
27 104
148 57
43 53
136 79
71 23
128 93
127 105
153 49
44 132
135 153
141 106
71 144
65 80
63 94
153 136
146 76
85 19
122 118
143 113
57 59
17 92
135 80
137 13
98 26
96 145
56 104
64 22
90 73
11 136
130 115
17 101
138 49
112 13
36 93
134 35
50 94
93 143
50 125
106 116
60 55
88 57
25 59
12 38
58 57
17 128
154 48
131 60
151 41
150 130
136 102
9 152
131 13
140 131
116 73
115 49
141 130
30 104
153 138
120 11
151 116
131 93
141 124
153 31
106 133
104 34
22 150
77 69
77 107
137 147
80 13
55 131
90 69
42 89
6 152
37 14
63 78
26 22
92 2
124 146
90 25
9 51
22 111
22 120
35 17
69 120
7 1
153 21
31 98
106 100
141 15
24 96
139 143
90 61
102 30
102 92
80 64
150 101
30 125
115 101
135 127
84 146
53 135
77 30
46 113
128 49
46 53
125 66
100 24
149 94
137 65
7 38
30 120
2 133
135 102
17 90
4 34
14 53
64 133
125 80
93 51
67 75
3 39
77 134
64 26
145 91
61 69
56 99
28 88
68 17
56 26
7 83
97 4
84 98
39 81
9 30
52 129
13 130
125 153
82 115
115 74
130 98
63 53
78 133
63 141
139 152
64 113
114 51
94 143
19 47
114 89
93 88
9 11
21 68
106 15
2 78
99 63
147 74
115 143
78 131
58 128
61 147
18 67
128 43
26 66
19 154
103 12
83 32
10 71
94 141
103 38
102 50
2 46
102 74
134 146
74 5
25 68
33 102
93 68
54 9
26 95
78 89
102 4
144 72
39 42
66 153
125 48
63 62
135 32
5 13
5 26
19 128
132 129
47 32
90 60
62 141
109 94
64 95
87 127
134 6
73 101
33 21
118 32
56 110
9 98
131 8
121 23
4 154
60 13
89 74
153 2
62 140
140 86
43 58
50 101
116 65
17 80
83 47
146 60
115 147
74 135
11 54
50 34
79 135
120 131
131 113
120 61
90 152
68 102
27 102
43 127
98 30
143 19
101 128
25 46
142 15
57 37
75 36
15 27
81 3
150 139
101 41
13 147
68 62
68 61
24 145
29 129
52 121
90 102
146 34
38 85
22 60
153 79
107 102
132 121
82 130
120 60
110 131
127 107
37 145
150 17
132 17
98 100
69 112
62 21
100 5
54 104
65 107
5 89
143 60
56 153
23 29
18 99
134 125
68 30
123 133
120 106
89 70
33 50
38 154
125 77
15 61
51 42
51 31
4 8
30 131
134 98
150 61
46 117
10 121
90 31
24 104
25 127
16 116
96 99
31 30
66 17
37 96
78 65
3 51
47 133
6 96
20 103
82 124
83 117
113 26
19 28
62 78
49 19
53 145
6 85
79 56
130 152
71 121
34 27
31 64
67 70
104 120
17 131
76 86
31 134
2 102
60 141
85 128
78 87
146 82
82 151
36 136
120 90
61 32
14 5
134 21
140 15
32 80
131 89
101 133
60 107
135 116
149 38
58 105
59 43
111 94
128 127
120 74
151 43
130 139
151 84
113 11
113 152
60 78
6 125
90 150
111 54
97 122
25 152
114 67
135 86
49 2
60 116
98 95
119 129
56 120
74 33
139 120
139 106
49 154
10 52
37 84
116 77
27 120
55 103
136 20
41 133
49 143
27 101
66 135
149 134
102 64
25 56
60 148
49 21
50 64
95 56
76 153
34 8
106 140
148 135
55 85
140 34
117 118
130 126
79 138
85 4
114 39
11 133
46 41
5 101
34 84
97 96
98 19
5 95
56 131
24 97
151 101
119 132
143 8
111 135
68 152
27 61
57 135
17 99
111 76
121 144
13 116
95 94
13 122
73 112
100 50
102 124
143 74
133 134
60 15
6 99
108 103
85 122
69 143
105 94
80 53
107 27
133 152
134 80
31 9
2 152
107 152
86 138
26 123
9 73
22 5
94 5
21 147
116 69
16 145
62 84
23 136
128 57
25 139
130 15
107 8
42 3
62 142
18 118
76 140
141 149
7 19
136 25
34 154
73 138
45 132
79 123
137 37
107 143
134 84
86 94
19 100
5 80
32 51
99 120
99 22
131 61
62 74
49 130
17 34
70 51
135 5
13 101
149 82
48 38
139 97
60 54
101 26
103 48
80 77
134 79
94 140
115 149
65 9
16 91
100 123
108 55
79 13
36 23
35 59
81 114
137 16
37 147
6 14
137 116
95 131
120 127
117 32
35 130
104 143
151 51
80 116
41 51
79 147
113 140
74 21
93 104
76 30
73 49
23 80
134 130
136 31
98 60
105 139
154 20
100 133
54 113
6 4
49 107
53 25
139 128
17 113
33 69
56 139
70 81
100 66
131 2
30 21
134 8
134 135
78 56
90 139
90 9
93 139
31 68
74 93
34 24
2 138
119 23
152 12
32 74
69 66
80 122
131 136
152 136
75 51
64 99
11 106
90 79
33 61
2 100
142 31
91 96
132 29
19 88
61 105
147 149
107 43
105 15
113 111
5 56
65 133
5 102
42 81
150 94
68 113
54 139
74 66
36 3
104 107
47 118
123 107
76 84
104 138
32 148
76 60
16 37
38 134
8 137
87 5
25 107
32 104
110 70
122 20
144 41
94 120
113 34
80 30
77 25
60 63
13 73
136 4
47 41
116 9
22 94
61 102
6 102
84 96
131 147
2 13
134 51
53 16
107 130
34 102
8 136
102 85
138 78
101 99
88 147
130 19
17 27
115 94
25 79
154 85
54 94
49 17
13 107
87 59
30 149
139 111
120 143
86 8
84 14
131 65
106 93
33 147
76 62
6 66
32 7
122 23
100 101
15 124
23 132
9 69
133 90
136 143
32 1
101 51
154 143
85 139
144 45
144 10
82 106
135 25
88 111
17 152
53 37
121 129
67 110
13 141
49 127
139 61
73 133
121 29
95 120
78 149
78 46
20 38
84 8
89 81
125 82
31 111
59 68
11 31
48 122
101 61
115 150
104 136
92 150
38 55
125 16
23 129
43 49
122 71
66 92
72 121
110 89
40 141
127 27
16 134
70 63
141 140
54 22
154 108
112 124
86 54
110 143
113 60
49 50
113 98
135 125
34 85
30 56
152 102
54 6
137 84
4 131
57 73
63 124
88 73
154 55
63 51
129 144
111 125
59 62
100 34
135 138
118 7
103 154
65 13
34 152
75 3
111 133
128 35
11 2
124 151
43 105
120 107
66 82
130 147
133 8
36 51
8 85
59 78
123 77
49 113
8 139
34 6
138 9
112 137
153 82
153 41
73 98
17 93
152 24
49 134
110 97
144 33
101 22
80 104
102 22
32 18
88 100
85 48
113 13
146 8
122 51
98 138
152 66
74 30
66 120
89 14
101 153
61 80
135 69
148 120
134 137
52 132
152 134
43 57
51 153
148 74
33 101
128 105
38 108
40 144
97 91
101 123
17 130
130 103
78 25
50 73
4 139
13 152
33 76
54 120
74 82
63 116
137 146
126 82
70 36
112 37
54 93
147 82
80 71
152 65
93 90
113 94
149 140
80 86
117 28
59 58
61 66
4 61
118 48
5 86
18 47
66 9
41 71
64 60
113 50
153 102
139 107
129 45
66 2
61 71
31 21
136 90
64 79
48 20
142 140
138 105
53 77
64 136
102 79
123 139
135 77
68 78
2 37
101 87
8 94
133 138
60 152
69 95
124 62
130 149
103 15
112 116
90 98
129 71
60 153
45 10
1 19
52 44
59 127
26 60
72 10
98 88
72 44
69 140
108 48
36 110
83 19
148 143
45 121
20 12
17 25
57 111
113 55
126 115
81 75
61 94
127 62
135 100
9 63
138 76
14 74
97 85
74 94
148 124
131 122
125 106
78 90
79 104
1 28
112 147
49 142
131 99
38 122
151 146
95 60
61 25
120 102
148 112
64 153
6 16
139 13
35 149
22 113
84 99
55 4
149 126
32 64
25 60
112 142
117 19
93 120
154 128
58 35
139 134
7 48
101 105
15 116
61 136
63 31
111 77
43 35
83 28
6 139
136 49
6 143
37 6
139 112
6 9
140 116
100 152
106 60
66 80
30 94
151 50
62 33
130 133
113 122
51 81
116 152
37 131
123 105
31 79
36 67
80 25
27 105
99 94
125 118
107 135
141 142
61 64
42 114
6 11
21 98
100 33
147 97
120 140
26 150
78 127
111 86
6 8
82 84
22 109
54 106
18 83
100 94
107 141
76 49
64 18
93 99
73 5
66 112
130 92
5 24
113 150
43 84
