Vertices 334
233 "#196"
46 "#155"
289 "#62"
175 "#263"
136 "#250"
64 "#216"
192 "#247"
332 "#221"
227 "#121"
257 "#319"
27 "#280"
16 "#268"
173 "#144"
49 "#304"
110 "#208"
152 "#156"
9 "#123"
204 "#314"
185 "#12"
107 "#318"
190 "#275"
95 "#159"
6 "#278"
22 "#122"
13 "#249"
51 "#194"
147 "#103"
54 "#310"
214 "#36"
189 "#226"
290 "#224"
317 "#21"
89 "#197"
144 "#59"
14 "#46"
8 "#86"
99 "#281"
325 "#261"
122 "#206"
283 "#65"
292 "#258"
25 "#143"
92 "#291"
80 "#243"
215 "#124"
228 "#89"
130 "#158"
121 "#106"
155 "#32"
255 "#166"
232 "#130"
35 "#328"
271 "#195"
154 "#289"
66 "#171"
81 "#11"
297 "#330"
156 "#180"
225 "#296"
106 "#22"
135 "#31"
90 "#71"
109 "#246"
159 "#203"
201 "#164"
279 "#285"
310 "#149"
221 "#78"
256 "#68"
223 "#15"
226 "#265"
231 "#299"
140 "#108"
298 "#163"
318 "#84"
127 "#185"
245 "#232"
124 "#187"
149 "#322"
229 "#219"
142 "#300"
222 "#316"
170 "#82"
198 "#7"
316 "#131"
58 "#44"
96 "#69"
306 "#97"
177 "#188"
299 "#80"
102 "#98"
304 "#273"
239 "#113"
108 "#8"
26 "#176"
272 "#91"
208 "#88"
266 "#283"
308 "#257"
191 "#306"
270 "#179"
205 "#294"
1 "#270"
328 "#104"
138 "#90"
241 "#327"
168 "#117"
296 "#6"
302 "#274"
70 "#192"
276 "#244"
37 "#35"
97 "#202"
52 "#264"
53 "#109"
334 "#317"
105 "#324"
202 "#251"
254 "#107"
118 "#140"
160 "#77"
275 "#233"
288 "#19"
187 "#220"
285 "#56"
133 "#242"
114 "#201"
98 "#252"
93 "#267"
87 "#248"
313 "#239"
120 "#271"
320 "#141"
132 "#186"
128 "#95"
163 "#254"
267 "#162"
10 "#132"
167 "#128"
126 "#303"
111 "#190"
330 "#152"
139 "#227"
75 "#67"
314 "#174"
150 "#85"
103 "#321"
315 "#301"
268 "#27"
249 "#66"
31 "#118"
55 "#136"
71 "#4"
3 "#43"
19 "#189"
134 "#168"
183 "#326"
94 "#183"
123 "#51"
331 "#116"
280 "#37"
11 "#10"
40 "#223"
218 "#245"
240 "#240"
301 "#282"
43 "#178"
300 "#81"
86 "#204"
158 "#17"
207 "#0"
119 "#177"
180 "#24"
78 "#214"
61 "#199"
101 "#200"
236 "#1"
28 "#55"
33 "#49"
265 "#60"
157 "#290"
188 "#313"
56 "#87"
174 "#231"
248 "#93"
143 "#148"
309 "#236"
278 "#167"
88 "#13"
161 "#266"
184 "#212"
17 "#181"
210 "#25"
165 "#9"
294 "#73"
181 "#228"
32 "#213"
171 "#142"
281 "#210"
50 "#126"
62 "#297"
237 "#269"
166 "#287"
258 "#125"
63 "#101"
162 "#165"
125 "#58"
69 "#276"
129 "#170"
4 "#48"
65 "#153"
5 "#54"
194 "#134"
224 "#45"
117 "#50"
7 "#138"
305 "#298"
234 "#173"
146 "#277"
178 "#222"
151 "#61"
68 "#217"
20 "#305"
76 "#215"
141 "#253"
269 "#312"
213 "#83"
251 "#39"
230 "#160"
260 "#184"
211 "#42"
321 "#115"
311 "#34"
153 "#260"
219 "#315"
164 "#288"
293 "#333"
82 "#112"
253 "#307"
303 "#169"
2 "#64"
333 "#332"
12 "#119"
30 "#211"
287 "#52"
36 "#151"
112 "#111"
206 "#284"
169 "#309"
44 "#100"
235 "#102"
319 "#145"
262 "#157"
324 "#110"
113 "#40"
186 "#323"
259 "#18"
179 "#76"
148 "#129"
246 "#311"
217 "#207"
48 "#137"
172 "#302"
197 "#308"
39 "#38"
291 "#198"
116 "#23"
200 "#172"
286 "#139"
131 "#57"
242 "#135"
209 "#74"
41 "#325"
250 "#146"
77 "#26"
199 "#329"
273 "#229"
21 "#29"
195 "#193"
196 "#72"
238 "#53"
247 "#256"
42 "#94"
67 "#114"
24 "#234"
59 "#286"
104 "#105"
323 "#63"
243 "#279"
327 "#293"
284 "#255"
307 "#205"
23 "#147"
244 "#41"
137 "#5"
274 "#259"
329 "#225"
34 "#235"
261 "#272"
47 "#3"
100 "#331"
326 "#14"
57 "#295"
176 "#127"
282 "#2"
220 "#120"
15 "#262"
252 "#241"
145 "#30"
182 "#320"
212 "#70"
193 "#191"
38 "#150"
73 "#175"
85 "#161"
203 "#182"
72 "#20"
277 "#237"
322 "#75"
60 "#16"
84 "#92"
79 "#99"
83 "#33"
295 "#28"
74 "#292"
18 "#209"
263 "#133"
115 "#154"
264 "#230"
312 "#218"
45 "#47"
216 "#96"
29 "#238"
91 "#79"
Edges
187 30
9 258
106 71
158 283
90 84
230 83
24 213
330 25
253 54
247 198
189 64
200 86
202 88
85 22
111 307
268 143
224 193
66 94
316 261
222 139
280 14
69 108
261 321
37 221
58 287
21 90
60 174
170 286
170 299
311 75
210 71
238 65
185 125
223 224
194 18
106 238
188 199
329 184
310 255
267 201
128 249
219 69
221 91
210 127
281 117
85 267
185 21
58 224
122 104
287 323
55 176
25 215
249 94
263 194
121 318
22 178
154 59
333 20
107 199
71 285
88 55
109 252
193 19
279 12
72 187
60 53
214 135
47 48
255 115
4 30
137 106
23 88
242 173
247 136
50 56
196 256
285 3
232 318
55 326
104 254
6 305
71 7
55 68
320 309
212 151
332 271
54 188
321 294
233 55
211 282
235 170
148 202
60 216
223 321
85 25
137 224
128 102
67 155
176 307
68 32
242 41
207 75
216 91
60 285
166 279
218 43
114 132
237 141
321 12
135 208
79 295
68 318
182 219
247 57
243 27
180 56
28 67
262 239
272 198
15 70
286 316
268 144
230 159
45 117
235 71
210 311
213 11
244 288
124 117
270 260
193 67
60 46
207 223
310 320
256 123
193 311
167 14
82 125
77 75
271 213
80 10
241 137
317 248
123 11
128 296
223 47
262 237
33 167
332 229
178 251
284 52
158 45
212 220
253 246
71 144
85 143
88 158
5 158
7 323
239 106
65 291
131 108
3 33
230 152
14 3
281 78
181 109
185 145
145 23
181 307
71 117
47 27
45 125
219 204
298 303
230 72
113 125
129 48
14 265
300 90
283 211
221 58
108 265
150 156
95 264
318 221
201 46
10 89
39 123
163 1
135 144
210 275
334 253
117 48
170 223
33 317
133 273
37 152
112 11
120 302
130 2
47 65
26 129
33 211
56 251
55 76
267 193
295 311
71 145
89 283
71 223
121 27
130 298
115 267
190 164
36 144
238 3
220 215
213 39
247 308
131 81
81 77
228 82
41 20
25 60
72 280
95 272
45 312
13 88
69 41
312 187
105 296
143 43
171 23
131 75
228 64
21 214
314 85
205 13
201 214
45 180
238 234
39 317
58 102
42 146
206 327
4 37
182 257
137 288
87 181
323 21
82 324
97 27
226 141
103 105
119 15
125 239
53 82
314 94
229 281
97 201
116 280
2 37
69 164
41 126
250 158
316 175
294 223
22 242
63 220
98 314
178 30
296 251
155 55
123 286
310 144
192 248
264 290
171 118
7 63
257 222
227 75
88 151
220 277
135 81
113 299
325 15
333 183
167 259
150 214
325 215
85 97
56 326
151 72
181 264
138 229
121 117
80 87
262 89
332 312
280 283
108 211
113 249
82 184
296 113
324 155
75 287
289 37
84 195
48 45
278 95
212 296
2 184
17 279
239 254
156 195
123 162
5 14
206 57
196 209
163 136
198 21
54 103
187 332
260 39
201 316
198 123
167 185
223 258
296 96
124 51
58 7
272 179
47 106
96 195
231 141
239 21
208 270
7 176
270 88
188 249
50 254
10 68
202 111
51 61
316 263
51 70
262 278
175 138
204 293
47 167
43 119
210 4
117 221
329 332
251 165
61 250
131 285
2 295
16 196
28 81
284 261
122 213
117 116
284 16
37 58
266 59
167 65
180 318
229 184
195 159
284 15
324 328
326 60
148 331
77 170
268 185
96 208
314 66
81 170
251 316
177 61
64 252
260 129
298 76
255 289
143 148
319 171
213 133
221 265
26 143
84 69
59 205
281 12
270 43
123 262
261 77
176 79
119 106
148 207
309 264
262 122
143 320
294 2
294 179
265 283
180 319
85 234
45 249
92 231
28 224
42 43
152 286
208 4
329 124
4 285
239 278
307 254
76 111
269 69
121 294
238 47
229 68
28 144
67 328
290 329
63 61
65 317
325 16
123 216
81 295
329 194
210 212
124 127
184 291
314 63
30 217
300 8
251 123
208 324
59 190
129 42
16 268
310 133
125 21
205 225
260 66
191 298
204 107
125 289
29 101
213 221
272 4
221 289
33 323
138 208
1 120
71 238
257 184
151 2
79 265
155 60
58 125
29 174
104 167
15 308
302 93
90 196
179 26
213 36
155 121
161 15
143 119
284 274
84 150
175 16
131 66
202 230
135 72
206 174
268 44
180 251
3 135
165 97
249 239
117 314
102 2
13 28
77 258
259 63
228 211
64 48
71 214
286 323
23 65
84 272
212 209
140 53
258 230
307 70
109 192
156 97
151 286
33 71
142 69
61 111
276 34
39 224
151 317
314 247
155 224
138 271
307 40
168 128
182 107
39 108
278 111
161 302
296 230
108 56
268 210
151 259
84 151
316 48
166 69
256 71
102 155
136 278
71 180
241 117
135 170
90 179
83 9
284 21
12 40
65 330
161 98
77 11
310 319
306 167
198 285
55 67
222 191
248 230
318 91
83 170
300 318
271 177
210 122
151 175
81 160
143 144
285 104
52 325
29 288
31 268
196 302
193 111
274 120
12 31
260 18
237 226
182 334
163 185
312 40
161 237
44 147
56 272
290 30
298 255
257 169
274 308
77 140
154 27
87 13
223 45
221 297
278 320
331 89
288 224
132 66
242 31
235 83
120 15
159 227
171 174
78 214
316 55
193 72
104 58
63 210
67 217
167 77
152 201
60 47
273 26
160 294
256 285
242 331
138 56
62 92
185 265
122 271
221 5
205 305
2 155
150 303
64 122
323 278
238 295
137 286
180 228
74 172
107 219
40 165
1 284
41 105
123 323
200 234
243 181
207 310
82 223
260 212
112 289
223 4
302 15
160 285
11 193
84 27
313 43
91 108
137 184
34 73
15 247
16 302
43 139
221 102
185 288
238 224
316 57
77 25
299 3
238 209
223 250
161 1
330 320
236 180
80 192
181 230
332 216
24 133
233 19
274 261
313 63
315 243
167 232
83 317
255 214
88 224
182 49
137 270
71 14
105 199
8 180
246 20
327 129
207 122
287 242
212 112
117 294
283 214
215 156
121 324
150 174
238 5
331 307
78 189
232 79
44 145
183 49
129 247
221 138
196 144
177 162
205 62
96 167
96 228
85 131
307 88
196 322
108 50
267 177
90 209
256 317
132 210
28 285
9 12
251 235
152 238
256 85
242 69
5 144
251 325
157 142
55 252
301 205
179 170
46 53
117 285
238 259
323 135
278 46
173 23
314 43
288 282
333 49
127 42
79 43
296 77
259 110
229 329
156 124
224 158
54 191
81 296
181 93
117 332
142 305
173 320
207 160
195 124
224 168
24 87
303 178
251 137
26 220
258 318
21 224
24 23
248 228
300 198
173 286
255 95
181 160
211 198
10 309
299 91
311 307
143 173
77 118
118 68
256 329
22 227
150 264
156 112
158 60
36 208
48 61
314 278
95 209
144 86
207 180
24 218
65 294
158 39
260 185
192 307
119 40
112 261
214 89
70 211
137 122
90 132
40 64
250 60
45 300
249 135
82 121
228 224
328 254
270 256
128 11
253 195
289 208
215 82
158 160
131 43
251 215
266 279
106 131
151 180
45 254
234 313
156 82
164 178
239 307
143 287
156 174
27 225
311 67
43 58
33 230
23 31
69 154
28 165
279 108
251 5
93 261
56 128
251 207
83 96
304 325
239 311
135 76
90 318
215 47
307 129
131 36
195 232
135 256
243 231
331 161
158 91
222 74
318 21
134 87
76 175
57 48
264 84
244 158
121 209
108 272
332 77
203 46
318 213
299 313
23 123
201 32
222 103
85 135
243 69
207 4
207 209
311 323
134 326
135 45
214 216
249 33
289 113
192 240
93 292
251 39
227 170
81 71
282 206
261 302
128 232
95 214
268 288
146 83
306 39
15 93
248 160
309 252
7 331
146 248
157 277
162 286
4 215
123 258
287 223
318 4
40 251
33 14
311 265
99 59
121 235
114 200
259 272
50 112
194 238
87 192
325 174
69 109
10 277
65 140
298 278
224 2
284 163
103 199
291 159
221 170
151 89
159 114
58 238
167 212
203 42
140 158
283 14
75 145
212 55
4 323
89 23
333 126
86 10
5 114
34 3
6 241
57 92
153 163
187 213
83 213
76 159
229 78
201 95
268 323
22 276
232 76
272 328
299 273
118 241
106 295
263 33
145 221
33 259
32 316
317 283
72 256
50 318
287 224
244 33
263 8
261 11
38 105
20 293
83 150
256 214
48 125
31 44
204 333
42 44
187 270
72 296
325 328
125 94
87 29
201 78
272 208
297 293
287 108
218 275
123 311
108 155
45 123
167 316
185 96
91 79
139 191
306 208
179 47
96 203
122 281
213 151
306 151
134 303
168 321
83 28
4 249
324 267
250 321
185 259
178 230
60 37
163 119
169 105
186 54
59 305
88 251
60 135
122 71
58 285
145 287
165 77
330 23
255 281
8 138
129 30
288 21
72 3
178 42
40 290
183 169
93 247
9 50
150 60
213 61
259 144
60 33
207 272
105 126
43 56
139 245
214 128
144 165
29 156
279 27
3 194
227 195
164 87
295 77
242 251
45 113
81 304
211 317
58 296
84 108
313 230
185 113
4 251
72 175
210 299
168 227
284 251
201 331
210 84
169 199
297 107
81 256
213 210
139 74
8 109
289 168
187 78
88 123
125 282
245 34
34 7
42 46
44 185
133 277
262 249
56 8
247 302
4 250
135 180
184 32
60 176
37 90
94 224
81 214
52 120
258 50
175 68
89 308
259 160
33 144
94 260
281 65
299 217
151 46
102 248
195 94
61 314
220 130
210 238
318 271
31 224
299 135
265 143
9 140
251 238
125 144
255 72
98 302
14 224
55 272
187 329
117 118
30 251
21 317
107 333
125 4
57 69
174 10
320 171
95 303
49 219
59 17
230 201
28 58
22 21
57 225
79 210
14 83
256 21
304 302
181 124
216 69
2 144
134 46
323 321
323 289
296 165
85 84
204 182
75 45
90 165
37 263
261 15
21 215
4 88
326 331
207 238
248 45
83 286
285 158
12 255
128 145
286 55
48 44
121 104
183 105
233 293
300 299
243 250
125 259
238 31
238 311
256 90
186 334
129 89
50 220
314 245
299 63
96 163
238 99
290 332
231 59
47 55
304 130
5 203
279 57
132 314
280 223
154 279
321 158
323 37
333 41
296 311
108 3
201 272
53 309
47 198
250 278
127 46
9 115
123 60
322 2
123 66
283 28
11 4
236 318
15 16
90 87
190 69
251 167
24 13
320 158
143 58
200 260
129 64
155 214
39 167
150 272
254 108
51 104
33 283
158 328
286 176
319 273
218 254
14 132
68 147
170 165
91 232
208 228
313 217
192 178
129 43
81 165
223 145
81 58
125 112
71 60
94 250
251 11
258 193
209 228
308 120
248 259
296 24
323 145
112 254
60 175
319 65
200 314
246 186
270 73
156 250
165 228
17 132
143 117
165 244
84 29
82 251
263 315
58 77
319 121
142 99
70 195
8 215
24 181
196 158
266 146
90 322
167 3
233 6
112 45
239 123
219 257
36 151
5 173
22 50
165 91
57 175
265 246
183 126
259 83
128 42
72 112
254 125
56 55
23 45
72 39
262 281
196 81
328 56
45 17
145 211
145 224
220 112
84 262
43 200
287 232
272 83
310 151
198 150
254 131
65 250
55 167
72 321
136 304
68 273
81 75
144 53
245 181
300 280
123 259
212 179
157 231
214 167
40 192
240 136
304 292
245 247
325 120
282 244
127 295
50 331
12 227
64 71
272 228
245 109
333 169
28 121
54 20
318 177
262 115
284 39
63 130
114 307
258 283
11 79
249 5
198 109
185 88
44 249
95 230
214 33
185 249
249 60
109 24
112 249
190 74
23 44
72 66
117 43
5 170
68 309
190 57
211 221
244 256
170 185
322 14
168 83
310 148
127 168
135 88
209 84
72 185
272 129
56 254
247 141
83 123
116 196
79 46
123 238
199 122
223 249
175 167
26 295
238 217
43 66
242 144
330 250
88 56
242 3
40 255
25 8
202 112
96 159
77 47
154 190
26 63
280 47
96 285
125 117
115 51
286 198
11 43
187 229
94 4
81 90
75 143
33 96
259 170
129 314
312 32
137 104
248 84
246 195
250 249
274 39
259 104
94 132
299 213
220 178
330 319
243 74
193 124
134 290
242 33
96 259
165 83
202 200
282 283
250 258
250 240
133 245
263 233
125 72
11 268
6 293
311 281
117 289
280 170
76 246
31 144
324 260
175 90
140 167
313 200
165 212
188 122
288 213
58 311
332 24
154 231
311 262
108 318
162 131
102 89
40 178
280 33
85 134
241 163
301 99
72 44
230 24
158 106
27 215
42 147
267 262
309 118
208 248
72 123
156 128
203 43
244 77
7 321
223 81
107 334
302 308
305 301
209 8
63 14
241 293
238 216
82 193
26 119
92 6
261 251
136 175
228 2
220 9
262 27
109 309
285 90
302 226
123 283
77 321
250 171
328 140
117 271
284 151
221 239
214 72
84 138
287 214
7 73
169 222
226 284
38 8
267 251
168 106
76 68
268 218
325 88
162 106
322 209
109 89
234 42
248 142
311 231
327 30
184 241
118 138
184 312
132 137
80 213
324 18
181 309
207 228
155 135
144 61
259 3
64 57
158 58
168 259
26 268
292 15
311 28
305 190
16 120
104 61
40 187
88 262
37 295
112 234
103 49
229 200
5 263
260 311
210 201
287 210
226 98
239 287
231 288
311 14
126 169
176 232
28 331
8 84
131 44
264 109
242 296
311 61
254 53
60 84
255 303
90 95
137 165
190 166
84 47
237 302
140 18
308 76
80 245
104 96
201 130
243 225
97 70
162 271
113 179
273 306
283 50
254 82
130 88
262 73
5 265
281 46
4 220
178 187
220 157
108 322
70 138
113 208
254 143
137 158
275 240
37 158
181 231
195 14
158 96
198 155
296 290
229 77
270 325
308 261
123 135
67 60
57 90
91 300
243 57
137 79
220 42
112 218
11 83
40 173
244 137
329 270
213 23
227 88
275 43
261 175
195 97
180 77
48 248
238 88
125 131
214 39
251 203
330 173
312 68
288 208
29 195
332 217
193 174
171 173
83 137
194 167
33 93
166 231
93 36
212 90
223 236
113 117
310 43
238 81
45 121
291 19
309 217
199 126
216 158
56 212
230 112
150 155
160 322
10 286
77 193
47 210
5 223
273 13
75 4
147 150
159 128
230 240
6 62
184 47
100 188
267 311
102 65
47 131
103 126
331 72
109 231
58 196
257 204
4 214
275 201
333 182
303 201
78 184
316 274
78 30
137 325
170 260
84 25
11 295
116 5
213 332
208 108
263 48
156 200
126 49
210 278
67 29
144 81
215 321
223 238
65 21
151 170
142 57
109 84
192 245
150 8
158 165
57 301
265 11
98 245
275 24
174 173
321 227
87 133
311 156
284 175
295 239
166 266
85 60
117 306
130 89
60 151
36 118
151 289
205 6
236 106
286 213
122 311
327 231
269 126
295 228
162 255
305 99
196 300
258 158
244 81
206 229
121 304
251 274
135 167
56 11
248 56
248 258
30 329
169 269
77 128
301 172
198 212
31 198
42 102
96 106
195 32
151 256
299 179
248 83
28 177
306 216
112 200
318 265
270 132
149 197
268 253
193 29
60 4
151 285
290 24
312 229
83 65
163 302
37 251
299 316
102 151
194 5
61 83
88 66
19 51
176 58
112 223
210 31
211 138
65 287
245 24
104 144
95 152
120 65
210 124
79 239
3 116
248 288
35 50
125 287
54 126
304 298
36 94
331 44
7 242
215 127
204 20
250 323
36 319
319 260
27 263
283 318
187 18
7 178
257 197
23 256
12 101
71 97
210 12
160 318
296 137
23 242
143 79
17 31
99 231
112 313
143 17
138 272
179 129
190 231
142 146
57 210
237 98
83 142
137 147
118 320
334 54
260 117
310 330
274 296
134 313
263 53
160 173
130 267
203 316
92 205
150 85
76 191
60 21
286 235
312 119
102 32
106 318
133 313
294 306
165 39
58 180
141 29
140 112
8 264
18 326
202 97
259 227
295 264
123 91
216 75
208 296
101 43
32 281
84 185
140 81
108 116
174 67
65 88
224 227
301 266
155 37
222 297
275 264
216 45
17 314
166 92
68 215
60 318
72 162
102 63
238 86
334 49
128 135
216 26
230 227
268 4
144 231
195 61
223 60
2 289
46 162
308 109
81 311
128 89
286 232
38 25
221 79
238 227
307 57
206 157
115 249
248 138
311 195
48 167
140 58
330 171
129 201
185 60
135 217
311 99
216 79
206 151
39 117
181 139
39 122
84 208
47 175
71 104
114 124
178 146
107 269
16 56
105 69
210 180
105 54
318 37
99 6
258 96
328 82
329 46
127 264
250 136
238 221
135 259
61 212
45 143
95 24
203 260
263 151
188 191
77 53
294 209
232 194
331 200
158 294
298 317
160 170
259 208
4 90
280 58
2 82
101 255
269 183
286 287
288 110
145 210
176 22
299 72
20 126
103 297
309 13
239 45
220 145
86 51
84 121
178 173
167 331
58 239
72 259
288 165
228 83
109 275
220 30
262 63
289 102
101 114
91 251
105 97
306 23
105 242
36 195
253 293
294 289
249 214
111 279
136 141
17 135
158 131
116 94
18 267
95 50
238 231
27 315
252 324
243 136
33 110
122 117
189 80
159 70
254 174
274 87
210 90
5 88
218 133
332 122
215 128
102 44
9 51
68 217
254 268
263 114
21 95
301 74
300 83
207 218
72 82
299 144
277 86
93 153
143 171
90 173
77 251
131 300
78 312
173 38
89 288
179 79
187 189
143 242
133 192
331 290
158 180
137 14
246 35
137 285
316 319
304 308
148 278
321 22
300 193
127 260
275 56
140 165
250 286
217 187
131 48
24 34
226 17
40 281
48 254
236 155
145 11
283 271
223 239
225 92
227 220
106 312
7 311
285 209
33 232
210 295
119 251
228 85
119 268
330 77
180 48
235 117
63 88
249 125
127 314
104 208
265 170
255 87
326 144
52 292
25 299
139 246
259 232
229 32
251 21
307 175
48 194
111 159
17 203
63 295
216 42
123 155
222 20
43 281
118 173
141 52
174 229
244 75
189 312
251 317
220 295
3 251
18 329
72 201
306 251
297 204
75 88
185 8
105 297
165 123
85 251
39 223
96 155
102 249
161 163
208 151
58 198
189 110
84 179
299 294
33 36
113 235
107 257
249 105
327 42
147 318
198 179
194 134
14 314
332 30
131 267
12 299
151 201
246 268
94 203
285 81
61 114
29 231
296 180
4 127
274 321
37 53
181 311
116 288
173 71
215 210
38 242
243 269
18 311
53 287
328 72
205 28
139 124
53 328
14 287
237 89
55 281
150 178
48 55
158 14
25 134
28 148
173 39
224 285
194 206
263 46
214 84
196 285
33 152
130 26
331 144
55 194
326 329
38 90
208 238
263 25
148 316
99 146
193 307
220 230
202 278
213 110
96 11
119 73
200 129
272 210
137 96
206 231
63 44
289 214
265 195
58 286
232 148
295 185
256 299
331 254
68 47
300 328
234 230
42 230
180 60
229 118
125 11
102 238
287 131
71 198
286 263
45 207
95 298
75 251
170 314
71 283
85 45
31 145
60 68
237 88
58 117
55 201
216 83
144 151
193 217
165 326
16 163
8 318
139 156
142 230
230 146
13 181
331 227
121 328
170 91
143 33
201 173
195 77
250 127
251 106
232 248
187 89
323 58
107 246
298 115
307 195
165 196
243 59
104 239
83 37
70 96
314 151
65 25
112 295
263 72
57 157
21 242
146 129
124 307
261 125
178 213
252 218
258 321
119 165
154 166
291 79
77 256
179 322
10 217
162 66
36 181
193 291
299 318
165 125
128 79
89 72
83 251
211 259
258 70
317 258
140 321
179 265
311 3
253 20
266 225
106 45
163 247
328 95
281 310
132 33
247 292
40 122
13 7
223 83
29 17
323 167
300 221
115 155
306 123
34 264
63 235
310 273
222 76
40 68
310 171
290 187
269 219
319 299
285 116
238 316
251 147
212 33
239 331
294 317
86 61
223 155
76 216
180 176
137 88
196 151
208 63
37 145
158 214
230 195
256 209
141 101
16 161
133 80
162 300
254 148
296 38
306 71
97 310
220 22
148 194
84 144
326 250
71 63
292 48
93 152
144 45
162 179
107 183
22 168
320 106
9 102
296 183
131 247
56 228
47 200
288 14
319 143
287 250
50 131
135 96
259 94
287 71
185 14
180 227
61 14
211 3
250 74
55 175
151 255
56 208
88 328
279 231
222 298
238 23
96 283
311 176
155 228
97 314
234 158
224 116
151 44
333 253
60 268
160 131
60 287
224 323
71 295
216 128
193 112
246 54
146 327
201 329
108 158
249 296
47 2
289 185
89 242
295 60
164 134
180 88
61 117
210 250
151 33
325 284
41 199
5 55
120 292
296 307
56 48
131 165
32 275
154 142
21 123
144 254
14 47
88 162
209 151
320 314
131 144
283 185
134 18
229 194
184 332
177 97
108 180
50 24
137 68
246 334
81 137
295 125
256 86
31 155
226 59
178 316
148 111
68 139
212 117
221 310
57 252
46 95
198 311
5 72
278 162
254 121
5 193
242 102
103 169
238 158
178 57
190 92
138 47
36 152
17 127
61 4
239 112
24 45
29 14
218 192
195 207
308 136
232 55
123 50
174 218
71 165
162 314
230 109
140 82
247 304
124 19
239 44
247 64
113 283
324 254
93 163
48 10
223 184
76 139
158 104
110 332
151 307
259 268
91 106
288 303
162 95
71 137
287 3
290 240
83 88
192 36
157 154
1 52
307 184
224 7
255 328
130 228
331 272
140 79
286 311
238 228
2 160
119 132
94 129
77 320
55 2
133 309
12 43
286 148
259 210
259 65
37 77
79 112
175 178
55 83
63 42
24 309
258 187
320 53
313 34
268 280
185 328
221 299
309 275
239 238
229 110
227 215
77 71
303 316
5 45
28 127
112 328
199 253
232 7
301 142
28 96
285 244
190 205
292 318
47 78
106 40
204 169
318 209
331 168
227 167
65 232
242 264
311 280
295 249
191 100
75 211
4 230
106 165
176 276
318 56
123 80
281 151
155 58
76 64
234 134
140 51
63 140
24 276
293 35
27 166
160 227
284 77
98 325
248 326
298 74
158 256
131 249
208 307
136 302
260 17
111 177
184 181
306 256
130 262
288 258
311 145
238 144
129 331
53 22
55 7
72 88
131 295
181 152
119 45
259 288
228 11
265 280
107 186
129 151
127 203
51 307
25 319
325 245
220 128
184 281
165 45
65 286
213 45
296 151
314 255
86 70
57 205
31 63
72 268
142 4
260 151
14 156
256 104
215 50
285 37
242 63
275 34
97 47
249 244
133 207
124 229
108 4
43 135
13 109
229 290
212 63
298 139
270 85
141 288
257 20
65 215
193 177
131 4
206 175
254 83
165 312
286 79
311 63
250 124
4 259
307 19
107 49
68 201
46 152
218 109
50 12
180 47
250 125
14 84
74 278
305 231
61 307
10 263
299 31
198 84
124 291
253 265
88 286
300 185
298 81
276 178
187 331
44 323
104 173
44 200
307 173
47 229
210 198
20 269
8 237
5 123
145 259
112 82
40 32
176 88
317 108
290 18
98 247
281 329
271 70
104 324
2 223
303 46
183 334
70 294
60 323
334 293
311 83
175 65
303 115
148 268
242 306
193 195
12 90
117 299
27 132
23 295
77 138
258 168
234 53
127 331
89 71
17 97
240 109
260 7
213 91
185 151
36 307
128 65
323 9
138 228
306 13
199 54
137 223
294 90
192 277
314 70
314 131
168 220
318 65
140 23
231 31
259 317
316 10
259 282
230 46
201 115
43 127
112 56
92 69
156 77
332 273
74 283
280 165
26 84
71 317
195 151
60 45
112 104
316 275
76 33
307 178
44 289
210 288
260 132
83 281
212 285
318 193
234 202
324 311
240 296
48 178
224 44
282 248
1 141
317 2
243 190
245 87
215 328
295 4
328 214
13 34
155 211
267 224
139 80
124 4
35 282
2 221
70 114
9 331
128 113
47 267
140 37
60 210
3 145
12 158
245 277
92 305
88 282
200 230
117 213
303 251
18 7
66 44
3 265
59 57
306 113
83 4
72 11
27 69
323 151
57 129
148 119
333 199
251 150
77 311
242 183
256 61
244 214
70 255
207 81
256 295
30 146
249 66
62 305
247 325
300 24
88 323
31 323
24 252
125 248
207 199
156 127
326 137
66 26
207 94
167 242
24 240
23 320
216 71
279 69
210 144
258 65
173 137
155 3
270 119
311 96
217 178
266 154
85 46
13 26
47 86
164 92
254 60
79 147
148 167
74 248
279 23
80 288
282 293
144 48
17 310
329 40
23 111
91 286
31 135
75 192
134 264
66 17
290 312
156 56
105 204
288 295
299 306
249 72
280 88
227 96
56 268
116 113
25 155
61 94
230 255
313 31
235 249
121 69
328 230
200 66
14 145
144 195
45 39
5 179
139 133
181 34
238 286
198 38
52 161
83 99
11 143
303 152
57 132
293 183
185 318
5 96
198 323
277 266
33 287
263 167
330 143
185 117
295 318
247 261
133 148
87 264
173 260
176 131
140 88
288 72
63 268
245 13
25 150
83 282
193 61
269 333
323 262
68 329
160 122
231 301
247 174
281 124
268 174
87 309
4 146
228 227
255 43
56 295
64 235
170 131
323 39
96 230
143 221
165 300
68 332
8 208
57 99
91 131
7 324
89 216
153 148
36 178
254 65
14 214
56 292
7 165
85 178
265 47
331 165
178 332
67 71
200 105
85 155
36 230
238 91
294 250
296 224
107 169
156 210
235 21
63 145
270 258
215 77
151 242
82 321
236 158
228 267
7 168
316 210
251 321
222 105
3 275
21 128
268 151
285 283
3 223
263 132
55 248
194 88
69 231
214 60
160 223
277 139
7 146
212 294
72 79
166 225
168 314
319 250
53 121
68 27
196 45
135 2
187 5
146 164
289 328
299 324
52 226
151 117
116 211
249 100
131 77
289 259
304 261
22 320
37 88
184 40
39 5
272 81
47 164
103 20
74 136
159 258
284 161
21 155
49 269
179 196
321 160
128 76
16 308
125 193
213 256
117 155
80 277
86 80
140 260
246 222
258 294
331 215
194 321
283 177
31 158
263 55
271 114
148 173
278 123
282 196
295 130
47 158
168 65
259 223
278 106
77 232
116 282
317 37
181 31
63 278
177 307
303 237
177 124
279 225
55 71
67 121
145 262
59 279
7 10
148 324
70 221
66 119
296 168
215 124
85 17
208 299
165 238
4 81
253 126
259 294
285 210
308 93
57 305
11 82
57 315
180 259
294 235
140 115
60 79
128 131
40 139
300 213
219 334
221 258
11 21
296 155
135 33
280 75
135 236
29 311
61 323
144 316
21 29
271 307
273 87
310 36
238 135
297 199
71 128
155 235
181 275
7 148
40 332
169 49
94 238
282 165
314 260
74 282
332 64
312 30
205 99
17 119
14 212
8 95
238 287
85 298
129 181
71 21
215 95
163 175
104 328
145 113
214 306
40 30
162 283
114 55
317 278
11 156
106 314
260 267
109 38
55 65
56 77
37 151
232 220
113 102
267 30
191 20
266 231
21 39
329 151
248 144
213 101
232 145
76 122
223 179
220 12
137 91
268 88
65 171
288 158
285 208
108 185
21 211
323 239
210 56
167 10
112 195
280 81
96 224
67 53
195 268
82 267
244 295
179 116
161 226
147 128
316 194
309 240
89 88
229 40
96 251
43 68
101 281
228 251
42 152
180 106
54 269
83 271
3 224
259 88
66 129
20 107
90 29
132 315
235 102
332 39
148 26
26 9
88 210
85 300
143 310
19 177
