Vertices 275
123 "#21"
221 "#78"
47 "#25"
6 "#170"
222 "#255"
208 "#44"
33 "#114"
264 "#96"
101 "#95"
90 "#244"
41 "#98"
154 "#185"
43 "#216"
60 "#67"
31 "#150"
137 "#261"
232 "#107"
169 "#48"
72 "#8"
195 "#238"
103 "#152"
207 "#90"
57 "#71"
202 "#32"
51 "#33"
136 "#270"
29 "#9"
139 "#187"
150 "#199"
54 "#38"
73 "#77"
131 "#159"
165 "#72"
147 "#66"
241 "#13"
20 "#81"
59 "#84"
89 "#6"
122 "#57"
177 "#39"
75 "#231"
39 "#218"
125 "#160"
112 "#259"
114 "#226"
242 "#179"
62 "#11"
93 "#196"
198 "#186"
77 "#194"
269 "#212"
176 "#133"
231 "#256"
61 "#102"
210 "#128"
120 "#174"
196 "#213"
164 "#272"
49 "#105"
45 "#227"
127 "#51"
36 "#146"
215 "#115"
132 "#139"
228 "#195"
135 "#42"
211 "#3"
4 "#54"
173 "#269"
87 "#167"
134 "#177"
37 "#219"
247 "#50"
240 "#63"
128 "#164"
237 "#176"
171 "#142"
239 "#192"
249 "#122"
119 "#193"
121 "#23"
38 "#175"
220 "#265"
182 "#116"
153 "#40"
83 "#144"
145 "#2"
110 "#5"
170 "#220"
205 "#101"
9 "#248"
178 "#200"
76 "#1"
193 "#235"
166 "#24"
234 "#19"
238 "#250"
92 "#211"
82 "#41"
244 "#165"
68 "#273"
216 "#110"
55 "#198"
94 "#148"
18 "#258"
64 "#73"
46 "#106"
130 "#29"
219 "#225"
209 "#7"
179 "#70"
271 "#56"
99 "#229"
34 "#34"
118 "#27"
146 "#108"
260 "#263"
80 "#147"
78 "#189"
113 "#132"
142 "#14"
141 "#0"
268 "#209"
8 "#206"
181 "#69"
204 "#86"
144 "#97"
227 "#163"
229 "#252"
66 "#274"
192 "#75"
189 "#222"
272 "#243"
115 "#20"
133 "#55"
1 "#257"
201 "#253"
270 "#126"
138 "#47"
13 "#118"
42 "#197"
14 "#117"
267 "#62"
17 "#207"
235 "#82"
16 "#182"
40 "#92"
107 "#157"
74 "#137"
168 "#264"
218 "#205"
25 "#208"
88 "#74"
53 "#18"
28 "#103"
3 "#61"
253 "#119"
255 "#120"
95 "#37"
30 "#28"
159 "#260"
140 "#94"
213 "#168"
167 "#31"
19 "#246"
26 "#91"
233 "#93"
199 "#271"
251 "#140"
230 "#123"
161 "#169"
175 "#158"
2 "#228"
151 "#153"
184 "#112"
23 "#125"
236 "#135"
12 "#113"
256 "#109"
84 "#191"
85 "#121"
203 "#134"
252 "#16"
98 "#230"
257 "#172"
223 "#236"
248 "#85"
44 "#242"
22 "#254"
258 "#183"
226 "#237"
254 "#149"
24 "#162"
63 "#240"
183 "#49"
11 "#65"
214 "#184"
245 "#15"
162 "#46"
188 "#17"
274 "#88"
32 "#76"
86 "#223"
58 "#180"
52 "#68"
190 "#266"
157 "#129"
50 "#156"
259 "#124"
275 "#203"
116 "#161"
197 "#217"
191 "#12"
194 "#155"
7 "#4"
10 "#154"
148 "#79"
156 "#245"
187 "#43"
109 "#80"
174 "#233"
15 "#59"
163 "#30"
100 "#127"
102 "#58"
97 "#136"
67 "#262"
273 "#52"
91 "#64"
225 "#166"
261 "#221"
149 "#202"
246 "#249"
185 "#171"
186 "#214"
265 "#181"
79 "#204"
81 "#138"
160 "#173"
200 "#190"
70 "#89"
243 "#224"
152 "#83"
217 "#178"
263 "#104"
21 "#26"
126 "#247"
105 "#241"
155 "#131"
56 "#145"
224 "#111"
117 "#268"
71 "#234"
206 "#188"
111 "#239"
69 "#151"
158 "#215"
180 "#100"
212 "#53"
266 "#22"
250 "#267"
262 "#36"
27 "#99"
5 "#201"
108 "#232"
35 "#35"
48 "#143"
124 "#210"
96 "#130"
172 "#251"
129 "#10"
106 "#60"
65 "#141"
143 "#87"
104 "#45"
Edges
8 86
66 199
241 167
43 114
47 211
255 224
161 213
23 125
29 145
184 46
22 159
34 30
121 258
106 72
197 110
104 202
138 233
256 223
212 245
241 172
202 72
55 84
237 94
94 273
221 20
248 204
80 103
7 21
30 129
126 69
157 132
180 257
189 69
62 235
83 218
256 232
129 130
72 166
135 121
193 108
83 157
132 51
189 170
182 42
13 188
202 41
212 211
32 235
17 170
266 7
253 255
148 177
53 47
228 59
130 7
175 91
191 115
166 21
153 163
151 64
182 270
126 63
179 32
258 147
245 51
127 132
109 235
84 104
32 4
124 196
165 188
244 131
101 7
262 40
46 247
30 7
187 163
3 183
146 80
179 47
15 233
138 20
26 53
20 152
262 144
119 218
75 33
158 43
126 226
262 186
165 52
1 250
32 192
170 115
244 194
195 33
21 96
155 74
20 165
273 212
256 194
129 58
211 97
241 191
110 7
120 162
138 127
216 157
15 256
223 98
180 147
15 122
132 155
53 258
97 74
59 88
118 119
252 240
37 197
215 203
144 236
53 3
27 100
36 102
223 251
102 12
181 210
252 167
188 73
16 217
222 136
268 81
151 56
181 275
123 54
5 275
80 42
105 156
20 57
55 275
274 153
54 222
86 243
56 69
74 15
165 88
109 20
81 205
33 133
215 146
185 180
94 65
75 248
242 217
41 153
11 95
116 213
270 230
234 191
105 223
212 7
86 218
222 130
53 135
235 221
264 7
271 209
132 97
39 186
144 153
257 214
109 48
237 185
165 138
262 263
245 36
3 235
164 222
104 89
48 213
233 143
53 51
101 275
181 177
157 44
218 239
135 209
6 258
199 168
141 245
263 49
262 188
127 4
206 84
205 179
57 130
204 207
29 234
126 44
114 186
44 45
6 214
29 266
191 59
147 262
255 14
164 68
64 53
53 151
226 272
59 197
267 225
202 76
50 194
96 203
264 51
32 27
80 152
274 26
165 15
271 274
265 120
65 103
21 35
166 85
2 174
229 120
70 104
53 235
24 116
214 81
102 191
212 53
245 163
132 113
240 107
241 240
163 101
115 167
101 140
154 194
50 140
274 70
263 115
62 133
236 130
267 102
3 115
254 56
241 35
52 49
136 22
117 165
102 224
120 198
171 36
37 86
214 247
66 238
202 127
177 112
248 189
169 122
40 162
7 262
184 115
107 87
209 47
151 241
189 261
92 261
272 108
72 187
200 218
150 205
83 7
146 77
163 135
146 268
53 123
40 48
55 139
125 194
123 183
198 134
135 72
252 59
130 252
176 97
12 127
150 52
162 150
134 217
30 255
16 194
23 84
269 184
86 39
212 15
119 125
29 95
104 245
36 151
109 144
123 135
10 24
79 77
246 9
152 109
86 219
234 53
241 4
83 86
243 261
162 234
232 122
176 155
139 5
155 203
67 137
70 175
30 266
211 74
27 12
62 34
83 214
121 104
225 115
216 214
13 163
258 36
221 12
171 94
210 203
4 83
212 132
28 27
85 259
20 122
210 85
256 46
127 177
263 125
119 15
5 239
267 221
15 150
40 88
29 39
123 7
3 179
61 41
96 132
260 117
53 96
127 129
174 19
205 87
169 26
85 182
248 28
209 240
182 115
177 16
140 205
72 273
166 177
138 134
183 94
41 91
104 85
153 247
40 98
15 109
77 78
42 234
181 129
182 180
202 91
110 181
27 106
224 138
7 271
51 123
91 73
187 135
217 111
154 120
70 212
181 53
76 266
247 150
127 80
59 23
96 97
63 174
266 65
97 91
113 197
128 131
18 168
42 262
241 146
39 266
94 118
209 19
6 42
21 143
120 122
191 11
59 130
206 244
191 180
167 262
208 100
181 34
260 238
92 169
223 63
62 122
124 269
193 71
53 169
58 119
255 175
120 231
260 222
153 61
262 101
157 134
4 162
102 247
7 252
232 263
56 109
188 29
166 100
218 189
48 204
204 191
168 190
72 123
36 240
241 218
29 86
34 47
67 199
23 11
115 4
267 64
161 173
86 189
57 32
162 34
212 241
210 183
125 131
123 35
65 171
210 167
257 58
185 258
245 169
82 52
47 234
57 62
221 152
70 181
201 136
100 81
92 219
4 97
166 7
273 236
22 190
9 223
15 118
169 255
74 247
2 223
183 273
212 88
127 29
205 34
121 95
126 218
97 155
82 60
54 188
260 164
40 47
182 81
211 252
78 139
94 103
1 231
256 33
239 119
122 116
112 199
40 116
162 205
96 151
94 208
10 77
3 88
146 224
70 233
95 241
3 222
34 214
244 132
23 215
29 146
15 236
131 57
83 65
39 243
139 119
14 85
99 109
71 20
195 34
59 20
26 32
102 15
28 180
261 219
138 247
275 158
244 225
187 202
41 180
79 113
193 38
76 245
161 128
83 31
33 34
252 166
255 92
8 7
52 115
190 229
37 170
148 235
227 87
245 211
22 222
167 235
247 121
177 169
166 141
232 102
268 216
82 110
68 137
12 232
66 22
243 92
234 161
96 81
53 233
198 110
59 270
93 176
149 128
143 274
127 23
146 10
10 225
117 190
202 35
140 16
141 177
201 231
236 182
170 243
169 60
60 135
48 116
264 158
182 259
51 162
120 266
87 65
102 273
26 209
255 270
271 252
169 72
3 40
124 3
99 261
40 237
70 184
112 155
130 131
74 102
85 70
41 208
21 122
204 274
19 246
188 166
143 58
163 273
87 131
83 251
128 194
183 187
95 115
150 206
104 181
241 97
101 41
222 220
51 228
120 244
236 210
233 23
104 208
249 85
191 106
224 270
52 262
53 274
130 52
147 115
107 8
51 241
217 257
82 183
121 32
191 30
273 208
126 272
89 112
273 240
103 36
62 208
143 177
176 203
245 235
252 3
84 150
134 39
62 15
269 196
266 138
221 163
161 177
89 101
49 150
15 47
7 62
271 82
232 75
257 182
132 3
113 272
46 216
245 147
124 86
130 151
21 89
51 70
52 80
250 66
235 95
68 238
174 98
208 247
25 37
133 29
72 26
151 23
124 8
273 122
129 143
164 66
11 106
243 268
45 58
212 141
259 184
231 75
133 15
229 173
23 181
212 187
42 11
123 151
28 140
6 3
83 236
60 177
182 142
122 235
263 137
171 83
181 89
10 147
201 238
72 59
78 218
177 110
198 265
243 219
24 122
72 232
9 112
131 225
218 5
107 38
131 259
167 127
109 167
9 126
183 25
8 110
23 188
56 48
241 80
81 240
123 11
238 1
59 46
152 52
143 174
98 2
227 123
99 56
24 268
263 184
77 49
12 34
64 46
115 260
16 155
110 245
122 217
176 74
30 80
88 57
97 202
148 20
237 6
181 266
144 246
240 34
215 253
92 186
51 20
41 151
80 163
235 85
156 19
53 118
77 218
213 268
267 263
110 266
17 84
182 210
137 108
21 30
128 3
34 187
101 147
222 117
53 187
211 209
15 53
221 208
231 67
239 79
252 256
122 29
121 234
86 261
23 221
133 157
118 157
261 269
102 145
40 233
206 149
120 108
245 215
30 62
180 13
7 49
127 185
167 76
212 104
184 91
188 64
264 252
119 85
28 110
27 217
70 91
249 256
157 141
70 30
116 252
72 148
44 226
170 219
101 42
102 130
147 153
124 194
86 177
146 151
94 134
61 247
84 218
197 261
267 274
263 146
34 100
34 127
74 180
148 29
142 15
5 228
106 235
146 21
220 201
71 80
205 163
253 85
269 91
118 252
209 34
135 11
13 202
51 110
274 242
240 3
132 100
200 206
67 190
52 62
197 219
40 19
192 72
224 263
181 49
7 81
248 48
148 110
35 50
140 41
273 132
235 51
275 119
95 208
192 91
224 27
53 85
170 182
240 180
150 258
54 177
162 106
26 70
21 82
146 230
217 247
212 148
70 141
206 218
233 41
88 179
131 227
128 186
274 49
185 198
259 255
196 41
86 126
124 247
104 81
141 88
195 130
149 29
115 241
51 127
241 104
236 13
39 269
271 62
127 52
38 242
130 262
222 177
98 204
142 252
8 49
96 148
10 230
101 28
132 209
54 245
23 230
176 48
228 239
240 183
139 247
214 179
264 42
129 106
266 148
184 215
219 268
233 207
259 21
245 187
233 123
89 110
183 95
30 224
251 207
239 181
185 265
111 44
128 10
12 245
231 18
154 265
60 126
74 210
53 245
84 139
104 14
145 51
167 62
91 267
170 39
203 74
261 170
212 203
179 29
81 236
213 160
211 122
260 22
120 65
13 80
119 3
224 143
57 52
147 89
214 146
169 62
272 79
188 271
23 36
35 208
75 195
150 200
253 270
178 5
228 218
241 244
91 211
188 148
260 3
109 155
79 257
214 235
245 224
29 70
155 161
47 155
82 262
70 24
21 235
124 139
81 14
224 232
233 274
79 150
148 59
147 61
11 7
234 25
252 40
162 210
265 149
227 116
133 181
223 65
214 191
48 252
41 212
80 83
30 27
196 39
237 32
21 129
58 101
108 19
212 151
36 64
54 83
270 259
18 67
95 162
202 48
197 251
134 29
81 38
179 89
49 110
155 15
53 115
54 127
23 275
226 108
177 129
207 21
43 8
59 28
21 208
66 229
14 154
183 7
35 146
257 120
240 169
154 214
245 273
266 244
56 166
35 91
34 163
32 209
252 33
49 216
2 193
134 265
208 89
73 53
252 147
252 27
165 121
219 37
73 245
152 71
188 181
20 191
85 255
255 249
158 200
103 151
215 73
241 118
254 65
52 144
81 157
210 262
177 266
47 271
188 160
127 53
57 195
158 167
59 106
59 35
191 72
165 271
119 149
120 217
187 273
182 230
158 183
53 205
3 35
24 128
264 140
182 29
199 117
76 166
98 19
35 240
203 4
73 235
109 187
150 169
40 207
147 102
33 263
112 222
107 10
24 216
113 176
146 256
215 112
146 210
97 203
153 109
42 7
194 213
206 228
40 119
118 232
29 21
221 91
177 4
155 113
31 209
160 116
125 128
210 211
72 270
34 89
225 161
100 252
109 148
253 230
256 273
258 214
74 166
101 129
103 83
188 212
240 87
40 211
118 47
271 247
159 250
258 198
166 241
139 206
17 261
235 120
107 205
204 143
137 117
155 210
179 162
179 150
239 77
166 70
34 81
225 9
4 245
64 215
246 2
54 104
138 46
45 139
57 165
104 162
24 214
202 216
267 53
188 82
94 129
244 32
97 5
241 143
70 207
36 150
212 167
142 110
109 115
143 232
163 96
123 130
202 262
15 183
181 125
53 14
30 147
161 10
39 114
84 20
108 71
202 135
224 49
212 50
52 3
14 249
187 236
115 128
221 148
54 138
95 62
182 15
15 7
92 24
108 44
180 3
214 120
122 73
89 153
52 109
30 169
192 88
147 191
72 274
34 51
274 109
127 144
208 202
40 248
29 20
4 176
58 75
137 231
104 273
130 234
248 209
103 56
15 69
110 104
115 27
36 147
1 117
137 259
70 43
218 139
94 236
21 177
242 198
136 190
194 176
14 267
3 120
266 122
259 151
45 272
29 89
94 217
49 188
234 233
51 26
153 101
225 125
141 169
88 52
3 15
166 266
84 33
12 49
240 54
209 208
122 147
21 251
109 64
254 3
204 88
36 273
254 44
133 182
29 57
92 86
269 245
233 102
266 59
52 271
45 226
19 126
149 7
237 157
26 47
247 109
47 169
143 70
11 59
147 138
71 19
68 18
191 267
213 142
188 211
234 272
190 222
266 211
266 87
269 219
262 267
23 21
138 188
208 34
262 11
68 231
143 72
95 34
237 175
3 165
115 185
267 41
124 37
254 141
37 269
187 162
193 81
34 132
132 50
232 94
223 174
252 35
93 97
138 71
188 122
197 39
223 113
106 187
7 162
143 270
138 141
91 245
163 162
65 188
145 82
163 35
128 262
49 15
71 105
236 42
71 246
247 191
267 153
161 227
154 217
210 49
137 229
241 263
129 169
188 266
125 115
97 179
138 39
138 252
143 26
161 50
202 89
240 163
191 252
42 115
61 177
121 153
49 46
215 36
205 7
254 99
21 164
165 208
269 186
222 168
227 225
190 173
273 60
83 73
34 268
110 162
34 150
92 170
239 23
4 106
150 5
119 84
118 234
119 195
274 181
21 60
135 70
23 64
71 223
240 104
64 247
262 273
234 104
118 205
248 58
214 198
100 96
252 47
130 202
265 214
122 180
91 64
204 40
152 3
185 120
130 104
116 177
83 132
21 222
180 140
247 3
210 144
53 210
54 214
150 120
87 12
166 143
123 23
81 246
133 271
223 44
62 245
9 57
167 181
202 248
120 6
252 232
271 11
96 101
158 8
11 206
116 120
190 66
212 221
264 138
180 12
18 199
148 264
123 177
101 264
162 58
176 210
220 229
269 211
47 7
4 15
133 34
98 248
170 4
148 27
115 187
97 81
20 244
35 177
176 256
69 254
215 177
207 143
137 199
179 255
96 27
155 157
169 274
144 274
237 99
243 213
67 222
189 83
234 82
262 62
245 202
51 133
83 128
180 205
275 125
255 96
54 112
35 51
224 179
85 275
37 251
210 191
54 72
21 210
247 267
108 45
6 257
36 132
173 220
240 127
170 114
62 146
96 210
67 164
272 9
82 62
145 121
30 252
64 144
151 101
40 15
173 66
66 68
212 258
182 14
65 80
95 60
30 12
130 127
252 262
142 219
188 104
204 176
244 122
87 127
94 247
177 89
213 203
144 247
203 241
127 252
18 250
150 51
115 54
234 110
90 193
177 134
30 102
189 161
118 115
29 235
106 211
94 83
252 75
23 234
188 72
201 173
122 231
1 164
100 218
175 24
151 273
167 202
202 10
1 112
271 169
65 256
132 27
186 124
92 39
22 238
122 148
210 97
152 59
164 155
252 194
187 177
224 58
3 144
208 212
127 241
103 48
119 224
132 241
181 85
80 144
127 11
9 108
181 202
180 267
145 234
167 91
64 61
271 35
138 152
115 234
83 57
156 118
23 245
165 32
67 1
181 119
21 37
96 233
51 129
270 249
31 204
122 60
262 169
177 28
274 40
69 251
130 249
258 102
41 205
62 26
17 113
25 261
72 121
122 185
221 35
29 212
21 261
2 108
110 83
129 27
113 210
263 26
21 101
32 106
267 35
271 3
240 130
8 261
118 75
241 85
60 163
11 183
166 53
59 206
51 248
264 127
150 240
138 166
214 268
236 249
3 42
8 34
138 12
210 240
254 15
215 115
168 137
107 124
11 133
174 71
183 252
177 164
126 108
40 195
79 52
62 73
267 3
87 194
179 64
271 179
115 244
271 49
212 266
82 147
201 168
232 216
80 171
179 209
67 250
273 7
53 25
180 163
191 153
161 194
47 241
271 57
64 123
163 129
58 139
227 10
245 7
123 91
4 121
74 150
183 53
192 57
186 170
70 88
194 140
61 132
266 12
61 51
147 167
102 208
116 194
64 239
208 217
252 245
11 188
129 217
190 220
100 97
171 103
211 37
29 81
79 15
32 40
270 127
122 100
115 89
239 149
213 111
106 95
232 138
169 35
225 254
86 134
147 183
86 266
129 118
74 232
246 193
212 177
205 47
23 270
57 64
66 220
244 127
103 21
219 194
85 125
137 75
15 94
180 80
53 191
52 167
162 262
145 165
79 211
215 240
155 212
205 30
245 138
271 88
163 255
147 185
209 202
252 188
51 152
47 163
169 118
95 245
55 78
179 57
195 162
61 205
66 117
147 41
177 144
132 208
182 243
177 92
246 108
94 106
262 183
27 110
101 122
30 237
169 252
156 217
116 202
91 104
219 3
207 26
220 168
179 183
222 137
86 43
123 87
216 263
221 109
160 256
183 167
156 126
119 196
3 236
30 143
105 19
92 189
131 194
20 204
47 152
272 44
212 264
169 59
157 96
147 224
215 81
167 166
152 148
189 126
146 208
169 57
235 61
181 271
144 54
88 46
211 95
128 175
84 59
200 84
9 195
263 131
149 120
140 217
115 262
132 235
132 176
52 7
153 138
156 71
131 161
214 16
164 112
49 208
167 217
235 4
13 209
26 40
145 241
215 188
138 80
107 127
188 4
99 9
166 47
26 131
98 236
268 142
231 108
240 118
202 247
46 263
153 32
16 154
205 241
47 27
37 257
120 205
36 188
120 247
153 102
203 268
221 27
154 182
35 188
62 60
35 57
183 162
95 20
256 184
3 166
270 122
209 20
199 136
165 29
247 179
257 211
233 74
194 27
59 57
135 130
139 219
185 134
102 138
36 169
248 252
5 4
134 237
1 199
83 49
127 148
208 81
62 21
185 6
169 102
177 130
47 87
185 241
53 241
31 57
30 47
42 41
74 122
4 138
124 34
217 174
99 144
210 187
216 109
150 119
37 196
209 130
212 85
156 44
13 205
22 117
230 237
209 127
122 102
94 221
66 165
175 30
48 151
244 185
274 216
94 157
50 131
193 98
15 138
122 30
56 36
264 262
56 171
163 191
82 30
272 152
29 177
51 181
143 179
230 255
191 3
21 211
234 274
241 169
102 29
147 107
177 236
103 254
264 27
271 187
54 130
256 35
189 17
109 253
29 82
177 24
149 254
161 248
166 208
84 78
273 96
29 15
236 183
104 180
59 221
53 145
240 208
89 166
190 182
236 205
250 231
110 29
205 175
30 212
237 118
62 110
139 77
243 37
234 188
221 41
53 163
207 37
17 223
59 73
212 47
87 244
169 258
138 74
20 116
99 246
13 118
60 264
2 71
73 64
156 224
85 215
17 92
56 94
130 191
144 7
30 59
146 184
252 202
12 208
194 3
262 131
12 107
73 192
143 101
22 231
157 203
162 192
177 184
162 273
203 187
4 221
163 107
196 86
66 67
204 131
151 59
49 232
259 215
158 96
53 102
231 164
34 216
184 232
237 255
168 136
234 30
147 12
257 185
248 177
157 210
14 266
162 11
24 184
197 99
12 212
134 242
94 254
204 259
218 150
180 118
109 59
230 77
61 202
197 28
115 127
266 134
85 60
232 270
115 180
104 163
183 181
238 231
167 240
263 20
37 186
271 208
259 48
221 254
104 187
87 120
167 101
229 108
122 69
241 188
174 193
116 70
202 70
188 264
118 191
217 6
35 176
101 130
33 46
211 24
264 144
188 162
32 245
80 236
33 17
195 84
240 267
171 251
188 208
147 169
95 118
14 101
214 242
15 167
209 7
205 237
64 245
7 29
133 154
60 34
2 9
214 185
265 16
177 259
240 12
110 188
60 138
62 165
59 166
231 229
58 21
21 48
244 228
143 47
75 84
259 58
263 256
31 48
177 51
163 7
118 134
12 224
212 80
150 77
181 11
204 166
264 237
40 57
41 3
13 47
275 200
106 221
252 36
61 46
24 107
244 11
110 132
259 101
219 203
11 228
104 258
3 91
96 59
258 120
93 78
214 3
135 145
152 25
177 189
17 197
254 157
70 177
73 233
250 164
29 142
32 109
252 273
248 116
62 141
6 32
122 72
54 4
3 241
212 79
66 1
21 215
29 51
134 38
116 149
30 91
71 44
133 208
262 248
130 259
104 24
123 3
88 131
191 235
16 258
202 46
34 107
210 54
79 226
81 216
271 73
47 273
211 166
26 248
185 217
212 4
54 262
215 164
141 26
84 24
128 50
35 30
143 263
153 11
129 152
32 64
183 96
177 210
223 246
132 152
234 152
249 215
104 133
215 14
110 271
170 268
50 125
98 9
59 76
40 209
2 139
70 129
65 249
225 3
58 195
236 41
90 71
127 212
167 53
155 177
191 162
80 151
197 223
156 174
263 188
261 37
225 262
171 151
101 158
123 52
113 81
162 198
269 86
32 211
71 9
43 261
187 121
246 237
47 8
62 89
89 14
39 261
27 146
156 141
42 170
196 197
63 19
139 37
65 21
273 12
24 34
37 39
100 241
162 119
155 56
68 1
117 67
211 162
121 271
128 197
256 21
204 59
19 2
232 15
11 270
53 49
271 122
142 36
184 216
184 224
226 113
192 165
132 148
44 9
167 187
45 2
30 52
179 210
27 101
99 44
13 104
47 109
5 176
170 86
221 247
60 241
104 271
219 124
274 207
255 101
62 212
27 94
250 22
138 29
21 52
251 65
73 85
225 263
274 205
240 13
263 259
160 212
19 204
183 135
58 34
265 254
44 141
206 24
171 254
46 232
239 275
78 206
54 29
191 263
143 217
156 75
232 156
62 29
141 60
253 13
91 15
14 151
113 74
132 151
255 205
140 154
118 3
111 193
128 219
188 146
231 66
240 132
184 245
88 64
105 216
19 223
