*Vertices 303
138 "#170"
37 "#148"
162 "#122"
77 "#100"
219 "#204"
141 "#83"
262 "#154"
59 "#35"
92 "#267"
181 "#235"
72 "#282"
277 "#251"
101 "#97"
229 "#266"
232 "#163"
241 "#101"
65 "#164"
280 "#217"
23 "#288"
223 "#38"
56 "#263"
111 "#147"
46 "#15"
298 "#179"
71 "#155"
174 "#7"
119 "#181"
237 "#280"
61 "#254"
88 "#33"
64 "#53"
31 "#206"
278 "#80"
213 "#81"
148 "#84"
29 "#233"
22 "#209"
198 "#247"
285 "#203"
200 "#160"
12 "#71"
131 "#213"
260 "#173"
170 "#191"
54 "#24"
186 "#44"
236 "#256"
80 "#49"
103 "#2"
126 "#79"
189 "#207"
272 "#103"
172 "#70"
296 "#227"
118 "#132"
269 "#12"
286 "#152"
79 "#117"
251 "#249"
249 "#39"
44 "#48"
30 "#238"
4 "#140"
99 "#64"
227 "#178"
122 "#222"
282 "#77"
155 "#225"
120 "#60"
222 "#133"
294 "#269"
196 "#205"
195 "#82"
250 "#157"
14 "#107"
230 "#188"
263 "#150"
19 "#262"
21 "#95"
182 "#252"
140 "#196"
258 "#62"
102 "#260"
176 "#208"
256 "#279"
53 "#17"
156 "#172"
234 "#134"
134 "#202"
67 "#10"
188 "#302"
290 "#67"
132 "#112"
76 "#153"
60 "#8"
257 "#16"
255 "#109"
58 "#55"
8 "#47"
69 "#298"
83 "#200"
242 "#226"
55 "#242"
7 "#127"
124 "#74"
100 "#241"
261 "#219"
139 "#224"
233 "#171"
180 "#182"
105 "#149"
36 "#223"
299 "#283"
293 "#300"
125 "#176"
179 "#86"
2 "#45"
117 "#87"
266 "#257"
48 "#231"
275 "#88"
89 "#143"
106 "#13"
231 "#168"
166 "#295"
16 "#250"
240 "#199"
17 "#28"
273 "#105"
104 "#30"
228 "#232"
10 "#180"
26 "#299"
109 "#218"
163 "#94"
146 "#34"
295 "#108"
244 "#40"
197 "#185"
270 "#194"
57 "#290"
254 "#137"
300 "#229"
147 "#54"
271 "#216"
279 "#151"
94 "#167"
281 "#278"
150 "#123"
201 "#126"
115 "#246"
303 "#18"
47 "#270"
288 "#292"
82 "#52"
25 "#99"
297 "#144"
301 "#276"
216 "#259"
84 "#141"
143 "#183"
221 "#190"
96 "#138"
13 "#20"
3 "#102"
168 "#215"
161 "#277"
289 "#43"
50 "#211"
70 "#91"
128 "#90"
121 "#285"
239 "#244"
192 "#46"
211 "#136"
220 "#11"
74 "#220"
153 "#198"
259 "#130"
291 "#281"
112 "#273"
39 "#96"
287 "#57"
158 "#75"
264 "#36"
202 "#193"
133 "#228"
130 "#3"
28 "#287"
32 "#210"
51 "#21"
283 "#184"
62 "#69"
225 "#272"
214 "#237"
68 "#5"
267 "#42"
6 "#129"
268 "#265"
160 "#268"
33 "#58"
137 "#93"
194 "#25"
187 "#27"
87 "#37"
38 "#124"
178 "#145"
27 "#165"
85 "#50"
157 "#119"
90 "#89"
129 "#76"
224 "#261"
238 "#186"
292 "#131"
144 "#271"
183 "#118"
190 "#297"
208 "#189"
107 "#29"
199 "#169"
215 "#177"
73 "#92"
86 "#275"
226 "#296"
274 "#106"
252 "#201"
253 "#187"
210 "#22"
265 "#156"
248 "#234"
207 "#301"
205 "#166"
75 "#158"
212 "#245"
41 "#161"
159 "#26"
203 "#68"
247 "#135"
123 "#236"
43 "#115"
110 "#121"
15 "#98"
95 "#114"
49 "#41"
245 "#23"
5 "#146"
142 "#255"
302 "#175"
191 "#56"
173 "#159"
169 "#116"
177 "#240"
184 "#104"
11 "#274"
35 "#214"
91 "#139"
276 "#291"
246 "#293"
93 "#125"
185 "#59"
66 "#243"
152 "#66"
98 "#61"
136 "#239"
78 "#32"
165 "#63"
9 "#4"
284 "#221"
167 "#65"
171 "#113"
18 "#264"
97 "#197"
209 "#78"
52 "#258"
20 "#289"
42 "#230"
24 "#111"
206 "#14"
63 "#162"
193 "#212"
243 "#284"
149 "#253"
45 "#142"
204 "#9"
154 "#120"
127 "#174"
175 "#286"
151 "#195"
1 "#248"
81 "#294"
145 "#110"
108 "#128"
217 "#192"
113 "#19"
235 "#73"
218 "#72"
116 "#0"
40 "#31"
164 "#51"
34 "#85"
135 "#1"
114 "#6"
*Edges
153 215
211 273
120 56
196 30
154 169
285 270
301 45
90 33
298 181
295 179
243 86
135 290
119 146
282 240
288 193
5 41
118 150
148 166
220 203
256 198
95 256
300 239
266 294
224 144
3 25
222 259
103 120
206 40
190 50
37 279
53 182
268 144
37 297
122 155
287 60
237 69
51 49
199 65
244 91
40 247
217 83
63 216
200 4
29 177
126 54
66 239
122 9
177 181
29 248
233 227
303 48
138 222
92 294
110 67
143 302
234 194
166 57
201 227
231 65
237 190
14 40
281 72
42 291
138 156
229 18
271 102
293 291
154 276
128 2
239 100
202 252
75 205
147 242
128 117
252 131
148 141
276 246
25 241
272 267
283 138
221 247
133 152
199 71
165 80
58 242
265 99
96 290
193 297
238 229
86 299
29 300
243 291
26 257
232 231
51 84
166 10
89 279
273 21
27 224
86 28
220 269
115 251
40 120
163 84
225 102
4 5
212 239
133 177
229 16
110 157
93 67
54 132
235 254
268 108
61 220
41 265
11 61
177 212
82 207
66 300
133 98
259 77
209 141
227 127
175 236
292 254
8 296
237 28
38 213
13 104
82 9
11 255
185 77
34 73
209 129
103 229
112 216
90 220
153 253
76 279
110 210
146 103
120 152
4 286
28 81
47 182
248 185
269 120
10 259
4 226
74 296
133 30
253 285
13 273
33 47
77 200
82 3
177 1
138 10
17 59
167 289
262 173
172 129
190 108
251 66
57 58
154 201
271 181
211 74
109 36
280 37
74 299
21 259
84 2
294 160
44 297
81 293
236 112
245 106
253 270
220 58
18 149
214 181
236 149
224 149
71 284
145 246
64 48
281 293
228 115
45 248
150 209
92 266
45 205
41 200
117 77
269 263
100 66
86 72
166 275
232 247
285 219
265 94
291 256
243 276
146 56
215 159
168 193
94 220
101 46
104 144
31 265
33 230
99 54
38 154
146 231
301 57
158 31
226 188
56 42
184 14
76 89
106 285
246 161
260 85
221 159
176 122
55 115
144 208
190 90
129 265
223 17
253 219
78 248
301 166
100 284
52 18
243 126
242 98
161 279
224 56
56 265
208 55
145 139
293 288
137 28
284 242
261 101
265 173
224 142
34 149
150 193
146 30
258 238
102 47
175 207
29 183
243 23
72 276
192 94
182 198
31 224
126 112
95 102
193 14
103 223
285 134
250 287
55 296
237 276
41 181
284 193
124 205
177 49
267 163
244 103
215 260
69 20
20 213
263 301
51 287
75 236
103 179
21 4
14 229
213 148
87 145
53 159
261 122
227 273
188 246
301 28
219 45
32 139
297 19
76 5
242 161
251 269
250 173
29 228
256 27
126 148
34 137
100 55
249 58
74 139
248 198
8 201
44 100
75 231
279 5
44 108
175 276
18 133
151 63
266 229
297 114
227 255
160 182
273 24
139 295
163 12
205 65
26 81
213 46
285 230
47 142
266 18
214 251
137 248
141 215
204 115
73 218
94 152
227 302
232 59
141 213
293 15
176 131
276 26
291 173
273 255
1 235
180 67
58 217
196 291
186 97
143 16
22 130
60 107
119 283
207 72
166 237
6 234
276 226
249 38
218 166
51 135
7 234
20 161
103 252
150 127
142 112
166 188
30 123
271 26
91 231
283 210
271 139
238 234
186 83
252 143
50 110
70 91
124 53
197 260
108 240
161 276
92 78
189 86
227 283
259 117
43 36
242 175
116 245
222 7
205 115
147 53
4 111
245 86
97 262
165 167
161 281
122 197
153 230
264 27
153 97
298 148
237 188
274 266
139 27
19 283
95 14
294 47
93 49
172 12
187 213
214 153
10 127
180 259
221 140
74 109
31 22
124 1
139 277
76 51
120 126
133 296
22 168
200 232
81 187
233 144
205 285
246 20
80 215
152 167
289 63
278 301
80 150
110 79
70 142
215 177
9 11
144 194
263 45
95 190
153 217
41 232
233 57
37 89
197 289
150 38
129 148
186 185
77 68
61 281
80 155
75 57
53 45
95 142
256 128
180 34
16 225
224 102
42 30
205 207
271 109
143 298
76 276
63 286
56 225
217 33
50 170
121 20
151 230
144 225
41 86
44 289
73 264
86 230
188 288
214 123
160 92
205 200
81 197
143 125
284 22
199 63
301 81
54 278
151 253
135 101
229 208
70 61
135 132
166 161
112 144
100 212
198 99
292 242
224 19
100 131
20 281
182 102
116 120
259 132
6 259
84 263
280 50
194 38
256 157
293 175
45 193
110 234
189 36
135 54
170 97
238 172
85 291
189 301
194 260
208 83
102 144
227 10
248 132
268 10
285 276
60 70
65 94
277 92
297 85
63 265
297 258
21 3
16 160
256 20
237 303
248 238
35 122
272 101
160 11
251 228
55 177
56 52
73 192
198 66
250 37
273 95
38 169
268 270
214 133
50 22
247 96
65 74
263 37
55 214
232 65
29 66
71 250
263 55
216 148
53 191
40 53
109 185
86 248
239 119
116 59
30 251
237 291
280 155
41 65
64 85
170 208
173 75
217 285
24 235
133 198
226 281
5 24
60 82
230 179
152 164
4 263
19 56
121 23
50 193
221 270
260 227
236 154
67 164
136 204
214 16
136 299
50 189
237 243
239 277
145 95
272 25
35 61
99 210
202 151
177 136
40 262
65 75
281 243
291 81
245 274
264 44
213 209
211 21
90 133
18 160
293 243
214 24
74 29
69 190
11 294
201 183
176 275
256 86
253 83
223 130
290 202
136 187
155 50
74 285
277 157
65 120
57 207
122 83
74 176
168 74
127 46
114 226
11 161
5 84
144 206
189 40
158 135
136 208
131 212
102 56
139 126
55 138
1 296
225 277
293 161
134 170
205 69
37 4
115 136
194 86
253 103
248 66
270 158
270 47
12 218
226 166
284 158
149 11
131 30
35 47
302 117
161 118
119 93
196 260
279 106
237 26
45 293
244 168
153 196
274 295
82 239
108 239
218 269
143 216
170 301
233 97
125 127
98 257
210 156
271 35
215 125
115 209
37 105
211 181
73 259
112 149
36 131
71 173
55 205
303 40
182 224
47 19
50 74
243 28
293 23
48 228
83 153
187 282
109 50
226 215
266 47
248 12
107 59
163 242
199 215
144 18
121 293
198 1
22 280
84 62
62 242
300 181
238 283
291 217
278 259
195 152
42 177
100 133
109 193
208 134
28 293
118 292
151 67
243 256
28 157
35 289
225 182
239 29
243 166
14 255
227 107
187 60
90 179
58 162
159 287
185 241
102 216
248 42
77 167
24 11
165 101
31 109
17 114
233 127
31 160
129 64
43 32
25 129
226 23
48 251
26 243
251 198
226 177
36 74
257 13
279 297
145 80
140 193
273 14
286 187
93 183
12 129
113 216
131 228
281 69
105 265
43 218
185 149
193 59
74 193
90 299
198 300
57 20
251 100
141 69
172 227
11 5
252 270
196 151
182 229
64 103
237 175
259 184
126 277
195 213
86 23
195 209
261 267
100 197
11 247
158 221
23 287
237 72
205 199
111 126
67 126
92 145
173 261
168 144
252 101
3 49
123 55
97 219
156 27
48 181
96 10
252 180
154 133
159 167
43 73
111 105
35 13
250 232
91 118
72 116
134 15
28 288
221 217
121 291
21 30
261 139
83 140
85 13
181 163
89 263
281 26
284 150
192 114
143 51
248 91
266 44
207 281
200 296
42 228
202 97
14 24
211 102
248 133
100 136
169 157
24 292
60 197
99 229
189 113
48 198
112 92
226 136
83 156
130 40
20 166
78 85
150 169
106 11
172 247
34 90
131 280
1 123
55 90
28 69
299 237
30 115
123 229
221 289
85 91
244 51
18 216
301 241
142 236
10 238
113 229
65 265
126 184
236 266
32 193
226 204
227 247
208 253
256 288
265 199
90 235
230 53
240 196
197 302
248 239
41 271
235 186
261 145
230 253
273 247
257 224
296 136
284 32
255 145
83 248
242 271
291 284
216 182
130 56
202 245
37 185
262 42
282 98
102 127
158 218
89 302
128 34
84 286
41 27
176 193
84 76
265 27
244 239
214 239
245 49
270 272
192 155
15 21
196 285
231 186
256 226
178 42
157 150
144 92
132 38
20 293
87 67
36 171
27 65
183 283
218 235
293 256
71 123
270 230
44 33
127 11
268 18
151 219
29 251
166 23
243 226
65 138
39 241
276 293
118 108
180 236
167 301
147 23
94 34
188 190
27 94
51 164
248 123
294 19
298 117
45 42
225 186
150 162
228 248
289 223
270 83
184 51
47 229
295 184
266 142
47 57
197 10
76 105
178 89
288 57
56 18
177 228
300 136
173 63
72 301
27 1
235 172
288 301
303 243
177 160
168 36
21 77
169 165
18 277
255 242
190 301
56 61
296 160
63 200
241 163
208 238
270 202
195 278
288 166
288 50
138 61
180 127
16 19
16 277
66 54
91 55
188 207
83 21
281 284
30 1
264 185
12 158
202 208
59 70
246 81
111 52
268 19
263 91
105 59
242 193
206 185
181 132
72 28
105 241
25 55
92 178
165 147
223 83
169 110
30 66
281 291
52 102
71 107
216 160
89 9
94 200
23 8
27 169
26 288
11 277
2 118
27 63
155 189
189 280
16 289
225 235
46 146
265 205
303 125
193 62
181 212
226 175
56 266
144 142
78 44
97 289
274 145
239 133
156 197
66 115
296 203
154 196
24 299
57 293
140 132
219 49
193 139
148 163
62 90
302 263
261 289
149 92
11 112
31 233
209 126
123 296
105 191
155 35
176 50
285 73
215 227
203 113
159 29
15 116
140 197
151 285
84 80
248 30
264 183
94 205
149 203
32 189
71 200
169 162
190 60
242 74
274 222
82 152
133 66
134 153
26 207
214 250
263 12
212 300
84 57
142 182
3 45
169 181
147 245
47 224
55 186
240 270
89 5
229 268
31 176
264 269
293 98
299 81
40 260
278 48
303 92
92 52
31 139
108 209
271 154
12 79
248 93
85 257
106 264
266 224
81 252
113 224
72 246
299 20
111 68
18 286
290 60
122 284
114 109
217 170
298 279
66 55
107 83
157 207
125 10
135 274
68 79
211 238
92 142
291 119
131 193
61 226
16 146
58 44
194 264
47 18
50 235
52 289
108 266
18 53
180 10
109 237
133 212
260 36
296 100
256 237
71 115
88 147
268 218
151 205
43 150
64 249
113 267
259 228
105 128
16 224
180 193
182 56
60 14
219 170
69 270
53 111
247 124
16 42
4 29
264 67
225 52
147 184
270 97
54 237
120 59
6 209
7 265
282 217
77 60
138 6
260 127
300 254
25 15
211 12
50 178
280 35
266 84
161 288
86 288
288 114
188 206
251 245
114 8
243 288
15 26
34 219
164 62
90 13
229 160
249 33
236 91
52 149
284 176
42 133
124 111
189 168
262 255
124 141
246 86
175 291
96 6
208 27
295 145
133 17
153 252
44 257
183 176
79 55
67 82
143 260
161 69
294 149
193 22
283 86
222 108
250 265
67 64
300 100
160 128
20 243
17 231
82 277
136 185
180 227
117 137
212 97
178 286
211 222
171 274
37 286
226 291
50 31
142 149
296 214
12 225
104 246
266 52
205 142
117 159
50 122
300 248
276 301
300 224
61 264
24 240
54 124
94 250
155 109
17 288
43 178
15 16
133 1
180 125
164 303
26 121
231 41
195 255
270 140
55 241
248 290
207 69
177 251
13 233
179 273
62 56
118 272
134 217
74 266
102 205
221 60
285 76
224 59
196 289
19 229
158 130
74 32
1 117
200 22
143 58
142 99
256 188
109 284
182 52
1 239
261 155
252 196
118 234
139 109
115 214
152 45
295 189
266 152
136 133
1 100
39 272
73 200
254 96
236 57
150 287
259 126
17 30
178 48
255 263
222 297
116 39
96 118
22 155
158 235
261 50
293 188
249 296
226 254
110 38
140 240
196 301
296 132
18 103
261 31
187 163
102 193
228 239
117 192
61 224
299 21
295 24
251 11
271 50
158 295
271 147
123 198
172 171
97 151
60 101
91 156
208 26
277 124
296 101
48 300
299 188
209 264
228 214
3 241
65 297
161 23
283 8
259 292
75 262
225 19
238 233
168 155
89 105
254 233
205 231
286 176
130 236
201 254
187 245
79 225
83 170
293 279
212 67
185 62
31 145
94 210
227 193
48 257
299 301
158 172
238 156
187 243
58 55
208 21
122 74
11 229
132 24
70 24
228 181
238 119
250 120
287 59
197 180
279 45
120 98
115 62
34 102
55 50
21 254
189 242
60 171
133 263
23 51
69 81
296 58
246 174
151 270
121 207
159 112
69 276
277 216
144 149
205 120
239 42
279 105
219 240
163 21
159 2
164 151
35 19
180 156
121 288
10 143
184 87
297 133
26 246
296 198
270 68
250 63
255 295
45 146
65 211
131 244
134 230
155 259
189 102
29 51
62 118
222 134
272 75
45 297
201 93
119 156
9 289
23 81
34 290
191 167
153 185
299 69
150 183
242 168
52 236
257 202
271 130
166 81
93 38
207 154
210 221
161 95
122 168
6 124
190 226
138 79
250 200
127 298
182 266
301 188
25 77
225 288
302 215
133 115
49 50
239 224
40 93
145 265
291 288
102 61
291 161
31 168
132 255
173 254
159 74
299 161
32 36
270 208
253 240
194 98
92 56
52 268
204 21
96 31
263 75
51 275
22 242
202 211
122 79
86 157
114 54
138 106
171 108
275 150
41 250
102 257
6 90
293 301
120 232
136 48
6 211
92 272
56 149
231 265
199 190
86 69
22 131
56 142
288 226
283 125
269 257
86 251
122 32
273 184
81 57
36 14
238 127
80 46
120 146
266 16
195 169
61 19
9 40
206 242
79 33
300 30
97 252
56 159
4 266
50 99
119 302
199 200
249 76
199 179
20 301
77 37
189 261
182 222
221 240
171 195
266 225
119 233
100 30
282 209
251 248
225 224
15 10
208 219
190 52
103 147
216 229
253 140
71 262
280 168
260 138
57 121
115 51
227 156
113 59
192 62
23 254
290 9
228 133
112 16
195 94
68 5
236 258
197 68
36 284
182 149
225 118
26 143
190 161
199 94
204 140
242 131
249 116
269 121
45 178
165 54
95 154
226 207
261 82
86 139
248 1
236 102
7 6
130 194
66 123
284 62
160 225
143 127
83 261
94 71
115 212
43 157
63 124
91 64
190 86
11 268
175 246
96 139
66 212
133 232
262 202
26 51
225 279
72 210
247 194
272 77
123 251
14 171
89 15
47 12
240 285
11 244
169 149
200 265
117 15
132 14
26 161
42 123
277 108
118 254
216 78
24 219
119 10
130 39
222 118
122 21
220 134
216 52
219 134
280 261
272 241
106 62
276 291
221 219
91 203
57 175
240 64
56 168
208 140
155 284
196 97
67 50
27 205
29 123
160 102
84 45
241 4
28 190
300 177
142 216
188 20
70 104
52 144
218 115
302 283
4 159
242 155
221 134
49 152
183 43
166 77
83 240
17 134
73 90
291 86
91 259
55 143
60 235
85 191
193 267
175 156
111 196
15 267
139 77
37 46
6 132
206 82
162 206
58 160
268 146
213 61
139 50
261 196
82 287
180 143
57 28
54 187
147 210
58 49
206 237
169 231
67 303
150 114
190 281
10 233
58 165
225 92
71 38
174 124
281 246
50 116
219 270
193 34
276 262
217 253
294 223
298 215
237 180
188 23
57 72
46 104
196 140
7 191
234 155
172 26
156 96
12 53
242 36
230 152
173 172
266 144
221 285
260 119
234 286
80 264
114 267
194 13
162 79
39 152
154 150
69 243
297 125
105 161
150 110
134 240
285 153
201 250
216 4
85 7
30 76
93 154
74 286
180 282
110 71
285 140
185 147
31 46
26 101
181 239
262 63
286 15
169 18
134 252
14 278
110 154
190 112
132 273
161 301
271 131
55 192
232 4
90 40
157 34
286 2
131 82
119 127
204 158
291 28
42 136
2 192
296 293
136 29
271 145
127 138
251 1
216 268
113 185
84 280
255 117
72 226
72 30
236 182
280 51
277 47
141 125
1 289
73 211
294 277
47 160
62 287
58 69
7 35
299 3
7 247
245 149
101 246
194 7
66 268
69 134
161 28
141 126
142 16
78 238
277 229
33 179
51 101
283 231
250 262
78 9
31 35
26 72
119 114
27 262
228 261
303 187
127 23
115 48
137 73
86 276
16 154
101 75
207 93
93 285
197 286
146 263
29 21
68 104
41 243
175 243
63 65
302 260
91 108
254 247
83 230
191 179
236 129
115 137
21 278
188 121
29 115
182 276
298 138
79 183
92 224
137 174
291 246
73 195
239 40
95 274
218 129
214 136
49 43
36 181
246 256
103 17
69 197
188 69
110 279
288 237
41 90
62 117
196 202
30 228
228 212
249 192
241 21
127 34
191 62
264 146
139 242
256 276
153 279
291 23
244 185
234 259
51 221
241 15
252 218
66 51
1 252
185 135
192 100
80 8
126 284
195 38
273 274
6 91
226 301
250 199
74 184
223 51
90 76
148 271
181 55
135 86
225 47
268 102
238 215
86 9
159 11
267 130
2 226
269 240
230 10
291 166
183 297
60 279
99 191
165 103
68 17
277 20
120 45
198 212
197 207
201 33
57 188
295 98
11 18
179 135
248 214
186 131
170 151
62 248
235 238
32 31
205 15
176 83
26 298
16 236
185 89
22 32
273 270
275 92
92 110
229 112
238 138
296 272
11 281
153 93
158 107
74 160
92 47
134 59
301 86
131 185
164 171
93 79
266 268
101 228
240 298
164 245
230 97
28 256
26 175
52 142
239 55
31 190
17 107
156 143
119 274
51 249
69 104
156 283
131 99
271 221
181 120
13 291
29 152
232 71
37 5
181 66
206 100
171 273
254 222
288 42
41 281
43 246
28 246
92 268
166 211
61 144
242 122
39 21
92 19
11 236
11 19
291 190
250 205
68 125
156 80
269 28
38 181
300 251
23 256
168 32
234 254
122 118
219 83
192 54
179 5
10 156
273 275
58 163
66 48
265 122
175 20
212 123
83 118
69 72
128 194
247 26
160 205
161 149
283 10
16 149
257 63
163 236
161 243
180 272
198 30
64 215
203 216
202 74
56 114
16 182
140 296
79 43
150 132
303 49
281 133
188 72
4 203
252 240
100 48
122 31
230 54
52 112
276 109
7 91
255 219
264 104
244 20
210 49
21 25
213 45
71 65
12 65
232 63
234 91
191 78
93 150
69 218
280 109
104 273
214 1
81 300
225 18
56 229
142 229
136 212
223 13
223 67
182 279
251 239
102 142
166 175
176 189
75 41
173 36
97 240
162 88
133 300
255 269
117 179
26 95
18 102
300 44
38 79
293 198
296 113
55 42
248 67
20 28
200 72
188 26
167 219
108 226
70 65
126 82
75 9
34 117
240 230
265 232
295 248
247 200
188 175
127 49
13 266
134 140
178 30
13 300
247 108
175 288
201 243
302 298
38 172
55 48
95 223
47 61
232 292
99 207
153 41
200 27
178 263
208 252
57 295
226 20
282 278
71 205
197 146
232 94
47 112
173 232
301 23
89 67
121 298
42 198
262 102
276 299
1 291
122 271
260 112
110 183
22 68
72 104
85 113
164 284
157 93
172 162
228 55
81 237
301 291
82 107
249 168
147 161
228 296
150 89
229 92
40 165
109 21
83 221
30 73
61 294
297 63
26 291
21 101
221 170
112 208
216 149
139 155
72 256
294 268
54 87
243 190
26 57
149 277
228 136
158 124
180 138
139 66
115 224
283 230
303 148
264 101
223 248
202 285
30 55
105 4
193 6
296 40
86 178
38 27
17 220
290 129
97 253
205 273
233 296
298 95
92 212
231 24
117 267
121 243
76 103
209 247
110 60
272 225
151 215
302 231
109 261
234 292
281 175
119 227
183 157
152 249
245 291
226 161
208 67
104 271
151 208
69 226
176 35
257 96
91 192
192 228
286 288
148 41
91 222
149 19
47 52
288 69
135 191
78 158
203 229
217 240
45 46
183 106
118 177
222 129
96 7
175 126
42 176
93 162
136 66
178 76
89 162
271 36
81 20
28 178
51 90
75 200
3 15
131 261
186 288
71 221
75 238
243 253
155 32
43 111
23 288
207 23
112 277
286 45
144 111
277 224
32 179
83 202
229 138
226 43
104 108
55 29
259 273
29 62
301 228
49 59
250 203
184 274
198 219
170 285
47 144
122 280
26 299
264 17
254 302
238 143
102 266
35 134
210 134
185 172
108 254
188 86
174 195
184 218
144 288
214 284
160 97
119 215
173 121
69 26
294 16
210 83
123 115
112 225
141 157
266 11
223 110
172 184
26 227
191 268
246 23
196 108
184 171
149 61
65 200
161 256
81 86
18 151
196 134
209 159
246 301
47 268
155 48
165 130
19 250
215 3
35 168
225 210
95 212
125 47
91 169
271 32
295 14
48 29
202 219
252 167
268 236
119 193
232 205
217 298
299 190
108 33
231 49
126 266
60 78
32 109
62 93
26 293
96 292
271 31
119 263
134 3
242 162
229 236
230 4
33 62
101 163
207 50
81 188
164 278
73 95
211 254
184 257
91 195
247 213
5 45
146 39
7 277
155 36
153 143
296 186
76 4
69 119
137 154
88 233
201 84
242 280
276 188
14 189
157 79
158 115
175 190
124 235
265 263
39 163
76 287
271 74
24 221
280 271
145 298
280 193
286 5
194 87
158 230
82 122
287 248
125 19
236 191
80 287
221 252
22 214
268 182
64 127
288 180
192 216
85 251
103 107
262 295
266 135
269 297
250 113
52 294
75 249
285 262
75 116
143 2
268 149
206 59
122 274
35 50
54 152
288 190
231 94
35 242
248 136
33 86
138 49
112 102
104 120
3 252
95 172
24 89
243 57
81 175
75 199
183 285
294 224
199 166
194 20
203 269
123 136
157 187
289 170
239 86
148 20
152 264
142 141
41 39
26 256
163 25
289 242
87 189
292 205
270 169
57 44
125 138
73 70
145 132
142 268
259 108
174 291
57 86
230 255
220 238
1 191
171 24
271 132
184 215
168 48
47 216
98 11
184 284
108 96
100 177
40 72
58 53
284 131
255 186
294 231
201 116
292 60
297 105
33 147
137 149
201 165
231 108
140 202
163 279
179 275
37 117
246 243
17 98
23 237
122 96
94 196
121 276
118 95
225 268
121 256
237 281
115 181
266 146
176 237
189 85
24 218
153 156
46 243
281 288
132 237
91 127
26 144
44 71
289 146
239 198
91 247
111 37
134 76
223 221
141 17
195 292
299 291
42 300
42 48
236 188
180 72
284 165
149 225
30 284
250 65
242 200
102 277
22 35
160 236
89 70
201 58
234 96
207 161
126 177
279 84
134 167
56 264
30 32
199 231
243 81
183 46
248 100
180 51
103 266
103 66
116 258
90 137
189 35
235 129
20 86
66 117
115 100
41 113
254 81
246 121
244 229
49 285
16 102
239 123
105 79
182 277
230 267
299 246
270 220
72 23
160 277
182 144
28 299
266 66
210 213
181 123
277 19
126 227
123 238
11 150
26 226
82 203
64 77
193 155
119 252
162 49
221 208
181 84
253 252
207 276
226 113
146 258
61 112
186 213
39 74
209 148
153 181
26 258
19 155
227 164
274 267
178 279
97 140
246 69
198 29
144 160
253 21
124 94
223 264
73 224
233 180
278 126
301 95
53 238
253 242
170 253
201 261
190 42
286 89
120 19
244 146
255 13
106 166
161 86
288 133
26 138
199 232
56 47
195 232
136 106
266 88
151 83
178 79
162 201
197 256
189 123
81 72
128 203
114 253
293 246
23 175
123 300
101 123
56 154
302 125
268 9
143 227
69 53
2 83
134 270
160 224
164 259
143 119
266 216
79 169
157 133
262 78
190 81
176 261
106 303
302 233
291 77
204 147
224 268
80 161
112 182
187 230
113 144
240 86
19 102
30 29
32 76
190 23
141 278
277 142
290 161
114 201
211 121
56 112
130 23
128 90
236 294
125 238
216 225
85 106
156 260
20 23
255 184
224 124
118 7
160 142
174 12
67 290
36 35
53 267
291 164
79 273
204 4
184 145
293 126
260 50
26 86
16 47
221 207
56 236
144 19
168 131
103 53
125 227
12 273
182 96
238 285
238 232
179 66
198 55
215 180
164 185
63 205
70 44
131 118
194 97
140 108
261 193
101 208
71 56
274 262
256 93
180 261
27 173
246 287
201 209
251 42
219 230
153 147
61 225
205 108
100 214
23 69
219 252
152 256
10 61
203 59
94 75
39 221
125 131
17 260
4 84
84 186
276 166
26 166
18 182
269 217
122 131
125 56
273 18
237 226
256 283
246 92
292 222
231 303
110 93
129 124
170 202
240 151
248 168
111 178
286 242
222 202
180 165
152 113
190 166
16 268
280 36
223 222
164 289
15 39
300 274
268 49
272 105
20 276
26 8
50 206
301 61
125 244
50 249
70 275
263 286
194 146
251 296
249 153
11 92
1 300
69 121
2 241
256 69
215 283
168 50
246 190
273 144
10 298
198 197
65 165
178 284
170 62
297 5
214 221
85 263
69 166
13 171
216 294
181 1
48 248
86 210
166 256
253 134
22 261
44 183
138 197
74 10
189 271
84 191
47 236
100 42
256 299
64 289
112 63
44 201
283 260
270 222
302 238
131 226
221 25
277 268
18 16
99 74
179 137
70 98
54 170
242 176
193 271
50 131
281 301
257 119
271 176
131 123
67 46
297 241
19 267
196 200
286 98
108 292
90 70
301 256
26 23
217 230
284 31
111 84
216 117
193 36
80 110
121 190
17 108
212 254
148 161
35 193
129 145
299 293
151 19
49 236
143 4
103 87
128 234
27 54
37 73
233 143
206 288
167 18
256 60
138 148
280 176
164 203
168 139
215 29
89 61
256 175
96 91
181 133
153 62
103 108
33 75
178 95
162 7
301 26
233 125
303 32
98 248
239 136
72 243
29 118
281 121
9 282
225 294
259 118
100 174
259 211
16 92
214 164
267 21
173 199
132 303
124 83
261 242
143 5
244 247
284 139
53 152
286 111
193 111
31 85
277 227
260 186
207 20
114 40
35 261
233 59
299 57
57 226
75 232
15 81
207 299
219 236
211 247
233 12
143 197
214 29
298 180
269 117
36 139
182 300
280 182
15 254
75 243
211 122
233 252
33 274
76 260
104 172
266 149
141 235
11 41
267 165
6 254
3 77
286 245
19 18
18 112
262 51
30 148
267 145
94 175
75 265
146 260
221 151
207 28
52 132
199 27
217 202
247 270
232 262
76 141
252 170
214 141
100 198
19 160
292 169
283 113
34 70
202 234
156 30
244 177
107 210
45 111
294 182
39 101
170 140
245 189
236 216
175 121
57 250
185 152
67 234
167 7
175 181
248 177
278 65
262 36
145 273
143 251
166 39
7 259
45 89
97 83
76 37
163 15
201 150
9 203
10 260
63 94
214 48
122 109
8 54
138 277
217 270
155 301
197 283
1 136
131 219
241 146
150 39
68 2
207 288
144 11
127 156
267 151
296 29
197 157
166 215
101 77
233 283
272 3
197 127
62 194
256 211
246 45
29 133
248 52
161 175
115 239
2 303
49 131
266 202
211 302
76 207
266 49
24 238
297 101
302 138
61 268
31 218
220 75
101 3
286 231
240 208
117 73
129 195
164 95
180 57
184 92
272 171
267 98
174 54
31 280
28 26
189 252
33 16
42 29
181 251
111 263
150 79
235 12
23 57
238 227
226 28
33 82
103 125
242 109
1 66
231 27
19 112
68 138
216 54
71 60
210 235
8 100
153 219
94 173
