Vertices 134
80 "#125"
81 "#106"
20 "#76"
118 "#3"
108 "#129"
14 "#20"
18 "#108"
27 "#93"
59 "#55"
45 "#131"
134 "#115"
77 "#107"
98 "#30"
71 "#56"
24 "#121"
32 "#92"
10 "#17"
129 "#103"
83 "#74"
40 "#35"
1 "#71"
9 "#11"
92 "#126"
121 "#75"
99 "#79"
57 "#8"
37 "#99"
63 "#88"
96 "#128"
76 "#100"
43 "#49"
58 "#112"
117 "#124"
56 "#29"
69 "#119"
130 "#50"
48 "#54"
111 "#18"
79 "#58"
88 "#95"
119 "#91"
113 "#46"
109 "#60"
30 "#86"
3 "#133"
11 "#32"
13 "#26"
66 "#41"
36 "#28"
102 "#83"
94 "#43"
89 "#31"
47 "#113"
132 "#7"
65 "#25"
100 "#68"
38 "#94"
42 "#9"
64 "#70"
91 "#44"
112 "#23"
116 "#78"
25 "#14"
101 "#118"
60 "#98"
85 "#21"
4 "#51"
49 "#72"
97 "#47"
124 "#67"
21 "#110"
41 "#12"
46 "#65"
50 "#84"
5 "#96"
28 "#82"
52 "#48"
26 "#24"
6 "#15"
93 "#102"
67 "#13"
114 "#34"
15 "#66"
75 "#73"
8 "#0"
95 "#42"
122 "#40"
106 "#130"
73 "#45"
29 "#132"
105 "#6"
16 "#57"
39 "#69"
68 "#63"
84 "#22"
86 "#116"
54 "#123"
87 "#64"
31 "#85"
12 "#36"
107 "#101"
53 "#38"
126 "#37"
22 "#5"
131 "#90"
125 "#52"
7 "#4"
120 "#80"
23 "#111"
74 "#39"
55 "#127"
62 "#109"
123 "#19"
133 "#33"
104 "#104"
78 "#1"
72 "#16"
103 "#117"
128 "#53"
115 "#59"
17 "#27"
70 "#87"
51 "#81"
90 "#77"
82 "#61"
33 "#120"
35 "#2"
44 "#62"
34 "#89"
61 "#122"
110 "#114"
19 "#105"
127 "#10"
2 "#97"
Edges
71 4
31 28
81 121
35 113
9 87
122 78
55 85
133 85
16 11
125 16
73 26
125 68
43 89
71 97
97 112
8 82
125 52
27 32
28 55
7 109
56 91
121 40
127 41
3 117
26 52
52 131
54 2
78 91
79 52
5 130
56 34
5 131
43 74
52 17
41 133
24 31
86 58
124 25
19 7
51 59
55 61
113 63
65 74
66 134
9 40
64 25
36 111
107 86
83 120
8 84
15 103
17 51
121 36
85 110
37 95
132 17
62 90
11 21
130 22
52 130
30 120
4 133
99 118
126 39
39 5
133 38
98 117
22 71
85 62
91 104
2 8
52 70
65 3
71 115
46 97
20 64
50 97
69 99
132 4
25 99
83 105
24 7
56 12
67 10
118 90
30 51
109 56
83 66
72 44
57 75
100 25
118 23
44 109
66 13
112 70
126 92
84 83
75 42
30 22
4 10
56 41
74 4
4 67
96 101
48 3
100 52
18 2
39 112
94 13
123 17
114 100
66 89
58 69
128 76
20 40
39 44
117 118
77 92
36 65
11 78
8 42
87 127
26 16
85 118
94 84
65 131
52 12
9 75
100 49
15 73
6 67
46 17
127 117
31 52
115 118
49 27
103 47
16 132
67 133
89 75
108 45
26 31
24 61
105 15
79 111
26 43
88 85
109 15
94 79
68 73
51 124
40 123
21 7
116 59
126 44
67 61
36 115
64 89
35 125
122 67
18 37
10 60
32 117
27 10
127 120
67 85
29 51
1 4
86 55
128 15
66 112
93 37
76 60
72 6
15 76
22 84
119 50
126 20
59 109
84 128
102 39
60 19
46 10
62 68
59 131
112 87
115 64
84 46
79 57
112 7
68 43
22 21
116 132
65 56
120 27
28 17
28 52
63 131
81 24
92 88
111 16
68 97
106 18
107 43
49 45
10 37
59 11
100 1
89 69
105 96
81 50
33 83
129 85
15 1
47 75
79 90
17 72
131 16
89 65
126 59
39 43
127 14
59 130
116 124
8 32
76 67
17 19
5 124
12 59
9 91
115 98
89 93
130 58
32 132
113 50
60 99
133 44
50 122
112 94
109 74
76 116
21 20
49 71
81 94
37 71
13 53
20 114
112 43
47 60
94 90
98 123
77 104
98 50
46 89
89 17
97 76
122 92
121 9
42 133
86 62
35 130
53 17
64 26
94 26
82 85
133 77
77 42
20 123
7 44
114 60
16 75
75 25
44 14
24 92
53 105
15 114
97 66
121 94
59 4
20 73
29 66
14 128
127 111
72 1
47 64
52 83
83 132
81 76
13 57
76 46
67 9
100 26
49 11
132 110
111 75
71 25
133 98
8 35
100 104
89 126
16 107
83 42
75 28
31 79
27 83
52 40
75 1
12 99
110 26
26 130
42 73
23 120
128 50
112 4
51 41
21 58
102 82
122 125
86 122
71 128
73 100
73 44
100 124
13 64
124 21
68 87
122 39
28 50
40 34
72 8
102 35
129 76
88 65
77 60
53 71
129 70
68 48
132 121
34 23
11 62
86 28
24 29
43 104
9 8
81 116
41 44
130 113
118 71
17 36
111 19
130 71
91 20
88 36
126 105
101 32
49 20
62 89
128 9
121 49
123 121
32 111
50 85
128 4
22 112
107 78
81 80
36 114
99 16
123 126
9 90
133 88
75 24
70 99
57 130
57 12
131 87
88 73
11 30
109 6
111 43
39 104
48 36
28 128
53 10
8 12
85 9
123 104
90 101
26 116
78 44
77 130
119 34
129 69
56 49
89 5
127 52
28 84
118 126
123 109
119 87
56 115
122 13
65 71
102 28
13 41
58 64
124 76
121 22
4 111
67 94
134 29
49 41
57 128
85 70
28 98
5 51
89 132
28 4
16 67
83 59
74 25
65 43
52 35
131 82
78 9
16 22
65 114
27 7
87 23
21 39
99 92
6 3
98 72
125 63
99 39
66 109
1 90
50 5
36 49
93 120
52 75
124 34
100 79
52 118
88 51
133 6
19 107
25 109
22 102
111 17
63 124
26 17
38 52
12 35
53 8
78 66
23 51
35 121
104 111
60 127
22 88
39 46
115 62
76 93
4 90
128 78
111 39
87 46
113 66
31 13
65 15
8 114
39 94
123 34
70 100
38 96
11 89
128 112
16 6
12 10
13 69
75 87
91 40
127 105
121 113
124 31
133 54
33 15
16 93
88 131
118 62
129 1
82 125
13 22
36 25
19 15
85 102
75 40
7 14
130 40
47 101
64 87
61 22
66 72
60 101
4 83
25 57
75 121
45 58
102 100
131 121
114 4
102 98
4 123
74 14
8 81
97 111
74 73
11 25
1 101
36 9
73 133
49 2
106 107
93 90
87 39
125 9
39 71
5 84
94 22
35 103
95 102
7 107
82 57
83 15
125 126
48 83
39 26
13 81
50 73
52 46
25 115
38 66
88 20
53 55
85 114
68 64
105 48
76 4
122 48
56 76
28 9
62 101
98 95
79 122
89 97
13 104
109 105
48 72
40 65
41 75
30 115
56 39
91 134
91 12
105 35
74 83
46 42
69 92
57 35
102 51
121 16
99 4
110 119
28 45
7 26
91 11
127 44
84 41
43 1
98 99
39 79
46 123
37 19
109 67
20 41
64 27
55 54
57 56
127 102
96 64
115 82
41 71
130 30
109 108
109 97
79 105
118 60
128 90
125 43
133 100
95 103
105 42
76 127
51 111
18 127
98 109
123 27
80 112
9 111
85 57
22 74
17 64
17 4
45 33
66 121
46 9
38 4
41 125
129 125
9 7
56 69
121 47
73 66
65 16
59 42
117 8
63 90
111 82
67 66
119 4
117 96
43 128
80 33
32 71
121 51
32 21
127 126
115 44
82 78
125 110
131 77
33 61
7 87
82 37
111 64
16 17
12 4
83 26
46 44
44 132
6 12
76 132
85 104
129 102
43 63
8 121
90 30
24 10
133 74
10 51
30 112
60 67
100 16
95 44
89 24
34 88
99 110
134 18
75 109
99 111
100 116
2 94
110 47
49 35
12 100
79 72
55 98
121 26
133 102
128 59
94 127
42 94
84 100
14 51
132 25
38 48
85 11
102 71
111 86
10 116
4 92
26 127
17 44
71 72
84 109
84 82
26 108
131 90
100 10
15 44
87 122
1 60
119 79
131 133
26 25
58 46
94 119
77 57
79 1
27 52
87 133
119 32
72 130
68 22
65 67
68 124
5 67
75 63
99 50
35 94
85 66
67 25
15 36
127 95
118 4
66 105
22 18
98 7
44 76
68 132
128 85
63 70
27 11
51 31
82 28
91 66
57 53
90 20
42 109
14 123
77 49
23 21
8 88
59 133
56 43
122 10
125 62
59 132
113 123
60 107
127 70
9 50
40 126
65 6
78 27
130 74
32 102
21 129
127 2
26 114
116 28
42 128
124 46
73 81
126 1
95 114
80 134
116 36
78 67
105 72
90 65
33 29
9 103
42 4
107 129
121 90
68 46
63 11
111 59
16 48
117 16
100 44
15 26
107 81
73 89
79 115
82 58
75 117
1 29
73 121
41 80
15 116
42 111
78 18
13 40
129 49
30 66
118 125
64 123
61 106
33 111
72 83
115 43
74 81
103 73
17 8
86 13
125 102
122 121
9 12
51 37
45 24
60 85
71 95
129 105
98 2
114 16
1 127
86 60
97 6
57 98
55 15
113 49
14 105
83 49
67 64
105 100
40 3
94 111
36 102
44 110
40 122
60 40
4 13
115 10
101 126
17 112
126 15
104 35
37 129
59 122
25 50
65 7
62 74
91 64
30 109
71 57
27 127
74 116
58 17
37 107
99 101
40 128
134 109
21 47
105 8
45 57
71 99
10 8
64 120
19 40
85 123
124 65
84 34
131 89
71 106
95 111
32 67
15 129
97 62
42 17
47 95
109 85
17 98
120 97
41 50
27 100
71 12
55 105
11 67
74 11
124 101
125 109
133 40
47 90
35 78
126 72
66 27
31 20
130 84
72 90
68 25
82 45
27 129
128 126
128 64
6 130
130 64
30 31
96 86
5 88
36 93
53 4
45 55
113 68
105 93
68 39
57 28
46 111
25 87
40 28
64 22
103 30
43 25
80 106
65 70
16 72
8 83
26 124
87 38
93 9
78 30
94 113
11 100
104 44
54 34
66 21
42 20
14 35
130 97
130 70
32 118
50 57
123 54
67 7
93 127
17 56
15 70
132 19
10 99
85 122
50 30
95 122
129 35
18 51
13 15
72 14
41 113
48 57
86 70
72 121
130 48
115 35
98 42
5 63
16 124
42 24
73 5
48 124
8 130
123 132
1 96
26 132
79 25
48 4
96 118
11 127
75 77
76 8
12 122
8 31
53 128
104 66
70 114
21 69
73 35
35 29
72 40
3 80
44 32
105 89
2 128
128 110
3 44
118 45
43 133
53 48
56 123
102 86
105 9
134 126
14 113
107 73
79 4
64 72
77 65
78 113
27 131
125 3
44 118
43 67
62 110
10 79
65 106
64 55
130 42
42 48
70 11
118 11
27 116
114 52
55 115
58 31
107 85
15 9
82 46
123 70
5 90
112 95
45 48
35 44
8 91
30 15
98 59
7 127
28 41
50 123
95 124
49 1
87 55
36 73
116 11
40 98
7 133
30 134
110 58
42 134
7 16
112 67
1 23
101 76
15 5
29 45
73 99
103 75
115 123
90 51
85 90
91 122
85 112
9 77
132 118
35 48
27 1
45 106
81 59
59 13
116 99
128 48
95 17
40 125
133 11
57 95
65 123
71 111
22 123
22 85
111 1
11 35
41 94
12 76
77 31
51 85
73 2
46 73
83 55
99 40
7 71
133 78
98 78
92 86
31 84
99 31
11 38
133 118
128 5
8 36
127 59
6 87
3 124
4 20
55 111
103 119
49 30
70 109
100 74
101 121
26 63
40 53
11 113
95 105
132 54
95 1
85 94
120 95
105 94
119 128
2 123
49 103
16 120
40 46
102 75
57 22
76 35
121 39
93 29
6 115
130 36
78 100
12 123
68 84
69 131
132 52
113 115
12 70
129 4
113 125
127 40
52 36
52 45
95 113
82 15
70 84
81 49
125 34
80 119
39 70
87 28
119 77
75 34
42 88
18 129
8 20
79 125
105 57
6 59
133 128
51 91
127 36
105 132
56 9
40 67
122 112
90 70
76 131
124 132
116 86
133 32
72 49
30 105
93 104
57 127
43 22
109 128
19 122
38 97
134 88
28 19
113 111
116 63
27 46
87 120
51 49
30 79
44 125
75 83
113 73
11 66
36 12
32 131
84 11
67 21
133 12
31 4
23 86
92 55
126 48
59 14
43 69
78 127
132 130
127 51
80 55
72 115
130 67
11 41
128 98
5 102
55 81
102 58
21 17
50 52
53 25
54 106
11 112
37 115
41 123
43 37
88 84
120 72
14 126
15 120
91 101
69 125
132 84
66 79
50 49
6 8
38 119
86 37
31 129
126 116
134 58
40 87
88 132
43 73
130 104
113 39
62 50
122 114
40 78
95 7
117 121
41 126
115 52
17 84
39 57
41 85
126 97
89 14
104 113
85 42
90 35
4 120
51 57
123 127
91 25
44 79
125 94
107 12
90 129
84 90
49 57
91 131
31 16
79 121
73 41
31 111
5 80
75 22
122 99
49 89
120 21
90 113
66 1
82 34
100 89
12 13
17 102
52 56
75 66
43 5
63 30
58 94
4 58
79 6
91 13
74 79
97 98
93 115
124 37
113 28
123 33
49 111
57 126
52 124
36 126
106 34
76 103
12 11
9 51
118 113
96 54
57 112
56 14
100 125
112 52
7 83
84 52
134 102
64 78
25 110
79 67
67 111
39 41
64 75
109 114
132 45
36 74
4 39
4 89
88 70
59 70
57 107
125 25
128 26
130 134
113 34
31 109
114 84
13 115
82 71
55 112
132 125
112 16
116 35
43 99
27 34
86 103
125 10
88 35
68 55
111 114
118 79
91 57
109 127
104 26
26 126
9 127
41 100
50 31
74 64
55 35
26 9
19 118
42 16
129 59
77 69
120 2
126 109
68 65
6 36
4 125
28 134
22 78
40 73
17 35
98 132
127 64
12 67
101 23
110 27
33 96
84 93
89 76
45 97
4 130
8 13
57 66
126 79
86 52
92 35
26 111
24 15
51 129
30 46
52 102
1 53
50 56
7 17
76 104
125 130
72 93
41 45
120 111
112 47
99 75
4 73
128 127
40 71
26 67
95 39
25 5
64 93
26 125
112 78
112 125
95 66
5 81
125 98
111 41
41 4
94 49
97 5
89 48
107 105
107 93
118 130
68 120
128 113
75 38
95 20
58 113
42 28
55 62
116 117
131 44
8 64
78 41
119 42
58 16
127 50
128 36
131 112
9 106
125 71
81 12
57 102
118 14
52 6
50 120
99 132
38 22
67 131
95 59
12 22
51 52
9 94
116 66
14 112
15 98
23 58
58 55
19 90
11 95
73 13
134 74
49 128
110 56
9 17
78 83
7 1
104 38
130 1
119 47
128 93
94 73
121 1
16 4
93 69
60 61
95 22
71 16
119 104
25 8
72 134
65 25
14 6
60 59
50 80
19 76
1 84
124 87
84 97
14 10
26 35
38 34
16 92
4 95
89 72
27 93
91 41
134 32
91 96
76 37
67 84
44 71
78 12
63 91
127 56
13 44
1 73
117 94
50 108
18 47
132 127
124 15
81 32
21 102
12 26
131 37
120 34
130 13
1 109
94 51
60 75
121 68
81 18
111 70
14 32
81 19
10 5
127 116
83 121
112 114
40 117
5 118
2 53
79 93
6 123
102 124
12 84
128 101
74 71
56 124
97 35
12 113
102 27
71 109
93 96
53 76
7 43
27 63
134 121
8 43
71 8
35 82
72 119
11 54
126 132
87 53
59 48
116 78
96 92
20 121
16 41
124 23
25 6
70 68
5 72
36 95
16 10
63 13
6 127
119 70
10 128
120 31
7 57
115 32
54 62
99 83
132 36
22 97
6 42
65 44
126 52
84 125
14 60
131 30
90 74
90 126
52 37
48 125
64 35
15 31
109 36
83 69
21 110
94 17
27 106
34 71
37 30
84 85
46 34
15 112
106 92
83 90
109 83
41 121
98 53
48 82
2 17
69 51
63 87
82 114
1 40
56 6
108 96
69 7
76 77
42 41
30 127
51 79
68 129
40 97
128 131
95 31
13 7
75 19
38 88
132 57
111 72
112 132
17 76
1 22
122 64
64 77
15 87
17 66
132 6
124 130
79 82
118 17
55 100
23 103
40 103
104 10
30 118
71 36
44 94
10 107
134 33
83 20
112 59
43 48
10 9
121 111
95 56
62 117
65 42
101 57
2 22
84 115
34 87
89 114
30 67
66 6
97 93
111 74
87 31
64 116
73 114
13 89
41 7
13 112
132 67
112 61
90 56
67 102
22 40
4 105
78 130
114 10
93 110
36 82
98 27
36 125
94 56
36 85
20 35
109 118
74 78
69 82
67 14
123 114
31 67
61 52
87 71
128 22
105 128
124 125
99 86
18 119
66 46
109 10
16 56
70 38
36 87
112 12
83 82
84 95
15 46
57 78
87 67
60 46
26 113
65 121
10 95
18 74
94 34
17 15
68 13
85 74
71 129
101 105
81 129
67 44
79 8
120 58
1 14
134 71
28 10
66 35
60 129
95 76
38 77
33 116
102 81
91 89
36 20
43 36
17 74
129 11
1 114
77 116
35 124
91 133
69 71
100 67
106 105
22 41
69 16
71 20
65 93
83 39
2 24
30 93
118 47
105 110
127 4
52 89
119 131
112 49
66 22
35 107
35 28
2 76
121 42
74 19
103 46
4 110
72 118
114 72
72 36
57 133
102 76
103 58
99 120
84 120
90 97
17 67
115 57
25 17
35 22
83 128
101 123
60 7
48 113
50 116
4 43
42 26
42 86
16 74
9 53
11 42
2 59
127 75
128 11
8 73
122 68
114 40
22 72
95 128
121 91
121 25
86 110
85 1
100 113
88 78
115 68
39 132
5 105
56 47
132 103
89 53
29 20
4 91
20 57
66 8
108 103
123 74
133 53
125 75
117 111
3 92
129 74
82 1
90 38
10 118
87 115
19 104
15 42
44 66
7 129
102 97
74 59
48 8
100 86
86 101
39 25
95 45
134 114
19 42
31 116
15 11
1 54
18 62
115 127
131 42
44 120
107 22
14 45
79 37
62 105
124 9
86 124
16 128
133 113
40 12
57 43
98 1
128 46
17 125
80 72
100 129
117 80
98 88
130 109
46 116
99 51
77 19
105 120
97 36
99 22
84 78
9 35
94 115
30 91
7 48
115 99
130 91
82 17
89 124
74 98
102 59
127 112
28 51
122 127
129 26
115 59
87 82
8 133
110 23
45 61
83 11
15 14
75 51
106 15
71 91
53 112
24 4
59 49
134 52
105 65
85 3
86 45
112 130
127 35
38 28
115 63
119 109
13 109
15 59
105 6
54 129
123 87
27 5
32 66
87 44
53 43
48 131
111 10
112 84
11 64
11 125
65 130
87 99
75 17
102 87
57 46
126 12
16 57
50 11
74 67
7 68
8 128
105 131
42 97
36 84
19 125
34 42
10 30
75 6
134 6
43 45
87 73
60 62
57 9
10 127
71 93
111 5
42 67
17 128
133 120
120 10
15 91
55 91
123 129
87 96
115 130
111 60
115 40
69 96
52 71
103 5
49 107
134 56
49 64
41 57
95 15
50 10
84 51
91 99
62 76
57 40
106 29
2 60
1 120
95 40
16 66
113 42
90 67
46 59
73 112
123 94
56 89
48 92
29 92
123 83
124 19
69 63
109 115
3 93
52 18
56 62
42 10
11 124
117 55
38 14
93 121
118 120
68 74
116 25
115 125
130 87
22 111
30 27
101 134
88 13
60 37
130 62
42 71
44 82
57 97
68 57
80 108
25 78
76 126
25 42
14 57
112 6
131 13
15 7
74 113
23 47
8 99
86 26
42 22
67 58
7 36
52 57
20 52
25 70
63 34
93 52
41 112
130 56
88 32
53 52
48 93
97 85
120 122
98 14
125 67
15 40
51 104
66 56
30 75
42 52
18 133
111 38
118 46
9 42
53 7
56 36
18 14
80 85
122 36
28 112
95 109
54 27
108 106
39 91
65 41
53 41
97 14
52 13
84 35
49 127
106 55
56 120
89 7
10 126
32 18
11 10
1 63
70 107
47 93
29 22
126 63
114 51
50 45
105 50
116 52
59 34
65 91
56 79
114 55
38 103
120 100
132 122
13 113
106 85
76 21
41 46
3 70
47 15
82 43
58 51
49 99
38 27
50 44
85 125
30 16
25 80
90 68
79 132
20 5
65 127
78 95
42 2
119 127
124 91
111 35
128 1
104 134
79 35
127 121
56 28
70 22
71 9
29 107
52 123
16 52
114 71
12 118
51 63
68 44
70 54
104 98
43 59
56 11
39 33
118 111
87 114
67 22
35 68
115 31
122 104
9 97
72 9
1 76
63 73
118 48
126 84
44 123
85 64
63 97
44 2
120 128
12 97
46 32
82 32
115 114
34 15
119 2
91 110
25 59
19 93
28 13
93 7
35 72
68 60
103 118
102 122
97 17
66 15
73 62
83 73
41 104
94 98
93 119
26 49
125 87
10 54
96 10
98 124
32 105
65 12
65 33
40 7
83 64
67 63
29 61
53 35
105 44
79 50
105 133
44 85
29 111
91 44
64 4
133 26
85 116
105 17
71 116
25 105
111 34
107 62
111 81
53 97
10 84
56 87
6 111
132 7
31 91
73 124
43 114
13 25
122 16
68 114
113 53
68 116
119 124
115 103
36 23
98 82
91 74
107 87
65 10
108 92
59 123
9 104
42 115
68 9
21 65
125 74
119 11
56 71
36 62
94 82
119 78
126 7
23 59
126 42
130 41
119 111
91 112
36 90
112 8
106 3
103 127
34 8
18 118
87 128
114 118
99 102
115 16
123 72
42 84
58 72
10 15
94 71
52 122
35 40
12 63
46 100
15 51
60 82
72 68
55 95
63 129
120 53
42 44
1 52
116 114
56 51
88 124
32 76
29 55
128 31
90 109
37 49
23 80
125 22
56 104
120 57
18 103
54 68
131 75
23 32
14 90
122 46
37 134
120 63
46 108
65 111
133 56
19 64
90 73
91 52
130 102
110 32
36 83
5 119
74 42
63 17
127 25
114 42
41 40
124 50
79 128
87 26
134 78
32 121
68 111
97 121
20 32
92 33
32 36
77 41
65 98
62 43
42 43
97 65
133 28
83 100
30 99
53 111
56 53
22 133
13 48
60 30
102 9
134 2
98 84
20 43
123 124
27 103
15 113
83 88
104 55
106 11
35 128
66 52
9 66
130 76
14 11
130 25
75 74
129 115
104 81
44 20
64 95
95 93
80 61
100 121
63 52
12 64
63 119
50 88
16 109
35 36
49 62
105 10
105 91
82 16
112 26
87 85
73 48
101 58
43 78
45 5
114 132
15 72
30 39
52 72
28 94
6 131
123 36
39 85
119 125
112 126
105 74
8 21
8 67
125 83
75 113
124 94
70 95
91 73
98 91
125 123
10 64
122 15
66 90
82 124
35 37
11 130
89 112
70 87
109 28
13 56
35 6
88 2
14 27
133 75
80 30
123 62
126 100
22 25
26 10
66 133
89 1
99 5
104 114
48 97
120 132
74 66
100 118
109 17
2 104
52 8
100 13
27 6
134 69
70 28
83 106
119 67
125 72
17 81
118 122
63 134
23 18
52 111
1 65
115 124
79 114
99 123
118 15
22 104
85 10
79 98
51 110
104 132
59 91
71 64
97 10
96 45
129 56
13 6
69 28
6 44
91 118
59 101
46 26
41 2
41 66
113 22
75 20
72 12
125 6
39 76
22 48
122 14
41 8
63 10
4 21
78 126
66 64
130 95
57 89
36 41
124 104
75 68
18 84
98 56
