Vertices 255
101 "#183"
104 "#172"
253 "#56"
148 "#99"
112 "#34"
170 "#41"
48 "#17"
222 "#157"
83 "#143"
251 "#184"
80 "#215"
22 "#176"
152 "#39"
229 "#196"
12 "#132"
228 "#151"
63 "#247"
45 "#219"
181 "#73"
166 "#133"
81 "#60"
230 "#240"
2 "#149"
115 "#38"
124 "#243"
231 "#140"
220 "#114"
76 "#227"
49 "#224"
95 "#121"
59 "#26"
153 "#112"
172 "#194"
157 "#125"
177 "#29"
248 "#115"
128 "#139"
190 "#169"
43 "#131"
252 "#241"
130 "#142"
52 "#96"
9 "#146"
35 "#82"
118 "#91"
145 "#217"
70 "#71"
162 "#190"
15 "#85"
94 "#158"
42 "#166"
126 "#48"
180 "#50"
168 "#232"
237 "#104"
88 "#216"
223 "#83"
113 "#238"
66 "#161"
67 "#144"
14 "#174"
74 "#203"
10 "#0"
194 "#105"
46 "#188"
98 "#198"
179 "#206"
176 "#57"
205 "#170"
216 "#7"
107 "#156"
117 "#214"
56 "#177"
244 "#1"
236 "#204"
234 "#242"
90 "#122"
30 "#102"
120 "#46"
92 "#231"
122 "#173"
121 "#16"
131 "#12"
106 "#141"
138 "#47"
32 "#31"
93 "#199"
196 "#230"
116 "#18"
193 "#52"
58 "#208"
86 "#239"
127 "#87"
187 "#32"
44 "#248"
84 "#117"
69 "#250"
50 "#51"
173 "#58"
186 "#180"
226 "#116"
246 "#74"
40 "#193"
39 "#113"
87 "#229"
3 "#54"
4 "#249"
202 "#49"
6 "#45"
31 "#135"
195 "#79"
233 "#182"
105 "#110"
146 "#88"
136 "#8"
255 "#65"
142 "#129"
184 "#192"
207 "#154"
238 "#95"
54 "#63"
91 "#119"
133 "#66"
183 "#197"
38 "#136"
34 "#118"
21 "#21"
64 "#10"
137 "#128"
99 "#168"
188 "#13"
211 "#30"
28 "#94"
209 "#106"
20 "#90"
232 "#43"
147 "#111"
161 "#69"
97 "#159"
174 "#251"
24 "#9"
25 "#103"
5 "#181"
82 "#209"
65 "#27"
225 "#155"
155 "#100"
123 "#220"
178 "#35"
191 "#138"
134 "#189"
85 "#68"
135 "#195"
160 "#175"
154 "#75"
164 "#253"
189 "#252"
235 "#228"
185 "#222"
198 "#33"
201 "#108"
192 "#134"
33 "#145"
102 "#148"
77 "#212"
247 "#178"
224 "#98"
79 "#162"
197 "#201"
169 "#24"
68 "#226"
150 "#120"
19 "#245"
241 "#186"
167 "#171"
199 "#36"
242 "#67"
159 "#236"
60 "#93"
158 "#78"
219 "#92"
212 "#55"
8 "#14"
89 "#89"
17 "#109"
245 "#44"
18 "#235"
227 "#25"
243 "#185"
114 "#70"
72 "#3"
204 "#137"
103 "#153"
78 "#84"
206 "#42"
119 "#126"
47 "#210"
36 "#179"
51 "#40"
221 "#150"
218 "#28"
37 "#86"
144 "#124"
11 "#15"
100 "#213"
62 "#19"
61 "#207"
73 "#62"
125 "#20"
27 "#59"
141 "#163"
239 "#76"
139 "#107"
7 "#123"
1 "#5"
129 "#64"
213 "#72"
143 "#225"
182 "#53"
29 "#211"
26 "#234"
108 "#127"
175 "#223"
208 "#2"
13 "#101"
132 "#187"
214 "#191"
156 "#160"
71 "#244"
249 "#233"
109 "#61"
151 "#11"
250 "#164"
165 "#165"
210 "#152"
57 "#97"
217 "#22"
203 "#167"
55 "#77"
96 "#237"
200 "#200"
111 "#221"
53 "#147"
163 "#81"
171 "#205"
240 "#218"
140 "#23"
149 "#130"
254 "#6"
41 "#37"
16 "#80"
75 "#246"
23 "#4"
110 "#202"
215 "#254"
Edges
130 47
154 17
139 130
146 91
180 217
39 118
116 176
241 192
146 5
71 20
241 60
242 81
220 93
192 56
115 12
198 72
192 61
24 178
97 127
108 155
229 137
211 130
192 217
118 221
167 104
100 134
34 60
140 125
250 246
26 18
233 219
236 119
201 30
113 22
127 212
146 59
83 6
199 140
62 65
107 225
67 82
160 99
86 168
131 127
144 52
78 73
68 231
35 48
28 36
11 166
224 64
76 235
179 148
146 195
114 156
236 243
57 237
78 52
182 34
56 145
232 27
248 209
53 20
67 85
180 70
70 25
39 57
148 208
48 224
154 223
17 98
27 48
127 137
186 20
2 57
43 85
220 250
67 31
147 96
207 147
20 98
51 21
83 197
241 247
239 6
60 87
198 10
81 59
39 221
42 195
149 47
70 201
201 108
182 78
214 98
157 141
193 129
9 220
223 81
127 28
237 131
85 36
182 70
9 210
126 180
204 94
190 13
61 240
139 84
139 251
247 163
17 193
70 81
89 190
109 116
49 238
25 223
95 18
102 78
190 130
128 51
164 241
96 9
248 41
115 254
146 188
103 95
53 112
135 45
149 246
229 56
231 34
237 224
88 123
188 37
182 1
208 138
24 144
103 74
71 44
9 138
169 48
132 238
193 151
233 14
146 53
103 176
221 46
109 34
138 81
102 236
137 130
231 124
34 155
204 237
90 110
234 214
35 60
149 61
117 52
37 176
41 182
232 161
164 105
165 166
224 173
246 103
239 50
144 191
150 227
41 140
46 156
146 118
53 102
188 223
52 254
109 38
194 92
131 35
30 210
213 194
148 219
97 25
106 97
15 188
119 15
212 125
5 14
207 160
183 205
88 82
49 250
42 7
220 122
125 138
25 212
6 140
132 197
3 109
237 144
20 55
160 167
185 101
72 125
60 95
181 11
9 28
10 24
130 251
97 141
208 109
203 150
66 153
30 253
65 127
52 137
36 77
107 132
188 23
115 224
126 41
225 132
1 12
43 60
248 201
146 129
155 182
181 55
10 55
167 14
115 59
38 79
78 222
248 244
144 30
89 57
139 89
241 30
205 36
242 231
79 5
2 250
175 228
110 61
97 153
225 127
160 179
255 79
212 213
139 95
9 102
147 70
65 255
206 127
226 93
254 65
63 117
247 255
32 65
245 199
126 65
5 110
219 154
72 231
245 151
141 201
68 45
223 190
133 170
62 102
10 182
231 158
20 183
170 59
90 149
104 5
181 193
110 184
253 115
53 22
156 57
155 139
129 108
252 26
88 91
201 205
172 118
66 91
130 85
127 25
179 166
187 7
101 47
115 202
29 168
38 21
168 92
187 182
207 183
156 207
114 9
250 130
67 12
117 80
103 223
72 51
95 46
165 225
120 116
115 83
10 37
112 163
166 150
198 24
43 166
242 223
74 175
128 216
142 110
1 188
237 233
236 39
231 108
122 89
29 167
155 115
113 18
127 194
242 207
226 105
70 155
119 60
157 147
111 12
169 6
96 19
13 192
100 201
38 248
80 99
145 30
194 5
186 220
48 195
120 191
67 90
128 248
226 186
148 9
33 117
212 202
192 28
41 64
253 178
212 3
165 168
52 148
105 172
109 25
170 1
14 57
2 93
40 74
50 115
229 191
131 180
15 203
181 137
182 152
30 126
214 247
169 151
173 152
85 32
107 181
215 4
1 3
67 136
57 215
109 31
9 173
83 75
171 86
193 242
253 89
99 201
181 89
55 154
53 223
223 247
175 69
102 89
207 204
212 59
55 22
4 234
222 146
43 66
165 109
138 136
196 102
231 148
174 105
16 54
61 166
149 166
163 224
192 186
86 49
108 35
217 140
86 225
32 170
10 199
108 183
201 109
240 18
175 214
246 20
163 177
211 193
221 49
202 52
50 173
2 36
13 241
20 190
213 60
181 136
110 249
15 181
17 31
39 102
122 53
218 126
238 67
241 123
36 147
164 159
253 213
116 127
21 198
131 254
6 208
13 201
7 106
224 5
144 178
165 111
76 58
73 173
37 146
95 80
198 208
2 66
154 127
137 102
254 13
201 6
81 127
202 13
13 12
129 64
107 103
30 231
89 232
105 52
66 69
16 246
160 186
218 246
210 104
206 218
238 218
121 218
48 237
240 147
210 176
146 148
201 17
137 205
67 204
190 46
85 173
246 187
101 190
82 156
157 122
23 224
99 101
139 46
140 231
8 218
179 7
65 109
246 55
156 204
148 213
46 123
101 97
129 127
229 104
212 220
173 51
207 79
113 168
165 57
118 205
160 30
185 141
28 150
234 210
70 154
224 225
135 40
56 165
239 12
88 134
220 134
38 65
2 20
209 235
50 116
148 109
65 146
36 56
74 30
236 111
176 81
93 104
109 27
203 56
250 108
128 130
238 96
79 52
233 135
245 212
211 125
236 163
106 64
195 122
91 246
240 167
228 49
117 47
119 5
118 52
38 137
194 23
25 128
216 211
7 127
147 55
133 191
136 254
76 98
42 214
28 204
24 102
66 134
129 181
12 143
170 105
201 194
89 184
133 39
128 172
78 115
3 246
77 203
2 69
209 52
218 65
62 11
30 39
255 133
145 224
101 25
227 139
191 166
208 10
216 32
158 225
247 49
122 70
129 161
141 17
148 20
10 170
26 162
245 114
238 191
84 6
244 114
14 160
111 139
239 228
43 12
129 60
127 128
5 162
56 53
11 10
184 155
136 16
212 152
161 97
103 161
150 153
243 61
15 105
130 90
16 129
204 108
37 231
146 187
114 66
67 149
225 197
10 81
159 124
255 116
21 170
61 156
95 99
180 3
10 105
159 75
118 134
129 118
126 27
212 57
239 150
148 237
130 133
150 69
204 236
236 143
41 32
62 152
195 114
88 5
3 254
25 137
198 23
181 149
205 18
198 67
122 69
26 19
72 133
129 210
114 51
25 155
135 76
38 166
109 193
144 141
222 171
211 198
161 177
232 1
160 171
131 115
76 195
247 129
184 105
142 247
109 219
156 205
222 109
124 19
60 28
225 5
130 114
148 99
219 13
222 154
129 15
253 239
238 114
48 173
59 114
230 137
70 130
247 203
3 242
135 171
152 246
139 219
39 224
91 172
131 64
81 153
5 163
183 78
19 69
161 246
221 30
209 116
228 231
251 248
219 9
190 222
248 210
206 73
160 56
237 248
60 125
183 107
66 103
239 73
146 126
250 196
223 64
248 37
249 139
92 91
20 192
40 97
38 119
177 91
48 255
42 66
240 123
72 50
245 177
123 36
242 177
224 112
148 236
136 216
127 67
206 133
2 214
31 166
65 35
7 91
228 103
252 9
238 24
130 40
195 84
192 31
254 11
21 48
46 135
48 238
98 80
38 159
50 245
244 238
68 130
72 195
94 237
127 146
114 101
114 181
98 47
211 152
200 68
35 15
225 191
53 195
73 24
210 68
220 225
77 105
85 118
209 88
118 147
251 99
69 168
112 27
106 154
144 156
88 33
56 149
128 203
243 147
165 224
165 158
89 2
195 220
39 114
126 43
84 155
229 248
20 97
94 86
93 107
223 7
155 100
78 238
224 212
204 137
16 102
17 192
158 41
248 60
155 148
65 232
45 127
194 238
44 13
240 30
187 140
129 28
136 245
231 188
122 147
194 2
67 124
59 209
232 153
214 53
20 32
235 68
128 185
80 179
251 219
162 78
172 226
242 27
91 155
187 176
91 176
211 24
127 2
150 129
25 62
44 229
250 141
105 153
37 104
160 175
173 108
193 1
12 158
203 205
209 31
78 187
69 12
65 192
60 37
158 60
112 206
26 149
244 178
223 62
163 221
225 130
90 29
178 121
126 70
141 118
242 147
255 35
154 12
9 142
195 27
53 204
210 79
97 103
211 217
149 133
223 20
81 221
246 204
218 253
126 85
186 58
93 46
121 115
160 237
20 188
176 195
186 15
5 179
193 121
1 102
141 190
6 85
155 41
165 209
235 158
32 254
146 247
243 142
40 29
148 16
35 140
6 146
25 204
246 191
195 161
185 94
105 137
13 200
160 94
73 157
134 84
135 184
6 131
162 147
241 122
114 106
5 123
155 206
113 159
15 50
3 218
147 72
86 204
9 150
255 242
85 108
153 42
225 119
242 227
68 87
163 15
205 210
142 127
12 146
235 163
139 229
219 161
98 233
115 182
184 2
166 236
16 149
158 119
213 218
151 121
142 158
108 206
253 199
250 9
148 107
190 16
178 23
240 17
251 30
33 137
247 106
144 223
137 221
135 4
152 245
248 91
30 116
137 30
255 158
12 224
125 62
81 181
137 57
246 142
186 104
211 109
106 39
8 212
122 107
233 13
64 81
105 93
99 179
105 2
192 94
102 27
162 25
78 254
60 127
91 203
25 30
247 89
186 101
149 187
207 5
117 189
7 62
149 239
3 202
174 252
134 229
200 76
199 81
96 233
51 178
4 159
116 144
40 231
166 66
5 33
18 231
103 17
208 12
97 105
18 92
102 109
66 146
73 227
228 247
169 146
197 159
9 79
183 76
245 138
181 1
148 156
163 25
212 11
85 199
28 120
223 126
187 85
140 109
45 78
204 222
245 227
15 242
173 194
34 108
107 185
56 163
67 95
27 219
18 53
146 174
226 144
141 183
144 117
220 182
228 150
49 159
33 43
237 177
237 211
32 227
126 115
129 73
153 225
134 74
120 89
81 182
53 250
51 59
17 13
129 246
184 219
133 129
79 70
67 183
133 150
255 187
59 192
26 142
33 250
144 219
218 112
115 204
55 52
28 2
234 43
66 53
186 214
94 109
176 211
27 136
149 254
90 82
173 25
20 226
20 126
156 66
20 169
64 254
246 228
23 105
50 48
224 235
209 95
158 35
88 167
224 9
99 66
118 66
243 225
142 255
115 108
79 68
150 161
16 241
73 81
105 133
152 244
133 73
79 94
52 142
30 128
89 45
10 114
161 239
114 192
122 128
225 183
1 140
46 228
179 225
225 147
223 136
214 235
51 16
199 192
103 240
169 226
163 248
175 235
254 108
73 72
198 181
201 34
43 216
230 92
176 3
21 157
55 118
177 227
83 100
90 43
146 28
211 206
137 7
108 228
56 33
204 91
155 33
100 222
120 146
14 130
224 155
238 148
91 190
107 73
178 188
172 225
148 25
172 235
249 179
250 35
78 220
210 5
123 47
57 142
172 71
118 121
154 239
59 199
110 153
244 170
131 152
10 209
66 200
65 157
117 75
65 140
34 229
77 76
120 170
78 105
87 108
126 242
24 194
84 216
57 188
67 130
54 17
25 90
34 185
8 173
192 104
255 85
29 130
125 148
157 131
127 145
130 78
70 15
147 97
209 130
188 118
149 33
77 148
213 121
161 154
252 4
161 53
55 173
238 219
187 188
36 13
57 147
9 135
175 107
199 188
22 162
180 1
132 162
108 17
201 226
21 131
207 15
191 46
128 139
101 56
180 52
52 157
42 57
204 9
107 119
51 199
116 181
214 119
91 81
166 127
109 105
127 192
17 129
233 207
28 126
89 158
94 132
251 84
95 78
143 49
249 28
70 178
253 102
64 48
14 163
108 246
33 195
93 241
242 52
159 30
219 229
108 79
32 202
76 118
75 172
15 217
148 47
15 82
163 250
154 216
33 241
154 233
21 237
243 56
198 219
148 58
224 142
11 8
193 11
117 95
163 103
144 85
223 253
209 223
203 42
125 121
216 173
251 250
239 62
60 26
183 70
100 105
46 163
152 181
122 204
213 136
133 6
117 123
146 27
248 43
178 83
89 116
54 210
184 205
125 55
33 52
104 144
26 164
25 12
28 181
99 243
79 195
117 236
17 224
169 116
181 160
119 175
140 112
78 20
25 50
173 153
220 243
172 31
192 139
43 31
108 221
227 127
54 7
163 148
95 43
127 248
107 40
194 216
20 247
2 102
222 85
165 127
170 255
81 48
113 93
50 182
81 254
244 201
202 161
233 221
91 224
229 108
232 131
92 220
106 15
64 28
158 146
195 9
215 102
248 181
189 75
79 99
181 233
165 130
229 79
184 132
115 70
27 193
77 156
36 127
228 209
77 58
244 188
237 236
162 70
146 156
236 135
78 77
138 17
173 245
7 34
189 39
20 254
204 239
70 12
213 206
1 136
213 181
218 182
30 157
44 36
129 233
209 156
27 84
234 168
55 72
187 199
120 62
25 105
145 76
173 254
163 237
228 20
134 98
239 10
38 130
185 83
74 91
133 231
15 45
232 64
57 6
141 104
35 219
56 89
120 72
233 118
212 198
61 103
212 211
192 195
242 118
20 102
31 221
135 20
134 12
178 90
242 194
151 255
228 210
68 229
181 98
70 227
55 146
165 135
72 144
55 127
16 236
189 252
37 97
134 127
126 199
7 93
240 80
219 216
161 245
83 199
195 199
138 115
112 253
100 243
84 72
62 73
188 90
54 27
137 245
166 172
238 160
227 50
188 140
110 135
130 210
1 57
20 81
34 242
100 34
144 78
35 84
183 28
192 129
106 244
5 22
67 163
251 225
245 108
40 22
9 31
70 41
32 114
254 50
190 154
57 194
181 194
57 13
91 109
232 108
150 232
65 245
181 16
2 5
163 12
41 55
99 150
13 6
55 6
253 173
64 187
137 94
80 207
216 8
13 157
23 59
140 131
193 246
60 74
216 193
43 137
24 1
144 167
82 75
130 60
106 165
180 208
183 191
245 244
108 7
242 24
206 16
224 236
251 207
38 90
95 55
231 13
182 245
35 165
253 50
104 56
110 229
229 33
51 48
73 52
90 28
101 175
204 70
179 118
165 95
231 219
55 222
227 131
224 130
116 114
204 2
157 103
116 27
120 78
184 47
160 101
221 94
204 119
20 17
211 27
255 138
137 9
41 178
37 254
153 135
35 141
252 87
25 252
126 60
74 149
174 19
57 24
207 76
28 35
79 83
105 91
60 38
231 248
102 67
139 141
118 22
152 158
31 149
34 225
251 137
30 35
110 201
88 164
105 223
114 21
145 58
182 202
43 190
61 175
23 41
239 81
156 143
169 246
152 201
154 242
237 180
8 59
28 44
25 13
194 42
91 23
91 102
55 120
111 231
70 207
154 201
123 156
58 135
222 246
94 57
242 160
197 70
48 24
140 180
16 163
203 226
227 48
207 93
221 172
28 226
30 121
65 116
230 201
12 144
177 64
191 209
146 70
161 231
102 35
147 44
84 57
185 82
222 20
245 10
151 242
153 91
57 224
156 95
12 213
23 187
148 63
117 200
57 131
61 160
239 79
66 80
158 208
209 102
148 191
84 166
229 93
95 237
222 70
149 227
156 111
136 23
193 194
170 131
183 47
30 182
226 156
207 130
48 114
98 38
218 6
168 189
32 55
3 54
18 159
79 213
93 30
65 153
88 15
156 25
106 89
62 193
241 165
28 55
60 210
190 104
40 78
219 167
222 26
53 181
248 121
28 97
52 76
21 1
162 167
107 209
126 59
99 135
127 224
106 148
72 37
26 192
89 177
201 148
60 17
105 19
84 25
237 190
91 156
160 43
111 144
13 224
106 99
16 119
89 133
16 128
95 24
60 114
50 114
65 148
176 119
154 163
157 33
13 176
4 5
8 244
204 155
132 243
131 129
122 134
17 61
107 98
109 207
92 127
133 65
199 218
5 25
15 43
1 116
195 52
199 178
36 40
57 128
97 34
9 104
246 109
145 53
153 176
176 48
155 149
170 138
170 187
14 200
222 231
121 70
137 129
27 178
72 152
38 107
169 220
225 85
154 6
135 16
85 73
136 182
233 209
37 134
121 216
251 127
173 116
35 34
91 137
132 203
78 145
179 26
116 121
185 159
149 194
99 13
37 204
145 247
108 39
8 220
215 196
8 83
235 36
150 121
180 227
250 158
31 191
223 130
13 5
228 122
105 204
170 112
157 153
204 232
116 70
250 98
12 150
138 43
52 179
231 203
198 201
37 156
245 34
190 31
25 79
239 205
200 79
149 229
36 251
165 155
248 190
243 231
203 28
33 95
163 55
216 72
166 122
101 28
37 220
94 118
180 8
247 30
171 25
134 132
154 181
206 182
38 5
62 34
39 72
127 118
84 226
41 244
63 196
194 30
59 226
108 14
37 89
52 60
211 242
211 70
26 95
197 76
25 240
204 149
164 186
169 23
154 10
35 24
17 55
105 65
34 183
62 195
224 180
118 58
139 102
245 187
13 24
253 206
99 45
23 125
187 120
203 238
14 204
10 15
43 142
255 178
238 52
119 17
140 170
68 179
60 23
242 146
195 251
127 85
126 136
37 183
200 197
226 24
67 114
22 104
195 148
123 33
32 242
237 156
226 88
103 20
175 219
231 180
138 223
227 116
170 219
116 106
244 85
105 79
125 208
187 90
21 116
28 89
246 95
155 57
239 223
199 136
248 157
230 2
150 190
145 104
226 210
239 147
172 79
114 1
61 235
53 106
58 201
48 60
27 73
158 192
224 82
162 43
193 65
83 223
124 68
134 175
222 31
86 205
98 13
77 210
199 208
119 43
21 149
177 126
135 247
108 149
36 53
78 58
169 161
164 100
55 188
181 204
106 242
243 160
172 57
104 248
142 81
60 224
86 184
166 49
152 204
33 223
95 57
55 184
98 207
67 43
204 130
194 228
43 37
149 12
176 226
147 78
48 163
172 25
108 192
162 240
129 8
193 72
166 155
14 146
165 226
85 60
219 18
211 37
120 35
193 51
77 38
239 155
103 110
152 116
203 106
253 24
222 99
57 207
203 237
125 48
192 225
170 11
85 52
187 206
201 165
194 81
157 139
110 14
28 195
173 161
208 193
212 158
55 129
233 7
253 158
16 222
152 170
207 165
61 105
96 105
8 24
242 148
160 103
76 82
207 78
130 22
20 91
22 221
7 147
96 162
19 230
104 207
137 214
188 78
77 205
2 209
13 46
70 21
235 222
135 36
105 191
46 184
29 132
78 51
108 153
242 54
204 22
85 112
212 191
106 163
14 186
110 155
77 243
41 48
214 159
77 68
31 218
248 12
71 220
119 208
115 8
242 237
65 177
55 251
247 36
60 96
123 49
111 76
142 192
91 123
62 78
177 176
23 202
163 33
226 158
144 166
209 7
5 155
66 231
21 163
36 110
82 203
182 120
70 55
173 78
57 250
165 37
109 232
220 153
89 60
237 71
82 89
126 158
253 116
248 6
101 207
216 16
153 123
210 223
152 1
125 201
6 3
216 220
102 130
146 225
240 77
35 151
167 155
81 72
23 253
7 60
200 101
220 240
152 188
112 38
90 106
127 214
158 157
6 32
101 233
250 238
194 91
131 85
225 210
50 64
93 118
30 223
166 91
217 27
98 43
24 81
202 198
114 170
167 122
112 227
128 59
36 84
111 190
126 148
176 182
33 148
144 4
66 209
242 8
168 103
99 34
157 146
118 122
173 170
156 134
133 227
188 217
173 41
83 204
237 135
131 218
149 9
118 81
166 247
108 185
68 117
54 53
20 143
21 50
93 172
234 86
131 217
56 175
213 34
66 52
212 206
218 11
52 68
238 176
238 28
142 143
184 28
18 111
248 234
226 213
21 57
43 106
202 146
255 115
188 193
9 78
143 122
24 11
134 5
119 87
51 140
185 190
69 209
108 140
107 141
177 180
97 246
252 229
85 155
228 185
74 39
183 127
213 55
20 28
79 161
183 29
140 95
209 137
237 195
211 173
20 38
134 53
38 84
128 31
139 123
25 43
38 255
72 121
84 144
25 209
127 15
195 1
34 137
97 137
208 218
217 216
118 123
10 3
147 56
7 149
209 29
79 22
218 129
185 61
182 133
166 139
223 97
64 125
217 41
142 14
223 226
55 121
57 38
237 197
133 41
55 142
114 27
84 186
203 166
17 78
180 106
86 203
166 15
37 180
154 2
231 103
138 30
228 92
29 42
155 133
67 211
195 211
103 238
141 13
141 205
251 13
14 47
108 114
91 223
99 28
193 89
220 214
103 92
78 126
91 90
130 149
13 117
201 129
103 77
82 91
172 33
137 101
148 253
13 48
212 116
99 248
51 119
181 84
227 24
112 50
126 35
128 9
11 59
105 1
174 150
155 89
39 119
158 90
35 42
201 219
132 231
75 162
99 31
25 254
180 138
169 140
165 82
128 166
153 15
155 20
42 60
43 224
74 219
217 89
53 149
9 7
147 204
47 107
133 42
34 43
1 28
187 72
5 214
116 11
71 91
165 43
92 87
255 224
254 125
194 67
180 253
82 167
52 31
41 131
178 84
128 119
255 149
208 187
16 85
42 58
78 253
25 20
191 34
253 10
236 214
71 143
248 13
54 194
55 210
17 76
142 226
9 107
175 186
205 153
132 144
117 171
53 142
10 246
250 80
52 72
129 54
250 52
154 158
150 165
1 138
167 175
229 192
159 234
166 67
13 246
116 118
60 101
85 254
231 76
36 246
45 40
212 20
144 108
251 165
126 245
105 237
191 167
70 150
100 90
57 222
106 226
246 192
234 36
178 208
139 17
40 194
237 129
109 10
186 222
196 201
253 127
93 25
191 130
143 196
250 28
197 167
185 191
53 113
243 67
208 13
39 168
191 252
37 251
211 201
63 111
221 150
43 222
66 220
12 200
196 204
254 48
180 27
136 21
194 139
235 201
66 110
9 190
43 213
151 199
6 242
223 211
203 250
130 104
6 24
105 9
96 18
81 23
243 214
81 11
155 32
124 168
54 51
77 145
138 41
83 89
146 99
133 163
222 103
204 39
17 144
234 63
103 200
128 225
115 23
198 85
144 14
248 57
220 147
34 221
60 16
111 100
186 228
251 242
145 184
157 5
219 197
214 47
179 94
157 137
154 1
192 165
218 154
16 182
132 90
176 27
10 59
60 62
126 24
127 155
77 52
188 170
192 133
226 1
238 155
138 16
87 164
156 231
73 253
133 210
91 32
248 83
83 67
196 207
200 95
176 192
188 105
63 74
17 225
138 211
241 79
163 212
149 234
250 209
28 210
239 181
6 246
72 116
111 40
15 138
98 124
82 141
207 22
181 126
83 38
220 254
141 179
101 71
97 99
187 105
20 3
139 148
100 185
95 61
192 231
52 131
199 198
94 238
106 72
248 19
230 22
32 62
65 151
254 216
236 228
208 223
195 127
112 6
139 198
130 53
241 248
71 137
77 118
206 217
226 200
197 144
137 144
29 225
194 250
119 201
212 62
187 158
28 107
107 15
85 237
85 217
66 89
11 121
93 82
164 252
78 177
246 54
39 60
114 33
122 5
95 23
212 102
171 172
35 106
87 192
38 25
29 77
192 148
129 188
53 239
255 62
53 191
134 38
124 97
227 105
164 139
221 38
78 151
20 36
224 67
180 139
238 127
130 108
103 52
180 121
138 253
213 57
247 99
86 132
104 61
183 203
173 118
243 25
24 3
129 97
14 205
36 214
5 17
96 63
17 233
128 255
168 67
50 16
181 5
13 34
52 28
28 187
108 116
248 240
138 65
220 39
125 163
21 182
214 123
94 9
72 17
73 30
224 125
17 111
253 31
200 100
201 207
120 6
206 106
213 78
146 48
215 75
216 242
125 32
227 253
146 138
40 191
219 158
144 154
40 103
209 172
20 95
74 43
152 54
205 226
169 15
12 249
216 246
30 27
48 187
190 153
108 56
217 232
73 161
203 16
83 14
226 173
85 25
52 130
233 238
60 250
43 149
174 144
75 22
19 99
170 126
22 95
72 255
45 204
50 161
166 184
176 24
20 168
186 66
210 197
49 222
157 14
73 41
170 237
12 95
198 169
163 35
49 44
196 33
43 148
110 107
67 53
140 133
48 133
155 130
228 192
246 244
160 147
135 214
119 150
38 127
215 159
134 241
160 163
92 111
181 219
155 31
136 32
49 251
22 102
144 115
139 106
17 202
19 113
229 184
153 101
80 165
198 120
169 64
227 188
232 120
166 193
144 106
116 195
60 11
75 234
177 129
56 204
54 25
89 146
197 110
130 201
57 98
114 64
31 248
173 210
195 222
246 51
130 236
253 232
59 120
209 197
130 28
199 244
90 166
7 43
39 84
120 199
187 24
55 35
89 98
16 142
76 157
31 141
17 39
241 113
87 26
85 161
167 7
183 53
238 210
59 15
91 202
118 107
81 35
119 184
112 24
163 232
116 16
18 210
176 121
154 248
65 211
218 193
105 110
103 242
166 19
220 161
137 165
166 21
198 254
173 193
147 16
131 50
130 100
132 214
206 1
107 240
207 43
112 178
54 107
33 145
242 210
118 214
219 188
98 155
70 112
153 120
237 34
118 182
97 209
93 221
222 229
182 170
127 83
84 107
16 64
203 185
83 66
105 155
22 114
68 233
30 83
181 178
132 209
2 53
239 222
197 241
39 15
123 166
239 178
116 126
141 105
162 171
186 255
60 155
110 224
106 155
46 29
149 55
61 157
70 224
20 113
144 157
226 228
45 108
31 95
219 221
2 252
108 2
202 112
133 16
33 207
9 233
146 201
205 149
250 171
51 216
181 17
190 83
50 198
144 231
141 155
51 245
22 203
160 33
53 12
226 183
105 7
127 220
239 105
241 19
138 50
23 176
157 94
192 185
108 95
55 239
2 203
247 236
85 66
37 114
209 220
5 132
151 73
84 13
112 127
78 138
248 144
214 19
239 202
88 103
58 179
100 68
213 208
22 174
106 14
157 111
15 133
59 32
94 2
35 182
126 112
17 2
10 121
25 139
128 103
158 155
166 205
156 210
163 116
220 94
9 122
201 25
76 56
57 65
36 233
157 42
85 188
181 144
143 179
190 39
161 131
84 42
164 13
204 205
244 109
133 52
6 152
209 106
25 190
34 52
171 89
43 242
163 126
253 25
182 192
76 105
107 156
195 166
149 142
127 133
51 212
238 8
250 105
42 223
219 223
220 53
39 147
240 124
222 34
213 204
154 150
92 200
106 31
142 87
50 118
68 82
25 187
102 93
197 55
50 32
189 86
7 235
231 27
115 120
25 175
203 9
192 213
77 43
216 126
6 170
217 218
199 209
242 238
156 45
118 176
52 217
209 84
7 30
9 129
121 133
95 186
137 145
125 73
53 144
56 133
171 99
157 90
60 91
43 195
228 78
35 136
118 193
155 255
238 143
228 79
212 81
121 211
149 195
183 150
46 162
201 2
176 15
24 154
16 208
33 2
30 102
29 35
52 8
143 241
94 213
225 4
174 47
237 14
232 193
219 239
162 141
36 43
67 191
47 145
21 78
224 139
72 199
147 105
139 98
181 120
220 21
187 8
103 236
36 101
81 226
88 141
17 135
121 54
169 85
127 126
98 68
193 140
211 136
190 207
101 226
14 166
150 43
198 9
41 218
136 202
30 148
31 130
118 101
106 243
248 245
85 176
13 90
117 145
118 53
191 38
11 140
148 145
104 101
107 5
242 70
193 25
231 200
122 36
217 48
251 22
146 246
64 62
129 231
197 12
151 64
6 129
194 185
170 177
41 85
27 25
61 148
218 109
174 87
217 65
133 54
157 226
38 102
203 213
154 236
148 197
208 154
10 180
108 76
23 127
69 17
101 86
16 105
55 119
127 157
80 243
179 220
136 130
240 52
220 135
153 163
34 147
53 228
181 95
52 223
163 201
110 88
52 6
163 139
55 94
206 244
109 21
44 236
146 97
42 16
107 2
178 166
19 222
99 186
89 147
48 188
154 246
219 83
115 16
59 67
231 93
60 144
126 173
39 33
90 31
69 93
190 14
255 16
244 13
166 135
144 208
127 103
144 67
142 253
156 40
111 58
195 245
9 89
9 166
164 90
194 79
94 226
89 118
33 118
89 128
30 13
164 36
213 102
93 67
201 234
69 252
106 83
127 14
218 216
15 81
139 28
163 195
163 220
225 99
139 24
152 198
28 108
178 211
117 74
213 103
106 75
28 93
233 56
41 169
144 176
208 120
80 203
133 109
25 208
36 191
248 117
204 231
163 173
199 50
141 248
88 192
15 33
105 150
187 32
222 46
195 37
219 255
67 38
50 6
99 55
224 72
238 246
210 106
180 120
167 236
104 77
52 225
33 141
30 217
131 120
188 65
253 248
193 81
81 9
114 182
238 128
23 218
95 119
229 157
135 200
109 253
133 242
5 108
203 222
228 144
154 20
13 199
184 84
91 95
75 186
216 237
160 239
127 221
194 25
130 92
150 236
198 131
55 34
229 35
180 223
160 145
248 79
53 169
109 20
8 10
161 170
238 252
169 208
119 228
169 83
213 32
155 191
136 244
205 133
240 47
238 89
255 195
66 107
218 51
80 191
164 110
103 7
187 242
226 160
237 253
245 38
227 238
142 80
218 81
138 178
20 182
101 167
22 107
22 100
91 35
238 111
127 149
133 169
66 158
12 5
3 208
7 44
176 112
109 213
97 144
130 231
68 197
176 11
15 128
34 67
228 230
1 199
141 171
204 129
37 27
119 252
51 194
47 37
83 125
163 91
190 122
129 39
137 154
219 12
238 57
167 66
145 100
188 232
208 232
171 233
81 253
229 15
48 52
248 35
196 153
232 170
225 94
232 144
14 247
13 153
254 17
20 227
40 63
36 104
53 203
222 164
120 1
248 162
37 170
210 239
203 148
14 239
141 234
239 43
150 157
69 82
192 47
57 64
122 201
234 90
186 167
19 4
197 111
198 7
223 54
121 137
24 151
226 78
225 39
167 20
182 254
201 147
233 99
226 34
128 19
152 21
30 17
203 134
128 176
16 48
183 142
24 65
189 128
255 212
115 129
206 120
243 183
3 32
118 186
16 30
116 219
18 63
158 242
108 210
22 133
78 154
114 16
50 3
24 90
28 254
220 218
195 231
239 246
157 93
114 194
217 255
53 128
55 50
219 141
93 179
141 166
151 178
67 4
203 37
105 210
108 147
235 80
113 87
119 122
34 107
223 163
47 146
8 64
17 237
35 129
2 58
45 61
23 73
166 99
81 211
195 216
83 27
184 183
167 47
43 113
59 6
198 35
94 139
15 57
184 43
10 219
197 93
59 54
242 129
81 65
79 165
147 17
156 79
161 83
74 56
50 95
130 10
73 57
178 115
23 65
41 3
53 153
87 117
219 95
110 160
14 201
154 232
215 17
34 212
106 33
98 146
224 248
178 126
10 112
156 78
251 5
217 109
127 200
24 21
7 162
41 119
161 139
45 47
73 109
30 174
182 57
5 195
154 155
195 158
211 238
238 173
35 155
240 236
22 209
128 10
212 64
177 55
219 174
51 223
109 136
228 204
17 32
11 180
243 14
40 186
249 95
188 52
108 187
118 42
178 227
133 194
42 107
220 196
241 102
236 68
171 183
134 93
12 17
228 52
139 193
159 160
113 92
55 232
241 43
135 149
53 42
5 106
1 201
206 180
206 161
158 103
38 43
102 103
213 229
73 155
43 52
195 246
144 250
28 199
215 141
142 181
146 20
219 142
17 9
246 40
16 72
226 231
142 40
186 128
162 84
147 195
142 169
54 220
90 183
228 235
21 120
208 136
107 210
95 83
64 208
145 179
132 251
193 48
138 28
38 147
84 101
36 228
217 208
197 25
60 146
80 52
78 35
250 93
152 17
101 250
105 242
27 8
24 202
193 180
201 39
138 52
126 193
19 18
185 9
9 197
111 104
75 92
137 16
64 84
161 33
100 184
205 135
122 98
43 3
119 139
44 92
225 35
215 89
102 166
152 180
141 52
60 242
56 47
40 166
216 176
226 219
202 188
94 84
239 141
20 27
152 125
238 248
254 10
145 220
61 92
182 198
179 45
154 245
1 54
225 214
149 63
27 64
254 24
227 126
43 117
123 147
77 5
84 255
251 154
144 2
21 129
149 224
236 33
28 170
227 55
177 136
53 40
109 224
35 148
97 128
34 238
193 152
37 255
105 39
178 154
127 228
37 66
184 56
188 73
50 28
246 133
131 245
36 111
138 227
180 188
161 155
149 241
213 195
67 246
55 166
54 125
7 154
90 5
110 9
251 215
140 10
149 119
181 161
224 157
48 182
130 150
168 250
169 120
62 112
251 146
139 127
13 60
10 218
170 121
118 209
83 22
73 79
251 110
254 151
239 131
30 100
34 158
155 223
90 140
42 209
145 191
114 199
95 128
191 226
84 220
118 88
233 200
177 220
136 125
73 220
31 134
66 255
42 148
73 219
251 38
25 7
30 226
165 103
71 102
209 158
221 91
34 254
241 17
136 41
37 235
227 11
144 159
131 20
248 88
117 88
33 224
79 45
13 191
148 243
43 226
90 95
203 243
10 188
29 155
89 219
1 176
107 231
53 160
72 219
126 169
114 236
101 67
51 64
91 25
54 217
14 238
43 220
132 183
52 20
100 240
102 34
175 82
69 119
147 129
129 219
104 150
28 122
70 7
7 204
213 251
142 157
129 151
90 36
116 154
21 244
133 31
189 18
109 255
70 23
70 157
70 32
167 31
72 112
82 240
86 124
25 15
139 26
84 127
115 10
149 81
191 139
76 122
236 110
221 184
155 229
244 255
52 134
27 177
101 181
48 201
151 139
166 73
137 103
239 128
97 228
50 216
163 253
105 33
46 34
141 148
226 132
183 5
139 118
95 15
54 33
47 172
128 231
146 191
201 200
172 203
206 239
121 154
90 118
211 245
83 164
139 31
180 178
116 115
201 95
55 97
226 19
227 220
186 22
131 163
246 60
90 165
37 250
224 188
133 187
195 178
10 57
48 112
209 79
97 174
128 83
234 28
31 102
129 163
231 81
91 165
20 219
158 133
110 17
15 116
141 91
8 65
52 161
22 37
235 17
129 114
178 147
122 129
63 86
52 121
103 79
244 37
183 247
209 215
90 53
116 198
60 20
205 101
81 67
111 183
57 219
25 133
15 91
195 8
238 239
231 155
6 54
217 163
202 70
212 23
16 29
161 167
131 59
66 210
157 140
226 171
172 162
128 142
180 187
67 160
166 167
67 159
246 43
57 36
246 226
253 121
221 17
118 57
203 85
16 62
103 84
35 74
163 79
210 186
128 171
127 20
238 53
35 181
245 72
62 50
253 152
5 101
60 105
45 80
166 238
172 142
215 38
67 84
85 120
97 201
148 202
193 255
102 124
155 12
179 33
33 130
161 160
67 25
177 25
163 127
59 177
240 68
247 78
170 55
102 83
64 158
5 145
166 229
10 89
149 103
52 206
77 18
195 181
70 137
233 106
25 39
29 122
182 246
167 184
103 219
190 247
244 51
30 167
148 220
21 202
248 49
33 128
136 140
55 30
227 211
94 155
154 37
56 156
111 142
12 148
50 153
207 225
192 204
234 144
3 181
208 116
220 219
222 79
215 221
96 84
167 100
226 51
118 156
63 46
190 5
192 33
200 209
80 153
156 174
164 205
133 33
202 195
136 176
98 83
133 108
123 98
107 239
221 197
166 240
251 236
213 17
92 234
25 95
229 118
11 177
132 74
154 66
8 136
94 134
63 174
95 161
153 28
95 240
102 52
81 245
116 73
119 200
191 86
28 46
118 157
238 10
178 133
237 241
62 21
169 242
84 183
1 237
91 97
129 62
202 206
113 118
105 229
203 146
144 61
43 251
228 67
154 166
181 223
250 255
133 112
248 106
123 107
221 104
198 136
195 207
116 151
171 225
85 223
232 118
150 116
154 209
233 144
184 130
217 126
2 179
93 9
222 141
67 220
44 196
97 95
145 31
213 13
18 29
194 66
16 70
190 18
59 50
218 133
24 41
209 212
213 246
93 66
155 208
12 46
121 199
184 69
127 57
253 8
209 155
83 91
60 149
160 165
178 193
184 228
149 62
236 46
32 115
236 200
219 105
134 2
17 155
161 140
195 233
247 248
157 247
108 80
130 141
105 48
182 151
224 31
248 82
53 8
123 2
49 141
210 166
228 153
177 253
117 17
161 21
84 148
20 73
60 103
70 34
229 196
150 66
140 244
135 106
81 246
195 91
28 114
224 195
12 90
30 37
27 202
176 30
163 37
148 101
223 161
31 107
83 97
237 73
224 34
22 165
139 75
241 209
121 208
169 32
163 191
70 60
205 66
237 30
154 138
35 232
34 154
122 78
127 73
140 129
194 224
11 20
190 179
123 157
167 37
192 130
224 90
43 254
200 243
36 14
129 216
23 140
224 171
90 108
180 114
66 111
140 202
40 106
81 21
31 203
156 34
2 97
16 37
152 194
95 241
147 205
216 180
89 226
43 72
61 107
208 54
198 188
111 103
10 144
23 211
130 203
194 184
104 30
41 121
84 151
47 42
148 118
240 7
201 84
14 12
122 237
45 229
61 123
177 28
133 30
191 174
138 149
153 103
216 64
131 244
33 84
255 39
213 22
51 232
60 97
254 16
177 218
95 214
10 155
34 153
253 161
147 9
184 107
178 89
69 174
94 154
33 238
139 233
131 139
50 206
251 224
238 59
60 57
84 117
187 213
195 203
137 49
70 125
62 27
116 112
252 167
89 229
203 104
221 194
201 42
7 216
91 228
118 222
14 135
141 61
57 195
173 120
84 53
182 65
119 13
231 224
187 217
182 178
107 192
35 177
108 33
205 25
145 35
90 235
74 192
22 93
73 198
232 209
138 116
208 182
28 136
132 185
192 95
62 216
33 55
205 224
176 242
149 183
254 206
62 177
12 108
126 10
10 151
150 158
50 70
41 62
35 109
21 12
249 25
180 244
159 71
35 207
55 158
37 245
127 21
162 128
226 108
125 43
27 253
60 2
24 212
228 25
14 251
79 233
72 194
192 157
129 223
255 153
178 35
216 23
53 25
246 217
85 181
180 28
139 42
36 93
5 175
225 46
135 84
206 51
209 62
154 39
224 44
229 226
24 255
252 14
227 8
113 88
28 128
146 119
14 49
68 94
35 50
80 226
67 161
149 150
82 192
219 137
37 1
182 244
28 198
161 216
208 173
38 103
200 53
127 247
224 25
64 201
213 152
92 179
114 62
65 170
241 107
216 188
103 179
139 15
39 61
139 173
66 219
64 118
118 237
75 118
239 218
115 211
24 133
207 174
198 129
149 253
11 138
55 214
53 88
156 133
36 134
132 163
134 16
255 89
157 161
247 25
151 163
89 103
230 69
200 185
236 79
248 77
209 221
48 199
109 223
55 195
46 16
89 242
253 131
169 202
95 234
91 107
229 107
203 39
39 95
60 216
64 227
2 225
226 66
218 244
142 35
28 31
132 201
106 127
48 138
193 131
228 28
37 64
206 116
227 28
127 87
216 41
22 52
87 189
155 226
204 90
89 49
4 90
193 21
157 148
228 60
226 153
63 189
12 190
221 134
210 231
250 236
125 133
192 27
248 9
92 159
30 91
178 59
191 69
134 219
150 118
34 181
118 14
220 193
160 144
238 119
89 35
59 91
65 181
111 172
93 171
16 35
75 53
21 217
178 136
18 214
226 147
156 132
141 53
212 41
151 218
67 181
107 94
53 31
219 225
52 154
58 203
153 194
232 73
6 38
247 105
177 131
154 51
135 146
122 30
144 32
24 188
194 209
245 15
35 223
39 230
130 156
228 68
156 42
178 194
70 37
104 55
49 127
105 185
13 114
158 9
167 33
222 225
31 12
152 85
213 37
222 214
39 34
123 145
210 70
64 11
60 187
248 109
137 66
231 162
33 46
50 202
91 77
65 176
208 254
99 129
253 126
148 224
209 195
221 225
138 55
226 220
247 111
202 244
95 37
188 116
187 212
43 122
149 153
162 220
83 137
108 237
195 137
250 13
206 242
177 248
140 138
224 226
114 208
4 93
218 227
254 41
46 97
48 91
126 208
34 17
46 77
201 114
226 190
8 245
35 251
231 83
105 194
192 53
17 187
62 178
146 245
153 109
20 129
248 219
82 97
182 84
44 219
84 147
193 146
28 3
53 30
146 233
78 211
84 142
194 55
173 136
85 246
203 122
134 172
114 152
176 181
211 90
232 169
44 185
90 237
80 47
222 158
210 46
37 93
115 208
8 157
224 54
161 51
191 142
90 200
52 32
36 78
108 157
226 195
205 155
115 198
253 195
51 133
64 60
93 101
173 182
127 210
203 79
212 246
54 255
223 37
39 127
51 3
52 37
250 30
55 208
217 55
166 223
85 114
21 224
245 140
247 207
39 130
133 70
31 142
203 101
173 27
73 84
107 146
215 201
207 163
161 116
201 38
127 226
121 65
107 108
135 246
155 118
223 193
145 243
32 140
53 241
101 87
182 169
250 160
165 94
57 101
57 228
38 185
53 83
43 202
234 226
85 193
139 37
149 157
3 30
89 148
85 248
119 191
155 7
231 52
135 132
2 220
136 43
200 149
182 64
195 248
194 225
137 226
89 154
142 119
250 139
237 249
91 28
219 125
5 63
100 146
56 190
217 244
165 105
79 134
179 84
176 50
148 206
110 124
245 254
83 18
31 38
38 33
243 229
177 81
246 156
182 3
184 241
185 90
204 106
200 137
154 65
79 43
21 218
40 171
112 109
175 237
14 91
119 117
204 89
114 128
151 208
26 135
91 75
56 172
234 87
190 119
16 89
144 29
216 65
49 132
62 139
204 227
93 184
110 57
211 232
95 212
79 139
190 106
158 21
59 35
218 30
228 33
91 144
17 7
89 200
60 67
120 213
102 99
46 52
67 15
2 175
217 138
242 149
41 125
46 166
240 128
141 225
131 31
144 18
150 145
127 8
227 254
91 247
78 195
77 153
213 225
73 255
32 35
90 155
17 226
150 67
205 222
20 77
78 148
167 44
204 164
17 42
122 139
3 193
199 217
112 32
127 180
102 84
14 95
27 218
186 49
134 137
72 48
202 227
195 177
54 23
155 177
193 41
242 166
42 171
251 239
52 221
192 197
231 165
213 116
135 66
231 69
233 165
39 173
126 248
42 167
241 2
168 197
198 89
160 203
248 11
162 184
211 182
202 1
57 16
155 119
138 218
184 171
33 191
38 176
185 76
47 29
226 42
102 111
193 54
155 219
114 139
148 13
144 155
84 204
224 55
214 12
224 37
83 196
118 100
22 132
11 216
251 220
67 78
134 91
61 94
178 130
121 62
184 142
239 207
11 125
166 119
152 25
153 222
104 123
142 165
112 158
83 188
65 206
207 246
20 66
226 148
125 177
237 28
199 155
239 52
102 150
66 35
199 106
169 188
141 110
18 58
33 240
218 152
195 15
13 40
142 37
89 194
114 206
194 248
149 178
147 219
245 133
173 148
179 12
182 125
117 122
228 167
97 117
234 71
51 255
174 75
31 81
142 171
1 217
248 165
164 225
3 119
33 98
97 85
42 30
181 37
29 92
118 165
54 202
24 50
74 203
76 221
201 72
238 216
59 133
195 129
175 14
49 68
20 101
225 108
27 72
200 105
45 118
51 237
248 84
38 183
50 83
39 85
153 16
94 98
209 127
37 81
222 194
59 85
66 17
166 60
158 144
233 61
151 154
209 157
237 80
131 10
245 178
227 30
219 183
13 23
91 213
9 55
32 138
180 155
107 74
22 248
30 23
173 209
45 145
246 221
158 139
181 163
87 172
195 223
52 87
68 167
56 246
73 16
8 161
59 140
127 140
102 214
223 132
250 84
105 248
112 121
175 88
84 222
42 251
244 64
108 9
39 55
67 2
17 62
107 97
147 163
14 2
40 235
7 22
83 59
197 101
149 22
157 37
84 112
1 131
155 216
27 17
239 24
33 23
210 90
144 224
48 55
157 166
192 149
69 44
190 205
62 131
128 79
201 153
213 84
40 101
36 7
179 167
28 248
22 190
240 42
198 11
12 52
25 21
47 157
114 213
248 53
52 246
62 237
34 248
224 172
180 153
201 184
196 105
200 162
101 128
200 205
54 127
136 255
148 27
80 9
37 48
225 253
141 79
94 56
205 67
144 210
37 128
62 246
89 220
220 102
193 176
199 127
70 90
227 199
232 177
159 172
238 1
220 60
189 113
191 253
97 171
40 251
85 8
203 83
193 253
70 1
69 31
64 23
154 22
92 157
138 24
109 202
221 250
133 237
165 36
227 152
84 219
52 2
54 146
54 55
238 196
193 73
12 153
176 227
205 165
136 161
207 105
220 146
62 227
55 81
231 57
9 86
139 69
239 102
175 243
123 185
224 160
235 186
66 184
100 56
120 161
207 192
9 36
9 11
226 12
15 121
30 110
239 38
102 216
177 202
146 85
40 52
189 159
254 121
78 16
228 215
35 217
205 237
98 183
46 98
250 219
49 111
147 218
137 194
143 167
201 126
14 122
226 114
213 161
187 198
149 151
136 120
242 250
237 78
174 186
161 41
13 33
77 17
66 87
60 255
222 67
12 93
162 123
161 255
165 66
147 2
117 220
104 47
4 153
98 25
152 176
167 154
7 20
157 155
157 78
45 194
72 21
150 155
173 232
90 255
170 176
137 197
238 21
219 79
44 63
44 75
119 224
151 237
129 89
166 162
213 85
89 31
83 40
252 243
15 223
233 2
250 132
67 39
42 86
246 205
66 22
60 219
167 105
249 4
201 9
245 39
154 131
128 194
105 231
26 44
71 46
191 154
40 61
182 55
231 89
170 198
225 155
237 165
236 84
43 206
220 253
230 49
201 66
28 160
62 232
141 221
20 142
169 114
74 58
127 217
246 166
231 119
183 97
224 85
165 97
248 130
73 244
187 177
247 249
158 8
81 57
201 61
246 121
255 21
47 186
251 12
40 172
149 6
1 223
57 150
43 108
242 85
141 149
126 239
16 22
167 94
9 52
32 121
128 149
40 94
102 12
152 254
166 209
118 248
135 164
184 172
255 246
75 105
127 122
49 80
17 218
27 225
211 57
30 206
35 149
59 3
136 163
53 96
127 1
43 118
233 57
105 90
214 61
131 181
239 112
17 179
107 90
201 246
163 146
78 37
80 204
220 118
118 30
25 134
42 237
197 60
129 13
81 108
84 208
9 155
231 33
110 134
67 33
40 90
202 10
64 126
92 236
24 89
196 189
84 41
232 24
116 194
253 157
6 245
206 70
118 231
6 78
13 53
74 99
13 18
46 200
105 89
73 170
119 19
172 196
97 57
94 166
169 112
241 103
115 3
162 214
237 35
143 240
142 137
25 166
171 98
163 238
148 250
74 88
28 125
70 165
207 141
88 95
23 25
240 88
147 37
217 10
253 182
2 238
177 39
223 13
85 219
252 101
214 197
30 155
37 108
237 202
217 238
133 254
5 149
106 172
99 204
144 186
83 171
170 206
195 250
27 151
144 31
15 37
111 192
225 204
138 3
153 5
7 97
121 27
110 118
50 65
141 108
52 146
91 231
7 86
241 153
187 127
37 187
107 63
34 186
147 153
237 169
39 219
10 195
120 27
142 34
182 52
124 34
107 144
190 209
57 130
67 154
124 236
92 204
192 118
6 198
126 176
84 206
137 28
158 48
141 186
211 144
118 20
1 121
221 238
58 91
169 25
76 162
173 72
79 225
222 247
223 108
129 11
116 52
246 223
14 67
12 128
237 141
107 207
84 172
10 65
221 181
65 163
201 209
43 56
239 136
129 169
124 18
232 242
35 226
213 131
62 81
135 192
208 239
2 90
43 2
8 114
238 124
154 85
116 48
89 13
175 83
215 113
149 102
143 141
172 12
105 220
195 7
53 165
79 20
107 106
216 158
236 105
14 98
84 83
56 97
168 30
173 188
250 146
237 59
21 223
36 197
140 64
255 6
233 117
223 50
25 55
204 200
163 64
210 224
163 244
5 56
83 153
68 144
216 213
167 53
39 20
152 187
55 200
123 184
156 103
210 38
20 140
31 73
201 94
229 135
160 148
2 160
209 105
85 158
154 210
13 21
191 89
130 79
43 153
219 22
248 81
157 154
146 181
15 206
123 77
251 203
221 103
27 24
7 190
241 45
84 232
28 56
94 153
241 230
98 12
15 213
187 125
24 120
38 155
51 176
166 174
193 217
94 53
54 73
56 166
129 178
223 17
103 80
233 108
101 22
246 23
241 179
20 42
170 208
81 154
69 148
156 54
90 160
64 30
166 16
43 209
116 33
163 17
51 195
79 171
126 32
205 247
20 181
248 152
151 253
219 38
247 66
67 210
21 140
76 175
190 200
212 199
11 102
89 132
69 13
141 43
207 108
15 182
221 247
39 181
72 41
184 122
198 16
86 58
99 108
214 184
95 105
24 131
150 248
242 226
39 56
5 165
253 129
62 89
55 245
48 151
156 239
114 70
117 179
106 234
205 186
133 248
60 30
39 167
183 110
123 111
25 221
78 8
160 52
16 176
72 65
176 188
7 15
81 170
208 65
137 72
56 250
65 102
64 116
44 231
91 52
251 89
59 1
96 230
46 220
194 147
153 186
27 138
87 47
116 28
242 163
65 178
74 181
205 108
50 181
145 143
100 228
219 247
226 119
115 65
8 181
169 216
166 124
108 195
52 171
200 17
170 12
134 42
241 75
55 152
251 149
155 175
154 120
54 216
175 30
52 84
239 114
18 221
190 29
115 177
132 69
117 25
104 38
250 97
3 136
180 248
123 43
137 153
13 194
45 76
64 154
58 229
130 228
136 151
61 209
105 154
27 208
115 57
139 30
239 245
128 169
165 236
66 74
46 226
49 209
224 219
154 170
228 105
181 246
2 200
200 163
137 36
176 109
143 162
222 27
204 162
39 35
220 75
145 111
27 11
78 246
129 255
204 97
161 127
1 62
199 169
200 128
129 182
28 84
248 153
58 100
248 147
9 72
107 95
165 222
112 51
229 75
89 73
229 207
12 139
107 36
81 180
78 209
33 83
38 74
153 56
171 228
55 237
214 89
101 31
195 50
54 116
146 200
32 181
109 24
176 169
20 238
166 74
226 2
36 221
213 217
30 204
94 58
39 103
79 74
105 120
59 232
167 241
98 135
174 175
33 246
31 104
127 223
163 85
160 122
204 241
14 89
213 169
140 182
147 144
72 209
167 201
156 190
105 135
232 151
242 245
133 57
38 75
238 208
210 250
128 223
128 226
104 223
245 73
136 59
195 119
175 128
254 8
29 118
46 132
170 181
225 203
148 248
237 155
87 229
1 67
218 219
70 247
105 162
207 34
186 190
114 187
192 2
219 52
167 163
117 89
177 17
146 16
242 109
213 106
17 68
225 246
112 54
129 167
112 248
83 154
190 162
3 121
40 43
180 242
235 49
232 21
126 90
194 145
66 84
155 40
220 50
218 158
139 70
137 158
7 82
235 164
20 236
36 160
154 225
208 237
242 33
109 85
93 128
3 213
180 129
209 152
64 170
81 41
192 83
246 150
120 54
114 253
223 14
236 184
225 61
135 107
233 160
180 169
198 244
14 220
118 7
35 194
204 245
94 194
238 141
235 15
54 181
53 157
31 33
145 189
247 184
25 80
130 238
218 116
209 149
27 129
198 1
114 153
60 92
255 32
39 13
150 210
109 89
73 59
131 23
28 205
208 224
14 17
35 208
95 48
133 23
242 39
24 118
253 176
252 146
238 100
99 42
116 202
34 195
20 15
203 165
50 105
10 48
26 63
16 80
52 207
127 102
190 167
37 98
217 81
218 62
156 17
216 140
190 241
107 204
40 34
20 209
195 184
99 4
212 182
54 154
219 37
137 223
47 43
15 173
177 32
253 245
201 217
254 219
17 74
173 30
155 50
127 79
84 60
77 201
4 196
251 153
193 231
185 87
55 128
139 144
50 193
108 21
70 170
17 157
114 231
207 97
209 70
40 46
189 241
239 231
45 110
27 108
121 73
219 160
106 146
243 89
38 247
151 223
56 22
37 105
65 194
242 78
119 50
201 56
108 26
153 118
102 165
91 253
51 129
126 51
81 206
154 173
132 171
65 169
248 93
146 238
157 121
180 136
11 206
194 104
106 192
64 144
188 151
180 245
176 131
152 120
65 223
27 81
127 147
127 13
147 223
158 169
166 239
193 120
133 211
54 108
29 236
60 99
73 208
36 4
25 115
7 89
4 117
199 62
213 139
213 232
64 73
224 116
186 130
70 181
155 16
94 209
250 16
221 66
103 224
10 6
213 182
133 37
91 106
109 97
130 219
172 143
201 118
73 21
186 52
84 141
85 48
78 118
159 29
145 102
101 105
238 109
153 84
3 120
130 111
136 131
244 1
40 229
141 67
243 134
142 93
60 211
70 6
45 103
28 98
252 249
87 215
85 15
207 13
178 131
155 82
156 68
158 30
201 91
200 145
85 84
15 226
125 120
208 244
16 205
187 131
141 93
83 31
128 195
34 119
56 2
102 118
102 186
54 227
130 61
94 246
239 15
190 38
209 57
213 25
4 190
173 121
171 104
64 127
86 118
39 213
166 30
179 76
56 107
138 151
64 178
1 208
176 39
146 199
78 158
237 194
25 146
70 217
35 36
144 119
139 214
43 29
7 215
148 48
239 226
16 217
220 33
113 252
246 137
204 186
85 226
1 13
20 89
215 47
213 209
24 180
107 233
168 97
228 222
142 78
143 60
83 176
126 31
30 43
95 225
64 218
41 34
213 70
196 222
199 41
46 142
94 5
101 130
151 21
238 247
191 200
62 140
153 121
238 68
218 211
14 194
114 246
169 51
237 112
176 102
89 164
230 119
173 70
218 55
36 69
74 229
233 122
14 137
34 83
216 73
29 95
188 50
139 136
209 65
214 66
117 36
62 24
20 24
29 186
7 148
142 73
142 251
245 237
81 8
46 171
47 132
148 150
37 88
41 242
43 94
136 78
37 148
79 60
217 112
115 187
122 42
32 23
170 254
206 23
6 209
207 205
4 220
143 98
16 121
17 248
53 226
74 46
66 94
118 244
6 238
28 67
90 191
231 56
37 20
15 16
232 6
6 73
12 30
205 22
4 230
29 172
47 143
232 140
76 123
74 221
81 133
95 38
246 2
248 170
126 11
80 233
12 204
33 232
29 56
32 95
255 91
247 171
54 83
39 140
197 236
141 114
114 30
173 177
181 151
126 246
115 48
227 106
176 154
61 231
30 154
17 6
188 8
242 119
176 31
140 126
146 183
161 105
151 55
177 151
212 180
231 96
177 70
237 231
20 5
24 115
17 205
25 2
167 77
37 173
176 20
150 137
250 66
88 45
46 219
186 203
249 79
1 90
159 13
115 136
219 253
166 100
142 160
171 84
135 190
156 191
109 43
20 30
22 134
215 230
62 211
58 225
201 103
22 195
100 123
237 23
67 207
181 64
59 27
194 82
226 116
204 121
74 209
244 158
146 41
153 188
196 113
25 60
223 198
15 238
39 156
83 162
230 53
74 251
155 188
181 108
44 197
108 208
34 167
17 197
17 56
42 219
207 12
30 9
254 137
223 220
160 63
112 81
103 207
144 162
136 170
218 223
91 139
70 194
219 203
188 194
20 139
39 206
73 11
30 151
230 251
140 213
134 43
214 75
57 70
161 37
248 146
236 171
96 82
89 25
192 25
102 94
179 175
25 40
22 148
126 72
212 140
43 157
101 220
194 183
107 205
248 14
148 31
121 25
97 100
28 247
50 38
233 74
154 8
203 78
6 37
66 97
137 126
23 129
74 243
39 31
235 45
164 237
74 2
54 130
109 173
154 62
225 231
161 237
105 57
12 106
52 158
89 212
78 60
9 180
224 88
237 119
231 115
29 101
47 46
60 244
221 47
175 111
66 228
116 131
169 255
34 219
89 58
253 1
239 41
133 120
135 31
119 30
247 90
53 251
119 12
7 57
16 219
29 185
200 241
7 48
57 46
44 18
64 34
160 107
251 190
77 49
141 68
242 208
234 61
195 30
102 82
194 9
204 118
50 177
170 246
150 62
102 248
141 241
217 24
139 55
67 192
29 234
73 65
133 151
168 171
37 5
27 204
33 20
142 114
43 131
246 24
51 125
209 238
5 160
198 238
118 46
27 128
24 248
43 78
180 218
165 107
146 35
33 4
8 193
163 157
222 128
87 49
67 74
14 79
155 65
248 205
166 70
64 136
91 127
222 110
219 209
101 204
52 163
237 137
65 52
60 33
101 123
34 194
13 226
72 180
220 83
172 34
34 14
164 111
153 67
70 109
238 84
151 54
16 195
250 150
128 108
91 251
156 250
229 215
198 102
71 69
192 91
70 38
110 203
33 127
5 53
250 174
142 122
255 221
98 186
55 53
112 108
91 186
166 3
254 246
54 158
173 114
56 158
52 243
96 104
137 114
254 231
142 101
67 174
153 223
239 148
122 156
129 53
174 2
206 177
20 59
195 240
84 118
148 123
202 150
37 56
230 83
64 70
158 15
172 141
46 102
91 119
108 127
83 146
34 45
185 235
128 46
43 231
191 224
32 30
108 209
60 107
28 38
21 188
177 16
146 105
60 104
126 255
235 248
212 27
177 199
90 226
234 142
163 219
146 40
169 8
226 74
250 215
76 250
60 223
107 128
57 201
64 213
53 150
225 250
123 179
21 17
217 182
133 83
167 123
142 145
127 240
97 248
79 148
173 11
151 23
22 236
147 212
138 54
119 104
245 170
224 181
245 220
173 10
140 176
121 126
21 187
129 52
150 195
219 166
213 133
46 149
164 92
161 54
172 175
180 50
57 41
36 99
105 53
73 141
255 131
43 35
39 50
88 29
33 53
251 223
30 84
127 35
222 157
133 212
171 5
49 241
136 253
34 136
163 227
107 130
231 106
25 248
28 7
144 213
136 13
93 135
99 22
22 36
115 140
202 8
21 55
138 89
99 192
67 239
178 198
37 101
12 66
182 194
37 225
53 139
24 116
194 7
243 38
75 184
110 165
57 232
254 232
184 139
15 126
106 54
208 11
213 154
106 102
86 149
151 130
178 224
25 153
6 202
90 150
83 85
20 108
37 79
13 183
70 85
82 186
82 128
213 177
242 62
50 246
230 124
230 224
79 124
37 54
68 29
2 141
84 247
177 198
25 124
30 153
245 59
194 166
223 150
191 2
132 52
33 158
148 128
61 77
15 78
155 49
155 64
140 206
92 106
99 172
205 223
133 95
221 224
12 56
53 219
194 171
104 45
187 244
29 9
57 226
119 137
248 90
24 152
149 13
143 31
166 71
116 12
193 187
133 118
132 241
32 245
221 226
108 118
38 226
112 216
250 129
72 85
13 14
191 16
221 42
114 121
81 188
127 167
227 166
148 194
25 145
17 143
33 131
94 147
108 211
22 179
251 102
167 238
149 171
102 228
169 193
98 229
186 35
75 171
45 106
33 194
201 7
228 221
11 188
27 150
99 167
158 114
237 183
253 94
180 59
149 95
11 199
38 153
190 224
248 160
132 190
253 72
34 22
192 155
192 16
193 202
233 130
132 128
35 209
201 93
239 157
225 15
237 139
229 91
199 223
118 28
22 58
78 48
216 212
71 252
142 185
193 91
123 250
186 224
185 111
114 165
191 55
21 112
154 169
37 84
226 126
235 25
191 201
155 42
202 219
183 160
253 9
213 7
227 23
134 89
201 228
119 81
141 196
153 145
223 248
9 83
13 209
155 242
118 219
60 191
30 254
53 28
140 50
244 120
89 149
111 47
255 33
38 194
227 154
113 142
188 125
151 244
34 84
101 106
222 167
232 116
248 54
38 9
194 39
237 116
136 206
38 64
231 147
117 225
148 14
221 9
50 212
222 185
56 197
127 100
74 106
94 33
226 97
137 48
39 214
119 127
118 187
60 94
78 64
20 245
228 107
168 71
109 129
198 20
239 213
37 55
213 163
18 135
169 24
93 194
114 65
222 161
133 84
155 250
210 153
63 164
86 185
144 149
220 143
56 220
143 174
181 24
31 105
206 178
131 65
54 8
78 131
143 29
40 119
242 253
224 238
142 139
8 1
145 135
175 123
219 2
195 145
94 222
36 220
6 178
247 128
237 111
237 120
54 136
141 181
102 33
70 67
151 170
138 21
194 155
108 119
63 87
20 40
206 64
114 97
115 151
30 220
130 12
143 99
17 180
154 95
156 233
152 81
150 15
184 146
255 130
29 38
247 88
251 214
106 27
221 237
118 98
102 97
108 57
53 121
97 39
198 245
114 188
223 212
3 23
182 24
62 57
99 35
106 241
188 51
219 98
3 72
155 138
237 150
66 239
134 186
96 196
8 152
245 163
103 209
226 206
15 237
2 9
42 106
211 177
78 128
48 206
104 78
80 17
147 197
147 181
201 28
182 255
93 19
190 139
170 158
129 112
157 84
225 98
231 7
28 58
35 211
170 60
192 119
149 34
211 244
239 118
94 103
78 163
252 234
158 197
62 127
106 246
126 62
77 47
232 231
153 156
241 108
32 199
152 65
130 34
139 181
138 199
137 13
156 225
134 58
17 220
162 16
107 203
178 1
166 97
175 89
77 2
239 20
206 223
102 191
246 232
228 213
57 253
143 93
184 134
218 202
124 164
93 191
37 140
67 134
73 254
15 27
237 209
20 251
94 12
79 243
104 156
221 90
131 73
173 112
67 244
53 201
190 243
220 237
201 149
220 111
199 73
98 241
233 247
50 152
143 80
6 195
202 152
167 233
179 104
78 221
155 200
95 113
54 114
207 20
157 183
162 53
