Vertices 97
39 "#12"
74 "#8"
97 "#15"
33 "#53"
61 "#80"
59 "#1"
96 "#51"
51 "#88"
84 "#56"
34 "#36"
56 "#71"
73 "#49"
77 "#52"
36 "#27"
21 "#21"
11 "#54"
78 "#40"
31 "#42"
47 "#14"
29 "#17"
69 "#9"
12 "#59"
9 "#28"
54 "#50"
27 "#48"
17 "#6"
19 "#29"
41 "#10"
45 "#87"
88 "#81"
15 "#60"
91 "#38"
79 "#83"
94 "#96"
65 "#72"
43 "#66"
82 "#16"
86 "#46"
70 "#24"
72 "#35"
24 "#82"
89 "#4"
83 "#91"
75 "#84"
30 "#26"
92 "#22"
55 "#45"
20 "#44"
14 "#61"
4 "#75"
66 "#73"
42 "#69"
28 "#92"
10 "#85"
26 "#94"
25 "#37"
46 "#58"
62 "#79"
95 "#67"
90 "#63"
35 "#2"
5 "#86"
8 "#89"
23 "#34"
6 "#57"
32 "#39"
48 "#70"
38 "#25"
93 "#23"
53 "#74"
80 "#18"
3 "#19"
40 "#65"
58 "#68"
76 "#41"
63 "#78"
49 "#11"
85 "#95"
68 "#90"
81 "#76"
1 "#93"
67 "#5"
13 "#13"
57 "#55"
52 "#31"
60 "#32"
44 "#64"
50 "#62"
71 "#77"
64 "#33"
16 "#43"
37 "#47"
7 "#3"
18 "#30"
22 "#7"
2 "#20"
87 "#0"
Edges
35 16
36 40
6 77
43 44
26 64
32 15
35 81
77 86
90 22
88 24
28 83
50 42
44 3
15 76
48 53
18 36
7 86
83 46
48 90
45 27
92 60
40 42
20 5
59 48
17 38
66 56
63 58
4 37
11 82
4 46
49 75
49 17
44 19
62 61
29 23
59 92
57 11
6 66
78 40
31 79
10 63
3 15
43 95
80 9
42 86
45 71
86 16
84 91
65 41
87 30
33 64
20 48
42 31
63 9
25 56
70 44
10 75
28 68
14 59
63 24
84 6
72 3
7 12
23 27
37 9
9 4
48 33
64 19
9 89
34 82
35 9
12 90
12 84
40 44
40 57
26 45
14 12
6 82
90 63
88 19
68 51
29 87
27 35
74 6
64 7
89 13
3 67
50 61
69 92
48 61
84 74
3 40
30 27
87 35
83 45
1 59
46 32
34 58
58 30
11 89
56 18
11 33
49 44
89 73
36 27
24 27
42 70
13 38
51 34
90 49
12 72
77 35
10 43
36 37
69 40
41 61
51 70
41 35
16 70
13 76
23 78
94 62
41 12
2 18
50 59
93 31
21 7
29 63
72 66
35 37
12 23
52 89
58 27
66 44
35 63
85 94
93 89
59 74
27 63
77 58
10 6
62 67
39 72
80 97
6 33
2 97
29 77
3 12
54 60
13 21
72 37
62 87
14 46
41 59
7 96
7 15
40 1
1 68
42 46
16 46
21 29
27 54
29 91
27 68
77 25
16 92
92 14
70 22
15 89
61 7
59 78
15 66
1 51
37 18
44 47
34 86
56 27
39 75
92 37
10 61
21 3
1 5
76 52
90 44
16 39
12 46
59 86
21 48
74 21
70 34
1 56
96 84
90 67
61 43
4 65
66 97
74 89
50 25
55 58
70 95
25 92
23 69
16 93
57 31
31 9
35 34
18 24
62 63
30 47
86 67
53 62
80 61
73 14
59 35
13 16
65 93
61 90
72 25
46 10
20 34
86 90
79 49
80 91
94 73
59 54
39 40
57 78
12 57
76 53
70 41
52 27
71 26
96 57
67 45
14 28
67 69
25 69
18 31
70 10
76 74
92 36
76 56
66 32
78 93
25 57
46 47
12 95
51 8
62 96
41 45
87 53
82 87
3 18
57 79
97 54
69 6
22 7
4 66
31 48
20 19
30 91
5 7
79 62
75 85
25 82
10 20
6 12
69 81
30 51
48 52
32 9
38 72
5 40
32 63
85 53
79 21
19 30
6 13
96 73
96 54
22 54
93 43
61 37
64 59
96 3
40 80
59 67
2 1
3 48
84 47
66 47
79 78
91 27
66 48
74 67
20 62
90 71
91 56
50 14
19 9
76 50
67 93
77 13
55 86
33 56
37 51
95 52
91 93
96 80
72 27
47 54
41 56
57 2
58 17
80 41
57 41
66 77
70 40
17 31
47 69
25 89
84 72
49 76
52 56
48 96
5 6
84 48
67 13
14 11
12 29
25 15
43 50
87 39
95 27
36 16
29 15
49 34
34 84
15 10
39 80
29 13
67 77
76 31
79 88
56 21
18 64
76 26
52 37
14 77
7 77
39 89
35 24
90 38
69 11
27 81
96 34
17 2
18 89
54 72
52 20
86 76
61 64
93 13
26 67
33 60
21 16
95 49
16 55
64 91
75 86
53 96
70 4
60 43
92 90
28 17
47 73
74 34
91 49
15 43
89 53
50 28
27 77
57 3
76 64
41 66
84 27
18 32
33 31
62 66
45 85
15 23
40 90
50 84
84 44
14 80
7 94
94 51
34 78
72 13
50 81
27 6
33 24
24 96
60 45
88 62
30 43
13 22
55 93
49 37
60 76
19 27
47 13
43 17
64 97
53 17
49 33
41 74
50 20
74 61
11 37
5 71
78 2
24 10
89 49
38 19
35 49
7 71
35 36
32 6
4 69
43 31
86 33
5 42
89 56
11 17
19 15
22 41
96 6
96 39
83 51
20 54
31 74
4 76
53 71
49 19
76 63
42 44
16 71
92 21
45 15
17 15
46 80
53 66
89 36
44 64
12 18
44 9
42 25
9 54
8 72
20 59
27 66
60 41
44 79
43 89
46 87
76 32
20 96
54 19
7 27
48 41
34 3
16 95
30 15
69 18
55 9
18 92
53 15
93 59
20 57
33 40
45 24
9 84
37 76
39 92
57 18
95 3
17 82
3 19
88 10
39 54
35 79
35 14
85 8
57 43
58 64
77 39
62 45
3 16
90 89
86 24
82 65
52 91
36 13
61 29
41 17
33 96
36 49
23 7
19 2
69 12
49 43
30 57
69 70
41 4
34 64
33 59
65 81
38 9
55 81
29 5
78 44
82 90
64 57
13 54
37 75
34 19
12 97
70 35
84 37
90 45
10 30
36 79
80 27
68 13
53 22
86 32
31 56
37 91
86 8
50 16
60 20
93 52
82 2
54 69
73 9
4 71
42 78
50 44
86 71
17 47
93 57
67 33
81 25
72 67
57 33
34 7
31 54
65 74
36 96
33 68
77 36
81 96
20 49
11 96
61 56
93 21
89 50
91 86
40 37
74 81
24 72
87 76
36 24
54 11
26 85
79 18
31 78
82 80
87 91
56 71
27 22
42 94
20 81
65 56
60 64
57 32
71 15
39 93
30 78
15 83
54 86
52 11
25 29
12 73
69 27
23 72
39 30
62 5
23 52
25 93
95 54
75 78
44 61
4 82
70 23
27 82
12 86
90 77
74 30
31 72
45 92
65 5
67 56
75 17
84 80
25 27
42 84
43 82
60 47
72 49
67 54
67 32
57 15
55 40
28 1
27 88
96 93
41 16
58 6
95 35
1 76
41 29
60 63
45 80
21 67
85 87
22 9
35 55
62 44
2 32
49 87
40 27
28 7
57 47
45 21
40 95
96 41
84 20
44 10
88 65
32 58
28 40
79 13
86 66
55 73
60 77
5 60
74 64
84 79
50 3
20 88
84 15
39 19
47 70
31 41
91 72
60 21
15 92
15 36
56 82
33 84
77 79
50 97
30 93
61 53
60 75
22 92
35 48
90 35
12 82
13 2
72 77
25 41
45 43
39 9
3 23
90 47
73 42
27 93
36 31
20 55
30 96
6 23
78 9
20 30
48 12
69 96
13 64
41 72
82 9
23 55
82 77
32 53
86 3
35 97
15 37
66 26
23 84
41 33
58 60
74 42
82 67
60 19
54 77
6 4
50 35
58 46
58 70
50 17
38 50
44 23
11 77
71 35
13 87
88 39
59 60
93 22
33 25
44 95
48 80
56 80
22 42
6 38
19 91
90 78
51 36
73 90
80 90
23 45
74 39
50 46
97 82
52 30
80 10
3 75
96 29
53 58
18 33
74 90
69 57
97 27
11 30
79 24
42 93
33 72
33 73
7 60
52 58
33 91
41 78
59 25
93 68
8 87
80 32
64 39
24 15
2 71
54 15
12 9
92 61
27 92
42 96
69 32
31 67
72 20
55 90
86 60
21 76
37 90
84 65
77 92
37 71
69 16
65 52
62 6
77 47
35 74
22 25
54 30
21 42
68 14
55 30
80 42
67 35
93 23
77 96
23 96
58 95
52 22
27 53
51 44
54 70
26 1
82 53
11 86
90 66
64 55
21 75
63 57
14 21
43 53
68 64
49 9
60 13
81 48
80 35
74 2
81 87
70 48
62 29
2 93
69 15
61 22
23 43
25 74
76 97
56 38
49 74
59 72
2 43
14 84
17 20
34 93
36 82
78 11
61 19
67 64
62 80
35 12
75 55
84 19
20 76
3 97
69 73
76 67
34 67
5 51
78 7
13 73
11 55
36 33
24 16
61 31
74 73
3 39
7 54
60 48
21 63
53 11
3 41
48 87
19 16
78 21
97 30
15 12
64 86
9 21
9 87
20 18
4 47
5 54
18 59
94 82
68 71
73 57
73 38
76 59
17 16
46 88
60 32
6 14
64 96
39 76
55 4
31 50
10 95
18 72
47 32
70 93
33 74
70 89
52 68
77 97
82 61
39 25
65 33
54 74
63 75
73 93
18 95
31 86
7 20
43 9
97 69
31 15
84 69
50 13
43 56
95 31
15 18
17 32
51 66
3 4
58 25
51 95
63 51
27 3
38 84
61 75
59 13
4 39
17 29
57 8
58 40
13 70
97 47
57 54
33 93
50 58
56 58
44 72
17 91
69 60
22 47
84 82
9 77
17 97
37 25
18 77
41 9
44 21
46 97
84 67
96 71
32 96
96 56
4 49
96 91
54 87
85 28
37 2
47 91
95 11
6 19
13 46
34 60
69 13
87 36
54 45
89 6
1 61
18 82
94 47
47 63
53 4
35 91
87 33
6 15
27 12
27 26
80 28
94 95
97 41
13 96
33 71
55 51
38 29
23 56
77 12
44 91
84 89
34 72
22 46
58 29
5 15
44 89
21 32
75 74
22 74
6 95
82 7
14 9
14 56
69 8
82 35
95 47
43 7
46 35
62 65
46 76
41 1
92 58
67 37
22 85
25 2
36 70
33 2
93 76
55 96
88 5
62 75
20 32
85 38
80 6
37 69
39 55
84 8
7 11
44 45
36 50
49 21
84 39
76 28
44 12
38 52
58 65
68 44
12 54
46 29
9 33
65 19
47 38
93 24
19 31
18 46
4 38
56 4
87 84
58 1
49 29
89 2
60 35
96 31
32 59
37 34
24 26
79 54
48 54
50 75
92 54
38 18
55 95
7 62
91 36
1 8
71 25
1 63
70 63
74 91
49 16
25 46
17 74
55 62
31 84
3 77
62 22
82 49
63 22
55 94
85 64
72 62
9 97
35 72
47 9
95 79
57 53
35 54
24 14
22 97
33 92
36 76
77 70
22 23
85 9
87 14
23 38
20 74
60 2
27 70
19 46
59 49
78 20
65 39
2 28
93 20
69 83
48 76
31 29
86 69
48 29
58 47
18 22
87 92
12 47
18 1
72 55
49 88
79 14
27 76
17 96
62 42
41 44
29 80
41 19
83 68
38 32
36 93
53 69
69 68
94 54
28 81
51 77
43 40
4 90
1 65
92 34
96 52
15 21
49 41
20 68
12 92
45 51
33 35
37 93
74 24
14 18
25 43
52 25
67 30
29 37
64 79
95 75
55 76
24 19
23 63
62 10
42 90
80 16
51 29
76 71
4 81
32 77
37 54
57 34
81 85
20 43
65 75
81 53
43 36
57 65
61 17
25 63
52 73
29 2
74 18
77 49
7 36
73 19
71 81
23 82
17 87
22 17
38 95
13 49
51 71
63 95
39 21
45 34
29 75
27 74
93 54
50 90
58 23
86 70
93 92
74 12
41 47
82 3
55 87
96 22
32 73
39 69
11 73
29 70
20 47
11 67
30 76
24 75
60 52
38 54
50 41
87 64
5 12
29 33
67 6
93 60
94 83
80 23
58 45
49 70
16 12
64 21
69 87
7 29
59 31
3 2
90 95
46 77
80 49
50 15
44 13
69 85
9 28
93 77
67 47
81 3
23 14
89 31
35 86
46 23
36 19
67 80
80 7
48 65
77 78
14 40
31 81
53 3
64 50
46 82
22 57
66 67
67 16
27 41
29 34
9 27
29 24
19 97
70 80
72 43
90 23
60 57
23 81
6 60
2 52
68 94
72 74
52 36
59 47
50 82
47 15
19 18
50 12
8 26
42 16
86 80
7 84
20 64
95 88
97 87
22 78
87 34
30 68
52 82
81 66
55 53
90 11
14 74
8 44
66 24
41 38
13 10
74 11
70 73
84 49
26 44
4 78
64 17
54 84
80 31
84 77
