*Vertices 78
21 "#56"
74 "#30"
28 "#34"
47 "#28"
32 "#23"
55 "#74"
4 "#20"
59 "#53"
43 "#18"
17 "#65"
34 "#51"
9 "#64"
27 "#55"
19 "#46"
18 "#3"
38 "#19"
41 "#22"
10 "#39"
65 "#67"
77 "#75"
40 "#4"
51 "#63"
53 "#15"
63 "#25"
57 "#6"
11 "#47"
5 "#8"
29 "#12"
35 "#33"
61 "#16"
45 "#66"
37 "#42"
66 "#69"
25 "#54"
1 "#61"
69 "#17"
46 "#29"
71 "#77"
14 "#1"
67 "#37"
60 "#24"
58 "#76"
75 "#26"
30 "#38"
31 "#31"
3 "#40"
15 "#68"
72 "#0"
13 "#73"
48 "#59"
78 "#52"
33 "#5"
39 "#57"
2 "#71"
6 "#72"
49 "#58"
50 "#11"
16 "#48"
54 "#43"
42 "#10"
24 "#36"
44 "#7"
12 "#35"
7 "#45"
36 "#13"
70 "#9"
26 "#44"
62 "#60"
73 "#21"
22 "#49"
64 "#14"
76 "#41"
20 "#70"
68 "#50"
8 "#2"
56 "#62"
23 "#27"
52 "#32"
*Edges
30 44
14 42
28 5
60 74
45 9
69 50
30 11
74 14
4 44
63 19
13 77
24 35
40 70
70 59
15 16
2 20
50 53
69 5
37 31
24 61
29 47
18 4
16 70
75 26
56 70
11 24
40 71
40 42
6 48
55 58
39 48
72 16
49 74
67 2
28 73
23 9
26 4
70 3
21 19
21 44
10 61
40 78
31 41
8 47
78 25
30 28
33 76
27 25
42 70
49 78
9 24
9 26
18 78
40 41
48 47
46 57
56 72
14 7
33 10
48 30
30 54
57 22
47 54
57 47
21 11
37 57
61 23
52 59
47 68
66 37
77 47
54 36
23 39
47 50
51 66
60 3
2 58
36 10
9 32
51 59
71 58
42 8
18 35
63 31
62 35
61 34
36 64
21 56
69 30
62 3
45 66
31 59
64 52
73 9
77 7
5 76
36 29
13 71
18 54
39 62
77 14
77 46
76 60
25 68
28 32
23 35
49 56
66 19
47 62
70 64
76 26
8 46
31 64
49 25
48 1
13 58
37 9
15 58
29 51
1 62
17 9
56 7
4 22
52 61
47 19
62 56
31 27
42 37
5 30
28 36
25 37
52 17
78 57
45 60
38 6
70 49
48 21
6 20
19 37
64 71
31 52
3 37
57 76
61 33
14 76
72 19
58 61
5 19
41 51
28 42
49 15
77 67
7 46
37 70
48 8
55 22
40 8
6 58
29 56
1 34
21 28
63 10
26 78
11 42
63 71
26 42
39 24
36 19
20 71
35 37
49 17
3 54
46 31
4 19
9 53
37 76
78 27
42 72
34 38
62 51
51 52
21 49
47 73
68 43
64 8
20 77
59 78
5 43
4 43
66 9
51 9
65 12
75 46
59 61
61 22
13 2
55 20
30 72
21 46
9 33
14 21
7 37
23 8
30 32
4 39
31 38
43 71
65 45
42 53
32 35
58 77
63 38
78 69
26 22
13 20
39 1
11 39
18 10
28 25
5 32
16 3
56 48
17 36
23 63
67 47
17 15
57 35
12 74
27 43
45 67
30 10
74 41
36 52
77 71
1 56
66 27
16 11
55 6
48 49
17 33
36 34
27 29
2 77
35 41
38 7
75 19
6 13
25 74
62 50
64 56
4 73
14 39
2 55
64 12
16 18
67 11
52 30
37 1
12 42
62 11
76 74
58 8
49 31
60 41
49 73
61 63
17 51
34 10
56 63
25 22
75 54
45 19
35 49
67 75
14 68
36 48
22 33
56 23
74 24
21 62
30 39
65 66
48 62
59 34
1 60
7 62
11 38
65 9
37 68
27 34
68 24
8 54
47 31
13 73
30 56
65 27
65 42
70 7
1 21
60 34
42 73
65 15
26 49
67 44
55 21
31 75
36 8
70 53
64 2
24 46
49 1
29 11
68 34
16 68
29 69
47 18
25 34
66 15
47 36
60 10
22 53
35 8
3 41
13 55
19 33
43 44
16 56
20 33
21 61
36 25
52 34
65 51
49 62
22 45
9 72
51 45
10 66
67 46
3 23
19 61
34 26
18 64
5 11
15 18
44 52
13 10
22 36
40 38
5 54
50 58
53 75
8 31
17 72
53 27
37 18
53 48
67 49
4 30
8 43
70 73
51 15
34 44
57 18
6 40
58 53
26 19
49 39
56 39
25 32
17 66
26 61
25 3
15 45
32 34
28 40
14 9
70 62
23 31
73 69
6 2
46 29
25 11
68 78
73 40
68 27
25 59
28 10
8 32
65 17
28 33
26 41
63 68
53 23
45 17
16 8
42 44
6 77
18 73
78 34
77 73
60 44
60 32
44 8
8 38
72 23
39 59
73 26
68 32
16 57
40 59
58 20
22 54
68 59
14 62
29 54
47 9
2 71
57 25
28 16
29 70
14 36
9 71
39 21
52 29
24 57
70 26
69 28
59 27
15 9
75 23
7 66
59 58
42 5
52 69
16 7
71 6
71 55
75 68
30 14
44 78
42 48
52 14
10 5
70 54
27 2
77 55
