*Vertices 303
5 "#29"
196 "#295"
258 "#26"
7 "#111"
38 "#170"
197 "#299"
250 "#64"
63 "#277"
245 "#61"
187 "#290"
291 "#12"
243 "#149"
178 "#193"
240 "#294"
190 "#53"
242 "#284"
275 "#42"
260 "#84"
252 "#134"
193 "#4"
177 "#258"
231 "#45"
103 "#143"
249 "#75"
150 "#206"
205 "#58"
99 "#99"
49 "#120"
272 "#273"
215 "#98"
123 "#183"
284 "#87"
303 "#158"
3 "#247"
28 "#204"
45 "#71"
153 "#83"
93 "#18"
48 "#28"
251 "#10"
124 "#257"
34 "#185"
137 "#286"
115 "#253"
59 "#102"
75 "#153"
31 "#115"
127 "#32"
247 "#255"
84 "#110"
211 "#217"
6 "#260"
4 "#73"
36 "#92"
138 "#5"
145 "#136"
90 "#104"
16 "#135"
186 "#112"
141 "#271"
86 "#248"
158 "#249"
135 "#199"
134 "#65"
174 "#121"
295 "#125"
276 "#166"
77 "#215"
58 "#142"
110 "#172"
12 "#9"
109 "#211"
277 "#89"
23 "#220"
199 "#55"
114 "#116"
57 "#196"
40 "#270"
43 "#57"
246 "#235"
66 "#62"
269 "#189"
82 "#67"
248 "#140"
133 "#163"
170 "#182"
29 "#159"
95 "#229"
220 "#181"
91 "#228"
1 "#13"
300 "#43"
89 "#25"
119 "#108"
161 "#46"
299 "#283"
94 "#287"
79 "#17"
209 "#161"
256 "#94"
32 "#160"
126 "#118"
20 "#259"
27 "#236"
168 "#272"
121 "#222"
8 "#86"
203 "#157"
302 "#173"
53 "#254"
10 "#155"
166 "#269"
225 "#8"
98 "#250"
301 "#213"
189 "#15"
194 "#230"
184 "#109"
195 "#70"
17 "#208"
107 "#20"
254 "#176"
51 "#147"
72 "#66"
140 "#227"
227 "#2"
182 "#285"
117 "#175"
267 "#124"
222 "#296"
19 "#267"
265 "#101"
206 "#119"
234 "#68"
85 "#93"
74 "#150"
228 "#130"
108 "#171"
128 "#288"
139 "#14"
92 "#126"
288 "#33"
167 "#60"
56 "#117"
146 "#79"
68 "#6"
223 "#113"
101 "#77"
239 "#21"
18 "#197"
25 "#97"
111 "#105"
160 "#268"
105 "#0"
238 "#240"
55 "#224"
88 "#137"
185 "#85"
279 "#239"
64 "#133"
221 "#207"
22 "#82"
273 "#302"
130 "#74"
163 "#244"
241 "#274"
289 "#24"
125 "#169"
118 "#7"
50 "#223"
293 "#180"
278 "#72"
24 "#47"
281 "#34"
226 "#219"
271 "#232"
37 "#168"
287 "#91"
129 "#242"
192 "#146"
268 "#164"
180 "#162"
188 "#203"
60 "#246"
286 "#279"
96 "#90"
233 "#198"
218 "#281"
106 "#209"
71 "#238"
169 "#100"
217 "#128"
80 "#202"
156 "#165"
237 "#106"
143 "#139"
41 "#252"
149 "#144"
2 "#31"
200 "#195"
54 "#275"
263 "#141"
172 "#264"
132 "#123"
235 "#226"
212 "#241"
62 "#233"
270 "#289"
97 "#225"
191 "#280"
76 "#245"
39 "#187"
173 "#1"
244 "#194"
42 "#212"
280 "#297"
21 "#132"
179 "#291"
164 "#96"
255 "#88"
204 "#23"
33 "#214"
14 "#263"
210 "#11"
257 "#59"
102 "#266"
176 "#63"
232 "#80"
73 "#49"
224 "#205"
253 "#22"
44 "#56"
159 "#167"
142 "#50"
213 "#16"
65 "#234"
183 "#231"
112 "#19"
78 "#69"
104 "#114"
230 "#103"
122 "#81"
266 "#178"
262 "#251"
100 "#78"
9 "#95"
155 "#107"
297 "#200"
120 "#151"
35 "#282"
165 "#179"
162 "#292"
201 "#145"
26 "#192"
136 "#36"
216 "#156"
294 "#276"
282 "#152"
175 "#131"
264 "#76"
52 "#293"
131 "#186"
261 "#237"
171 "#201"
61 "#154"
148 "#298"
152 "#262"
274 "#122"
292 "#48"
298 "#190"
87 "#44"
229 "#54"
147 "#38"
236 "#30"
259 "#243"
202 "#41"
207 "#39"
151 "#3"
181 "#184"
290 "#51"
198 "#261"
214 "#174"
47 "#35"
154 "#37"
157 "#221"
285 "#127"
116 "#216"
15 "#218"
113 "#300"
67 "#27"
81 "#138"
69 "#210"
208 "#265"
11 "#278"
46 "#191"
83 "#40"
144 "#256"
70 "#301"
30 "#129"
296 "#177"
219 "#52"
13 "#148"
283 "#188"
*Edges
61 95
242 244
272 166
131 88
68 151
146 17
227 115
224 297
187 221
234 98
280 161
218 259
264 255
15 125
204 124
69 229
152 6
92 289
254 7
271 84
256 215
150 19
78 158
280 196
108 14
54 273
217 80
271 35
71 163
109 173
131 294
229 138
200 26
250 172
283 273
94 197
261 83
207 24
288 69
221 42
252 81
267 276
239 196
188 52
170 293
35 113
20 45
238 163
246 104
103 223
43 53
47 12
43 136
231 159
246 27
144 32
91 100
21 222
245 249
142 297
128 250
86 76
253 126
105 247
144 115
132 9
91 60
147 250
55 86
164 102
242 196
221 139
38 3
75 39
51 219
172 143
206 5
116 125
225 89
145 286
109 33
89 302
216 296
206 267
20 166
37 237
157 299
288 78
67 298
258 34
283 102
106 157
26 32
68 142
110 4
60 40
54 35
41 72
219 33
188 122
101 284
292 257
223 278
270 299
255 38
155 186
290 62
283 99
93 64
176 245
241 37
274 72
56 58
47 250
242 162
287 211
147 162
220 154
200 39
224 48
207 7
151 24
48 133
35 242
176 160
181 246
279 167
29 187
32 153
291 85
211 226
249 86
209 268
247 90
184 223
216 127
243 202
158 104
8 214
97 221
44 182
273 215
173 198
122 42
96 29
261 262
85 145
156 13
297 39
75 134
28 158
140 183
94 46
135 163
188 28
247 235
283 226
283 249
80 28
23 243
193 236
203 23
128 94
62 114
2 265
180 250
6 175
174 182
49 15
215 9
113 228
241 122
286 191
29 98
162 137
189 50
213 142
191 222
54 240
192 53
89 73
246 261
74 22
238 230
240 50
121 62
86 209
126 128
202 298
125 13
51 99
245 76
150 293
157 155
45 275
185 252
133 103
248 131
178 85
123 275
266 210
18 301
204 45
120 192
52 302
247 141
114 121
194 79
124 259
187 128
84 71
248 15
86 92
280 11
242 195
31 163
190 35
4 122
285 42
247 241
67 169
299 35
113 270
170 208
102 83
194 238
257 169
18 283
35 290
242 240
16 272
129 246
61 37
239 158
211 32
56 250
168 241
145 88
74 194
254 73
91 107
63 135
273 270
152 180
234 113
178 223
46 18
298 240
47 136
172 38
193 100
212 31
120 13
254 293
175 90
59 296
296 220
155 34
173 52
50 15
227 208
181 32
92 164
97 122
233 72
41 56
62 279
186 41
32 248
267 83
241 208
209 36
254 98
71 150
55 97
126 133
268 188
90 85
119 299
35 140
121 221
264 203
260 226
141 137
235 46
117 221
90 155
170 251
176 191
241 114
227 11
51 268
12 130
140 91
289 267
277 23
224 269
108 265
73 37
48 227
297 174
25 120
145 52
102 262
133 116
237 52
133 84
227 231
87 9
273 25
174 107
38 165
266 254
86 223
138 257
88 21
299 14
184 181
101 133
260 246
215 211
227 151
158 207
51 191
284 141
196 188
145 109
285 230
166 124
110 184
168 223
76 91
266 50
13 99
112 196
6 124
270 222
247 129
10 275
95 299
208 191
27 259
118 62
57 18
262 194
283 142
213 77
123 150
48 93
33 60
2 129
254 74
231 38
3 163
220 142
302 170
56 235
228 148
127 149
272 102
181 29
84 164
177 294
222 175
75 203
84 8
281 47
146 70
111 292
194 129
41 122
63 234
243 74
94 273
261 147
124 120
220 170
247 177
187 94
231 285
250 184
165 196
158 163
111 7
70 84
94 286
222 136
157 211
25 284
190 98
252 127
288 22
91 177
34 171
139 157
52 117
133 272
3 129
153 122
240 113
253 173
160 115
96 284
204 136
140 73
32 137
27 130
184 43
183 163
78 295
113 82
161 23
270 18
39 25
67 125
58 293
262 152
107 47
225 97
132 224
20 83
192 40
187 217
130 195
34 266
156 172
6 227
76 120
79 110
19 141
264 23
34 274
163 65
255 249
164 230
46 96
193 134
144 52
297 298
222 66
138 136
130 171
137 188
212 275
253 74
152 164
92 267
88 143
155 78
62 91
68 205
11 134
290 249
126 139
86 103
174 126
22 29
36 210
169 219
85 213
98 144
138 248
163 20
221 142
49 253
13 103
84 207
122 139
75 112
134 127
179 191
7 271
288 19
166 210
170 123
50 242
11 14
100 189
267 184
113 111
178 57
95 149
71 181
114 123
47 227
80 135
301 53
303 270
272 209
245 50
187 211
16 143
136 3
45 167
74 100
17 72
29 143
57 147
11 281
112 81
142 116
237 185
44 235
32 159
264 259
113 182
45 278
97 187
203 284
40 92
81 189
147 44
298 137
284 224
41 297
62 86
31 236
210 190
52 196
118 216
34 91
1 199
70 102
207 175
1 19
144 125
278 212
116 264
169 178
27 237
205 219
179 162
146 236
222 97
176 202
65 62
192 56
229 262
80 93
73 88
90 239
56 177
247 44
271 255
298 49
82 148
267 138
118 219
44 105
293 94
154 276
150 106
168 284
185 287
298 253
189 225
262 220
51 291
200 98
289 225
152 282
106 235
198 41
296 132
171 224
139 211
104 150
187 83
127 44
187 137
230 53
117 214
96 299
250 2
89 30
135 11
284 182
82 163
55 145
129 31
153 10
246 137
65 177
62 158
121 193
296 16
158 3
241 42
283 206
60 148
57 297
180 168
217 274
41 166
165 51
44 220
100 40
244 125
181 266
152 115
299 273
127 137
98 247
18 227
244 230
297 12
122 35
291 261
289 161
92 73
225 119
92 161
235 32
187 299
8 57
182 35
254 219
15 157
94 48
177 286
76 260
50 204
22 75
283 228
255 96
228 287
137 299
271 152
243 288
69 191
266 130
292 96
87 205
51 263
53 36
175 30
113 211
267 153
293 218
241 112
170 64
197 135
252 228
143 24
270 11
279 194
174 92
166 247
16 30
137 196
178 239
81 274
106 225
17 242
75 243
211 230
182 187
5 151
221 19
236 148
254 262
118 24
1 88
61 266
52 294
38 20
223 277
100 82
71 35
23 116
271 247
233 26
219 79
196 299
114 218
240 15
247 223
162 63
45 126
84 72
222 187
235 110
190 1
259 261
275 284
168 196
145 198
123 117
149 102
258 171
125 61
90 96
189 111
264 297
94 255
224 178
104 237
205 249
184 166
186 138
158 183
211 42
82 128
26 56
182 128
57 112
185 94
217 220
276 221
235 23
275 260
176 92
224 6
115 271
124 283
57 269
256 223
245 240
72 120
99 135
170 221
193 21
203 53
144 258
169 35
94 126
85 163
119 154
91 71
282 275
261 113
61 253
294 300
80 246
98 208
301 17
205 118
301 143
126 143
9 205
54 52
100 57
163 76
241 21
74 90
98 6
302 38
143 80
300 280
179 187
177 160
180 266
283 179
95 220
3 71
21 55
211 97
285 283
223 181
227 279
60 97
257 249
180 10
129 88
59 111
279 74
140 285
135 112
239 50
303 33
65 23
19 177
78 71
177 6
76 185
212 246
251 107
273 257
302 182
49 13
192 167
277 98
83 25
239 15
22 83
168 140
223 179
173 36
14 211
81 208
206 209
85 114
248 74
32 240
11 245
220 70
80 224
124 99
105 11
33 155
147 72
20 246
110 215
59 145
124 98
256 115
278 21
231 287
253 215
121 23
203 90
219 196
124 133
22 302
28 200
1 116
1 178
258 100
200 262
177 20
227 224
234 277
217 218
5 145
246 186
273 186
165 153
28 204
160 47
3 224
68 108
228 108
264 195
233 98
130 142
166 81
62 25
60 301
222 267
62 53
195 7
15 109
278 186
188 30
99 82
171 197
122 240
147 126
66 139
163 230
267 7
258 267
35 286
114 153
270 294
86 129
262 250
211 33
103 1
294 27
254 253
123 195
220 270
70 167
95 284
57 244
35 6
211 231
163 51
94 294
167 65
183 122
205 180
106 283
176 242
43 42
102 109
275 229
8 29
150 235
217 269
154 59
70 168
63 148
255 268
86 227
37 14
14 139
33 128
50 121
291 153
113 169
158 65
54 56
247 168
110 81
283 39
298 237
292 269
163 212
27 65
8 250
119 9
91 206
40 148
28 175
137 259
179 148
150 171
155 183
199 125
27 32
263 24
252 217
37 7
75 231
190 287
166 14
189 19
283 297
268 29
76 61
130 131
32 61
53 299
102 107
227 75
70 286
282 214
265 25
291 145
164 215
77 80
303 70
81 72
154 12
284 180
222 252
6 78
166 98
136 289
28 269
5 106
132 87
15 106
190 112
271 61
102 17
54 187
296 83
207 163
97 288
170 297
278 4
90 300
282 300
294 19
203 241
159 59
128 54
123 76
171 127
150 95
105 289
73 129
94 139
113 109
215 102
46 224
283 60
58 149
56 35
71 212
117 98
218 223
17 23
145 287
223 206
298 236
71 246
10 55
99 9
6 14
210 19
74 145
64 173
52 182
233 208
87 299
271 3
211 23
206 128
93 65
152 208
200 122
279 95
261 97
178 87
104 157
77 55
284 59
167 29
165 268
77 14
181 110
98 218
114 256
128 108
121 65
57 145
178 177
9 25
40 221
275 126
124 128
158 71
268 167
13 51
68 150
156 42
20 172
271 253
101 207
189 44
248 8
174 175
222 166
133 209
290 250
276 106
274 171
225 82
128 241
18 281
250 190
168 53
261 284
117 76
206 99
168 144
211 30
164 278
269 4
238 198
63 111
247 4
19 83
116 226
138 123
242 173
90 138
231 277
122 22
202 113
203 3
188 284
40 96
78 182
234 133
230 16
9 51
170 34
267 141
201 108
99 294
113 71
102 208
96 110
94 121
175 108
284 174
286 299
179 54
187 251
38 298
134 166
274 266
77 116
83 258
239 136
130 230
62 92
97 50
179 11
209 300
210 193
195 172
218 249
235 121
110 239
2 219
299 52
265 192
147 193
283 68
188 57
171 298
69 148
56 174
10 85
28 104
180 125
246 286
97 18
65 259
303 63
173 188
65 234
198 108
156 17
190 201
175 64
37 58
155 184
134 116
15 140
33 74
286 182
45 206
69 157
220 25
41 28
273 282
282 179
36 145
228 66
141 92
111 119
100 80
291 174
249 116
68 303
247 272
96 85
260 215
80 21
2 190
46 232
213 80
257 38
49 208
175 232
4 137
125 273
238 88
246 45
83 246
21 47
34 19
228 225
244 180
25 216
135 293
42 69
216 263
294 187
63 137
119 186
150 157
60 183
283 171
162 189
79 193
221 124
117 20
13 263
203 29
63 252
165 302
109 55
199 228
170 214
43 118
50 275
71 194
268 111
269 255
24 255
263 110
30 57
107 82
12 286
9 121
274 14
110 214
272 40
8 36
124 231
133 268
8 107
57 245
153 227
131 302
96 287
229 45
74 16
68 202
208 220
15 23
302 103
161 170
197 54
80 276
206 242
78 193
241 19
83 188
53 174
10 170
43 31
205 198
191 21
93 228
241 41
122 285
57 7
223 255
15 177
66 52
144 131
226 195
45 130
192 149
118 98
142 89
183 253
214 244
252 275
63 54
13 102
188 224
3 5
184 83
171 82
206 88
94 132
88 224
174 67
101 245
132 90
18 83
173 97
64 140
67 273
57 44
227 170
264 157
20 204
26 80
94 191
240 37
252 22
99 109
261 129
14 198
279 244
287 210
85 53
300 177
18 229
199 155
168 138
302 214
190 164
282 120
162 280
45 288
125 203
204 272
266 122
138 120
15 252
16 281
73 107
226 17
17 121
288 146
300 29
20 141
38 144
181 142
266 8
27 77
56 159
163 237
137 142
2 200
222 112
97 223
281 172
39 76
88 96
5 254
19 303
281 243
273 74
278 42
64 16
280 121
217 201
133 89
99 259
223 143
62 147
61 289
288 108
18 298
74 203
218 159
290 1
209 201
203 299
89 293
21 51
255 257
166 135
278 92
120 253
52 216
98 50
207 93
214 264
35 38
273 303
31 219
74 201
116 183
133 112
261 167
74 109
175 135
150 15
287 261
6 207
4 252
246 96
267 28
34 181
98 221
29 94
147 61
91 297
110 262
9 78
243 192
242 285
126 77
152 272
286 90
123 88
4 42
5 4
248 146
231 56
40 300
301 13
218 197
55 42
39 230
301 57
51 57
57 207
171 133
67 217
16 216
86 279
49 174
78 1
99 103
53 95
297 85
154 13
148 56
292 206
68 123
32 97
165 67
148 6
147 264
289 269
115 251
94 35
203 121
71 26
83 241
35 187
121 230
264 216
117 102
226 301
18 295
10 61
128 200
186 48
181 254
137 79
176 32
296 144
285 68
141 118
286 63
102 166
114 178
168 106
162 217
6 141
65 271
96 117
113 10
195 136
15 251
195 203
53 23
192 107
196 257
191 54
202 1
183 131
191 218
193 13
8 74
302 254
207 251
34 228
176 205
128 292
213 280
27 135
21 82
263 116
171 56
242 97
252 173
40 241
36 64
261 3
105 206
47 180
44 230
198 281
182 235
218 180
6 71
70 162
158 179
89 230
126 205
33 279
288 215
191 252
46 266
220 66
103 248
203 289
179 286
28 6
258 288
293 146
185 284
247 40
178 64
15 46
271 279
280 30
257 16
23 272
26 27
118 14
71 214
201 13
244 135
11 249
174 179
75 282
190 178
299 240
198 172
41 219
5 243
297 155
113 280
207 116
127 205
196 148
59 228
153 225
203 156
47 270
53 160
59 241
175 101
149 162
268 241
185 218
298 71
198 223
162 218
33 58
58 240
125 10
294 191
183 144
121 163
163 60
161 114
238 244
37 209
296 88
114 206
241 139
250 204
172 153
295 98
94 40
128 24
184 111
123 217
148 102
125 23
132 31
206 259
84 202
254 235
238 15
293 131
72 131
190 148
102 41
287 159
36 130
121 298
91 3
20 10
32 5
205 295
101 153
287 242
115 60
213 163
106 200
11 303
177 219
40 63
13 74
129 229
2 45
278 269
242 197
295 213
239 231
129 166
19 140
206 13
153 221
254 249
131 254
78 213
226 50
139 248
137 17
14 287
170 185
235 7
11 182
30 13
223 154
54 135
229 111
168 184
58 93
136 116
62 125
119 196
172 141
215 167
279 149
159 133
87 187
221 272
211 104
200 13
301 12
152 105
73 137
222 148
163 91
107 227
108 220
189 164
7 95
63 187
166 17
141 144
151 135
182 94
62 222
79 161
283 195
230 34
290 261
187 89
121 15
185 277
218 268
108 181
66 224
126 229
276 239
281 173
63 18
248 118
133 54
151 246
101 149
1 184
185 143
236 205
119 103
17 116
203 126
191 198
69 109
207 30
32 71
278 120
121 255
168 182
204 44
94 146
222 162
181 90
4 145
280 223
113 78
98 120
91 133
190 207
165 214
119 1
301 81
21 30
76 207
198 40
205 275
301 123
300 53
123 57
116 44
282 149
247 172
99 126
85 202
263 16
92 6
115 53
175 78
123 12
102 99
283 135
230 132
103 178
140 179
67 228
33 238
25 33
70 248
289 280
247 222
133 60
301 242
81 88
115 303
220 187
273 11
137 153
232 241
52 63
300 47
147 119
160 267
187 212
39 153
303 209
195 84
179 182
227 70
49 57
211 120
31 204
179 63
174 78
302 109
203 30
176 112
85 18
275 60
36 144
103 206
13 192
187 192
34 183
43 282
7 218
44 287
36 85
33 154
121 151
5 38
13 98
123 214
94 152
4 183
80 41
3 86
200 135
213 122
139 173
303 133
285 7
135 134
115 19
200 171
303 37
273 128
256 107
164 79
62 199
212 129
195 243
177 141
276 17
178 247
219 77
101 93
87 257
55 301
229 164
291 112
26 269
229 296
247 74
66 49
214 266
259 271
14 12
186 123
100 144
227 219
14 55
158 110
128 222
302 281
271 1
101 197
177 98
244 281
226 273
53 207
290 104
278 207
268 10
201 141
231 298
235 171
293 123
25 276
14 181
141 62
121 47
279 183
128 231
294 286
158 34
40 185
185 152
139 186
229 148
91 155
285 34
16 169
235 191
220 20
241 272
112 148
48 201
1 213
27 3
270 179
293 266
261 76
77 105
296 39
241 198
204 65
88 297
99 169
103 120
62 99
216 69
36 164
102 177
29 36
295 112
119 47
170 296
270 63
230 225
260 232
76 131
15 55
60 22
144 14
116 3
104 286
167 130
70 7
30 303
206 31
104 77
191 273
280 228
31 79
227 273
19 198
202 255
67 267
203 9
57 281
18 121
103 74
60 194
263 72
22 146
212 56
294 124
165 203
299 168
170 193
42 144
53 177
140 218
188 186
269 148
118 173
236 149
136 97
225 134
145 185
66 9
29 275
181 22
142 193
62 127
301 140
197 140
201 160
64 11
18 68
15 226
230 59
104 223
217 53
183 9
229 23
18 35
207 58
216 9
231 221
142 13
62 171
46 269
27 38
31 95
279 169
188 200
50 17
48 253
256 118
106 90
92 206
237 137
268 267
250 59
75 286
255 36
187 11
194 20
197 69
301 26
249 286
287 248
266 220
264 39
85 9
237 205
30 5
108 239
190 284
6 176
174 282
233 115
67 294
237 271
195 159
185 115
67 45
209 158
19 236
282 58
23 301
130 90
290 273
151 150
37 30
137 193
22 143
216 169
65 206
259 160
296 181
185 26
274 244
114 92
15 42
41 177
115 48
58 120
143 158
290 235
203 129
122 44
131 259
192 11
89 2
303 60
57 59
233 65
60 199
300 176
60 246
145 268
200 4
157 188
268 229
11 263
18 116
139 172
116 15
238 81
272 172
80 95
27 46
230 148
261 140
88 24
67 264
192 122
262 172
24 32
168 141
256 9
212 29
269 178
14 152
239 33
99 85
274 132
133 156
145 64
26 46
151 302
270 285
194 166
265 279
303 156
118 151
108 169
106 33
284 170
55 214
87 154
92 23
299 129
216 41
132 38
254 242
197 175
217 126
191 217
118 66
11 162
14 172
212 185
97 72
245 24
264 30
242 210
77 301
133 44
188 282
257 75
29 159
126 55
59 247
23 98
132 198
97 214
295 109
33 263
149 128
133 83
280 106
214 185
101 63
52 129
195 151
8 277
242 158
272 281
167 163
144 215
110 117
299 212
143 25
266 129
34 276
92 49
52 218
234 94
191 153
165 266
11 276
188 210
145 266
287 180
60 240
179 222
212 50
35 15
132 190
273 187
10 50
155 237
272 124
295 182
12 223
269 100
302 149
185 5
106 109
256 99
220 46
136 303
152 203
33 123
273 222
233 109
208 19
117 225
182 151
191 60
129 142
115 14
50 221
65 3
101 22
134 237
303 188
60 99
259 291
180 84
113 133
261 32
21 105
112 164
123 142
129 135
226 225
121 22
251 47
76 109
84 10
37 56
80 171
123 29
299 191
222 135
17 241
210 221
23 226
70 280
72 67
85 35
170 135
292 68
76 199
295 241
227 73
205 178
12 165
118 287
118 265
221 247
43 85
185 34
20 176
152 144
183 91
279 56
154 52
109 167
26 211
297 210
177 255
51 192
260 225
161 14
196 276
190 291
129 183
98 198
46 171
298 48
98 207
78 118
161 9
126 56
153 200
175 159
232 165
254 20
280 286
27 242
51 204
106 97
244 112
173 295
52 106
240 154
56 181
192 79
180 263
26 224
259 3
270 242
159 267
247 262
26 215
247 145
23 151
30 173
138 254
38 131
3 279
17 220
106 254
43 278
117 240
135 39
78 166
189 6
283 244
287 10
68 158
13 153
245 46
225 197
214 122
209 174
233 153
207 131
262 198
248 203
163 129
35 197
279 150
247 6
52 94
245 26
131 110
148 61
18 78
42 145
54 212
172 107
262 29
160 124
204 230
167 145
246 65
240 179
120 7
145 282
163 53
224 236
4 15
74 287
148 221
129 140
205 116
138 84
76 170
43 44
40 14
163 48
241 202
191 213
17 97
201 208
49 17
100 10
212 86
24 121
158 95
296 264
74 167
144 173
226 106
122 62
99 10
157 293
22 25
214 6
70 62
249 37
92 16
46 233
120 35
120 97
100 101
244 188
44 289
249 4
150 248
221 7
134 206
209 261
248 75
202 166
215 23
200 223
299 45
205 12
121 278
58 83
35 239
121 97
51 259
219 19
287 229
30 126
300 137
71 241
147 297
228 105
273 292
288 297
296 50
62 212
106 114
247 208
291 98
102 40
231 145
88 169
130 96
81 217
148 220
56 118
201 269
169 95
158 76
140 3
276 159
149 57
26 295
303 152
63 124
157 197
48 72
262 186
291 97
97 116
123 165
166 141
300 154
143 89
155 275
67 82
34 38
233 280
84 7
174 24
122 120
257 214
210 302
250 185
233 200
155 261
227 7
115 215
134 294
153 163
39 244
41 172
102 154
174 135
225 210
120 243
128 179
217 228
121 260
89 248
118 187
300 157
35 259
77 44
95 185
296 257
171 20
104 7
294 54
119 90
94 2
86 111
131 43
61 62
214 259
256 199
130 77
19 129
98 49
120 201
154 168
100 107
124 19
40 141
37 294
262 207
281 199
213 265
129 271
199 250
267 31
95 27
252 83
183 165
197 26
279 1
130 296
298 188
185 183
111 288
99 106
54 12
43 138
300 205
119 233
234 218
55 17
149 231
157 221
43 182
273 63
192 75
258 121
280 34
42 226
41 20
113 168
69 63
291 66
169 14
46 173
250 150
109 62
223 6
259 246
301 75
173 15
54 94
139 54
67 280
141 262
116 175
30 217
269 83
50 13
247 50
173 231
279 12
126 50
25 297
239 170
207 34
174 3
253 203
188 216
79 152
45 300
267 70
113 137
226 45
76 238
93 110
43 211
174 129
198 298
171 95
265 203
162 87
170 110
128 162
290 108
199 77
232 49
54 284
14 133
67 14
240 270
150 239
300 134
194 289
243 189
197 148
188 148
4 68
94 162
19 144
77 221
173 120
297 135
13 60
118 295
186 154
165 226
99 137
197 207
12 244
167 219
155 143
94 240
214 12
167 205
145 99
20 81
25 94
191 282
59 256
53 262
106 17
221 186
246 145
208 53
51 290
57 118
252 12
289 148
76 279
187 51
18 213
265 164
230 278
300 210
147 148
237 39
244 178
197 179
302 64
290 238
18 125
150 42
131 179
102 61
285 29
49 172
252 93
61 170
228 220
218 205
242 218
253 221
168 291
301 112
198 237
303 302
225 11
296 254
18 135
232 33
11 191
301 180
295 274
244 134
125 241
76 145
282 173
157 207
151 257
279 158
169 97
50 77
167 98
17 101
301 224
165 246
182 216
302 110
259 282
173 230
107 277
292 162
270 70
15 19
26 3
242 278
134 87
167 185
289 78
276 228
174 212
209 210
222 44
217 145
201 204
157 121
225 144
69 297
195 158
233 174
53 142
160 284
183 224
263 75
205 105
125 303
42 116
77 106
71 268
20 262
117 48
102 300
298 147
225 51
84 74
277 33
112 155
240 273
8 129
147 272
151 235
278 185
214 187
156 32
156 276
142 260
237 140
261 18
46 19
65 279
20 78
53 10
159 156
216 67
101 211
283 57
244 65
241 89
173 300
224 233
114 255
261 27
279 136
287 116
49 132
97 33
169 167
296 68
22 193
131 160
275 24
49 16
74 223
71 287
300 208
264 270
219 172
291 96
234 230
7 34
265 242
202 67
177 241
244 18
280 291
65 183
270 104
155 262
26 21
44 79
295 92
158 140
163 259
65 254
113 191
116 121
84 90
110 254
215 187
38 296
281 182
82 116
132 247
167 55
142 253
84 302
120 126
14 102
198 141
92 28
17 42
3 240
83 3
301 266
43 173
166 152
241 53
70 179
113 248
174 47
187 114
303 236
85 219
286 273
171 233
9 57
69 101
174 163
234 33
79 288
69 77
122 248
234 197
263 260
258 248
275 290
183 221
38 243
301 119
276 32
123 110
212 27
298 195
185 43
148 218
83 212
135 192
231 109
57 134
212 259
47 72
174 270
172 40
95 302
122 221
252 159
100 188
107 111
111 202
97 149
62 197
117 133
144 270
158 261
107 136
19 148
53 245
256 171
59 153
198 168
214 111
184 104
193 36
178 170
54 266
156 290
288 12
286 200
63 221
8 215
27 194
24 217
237 90
245 104
206 58
117 194
185 290
254 294
113 178
283 214
94 89
139 176
177 144
58 124
223 222
24 266
296 302
99 65
267 298
297 66
195 87
240 148
89 275
214 67
35 152
280 128
297 46
150 221
6 160
287 9
212 248
203 57
74 122
193 77
37 176
249 240
122 130
22 100
129 234
168 166
21 220
140 51
163 40
67 195
133 208
86 23
209 218
52 170
259 284
51 58
107 53
195 276
14 194
267 270
301 211
280 28
280 294
215 195
16 83
120 246
153 167
69 1
112 111
60 142
71 288
40 224
220 210
132 208
123 291
30 145
129 95
7 145
125 173
283 223
166 19
155 10
224 19
287 204
62 11
121 119
74 37
274 145
294 35
235 42
51 83
187 170
86 246
120 286
251 111
41 130
244 181
177 262
198 181
11 129
173 303
31 107
171 119
199 79
263 103
32 124
142 200
168 120
33 76
66 208
77 65
188 119
14 157
276 141
303 260
266 193
151 105
192 203
130 285
277 242
113 286
276 96
265 89
144 250
207 230
211 67
269 219
100 167
277 53
217 60
44 252
293 236
200 86
257 216
191 240
231 68
85 78
31 209
67 130
160 61
241 60
303 146
249 161
73 112
166 63
296 280
223 231
158 74
265 95
220 238
253 27
16 292
189 47
201 167
284 63
75 293
150 77
10 73
217 155
175 125
36 196
173 271
81 228
25 258
137 270
80 33
190 69
14 41
270 249
48 228
32 15
230 180
235 90
114 261
291 204
65 91
181 293
200 297
32 139
220 299
108 23
192 84
187 240
168 118
17 69
75 275
27 182
112 4
204 142
252 30
214 85
22 12
31 53
41 53
146 126
280 240
201 51
5 201
153 232
169 271
233 237
70 232
137 220
297 260
51 148
256 124
222 165
250 302
129 21
133 180
212 19
253 190
97 157
295 49
180 31
241 276
253 206
165 220
248 174
197 127
95 146
256 137
203 8
289 242
58 259
130 249
216 61
216 243
188 233
7 291
218 16
226 3
301 104
81 107
200 125
27 82
22 109
232 163
64 95
127 83
21 78
2 120
143 251
18 14
200 302
210 162
12 278
50 139
211 20
140 130
267 114
238 21
79 91
41 47
145 225
285 16
179 113
183 98
98 115
135 243
233 22
87 170
133 61
38 194
206 244
53 144
155 211
291 289
266 37
157 209
20 241
226 163
261 71
19 240
54 58
110 290
192 34
124 13
124 218
80 269
100 36
10 24
204 260
40 19
172 169
237 184
282 83
174 177
120 139
286 264
100 183
14 264
68 56
204 32
296 131
65 2
232 264
263 259
73 223
46 2
155 41
77 273
257 14
112 186
99 197
229 240
237 158
238 275
263 299
88 64
288 225
183 27
60 271
54 70
202 177
224 200
152 121
258 48
115 50
218 31
72 94
109 42
150 197
285 266
212 279
294 48
40 167
234 284
101 158
35 135
246 140
117 147
66 24
299 70
23 232
242 191
109 35
206 194
193 133
75 213
292 268
86 244
62 60
107 149
245 285
244 29
127 204
218 273
152 211
121 70
124 167
138 39
264 27
275 271
220 96
162 200
214 292
255 279
218 11
18 211
18 200
112 120
197 96
65 174
284 220
35 137
9 286
68 204
89 109
262 10
150 226
3 241
124 141
262 161
89 295
124 41
287 160
11 75
82 286
153 208
11 63
140 127
202 140
126 193
238 209
210 156
129 238
109 63
262 81
131 123
295 206
158 27
75 149
185 266
171 156
177 11
153 209
271 67
151 84
14 66
91 134
198 134
41 127
88 199
31 49
202 282
114 192
274 297
272 262
209 213
9 45
162 132
134 144
93 232
141 231
111 155
21 106
84 223
218 294
231 130
245 66
77 121
168 177
240 182
287 278
113 94
280 179
46 137
195 69
248 112
30 19
163 194
158 60
301 121
173 223
10 156
90 98
41 208
269 125
226 56
231 234
279 269
243 238
58 115
155 198
191 118
248 192
54 127
197 158
146 228
45 254
169 230
53 242
225 250
192 103
200 57
179 105
230 270
297 228
34 263
178 62
222 38
274 101
137 136
297 178
252 229
55 69
109 160
1 287
282 7
215 261
37 154
238 261
83 268
94 49
294 128
198 247
278 264
237 303
229 91
16 258
9 277
86 95
226 35
181 170
220 123
46 195
19 149
159 303
150 33
139 202
157 196
297 293
249 224
290 169
145 201
218 222
291 38
260 155
162 148
85 194
268 32
299 81
39 246
216 173
290 43
292 151
117 115
168 37
27 60
22 89
45 201
206 117
11 128
293 133
168 14
106 55
150 187
231 134
168 262
92 115
222 280
67 158
228 21
119 244
275 301
39 212
5 214
190 122
290 163
223 155
87 86
73 181
60 37
211 158
4 189
24 67
266 117
179 51
204 30
237 30
250 10
81 143
247 160
138 82
283 66
237 87
286 195
83 298
90 169
57 24
3 62
274 174
166 198
21 68
28 244
219 3
123 229
45 195
254 108
266 48
12 6
3 125
26 50
49 251
262 237
83 251
148 64
140 20
44 136
220 267
16 33
52 280
231 161
208 256
38 153
221 75
282 74
196 211
101 288
196 146
292 274
140 238
57 276
205 204
33 116
3 45
107 253
215 230
71 238
128 301
176 17
255 211
151 293
217 161
263 149
41 272
161 46
224 302
103 61
205 47
202 129
288 302
261 20
82 198
171 226
100 235
281 222
69 299
205 175
277 183
26 183
286 237
201 159
285 277
265 9
150 51
41 144
182 191
110 1
115 65
39 57
183 3
16 73
295 166
236 37
37 80
184 299
271 113
233 264
44 72
240 128
245 207
113 33
20 183
220 254
226 89
163 49
44 280
118 161
132 111
276 93
293 220
116 127
167 21
95 212
87 230
86 65
155 119
271 141
9 13
7 237
262 75
117 78
133 10
284 143
26 272
237 288
145 21
123 167
162 187
107 48
239 241
123 86
205 238
27 86
58 3
303 61
121 184
77 23
32 100
11 290
78 203
269 213
123 266
183 70
256 237
149 300
116 270
270 218
221 43
156 268
169 256
1 134
164 59
293 164
276 262
96 8
263 183
269 188
95 174
110 249
290 23
77 232
223 112
137 52
279 284
127 34
188 297
301 255
102 134
46 36
251 297
6 41
299 280
20 87
18 170
182 267
243 201
96 48
200 251
182 222
35 128
257 270
196 128
77 15
54 170
170 129
302 219
121 145
297 17
230 218
239 287
182 197
267 254
204 277
247 19
69 97
54 292
270 148
107 35
234 144
51 120
222 94
144 228
249 91
104 240
69 32
74 181
229 32
143 217
22 141
101 232
49 121
292 179
95 70
93 247
296 236
156 180
286 56
139 93
211 288
130 267
16 21
7 214
243 155
102 115
15 277
168 20
299 116
42 250
227 60
163 1
103 91
10 236
192 29
287 36
81 55
19 168
289 298
22 274
244 287
240 186
297 28
295 299
243 295
173 112
134 230
176 283
291 54
272 88
165 131
95 65
56 295
38 123
227 119
10 216
56 92
200 107
147 157
154 118
291 125
65 116
179 137
54 104
302 218
274 283
193 185
108 296
201 136
162 54
128 70
292 25
267 8
145 16
130 75
148 280
203 166
177 213
55 157
11 217
234 6
2 138
87 73
69 278
22 112
38 181
67 124
271 137
170 108
215 42
249 33
203 145
196 218
160 19
91 292
293 136
176 103
32 62
86 261
150 280
204 66
166 99
197 206
185 146
85 290
120 228
195 29
32 270
287 131
208 144
287 111
289 35
119 210
122 205
273 294
152 172
190 300
68 134
129 158
139 75
204 134
2 23
76 65
275 92
276 7
126 57
211 55
9 147
9 86
156 29
279 180
206 39
292 93
221 141
297 233
221 118
216 125
63 242
211 61
145 205
111 237
126 7
62 71
227 159
193 171
231 282
120 187
222 70
162 102
144 84
11 70
127 185
198 96
166 115
187 272
144 166
57 96
284 204
13 248
288 40
8 229
60 233
235 41
121 211
109 235
275 127
285 260
226 151
35 283
274 10
74 66
262 166
105 269
254 120
217 42
196 94
274 251
48 205
239 152
24 293
292 44
277 299
39 86
197 90
122 117
235 281
273 97
70 273
65 74
27 271
136 253
37 293
201 268
82 196
12 247
157 248
12 233
124 198
86 183
40 145
86 271
128 49
31 84
48 199
255 85
205 280
252 87
13 236
52 187
84 290
111 49
19 125
176 284
249 211
269 162
185 196
215 130
124 40
94 70
217 132
92 220
154 70
74 95
267 208
103 75
171 172
214 167
268 263
164 157
47 124
108 258
285 241
193 159
128 46
191 128
218 54
180 41
216 159
120 85
297 1
40 284
144 302
157 244
268 74
160 279
33 174
114 56
211 207
198 144
272 141
297 26
182 5
76 271
270 164
180 8
135 279
236 177
57 46
216 55
111 195
213 100
142 62
157 33
269 18
117 242
62 180
150 180
239 92
208 72
246 92
229 181
25 204
292 97
280 94
102 98
254 290
65 261
256 15
265 132
248 230
222 19
181 268
283 65
239 116
61 156
34 166
4 279
160 141
116 210
283 122
45 207
165 247
52 222
190 38
70 28
291 84
3 133
238 16
74 179
113 54
70 35
286 210
89 107
54 148
294 262
2 220
200 6
275 177
41 98
59 93
54 196
301 289
153 21
199 87
122 64
53 12
301 231
73 289
240 286
201 138
146 43
201 171
252 303
266 215
95 91
276 295
73 196
298 164
38 288
178 39
270 39
141 149
3 60
250 89
203 159
28 186
223 7
255 208
244 171
192 60
26 18
282 264
83 189
59 160
18 192
104 52
27 244
62 183
20 115
99 76
235 49
229 265
91 243
108 131
48 302
172 124
27 104
149 55
14 247
9 247
258 103
256 49
203 139
199 154
269 262
