*Vertices 104
96 "#3"
81 "#48"
104 "#61"
48 "#15"
27 "#49"
101 "#67"
92 "#65"
55 "#55"
71 "#50"
8 "#80"
69 "#31"
74 "#2"
34 "#88"
32 "#85"
14 "#62"
93 "#16"
58 "#28"
41 "#40"
73 "#34"
2 "#35"
4 "#44"
85 "#92"
76 "#43"
7 "#7"
67 "#56"
15 "#89"
16 "#74"
63 "#94"
68 "#17"
79 "#71"
87 "#86"
65 "#54"
51 "#23"
12 "#5"
80 "#87"
60 "#11"
47 "#91"
22 "#22"
70 "#75"
10 "#27"
88 "#57"
3 "#64"
89 "#70"
94 "#18"
86 "#101"
43 "#6"
57 "#81"
35 "#46"
26 "#100"
99 "#38"
103 "#47"
84 "#53"
42 "#14"
44 "#103"
50 "#1"
54 "#95"
29 "#63"
90 "#97"
17 "#21"
64 "#102"
1 "#13"
98 "#93"
40 "#33"
59 "#51"
36 "#29"
39 "#60"
61 "#32"
31 "#24"
62 "#41"
95 "#37"
49 "#52"
19 "#39"
18 "#96"
13 "#68"
82 "#84"
77 "#19"
20 "#45"
5 "#77"
30 "#72"
83 "#99"
78 "#25"
25 "#59"
6 "#0"
37 "#10"
23 "#83"
33 "#73"
45 "#26"
38 "#66"
9 "#76"
21 "#20"
28 "#9"
24 "#79"
97 "#82"
91 "#78"
100 "#42"
53 "#69"
56 "#58"
52 "#90"
72 "#8"
66 "#30"
46 "#98"
75 "#4"
11 "#36"
102 "#12"
*Edges
71 82
85 60
76 56
85 91
21 74
50 44
64 44
98 88
2 3
67 61
26 10
99 3
67 6
74 23
52 81
76 2
11 2
30 28
67 38
30 19
89 9
86 93
11 88
84 47
101 10
81 25
77 29
29 76
56 7
31 67
51 102
52 98
8 94
8 5
23 8
81 67
21 63
97 5
96 103
75 60
30 18
88 67
96 25
31 11
90 54
78 100
81 94
75 97
38 58
2 21
49 26
63 83
39 56
89 16
3 51
89 96
88 7
96 74
71 16
44 78
40 53
23 57
92 1
46 54
56 61
20 92
26 83
93 91
10 38
18 64
2 37
2 48
78 97
72 3
96 6
67 51
65 18
52 102
84 102
46 16
6 56
78 86
12 65
82 51
84 18
39 91
88 59
7 53
26 59
56 43
31 27
9 10
87 85
75 99
78 21
80 13
58 94
46 40
45 58
56 57
33 48
61 51
54 4
97 41
25 4
56 2
54 53
77 33
104 19
56 100
93 71
100 82
91 21
28 40
28 2
42 62
3 84
50 73
82 8
37 41
33 30
51 90
92 4
10 89
34 103
56 66
20 43
56 70
93 53
50 76
30 79
80 52
92 51
8 9
61 92
46 63
42 94
51 79
43 62
32 39
48 41
20 35
104 5
83 54
56 49
49 39
89 11
75 71
58 22
47 54
70 59
89 79
48 72
87 3
9 34
12 69
19 103
104 70
102 23
16 28
2 74
41 45
73 55
34 98
79 16
77 84
33 36
34 70
82 72
18 85
72 60
3 78
56 51
35 70
92 75
49 7
15 20
61 32
58 55
87 21
3 32
97 77
104 14
75 66
98 53
12 25
86 90
77 102
42 14
97 57
58 74
75 32
27 4
19 79
16 44
19 94
47 67
14 103
33 57
91 5
102 14
24 97
84 80
42 29
43 81
1 62
52 87
85 98
94 64
67 57
5 94
55 68
33 43
40 24
79 10
44 26
22 46
98 49
91 48
36 32
47 52
71 51
27 78
18 86
15 87
101 83
60 76
64 95
11 67
13 44
15 51
97 40
47 17
63 26
103 7
63 55
47 30
73 2
38 2
79 65
85 47
19 84
77 27
46 18
81 96
58 56
48 18
80 64
64 3
5 80
85 34
70 25
47 32
54 63
101 72
60 84
68 35
93 1
33 70
14 54
11 21
77 18
44 19
64 63
51 43
1 59
39 46
18 68
10 62
30 9
20 13
75 91
69 49
44 46
39 23
92 44
67 99
104 103
36 96
49 74
52 34
68 40
96 7
86 54
71 78
22 21
17 11
95 28
84 22
45 40
78 69
44 18
59 98
1 84
57 84
82 46
85 16
70 16
98 62
31 102
100 59
67 48
55 1
20 74
21 37
21 101
27 74
99 54
51 44
89 46
93 98
87 46
85 75
32 80
11 12
69 84
100 79
93 57
53 31
15 32
55 95
7 14
41 90
79 76
35 7
23 5
45 91
47 1
76 84
91 97
21 15
16 39
