*Vertices 70
24 "#55"
44 "#50"
61 "#59"
42 "#25"
15 "#34"
47 "#64"
55 "#29"
23 "#8"
9 "#54"
35 "#22"
52 "#42"
13 "#11"
8 "#20"
19 "#16"
18 "#46"
59 "#44"
16 "#13"
41 "#15"
31 "#35"
21 "#14"
39 "#38"
45 "#23"
66 "#40"
7 "#30"
49 "#24"
65 "#2"
4 "#43"
60 "#53"
58 "#1"
56 "#68"
53 "#26"
57 "#3"
29 "#21"
12 "#9"
48 "#52"
25 "#17"
34 "#36"
6 "#4"
69 "#37"
2 "#10"
28 "#41"
62 "#48"
10 "#63"
11 "#7"
26 "#47"
51 "#56"
20 "#69"
67 "#28"
38 "#61"
5 "#49"
68 "#65"
40 "#12"
63 "#58"
54 "#51"
43 "#62"
1 "#67"
17 "#66"
22 "#33"
32 "#60"
3 "#27"
70 "#31"
37 "#32"
50 "#6"
36 "#57"
46 "#39"
14 "#5"
33 "#0"
30 "#18"
64 "#45"
27 "#19"
*Edges
17 40
44 33
67 14
2 60
61 67
50 48
54 45
68 13
35 55
9 69
58 61
38 17
38 25
14 52
10 56
1 54
24 44
25 39
68 10
29 33
67 18
21 36
64 12
2 36
15 1
1 56
36 42
18 35
7 44
3 15
49 9
61 15
56 47
30 44
51 37
68 45
14 38
34 36
3 51
38 41
60 59
10 6
17 66
36 57
36 1
62 33
14 10
68 44
40 7
13 30
36 43
16 34
48 13
60 1
23 22
58 41
36 52
43 34
30 31
10 23
69 28
36 32
2 61
39 51
27 30
11 51
25 57
53 56
44 49
17 68
54 48
18 36
44 53
44 48
14 43
24 14
20 7
46 17
61 30
65 20
60 29
68 67
60 51
3 59
60 9
32 60
37 9
37 38
56 46
59 40
10 20
10 17
69 59
58 7
54 24
8 42
70 57
59 46
42 17
8 57
9 54
38 43
16 57
10 35
47 17
56 26
21 25
5 39
20 36
27 19
15 20
53 45
24 46
59 32
61 43
41 28
45 48
66 55
64 20
60 17
13 25
68 20
9 57
68 47
60 19
58 32
68 50
1 10
54 44
8 22
2 1
32 51
29 63
47 1
59 15
51 38
33 2
16 4
21 1
1 20
68 5
52 43
9 41
45 29
26 9
1 53
20 38
24 34
43 63
50 47
60 5
16 5
35 30
61 69
48 9
1 18
63 9
48 57
56 17
48 60
1 26
32 61
63 18
48 24
18 48
1 19
44 35
47 42
44 36
47 19
40 19
32 1
9 46
68 56
53 24
8 1
30 10
4 38
46 35
39 21
61 63
54 26
32 38
54 60
47 64
6 43
47 26
13 56
21 43
68 33
16 27
37 28
63 38
65 28
38 69
41 24
28 62
54 67
55 63
17 20
4 3
2 57
51 28
37 40
9 44
62 35
14 60
27 24
3 65
3 56
60 39
19 66
10 47
23 5
56 61
36 46
24 49
24 28
52 10
61 9
56 38
28 10
9 24
42 27
64 14
60 58
50 40
45 1
37 64
43 31
49 1
20 43
49 57
16 15
38 8
47 58
6 67
54 5
51 61
61 38
55 34
52 68
24 60
9 19
45 6
64 36
22 11
46 32
51 63
52 48
7 63
70 44
33 61
1 28
36 38
63 40
4 61
1 24
28 57
19 42
66 12
51 43
56 33
38 62
48 64
60 4
54 4
47 51
67 49
42 49
35 60
54 38
30 70
61 36
63 36
32 54
43 32
8 48
52 29
56 39
50 6
10 51
60 44
34 50
7 54
24 50
50 26
69 39
54 53
30 43
21 24
43 62
8 43
56 8
6 25
20 56
70 51
15 22
50 17
14 63
22 17
29 24
47 20
25 63
42 1
1 22
36 51
13 27
17 62
46 47
25 70
25 54
4 44
15 24
37 44
66 18
67 27
64 30
36 50
35 32
68 1
1 17
19 50
32 63
12 57
