,temp,degree_centralization,betweenness_centralization,closeness_centralization,eigenvector_centralization,global_clustcoeff,assortativity,diameter,avg_degree,modularity,density,avg_path_length,vertices,edges
1,Graph00,0.2318181818,0.2613652585,0.3620542139,0.7857984023,0.1893408135,0.0275758698,7,4.25,0.3133606384,0.0772727273,2.8948051948,56,119
2,Graph01,0.1646185356,0.0804660685,0.2429457044,0.6154403685,0.1859010802,0.0018869708,5,6.7936507937,0.2577626867,0.1095750128,2.3681515617,63,214
3,Graph02,0.2132505176,0.0629440141,0.2313936168,0.6336683007,0.2020143885,-0.0230655363,4,9.2857142857,0.2318579882,0.1345755694,2.1461697723,70,325
4,Graph03,0.1744921745,0.0376365009,0.1671752456,0.5410657353,0.2139867457,-0.0026002556,4,11.5641025641,0.2145835075,0.1501831502,2.0306360306,78,451
5,Graph04,0.1419406576,0.0262128059,0.1297838475,0.4681930201,0.2243891247,-0.0136813716,3,13.7931034483,0.2236833333,0.1603849238,1.9588345362,87,600
6,Graph05,0.1241408935,0.0199045393,0.1061654972,0.4477405416,0.2306092583,-0.001841271,3,16.0824742268,0.2269855358,0.1675257732,1.9080756014,97,780
7,Graph06,0.1187262028,0.0136812359,0.1045101545,0.4412752932,0.2339724548,-0.0141497568,3,18.2962962963,0.2314550927,0.1709934233,1.8802353756,108,988
8,Graph07,0.1044817927,0.0107549019,0.0856976808,0.3912374817,0.2344316631,-0.003791782,3,20.5666666667,0.2177775034,0.1728291317,1.8612044818,120,1234
9,Graph08,0.1064975873,0.0096671224,0.0820199054,0.3902666572,0.2366149024,-0.0267928165,3,22.8358208955,0.2364056559,0.1716979015,1.8531029065,134,1530
10,Graph09,0.0872483221,0.0070842277,0.0563325983,0.3365055911,0.2353041368,-0.0287790695,3,25.0872483221,0.2291367332,0.1695084346,1.8486305097,149,1869
11,Graph10,0.0774735305,0.0065038572,0.0617825276,0.3322411268,0.2409578569,-0.0045102102,3,27.2168674699,0.2377960491,0.1649507119,1.859437751,166,2259
12,Graph11,0.0840481786,0.0077868066,0.0704929679,0.3514032627,0.2505153139,0.0338237161,3,29.5351351351,0.2544696258,0.1605170388,1.8726792009,185,2732
13,Graph12,0.0741179256,0.0083863077,0.0701328381,0.3599419267,0.2547035441,0.0833800014,3,31.8058252427,0.2509896875,0.155150367,1.8902202226,206,3276
14,Graph13,0.0740251283,0.0080296003,0.0757033712,0.3561250815,0.2574067116,0.1328871214,3,34.1222707424,0.2809624054,0.1496590822,1.907339309,229,3907
15,Graph14,0.0839277443,0.0102807313,0.0878851512,0.3795643585,0.2625098332,0.1784534772,3,36.6823529412,0.2963259124,0.1444187124,1.9249035047,255,4677
16,Graph15,0.084482158,0.0084149953,0.094584973,0.3926068193,0.2634756285,0.2293139069,3,39.0915492958,0.3163354715,0.138132683,1.9451550291,284,5551
17,Graph16,0.0866988145,0.0084499361,0.1023495747,0.4148746388,0.2642509072,0.2696716959,3,41.6898734177,0.3244699082,0.1323488045,1.9652401045,316,6587
18,Graph17,0.0844607245,0.010228491,0.1069629371,0.4230442334,0.2650371625,0.3112040753,3,44.4387464387,0.3379676522,0.126967847,1.9845502646,351,7799
19,Graph18,0.068446378,0.0096976237,0.1042052116,0.427122552,0.2648375074,0.3593137948,3,47.3743589744,0.3446929402,0.1217849845,2.0064860589,390,9238
20,Graph19,0.0686104696,0.0081803836,0.1059280501,0.4078701132,0.2628893408,0.4097509338,3,50.3602771363,0.3484144774,0.1165747156,2.0260884441,433,10903
21,Graph20,0.0549203049,0.0070326859,0.102131016,0.3988559135,0.2627991476,0.444968763,4,53.6382536383,0.3549343549,0.1117463617,2.0439102564,481,12900
22,Graph21,0.0598899593,0.0061508679,0.1046673574,0.4164199525,0.2620477017,0.478844711,4,57.0786516854,0.363129706,0.1070894028,2.0602342756,534,15240
23,Graph22,0.0478698555,0.0056216103,0.0973049099,0.3883246467,0.2618182102,0.5171024274,4,60.6610455312,0.3734244776,0.1024679823,2.0740508637,593,17986
24,Graph23,0.0436486156,0.0054400963,0.1005765613,0.39238286,0.2580966572,0.5467263528,4,64.2792109256,0.3822409497,0.0976887704,2.0881136105,659,21180
25,Graph24,0.0449604928,0.0049163433,0.0964640739,0.4016677617,0.2542783922,0.5622142233,4,68.1338797814,0.3898071317,0.0932064019,2.1016423344,732,24937
26,Graph25,0.0478750477,0.0048916739,0.0924788848,0.4150924448,0.2505581734,0.5777435499,4,72.1254612546,0.3925668876,0.0888244597,2.1171662456,813,29319
27,Graph26,0.0428983949,0.0047460255,0.0898858549,0.4021528651,0.2461491549,0.6018991272,4,76.3056478405,0.4029542525,0.0845960619,2.1325613317,903,34452
28,Graph27,0.038257483,0.0044055831,0.0928872759,0.3896080974,0.242060611,0.6170331138,4,80.666001994,0.4132220347,0.080504992,2.1495712463,1003,40454
29,Graph28,0.036626066,0.0038077971,0.0918032668,0.3747652466,0.2371683594,0.6294082277,4,85.2351885099,0.4240724323,0.0765814811,2.1652447572,1114,47476
30,Graph29,0.0315926411,0.0033368338,0.08907857,0.3725900999,0.2318584896,0.6338027085,4,89.9514955538,0.4287941448,0.0727762909,2.1791459659,1237,55635
31,Graph30,0.0299082641,0.0029676428,0.0936166695,0.3748052413,0.2265662439,0.6413863146,5,94.9359534207,0.4371424952,0.0691449042,2.1915471068,1374,65221
32,Graph31,0.0268543068,0.0027094272,0.0934607461,0.373244533,0.2208358701,0.6516011569,5,100.0471821756,0.4410390603,0.0656047096,2.202545603,1526,76336
33,Graph32,0.0269252307,0.0025179489,0.0918748398,0.3863184351,0.2147163395,0.6593200201,5,105.4155844156,0.4496109192,0.0622655549,2.2126102969,1694,89287
34,Graph33,0.0266011176,0.0023652388,0.0965072553,0.3889105786,0.2085331367,0.6626652169,5,110.9898989899,0.4579987566,0.0590371803,2.2222408859,1881,104386
35,Graph34,0.0240785413,0.0022957539,0.0946803996,0.3880722561,0.2020144961,0.6695769454,5,116.7480842912,0.4621331982,0.055940625,2.2316098379,2088,121885
36,Graph35,0.0234404296,0.0022317232,0.0945495678,0.3997582506,0.1950746825,0.6749011174,5,122.6885245902,0.4654082219,0.0529514564,2.240731838,2318,142196
37,Graph36,0.0225842415,0.0020514999,0.0882202861,0.4018354649,0.188601668,0.6830887511,5,128.9133307423,0.4716200532,0.0501218238,2.2507297035,2573,165847
38,Graph37,0.024734325,0.0017809005,0.0906903652,0.4200524553,0.1819307031,0.6893399802,5,135.3587679384,0.4776651627,0.0473945266,2.2610147664,2857,193360
39,Graph38,0.0233295276,0.0015682062,0.0885294722,0.4142756852,0.1753135049,0.6928989915,5,142.0220680958,0.4816061349,0.0447877856,2.270207663,3172,225247
40,Graph39,0.0190580543,0.0014031216,0.0891563906,0.4010346538,0.1685971896,0.6984389197,5,148.9156489634,0.4861573727,0.0423055821,2.2783555163,3521,262166
