*Vertices 102
87 "#79"
28 "#84"
67 "#50"
76 "#74"
56 "#78"
90 "#92"
83 "#75"
22 "#32"
26 "#21"
72 "#72"
54 "#101"
52 "#95"
12 "#53"
40 "#12"
86 "#44"
102 "#37"
82 "#89"
92 "#91"
6 "#70"
49 "#87"
44 "#56"
3 "#42"
96 "#85"
38 "#47"
73 "#33"
89 "#52"
84 "#86"
58 "#45"
29 "#36"
21 "#25"
9 "#22"
24 "#2"
18 "#11"
94 "#46"
31 "#39"
30 "#67"
80 "#18"
17 "#81"
79 "#24"
36 "#100"
32 "#7"
34 "#34"
13 "#80"
74 "#59"
59 "#40"
88 "#20"
47 "#13"
8 "#26"
101 "#1"
23 "#76"
33 "#62"
97 "#61"
5 "#90"
16 "#0"
60 "#10"
69 "#23"
1 "#58"
15 "#31"
55 "#3"
10 "#94"
27 "#65"
14 "#19"
65 "#96"
35 "#63"
75 "#73"
81 "#69"
57 "#8"
61 "#29"
77 "#71"
62 "#66"
39 "#6"
50 "#55"
78 "#64"
100 "#49"
95 "#17"
51 "#77"
71 "#30"
11 "#60"
85 "#9"
45 "#16"
2 "#68"
42 "#97"
68 "#48"
19 "#57"
48 "#43"
46 "#27"
20 "#82"
25 "#83"
43 "#93"
91 "#35"
64 "#15"
63 "#28"
7 "#5"
4 "#98"
98 "#88"
70 "#14"
37 "#41"
93 "#54"
99 "#51"
66 "#38"
41 "#99"
53 "#4"
*Edges
53 92
76 81
91 73
11 77
2 72
8 20
15 8
61 97
51 19
86 45
73 90
32 9
95 17
93 99
71 69
20 51
97 91
69 50
80 85
85 15
24 34
3 99
28 25
70 44
82 84
32 20
27 73
45 32
2 36
46 54
49 98
89 48
17 83
19 22
89 27
11 70
97 78
2 75
69 85
42 4
79 21
22 31
17 8
6 102
23 17
4 54
88 37
24 63
73 7
89 81
32 56
29 12
77 75
76 75
75 50
57 94
100 74
34 49
47 63
20 83
9 70
66 89
60 34
5 82
67 93
5 96
18 13
20 33
52 10
7 3
52 4
77 50
67 21
87 97
48 54
87 23
77 2
75 72
24 21
92 87
17 56
44 19
37 31
11 9
49 19
13 101
4 41
100 21
90 26
6 2
45 95
85 58
8 80
100 99
20 50
37 56
52 41
28 49
16 59
64 35
25 49
27 60
37 40
37 93
74 94
29 91
16 6
34 20
87 32
39 13
49 82
47 18
46 5
68 58
51 46
85 22
101 69
94 14
45 16
27 93
50 9
9 62
100 64
26 19
101 77
16 101
51 33
80 88
58 99
67 37
93 100
55 72
99 57
1 69
75 93
89 93
96 71
59 40
92 60
77 48
85 19
71 92
18 86
53 16
74 40
31 100
78 33
70 64
49 46
1 38
87 83
51 79
43 42
5 98
83 23
102 11
74 54
99 12
91 47
55 53
51 56
61 14
37 58
12 46
21 70
78 70
32 91
77 94
69 64
15 9
36 90
66 11
88 77
9 68
72 85
26 54
37 57
33 17
54 41
6 76
20 62
49 5
10 4
78 14
5 10
90 43
36 54
39 66
79 2
14 32
12 67
34 73
2 91
55 57
71 34
27 39
88 27
101 55
15 48
12 71
33 91
72 6
54 2
2 78
91 7
72 16
85 44
3 95
77 27
23 90
53 6
99 35
60 86
77 6
59 93
94 92
72 44
97 33
22 45
55 59
99 40
30 55
73 24
23 36
56 46
1 44
29 34
40 68
57 51
60 7
68 20
85 3
10 68
80 79
27 37
73 102
66 57
74 6
93 11
67 47
77 81
100 44
91 3
68 87
39 24
81 28
99 10
26 17
34 95
96 90
11 64
89 19
28 23
16 100
72 50
41 65
71 30
99 45
40 91
69 102
95 91
51 17
30 62
58 14
7 44
47 22
46 80
79 18
15 34
58 32
48 3
76 34
8 74
38 69
44 50
45 3
36 43
98 2
37 70
68 99
11 60
3 83
49 62
28 64
40 75
57 34
8 48
46 95
39 56
67 92
39 7
57 31
30 88
90 14
34 10
74 50
80 61
89 67
40 73
17 20
31 87
42 65
31 60
71 7
25 98
38 71
94 64
27 97
93 12
38 86
85 51
8 87
19 1
57 5
40 15
18 77
30 3
90 69
99 59
56 88
57 86
14 67
94 54
11 69
78 30
99 102
95 68
72 97
74 19
8 10
2 81
4 65
65 10
53 93
60 29
26 47
40 2
30 22
58 47
61 33
61 63
72 53
26 66
98 96
64 55
90 76
5 92
48 63
12 28
77 72
80 59
11 19
66 49
9 93
25 60
8 93
22 21
44 27
99 51
34 11
95 29
63 20
81 19
85 71
49 57
67 27
8 50
51 83
27 55
96 84
8 5
81 20
22 74
99 87
39 73
45 47
32 80
93 3
76 92
98 84
77 100
93 73
73 60
85 88
101 34
10 14
2 60
45 73
52 90
18 23
53 88
14 7
13 56
79 60
42 36
102 55
28 82
76 72
75 38
60 18
14 69
33 62
99 80
99 29
89 72
36 35
39 45
27 18
66 31
36 18
74 44
3 64
18 62
69 66
11 33
37 24
84 25
44 8
57 8
4 43
1 74
37 62
74 62
97 30
99 26
94 67
88 89
94 11
37 100
88 38
14 88
101 44
18 72
53 60
71 2
89 9
49 92
99 90
71 87
58 66
56 83
61 94
63 100
30 36
95 11
7 59
20 95
47 15
19 12
1 50
76 2
15 62
45 71
61 32
101 68
14 81
48 2
34 17
36 6
48 27
83 86
21 49
48 49
5 72
63 54
37 14
93 61
27 50
92 28
95 86
73 77
97 47
86 69
59 37
102 71
81 30
35 78
42 10
36 5
54 10
61 48
94 34
20 23
80 19
27 101
58 59
92 99
87 51
63 1
87 17
7 35
31 2
28 91
11 61
48 79
39 40
68 36
82 25
10 57
88 90
32 90
15 100
100 91
80 57
47 8
46 102
48 46
70 24
101 40
27 62
73 30
10 36
69 9
86 3
2 51
5 28
2 21
7 40
15 70
10 43
30 59
61 7
3 69
26 100
60 72
80 73
53 44
54 5
40 24
100 22
48 99
100 28
18 21
19 45
30 61
101 19
73 9
30 2
87 70
55 38
15 91
46 89
9 58
13 20
69 26
62 64
22 24
101 87
64 80
76 59
52 42
37 3
30 60
84 92
66 30
47 51
67 77
59 64
22 99
86 55
78 27
8 34
30 85
92 86
66 70
94 80
27 46
80 49
67 71
49 96
47 38
27 33
22 39
41 42
6 47
38 45
89 2
82 98
80 6
56 62
91 59
15 24
3 34
22 69
39 99
53 37
40 86
94 93
29 32
74 93
56 28
47 71
71 48
79 56
75 6
16 26
22 88
16 29
33 30
56 85
55 25
71 9
47 37
97 62
67 78
19 90
19 15
13 14
90 54
28 96
65 90
87 20
49 64
30 87
24 79
94 16
78 39
19 97
14 102
44 28
21 74
17 60
72 21
102 27
91 93
34 70
54 6
62 32
20 67
69 31
36 52
100 6
33 35
79 53
34 62
8 3
19 36
3 1
28 84
52 54
46 15
63 11
60 3
8 95
21 58
50 19
101 62
62 67
92 25
70 2
31 26
58 70
69 44
95 93
31 85
22 11
16 71
48 85
50 11
21 69
7 37
63 89
59 26
16 73
14 27
75 20
91 27
69 47
1 9
88 11
61 36
7 26
53 62
88 61
67 8
4 90
86 14
29 69
51 14
20 56
71 76
49 78
22 26
13 87
34 44
29 55
93 86
68 86
71 44
101 39
64 74
58 75
47 28
101 85
31 9
82 85
89 61
51 35
41 90
90 10
89 99
20 11
101 6
87 40
58 26
65 54
83 15
96 92
92 27
22 101
44 99
67 99
71 97
30 37
48 70
90 42
56 21
74 25
65 52
60 39
59 67
6 20
56 73
62 39
92 98
30 27
18 70
51 13
14 89
35 97
25 46
49 93
90 89
100 57
51 23
99 9
101 12
50 89
74 57
50 58
95 16
89 12
79 91
5 84
73 99
80 31
53 30
81 6
12 32
71 68
26 76
93 47
27 35
12 21
94 22
54 43
59 68
16 15
17 19
40 81
13 23
88 63
38 64
71 49
36 98
45 26
79 71
92 64
3 88
85 76
49 31
19 20
98 28
29 66
57 3
81 72
78 38
16 74
76 77
43 41
36 65
97 28
12 49
44 95
96 83
7 20
1 46
69 95
68 61
92 29
25 5
94 44
81 75
73 88
49 70
46 28
25 96
50 95
13 83
54 84
68 22
44 47
24 51
24 97
55 33
10 41
21 50
70 55
11 74
15 80
23 56
44 11
64 8
13 49
90 28
43 65
67 31
21 94
102 37
91 80
46 9
21 80
68 11
85 29
58 69
57 15
79 3
96 82
32 100
22 93
62 78
63 39
33 49
69 97
50 87
30 35
66 14
60 1
41 36
56 18
91 66
69 18
22 89
99 2
102 100
34 93
91 99
54 42
46 59
61 69
56 87
48 68
58 62
40 93
88 48
47 70
63 93
95 9
66 59
51 80
20 85
80 101
7 97
92 38
82 92
29 68
7 17
61 8
79 27
89 39
94 70
62 35
39 70
72 61
49 73
1 11
38 57
88 79
49 84
36 4
72 80
61 70
78 37
8 23
14 3
30 34
28 19
18 37
55 51
48 9
6 11
79 26
8 89
79 66
76 39
61 20
32 24
9 7
17 13
3 35
72 66
9 8
32 16
59 86
73 32
