*Vertices 206
8 "#144"
202 "#127"
125 "#107"
175 "#190"
206 "#54"
99 "#194"
18 "#1"
51 "#120"
137 "#147"
134 "#112"
95 "#21"
86 "#106"
149 "#123"
168 "#64"
113 "#24"
50 "#105"
79 "#66"
191 "#60"
44 "#86"
135 "#199"
5 "#115"
190 "#159"
54 "#99"
100 "#55"
178 "#169"
147 "#31"
157 "#38"
25 "#53"
161 "#89"
65 "#163"
173 "#156"
3 "#114"
187 "#81"
61 "#164"
60 "#157"
164 "#35"
188 "#150"
117 "#48"
90 "#92"
169 "#141"
121 "#182"
146 "#98"
66 "#103"
69 "#170"
120 "#174"
159 "#139"
105 "#113"
76 "#151"
41 "#138"
162 "#136"
22 "#100"
165 "#186"
102 "#93"
27 "#40"
192 "#179"
71 "#74"
183 "#173"
81 "#158"
77 "#33"
34 "#59"
205 "#83"
91 "#45"
177 "#117"
199 "#58"
189 "#181"
132 "#178"
150 "#193"
180 "#23"
73 "#2"
85 "#87"
37 "#142"
181 "#68"
138 "#168"
167 "#200"
97 "#119"
24 "#0"
141 "#34"
130 "#205"
28 "#6"
129 "#116"
72 "#82"
156 "#20"
127 "#180"
195 "#85"
49 "#154"
26 "#175"
160 "#191"
133 "#49"
15 "#172"
116 "#5"
20 "#72"
96 "#129"
193 "#88"
13 "#162"
11 "#121"
87 "#198"
144 "#63"
83 "#91"
12 "#109"
10 "#56"
182 "#135"
21 "#7"
152 "#37"
84 "#79"
140 "#132"
131 "#148"
53 "#152"
171 "#9"
142 "#95"
136 "#196"
107 "#204"
114 "#160"
16 "#84"
115 "#185"
163 "#46"
197 "#17"
40 "#29"
198 "#111"
98 "#187"
185 "#122"
126 "#146"
78 "#137"
200 "#67"
29 "#26"
33 "#184"
119 "#80"
179 "#90"
122 "#15"
63 "#153"
31 "#145"
154 "#197"
32 "#104"
204 "#27"
201 "#39"
110 "#14"
139 "#78"
52 "#97"
42 "#134"
14 "#203"
118 "#125"
104 "#177"
148 "#12"
194 "#50"
1 "#4"
48 "#36"
103 "#167"
67 "#101"
75 "#13"
57 "#201"
184 "#47"
55 "#76"
101 "#126"
111 "#171"
39 "#183"
7 "#22"
94 "#118"
170 "#140"
124 "#155"
80 "#69"
82 "#131"
93 "#18"
106 "#62"
174 "#51"
172 "#128"
74 "#70"
153 "#161"
186 "#3"
151 "#61"
23 "#41"
35 "#192"
45 "#124"
64 "#10"
30 "#42"
58 "#65"
19 "#188"
123 "#77"
143 "#43"
112 "#189"
62 "#110"
38 "#165"
47 "#195"
6 "#133"
155 "#94"
68 "#44"
166 "#8"
88 "#176"
36 "#166"
128 "#108"
70 "#30"
196 "#75"
17 "#32"
158 "#11"
59 "#16"
56 "#102"
92 "#57"
176 "#73"
109 "#19"
145 "#25"
9 "#28"
108 "#149"
203 "#130"
89 "#96"
2 "#202"
4 "#143"
46 "#52"
43 "#71"
*Edges
99 121
79 146
16 187
85 161
84 71
37 10
108 74
37 181
139 84
164 139
41 96
79 134
15 86
51 197
103 52
185 129
164 151
2 47
7 18
180 48
53 204
136 131
6 133
32 74
200 75
132 60
104 127
142 56
91 80
107 87
44 2
165 149
185 94
3 174
39 155
39 96
54 149
158 111
156 158
182 103
132 127
23 168
51 66
85 36
140 10
183 108
131 65
42 163
97 3
107 112
27 193
126 148
86 62
133 106
94 51
202 89
169 37
14 87
177 10
150 136
104 90
190 114
59 80
175 136
167 99
94 204
176 71
89 117
162 75
180 117
98 175
188 155
86 138
97 51
128 62
140 96
3 107
180 147
193 64
193 109
201 168
75 23
202 42
138 186
34 82
96 204
193 10
108 63
189 155
204 77
57 1
15 73
12 62
118 177
87 167
175 167
181 27
48 28
98 14
112 136
131 75
26 39
54 135
39 92
111 114
181 205
141 83
123 182
163 174
115 88
10 137
10 145
41 82
14 161
4 169
96 142
199 1
127 189
64 100
165 90
159 107
198 168
37 76
131 17
35 19
188 37
57 118
70 86
198 50
14 167
165 104
4 49
136 196
115 120
131 126
99 19
124 63
122 40
70 129
160 57
24 64
130 136
5 128
79 206
205 147
121 66
198 105
38 153
79 184
119 84
36 124
27 176
4 37
82 202
23 84
105 70
129 45
106 95
205 32
72 199
199 24
13 190
125 1
10 184
153 114
27 158
189 84
125 105
157 162
98 135
152 106
131 101
106 143
150 35
144 28
56 10
192 26
104 64
178 73
158 197
134 28
82 167
14 123
70 191
117 201
154 57
40 206
2 131
193 200
125 128
64 183
159 63
93 117
3 119
24 4
153 13
78 11
69 107
70 151
3 70
170 95
115 33
170 99
150 173
145 94
78 169
183 14
68 205
33 124
152 78
2 107
87 112
32 192
150 98
132 192
14 156
6 172
204 191
123 84
89 53
149 183
137 8
43 20
168 155
68 80
50 128
158 184
152 52
69 104
173 107
64 59
130 175
58 177
49 190
70 145
188 53
64 206
203 6
49 66
86 64
76 50
71 164
50 62
150 140
112 71
153 131
146 22
44 32
44 179
160 98
190 65
85 44
97 177
6 41
185 176
203 22
63 99
147 3
61 60
202 47
54 142
79 164
64 92
57 183
49 130
51 191
142 67
93 77
173 139
72 180
173 13
199 109
203 83
66 135
5 51
59 40
206 165
144 1
20 71
148 79
133 79
190 205
53 8
71 126
48 152
104 128
164 168
135 175
133 184
77 95
171 49
158 100
112 2
198 199
129 111
177 94
135 99
104 26
89 118
180 128
122 33
203 172
165 114
186 200
105 54
78 90
156 36
176 43
53 153
84 129
62 3
142 89
34 107
109 184
127 162
76 126
82 6
8 4
41 172
162 80
31 39
57 123
160 95
66 61
113 141
148 55
113 70
60 190
73 98
127 185
50 148
21 192
178 124
21 143
6 159
70 68
58 111
115 132
90 187
165 111
18 196
118 129
96 82
167 19
61 169
63 8
175 19
114 126
72 20
113 4
96 119
66 142
196 199
134 125
124 38
105 22
112 202
137 14
101 45
155 146
62 73
139 168
100 194
121 156
68 37
189 26
25 145
131 139
125 103
136 2
192 107
53 37
98 3
94 129
74 109
158 176
108 30
16 176
107 150
103 86
170 32
79 1
60 65
153 178
73 34
1 109
190 178
93 46
145 133
112 19
138 173
133 199
164 176
146 135
135 72
180 199
53 139
67 146
41 202
113 188
40 111
136 87
153 30
76 53
137 203
194 137
176 157
41 192
67 124
28 1
109 179
135 121
158 71
44 193
173 124
83 193
85 141
114 76
77 206
134 144
124 199
119 139
165 183
173 108
76 4
100 91
73 68
42 7
129 177
160 135
135 78
148 184
2 135
192 119
138 65
196 138
101 90
165 88
190 173
177 78
137 37
127 203
74 138
140 182
112 47
65 42
163 40
113 25
110 141
199 46
95 149
15 22
52 62
204 98
72 50
154 107
109 142
23 28
15 104
1 157
43 140
120 192
120 69
70 163
66 9
132 174
34 29
140 44
121 88
132 206
78 179
169 133
199 4
145 53
15 11
111 171
19 10
96 31
15 30
33 192
190 52
49 68
172 174
73 84
114 65
3 130
31 188
157 172
36 38
112 57
89 94
49 120
83 140
138 185
98 2
73 128
33 132
166 25
138 32
7 175
146 111
61 190
140 165
3 198
18 93
90 102
87 2
181 113
137 145
113 143
124 64
129 40
87 175
105 12
2 99
205 27
77 100
15 111
11 141
57 166
66 97
135 136
26 175
73 83
128 69
174 65
150 175
130 154
83 118
1 154
141 133
103 178
83 79
171 113
197 9
165 127
67 56
158 126
45 154
125 99
24 76
82 44
38 164
41 203
115 128
128 39
159 96
10 133
143 78
102 97
153 182
129 112
160 99
126 96
167 67
139 205
153 36
59 17
189 111
121 92
112 135
13 49
141 168
203 82
107 179
16 84
56 131
127 137
81 63
72 148
137 63
51 45
121 192
74 75
144 181
96 78
95 14
54 30
17 7
93 68
55 83
155 183
60 34
108 107
21 158
69 39
127 62
103 60
69 47
54 24
199 134
30 92
105 55
139 187
129 5
144 113
1 82
125 194
4 188
52 65
89 199
73 75
4 34
41 162
151 171
148 133
188 170
167 135
104 169
13 95
69 68
134 188
5 97
89 95
44 154
191 30
188 114
1 92
71 196
124 154
168 199
196 112
203 140
152 204
28 34
32 183
203 57
119 123
71 101
142 74
178 36
8 151
161 44
76 16
142 178
100 139
7 151
4 53
72 198
93 7
16 75
158 143
59 91
182 90
141 57
87 35
133 11
72 52
73 150
103 190
85 90
142 22
157 202
141 155
85 83
49 81
19 2
183 180
104 151
162 163
196 168
35 175
115 111
136 154
37 131
13 61
54 46
60 96
160 107
58 159
34 24
42 6
133 126
166 152
196 55
144 155
194 95
108 75
177 154
160 32
135 49
49 115
158 162
187 123
145 129
124 22
18 142
205 174
126 53
134 171
15 178
100 93
5 143
8 76
180 164
149 94
44 100
86 134
123 169
30 52
46 168
15 169
124 37
163 133
138 190
76 172
49 62
47 136
3 13
11 115
56 117
97 101
204 42
66 52
33 189
14 35
20 164
184 100
173 61
187 200
193 63
72 119
174 1
10 72
28 9
52 196
135 150
157 186
178 196
151 77
159 182
42 96
174 154
11 118
150 99
193 187
61 65
61 114
130 160
92 119
49 184
141 18
182 82
104 179
139 64
65 81
151 18
23 16
59 22
198 16
183 174
22 147
154 98
36 103
166 178
89 146
63 113
149 133
161 130
159 202
182 79
90 161
65 38
63 31
161 59
156 106
189 115
130 165
50 3
122 127
7 96
19 206
75 198
3 152
5 198
130 84
104 91
79 49
58 69
48 164
7 26
10 22
150 33
47 87
54 22
153 173
178 38
37 31
182 203
65 13
41 78
65 153
101 177
30 64
22 156
22 183
11 199
65 4
112 21
140 187
206 59
10 53
137 188
48 72
143 184
65 182
135 130
41 182
151 39
150 167
131 165
182 78
12 36
170 37
137 204
203 104
10 20
178 61
135 35
16 50
51 103
57 14
24 56
123 157
35 57
43 48
97 45
130 35
151 13
32 62
42 140
80 81
35 61
182 80
124 103
124 114
120 61
30 39
60 81
44 23
8 108
97 118
39 121
47 150
108 57
51 58
97 99
154 103
2 160
98 92
43 52
104 73
118 133
37 70
69 202
61 77
129 101
89 52
150 154
35 136
61 100
160 136
185 49
169 76
162 182
103 73
180 184
97 1
38 138
142 206
169 20
124 167
23 29
185 5
199 86
1 163
124 172
84 64
172 77
172 202
159 125
185 23
149 40
195 130
27 187
115 68
95 137
139 20
126 77
193 90
168 180
206 4
41 140
49 65
169 89
136 19
11 101
26 111
13 160
62 134
3 15
123 137
107 45
78 7
189 180
167 112
150 14
70 147
202 96
66 120
13 101
132 69
192 116
141 142
135 107
39 15
21 79
115 32
86 66
111 132
60 114
130 14
138 5
119 64
178 141
179 150
65 124
180 46
183 15
23 31
176 11
45 185
143 199
134 50
142 196
167 196
80 62
137 77
121 68
204 147
203 202
42 49
172 53
31 8
59 159
90 15
79 117
90 73
62 160
66 155
163 59
105 69
34 133
156 113
113 49
21 75
98 167
203 159
19 26
75 193
198 128
56 155
88 111
31 76
20 55
173 49
115 183
59 68
84 72
4 137
192 69
104 192
4 119
16 119
104 10
111 184
190 124
182 58
130 15
205 138
39 132
17 164
126 101
63 203
20 126
124 108
99 58
195 161
153 46
98 159
154 172
124 89
68 174
128 134
21 119
206 127
16 205
31 4
61 81
159 78
159 42
166 113
158 15
178 138
121 111
131 64
154 13
124 203
135 168
167 47
118 5
14 206
206 192
174 109
174 6
10 21
110 168
145 106
185 149
117 164
68 138
12 50
156 161
160 73
133 113
205 90
140 162
131 4
124 82
10 79
122 24
141 201
39 165
120 148
66 146
30 146
91 44
182 62
54 89
3 137
140 89
127 68
141 68
18 186
170 163
196 120
7 148
30 34
63 76
62 154
126 37
149 5
60 52
185 192
199 140
143 147
123 72
5 65
46 147
99 54
117 95
60 54
49 38
44 3
21 34
44 13
117 9
145 166
195 102
182 56
171 55
67 52
81 177
24 117
203 69
140 104
160 175
179 83
24 10
158 82
57 99
55 74
139 123
179 193
202 56
143 127
155 115
161 200
99 175
170 8
149 199
141 196
143 11
33 26
59 60
130 112
25 51
11 113
40 183
168 59
3 32
38 177
8 188
162 96
3 59
69 123
155 206
7 164
31 199
38 72
180 197
52 83
74 43
178 18
32 12
129 66
22 127
169 63
90 128
179 64
66 56
86 125
60 35
138 153
87 154
201 93
107 104
138 180
152 73
147 83
138 189
104 189
139 176
110 157
108 53
90 44
90 131
101 176
174 48
13 81
105 32
26 69
111 190
72 83
155 166
9 18
92 34
96 191
164 158
35 47
152 34
192 111
166 158
77 148
123 42
181 147
112 14
38 101
138 177
71 24
141 136
114 121
34 158
166 42
50 199
9 93
4 166
54 56
4 63
131 76
52 56
155 90
185 104
120 88
62 178
188 153
192 96
2 123
170 126
11 185
159 140
168 165
142 140
59 104
12 86
206 67
7 89
2 130
65 103
151 148
189 192
173 38
197 54
145 4
176 141
82 172
9 46
33 88
74 177
119 44
33 135
112 150
47 107
175 107
177 73
158 20
19 150
41 121
127 172
87 98
79 82
130 87
131 62
90 13
186 151
101 118
86 22
154 175
2 3
187 72
22 122
45 5
121 136
82 177
70 44
107 167
176 74
161 45
81 74
96 182
162 1
178 49
132 155
20 119
77 200
179 166
124 60
112 183
91 63
196 197
12 39
114 150
64 22
152 169
88 127
172 121
27 197
98 15
118 160
136 127
140 6
159 148
187 8
198 136
73 154
93 147
84 135
24 119
141 79
152 142
205 187
72 205
16 199
73 140
142 70
41 42
13 124
191 34
194 200
22 56
104 111
76 204
31 90
123 51
126 120
82 98
38 190
108 4
197 40
31 204
202 44
189 69
170 101
42 143
21 98
87 57
129 178
158 181
170 158
192 40
143 152
99 35
201 110
31 128
89 153
52 15
33 127
175 69
26 127
129 168
169 8
126 188
102 83
125 80
160 178
77 52
95 18
87 1
15 143
177 149
165 115
162 90
196 59
131 115
45 59
3 205
140 151
170 108
78 6
120 111
172 176
105 50
152 177
52 34
157 34
161 158
123 16
92 109
91 76
166 171
121 90
107 57
57 136
61 138
182 118
8 131
64 103
125 87
83 22
5 49
178 173
159 35
15 120
121 127
11 94
64 203
62 180
174 199
22 88
20 181
126 136
134 194
75 169
185 177
180 143
16 31
131 188
119 205
121 69
28 109
122 109
112 67
39 115
202 182
12 174
183 111
64 127
81 38
70 146
137 18
36 60
48 156
11 5
205 141
33 126
178 68
74 199
90 65
187 157
91 113
200 101
64 5
198 149
21 42
41 83
131 170
169 31
169 65
108 64
15 36
133 195
38 114
160 150
197 123
10 92
179 93
108 125
1 123
127 39
186 87
8 37
71 55
82 78
130 80
77 171
118 45
157 83
86 47
94 97
183 154
198 32
42 162
6 44
39 2
203 185
108 199
196 176
121 183
76 44
24 89
120 206
140 90
187 48
26 115
174 60
1 10
91 23
34 144
3 60
196 179
67 22
45 177
186 148
107 98
124 49
119 10
155 190
146 81
48 1
150 2
146 52
13 60
127 192
52 22
32 142
52 166
148 10
141 185
173 104
70 24
136 45
69 183
119 187
128 168
129 204
54 5
111 143
79 200
199 26
165 196
71 109
94 23
11 84
179 90
19 160
73 14
25 148
198 148
165 192
143 129
175 196
159 192
51 14
139 48
98 125
104 105
154 97
130 19
15 33
39 162
35 2
66 89
159 41
199 163
151 200
15 161
131 128
100 27
137 126
18 51
179 85
109 52
32 86
76 119
172 103
124 61
21 140
32 180
206 138
160 49
185 101
52 147
186 180
22 104
51 129
89 10
24 75
26 88
14 107
72 177
204 41
87 81
138 18
167 160
153 82
101 149
50 125
58 65
86 99
10 34
31 51
58 9
138 60
140 202
70 11
196 74
137 160
67 66
132 121
61 49
182 172
120 142
112 160
124 81
158 79
53 169
63 37
139 62
88 196
199 170
141 55
121 12
119 71
189 32
157 6
3 168
78 149
1 182
10 112
130 159
78 140
160 14
179 108
89 20
36 58
63 95
91 15
55 43
12 3
125 130
3 86
156 100
31 131
24 8
4 10
89 27
139 71
67 9
181 200
62 161
132 142
153 161
127 111
108 26
115 192
127 11
138 85
82 196
129 87
124 135
203 33
95 78
160 47
63 9
128 194
187 132
24 145
114 135
111 33
177 11
175 34
178 60
56 75
124 1
44 134
38 13
169 199
14 99
141 116
2 167
108 37
68 128
204 173
77 24
202 153
49 36
136 107
95 87
172 44
139 153
59 42
118 6
154 19
186 136
27 29
193 161
20 196
154 3
153 60
66 124
142 202
95 81
65 166
103 5
198 145
95 82
120 127
108 31
69 115
133 205
99 107
156 204
183 138
205 123
142 139
100 152
15 192
199 139
108 1
4 77
47 173
23 149
39 111
31 161
87 160
43 156
105 62
123 192
115 58
134 198
32 50
101 141
1 158
65 122
36 190
137 170
147 28
81 30
197 109
98 173
125 81
203 179
48 95
26 121
165 78
14 19
149 129
71 43
129 73
188 63
189 39
198 125
48 199
178 85
3 181
147 43
90 103
26 120
161 199
184 122
129 130
132 88
200 126
183 33
179 10
98 19
4 171
202 38
64 138
131 186
165 15
17 151
55 142
77 117
154 160
109 202
35 107
177 50
81 103
172 83
120 139
7 143
97 197
146 119
36 30
199 156
96 155
59 190
88 69
202 162
49 52
137 114
132 120
68 32
168 79
203 84
38 135
100 117
28 29
109 166
170 169
36 61
192 88
128 189
115 172
199 71
41 190
2 175
152 43
97 121
26 165
78 105
33 6
135 165
173 100
145 97
11 104
47 130
13 114
80 87
25 152
39 140
130 96
177 5
20 198
54 67
6 96
206 92
129 7
30 206
85 195
77 96
119 30
70 119
155 142
195 90
150 130
55 16
89 204
132 104
77 165
1 36
38 61
183 39
108 169
78 203
12 125
31 170
203 162
150 87
121 2
165 120
175 92
100 201
50 86
68 181
71 47
176 199
78 196
168 73
49 101
179 195
125 62
164 138
51 149
141 127
174 144
108 86
164 46
7 155
123 97
3 160
199 164
44 157
62 188
11 129
142 15
39 10
181 164
23 162
20 148
36 81
140 82
154 167
38 58
141 69
51 133
32 112
39 88
120 183
121 15
27 71
68 120
126 172
129 97
31 75
32 134
134 82
198 57
70 185
149 145
44 83
3 35
96 141
143 161
70 83
3 125
200 131
200 148
140 128
15 69
132 7
98 62
127 161
103 114
103 153
134 3
145 142
170 53
28 187
168 91
49 138
4 178
71 11
61 103
202 101
78 42
146 142
22 89
120 121
30 70
95 73
33 96
189 206
186 82
83 161
121 189
156 172
72 142
146 206
90 83
199 69
60 101
34 110
198 86
194 181
11 64
78 202
11 42
98 99
54 146
138 95
14 120
37 109
13 138
26 183
100 36
85 102
64 63
58 15
131 182
188 76
23 100
54 153
206 191
94 45
138 81
108 76
135 111
96 203
14 170
115 66
191 92
63 103
6 182
121 139
53 63
43 172
90 109
144 117
169 131
203 150
46 59
22 11
68 90
129 198
165 172
60 30
25 10
136 161
78 172
123 183
154 14
165 69
27 186
92 4
38 103
132 52
53 119
127 159
102 193
45 149
188 59
178 81
187 176
34 195
148 188
83 204
115 127
76 137
124 148
121 115
70 137
197 199
60 46
111 155
82 42
75 161
21 19
171 37
129 53
20 27
109 187
178 120
135 19
119 176
198 62
96 172
14 62
60 2
104 33
39 120
107 202
57 2
178 114
113 176
126 2
133 84
3 204
204 135
89 56
73 39
94 118
102 179
31 189
190 183
79 144
153 49
199 33
27 140
105 128
80 147
174 156
136 21
152 62
167 136
68 163
27 179
142 168
38 129
21 141
121 104
36 138
173 60
75 34
38 60
133 101
140 172
2 154
52 54
108 137
95 150
35 41
131 53
162 184
130 167
185 105
82 114
136 99
2 13
52 61
179 171
110 92
156 205
112 35
187 179
12 198
74 56
50 168
111 69
11 59
69 4
24 11
24 28
56 146
179 177
5 105
24 40
186 7
186 9
23 80
63 131
22 155
135 57
169 41
108 188
185 97
96 115
108 131
1 202
87 45
183 189
74 85
99 154
183 59
202 131
7 11
161 124
195 44
141 74
11 45
175 14
126 127
15 189
11 149
149 118
128 121
161 175
136 14
33 175
161 102
161 179
51 163
101 155
135 140
77 103
100 131
109 110
23 194
35 170
24 84
138 108
159 172
100 52
135 196
144 68
186 197
13 52
22 66
115 15
55 85
96 87
13 155
89 67
62 57
176 147
132 89
31 53
152 156
144 194
149 161
35 73
139 180
38 91
186 130
100 25
36 152
139 182
99 69
131 198
122 197
17 4
173 103
125 32
204 73
9 193
55 123
79 176
39 192
131 137
170 133
53 137
27 109
47 14
36 139
206 69
9 59
64 198
206 195
118 185
62 136
5 94
47 154
10 117
126 1
87 19
94 148
176 168
84 178
199 183
43 204
106 48
3 105
75 93
28 92
183 88
138 103
114 49
174 115
116 12
168 147
82 88
120 104
117 54
64 191
171 25
15 127
128 77
110 1
141 181
132 189
205 12
168 117
139 72
152 199
14 135
170 76
121 148
126 169
133 31
126 8
118 166
144 24
60 49
65 173
162 131
204 7
35 160
127 69
61 2
34 161
103 49
73 10
189 120
25 191
104 39
198 100
19 57
81 173
48 143
45 150
57 178
82 118
175 47
11 183
61 153
10 166
160 170
200 144
33 121
137 2
4 30
153 154
180 9
199 66
12 134
24 197
11 97
199 145
169 163
31 163
165 175
150 183
107 19
183 192
67 194
167 35
142 105
19 47
190 35
162 159
4 42
88 15
173 175
27 156
72 147
190 153
169 188
202 6
53 77
74 105
2 14
24 95
13 79
126 186
137 121
74 71
130 192
99 3
114 81
135 92
196 43
96 136
130 78
143 46
152 60
121 165
126 121
67 58
189 174
52 79
82 162
147 29
7 9
42 139
203 204
130 99
13 103
105 134
185 39
165 40
24 129
186 95
138 124
171 32
162 78
147 59
195 83
55 25
170 63
165 33
69 33
171 44
104 183
73 41
16 139
102 191
130 54
35 154
109 205
106 155
157 36
112 69
156 143
206 9
140 176
153 124
76 13
179 173
126 4
49 174
58 66
198 154
155 9
51 11
120 33
39 22
74 155
98 54
201 77
110 40
4 91
60 100
206 163
71 120
119 126
150 57
33 39
172 22
178 65
151 128
142 52
133 77
96 80
125 54
175 204
135 154
192 35
144 168
206 85
150 10
43 44
57 98
182 42
67 160
10 171
147 34
132 26
41 188
184 58
48 204
147 141
100 103
194 70
53 36
