"","temp","degree_centralization","betweenness_centralization","closeness_centralization","eigenvector_centralization","global_clustcoeff","assortativity","diameter","avg_degree","modularity","density","avg_path_length","vertices","edges"
"1","Graph00",0.0921052631578947,0.0544782651347368,0.162452770851562,0.562587542300798,0.294707297514034,0.045998469612031,5,8,0.337946955641761,0.105263157894737,2.44292549555707,77,308
"2","Graph01",0.121708683473389,0.0565221675721464,0.157134520067184,0.656942698543262,0.303953147877013,0.127190248505204,5,8.77647058823529,0.357046338290364,0.104481792717087,2.40728291316527,85,373
"3","Graph02",0.0997483413406543,0.0443327483834854,0.144478254522818,0.598415841575099,0.306521739130435,0.0726956951732969,4,9.72340425531915,0.36083486155069,0.104552733928163,2.3671928620453,94,457
"4","Graph03",0.107729648991785,0.0461474023686201,0.170116044439558,0.496936324681402,0.294875776397516,0.0100397464132346,4,10.9038461538462,0.344352372865013,0.105862584017924,2.29424943988051,104,567
"5","Graph04",0.10602593440122,0.0357265051038955,0.18838203186369,0.575411718043751,0.297075061670386,0.0400539487837622,4,11.9130434782609,0.357095210187011,0.104500381388253,2.27688787185355,115,685
"6","Graph05",0.126171728533933,0.0405745971480658,0.196278529695126,0.599819190112316,0.292818165815877,0.0596150735888721,4,13.1023622047244,0.349011302699704,0.103987001624797,2.24334458192726,127,832
"7","Graph06",0.110894141829394,0.0310789750052948,0.181319767514803,0.539103482478905,0.292341583516911,0.0749240184813065,4,14.5857142857143,0.364955426733983,0.104933196300103,2.20832476875642,140,1021
"8","Graph07",0.129191070367541,0.0328377696394945,0.183735957890543,0.576723781670948,0.287608726650506,0.0756730179573386,4,16.2337662337662,0.33601152,0.106103047279518,2.16000339529751,154,1250
"9","Graph08",0.117786286112078,0.0254133375133451,0.165847869256488,0.521674795484866,0.286399889514208,0.093230086296804,4,18.0941176470588,0.357259990090655,0.107065784893839,2.12098851374869,170,1538
"10","Graph09",0.122448392846875,0.0254957929827058,0.155765646876971,0.50774580735758,0.283742216220272,0.10511229372684,4,20.2245989304813,0.35305942787246,0.10873440285205,2.08711402449543,187,1891
"11","Graph10",0.100118399242245,0.0173174660043866,0.125281349999907,0.480173780613244,0.278959550314119,0.153986729699821,4,22.4757281553398,0.341327057550299,0.109637698318731,2.06024153445418,206,2315
"12","Graph11",0.0791197224279755,0.0123384526348584,0.109446993826703,0.530985409581098,0.27943607580707,0.21722796468234,3,25.1189427312775,0.324582155387151,0.111145764297688,2.04315621223344,227,2851
"13","Graph12",0.0918232931726908,0.0120396884290539,0.120504460079897,0.544344981348308,0.282794378240528,0.269194470771246,4,28.136,0.301242900865199,0.112995983935743,2.03608032128514,250,3517
"14","Graph13",0.104764432647644,0.00918469995879381,0.108549279828617,0.558640601159359,0.287039485729398,0.324806253285239,4,31.2945454545455,0.300417686313355,0.114213669542137,2.03901791639018,275,4303
"15","Graph14",0.119281795729242,0.00872071706282046,0.11906769199738,0.583182283445717,0.289495036853127,0.370546864204496,4,34.976897689769,0.269540454228351,0.115817542019103,2.04032522457544,303,5299
"16","Graph15",0.101526676376976,0.0111643107194648,0.117914391454572,0.5250597577612,0.293075405751462,0.408726791100266,4,39.1916167664671,0.282675442563997,0.117692542842243,2.04234773695852,334,6545
"17","Graph16",0.0955751688188603,0.014683745493984,0.121661101472508,0.526573583597587,0.293956513024564,0.45221723662007,4,43.9239130434783,0.269200750155499,0.119683686766971,2.04558109228764,368,8082
"18","Graph17",0.0962351790734629,0.0136990604869934,0.11898227955691,0.521928843535103,0.293530165645014,0.478531068934328,4,49.120987654321,0.261765112207397,0.121586603104755,2.04770810414375,405,9947
"19","Graph18",0.0986244772509699,0.0136153943453418,0.121561898387701,0.500898861716952,0.296714264954454,0.499907541866508,4,55.1121076233184,0.250877349727662,0.12384743286139,2.050324986144,446,12290
"20","Graph19",0.114717984953656,0.0120496864681949,0.136763636274785,0.495216809605371,0.299075318713031,0.50036036420516,4,61.7881873727088,0.240712352825188,0.126098341576957,2.05297809551519,491,15169
"21","Graph20",0.112446087492298,0.010162825602375,0.138886819547,0.495367621271607,0.301090827407827,0.513978569158219,4,69.279112754159,0.244903266800992,0.128294653248443,2.05537755870473,541,18740
"22","Graph21",0.128041283627545,0.0102522309678062,0.150844588095394,0.472587770093708,0.301210861730638,0.518073220311442,4,77.8154362416107,0.241285486803137,0.13078224578422,2.0543849754667,596,23189
"23","Graph22",0.112572146713834,0.009410059304726,0.143599467255465,0.474479966823676,0.302291396131996,0.529170447310508,4,87.265243902439,0.231494164527281,0.133229380003724,2.05503630608825,656,28623
"24","Graph23",0.0943403475474583,0.00984656267447416,0.130716940552879,0.478212745285948,0.302867349347943,0.546519612682056,4,97.9806094182826,0.22392281352872,0.135895436086384,2.05648510648107,722,35371
"25","Graph24",0.0932243397810624,0.00845091043636453,0.119504159650628,0.449740834171452,0.304302779925851,0.556957940355904,4,109.979874213836,0.217888920543103,0.138513695483421,2.05859670801451,795,43717
"26","Graph25",0.0967793396534815,0.007471774840773,0.112949620518241,0.45210898527577,0.305404078089785,0.563019476309412,4,123.414857142857,0.224424828432624,0.141206930369402,2.05913828048382,875,53994
"27","Graph26",0.100134282377273,0.00690304620307769,0.123271129307072,0.440070928693295,0.306714552195202,0.568555119701182,4,138.670820353063,0.215908203225543,0.144148461905471,2.05749099207043,963,66770
"28","Graph27",0.104097849519839,0.00651946018534381,0.121642099991539,0.443055893582821,0.308605582777325,0.566393086731961,4,155.760377358491,0.206610546101791,0.147082509309245,2.05513567445258,1060,82553
"29","Graph28",0.102316713167794,0.00675207539464793,0.120861158147373,0.462283233891013,0.310858933546893,0.569509364079683,4,174.80102915952,0.197381752290584,0.150043801853665,2.05321593945774,1166,101909
"30","Graph29",0.112075223461004,0.00819139260059322,0.122437256823371,0.465350333081706,0.313145560732512,0.576392992104736,5,196.319563522993,0.196381970169321,0.153135384963333,2.05170700982365,1283,125939
"31","Graph30",0.118740250118956,0.00694877095167505,0.125440652909921,0.46123468108702,0.315225565602211,0.576471893644211,5,220.457507082153,0.196584741238883,0.156242031950498,2.04905507716585,1412,155643
"32","Graph31",0.107164196668382,0.00620965876320384,0.11433424006555,0.420333218033939,0.317582584075237,0.577857434218915,5,247.574002574003,0.196462650517222,0.159416614664522,2.04774584169304,1554,192365
"33","Graph32",0.122216405065717,0.00579570490503587,0.12370746989769,0.423171366884154,0.320425573331764,0.580809606642537,5,278.13216374269,0.198128002726184,0.162745560996308,2.04682468801221,1710,237803
"34","Graph33",0.121637144117547,0.00558059424615635,0.128521004643079,0.408182781281104,0.323503598756445,0.583087540096339,5,312.322169059011,0.181834672523753,0.166128813329261,2.04556313414096,1881,293739
"35","Graph34",0.100087558927158,0.00545753760825223,0.118486144184642,0.409469327917281,0.32689865873612,0.584731465188314,5,350.91884057971,0.181365541153021,0.169607946147757,2.0431901336266,2070,363201
"36","Graph35",0.112418986225053,0.00544258662314713,0.116492436346624,0.402979144250067,0.330286369241266,0.581010608295414,5,394.134387351779,0.188903585341513,0.173169765971783,2.04130129907619,2277,448722
"37","Graph36",0.110622524918215,0.00553831117499345,0.115819044451164,0.40275765185129,0.333535626947886,0.574134451405705,5,443.00119760479,0.174765177176766,0.176917411184022,2.03785719296232,2505,554859
"38","Graph37",0.118782316885252,0.00557564242404687,0.12537748868962,0.398875089787221,0.336812394654756,0.570705621283884,5,497.754716981132,0.165883368443455,0.180673218504948,2.03309881229273,2756,685906
"39","Graph38",0.109172673926158,0.00565474391472818,0.122887559052481,0.396889200936105,0.340229252675039,0.570430057312395,5,559.097625329815,0.167530094794919,0.184459790606999,2.02829556326056,3032,847592
"40","Graph39",0.117558127411115,0.00562053724076174,0.130017849953453,0.378278509213213,0.344191841840805,0.569868043787893,5,627.943645083933,0.166520346083642,0.188288949050655,2.02274366413915,3336,1047410
