Vertices 316
72 "#293"
273 "#13"
114 "#184"
25 "#11"
271 "#219"
222 "#247"
291 "#88"
45 "#174"
254 "#17"
264 "#194"
253 "#228"
226 "#279"
309 "#126"
44 "#314"
117 "#26"
269 "#36"
96 "#166"
191 "#185"
183 "#15"
39 "#44"
211 "#2"
14 "#49"
197 "#177"
17 "#79"
220 "#305"
146 "#9"
286 "#125"
158 "#178"
313 "#249"
31 "#91"
35 "#273"
261 "#175"
48 "#180"
63 "#118"
165 "#260"
126 "#27"
233 "#5"
195 "#39"
23 "#189"
243 "#156"
246 "#291"
266 "#217"
263 "#195"
210 "#96"
139 "#42"
109 "#41"
53 "#133"
294 "#131"
262 "#267"
311 "#8"
174 "#255"
120 "#46"
171 "#292"
5 "#241"
138 "#223"
42 "#68"
249 "#151"
27 "#159"
257 "#176"
108 "#144"
16 "#14"
181 "#197"
124 "#206"
76 "#229"
173 "#28"
116 "#84"
161 "#196"
65 "#216"
238 "#266"
306 "#76"
153 "#73"
184 "#158"
289 "#302"
268 "#271"
104 "#251"
50 "#45"
229 "#35"
143 "#303"
225 "#107"
180 "#252"
98 "#157"
129 "#153"
298 "#34"
107 "#99"
130 "#281"
283 "#135"
203 "#31"
152 "#280"
312 "#18"
67 "#313"
267 "#20"
276 "#224"
36 "#171"
103 "#207"
82 "#205"
135 "#262"
55 "#83"
277 "#208"
280 "#93"
113 "#38"
33 "#306"
90 "#296"
315 "#147"
75 "#315"
21 "#274"
149 "#136"
167 "#143"
258 "#286"
37 "#198"
185 "#117"
290 "#299"
29 "#4"
162 "#209"
316 "#111"
227 "#162"
92 "#307"
51 "#53"
230 "#309"
131 "#167"
198 "#130"
32 "#54"
188 "#308"
248 "#64"
46 "#105"
119 "#164"
66 "#137"
19 "#290"
6 "#80"
157 "#37"
168 "#141"
115 "#237"
160 "#243"
24 "#173"
293 "#74"
4 "#81"
148 "#123"
182 "#43"
43 "#278"
201 "#191"
170 "#227"
206 "#288"
58 "#204"
97 "#231"
134 "#92"
69 "#202"
81 "#98"
7 "#282"
295 "#310"
259 "#277"
77 "#100"
308 "#298"
20 "#115"
247 "#300"
22 "#261"
297 "#19"
212 "#72"
133 "#192"
231 "#272"
245 "#129"
307 "#188"
79 "#113"
299 "#59"
187 "#250"
80 "#57"
304 "#1"
177 "#109"
292 "#78"
60 "#128"
202 "#179"
30 "#3"
163 "#66"
242 "#58"
215 "#213"
234 "#23"
287 "#48"
240 "#214"
57 "#127"
178 "#238"
121 "#0"
70 "#203"
112 "#312"
296 "#235"
190 "#22"
3 "#82"
274 "#124"
13 "#257"
302 "#190"
196 "#276"
99 "#40"
147 "#163"
179 "#265"
260 "#12"
272 "#16"
86 "#201"
34 "#145"
164 "#146"
207 "#287"
71 "#183"
8 "#94"
279 "#182"
52 "#294"
87 "#233"
217 "#10"
41 "#154"
28 "#256"
15 "#65"
89 "#304"
94 "#215"
241 "#186"
100 "#85"
85 "#87"
236 "#264"
78 "#142"
154 "#297"
11 "#230"
132 "#220"
285 "#33"
235 "#161"
199 "#75"
232 "#245"
200 "#114"
186 "#106"
145 "#71"
68 "#24"
62 "#50"
237 "#25"
300 "#120"
209 "#104"
10 "#47"
213 "#285"
84 "#218"
74 "#139"
314 "#242"
88 "#150"
265 "#289"
252 "#225"
122 "#193"
18 "#268"
156 "#51"
275 "#172"
59 "#29"
303 "#169"
239 "#121"
218 "#246"
12 "#132"
189 "#149"
38 "#138"
141 "#116"
208 "#269"
93 "#110"
2 "#55"
47 "#211"
192 "#155"
137 "#170"
105 "#89"
9 "#181"
151 "#275"
194 "#187"
169 "#168"
224 "#239"
56 "#226"
301 "#102"
111 "#122"
118 "#134"
278 "#152"
91 "#63"
193 "#248"
250 "#263"
270 "#21"
305 "#148"
216 "#258"
125 "#32"
150 "#240"
102 "#70"
95 "#86"
136 "#210"
251 "#30"
1 "#270"
110 "#254"
123 "#108"
172 "#236"
221 "#301"
54 "#97"
219 "#62"
281 "#60"
142 "#140"
288 "#200"
159 "#253"
140 "#95"
101 "#67"
49 "#112"
106 "#232"
205 "#90"
310 "#199"
155 "#101"
214 "#61"
144 "#7"
255 "#212"
223 "#283"
128 "#244"
73 "#234"
282 "#160"
176 "#103"
284 "#259"
127 "#119"
244 "#52"
83 "#56"
61 "#284"
175 "#77"
256 "#222"
204 "#295"
26 "#69"
166 "#311"
64 "#221"
228 "#165"
40 "#6"
Edges
308 75
54 225
250 152
215 255
41 79
13 45
310 277
239 282
302 170
45 231
253 271
258 86
305 59
158 261
87 284
20 101
84 309
291 147
26 211
134 291
270 176
251 304
184 27
308 316
223 28
41 119
79 172
225 190
21 179
105 40
242 260
160 243
192 70
6 153
297 83
34 110
33 171
157 145
123 129
142 74
195 281
174 130
281 134
21 169
222 313
47 4
221 143
205 81
75 247
308 188
48 152
202 37
136 75
155 3
110 266
180 13
297 173
207 160
186 245
147 247
185 112
313 150
137 71
84 56
192 184
219 102
191 134
70 290
17 41
36 4
293 140
206 258
275 98
279 263
96 159
295 275
276 255
310 86
48 137
256 310
165 71
286 274
31 24
24 18
6 248
88 155
306 119
267 214
295 90
47 94
294 145
278 98
63 93
247 265
193 265
287 309
58 87
145 214
72 33
190 107
287 148
116 254
219 286
178 115
108 245
136 56
289 143
177 218
96 71
160 127
274 243
249 205
258 171
89 308
167 149
133 82
32 283
74 174
99 163
225 111
165 284
257 149
303 279
78 283
282 219
57 172
62 225
300 249
204 19
205 37
191 256
295 247
307 241
97 224
98 128
19 78
309 53
131 256
295 206
171 284
152 227
9 210
223 179
262 138
12 161
105 55
74 47
37 241
126 225
127 37
271 188
183 214
240 124
40 10
304 305
193 314
108 310
28 310
162 314
155 132
19 75
79 217
192 119
37 245
283 198
85 310
16 113
305 283
93 200
124 8
314 313
121 77
306 233
213 290
8 185
89 79
176 255
9 75
240 256
178 66
306 108
207 290
271 256
82 18
45 202
11 313
93 250
135 268
97 178
6 298
134 210
149 315
263 180
227 291
114 134
39 297
88 228
172 186
137 235
157 301
155 268
288 161
191 228
5 110
57 48
108 195
128 159
299 214
243 198
315 177
76 169
201 33
121 200
142 36
114 65
231 179
53 168
25 316
11 104
245 73
21 28
179 36
214 227
240 241
140 105
268 216
87 315
211 42
53 294
53 55
110 232
48 274
270 55
216 284
150 204
301 141
135 21
138 255
253 65
232 222
27 162
212 69
187 150
116 184
92 308
238 76
308 19
216 226
208 22
201 87
179 160
53 189
11 168
227 96
20 241
3 70
72 61
249 257
118 259
292 139
192 214
156 176
86 88
67 226
171 67
196 261
123 246
98 194
163 111
161 294
130 253
130 208
196 168
75 44
122 185
97 5
125 245
201 194
22 119
3 147
302 118
163 306
261 114
83 109
58 181
60 245
263 96
151 305
230 92
164 38
304 51
162 282
200 230
315 78
198 260
182 53
275 236
1 309
228 98
171 44
207 204
34 283
2 139
47 81
13 34
111 30
203 175
214 233
213 308
248 175
33 61
168 272
239 79
9 185
98 168
202 222
102 95
310 104
88 306
258 154
167 142
148 52
290 247
239 180
263 278
74 283
181 296
278 175
227 192
134 237
288 4
245 315
289 87
159 210
14 118
102 108
175 261
316 44
170 206
200 110
211 267
204 49
8 119
170 215
90 19
79 300
46 51
207 308
164 310
131 69
226 179
210 205
196 28
200 177
276 82
94 53
216 43
197 257
219 80
225 79
151 178
283 44
227 278
37 132
160 97
252 277
72 198
84 276
165 73
97 165
98 186
1 69
145 118
233 50
149 102
132 64
92 224
294 309
179 249
127 224
67 258
142 53
22 135
98 239
60 101
83 49
162 170
165 208
127 192
68 30
172 174
106 134
244 79
17 3
308 118
155 261
61 316
275 155
268 28
172 296
12 31
205 4
290 258
16 285
8 59
58 306
242 98
136 191
38 274
299 212
164 30
283 135
79 166
123 174
27 49
307 191
300 58
281 214
171 290
158 185
73 56
61 263
7 48
37 122
15 279
233 212
252 205
193 73
186 175
188 151
90 165
68 121
141 60
246 48
236 21
90 185
24 187
221 275
288 286
175 209
11 224
263 71
1 259
275 24
60 196
128 286
153 305
88 118
232 263
141 49
213 67
310 226
243 55
251 26
210 234
283 67
287 190
35 262
215 197
295 65
263 178
100 54
280 53
185 57
227 224
223 174
112 74
116 123
141 63
293 141
301 172
225 158
202 288
150 115
22 13
8 86
24 302
153 113
122 231
252 124
165 259
315 305
220 206
186 292
127 239
177 114
97 76
84 33
263 291
50 125
208 262
32 274
175 49
233 14
53 148
225 168
207 249
123 69
222 178
83 10
152 124
166 258
153 40
122 70
128 53
23 235
193 278
122 69
85 263
120 163
183 2
212 145
123 185
275 23
82 9
117 101
307 235
24 48
288 23
145 167
26 83
257 53
27 98
5 27
266 282
153 293
240 255
124 136
48 255
307 70
11 97
170 65
214 26
126 291
160 315
114 71
17 20
219 198
209 211
188 258
5 20
277 95
201 184
116 93
19 92
166 127
197 309
248 169
149 3
227 241
165 7
124 132
299 98
77 307
254 30
251 126
39 157
27 284
90 143
73 60
134 160
13 257
225 94
21 225
11 159
248 140
163 285
111 137
300 296
27 243
218 110
124 64
196 250
127 123
107 93
239 202
301 155
2 57
238 18
24 71
178 230
70 288
282 91
23 64
140 36
295 289
121 46
82 69
150 218
28 1
310 200
124 140
182 177
71 57
154 124
210 26
116 55
234 141
166 276
165 21
194 161
34 118
96 116
104 115
226 45
18 223
137 21
184 303
164 257
56 111
192 43
210 186
167 291
198 34
123 225
93 95
270 311
251 149
166 112
206 188
228 238
116 197
41 243
214 198
27 88
152 288
236 223
148 245
171 257
231 284
144 20
129 289
200 305
135 284
129 119
109 157
233 16
124 170
122 191
237 198
175 210
316 37
132 47
114 9
204 154
29 292
142 24
200 249
97 28
206 230
199 145
294 198
268 301
174 238
37 124
132 257
132 286
312 74
307 20
148 81
48 128
114 275
279 141
298 311
263 204
25 26
218 172
112 52
306 32
237 77
261 8
114 36
53 218
176 22
29 254
145 293
28 43
37 212
235 142
312 140
267 237
282 279
185 71
199 239
306 105
61 220
286 131
236 191
160 56
291 210
78 305
5 11
171 112
270 42
240 94
211 219
231 81
44 259
194 296
89 220
60 24
307 69
300 277
262 259
205 277
186 301
217 299
154 268
130 196
207 206
209 36
80 15
220 253
259 192
115 73
24 140
274 279
68 62
209 316
67 75
134 202
122 288
54 94
176 107
268 227
35 150
158 79
210 256
69 4
27 212
116 264
63 16
38 200
169 158
120 107
100 17
71 81
9 89
309 91
309 12
27 86
205 70
19 246
26 42
47 181
66 142
22 231
9 249
250 53
291 76
42 10
196 124
233 156
70 259
266 170
161 69
196 135
37 194
55 272
73 128
47 274
27 122
35 21
313 85
183 51
65 277
137 12
174 135
174 302
54 140
198 164
76 5
159 45
35 43
45 279
262 19
38 309
82 127
97 72
239 60
26 8
307 264
54 259
8 81
73 106
51 272
167 148
2 156
307 253
46 98
210 232
79 185
172 222
308 7
309 158
278 114
3 244
156 49
218 193
243 235
227 306
310 286
247 61
6 100
74 34
249 286
152 265
123 183
117 283
121 118
271 106
133 315
167 78
164 162
67 90
294 184
153 31
149 66
172 87
158 155
189 228
220 231
123 125
82 289
14 225
180 150
92 310
71 261
72 308
305 182
275 220
114 13
243 54
77 257
180 294
124 292
301 303
75 277
140 161
55 251
244 34
59 156
46 82
313 178
47 124
282 306
161 122
258 308
102 134
7 151
22 196
100 36
187 105
212 294
220 44
23 85
249 140
5 180
133 87
298 39
128 66
93 255
63 200
249 41
289 303
2 270
282 185
172 226
73 178
145 272
260 81
110 159
155 79
241 23
20 93
215 136
182 140
142 108
89 52
53 115
63 249
100 3
45 301
300 143
147 185
52 295
227 102
133 71
191 200
219 148
208 302
58 175
43 179
37 177
258 162
78 139
133 60
137 303
283 225
284 223
209 70
316 177
45 24
91 233
217 55
8 104
17 195
189 249
1 187
262 191
53 183
185 225
35 28
308 66
160 208
98 138
228 167
232 218
145 261
52 289
267 219
55 124
197 169
292 100
295 236
280 161
118 241
230 220
83 140
57 36
227 54
127 144
151 70
310 74
48 279
77 134
213 224
89 264
162 215
22 226
12 119
149 217
123 259
169 88
66 38
95 31
315 300
54 163
310 201
208 13
82 23
114 316
134 234
71 79
182 273
261 191
64 84
101 16
180 187
277 170
118 206
136 38
143 44
190 210
232 187
198 212
111 249
308 208
310 159
202 123
134 111
309 274
205 46
287 195
210 303
108 87
58 232
241 264
63 112
202 296
212 199
39 105
98 129
292 237
82 20
257 70
116 82
155 296
229 164
201 188
293 6
112 61
37 77
196 21
71 246
75 230
112 258
105 106
239 112
174 236
42 81
74 118
306 185
150 114
236 231
96 315
11 111
162 123
240 138
202 257
36 279
104 131
50 118
48 202
172 92
177 285
104 249
110 87
134 144
143 171
61 67
89 43
275 265
218 106
115 187
249 232
21 263
12 300
63 17
226 38
303 131
114 88
205 163
154 188
146 53
45 105
262 174
45 48
305 46
128 54
212 300
285 248
198 266
286 300
70 49
119 172
187 106
104 76
96 46
256 171
83 282
268 283
297 312
26 80
78 24
94 132
261 131
169 138
129 55
312 294
169 118
280 218
198 96
19 220
167 256
148 156
9 128
285 144
279 249
278 111
184 15
56 13
299 80
134 105
275 36
258 72
89 228
14 280
224 5
223 130
228 43
258 220
301 225
131 142
300 234
145 15
2 244
201 82
248 79
71 6
98 295
61 192
313 264
42 101
148 239
128 41
116 16
168 141
18 58
79 193
79 240
269 31
246 112
131 71
31 210
164 149
274 255
165 118
16 140
227 93
170 249
18 206
230 172
211 210
219 214
49 64
4 155
205 78
89 204
236 104
142 118
155 77
180 178
55 148
316 176
303 86
274 228
164 241
155 87
76 296
307 86
30 34
90 247
123 91
70 92
54 16
270 121
214 184
307 288
257 107
50 175
62 312
310 54
193 160
137 275
184 5
94 65
78 86
220 221
293 17
147 91
287 210
21 61
167 200
188 52
53 19
136 256
300 248
61 143
258 141
102 285
97 276
268 223
16 219
143 72
194 199
270 66
158 104
216 196
79 258
72 13
106 309
32 99
67 286
292 184
128 300
224 160
224 232
215 147
187 65
170 310
275 307
230 90
137 286
141 39
138 247
302 201
37 18
174 226
111 274
283 315
65 172
78 168
192 23
164 307
162 159
100 95
314 294
247 72
292 137
271 228
167 13
76 178
142 148
292 120
120 100
143 19
86 216
84 253
254 113
50 95
226 106
147 189
277 56
128 262
222 110
57 26
132 177
144 17
132 255
19 72
217 100
283 31
222 193
267 102
240 170
23 259
86 103
312 219
261 56
8 31
14 120
206 123
232 296
58 104
91 109
108 305
53 171
180 76
77 54
36 175
259 21
202 171
72 160
256 257
180 128
202 36
180 172
202 294
76 222
250 284
172 5
174 13
313 231
274 90
194 202
239 286
195 32
221 19
20 300
218 52
287 10
306 102
57 280
186 202
160 75
62 32
194 105
148 286
159 150
111 101
47 168
122 17
161 61
86 77
169 63
189 288
135 179
121 145
110 160
171 72
177 75
224 128
110 187
246 137
279 275
18 112
189 133
227 41
30 146
95 156
111 69
20 84
128 218
88 17
95 309
63 123
106 160
119 133
252 162
103 116
159 192
154 230
193 288
200 14
31 81
193 176
200 293
84 41
77 79
34 26
218 46
57 300
110 178
202 116
14 54
113 51
210 105
206 314
89 61
308 171
62 203
169 119
250 28
58 201
225 175
240 47
136 240
283 192
13 284
250 135
293 62
44 19
60 53
91 29
177 103
36 170
28 152
304 25
279 158
235 294
130 230
176 130
231 277
77 157
243 316
167 264
19 161
54 46
169 189
269 205
53 300
243 176
58 82
24 169
46 307
282 228
167 164
253 124
160 115
42 185
202 131
246 67
161 307
24 85
298 163
9 268
277 60
64 87
96 23
25 312
155 81
61 52
41 212
2 100
294 279
1 174
224 23
163 242
258 247
5 124
283 46
293 316
19 232
271 240
12 289
201 73
261 275
223 296
246 258
62 306
36 239
108 204
134 8
209 45
128 193
200 99
52 290
3 278
42 71
105 31
239 53
155 127
316 47
145 182
48 292
313 71
308 33
246 78
240 276
237 291
159 160
43 218
89 290
307 181
198 117
56 63
266 94
88 184
163 15
192 275
87 309
206 108
100 248
161 264
132 284
299 8
263 168
133 207
220 33
20 276
185 86
245 9
85 99
22 274
109 2
185 26
28 70
123 141
81 271
157 140
179 114
177 300
315 264
102 4
36 45
142 187
207 112
234 270
222 245
149 64
169 202
107 256
186 225
240 162
107 5
205 132
257 255
3 142
32 245
19 154
210 85
79 123
178 128
165 89
123 233
294 60
54 66
248 237
305 269
289 138
97 202
9 197
128 284
127 219
252 276
173 233
195 83
78 118
85 239
202 303
220 289
271 255
286 216
64 276
302 43
89 34
214 163
308 143
13 73
125 83
186 277
45 148
90 282
224 239
264 181
114 127
59 134
107 24
27 282
101 120
302 69
99 212
119 282
185 3
236 268
301 229
158 277
156 14
38 149
153 199
2 176
179 262
111 54
122 201
213 92
226 152
20 63
22 221
101 31
33 159
269 185
178 296
302 47
225 57
170 72
315 19
212 287
307 122
261 176
44 160
264 263
263 194
301 107
252 235
270 242
205 274
264 114
181 310
265 274
278 283
72 204
98 310
241 162
282 302
169 35
81 233
49 289
111 125
128 110
313 111
45 61
70 134
277 122
110 224
217 101
138 215
252 63
41 165
159 187
33 294
276 246
230 308
169 128
124 81
247 60
310 13
90 246
181 41
9 27
73 49
172 13
82 288
5 223
67 279
45 137
18 13
186 95
179 305
262 268
295 13
179 200
267 39
86 241
207 66
48 278
103 277
219 242
245 145
313 81
308 112
170 147
5 220
233 79
111 200
96 187
65 240
176 149
79 312
7 208
300 198
152 268
291 123
261 67
296 36
71 45
24 279
71 169
241 177
18 111
282 142
217 80
142 115
196 231
245 274
14 297
177 63
228 313
273 14
64 56
34 192
116 169
69 201
90 275
202 137
75 143
9 283
262 69
301 249
65 255
280 198
139 286
257 134
90 289
115 314
36 24
167 194
215 314
278 13
36 210
148 160
184 7
180 44
230 221
307 265
129 65
181 168
61 154
84 292
199 254
159 63
21 23
86 209
220 67
29 205
5 189
57 111
119 18
26 15
188 24
1 130
190 62
277 136
45 143
107 305
225 315
268 130
283 180
239 121
306 228
300 275
94 136
268 238
189 80
172 160
277 110
235 118
245 239
92 52
24 158
82 259
108 129
111 60
150 38
263 58
243 257
293 12
120 99
148 178
271 76
310 35
192 66
160 188
163 195
119 258
190 38
94 31
195 239
44 206
1 226
24 131
225 211
284 208
2 51
156 62
239 111
248 272
44 289
294 228
39 281
239 184
55 283
108 283
66 114
138 103
226 130
96 137
69 241
186 176
228 56
101 109
95 3
292 269
262 223
280 139
116 292
176 119
175 26
70 194
57 262
293 55
24 9
106 7
113 4
95 6
244 148
6 233
101 273
184 124
147 140
95 147
225 302
167 208
232 128
208 216
236 151
277 36
166 220
27 147
264 9
235 111
194 210
63 315
58 145
140 139
240 133
190 30
258 90
133 135
178 307
136 300
41 27
152 238
87 310
76 85
231 295
172 104
138 94
18 35
274 239
12 60
20 181
161 309
268 302
214 57
155 186
252 215
185 272
277 57
8 6
97 314
102 293
26 300
159 314
265 290
12 169
218 87
82 204
228 180
274 246
313 147
256 134
240 179
63 85
65 111
90 33
94 67
210 113
92 207
65 230
247 174
186 310
164 118
290 187
282 9
130 21
57 60
162 266
123 22
173 134
238 216
155 175
301 270
286 294
118 247
69 223
71 193
202 275
38 305
178 268
81 291
54 139
76 232
160 218
263 105
214 66
7 215
220 112
193 87
8 200
100 299
233 80
227 119
47 215
12 307
309 245
53 198
165 301
209 46
274 244
98 88
261 289
164 76
53 272
263 37
10 185
171 218
24 114
294 289
155 46
54 173
178 187
53 177
226 158
246 247
35 137
151 216
41 235
42 267
180 104
82 45
79 20
19 82
213 289
148 278
8 4
165 196
255 277
110 106
24 129
168 283
110 115
137 114
153 254
153 294
314 276
159 296
64 271
214 42
302 220
78 64
200 186
177 205
201 150
110 104
94 20
57 51
34 223
20 286
240 128
132 34
124 276
127 63
289 258
82 169
186 269
141 81
61 166
295 250
27 96
223 162
108 140
53 141
240 35
192 123
81 195
225 64
279 187
204 309
257 158
57 245
86 33
137 78
228 21
53 103
149 58
195 306
76 110
284 43
239 131
202 9
111 88
182 32
231 226
41 129
127 297
110 194
259 224
245 256
274 175
68 292
70 276
46 189
280 109
301 209
28 216
72 137
24 122
213 284
305 306
66 168
221 290
218 97
216 20
111 55
158 310
219 98
127 93
231 21
196 268
66 295
43 149
64 245
106 115
40 272
188 193
94 161
89 289
295 75
62 297
56 271
6 163
305 167
84 147
150 193
271 266
110 196
216 308
198 182
124 88
9 105
245 102
79 251
301 46
79 127
186 163
176 127
86 169
43 60
263 310
43 165
140 233
65 307
172 11
98 209
184 249
64 188
246 44
263 288
266 275
315 61
232 313
292 105
90 204
173 121
163 292
14 123
262 13
143 60
54 76
68 125
54 169
34 274
103 262
198 120
174 268
119 88
289 290
106 300
314 76
300 38
110 296
211 273
195 29
46 100
13 238
97 8
240 252
184 278
291 98
101 156
224 69
51 53
268 185
186 81
240 247
272 155
228 286
139 3
60 307
235 116
37 213
151 174
162 90
132 148
132 215
12 201
123 126
67 188
155 254
52 271
140 119
12 286
316 117
182 126
254 25
288 22
236 238
136 47
89 247
142 313
216 231
33 295
47 53
278 78
156 10
165 231
250 216
303 45
261 38
299 269
41 36
152 35
97 110
12 198
11 78
234 156
67 167
142 51
309 296
277 89
289 207
50 248
304 157
163 260
210 16
310 266
264 69
77 261
280 205
250 231
119 48
296 73
6 260
300 74
238 1
280 211
42 195
68 301
208 192
97 88
225 205
281 83
309 22
210 237
231 58
202 118
169 45
207 154
194 69
84 162
56 289
14 77
276 94
146 99
5 159
292 34
246 154
193 277
121 205
110 54
231 151
133 27
5 193
200 215
179 35
6 297
308 221
306 199
106 258
228 293
77 309
122 286
33 112
77 100
31 280
45 131
249 128
196 13
276 268
36 131
84 256
46 132
124 35
205 309
65 53
130 74
259 130
12 274
316 141
138 271
108 144
94 189
226 18
164 305
253 64
104 313
249 80
110 215
44 221
203 177
73 97
75 235
38 20
122 137
169 6
128 84
192 41
87 313
136 119
282 216
58 302
290 158
162 9
121 176
38 83
31 64
192 193
169 218
162 136
310 88
51 244
227 235
38 114
202 282
250 165
303 275
234 15
156 182
77 106
9 307
246 164
9 131
180 159
138 65
235 129
180 88
315 213
37 227
86 288
312 229
55 276
93 256
25 244
303 277
161 310
287 214
85 156
63 316
57 85
156 251
48 185
290 5
243 225
132 138
92 290
228 184
93 242
191 271
292 281
227 107
70 69
119 249
284 310
15 141
53 41
209 176
8 302
18 236
208 196
181 180
314 177
232 159
100 94
131 210
161 48
204 258
70 310
92 150
6 3
107 294
154 148
235 164
83 41
56 124
14 164
124 255
61 92
153 270
201 303
120 190
112 129
96 261
184 147
247 66
170 201
192 281
110 236
101 91
87 36
49 63
98 45
205 140
271 290
268 165
28 262
196 152
33 290
274 6
136 90
170 63
270 51
165 152
78 84
281 239
24 262
12 103
250 184
289 33
174 295
281 199
76 309
101 26
135 58
7 226
266 222
294 272
278 277
303 140
141 52
130 124
252 56
209 107
202 96
77 302
253 56
93 25
38 168
264 201
184 65
34 7
88 49
100 98
147 119
163 293
49 305
147 228
135 35
206 112
96 169
23 181
63 189
33 44
115 11
131 220
231 174
88 147
219 239
193 294
293 315
52 221
310 133
266 252
41 147
138 56
237 2
43 236
79 163
202 256
126 211
54 237
98 198
189 184
279 246
249 243
184 152
189 104
227 155
159 282
56 223
256 79
149 13
164 121
225 113
276 215
96 154
237 272
69 49
74 186
161 181
172 115
75 204
283 30
158 150
225 214
207 52
245 160
257 106
131 172
291 27
261 303
92 218
29 229
71 275
35 81
51 153
271 276
226 240
9 184
57 266
219 281
186 161
270 77
281 55
67 247
135 137
49 20
38 268
126 49
63 90
14 85
142 37
86 204
122 155
188 221
222 112
114 191
232 106
151 208
135 252
295 252
185 22
121 287
274 180
95 294
300 145
100 199
101 248
82 161
174 179
30 267
269 177
197 261
194 302
36 155
195 39
61 19
262 196
92 72
190 195
266 49
60 89
27 206
34 238
38 142
284 262
207 114
231 171
110 305
9 79
225 164
47 288
258 61
129 189
192 142
4 309
278 133
212 121
48 19
149 192
18 162
37 228
107 225
106 159
59 116
206 61
66 30
91 42
222 52
80 17
241 310
120 306
38 170
23 86
231 177
289 247
248 40
266 264
201 19
307 197
268 35
262 53
2 68
63 118
148 128
172 224
185 276
222 104
192 197
124 194
314 106
301 56
89 106
32 315
116 195
303 24
94 147
113 157
52 294
194 240
56 276
227 129
226 28
286 203
87 222
54 127
316 123
205 315
282 249
207 171
293 147
263 122
111 148
54 209
155 217
184 85
62 2
209 222
169 275
99 280
46 124
94 252
102 153
80 30
108 261
307 310
139 219
176 46
210 282
300 45
296 222
252 58
316 24
198 263
215 271
210 275
136 228
69 54
158 131
194 307
3 248
301 168
179 165
62 251
31 85
89 206
304 281
147 71
134 228
265 119
208 18
257 131
228 8
230 188
65 245
25 83
1 179
204 74
149 34
17 237
76 73
177 82
182 294
41 35
169 18
162 277
300 294
200 264
305 81
306 212
84 103
77 185
113 134
43 180
236 208
190 15
88 261
213 207
61 265
192 243
28 236
294 20
24 102
72 65
35 196
256 284
253 94
54 122
121 62
309 127
154 90
80 300
152 122
66 185
244 120
144 40
261 310
314 201
13 220
238 250
12 175
101 12
253 47
262 12
197 286
83 315
191 210
315 38
184 103
240 215
7 104
236 119
134 245
80 228
216 9
161 290
291 298
193 246
266 136
286 153
7 174
87 204
163 25
148 46
106 313
315 167
73 228
247 218
112 92
184 161
304 100
92 204
84 277
301 10
97 119
12 280
254 51
174 165
145 153
218 108
309 57
222 241
235 134
289 118
170 138
225 34
7 179
243 24
297 273
288 178
89 90
218 167
54 70
108 19
84 23
102 60
14 51
56 98
257 227
277 90
49 205
194 184
37 165
4 144
213 115
132 11
192 238
62 54
215 27
278 143
24 197
12 310
183 293
284 76
241 58
242 292
34 315
300 283
243 77
75 61
274 300
15 175
239 275
130 47
262 37
193 115
144 145
192 67
309 148
143 206
60 95
228 243
179 88
32 108
104 78
1 21
216 130
43 196
60 274
6 116
49 313
247 166
63 106
129 140
284 238
237 80
196 79
219 287
56 65
272 121
306 293
254 156
223 152
51 39
308 247
142 274
262 43
212 210
77 173
198 261
35 288
203 116
158 142
24 118
1 13
100 157
67 230
10 12
7 35
49 208
193 97
17 155
237 68
162 253
171 289
169 67
139 80
221 235
293 32
122 81
202 196
309 300
3 301
11 181
24 155
245 47
206 56
255 227
118 66
250 13
80 40
51 77
141 91
268 41
53 149
98 119
149 169
193 11
177 272
178 161
82 191
280 27
126 107
4 227
178 119
283 77
260 15
280 162
128 5
301 163
292 249
222 180
132 41
214 157
95 199
95 298
218 176
305 233
236 226
110 180
300 245
75 89
8 280
229 285
124 307
175 212
129 228
29 155
135 18
302 310
213 76
237 31
17 105
290 246
96 48
27 228
155 177
222 187
158 49
258 52
98 249
97 172
258 104
172 291
266 118
186 299
271 202
191 34
288 119
134 272
265 194
62 55
244 30
193 110
224 226
130 243
152 43
56 46
82 37
104 218
187 300
111 178
302 316
229 198
112 72
107 186
46 17
252 67
283 83
32 68
91 177
133 64
243 189
81 117
242 175
246 265
23 161
169 79
147 243
279 41
113 205
296 236
172 159
27 89
67 52
171 255
65 266
174 154
81 12
255 129
130 35
85 70
83 248
156 32
155 54
205 102
70 302
11 200
97 115
1 151
60 65
9 31
159 73
101 211
45 257
93 91
20 290
186 65
315 309
291 116
74 305
106 128
278 225
197 202
179 208
278 149
195 186
59 190
103 261
315 232
213 206
305 39
8 102
257 71
137 257
226 21
88 265
130 71
22 152
303 286
210 53
121 105
290 204
306 175
209 298
205 203
43 151
195 55
111 232
10 32
127 149
7 284
55 137
268 107
246 257
98 184
276 103
32 305
274 212
95 283
235 196
66 61
140 275
92 258
158 236
149 108
254 53
92 147
312 273
182 55
9 275
282 291
160 247
137 103
305 186
127 38
143 302
278 236
130 22
70 263
307 45
182 95
34 142
80 62
88 108
178 45
223 316
89 256
4 26
115 103
154 308
30 8
147 129
142 70
121 304
159 249
70 37
141 313
65 191
264 34
280 222
58 235
256 252
149 88
288 95
122 96
90 72
35 110
146 34
140 115
259 208
24 257
1 18
13 61
304 145
102 298
181 133
50 146
269 126
28 49
145 17
133 313
106 194
306 31
281 242
60 300
6 287
13 11
149 142
274 210
295 103
294 175
86 70
43 238
168 133
5 314
46 245
39 280
124 271
228 71
283 244
169 268
119 26
173 118
115 232
187 97
227 147
163 228
286 199
205 84
124 94
55 93
162 303
198 253
285 315
165 238
120 177
123 5
212 83
261 48
146 100
267 163
158 151
291 239
137 142
220 296
72 166
85 280
115 165
232 134
60 25
34 58
71 197
21 44
130 43
149 74
116 31
210 41
308 204
302 176
119 184
91 311
235 4
258 44
295 72
153 50
164 140
140 101
23 58
76 150
37 309
154 192
241 161
186 316
135 231
69 271
18 107
136 246
62 274
9 71
191 201
200 289
138 1
187 92
178 150
148 34
11 73
103 65
54 301
188 97
13 294
219 233
176 78
194 95
6 131
185 20
2 107
147 33
305 149
169 160
133 49
270 254
105 137
302 82
195 80
95 17
77 13
272 32
21 238
174 196
163 26
110 111
127 60
164 249
262 20
23 314
9 303
98 192
240 253
220 108
206 73
172 240
15 62
118 114
209 78
114 164
295 67
44 191
28 265
245 67
140 31
47 9
241 129
66 108
78 4
95 84
235 275
88 94
151 169
71 60
162 47
195 105
174 224
109 55
10 217
79 60
44 278
114 305
31 175
52 19
41 204
51 20
238 196
137 36
213 222
20 309
69 23
24 202
207 88
149 286
257 48
158 283
136 64
72 246
200 160
22 259
46 105
116 157
49 176
14 15
186 235
163 116
313 5
167 66
98 8
110 188
303 88
218 162
211 316
178 104
207 143
264 122
50 26
63 47
111 300
235 231
155 228
287 168
302 241
37 133
299 304
92 154
222 191
33 265
95 158
262 122
151 166
241 262
279 169
125 31
97 104
201 186
5 12
116 205
315 200
265 19
70 309
127 286
298 280
265 207
305 184
58 161
71 288
246 241
263 24
95 71
167 34
100 182
221 154
81 139
20 192
111 145
11 174
27 196
166 119
252 305
200 283
293 199
255 266
294 148
52 213
257 154
265 289
141 304
84 87
75 207
249 278
35 164
7 218
314 13
227 43
96 274
238 294
256 65
305 159
177 78
102 156
235 54
162 103
150 110
67 154
255 162
96 114
289 206
91 8
31 134
129 212
247 171
38 199
185 230
188 247
171 246
259 216
194 226
138 34
5 75
136 224
89 67
260 125
133 5
112 19
161 262
81 37
227 216
156 281
308 246
300 260
128 172
316 283
74 307
265 89
160 238
266 9
255 256
159 193
246 230
170 294
33 67
240 258
172 150
64 168
142 315
261 302
176 51
171 206
113 83
210 8
52 154
57 21
60 81
82 122
310 4
123 227
160 222
62 182
192 81
160 94
223 1
69 310
24 201
123 47
63 210
293 282
294 46
224 193
295 258
11 52
48 158
200 54
291 184
85 205
46 229
47 78
6 195
168 305
230 72
58 191
87 52
129 184
130 262
113 309
310 58
67 43
250 226
185 78
236 22
126 79
246 166
271 252
48 263
115 128
90 290
147 133
12 261
229 55
81 315
258 265
238 150
278 129
86 131
264 193
162 74
166 204
44 169
230 171
73 150
107 280
61 246
73 189
134 280
275 197
144 153
92 289
17 23
293 101
243 227
4 100
238 35
93 28
175 23
316 83
106 193
65 250
159 218
9 290
147 288
32 125
241 224
301 170
60 146
135 249
54 260
55 54
194 256
298 126
26 168
156 118
74 41
190 155
106 150
186 248
65 216
209 241
127 130
71 103
11 275
209 141
288 89
32 205
150 257
278 82
26 219
74 15
56 27
114 131
309 111
185 316
141 306
172 295
163 198
124 138
280 140
249 315
143 52
178 218
20 141
279 179
248 20
164 287
196 86
88 294
96 86
283 66
94 28
278 92
235 305
315 8
228 86
266 132
41 240
147 306
220 141
92 246
198 94
167 182
145 183
282 149
258 89
3 281
141 190
161 286
24 252
145 78
199 257
4 140
186 209
303 96
238 65
280 32
215 67
76 123
259 250
65 225
114 163
265 228
81 209
115 133
61 119
245 126
84 141
240 48
259 179
89 230
114 48
62 14
198 205
289 308
24 174
197 158
22 5
170 271
196 284
185 141
184 23
12 105
82 181
7 130
36 12
3 16
41 107
54 244
267 225
140 30
196 279
180 314
163 36
45 309
306 122
171 34
162 138
240 152
60 256
128 315
98 313
80 50
118 315
158 178
292 95
283 156
282 41
191 196
111 53
167 134
173 156
67 92
138 221
303 71
230 143
152 259
112 290
35 294
51 141
11 128
64 256
210 302
38 192
268 129
93 304
11 155
140 278
21 18
103 170
122 133
216 135
15 121
111 49
282 278
109 212
141 305
71 202
185 239
19 33
165 130
278 228
89 56
23 159
20 125
18 22
112 283
316 76
192 116
224 104
18 216
118 113
209 155
236 216
133 262
170 58
172 279
129 276
66 181
121 4
150 97
278 303
242 251
247 259
256 159
75 148
15 98
203 312
26 298
43 21
74 140
77 110
295 221
314 128
140 180
104 200
70 161
75 112
257 108
186 151
132 84
78 33
150 167
242 59
231 206
36 261
262 5
243 129
23 70
72 290
277 266
67 206
316 20
28 18
206 133
140 255
140 149
288 106
32 183
192 82
9 96
282 261
179 261
211 139
31 309
283 236
54 299
58 86
296 313
8 205
127 162
37 310
180 282
3 307
158 71
20 15
305 36
61 290
105 157
188 204
69 175
223 216
4 95
71 33
210 99
37 141
73 314
102 251
152 21
132 252
239 309
162 65
57 179
185 58
230 108
8 80
200 109
7 22
239 294
198 39
52 250
270 6
301 102
78 74
63 205
160 128
198 69
33 188
278 23
239 303
242 32
161 136
256 148
70 241
263 241
206 265
277 256
9 38
240 56
36 38
249 192
124 180
89 221
119 49
64 65
121 291
117 280
41 98
291 252
192 201
2 210
3 56
90 308
86 133
271 132
185 115
165 151
261 46
192 278
142 196
136 122
119 165
153 10
51 32
280 164
161 292
85 291
254 203
200 18
190 68
252 232
164 142
72 289
68 100
261 279
265 295
186 6
198 194
307 37
223 151
119 189
170 276
194 310
164 68
142 22
263 302
107 65
2 309
316 93
305 132
5 73
42 15
5 178
1 239
286 1
169 100
265 221
179 268
5 115
136 114
242 254
278 294
241 48
89 143
235 303
206 41
201 161
150 160
134 140
315 282
11 171
102 145
78 164
4 66
274 53
36 71
134 122
294 206
12 312
66 229
145 217
67 204
296 218
176 301
5 245
290 295
84 73
266 55
149 283
49 237
19 295
86 95
36 172
164 48
234 29
316 216
79 192
64 11
276 161
75 33
219 299
22 43
253 250
166 230
113 12
81 218
42 117
258 143
272 49
284 115
302 166
45 160
191 198
54 41
81 254
122 6
164 74
184 81
167 160
76 106
201 158
191 74
84 143
308 52
169 232
271 65
296 37
86 170
133 58
240 76
80 281
141 177
131 308
263 23
314 82
65 52
203 108
107 46
86 114
66 169
204 220
127 13
49 200
245 303
266 253
19 142
218 256
222 275
282 255
313 218
202 74
282 98
82 86
107 69
288 241
9 225
223 301
241 105
142 291
223 43
289 231
60 185
22 223
239 167
55 17
69 191
92 9
310 224
233 51
123 49
227 63
160 104
313 191
227 184
133 104
207 44
131 70
277 276
292 94
209 59
34 63
2 203
129 141
210 163
168 34
177 192
209 31
5 222
94 162
87 142
11 150
70 305
241 249
64 193
182 214
177 311
147 315
239 278
64 215
36 200
274 57
93 40
109 108
194 188
189 111
139 244
185 177
102 275
129 168
3 39
44 290
7 28
268 235
171 166
189 170
264 288
210 34
78 14
46 259
21 22
21 90
249 27
67 221
290 154
139 91
314 218
98 166
209 225
267 244
124 162
262 165
263 266
297 237
19 129
29 219
147 278
47 241
263 64
38 34
130 63
240 112
140 210
15 139
77 81
316 164
262 158
103 136
198 57
30 200
220 188
46 159
15 111
163 39
103 215
111 191
163 140
287 113
194 133
122 129
22 74
179 130
22 24
71 48
42 98
294 50
283 86
259 69
202 67
276 63
59 292
311 14
166 154
87 314
202 23
222 7
181 265
126 101
91 169
194 241
302 223
144 190
75 188
316 77
253 174
305 261
208 250
138 256
279 96
150 85
81 185
175 140
82 205
133 89
121 293
27 189
226 196
253 136
239 91
138 276
280 105
293 116
147 282
303 114
246 52
148 56
170 253
99 225
312 190
282 65
49 122
123 132
256 47
106 259
235 26
155 176
98 243
66 34
255 201
200 316
209 84
186 46
197 193
51 190
104 215
170 132
136 271
142 283
136 193
139 233
8 267
172 18
207 89
313 73
46 77
257 216
226 43
41 48
208 315
194 114
278 132
160 78
160 313
141 226
84 136
30 173
215 253
274 148
133 141
264 168
27 180
21 11
249 148
138 44
3 161
82 264
141 86
182 287
31 117
181 201
288 69
20 249
82 194
4 34
75 257
37 264
277 127
46 177
283 16
136 132
28 284
201 75
108 55
313 76
112 252
115 76
156 100
87 11
115 87
59 108
131 15
103 266
312 299
277 235
105 293
158 137
79 70
101 118
121 81
105 182
286 309
276 174
53 245
292 78
235 255
3 157
268 226
70 71
198 115
193 180
206 204
152 130
217 2
288 216
158 112
89 188
280 194
175 6
271 277
152 115
198 89
12 100
228 192
13 296
257 47
198 126
227 12
171 61
136 194
291 29
231 1
92 118
224 159
314 191
7 238
82 71
245 263
271 86
181 70
270 38
244 234
245 294
247 112
24 74
4 116
6 243
60 198
20 200
307 302
60 251
284 152
197 186
294 111
154 44
116 23
19 73
161 133
34 298
172 305
5 218
241 111
224 49
18 151
204 246
30 163
176 275
232 150
103 70
164 6
231 28
91 83
269 62
228 305
83 228
314 296
302 129
161 180
249 93
57 237
304 123
308 44
56 47
221 257
205 134
255 103
50 38
164 75
115 122
147 12
202 228
275 48
180 73
136 151
169 303
103 264
261 24
28 22
77 56
301 37
198 148
66 74
180 207
299 32
238 22
286 152
34 184
37 200
63 209
82 246
184 293
33 221
288 3
187 253
282 235
37 288
277 262
290 220
112 289
227 202
125 214
145 77
177 251
263 307
166 19
70 115
109 125
209 80
107 155
138 53
257 36
141 215
34 109
101 237
197 168
192 265
238 23
201 294
65 303
221 61
60 225
151 256
108 256
275 164
203 272
226 221
185 93
45 15
252 12
278 119
286 265
179 152
255 280
279 28
117 49
15 248
81 157
165 135
145 316
280 214
118 57
75 220
235 98
202 119
37 94
58 69
202 105
70 132
172 108
281 91
284 290
190 281
307 224
301 313
81 46
53 12
106 104
147 98
304 205
86 122
122 58
84 65
24 137
177 123
120 81
210 65
265 230
189 235
66 20
36 303
140 29
161 275
305 71
196 128
155 57
156 117
213 90
164 116
155 256
144 269
272 117
265 110
263 141
309 109
243 180
140 77
80 101
26 3
82 202
249 235
252 47
171 232
46 225
202 81
222 224
275 131
37 161
309 264
282 71
249 38
248 304
205 209
226 263
127 220
305 192
310 152
297 116
151 135
278 314
105 78
135 236
71 198
257 291
279 286
203 49
274 20
230 79
194 264
151 259
60 93
63 184
116 95
44 61
58 36
153 212
62 117
83 141
246 188
208 223
159 313
22 216
177 49
226 142
134 125
149 128
279 289
149 150
141 11
254 167
50 251
5 307
180 218
204 52
309 136
43 27
286 66
139 60
6 4
115 226
208 21
176 5
4 163
301 97
315 74
199 78
164 286
165 11
198 285
133 41
280 305
247 213
294 131
308 305
108 38
188 207
58 178
113 177
288 36
83 299
172 148
172 192
140 102
34 40
86 308
231 286
187 66
159 92
233 280
187 128
210 145
117 304
236 58
17 315
57 250
55 3
98 262
129 164
150 5
166 188
144 93
61 308
58 226
107 194
194 58
56 88
162 132
40 163
230 207
245 198
13 165
103 47
225 299
155 208
154 202
90 52
133 307
246 220
227 98
144 293
151 28
47 138
275 158
9 137
129 192
168 218
159 37
2 297
187 259
289 35
250 262
266 240
54 181
249 227
241 94
167 138
266 215
55 74
185 210
40 15
197 238
172 110
30 109
23 209
291 205
111 293
298 251
284 307
173 299
77 159
305 75
12 268
227 52
243 118
128 87
112 154
197 194
284 236
205 60
199 209
43 1
44 265
77 9
191 112
305 137
234 101
65 124
306 301
80 242
106 224
259 226
216 225
298 299
266 276
175 102
243 167
250 43
133 35
142 147
72 221
44 307
118 167
313 172
226 35
215 11
106 230
53 307
306 153
128 252
162 158
220 250
213 220
253 256
116 12
239 57
288 48
55 228
178 87
139 149
243 124
43 135
268 151
41 184
289 75
79 1
257 210
239 45
275 54
136 252
299 118
81 304
76 87
137 279
108 167
87 187
85 125
106 222
216 131
152 7
291 183
219 305
92 295
201 23
47 170
301 82
180 164
154 266
191 263
20 224
222 150
181 149
203 30
174 296
176 81
179 180
21 223
45 96
215 256
252 191
262 18
36 158
152 243
302 256
37 54
106 97
8 232
139 270
118 199
74 176
190 91
143 92
128 268
269 111
211 212
54 132
137 153
119 185
260 305
150 224
167 235
131 293
119 235
85 157
222 11
57 196
158 9
29 173
310 222
155 129
253 103
238 262
269 80
188 172
181 241
129 91
21 268
299 281
11 180
9 227
134 101
177 127
184 55
258 19
233 167
196 151
284 48
51 217
72 296
206 58
28 174
166 295
222 88
238 231
25 34
213 19
199 294
163 282
166 92
250 21
298 2
166 44
303 271
302 215
314 141
245 8
207 70
44 263
300 183
125 229
115 24
306 15
296 150
288 201
316 286
56 103
209 310
50 105
234 274
51 163
189 275
127 128
129 103
35 284
64 47
18 130
294 128
153 175
230 247
268 22
197 230
81 86
133 69
185 165
259 238
188 44
232 196
23 128
76 224
28 13
180 160
112 143
185 311
79 31
98 218
34 6
5 94
226 13
103 45
56 266
57 11
58 73
300 239
181 291
309 201
172 73
255 253
283 187
298 285
105 8
216 232
228 315
197 154
231 7
177 6
45 9
115 294
152 54
228 41
130 236
158 98
265 72
69 263
211 102
36 252
32 157
210 273
135 296
26 113
292 267
199 175
82 263
35 151
309 14
56 57
102 53
185 75
137 176
288 181
138 261
284 130
119 82
250 179
84 119
74 48
58 148
219 248
154 206
13 259
71 249
181 302
76 172
11 178
296 307
142 83
172 314
289 262
214 46
177 160
314 58
160 178
191 249
192 286
202 60
250 313
312 293
2 117
187 314
107 54
97 232
307 201
212 176
94 66
60 162
295 308
3 167
116 51
152 151
65 215
225 311
177 77
28 135
88 54
279 71
23 106
105 164
192 235
261 9
84 255
12 239
153 91
293 29
310 303
274 153
112 90
282 155
236 165
102 80
130 170
86 191
184 313
152 18
210 218
162 167
248 42
235 11
81 85
132 57
44 92
201 127
249 57
53 235
141 9
250 178
213 44
31 253
138 107
273 55
309 23
7 255
111 308
207 19
130 28
55 80
51 312
76 27
91 248
46 306
166 89
92 171
123 20
129 48
138 277
261 169
273 183
314 224
294 57
70 84
132 302
90 18
42 163
169 187
166 284
80 214
43 13
306 145
2 40
246 89
135 1
185 255
148 270
152 138
37 201
316 46
316 79
4 17
295 224
71 69
208 28
49 281
95 273
269 107
45 218
207 33
78 307
263 49
303 48
136 118
21 194
31 311
93 158
198 239
192 163
195 100
176 77
19 188
162 278
248 10
220 265
122 215
141 17
103 286
197 56
7 13
42 126
148 12
168 275
159 115
241 167
95 269
233 210
83 46
228 283
275 87
286 200
228 194
114 45
58 266
127 209
59 212
55 6
152 230
26 134
308 58
127 125
246 143
222 73
167 46
162 276
300 236
96 158
58 188
49 185
17 126
70 53
295 246
139 273
227 72
264 23
119 243
261 20
204 247
279 134
88 60
157 68
15 315
224 73
156 280
159 289
291 162
284 22
103 140
189 98
127 20
293 269
86 302
205 248
112 303
278 27
229 99
300 77
277 206
151 172
295 220
145 189
126 31
207 67
276 77
133 241
206 246
246 232
180 21
37 74
95 49
230 289
288 124
269 212
113 59
119 209
273 298
204 171
273 30
284 259
290 188
4 3
117 125
82 241
119 212
263 314
101 68
93 228
137 17
116 83
44 49
235 316
177 303
104 150
138 252
120 242
196 98
38 245
164 23
103 27
305 232
282 129
239 13
109 211
11 69
52 72
221 256
249 176
242 300
152 258
173 53
236 152
93 167
192 105
257 275
111 286
278 197
259 35
274 294
172 187
191 194
208 238
142 309
181 86
33 204
283 122
291 60
36 94
13 216
171 275
284 60
16 123
169 94
83 292
194 41
302 228
142 134
281 233
13 21
277 240
236 250
164 108
85 237
152 216
1 247
289 166
44 204
224 64
22 262
37 86
123 176
269 203
105 227
168 245
34 263
258 207
280 210
95 55
91 163
185 128
92 271
245 12
133 23
122 9
257 169
313 255
81 225
300 137
70 264
120 74
306 234
210 155
101 278
137 167
53 96
295 112
122 246
186 300
257 303
175 145
266 71
117 292
245 181
239 63
87 5
143 204
286 212
75 154
2 116
106 192
187 129
160 262
259 43
75 290
260 40
301 85
264 86
75 213
297 272
315 97
164 255
245 286
152 172
27 73
245 213
232 193
126 83
261 76
128 222
271 103
186 106
45 74
314 309
37 149
112 44
49 127
189 278
64 63
22 179
126 217
162 79
299 129
246 221
93 123
155 238
205 25
230 204
284 46
50 117
133 123
217 30
34 87
127 43
135 13
216 1
167 74
220 276
102 25
160 252
221 76
221 24
106 316
178 172
227 179
12 291
216 275
84 124
298 239
67 112
189 282
136 223
86 201
54 30
259 28
310 316
75 20
136 170
192 194
158 202
304 211
123 138
84 246
218 149
220 136
2 306
134 161
221 213
86 265
240 54
276 65
149 78
38 161
312 239
282 243
12 195
279 302
6 127
252 158
88 249
204 213
45 288
236 142
197 279
124 277
174 9
137 73
20 142
164 283
60 54
202 104
95 175
293 212
45 261
37 22
2 269
123 109
169 38
73 210
147 179
96 257
172 239
185 200
183 109
277 132
9 177
187 224
82 164
20 81
167 276
80 49
8 234
305 69
200 175
283 38
108 182
300 148
316 134
3 113
93 196
196 160
241 88
5 104
67 249
184 3
202 174
104 193
41 197
28 278
279 194
143 123
181 192
276 171
92 284
124 257
80 42
235 228
28 225
136 196
300 196
94 106
276 132
104 128
155 91
175 169
48 169
275 84
204 265
172 193
263 56
159 104
79 263
36 177
236 255
108 118
119 289
285 301
166 314
114 169
260 39
284 228
110 52
132 240
46 152
182 121
83 214
142 305
168 227
108 1
107 58
47 224
91 312
204 221
143 98
197 107
66 72
264 154
138 74
202 65
301 50
103 256
3 292
309 198
192 122
12 212
189 198
85 140
15 85
315 108
38 217
154 265
220 143
4 237
268 243
3 197
275 253
118 147
186 47
213 295
74 150
275 274
103 172
227 172
306 114
208 93
148 38
75 221
67 201
215 41
292 85
12 145
35 72
76 196
107 242
257 127
197 131
242 100
155 98
227 189
34 78
41 309
195 248
181 69
214 156
26 98
305 95
146 111
286 205
285 311
226 54
8 240
251 93
8 214
34 147
38 118
194 257
302 124
86 106
40 140
25 134
216 35
71 74
164 86
241 34
132 56
127 284
300 118
119 151
41 252
151 21
266 167
133 70
36 48
269 209
55 51
41 9
266 138
301 47
165 226
231 34
77 242
274 192
209 195
177 124
173 68
11 277
44 38
125 62
308 220
235 278
111 257
233 199
272 186
284 18
299 287
183 304
113 42
69 105
137 185
60 192
198 52
131 11
229 107
221 207
17 116
161 302
2 32
164 204
113 14
167 168
111 71
61 90
161 291
54 315
177 240
278 264
79 290
1 90
199 287
44 247
72 20
265 75
153 163
279 116
305 93
212 272
114 184
210 76
197 296
218 123
299 66
151 226
316 127
213 246
201 149
70 279
198 141
167 10
288 191
140 158
195 242
63 216
72 89
202 274
205 105
247 98
248 155
117 234
209 164
230 52
291 31
78 66
87 177
136 174
186 217
209 77
114 8
194 23
216 38
31 15
12 294
169 255
179 13
309 67
197 36
188 90
244 156
138 253
113 301
99 59
302 288
55 100
224 313
218 73
97 207
79 177
107 77
177 15
140 155
60 115
8 212
87 224
107 81
184 202
234 99
211 175
313 155
158 114
198 111
300 224
192 147
228 33
253 301
248 311
40 244
56 155
173 155
124 274
21 111
181 122
164 34
17 292
104 87
244 203
63 244
123 148
254 198
209 147
198 152
20 269
1 245
85 194
287 85
240 64
114 5
208 152
108 56
304 200
207 72
47 65
274 198
268 75
114 239
1 76
13 158
235 110
141 157
113 146
247 150
225 23
103 132
101 48
292 98
265 288
30 32
125 102
161 86
60 168
87 97
148 297
158 209
101 267
247 33
142 234
235 315
13 290
25 42
100 93
237 20
309 107
255 170
108 135
309 307
255 252
8 173
100 275
212 102
154 220
41 87
291 280
114 21
303 164
176 8
149 103
58 97
66 188
129 27
242 299
299 198
107 118
25 293
175 121
122 118
220 261
105 95
212 279
291 249
113 316
85 177
108 168
70 191
104 259
81 232
270 185
209 300
202 149
228 91
124 215
63 133
138 33
140 291
70 76
111 245
81 296
248 85
206 271
228 249
291 222
12 316
18 196
77 186
59 51
250 22
232 178
129 79
122 292
94 271
220 179
27 105
81 54
129 88
236 103
139 63
61 204
127 281
38 186
116 243
254 214
121 95
193 187
180 87
61 53
8 140
87 232
57 53
91 294
123 59
252 226
227 55
35 250
301 291
135 208
256 56
194 255
294 267
193 161
296 187
43 176
210 198
200 221
67 166
275 147
293 15
128 97
315 189
256 162
121 217
129 96
205 129
75 1
296 5
187 73
271 87
207 61
87 9
97 313
60 220
282 88
187 11
224 180
119 74
200 189
300 285
207 309
287 163
34 260
92 132
314 232
154 171
256 94
200 79
112 230
214 155
143 63
242 214
272 99
316 4
279 170
115 147
100 113
107 119
129 249
144 83
90 220
127 10
125 294
165 303
89 33
118 105
4 126
151 130
15 173
303 224
56 255
169 131
153 109
142 168
7 18
175 293
172 122
56 94
314 222
216 19
268 220
216 67
179 41
112 147
158 303
209 266
123 58
33 143
202 64
88 291
155 141
34 193
235 112
203 20
310 11
257 279
212 316
59 95
249 58
233 2
57 15
257 114
196 255
110 11
65 252
276 180
12 88
141 311
44 315
230 296
199 300
205 83
74 38
138 57
168 74
66 264
81 128
151 250
214 17
48 256
74 23
185 197
193 296
231 86
203 83
111 79
47 276
114 228
302 175
195 199
140 88
227 280
298 176
239 222
170 31
80 235
76 218
44 89
295 89
136 133
197 265
265 65
59 3
135 227
69 309
233 40
194 291
282 227
242 83
278 20
51 281
282 224
67 308
307 278
280 155
246 75
115 315
118 149
201 197
43 174
215 84
239 183
108 31
189 132
136 255
107 307
88 189
153 16
277 253
106 11
308 290
26 105
208 35
208 226
315 66
244 118
42 12
165 127
135 130
309 146
107 153
153 263
165 28
281 129
34 108
79 197
48 43
118 168
274 200
207 247
25 297
61 289
91 31
152 262
70 58
64 235
284 21
63 202
279 114
162 250
26 248
24 70
23 158
212 245
306 248
201 207
58 221
116 182
41 4
5 160
291 106
24 96
45 275
13 130
177 93
127 119
141 93
26 225
153 27
192 27
249 134
259 228
203 155
37 192
135 226
279 9
9 66
1 35
93 231
68 142
292 264
66 164
118 222
179 215
176 267
236 196
167 316
110 313
67 72
155 134
81 14
249 95
174 235
240 295
149 155
280 183
112 286
222 37
200 311
42 121
309 116
222 218
126 39
129 248
84 94
185 209
313 115
63 50
268 1
155 216
286 57
173 315
69 162
235 88
277 107
310 191
10 212
18 165
60 219
122 241
279 115
84 108
293 261
149 161
227 228
115 222
98 277
123 187
197 96
240 151
316 84
76 259
116 100
77 59
22 35
200 115
221 258
199 190
165 1
187 57
123 108
49 124
234 315
189 168
113 141
108 194
107 7
230 20
88 278
286 138
269 273
85 96
65 136
194 238
287 109
107 37
253 132
84 288
231 223
87 106
309 10
231 18
243 88
80 16
192 246
84 170
306 80
131 279
102 280
158 292
103 278
184 243
256 174
232 160
72 154
212 191
101 4
123 200
296 160
108 232
220 171
93 109
81 272
102 158
252 151
94 152
13 268
225 8
88 44
92 238
231 43
84 295
231 227
215 112
248 283
267 123
189 124
261 257
309 134
99 292
157 299
64 209
1 22
96 36
244 146
310 264
230 243
310 82
111 223
37 252
248 278
92 192
104 296
257 63
309 216
265 67
186 54
126 233
292 4
227 1
8 38
188 48
69 86
197 48
114 197
142 78
94 286
46 71
163 237
309 176
108 262
153 209
46 1
167 272
79 235
174 70
279 119
111 220
264 191
116 120
47 291
59 126
135 262
267 212
129 161
243 168
105 248
11 296
100 273
82 303
264 280
202 279
127 141
244 62
253 106
105 131
295 230
225 177
313 187
23 112
221 166
92 247
129 226
7 38
281 88
218 200
96 142
8 291
174 274
197 163
77 87
117 55
58 307
247 52
218 236
35 236
100 301
213 72
105 291
64 266
236 1
196 7
131 150
201 263
14 292
62 195
1 77
254 293
37 58
303 3
7 1
64 55
7 289
197 303
76 98
38 209
2 16
276 137
197 263
231 259
130 238
149 187
91 46
106 240
50 244
96 275
41 189
281 63
307 82
235 197
36 9
207 295
240 160
34 235
124 266
241 191
199 63
77 301
75 166
230 228
284 179
103 240
153 139
8 141
212 144
181 106
20 106
274 89
303 152
285 299
191 140
277 123
64 300
5 36
257 86
70 223
100 249
200 127
278 33
266 309
261 202
168 164
133 302
197 245
26 164
5 206
130 250
64 302
245 146
191 199
236 315
226 284
171 198
25 15
70 201
96 58
67 65
89 63
98 53
15 303
228 46
193 135
158 44
299 182
172 232
15 101
212 203
39 77
72 307
103 93
208 188
226 238
6 17
307 166
128 309
60 309
157 306
88 38
92 220
224 218
167 38
300 164
305 118
235 147
238 135
41 64
61 188
16 118
174 284
87 159
158 301
133 201
105 253
69 215
6 80
273 4
277 215
255 47
200 244
43 18
230 44
280 177
267 177
313 180
86 263
287 254
11 274
61 213
36 169
25 116
25 283
41 255
175 149
283 15
139 297
21 7
76 160
86 130
79 93
34 302
168 94
242 228
55 4
147 249
188 213
222 140
103 303
93 219
177 30
241 6
268 314
295 44
180 115
90 206
119 280
128 162
63 108
288 310
165 79
116 132
51 156
293 190
148 290
243 85
122 135
192 282
103 63
84 261
78 108
141 85
76 128
256 170
106 178
174 208
154 294
115 268
197 174
112 89
116 156
294 205
64 138
78 38
300 240
140 298
108 272
118 246
51 101
140 285
60 286
287 81
98 81
314 11
206 33
88 41
306 133
32 244
204 307
110 73
124 198
228 108
239 130
30 91
177 178
316 59
265 112
176 307
198 286
292 55
120 111
311 77
97 159
306 211
192 128
205 306
220 247
45 158
220 240
85 170
11 232
271 84
209 88
78 207
37 78
273 306
278 41
199 88
283 19
13 152
215 77
154 295
191 284
179 129
277 220
194 122
138 284
51 83
114 172
37 302
151 284
116 228
74 254
238 209
251 260
155 201
305 66
94 231
203 153
25 157
216 129
79 48
176 47
135 218
136 154
133 264
184 149
289 154
185 127
23 283
137 65
12 243
101 298
315 188
185 65
206 166
38 116
259 223
15 91
49 108
55 41
309 218
82 55
249 37
1 34
206 308
238 151
97 222
172 56
106 5
37 95
151 262
247 104
8 123
93 49
262 226
191 132
293 209
201 268
253 276
27 38
282 53
62 145
218 115
21 81
286 233
309 215
166 143
163 248
303 284
150 164
274 95
299 121
64 97
292 81
197 164
116 105
246 33
21 74
258 75
150 314
174 259
271 162
1 208
137 138
282 151
57 283
97 70
132 65
278 261
27 227
82 291
241 280
45 245
141 200
221 92
252 170
76 159
170 56
267 285
67 64
133 232
129 1
189 110
32 46
108 74
21 262
106 147
85 149
253 283
281 101
236 87
270 79
115 208
295 47
34 96
239 34
309 119
66 278
168 137
252 77
64 148
54 257
123 189
169 9
66 228
137 54
7 262
227 177
212 117
51 182
232 5
232 253
176 54
290 228
132 256
160 87
243 91
148 263
235 184
153 211
162 56
142 107
187 160
60 148
20 177
143 295
277 4
10 101
79 49
240 193
158 177
3 311
312 50
256 315
266 256
101 163
51 105
55 141
278 243
305 277
17 124
293 164
47 277
249 276
314 12
255 82
47 23
159 222
141 308
215 56
107 239
237 108
246 289
12 123
199 102
86 57
72 188
28 136
276 309
149 24
310 9
240 6
219 269
282 307
23 122
173 285
93 85
131 48
77 40
285 101
282 177
148 57
31 80
21 92
58 245
206 52
11 201
108 114
129 100
259 108
128 296
17 42
134 66
154 89
269 40
131 137
246 87
63 126
171 89
222 290
153 225
248 41
161 96
81 203
75 72
263 309
43 170
196 259
219 227
3 272
130 194
230 33
232 194
193 178
313 179
93 50
155 169
91 45
226 92
295 188
231 152
104 232
256 276
261 137
11 198
149 275
169 184
186 249
130 231
196 159
204 103
184 301
200 132
110 89
73 170
80 120
49 316
33 154
297 292
149 168
103 64
219 229
54 86
35 223
149 96
203 105
250 230
96 131
166 169
84 47
173 120
228 119
191 23
95 122
40 29
50 6
175 219
149 310
1 152
291 283
23 310
161 46
305 279
208 166
202 114
224 115
96 22
215 241
147 21
221 206
223 7
42 190
295 61
94 86
218 289
296 97
275 286
263 133
214 141
200 21
315 164
81 299
316 248
75 13
164 184
155 93
156 212
27 21
168 90
236 7
57 226
112 188
149 124
98 77
99 140
27 63
232 180
148 88
62 51
129 200
106 177
314 231
258 230
7 135
276 122
133 97
96 167
85 8
280 4
263 161
85 36
224 315
155 225
42 299
194 309
31 264
315 168
230 19
206 75
143 93
194 75
17 50
228 197
256 152
128 228
77 225
218 187
149 186
305 294
30 242
217 40
310 122
278 250
305 313
33 92
84 197
79 141
67 115
142 253
292 286
192 174
124 76
185 63
184 282
35 13
142 27
210 146
24 168
54 45
137 169
206 92
263 181
240 209
73 124
12 146
117 186
240 243
116 3
87 73
106 172
181 37
179 115
133 73
298 173
94 103
243 38
94 296
231 268
15 305
170 111
145 297
186 257
16 254
105 237
191 95
123 165
176 225
276 89
50 305
149 174
238 223
85 134
253 177
88 227
91 26
313 79
34 305
124 256
171 221
299 40
5 155
46 237
233 63
137 85
105 85
313 128
9 34
231 35
210 251
176 173
9 48
291 14
243 177
191 37
210 11
83 80
303 220
197 137
23 257
208 307
52 296
95 78
199 261
265 135
154 103
201 247
58 288
201 249
265 188
274 272
115 263
45 186
43 310
11 76
72 277
84 266
24 300
86 63
187 104
314 8
283 167
312 301
252 64
271 283
18 222
197 236
192 189
218 196
227 175
283 209
79 176
255 3
255 64
83 219
261 149
45 205
92 75
135 152
81 301
272 260
280 24
227 45
45 153
8 69
141 307
101 2
309 254
189 48
61 98
90 305
124 9
143 48
292 6
137 116
147 78
288 316
286 53
288 277
213 89
315 191
143 247
300 195
165 184
9 149
195 2
201 210
230 290
293 176
85 245
14 2
84 240
269 59
308 310
133 31
245 27
238 49
282 52
46 199
8 55
1 111
33 52
168 199
53 197
5 187
263 22
135 259
58 264
49 300
288 7
158 243
101 272
71 316
287 8
135 48
233 242
