*Vertices 541
203 "#150"
529 "#375"
135 "#283"
160 "#188"
17 "#105"
10 "#339"
95 "#521"
12 "#304"
301 "#323"
193 "#19"
88 "#515"
342 "#478"
211 "#113"
513 "#25"
78 "#96"
8 "#266"
371 "#257"
535 "#504"
55 "#3"
169 "#279"
345 "#76"
61 "#21"
406 "#234"
233 "#158"
255 "#426"
310 "#502"
158 "#140"
28 "#103"
317 "#149"
254 "#71"
419 "#196"
230 "#229"
196 "#198"
234 "#134"
449 "#403"
397 "#61"
358 "#524"
137 "#58"
142 "#331"
248 "#366"
31 "#462"
405 "#368"
92 "#294"
385 "#50"
461 "#320"
119 "#157"
284 "#162"
179 "#453"
541 "#23"
297 "#36"
431 "#62"
184 "#326"
475 "#75"
45 "#145"
357 "#219"
226 "#448"
281 "#405"
481 "#147"
526 "#477"
188 "#503"
258 "#278"
26 "#517"
102 "#438"
153 "#4"
278 "#182"
175 "#314"
375 "#216"
93 "#421"
261 "#176"
510 "#212"
99 "#311"
168 "#271"
454 "#439"
227 "#392"
40 "#386"
214 "#95"
128 "#237"
143 "#243"
457 "#138"
68 "#499"
509 "#415"
391 "#256"
201 "#528"
525 "#436"
113 "#296"
97 "#84"
117 "#508"
524 "#479"
30 "#24"
448 "#329"
409 "#116"
467 "#334"
332 "#194"
433 "#197"
415 "#529"
144 "#416"
66 "#389"
417 "#282"
22 "#108"
212 "#60"
495 "#45"
231 "#240"
36 "#428"
250 "#372"
437 "#371"
105 "#390"
418 "#315"
422 "#495"
325 "#169"
52 "#533"
114 "#413"
323 "#481"
348 "#284"
245 "#324"
393 "#130"
32 "#93"
380 "#99"
60 "#450"
86 "#532"
106 "#56"
500 "#336"
438 "#540"
194 "#100"
420 "#289"
485 "#54"
441 "#265"
450 "#70"
445 "#166"
133 "#312"
141 "#497"
443 "#213"
434 "#512"
262 "#15"
362 "#5"
359 "#399"
365 "#224"
407 "#420"
403 "#444"
35 "#262"
488 "#144"
7 "#522"
320 "#26"
121 "#131"
11 "#466"
453 "#16"
148 "#101"
240 "#527"
484 "#387"
446 "#137"
263 "#148"
528 "#464"
326 "#184"
3 "#193"
531 "#118"
366 "#328"
497 "#427"
472 "#120"
396 "#151"
242 "#152"
411 "#261"
499 "#381"
490 "#496"
474 "#115"
282 "#300"
38 "#473"
295 "#94"
428 "#167"
171 "#435"
517 "#165"
341 "#393"
225 "#367"
349 "#333"
369 "#535"
311 "#38"
170 "#20"
33 "#238"
523 "#29"
334 "#475"
87 "#516"
118 "#455"
151 "#51"
216 "#362"
9 "#230"
219 "#394"
15 "#353"
27 "#317"
416 "#327"
103 "#419"
270 "#6"
482 "#18"
19 "#55"
243 "#114"
249 "#187"
430 "#299"
229 "#463"
85 "#330"
489 "#309"
455 "#505"
377 "#376"
273 "#480"
130 "#397"
125 "#122"
75 "#104"
532 "#340"
322 "#254"
447 "#87"
514 "#0"
104 "#402"
423 "#295"
335 "#52"
287 "#474"
477 "#322"
468 "#354"
337 "#369"
80 "#210"
112 "#233"
478 "#119"
204 "#72"
539 "#401"
21 "#49"
404 "#400"
51 "#85"
399 "#222"
180 "#242"
398 "#1"
23 "#335"
426 "#11"
218 "#34"
73 "#468"
327 "#65"
522 "#253"
18 "#425"
435 "#431"
466 "#192"
189 "#364"
139 "#161"
59 "#32"
408 "#177"
210 "#191"
498 "#293"
162 "#442"
356 "#483"
515 "#163"
156 "#288"
94 "#347"
390 "#408"
306 "#476"
486 "#377"
155 "#249"
48 "#102"
111 "#179"
152 "#465"
24 "#355"
138 "#133"
207 "#154"
20 "#80"
344 "#228"
199 "#417"
394 "#379"
275 "#452"
294 "#305"
101 "#146"
286 "#189"
116 "#270"
387 "#252"
252 "#281"
347 "#407"
400 "#245"
77 "#280"
429 "#88"
47 "#297"
192 "#170"
280 "#457"
367 "#467"
432 "#410"
479 "#349"
452 "#456"
108 "#77"
503 "#44"
298 "#490"
518 "#106"
238 "#363"
462 "#472"
374 "#48"
213 "#458"
373 "#321"
82 "#447"
329 "#446"
176 "#174"
39 "#91"
370 "#63"
34 "#276"
439 "#190"
496 "#246"
123 "#310"
5 "#370"
157 "#487"
516 "#274"
487 "#153"
221 "#156"
41 "#8"
256 "#356"
235 "#507"
519 "#215"
464 "#235"
299 "#409"
336 "#344"
388 "#351"
465 "#90"
6 "#302"
491 "#319"
122 "#9"
410 "#46"
309 "#461"
533 "#290"
483 "#73"
232 "#411"
538 "#423"
14 "#404"
300 "#41"
206 "#206"
174 "#301"
81 "#67"
343 "#437"
471 "#298"
321 "#143"
389 "#126"
42 "#244"
185 "#173"
361 "#132"
164 "#398"
383 "#199"
346 "#449"
395 "#482"
165 "#422"
456 "#526"
129 "#484"
506 "#12"
69 "#135"
378 "#39"
239 "#337"
451 "#79"
2 "#247"
354 "#443"
215 "#186"
292 "#272"
173 "#236"
64 "#454"
505 "#123"
163 "#500"
224 "#81"
277 "#373"
316 "#530"
147 "#412"
91 "#429"
146 "#341"
530 "#488"
145 "#221"
274 "#511"
83 "#241"
269 "#514"
521 "#13"
504 "#57"
71 "#160"
427 "#277"
382 "#388"
291 "#352"
476 "#214"
351 "#260"
285 "#171"
480 "#519"
178 "#7"
190 "#510"
494 "#382"
62 "#248"
424 "#53"
49 "#109"
318 "#360"
534 "#30"
182 "#506"
126 "#139"
208 "#92"
67 "#155"
1 "#86"
209 "#259"
308 "#239"
339 "#136"
198 "#183"
470 "#180"
29 "#107"
319 "#307"
107 "#47"
520 "#291"
167 "#211"
115 "#195"
98 "#69"
350 "#110"
340 "#121"
150 "#205"
333 "#168"
392 "#518"
355 "#78"
251 "#359"
402 "#89"
290 "#346"
511 "#460"
266 "#303"
90 "#218"
296 "#226"
289 "#441"
363 "#539"
507 "#531"
537 "#2"
131 "#374"
44 "#255"
267 "#430"
384 "#68"
276 "#342"
381 "#520"
307 "#267"
376 "#203"
442 "#440"
265 "#471"
401 "#345"
315 "#378"
72 "#361"
412 "#470"
109 "#513"
303 "#10"
100 "#273"
241 "#98"
37 "#383"
205 "#127"
502 "#287"
253 "#125"
54 "#498"
302 "#42"
293 "#316"
257 "#523"
460 "#28"
459 "#83"
264 "#223"
195 "#332"
74 "#185"
259 "#201"
440 "#292"
501 "#469"
512 "#269"
220 "#434"
236 "#112"
53 "#225"
247 "#494"
493 "#97"
127 "#489"
181 "#258"
134 "#424"
244 "#200"
237 "#414"
191 "#124"
228 "#59"
76 "#385"
305 "#111"
469 "#202"
527 "#66"
140 "#178"
110 "#250"
120 "#141"
70 "#142"
444 "#175"
283 "#268"
63 "#534"
154 "#432"
56 "#208"
161 "#384"
353 "#207"
421 "#220"
124 "#129"
46 "#17"
360 "#365"
96 "#43"
272 "#264"
149 "#459"
312 "#306"
425 "#418"
43 "#406"
187 "#358"
338 "#318"
13 "#31"
16 "#445"
331 "#350"
57 "#64"
222 "#209"
386 "#525"
58 "#37"
304 "#33"
186 "#231"
183 "#35"
84 "#40"
413 "#492"
372 "#164"
223 "#357"
352 "#501"
217 "#509"
136 "#275"
279 "#396"
288 "#395"
368 "#348"
364 "#117"
197 "#433"
473 "#491"
79 "#204"
458 "#537"
314 "#128"
271 "#451"
414 "#82"
328 "#313"
246 "#181"
313 "#263"
268 "#14"
89 "#172"
4 "#538"
324 "#217"
508 "#27"
260 "#227"
379 "#493"
202 "#232"
50 "#308"
172 "#159"
330 "#285"
200 "#325"
159 "#391"
132 "#251"
463 "#74"
540 "#338"
25 "#380"
166 "#536"
436 "#485"
177 "#343"
65 "#486"
492 "#22"
536 "#286"
*Edges
95 247
11 453
353 375
105 40
90 392
484 25
483 78
67 233
365 104
111 196
481 7
173 406
326 278
183 467
181 272
193 31
106 97
3 210
126 427
239 225
65 439
541 488
379 141
332 112
478 120
2 278
456 52
185 464
496 143
452 528
211 46
291 24
325 498
424 48
302 30
131 227
241 361
335 391
57 521
294 51
469 325
340 171
110 310
186 180
510 234
437 85
9 453
297 402
347 160
358 63
484 337
156 341
511 346
179 129
45 359
525 462
352 310
309 356
503 89
319 184
455 4
47 536
33 308
389 199
357 48
356 421
416 491
225 388
283 320
247 235
97 460
173 339
79 272
496 308
301 279
139 49
501 64
53 372
12 448
213 60
441 142
439 120
226 273
321 383
25 55
85 477
243 327
497 518
167 300
64 153
252 330
265 127
273 356
4 247
243 42
203 101
268 236
276 532
315 52
199 16
153 472
276 409
436 412
315 326
234 347
261 474
483 373
43 368
391 44
152 64
330 487
513 211
138 193
127 526
208 406
252 502
96 125
538 379
74 403
362 372
184 59
509 245
296 264
366 142
243 132
59 536
38 157
237 110
292 116
120 481
99 477
344 523
419 332
57 363
216 24
348 226
89 483
249 79
15 239
250 76
480 163
416 477
100 283
388 286
415 63
198 118
401 339
186 35
162 299
429 24
100 411
525 37
439 323
283 220
82 298
237 171
68 352
477 328
316 190
82 346
464 511
18 407
199 162
270 410
98 270
437 359
347 435
391 116
328 133
373 366
90 453
264 173
297 313
526 226
298 152
271 11
275 31
309 342
430 300
114 442
103 91
320 393
220 509
327 478
276 463
46 196
274 381
443 238
403 373
289 354
84 335
191 92
462 334
242 159
216 36
299 171
467 368
55 58
53 357
376 419
470 140
152 246
50 388
356 511
173 89
285 177
398 45
295 158
459 451
355 105
74 399
19 506
192 228
491 489
271 342
363 257
519 17
38 227
191 75
266 151
37 404
237 91
306 179
504 445
335 541
128 180
247 190
517 333
229 265
216 304
97 241
511 271
310 217
276 177
372 428
226 152
392 7
406 421
409 231
325 139
443 102
500 103
434 220
78 374
301 477
120 246
369 490
260 230
540 148
145 328
528 502
469 252
64 65
446 494
29 50
414 153
46 55
2 231
196 96
459 488
262 203
511 38
270 504
501 306
532 348
509 347
240 386
40 484
285 89
127 356
437 404
444 159
251 318
346 265
458 141
491 448
352 141
417 176
233 194
223 157
313 317
218 191
68 310
308 231
493 513
99 376
36 43
484 250
73 265
458 413
266 312
294 344
255 347
253 125
394 139
195 495
486 159
396 138
280 524
407 47
490 456
94 251
226 265
540 150
386 473
463 137
493 401
55 4
180 252
506 339
399 290
279 63
329 53
341 349
286 214
274 141
198 494
498 12
525 18
165 267
26 438
261 531
497 16
277 357
128 98
22 260
229 179
93 165
237 199
134 91
66 305
541 13
502 261
393 99
406 202
47 502
196 172
246 215
220 36
221 514
382 271
533 261
123 375
393 69
508 123
43 214
486 539
410 303
318 110
174 169
403 162
328 489
149 226
50 301
341 206
142 256
427 169
528 129
437 486
251 1
246 185
249 61
374 202
199 6
358 68
392 201
124 131
240 190
509 239
332 450
371 283
135 63
149 462
383 419
479 100
201 86
38 273
381 456
268 333
123 448
25 337
291 225
371 357
384 516
526 157
303 151
14 131
217 422
167 514
173 260
174 28
117 480
327 523
260 464
4 54
362 533
134 538
114 291
124 339
360 501
455 479
397 514
489 195
127 334
486 105
113 258
426 463
289 197
86 386
390 134
48 288
58 158
132 168
142 132
131 378
52 28
206 385
3 249
464 361
503 517
323 488
482 463
134 237
161 529
166 68
144 299
119 14
114 497
94 55
269 482
375 519
341 84
519 479
260 513
118 346
367 38
535 240
37 449
24 293
142 352
63 269
500 293
223 256
357 380
5 404
512 522
50 300
420 139
419 130
99 195
439 327
63 86
329 356
95 182
154 10
501 82
193 218
86 379
204 17
379 88
275 60
299 93
345 146
167 211
156 401
47 498
81 153
3 224
20 151
338 200
387 369
286 491
500 223
383 115
178 325
504 191
160 215
36 313
358 247
383 296
540 368
126 187
249 175
320 48
218 253
200 266
47 218
487 396
398 410
405 250
537 30
363 316
229 436
402 502
14 347
237 354
528 306
400 383
100 279
77 312
421 321
514 55
381 141
203 69
446 491
60 280
425 237
5 14
514 431
256 154
449 315
169 430
303 460
43 525
118 60
323 306
155 128
326 328
134 255
458 26
400 406
352 166
287 383
396 481
140 536
220 103
464 223
452 38
423 135
341 136
336 225
143 428
117 363
527 439
130 164
79 426
384 478
497 197
357 353
375 340
519 124
148 90
307 341
464 207
94 437
325 515
332 432
301 97
44 512
127 86
382 421
57 286
489 292
108 200
143 112
437 400
478 2
525 102
221 69
152 334
31 299
235 456
207 71
103 343
458 7
161 40
171 27
12 522
26 379
255 377
321 137
93 442
419 92
336 161
297 411
75 467
455 163
194 78
388 146
109 163
171 158
455 54
137 493
12 38
490 54
25 219
292 421
500 177
136 195
371 410
415 201
260 371
113 394
97 61
141 392
248 225
309 271
90 1
476 503
529 219
334 329
496 481
157 436
78 344
214 487
40 382
309 60
218 431
42 144
287 526
517 203
294 319
522 260
198 177
143 279
421 264
165 154
442 488
108 371
261 3
64 31
83 446
386 52
390 165
324 227
18 416
394 227
168 411
484 14
509 93
89 125
131 499
60 334
67 429
442 18
135 174
128 398
10 336
191 389
275 452
25 66
248 115
282 113
454 178
191 50
318 186
501 226
424 335
16 36
349 491
418 239
414 68
197 198
523 303
274 7
353 264
28 9
138 322
77 348
391 148
455 141
158 388
515 140
100 494
358 364
37 250
420 136
273 149
142 373
223 216
113 92
354 36
318 276
267 538
133 78
31 229
80 353
334 226
358 95
247 26
215 47
349 319
403 165
467 483
536 20
227 130
230 241
235 535
379 358
197 102
154 299
255 93
316 369
87 386
165 210
7 141
213 64
125 211
230 418
105 37
365 264
163 386
15 532
503 431
60 157
346 329
456 188
143 123
470 246
419 437
499 279
457 243
393 67
480 86
518 326
412 265
187 373
178 304
16 289
286 439
512 391
189 146
151 503
212 475
334 511
486 133
351 460
497 38
332 324
453 428
501 323
320 236
529 55
350 399
455 438
121 402
219 22
26 240
261 536
254 274
181 418
391 164
277 176
444 39
374 116
162 347
151 228
225 361
185 360
233 172
314 205
276 467
460 23
323 152
166 386
147 289
452 357
86 473
528 380
128 254
238 479
3 181
98 362
58 327
271 334
26 530
345 75
469 324
118 64
214 184
255 354
176 362
271 129
64 346
494 219
17 73
244 112
318 500
301 293
188 325
297 122
371 25
522 391
132 531
347 197
288 277
71 333
316 247
437 277
158 278
444 290
403 234
451 355
263 396
288 5
236 8
346 39
34 107
447 444
541 254
371 139
510 496
345 333
454 43
134 199
194 380
91 509
451 314
497 289
413 314
201 316
523 228
245 496
68 326
514 472
23 55
42 62
125 235
52 86
246 364
48 212
74 90
148 389
288 315
508 69
122 12
455 358
274 54
309 334
423 30
63 95
214 357
92 156
422 456
125 106
52 473
286 210
432 165
470 261
210 477
239 256
245 83
480 413
17 528
244 249
494 279
83 277
429 406
74 261
525 190
356 280
197 435
405 499
448 144
183 121
215 147
319 99
292 215
250 220
399 3
459 371
323 73
429 39
28 533
149 342
81 173
23 326
210 439
150 218
137 474
137 2
495 496
259 150
255 18
235 166
418 178
296 153
540 21
152 213
377 130
51 529
516 19
75 399
242 51
52 95
406 518
535 490
327 237
356 71
447 191
274 62
209 469
115 213
492 212
158 120
213 287
29 379
213 298
483 67
4 182
136 475
159 306
277 539
94 2
126 257
179 38
95 480
238 251
392 540
4 274
262 200
237 9
286 512
242 45
267 162
98 193
104 377
406 430
317 383
63 386
69 234
94 185
541 306
283 442
364 389
5 377
250 122
44 132
145 463
336 23
473 122
109 282
370 343
315 337
86 402
287 157
54 392
302 337
19 187
284 522
477 50
288 446
234 264
444 408
34 90
72 62
16 90
329 287
392 117
166 190
148 270
381 536
456 358
98 124
517 254
424 106
160 170
395 129
311 253
277 341
91 297
232 281
81 119
104 161
348 502
505 389
74 412
235 420
98 426
46 233
70 101
458 63
209 371
190 141
68 247
174 387
379 422
456 473
476 167
125 514
490 197
452 27
176 504
248 37
309 511
434 535
45 476
14 405
144 390
194 253
176 111
145 353
143 5
15 187
123 12
491 294
276 299
41 121
265 316
269 343
93 197
41 174
501 472
460 107
232 43
146 318
313 110
304 268
314 121
85 232
344 92
427 378
503 261
410 476
147 538
370 362
461 373
399 409
234 70
13 180
424 364
17 75
92 508
148 396
463 433
262 425
382 164
330 502
115 30
399 57
34 6
224 389
209 313
301 338
452 436
84 55
183 300
284 435
437 161
281 204
402 284
221 465
201 358
138 234
271 395
360 368
351 294
459 205
245 244
119 25
463 402
510 397
367 149
35 210
358 240
204 235
75 331
400 510
340 410
26 257
89 209
259 355
292 209
306 229
39 333
148 62
15 368
502 34
163 352
89 397
433 439
464 398
411 466
492 228
379 166
48 300
8 516
24 202
527 378
416 366
80 365
264 125
111 478
13 182
391 516
380 103
381 369
264 159
199 435
454 232
227 486
195 293
169 425
329 263
520 156
17 211
397 268
199 497
29 238
25 437
166 507
240 87
486 78
458 490
147 154
519 263
103 509
449 161
383 332
353 476
174 520
196 378
265 179
25 341
229 11
182 246
228 297
539 104
240 352
135 368
455 217
36 299
537 171
110 443
420 39
503 84
419 160
53 278
519 239
334 129
460 208
278 176
18 191
273 229
395 342
418 145
99 212
15 34
199 94
456 141
222 45
420 427
525 421
75 516
251 479
396 242
287 511
468 343
536 420
459 168
309 138
320 303
30 199
49 162
59 360
400 466
8 399
78 465
36 199
428 284
64 375
14 382
325 471
470 370
58 42
538 405
386 217
109 490
441 393
156 136
494 111
413 95
79 41
164 103
279 539
525 103
294 378
16 197
80 167
365 252
353 106
497 343
319 474
377 424
25 105
69 205
504 243
160 383
367 452
144 121
33 440
360 308
234 225
413 163
217 438
480 88
149 213
120 119
462 342
403 442
278 18
429 22
213 524
8 272
158 491
202 35
358 7
517 428
360 318
136 472
237 36
257 109
287 280
24 223
363 52
239 336
285 505
80 254
334 526
313 35
422 4
278 249
150 40
42 81
391 35
490 240
162 154
509 390
146 6
354 93
527 375
153 45
110 375
231 242
78 123
70 248
147 432
386 54
78 60
281 199
152 229
387 112
217 240
373 293
291 10
184 251
54 190
274 392
338 491
39 58
463 513
472 372
485 311
322 391
336 368
236 202
341 105
336 540
370 233
447 503
327 374
203 537
530 60
235 370
311 78
527 431
226 271
247 413
289 302
24 146
473 239
540 248
219 396
280 38
528 275
93 347
452 334
515 304
514 204
192 372
53 402
316 422
375 59
521 173
110 6
472 360
484 306
120 317
201 87
267 114
297 356
198 375
155 9
90 259
4 141
55 327
251 216
234 515
88 490
456 352
376 55
349 290
504 374
383 209
379 455
55 385
372 269
430 489
458 480
186 409
248 336
217 434
79 196
96 498
72 276
18 476
284 331
82 152
402 256
200 433
93 16
72 497
478 361
327 378
369 480
160 378
95 68
339 223
295 537
293 146
418 366
405 356
209 387
519 56
301 195
178 380
2 167
27 57
426 372
37 288
312 119
375 417
88 63
422 86
147 403
86 247
37 25
393 126
382 227
188 458
538 93
390 307
401 276
184 448
502 169
458 269
256 116
529 164
64 73
414 292
216 502
216 331
375 322
309 64
340 416
64 287
315 25
307 8
455 310
21 204
515 174
84 170
2 202
259 474
114 347
211 266
305 98
348 6
267 497
193 104
463 451
483 510
147 171
536 340
469 96
251 37
389 402
127 152
162 319
213 157
222 58
418 27
294 246
524 152
98 243
71 45
217 163
90 399
201 4
487 380
310 425
70 488
203 215
347 323
196 20
300 78
37 533
473 63
216 469
281 378
159 484
128 342
15 24
395 524
115 414
479 398
433 487
166 141
426 398
176 444
114 357
56 461
482 35
201 208
293 312
218 292
353 236
67 122
425 43
319 518
57 193
465 493
374 57
191 312
106 399
123 293
269 163
440 258
108 414
45 387
109 141
8 327
256 373
377 529
10 448
164 500
371 17
221 172
206 218
38 501
9 173
364 393
173 96
241 475
157 239
20 150
400 103
360 532
405 366
343 299
209 82
57 22
493 70
176 338
26 422
244 102
335 228
498 258
494 340
446 372
361 56
87 68
202 304
402 9
444 505
387 399
65 298
446 97
226 436
368 468
223 72
541 480
249 494
154 343
374 505
285 140
275 229
330 27
142 400
438 386
422 7
362 223
148 295
366 266
1 129
66 159
510 288
196 489
68 379
292 205
184 145
63 434
3 150
189 9
363 358
150 79
381 201
51 236
411 283
435 403
375 80
239 257
189 169
12 99
283 249
311 377
334 23
97 98
88 190
371 492
188 369
109 438
164 405
383 85
200 431
22 168
20 339
1 67
516 35
284 221
423 498
393 215
421 114
394 299
421 399
119 39
268 264
499 83
63 166
481 300
486 2
197 232
173 79
295 238
64 82
450 514
533 47
131 341
109 201
20 223
152 329
210 411
474 270
496 42
477 503
330 392
134 232
263 487
122 244
233 140
158 101
462 524
377 499
458 87
155 492
21 75
445 139
173 414
298 61
241 325
87 86
264 1
361 338
317 234
471 84
182 64
236 108
499 486
25 186
452 129
278 246
38 513
187 74
408 420
103 299
331 50
317 223
169 172
496 128
354 220
255 299
93 289
452 127
212 120
441 516
481 286
266 418
184 217
232 199
227 36
263 120
432 162
94 24
227 341
520 236
8 428
306 298
493 503
405 341
363 26
129 356
158 425
267 442
108 524
329 280
521 539
525 494
201 413
9 472
473 166
368 375
139 340
311 61
154 509
223 378
520 461
310 163
32 170
102 343
10 50
392 507
72 360
352 392
192 37
167 424
305 148
305 268
442 91
518 30
390 381
492 126
290 177
471 536
462 452
251 142
85 32
8 441
493 178
410 230
96 3
303 56
80 215
506 423
456 434
218 306
536 440
330 77
288 337
534 333
4 166
315 131
70 222
305 149
520 380
423 453
242 62
237 267
110 35
253 391
25 159
303 49
210 246
398 268
377 288
524 329
473 246
320 3
376 410
25 164
460 459
466 505
325 170
433 3
512 322
287 129
497 444
334 323
160 115
479 461
76 449
51 348
325 517
351 283
309 323
242 89
377 133
286 469
536 303
521 333
47 268
62 344
86 381
26 456
56 324
262 194
354 299
360 254
10 444
190 422
384 512
480 422
167 48
237 403
488 22
188 235
214 380
288 437
165 134
376 72
151 513
418 195
77 370
416 454
512 168
366 85
375 191
328 85
377 21
479 508
157 11
441 124
321 481
168 35
129 60
43 347
423 431
359 315
315 51
401 531
432 425
366 491
510 357
406 133
44 8
67 119
441 278
351 8
208 120
188 473
268 75
212 30
499 250
521 176
350 467
258 282
50 99
296 519
332 20
69 339
247 7
204 460
2 114
410 55
319 461
70 92
22 483
528 138
135 533
288 250
520 81
471 459
422 269
302 374
320 181
327 413
486 190
333 320
473 140
32 268
440 520
243 108
342 38
34 28
67 30
12 50
34 138
319 477
71 515
78 241
387 322
477 361
356 412
139 333
324 132
413 240
518 199
147 393
432 454
31 412
46 59
235 117
420 135
457 39
9 464
279 288
295 495
456 269
474 228
179 530
338 100
160 51
253 104
3 332
411 110
214 533
1 12
195 497
102 497
217 413
356 157
432 280
12 485
178 397
87 310
337 2
312 307
439 220
511 530
509 538
509 255
374 215
30 471
339 295
220 171
109 316
460 531
19 183
83 9
87 520
314 488
53 322
271 291
201 235
528 31
52 369
339 498
304 398
357 167
231 42
127 404
373 416
295 116
439 512
280 342
73 60
209 193
57 384
313 162
347 403
222 115
433 529
57 159
178 327
217 480
125 454
449 484
139 172
259 76
518 350
229 412
330 96
243 364
300 383
236 198
420 90
391 230
459 243
163 469
480 392
429 144
240 54
377 494
229 476
277 25
121 477
276 189
430 136
190 507
236 211
258 417
47 45
59 175
86 269
307 368
63 456
485 125
301 332
393 77
208 330
204 143
6 279
352 507
338 312
147 232
212 12
66 40
521 244
352 87
177 189
254 326
79 300
42 155
104 512
274 413
429 200
31 157
483 414
24 368
140 360
28 119
302 409
158 194
442 347
123 538
527 444
227 377
73 118
490 52
430 113
379 217
319 144
251 484
486 309
28 176
362 125
30 106
38 216
167 353
410 173
428 76
127 295
331 187
454 497
338 437
214 96
496 202
104 499
483 46
200 195
194 49
48 466
184 17
488 397
130 303
430 6
215 496
251 24
130 394
324 306
500 15
308 400
187 290
419 384
120 216
407 102
179 526
359 337
506 372
137 202
498 471
541 72
266 491
356 528
94 388
352 217
465 46
104 164
56 510
536 208
228 361
505 30
370 387
115 96
262 472
236 160
226 446
397 485
179 157
126 467
206 144
352 422
386 413
252 227
135 268
406 482
420 401
540 187
480 166
417 391
491 5
401 479
38 462
43 435
18 461
380 121
504 322
54 369
119 50
11 436
453 321
162 96
510 305
40 331
142 231
249 380
48 120
173 33
522 292
363 4
248 135
261 143
226 171
146 368
103 403
311 510
38 311
416 32
122 431
310 86
108 244
179 505
277 37
468 276
139 244
435 103
308 62
213 275
116 441
31 436
149 152
444 318
94 217
363 458
20 204
391 291
146 56
329 526
463 476
243 119
427 214
7 166
322 292
218 148
50 460
168 308
379 434
496 5
231 155
16 299
531 71
356 11
441 191
300 533
33 317
10 468
344 400
198 240
69 189
57 87
27 489
92 34
353 41
295 504
141 480
479 187
3 79
464 224
296 308
424 378
299 403
281 16
365 291
406 150
294 373
376 113
483 224
299 497
9 260
259 196
379 363
156 303
73 346
92 174
192 483
58 108
177 105
541 191
366 489
284 443
217 117
485 13
318 123
73 412
54 471
128 260
256 401
292 481
486 161
107 326
226 452
459 67
266 85
497 378
175 418
294 418
314 278
296 531
363 88
368 260
502 57
399 167
53 514
425 154
265 287
56 397
167 198
412 65
407 299
77 113
396 321
239 467
458 117
528 367
415 307
128 195
281 267
244 391
479 72
254 528
83 336
447 463
30 163
248 94
412 226
183 170
484 70
76 377
216 430
30 460
490 506
91 354
309 152
97 207
377 382
51 89
10 157
466 107
214 49
282 47
394 279
276 330
444 192
178 253
345 463
464 125
485 198
166 430
21 457
7 188
346 298
398 305
138 124
159 297
386 455
495 482
159 130
166 363
356 209
100 400
416 328
295 241
414 97
58 286
40 499
464 61
197 43
252 355
367 261
453 173
392 379
377 219
228 206
184 418
171 343
24 331
36 509
167 481
15 416
399 443
279 53
436 265
489 294
349 312
469 115
503 424
9 42
233 515
319 47
36 171
5 394
224 186
297 516
309 528
508 416
528 526
138 203
180 96
58 112
283 433
517 197
94 189
174 423
131 345
351 539
443 301
76 382
493 304
67 282
71 461
376 297
118 462
335 123
219 405
510 421
35 340
102 454
454 525
257 381
38 213
459 98
394 131
512 112
251 487
272 275
341 219
104 66
207 325
185 465
4 142
230 168
365 421
94 216
146 468
259 160
212 477
463 241
269 381
539 382
182 436
216 479
121 512
263 75
376 466
403 267
167 16
443 100
494 382
88 358
224 229
122 335
269 117
162 237
510 370
436 348
526 11
267 147
436 346
202 466
153 250
84 178
16 435
244 469
382 66
25 215
275 511
446 101
35 283
181 186
292 169
252 125
225 331
165 342
352 458
37 445
271 329
99 278
179 329
80 69
291 272
212 183
494 277
277 131
475 481
306 436
60 409
112 534
217 293
300 385
254 49
133 142
38 526
141 95
108 170
223 276
518 243
412 341
240 310
84 537
496 155
463 116
38 395
168 228
494 159
296 53
321 138
461 498
162 281
114 16
77 78
17 207
369 352
273 50
463 71
143 218
405 523
164 53
315 343
256 379
516 536
195 398
408 29
115 335
171 281
19 337
324 375
534 325
58 160
135 207
241 214
315 369
390 472
244 409
141 92
416 294
138 527
381 434
59 61
202 426
526 367
210 466
37 75
472 474
229 73
202 464
145 113
446 248
62 128
273 306
457 414
357 254
287 342
388 23
115 332
213 31
519 459
273 309
86 316
22 17
41 87
65 452
534 58
227 484
177 251
121 339
83 2
507 7
115 166
57 417
513 502
280 182
338 407
413 182
302 410
17 32
448 214
415 95
276 506
64 129
453 255
481 242
60 120
58 506
192 285
167 72
137 319
346 431
27 364
527 445
236 327
120 527
209 31
300 270
21 491
196 244
228 541
340 356
155 534
490 222
86 490
216 169
340 50
180 124
289 45
417 465
50 333
312 491
95 230
413 7
530 287
41 203
271 306
63 93
386 352
479 32
303 270
340 293
195 228
375 365
348 258
62 411
110 49
382 290
480 469
283 155
533 113
233 320
507 26
86 26
406 128
37 131
233 202
482 470
5 151
116 411
51 38
478 108
284 186
308 143
10 251
343 165
272 519
294 85
485 336
362 498
215 488
160 78
497 91
306 342
368 319
522 24
470 397
15 251
405 148
306 329
350 211
220 525
108 107
524 323
396 203
494 184
304 281
363 240
425 302
476 421
396 186
394 494
123 420
40 341
142 524
377 159
238 248
511 329
299 347
334 520
534 101
236 22
56 186
70 423
229 213
443 506
168 8
21 300
427 77
527 146
331 343
455 507
382 484
505 500
158 499
520 417
389 327
18 220
18 162
516 357
75 486
55 361
446 331
365 519
265 392
256 336
330 322
12 27
41 426
411 326
187 532
434 316
204 304
406 300
484 437
242 348
231 81
484 37
254 297
387 173
108 537
235 63
72 24
158 471
241 433
421 380
397 284
104 341
463 515
312 470
519 129
407 509
451 423
308 112
256 23
317 207
344 204
538 475
352 363
77 515
411 207
470 278
372 378
30 285
506 1
103 122
204 301
126 234
497 39
479 23
319 301
4 490
272 357
127 528
49 372
229 118
56 280
465 260
228 148
95 54
525 432
407 427
127 306
489 536
23 236
158 532
472 78
350 410
307 440
257 455
143 506
408 230
368 272
457 514
47 425
507 165
32 191
388 72
418 319
495 221
353 444
61 181
297 518
521 140
416 461
179 275
99 491
423 142
488 84
537 176
536 416
449 266
369 93
250 394
338 366
311 409
531 428
52 122
170 469
536 6
136 77
521 459
155 3
271 337
109 422
469 160
450 268
127 501
339 138
117 109
306 434
232 289
122 457
401 171
137 104
322 196
90 380
214 122
226 524
125 488
283 516
342 226
224 355
216 368
172 184
398 82
177 479
15 146
89 500
504 492
142 12
178 459
256 148
385 13
39 51
466 173
463 188
152 273
210 81
259 433
112 230
6 45
223 94
209 419
174 453
292 44
461 50
355 285
506 125
320 380
71 51
433 358
511 180
360 10
34 430
36 289
524 11
152 342
363 415
239 83
199 170
243 115
480 507
6 502
153 212
520 282
254 308
528 291
148 21
463 212
113 536
229 298
50 123
273 511
20 81
244 258
424 498
364 409
32 208
68 63
492 234
417 498
220 255
220 299
422 415
361 21
249 261
346 367
362 6
47 417
103 155
398 495
440 32
210 376
273 323
438 182
371 488
513 279
446 483
191 113
4 369
82 367
244 531
253 224
52 498
137 458
78 504
346 65
465 518
541 482
9 447
127 511
491 301
321 487
315 405
531 300
409 270
77 423
227 506
99 470
396 194
165 299
540 388
331 336
338 448
535 413
42 22
454 407
64 60
456 48
470 297
13 537
537 370
247 188
447 15
306 280
307 441
274 68
267 154
127 226
252 176
287 367
211 216
254 450
213 309
272 532
536 169
215 502
356 73
64 157
30 224
84 270
199 499
263 540
491 461
466 396
210 344
449 455
223 404
351 306
369 109
470 523
334 14
373 465
314 475
402 521
195 85
36 144
83 532
59 394
458 358
1 507
257 480
342 64
399 221
164 496
491 93
248 416
396 528
531 496
55 486
94 27
69 174
348 248
383 259
321 378
120 446
471 348
183 534
6 515
517 67
392 257
133 12
175 123
80 53
497 131
466 259
62 522
249 164
240 51
263 485
181 192
391 351
81 204
59 193
136 423
140 174
276 465
485 206
407 289
511 189
188 413
478 121
96 521
25 268
335 406
201 458
86 4
318 94
200 461
178 495
191 340
51 332
288 394
74 230
418 487
354 199
411 177
329 213
52 434
281 103
162 289
87 166
352 117
88 38
393 446
163 95
67 498
8 299
326 119
539 105
509 289
327 533
355 101
48 339
308 115
56 305
159 105
90 410
534 401
273 265
113 502
306 536
377 430
504 79
522 69
106 446
350 254
119 207
52 58
44 444
11 530
84 285
397 402
441 335
506 467
411 372
97 177
97 512
250 539
52 141
298 73
398 314
26 392
257 397
179 334
92 474
275 501
100 391
194 175
269 434
405 449
27 301
25 48
17 119
373 175
369 201
513 335
267 144
479 276
301 294
407 91
171 93
59 412
539 76
15 467
324 421
513 449
250 130
373 388
477 27
157 229
530 298
358 535
384 41
219 76
64 306
72 73
323 342
270 284
41 410
187 146
299 384
298 494
200 505
336 388
410 478
174 152
62 496
285 330
275 64
149 346
456 507
62 351
259 498
464 360
323 139
319 453
304 508
414 308
31 273
327 475
262 59
245 371
356 22
306 55
447 6
161 394
224 513
446 391
158 70
503 495
527 350
394 475
160 209
428 540
199 509
429 154
440 20
169 533
191 537
74 215
125 206
454 354
212 340
239 401
510 398
173 237
288 76
507 88
412 344
227 5
346 524
114 471
434 201
175 224
434 190
52 257
425 267
238 146
436 280
88 269
2 400
503 61
65 11
285 331
413 473
7 363
66 397
307 80
356 436
23 223
409 253
155 1
256 112
267 149
151 224
339 137
400 488
23 80
43 154
379 413
406 214
157 306
252 89
170 506
503 541
194 57
360 109
101 488
6 218
473 490
294 110
358 310
412 82
189 388
265 323
280 526
481 158
203 327
155 2
152 406
269 166
136 332
182 434
256 541
31 119
120 130
58 431
429 340
86 324
315 37
144 289
392 363
444 488
275 82
248 331
519 510
145 56
425 93
497 480
21 122
275 412
232 114
15 94
297 474
82 109
426 325
107 414
453 270
198 278
6 135
473 415
37 228
196 474
444 333
478 204
517 281
299 147
108 207
520 57
154 3
372 357
151 327
161 468
439 81
36 232
354 134
448 239
252 375
61 110
149 287
158 376
7 163
346 287
161 335
239 453
310 438
480 352
508 355
181 264
126 260
414 335
5 278
163 88
111 326
16 343
265 152
405 394
528 273
292 264
289 403
285 74
6 124
481 453
425 197
299 334
373 443
325 284
500 532
53 69
56 378
446 408
99 209
409 491
440 514
43 509
96 393
93 134
160 352
368 331
238 135
520 178
346 501
65 342
130 219
83 260
288 373
427 343
349 293
10 288
378 392
313 371
144 220
482 112
203 47
197 255
372 207
152 450
55 246
506 76
125 77
24 467
187 210
39 307
504 376
517 63
505 56
292 387
322 119
498 465
250 365
23 500
426 314
446 130
495 21
513 402
131 225
143 128
428 172
463 126
520 169
423 365
430 174
318 177
269 4
122 84
237 529
31 118
454 183
256 24
11 129
124 192
350 347
437 249
39 521
191 505
244 198
239 115
56 353
46 320
403 425
88 316
110 351
469 464
431 137
100 516
10 207
249 389
181 172
319 327
241 363
68 413
493 297
82 61
536 149
175 448
334 31
152 231
381 316
525 425
416 489
136 358
281 158
228 178
404 359
248 189
102 183
434 455
83 325
53 447
49 515
23 276
223 189
353 126
39 376
360 164
446 178
24 116
494 338
397 53
240 84
320 252
313 400
129 501
43 289
309 5
75 211
440 136
433 170
414 144
88 7
254 354
492 61
509 147
274 217
248 22
349 531
531 177
342 213
254 466
487 56
484 295
99 245
26 166
250 494
273 127
213 271
188 311
104 359
93 2
510 34
211 519
466 384
16 8
406 332
171 289
233 541
271 221
523 414
346 229
354 265
368 112
468 140
299 493
290 437
461 338
251 23
137 238
280 346
311 106
407 165
527 332
272 170
113 284
8 352
519 90
294 514
128 186
210 150
354 102
485 384
225 119
487 81
466 251
418 532
389 2
455 458
415 507
529 326
386 190
154 456
216 280
456 458
326 472
524 367
89 111
484 76
329 159
175 269
144 281
422 52
393 270
517 177
193 273
500 331
541 20
279 76
482 384
228 205
17 49
24 338
462 152
520 34
509 299
82 342
140 112
232 403
410 391
447 234
55 183
166 455
510 198
159 382
197 390
101 212
398 22
252 122
102 232
322 260
212 21
60 395
298 271
9 496
256 238
407 307
480 437
205 402
58 541
85 491
398 107
135 147
312 174
99 416
345 478
134 361
72 146
179 11
535 117
475 160
209 215
178 126
373 536
22 75
105 359
113 51
305 159
227 92
469 3
163 174
153 375
468 71
367 511
401 532
351 292
257 95
72 141
43 147
195 373
498 106
174 136
231 173
512 35
130 484
133 184
337 210
315 277
58 230
361 138
476 475
157 149
439 125
40 5
363 457
440 427
268 295
463 389
123 360
156 469
23 10
121 457
76 406
388 532
289 91
112 55
192 514
420 423
366 27
233 285
172 426
192 72
119 172
299 390
449 504
285 176
269 235
11 31
138 205
326 66
211 36
35 272
439 444
96 183
512 308
89 470
96 347
495 514
239 479
40 405
181 322
233 70
442 364
513 327
123 131
50 489
255 518
53 20
90 421
209 284
106 228
68 235
75 184
411 464
376 489
124 327
308 173
175 453
176 408
295 389
131 130
362 21
14 109
197 377
439 292
225 348
320 506
25 533
118 329
238 318
162 91
411 380
105 437
237 45
468 23
293 485
142 418
463 416
263 97
115 411
163 166
200 289
455 23
180 155
100 493
286 419
536 423
515 414
318 468
388 478
457 439
40 219
243 211
344 427
275 240
74 389
319 491
16 214
335 177
250 304
288 352
454 133
282 430
279 337
278 300
177 328
498 536
44 77
210 196
223 5
137 171
436 60
181 522
250 131
312 279
274 52
126 521
101 321
22 472
181 527
482 397
220 390
256 276
150 236
232 399
237 451
252 420
440 330
327 290
20 380
259 249
33 143
360 216
259 243
124 488
463 397
423 47
277 351
454 134
433 492
346 191
400 122
100 2
177 471
336 202
255 538
313 285
106 380
498 450
360 225
57 424
148 120
27 293
83 441
263 301
60 11
437 171
190 269
306 265
429 447
135 77
145 391
286 244
180 143
322 531
521 412
501 13
527 89
166 422
265 82
356 389
392 109
384 267
518 89
243 450
136 498
11 315
539 464
29 340
333 516
423 261
82 526
190 352
230 186
378 311
246 408
38 318
250 227
231 156
485 41
447 106
229 309
255 434
416 521
217 415
441 391
163 456
2 496
315 499
290 318
26 109
245 294
344 180
33 155
156 183
21 230
241 148
183 210
190 4
145 365
448 195
103 43
309 298
217 473
405 279
391 283
136 65
223 336
185 444
61 96
497 354
387 489
223 479
374 216
98 533
375 210
482 187
10 94
354 147
197 154
175 349
88 413
10 540
395 412
469 263
145 130
106 429
433 264
410 19
230 470
420 58
110 168
85 489
226 229
519 505
85 188
102 134
351 139
67 204
269 375
218 303
232 165
396 408
101 20
112 83
134 343
321 332
45 517
450 475
290 319
36 538
52 438
289 342
497 525
262 137
110 272
385 514
140 74
268 29
481 294
463 254
403 197
90 76
29 49
298 141
396 488
173 186
219 48
221 119
269 247
219 159
55 500
109 182
508 428
243 17
152 280
107 303
46 98
41 517
194 30
186 260
140 378
208 399
374 43
23 135
490 247
215 122
395 157
433 12
58 514
484 439
369 30
326 449
47 297
65 229
456 392
469 77
260 131
284 281
406 56
103 538
144 432
115 518
106 295
163 87
33 112
467 248
155 400
311 483
36 407
292 283
276 540
51 435
299 432
309 287
129 152
86 507
337 131
25 499
300 190
5 437
466 433
23 186
74 278
217 392
533 430
344 46
256 371
225 47
32 73
114 221
32 39
23 401
91 114
174 254
449 250
103 497
63 163
477 484
42 61
415 310
66 499
59 450
356 452
181 110
534 120
276 187
200 208
509 525
180 139
16 278
129 323
55 77
93 36
476 443
420 301
42 384
285 34
68 141
324 142
269 455
412 323
370 238
83 406
366 461
94 500
425 343
316 269
139 532
75 421
86 217
410 383
110 200
322 49
124 514
264 97
137 340
458 109
295 383
434 68
55 426
444 74
273 64
168 84
128 308
474 447
328 50
367 73
116 313
291 177
31 462
410 492
289 199
324 326
125 208
310 166
271 106
538 478
333 370
74 531
111 471
87 490
330 430
215 198
464 385
156 34
172 355
149 301
83 149
257 434
16 162
163 235
54 381
208 39
381 217
11 306
515 383
390 425
300 84
384 487
375 538
456 310
177 122
50 259
308 181
390 343
377 81
277 40
209 258
527 70
131 313
498 446
453 83
329 64
521 212
532 331
276 291
10 216
438 456
387 518
90 353
257 422
189 354
408 232
400 447
386 299
126 361
469 433
460 537
409 389
171 134
217 369
280 437
424 459
157 271
68 182
151 21
170 30
318 520
390 199
29 22
388 238
518 419
212 137
58 333
471 258
310 95
152 418
371 35
232 425
21 353
68 476
52 68
434 486
353 505
460 482
17 79
394 184
475 428
253 1
534 224
251 223
402 1
392 166
11 275
492 56
12 461
358 163
462 298
15 258
222 526
281 102
429 1
186 320
439 290
265 65
524 157
422 386
115 1
98 62
430 361
171 538
131 279
246 321
125 222
359 484
233 139
395 118
124 218
282 427
524 259
60 511
41 380
375 524
147 92
55 273
77 148
143 400
191 268
311 42
4 7
348 156
34 417
4 87
357 406
312 50
266 133
291 362
63 117
211 368
364 478
531 205
172 3
182 52
96 167
49 315
119 396
334 265
343 122
197 185
98 291
233 424
453 456
405 269
22 243
245 489
313 307
58 114
401 331
224 159
57 125
370 188
269 507
297 457
312 133
491 208
356 65
191 57
110 307
261 215
536 34
414 20
228 313
201 507
242 454
50 420
426 254
184 85
70 410
74 203
302 364
289 102
120 508
32 242
525 420
222 365
371 116
251 360
477 185
532 426
206 222
55 231
101 41
110 284
516 175
285 61
254 475
316 438
365 428
134 267
276 172
476 251
105 60
474 523
305 518
39 336
291 368
461 175
303 491
411 35
198 387
112 9
477 71
277 66
28 203
283 132
493 214
201 163
181 209
348 198
1 51
189 251
530 412
442 425
520 28
237 289
256 251
199 220
173 2
460 140
498 174
315 404
198 475
437 39
251 132
403 525
174 252
22 21
399 510
513 183
399 391
516 522
94 139
327 186
91 93
409 347
86 54
362 108
60 265
249 210
266 27
327 182
173 180
272 512
462 501
407 281
505 333
505 228
321 256
494 25
56 140
414 126
177 368
248 239
5 105
216 256
192 74
310 386
448 135
465 1
73 501
60 82
178 236
357 47
206 399
390 407
182 22
340 472
370 260
424 517
47 192
479 331
359 196
201 52
346 507
472 290
135 222
21 485
29 409
88 535
482 440
333 384
401 368
320 263
373 177
456 95
123 84
149 491
134 509
82 229
538 525
441 533
441 522
281 392
378 155
487 77
319 371
233 404
471 21
281 93
508 177
292 253
40 279
404 159
169 122
146 331
439 244
143 2
418 338
47 184
160 3
281 197
164 207
315 40
459 517
421 284
199 299
98 171
94 368
380 75
109 204
109 7
76 161
144 161
7 52
537 85
272 307
107 296
382 37
332 492
352 357
288 99
171 344
535 166
183 1
38 534
428 464
68 535
41 505
500 472
338 489
353 85
43 16
267 102
518 254
445 311
187 440
162 454
451 46
135 47
24 23
76 104
392 95
38 306
497 538
35 167
445 228
345 374
413 528
327 37
435 440
304 374
85 349
105 277
377 331
239 82
435 525
287 179
414 124
477 245
160 166
303 210
261 198
206 56
170 411
412 127
18 103
374 536
356 149
373 194
172 185
298 342
416 345
232 538
27 469
231 212
409 81
235 52
211 1
150 286
501 396
210 389
392 63
72 10
458 438
306 526
338 416
227 185
350 176
398 98
405 25
438 473
63 535
313 283
8 338
76 36
152 65
472 478
7 63
191 472
276 290
454 91
88 217
81 150
184 349
138 69
61 295
234 382
103 442
126 314
441 272
329 149
484 377
353 520
206 124
356 530
294 50
302 51
181 313
498 245
8 355
463 312
379 257
502 487
468 239
338 27
159 311
383 418
161 103
146 44
32 402
29 82
266 280
470 536
328 37
478 531
303 264
481 124
92 17
152 528
81 266
416 312
397 345
15 1
277 484
337 164
398 500
31 263
96 429
401 24
85 99
376 281
106 192
53 353
484 404
505 174
35 124
346 530
252 511
282 174
341 5
301 266
490 507
239 223
439 140
87 473
104 296
522 322
430 148
458 52
232 220
286 505
325 67
123 266
352 88
518 148
135 18
154 376
271 65
373 313
349 340
206 205
368 256
307 181
78 493
390 102
282 420
314 81
366 463
165 18
277 76
482 473
283 393
72 94
33 284
470 481
58 233
27 448
81 183
71 270
462 306
240 163
427 111
297 164
355 43
11 511
321 213
152 13
470 100
385 261
2 44
240 52
105 404
443 158
43 237
309 129
469 150
103 232
486 529
320 414
390 454
307 371
43 134
454 272
284 430
272 39
328 266
143 83
118 65
238 24
348 420
94 479
145 410
474 505
428 388
193 488
426 391
266 145
50 416
5 277
100 512
149 73
326 126
442 255
412 273
8 223
185 26
464 83
448 317
11 452
517 512
376 518
445 344
362 78
507 235
47 137
449 437
393 124
128 203
24 360
221 121
189 460
156 223
281 331
221 139
227 76
119 241
131 486
238 401
129 306
191 531
70 498
172 207
132 537
141 468
375 347
31 526
186 42
108 344
120 95
63 455
519 305
194 237
156 423
308 519
364 46
280 157
359 277
436 367
400 230
224 231
169 317
490 217
56 476
201 117
490 274
59 51
459 194
50 284
15 454
391 359
379 352
381 335
62 155
183 302
312 141
507 363
8 110
175 301
246 74
427 258
432 197
292 62
359 328
131 382
330 536
423 282
210 79
532 256
420 466
79 145
125 302
148 364
163 415
78 327
231 260
144 427
144 354
125 357
32 286
319 69
401 489
104 25
417 70
465 353
276 143
435 343
257 458
481 97
58 320
530 213
40 164
364 505
11 395
465 402
75 111
94 84
502 397
262 464
282 92
318 248
336 140
253 396
61 194
177 94
16 18
532 493
281 294
19 33
13 270
348 169
4 52
507 477
508 515
184 373
46 69
402 254
71 514
491 477
499 101
469 20
85 373
9 138
398 288
492 48
256 15
57 221
453 100
343 454
179 152
508 57
282 57
250 66
515 28
389 204
58 41
448 446
39 506
237 168
225 23
22 35
445 515
235 190
23 189
390 267
198 465
451 313
533 408
491 262
112 318
14 224
188 379
151 410
275 530
390 359
218 521
238 331
32 118
116 110
81 218
400 353
300 214
471 423
6 236
19 345
293 175
384 506
316 289
364 1
410 215
79 466
510 466
519 78
125 187
289 267
434 86
296 242
137 224
340 531
26 236
235 386
514 255
337 416
442 165
209 522
319 27
18 289
395 226
439 2
182 235
376 314
59 518
193 214
38 31
408 192
223 187
364 472
104 404
456 182
122 113
440 259
457 138
487 348
470 285
472 195
2 311
16 147
237 109
101 470
382 279
335 55
106 183
515 207
254 208
53 519
518 69
308 146
82 287
359 250
497 154
495 67
363 235
343 297
62 445
510 476
14 219
179 149
491 75
525 197
136 113
127 11
235 434
233 325
455 109
280 271
374 228
77 536
482 197
191 9
261 277
82 524
206 145
393 372
427 341
483 484
10 177
126 253
201 188
99 126
72 368
258 135
181 391
232 209
509 312
84 424
304 17
228 300
103 425
425 401
118 530
461 27
367 226
402 137
448 465
498 420
13 513
168 44
521 370
20 108
3 518
49 111
538 309
480 63
379 269
267 454
533 77
211 376
513 78
219 12
47 81
61 251
272 522
515 89
182 188
316 163
285 326
494 499
471 211
345 108
278 440
94 238
208 448
96 40
294 5
225 468
314 263
494 437
514 506
330 316
319 293
349 477
280 229
435 445
507 369
379 490
381 182
179 31
327 498
57 96
502 136
455 330
401 57
423 417
398 444
336 15
258 389
4 473
265 121
469 79
358 52
467 500
193 300
317 527
223 408
184 140
149 229
406 350
13 193
498 391
360 467
378 308
535 480
373 290
212 278
446 124
384 454
185 326
204 83
77 420
83 202
151 40
477 497
191 424
383 150
210 242
349 22
371 522
66 279
149 309
533 48
475 205
220 162
438 163
263 49
318 225
329 472
242 539
286 87
108 98
112 344
415 257
22 297
478 253
472 125
289 255
413 422
439 45
199 43
441 379
365 464
315 219
540 94
49 518
348 411
239 16
107 105
537 19
408 508
298 367
99 312
457 108
536 68
253 322
196 419
405 404
240 269
81 449
420 169
373 312
103 407
337 486
265 19
120 510
181 399
115 249
29 39
190 257
513 263
226 511
168 391
190 415
130 104
185 198
69 538
41 514
519 206
181 233
263 488
380 370
208 71
356 306
396 125
14 76
236 17
260 308
335 96
475 29
379 109
253 335
263 197
97 459
329 436
540 350
296 324
434 369
250 337
82 334
322 516
85 48
319 186
507 182
7 87
522 417
333 284
286 493
422 507
321 402
142 491
339 31
173 496
379 235
229 524
440 108
429 30
492 362
459 23
502 89
480 201
366 448
278 153
489 349
188 52
219 5
198 176
179 73
381 240
316 358
330 6
107 69
390 232
403 36
118 157
291 388
274 117
408 326
313 238
265 280
398 322
192 278
391 209
516 300
212 337
451 35
168 527
446 121
292 98
456 369
94 291
154 437
493 103
449 25
359 14
504 325
257 456
448 305
215 140
440 429
67 71
177 24
426 223
13 518
62 532
132 110
436 307
94 23
111 110
454 165
118 11
351 158
35 246
230 254
367 236
149 115
333 185
225 368
516 132
527 124
454 337
96 277
245 142
148 493
432 390
516 529
260 313
390 281
286 260
337 259
286 204
149 11
120 270
496 418
244 27
196 139
138 129
2 176
471 15
210 98
316 386
334 287
219 62
327 302
34 401
401 223
156 167
353 140
370 351
499 227
516 137
188 4
174 533
335 482
312 175
441 100
3 196
373 27
216 401
495 233
490 363
373 448
300 332
178 312
399 212
320 82
268 522
79 376
524 52
397 263
202 33
442 43
522 278
495 402
319 32
154 438
242 321
309 31
288 66
46 140
299 91
272 292
13 125
473 190
31 511
109 112
479 171
293 155
284 161
185 215
71 319
517 445
346 332
309 82
75 309
405 335
281 91
187 135
45 203
491 468
316 257
335 170
198 500
358 438
471 174
351 347
140 89
362 351
225 292
418 99
481 457
385 448
280 99
461 477
466 233
106 414
359 150
465 423
330 427
408 529
230 496
51 192
89 71
192 186
364 331
169 423
414 476
497 472
512 307
73 452
437 315
478 431
355 432
424 355
321 302
477 448
435 454
462 229
10 338
23 375
356 506
363 245
130 220
213 118
251 401
348 282
176 255
193 212
333 131
1 49
426 184
382 337
209 81
493 380
49 70
282 80
450 483
403 19
304 523
518 443
300 218
285 261
411 8
524 118
376 174
467 331
485 393
64 462
127 428
326 32
224 429
372 406
112 2
517 119
174 518
361 176
184 125
366 293
365 318
201 63
312 477
134 147
496 406
516 512
453 285
96 299
2 191
60 356
215 227
321 249
25 288
229 96
540 256
74 89
495 211
254 472
279 5
378 265
44 371
80 324
284 485
378 534
60 225
514 504
305 196
383 33
259 431
88 68
430 280
262 98
61 411
321 433
311 296
111 59
33 230
51 476
374 153
105 76
492 503
520 368
335 345
471 487
303 158
448 461
262 510
21 351
323 157
498 38
405 66
353 66
149 275
214 291
487 169
373 102
92 46
521 139
196 218
74 336
503 140
34 227
88 182
84 429
149 223
526 64
179 356
536 520
159 405
167 179
397 311
244 9
291 81
60 93
431 502
288 335
86 413
510 122
444 89
414 71
173 112
348 505
19 194
250 529
25 377
201 535
478 115
169 23
233 517
192 304
202 161
126 417
356 417
25 319
230 492
299 18
210 461
45 127
508 61
506 239
53 167
388 447
326 211
493 260
195 278
540 360
360 17
144 103
22 482
331 388
25 130
187 90
278 362
68 422
490 63
249 31
334 162
268 401
108 408
87 535
196 466
449 394
390 435
87 316
520 136
513 194
164 159
67 203
419 210
222 167
196 425
382 240
84 202
45 340
38 323
6 174
347 407
203 322
128 173
215 64
156 429
228 261
490 432
263 105
62 481
249 49
252 536
195 328
250 382
265 511
472 90
55 371
522 320
108 417
457 393
37 385
331 23
79 307
430 92
406 313
439 49
423 5
88 205
223 230
401 237
210 433
215 111
445 35
342 60
526 229
316 240
509 232
373 12
483 110
417 136
22 151
197 231
267 250
535 217
122 320
285 96
462 11
68 163
111 441
69 94
80 264
446 69
151 30
30 502
162 538
97 222
331 540
23 290
67 55
60 367
363 280
135 156
26 63
6 168
141 63
458 386
45 526
271 229
141 257
21 297
195 45
9 33
454 425
405 486
140 323
62 158
6 136
475 85
369 88
305 321
372 256
205 457
498 6
141 269
182 190
514 176
541 148
367 334
159 437
529 66
322 299
6 259
185 61
190 109
149 234
313 100
314 234
217 63
2 33
215 444
430 187
37 33
14 277
170 263
71 506
365 280
150 394
278 472
421 56
270 394
275 126
452 125
458 33
435 538
188 63
452 145
78 84
222 296
50 366
276 69
41 251
28 285
124 205
95 381
212 537
247 102
155 387
243 305
204 321
89 460
89 250
275 462
475 44
466 469
71 78
14 164
437 164
75 510
377 309
10 56
453 431
426 534
103 134
141 235
133 506
489 41
255 199
297 42
129 530
295 26
486 406
385 506
111 40
430 393
530 436
65 287
261 124
237 147
51 459
187 291
9 59
416 142
227 404
266 247
86 358
525 82
495 407
447 204
3 244
28 19
451 339
394 324
105 104
149 395
513 422
58 35
259 451
19 408
252 406
44 81
420 112
17 3
149 38
54 438
333 475
146 532
228 31
77 47
392 163
476 336
49 22
120 487
75 344
300 254
445 353
139 153
240 379
211 20
383 420
15 10
300 158
195 27
55 463
276 104
509 30
272 295
510 264
130 337
287 436
141 413
155 222
266 448
337 227
329 401
277 161
107 21
75 56
92 502
179 436
270 129
97 118
480 455
281 299
162 175
242 443
156 77
341 337
230 174
174 424
493 518
157 329
134 299
155 75
115 3
300 433
33 489
477 286
281 343
418 461
456 247
437 405
118 179
31 356
132 79
459 111
404 25
345 61
235 358
467 121
95 438
285 347
503 321
452 148
158 396
400 34
384 30
45 214
436 118
242 538
517 264
301 328
362 1
511 402
466 27
510 206
133 343
3 174
525 445
3 186
316 507
9 325
131 159
239 344
309 530
317 20
392 316
319 387
381 363
382 449
255 304
382 130
461 180
202 173
506 432
224 100
484 321
518 17
312 268
423 533
461 371
484 394
505 102
254 408
395 536
47 142
322 371
298 118
151 495
530 367
359 179
229 334
126 69
471 113
346 528
124 191
142 252
52 413
433 286
100 373
361 328
246 388
83 13
74 110
252 498
455 413
210 244
425 305
342 367
31 65
221 24
424 260
107 282
60 526
464 496
541 460
386 392
527 194
41 44
178 450
456 190
514 254
222 514
121 268
44 165
27 133
261 168
436 277
373 491
519 443
524 511
329 501
335 307
374 132
29 68
475 97
483 431
393 125
152 4
277 346
129 527
134 104
10 114
50 266
259 210
515 172
276 15
422 188
256 523
324 432
93 220
406 2
146 430
123 469
338 155
519 133
530 31
299 232
84 521
19 388
224 380
319 85
129 273
64 356
80 243
507 240
361 71
182 422
73 127
144 468
382 153
77 172
371 387
191 30
167 366
511 152
411 489
329 408
27 158
121 234
252 156
452 82
440 383
490 68
262 506
191 474
422 369
325 97
397 70
121 403
22 302
308 185
534 515
183 29
262 2
294 258
252 75
436 64
521 301
176 326
198 517
271 149
183 398
429 51
203 308
353 393
340 242
157 412
374 418
443 136
143 193
10 401
402 459
467 238
182 217
421 362
193 179
352 63
436 275
124 516
161 5
140 192
475 478
483 532
391 59
441 345
100 90
407 154
128 10
222 9
455 68
48 469
373 179
318 320
144 26
319 14
14 529
427 290
405 37
70 122
149 526
287 94
99 503
155 136
29 66
369 415
316 456
100 371
539 494
252 10
408 57
464 315
354 162
428 445
201 379
433 135
466 84
365 138
222 80
310 188
202 18
196 8
43 407
298 217
349 215
355 282
110 512
509 114
386 247
237 454
59 333
74 404
137 448
438 190
500 368
39 402
235 413
354 29
46 47
405 227
333 295
183 303
14 337
159 146
325 119
105 405
528 213
70 74
31 271
326 444
201 166
197 237
453 125
209 35
59 284
247 496
242 148
141 427
321 510
499 76
385 404
339 396
430 443
285 246
62 9
6 53
397 428
523 214
509 354
431 350
71 139
281 425
519 523
26 434
237 114
475 356
43 171
521 465
228 362
404 8
360 71
502 324
237 16
252 318
249 25
286 113
457 541
338 12
129 524
260 295
375 506
299 454
42 309
251 468
80 421
3 488
336 251
185 192
191 196
67 333
306 46
401 72
82 91
370 397
233 344
139 207
119 170
113 176
302 464
291 248
420 412
336 329
22 161
536 207
88 344
371 8
232 433
466 328
390 325
337 494
416 293
379 310
144 469
132 450
325 220
527 474
83 3
286 327
309 11
172 255
236 385
51 296
328 491
142 150
288 486
113 498
511 462
338 50
107 487
332 259
245 470
318 15
528 501
228 508
520 92
230 273
528 64
297 514
233 138
463 373
135 113
204 450
503 78
174 74
103 199
200 294
366 59
474 173
200 291
395 265
92 348
373 99
171 354
387 126
227 359
147 347
418 373
414 355
258 136
386 535
37 486
97 24
328 299
118 398
473 381
5 494
513 506
497 232
8 512
216 336
130 404
309 406
387 508
454 442
504 442
134 197
521 32
63 52
430 50
407 237
333 215
112 487
121 365
92 471
324 139
59 411
503 101
354 403
289 116
4 456
499 484
340 366
140 303
274 455
233 17
179 271
455 201
272 9
80 219
416 444
145 290
6 533
75 402
229 528
234 438
57 150
324 138
240 95
100 186
286 259
116 267
14 371
231 20
361 259
100 241
91 267
430 88
118 528
454 100
258 420
178 165
49 243
34 427
246 322
410 58
449 159
339 210
479 485
464 42
452 117
279 468
226 73
433 498
442 509
154 354
349 27
28 78
200 348
498 353
385 122
316 352
393 518
369 6
344 340
30 140
59 119
143 249
348 136
412 306
288 483
395 329
213 273
409 340
328 175
197 371
12 85
254 447
203 321
241 341
272 32
285 460
535 274
401 468
18 134
457 446
105 130
142 301
402 472
43 497
407 435
58 379
279 486
395 29
70 365
376 324
323 271
460 414
460 317
38 65
113 174
135 252
478 154
339 541
462 280
248 161
418 245
285 111
239 176
46 492
16 432
509 162
64 226
29 138
306 530
366 319
425 91
298 329
278 215
94 363
218 396
316 455
530 302
209 294
270 183
20 444
249 419
111 192
10 318
134 21
71 519
280 64
403 144
490 386
233 120
41 49
149 323
329 220
114 162
191 498
80 480
505 472
231 464
182 87
155 451
82 280
522 132
439 278
440 6
136 376
488 120
473 95
171 390
394 101
270 460
283 273
237 249
350 305
275 157
339 262
21 534
404 288
294 142
342 216
416 512
6 183
502 120
230 83
191 232
487 252
26 201
259 35
481 190
285 83
186 143
412 213
443 332
14 105
103 347
177 223
42 33
354 538
453 513
193 73
72 225
14 232
22 154
248 254
231 400
513 102
270 173
510 539
482 469
485 389
160 49
393 174
161 227
106 261
296 145
132 441
90 316
96 513
197 454
217 68
79 48
202 180
183 431
49 339
172 472
438 490
112 42
516 110
34 176
203 309
210 383
240 422
401 388
512 29
381 18
483 335
415 413
529 315
119 164
16 347
285 180
423 502
541 304
164 66
219 66
119 244
130 315
299 145
161 37
64 323
49 526
69 383
397 317
180 230
268 510
417 169
32 465
363 86
350 418
391 361
112 122
212 122
491 494
42 146
490 141
487 159
343 43
206 242
514 212
46 296
429 408
181 533
92 330
516 176
278 44
500 10
3 439
212 433
216 396
125 409
185 475
23 368
207 445
338 245
180 115
56 262
390 255
86 535
464 96
198 282
315 14
6 139
13 452
499 437
328 99
408 493
528 287
231 9
538 289
392 422
107 124
236 485
467 80
322 283
338 142
505 409
169 246
419 32
538 461
50 90
365 508
206 447
433 302
307 219
251 278
28 396
388 223
63 190
457 295
325 388
202 204
152 395
193 364
274 163
446 70
63 381
330 221
161 250
393 41
312 200
5 250
347 432
262 384
26 352
265 309
488 111
161 315
148 360
10 369
322 168
192 207
29 56
406 69
168 481
457 447
229 461
269 87
321 158
265 515
281 497
250 231
399 396
308 2
69 246
407 403
411 516
527 509
315 374
145 443
113 423
438 63
275 298
75 502
317 202
321 344
388 251
502 440
109 88
433 122
301 133
329 367
79 383
456 415
541 15
14 250
186 112
155 344
192 215
498 282
481 487
142 203
132 206
287 238
158 488
310 473
392 369
333 467
435 523
33 180
504 303
269 20
64 452
170 196
139 296
525 154
444 81
537 58
247 535
435 147
478 88
302 155
97 57
300 200
107 527
257 201
456 87
148 28
305 130
491 518
64 179
149 20
78 521
489 389
94 211
335 64
478 515
175 128
536 156
245 412
497 162
381 189
339 47
124 457
324 264
136 92
40 288
149 524
26 188
380 261
466 478
335 270
55 44
348 330
316 141
267 299
105 227
385 396
30 524
430 196
76 193
495 137
18 102
80 510
353 222
434 240
173 494
100 228
37 341
244 145
20 85
6 371
503 324
170 180
529 40
16 103
316 458
263 359
440 22
430 178
478 243
167 513
426 46
80 453
193 37
364 492
316 535
474 409
94 276
524 191
503 57
140 359
332 160
425 319
456 217
126 41
405 377
500 146
460 19
424 394
10 223
147 362
524 38
341 529
385 487
364 489
1 447
384 22
338 373
290 343
431 340
419 83
397 96
148 375
491 336
277 382
162 93
68 240
134 347
209 156
138 272
8 143
398 475
464 492
205 515
130 341
270 339
530 73
285 421
187 286
362 253
49 108
313 83
337 105
9 241
232 37
409 33
66 14
500 386
42 400
172 244
409 227
265 514
303 9
525 476
526 271
312 290
180 387
35 8
184 477
411 44
129 213
282 77
319 482
40 250
73 526
529 37
450 478
293 489
229 60
256 85
48 113
17 506
48 431
338 467
221 53
276 523
187 113
257 473
297 513
275 346
108 441
534 205
263 63
539 14
65 273
534 521
371 292
499 404
5 337
183 496
286 202
529 104
395 31
292 8
526 436
39 145
325 303
527 100
167 365
251 32
450 118
302 243
92 32
15 291
28 393
79 238
100 447
330 156
225 256
277 250
302 91
34 348
487 444
395 462
27 410
137 532
404 277
338 266
242 345
420 221
519 243
138 126
13 534
40 227
491 293
2 75
44 302
416 123
117 188
18 432
428 139
209 512
446 361
127 233
454 475
303 12
343 509
249 469
58 469
502 533
416 223
482 158
456 413
439 349
83 266
234 489
322 116
466 272
411 124
31 287
216 83
117 95
63 363
152 412
170 270
423 408
161 451
153 106
50 319
364 385
181 438
20 518
249 226
400 83
522 239
445 172
157 511
8 357
516 74
395 215
447 214
280 511
6 417
83 529
62 400
457 332
325 193
161 14
166 52
540 479
77 9
454 517
374 271
419 172
123 319
64 412
489 326
195 214
333 46
147 442
224 97
432 254
158 487
474 218
451 476
383 272
164 423
390 5
413 54
385 78
102 435
510 537
166 86
203 451
525 171
452 60
533 355
41 46
251 438
10 238
188 415
271 530
119 206
327 262
174 440
388 360
138 515
177 468
224 78
359 159
451 248
84 261
410 212
194 148
256 500
321 474
527 511
160 428
532 196
373 540
255 432
21 504
378 241
84 426
200 194
356 271
263 491
285 502
253 244
444 198
164 318
321 180
42 202
293 439
398 13
44 342
512 51
369 363
533 53
186 33
394 529
327 218
363 188
218 125
91 199
209 119
265 329
260 155
462 226
55 79
514 474
480 456
456 68
211 48
427 136
134 470
376 365
95 190
424 320
120 268
177 72
112 464
337 76
414 57
240 141
318 120
243 236
283 522
169 444
382 288
298 287
141 106
75 108
192 520
53 222
298 11
361 520
83 283
217 141
413 87
390 16
77 122
414 282
321 429
116 55
462 90
458 247
337 345
220 347
444 362
514 437
447 387
311 324
227 384
463 444
393 478
243 516
276 478
348 113
353 71
21 409
365 353
468 467
410 341
357 399
341 14
323 213
473 7
440 169
451 112
57 485
214 210
123 477
390 336
258 328
501 287
217 109
211 416
290 426
61 81
448 200
477 142
318 401
148 313
223 225
198 262
422 54
478 385
484 494
261 316
475 463
95 7
368 466
336 291
383 488
244 140
389 164
63 45
258 164
100 110
189 291
56 222
367 285
424 96
185 421
10 256
32 406
430 427
494 17
342 418
372 515
286 414
164 219
79 85
494 37
300 402
207 45
192 465
170 78
190 207
509 144
358 257
448 395
360 256
295 416
516 380
18 143
218 230
7 54
414 191
95 87
8 241
135 323
538 403
438 68
360 500
117 163
401 266
233 431
280 530
485 465
497 235
315 484
104 40
247 434
368 8
337 37
389 492
116 44
239 23
525 289
302 46
7 381
12 491
432 199
476 77
171 16
262 385
335 387
503 434
373 156
420 138
382 394
397 483
439 417
538 160
191 135
261 443
358 182
62 353
274 240
535 269
17 418
67 150
422 494
399 503
497 237
331 251
514 459
421 262
403 17
70 203
398 170
402 469
370 53
395 306
24 452
239 318
144 145
343 8
252 145
509 237
119 66
314 457
417 156
400 349
417 331
398 527
161 66
114 425
36 8
272 106
439 196
501 213
451 333
1 132
208 364
8 191
236 49
508 424
67 262
350 335
530 314
261 339
104 337
150 6
148 372
21 197
310 247
537 283
68 26
221 377
154 102
413 26
433 150
497 220
433 393
285 135
115 47
101 487
106 393
533 427
399 519
41 262
330 355
337 437
28 260
143 263
507 379
277 371
493 49
160 168
156 284
314 409
194 13
344 27
379 7
369 68
522 208
37 164
188 480
123 252
270 213
283 162
308 9
425 289
173 344
319 340
192 16
56 230
88 201
458 535
373 301
508 521
170 541
87 304
427 6
492 521
485 414
30 253
137 170
534 523
523 259
392 413
20 418
419 361
72 150
315 104
65 524
73 329
163 535
286 487
171 232
53 421
246 99
148 6
151 339
204 516
84 262
342 41
253 503
263 385
32 244
471 434
166 95
110 372
369 117
503 122
373 133
452 31
459 432
198 435
72 468
400 454
274 257
350 214
324 53
317 45
214 186
126 148
476 375
190 337
149 511
20 504
495 453
225 500
280 275
273 298
320 81
414 156
541 106
451 465
382 405
538 26
381 88
319 12
24 510
502 192
230 466
354 486
297 202
442 390
230 406
457 126
441 512
393 437
374 459
200 491
290 48
136 230
308 277
321 426
85 194
262 105
182 455
163 458
529 337
14 148
409 173
39 125
304 421
65 306
370 96
8 209
19 357
405 484
90 296
521 70
427 423
486 250
58 364
472 370
311 224
460 313
192 210
279 159
371 132
493 67
313 449
261 303
164 5
204 327
97 429
70 186
208 151
283 441
452 346
530 342
26 117
522 110
464 508
517 317
493 128
239 350
240 388
418 133
413 507
526 510
89 215
361 245
70 263
42 128
1 325
165 435
120 396
504 429
505 58
90 248
449 227
283 209
120 203
237 93
370 428
384 444
456 160
434 408
428 333
176 234
453 29
208 100
149 103
121 329
9 396
342 118
256 331
209 322
519 50
238 184
36 197
177 401
55 523
449 486
273 530
540 451
313 69
135 427
375 51
66 227
97 158
462 287
56 260
367 375
467 318
260 62
36 165
392 247
413 358
49 293
107 121
125 338
2 506
178 186
2 22
213 306
111 72
124 106
117 438
190 117
164 279
333 97
257 87
415 379
277 506
438 240
393 205
160 196
287 306
167 421
360 359
255 1
214 388
402 244
459 136
401 146
208 339
115 241
228 272
18 538
423 330
338 175
150 376
294 259
167 47
80 111
80 165
126 140
489 123
238 216
513 393
16 213
175 241
538 43
375 296
229 127
24 312
432 456
316 117
391 9
275 73
3 514
20 265
523 151
279 16
266 294
170 378
473 535
17 24
395 298
329 158
247 166
379 316
54 415
92 182
349 53
152 11
375 399
464 291
479 318
282 536
445 254
487 350
352 244
110 441
362 433
35 150
507 68
18 197
155 202
9 478
186 344
59 203
469 450
429 143
3 424
41 396
148 380
381 480
28 450
496 158
290 200
298 38
237 255
503 224
441 351
392 438
429 181
219 37
321 483
385 224
510 375
253 389
77 256
431 417
97 88
349 461
283 405
102 474
139 527
413 490
221 515
294 364
10 467
275 313
385 297
62 439
503 150
255 281
230 464
87 117
287 395
443 139
100 524
104 254
6 240
519 373
242 70
187 318
480 438
519 184
133 170
234 180
337 394
242 303
10 62
458 274
178 314
236 493
53 169
476 419
517 214
446 28
321 317
367 273
63 310
283 483
518 270
210 234
20 62
210 128
222 510
472 236
470 32
523 136
84 110
505 45
297 276
6 336
81 457
230 318
200 133
113 34
323 280
396 42
384 80
448 108
452 342
48 28
534 208
130 393
84 205
272 427
350 198
208 178
310 535
488 512
344 230
451 67
399 491
280 309
155 160
276 331
465 447
104 183
459 359
248 310
31 232
256 146
496 448
71 143
539 219
355 97
257 507
531 126
116 2
149 530
302 368
335 416
256 468
329 462
70 264
12 349
451 61
46 96
302 78
239 331
438 188
125 186
134 154
255 403
405 5
446 117
12 80
503 49
56 399
182 392
21 244
104 288
319 373
314 138
210 260
323 526
19 81
349 245
300 205
422 458
501 397
478 269
236 350
234 51
312 113
381 507
5 274
486 81
497 313
231 243
411 161
499 522
140 185
194 366
315 159
414 293
115 376
265 526
518 464
274 218
306 73
161 484
96 137
271 424
265 530
415 86
452 118
286 466
219 186
41 198
102 220
325 488
96 445
313 216
166 217
284 439
402 127
446 493
267 232
533 440
389 236
147 36
294 463
247 257
441 39
350 380
432 171
26 446
326 378
424 90
125 515
82 395
197 509
461 226
424 278
522 121
388 187
66 5
293 19
168 106
366 328
258 143
51 194
293 477
357 443
523 153
153 512
492 263
86 352
252 439
48 446
524 528
338 123
206 90
114 299
116 228
18 340
93 403
2 339
88 25
380 522
497 432
322 35
414 302
160 321
266 349
371 110
442 432
459 55
20 162
27 341
73 334
239 291
7 269
353 220
208 315
134 403
161 441
240 458
476 206
184 215
100 322
42 366
88 257
381 247
415 235
432 368
535 188
155 270
520 423
443 112
217 358
528 226
535 7
277 70
455 415
422 455
528 298
113 184
445 288
81 295
7 480
198 50
471 533
182 7
272 25
180 503
453 204
347 354
367 157
423 481
222 502
87 141
107 502
540 146
294 99
437 40
34 252
113 252
247 217
221 90
429 373
461 328
288 341
393 153
35 256
480 87
226 280
532 235
151 481
80 519
167 503
115 286
159 40
144 497
191 208
244 332
463 102
79 541
422 117
19 176
113 301
353 421
209 426
40 14
503 396
317 158
354 340
314 69
211 49
170 241
8 322
265 149
502 189
449 300
186 231
255 454
104 437
405 321
300 522
226 168
182 166
514 357
412 336
220 165
4 381
82 511
346 179
505 6
185 482
447 498
346 136
71 431
351 209
278 281
71 170
394 25
316 235
1 208
102 162
246 339
180 112
142 175
81 273
332 62
274 437
59 424
535 182
118 265
108 225
392 87
217 313
225 27
406 293
189 495
88 473
487 136
325 322
329 60
533 498
54 434
417 129
93 114
511 64
19 1
78 106
500 24
287 412
21 193
295 378
506 496
431 355
521 495
118 287
515 333
54 26
118 273
164 277
537 231
69 41
502 417
123 312
324 55
220 432
197 199
310 109
390 234
478 17
261 246
281 237
18 390
509 135
68 188
288 208
114 343
40 306
226 275
296 167
200 175
13 230
380 440
249 211
455 87
149 127
260 400
413 257
313 447
168 5
370 517
236 153
398 80
150 98
430 440
294 410
4 63
417 138
1 222
500 336
155 251
335 300
180 132
180 191
136 252
409 10
398 140
190 188
402 266
431 267
270 484
37 539
291 376
264 485
131 377
536 305
360 290
125 320
380 29
163 52
82 31
292 441
344 128
59 216
373 200
1 178
82 129
371 351
28 58
497 442
19 374
276 238
80 56
241 303
193 195
164 105
84 148
247 88
140 176
35 141
321 253
44 460
235 422
360 248
34 136
409 515
189 540
284 389
499 359
360 239
296 498
223 389
318 344
439 249
456 379
190 52
291 215
9 354
421 311
112 397
325 440
507 217
155 186
372 75
152 452
115 300
72 115
44 75
399 100
398 281
298 129
24 276
503 147
46 345
220 147
206 410
287 263
54 507
416 200
356 50
446 500
21 54
248 10
452 149
426 107
347 237
34 14
61 431
250 164
62 327
172 536
385 133
519 531
265 342
531 125
381 166
404 256
107 378
359 529
290 164
214 8
433 261
2 260
97 71
237 68
404 239
266 380
432 387
296 206
252 21
525 237
245 495
206 53
150 153
279 269
300 283
256 257
485 77
157 501
280 352
219 357
208 17
232 237
164 377
295 97
418 328
91 18
386 188
44 29
334 436
502 282
61 200
121 504
443 312
341 315
127 82
427 348
262 515
430 536
336 187
215 263
88 166
231 466
135 133
214 450
87 505
304 1
319 416
525 383
530 305
251 532
149 306
308 433
361 303
464 176
280 528
487 44
110 496
486 40
88 392
514 188
275 65
319 116
502 416
243 116
511 118
373 266
534 314
82 65
291 479
308 81
62 180
387 512
48 503
177 182
289 114
55 20
354 43
256 94
206 357
423 6
246 218
214 248
13 233
3 263
335 515
271 452
432 103
219 131
144 343
465 51
206 69
511 395
42 470
355 191
189 373
36 390
353 83
19 311
171 154
166 490
507 52
325 364
485 417
469 318
9 263
521 241
207 67
258 330
73 68
468 403
463 314
464 62
274 415
202 230
537 183
105 377
264 492
322 272
408 140
264 375
334 11
125 286
188 257
496 120
54 217
69 103
261 140
113 387
74 326
440 47
386 257
352 235
358 166
351 238
314 124
128 78
66 105
505 93
16 454
359 539
269 257
291 506
19 222
54 379
18 343
478 28
174 51
120 70
427 459
304 222
225 380
474 45
47 92
196 444
481 376
286 485
199 102
53 375
541 145
498 5
287 529
486 493
295 228
114 390
477 373
94 239
290 291
541 414
430 252
461 85
505 396
10 333
470 185
242 317
144 147
316 296
15 468
419 317
90 476
535 456
399 122
122 124
102 441
25 161
359 66
156 300
263 21
210 514
121 332
371 516
79 451
113 156
119 350
104 5
81 421
106 533
261 510
88 2
197 125
108 220
394 354
466 383
403 171
352 109
457 141
244 84
70 487
12 43
358 26
105 57
54 63
86 88
437 539
369 26
1 32
470 408
541 60
396 126
363 201
148 212
415 52
430 502
440 423
187 368
470 255
159 324
414 518
62 2
316 4
400 224
105 85
41 94
514 262
428 58
529 279
403 454
388 276
333 174
245 491
290 422
446 72
127 462
115 317
456 86
451 427
219 227
382 25
429 541
276 339
114 102
442 343
219 404
298 157
300 39
70 482
198 504
457 540
283 110
25 486
69 155
184 11
241 41
488 133
167 90
357 439
82 179
231 202
423 444
323 528
498 322
235 438
271 127
290 253
84 287
529 277
479 468
451 226
40 209
236 151
205 409
431 30
73 385
442 144
284 353
454 431
243 328
400 30
148 437
328 425
182 201
324 241
16 255
358 109
225 35
247 117
471 417
289 432
124 116
390 154
78 295
102 43
307 116
446 234
442 16
238 23
340 465
398 137
199 238
306 346
412 428
116 387
468 94
222 184
343 432
445 261
427 312
439 160
189 446
538 99
354 249
404 301
18 403
283 184
322 44
430 348
334 306
510 324
324 302
489 12
186 464
242 263
156 430
225 10
184 123
431 534
321 70
479 385
351 168
358 415
288 405
476 222
521 205
194 28
189 76
216 239
87 379
478 78
73 129
108 429
81 226
407 343
331 82
27 362
402 512
182 257
420 200
34 169
505 503
83 488
384 374
360 177
393 234
91 43
273 82
294 29
354 197
495 121
291 289
361 350
182 379
135 92
79 304
449 404
308 440
105 449
195 256
318 32
60 127
285 485
72 307
218 541
137 446
324 124
259 223
530 462
31 127
312 294
81 414
113 520
347 514
50 156
129 51
245 416
368 172
182 310
356 265
156 533
513 295
369 455
99 123
176 470
462 73
244 72
522 314
235 458
130 161
220 289
74 410
121 205
123 200
487 45
109 415
470 378
470 198
420 330
4 95
170 428
480 363
411 351
419 115
90 324
95 235
467 532
86 369
123 491
525 91
38 152
45 111
199 407
492 340
145 324
323 451
257 86
514 45
135 59
305 112
340 374
216 533
15 143
122 512
138 246
461 312
405 494
290 238
358 369
429 190
2 180
339 30
111 79
330 139
153 457
293 522
509 171
408 351
188 217
538 454
49 483
480 235
538 220
133 206
36 432
186 253
475 531
389 286
40 37
534 4
522 451
457 22
428 120
164 404
325 106
146 453
197 538
299 310
235 87
233 284
505 125
162 171
477 418
381 413
532 290
295 493
522 297
73 460
293 402
266 216
434 363
487 242
524 73
164 539
519 516
43 319
245 256
62 112
5 37
169 209
4 163
249 406
132 19
393 218
64 265
85 523
260 57
101 351
384 397
190 274
487 32
57 246
12 44
423 531
74 135
231 450
209 168
490 235
476 296
251 368
506 515
529 159
482 396
421 236
362 37
24 479
231 189
11 441
206 258
432 514
263 8
289 442
382 519
146 223
77 495
424 460
166 415
322 411
522 100
434 163
426 389
468 500
296 101
520 265
483 254
399 326
126 17
437 529
523 518
134 358
502 499
146 510
302 263
341 254
493 453
408 337
356 526
343 36
265 528
298 511
277 377
262 115
96 355
51 538
304 37
425 134
93 435
526 275
91 343
159 128
249 160
99 113
243 350
279 437
102 68
181 311
362 488
484 279
186 83
131 404
343 538
113 6
18 497
25 5
114 43
182 316
124 69
419 150
20 502
59 233
118 129
495 446
188 507
275 524
302 385
367 323
492 397
225 276
114 432
520 120
354 371
531 364
213 356
235 7
131 143
8 313
145 510
159 191
23 146
285 402
434 3
472 118
71 325
38 334
162 155
418 200
19 218
160 143
541 103
476 533
345 42
457 378
493 7
2 48
162 197
280 126
129 526
412 60
200 421
71 340
535 52
170 495
294 23
479 388
278 444
149 245
142 61
431 22
431 37
77 498
412 280
12 312
356 84
330 417
149 528
90 481
113 47
108 283
444 218
111 273
338 130
433 465
512 204
313 508
20 97
178 72
512 227
200 50
227 117
53 510
440 417
267 255
457 339
386 337
158 45
79 246
519 400
288 201
273 395
441 370
238 161
115 193
139 372
84 62
477 259
254 314
351 262
380 534
459 503
92 305
417 348
139 504
219 486
204 463
247 415
231 230
521 505
443 206
268 173
516 527
477 294
146 177
11 82
527 3
426 160
182 141
175 50
208 385
199 442
537 218
525 232
506 112
494 431
169 498
89 348
465 450
420 113
380 124
170 281
315 476
110 250
348 536
133 264
197 266
142 123
258 430
435 509
68 7
255 162
313 292
113 83
507 438
177 540
235 54
250 515
39 100
58 335
466 516
119 189
438 413
275 309
299 442
26 163
227 376
495 148
361 326
319 245
95 434
49 484
224 532
346 412
346 16
460 421
454 144
185 307
129 65
100 387
175 114
343 517
400 9
222 201
281 347
224 148
132 536
438 87
122 47
515 68
283 506
77 146
208 402
391 307
18 144
132 387
196 15
521 122
170 135
396 456
510 481
286 249
378 32
215 297
242 212
155 505
164 67
338 531
98 143
153 214
258 520
509 267
375 393
467 540
40 444
540 536
342 526
378 21
218 13
532 72
372 28
126 205
340 125
427 156
381 296
469 222
195 184
200 319
145 375
4 379
207 284
510 353
156 537
511 306
140 376
136 50
228 488
250 105
456 88
336 295
137 360
415 4
271 436
91 220
226 291
341 66
527 450
407 512
131 136
309 127
327 303
53 399
92 441
209 106
317 15
31 367
76 359
244 383
537 340
340 478
277 337
53 264
137 132
203 373
29 305
392 490
315 164
411 169
405 139
203 176
60 273
302 122
131 122
223 248
343 32
47 330
358 54
162 390
200 139
525 108
24 290
46 164
146 57
19 184
121 510
327 477
265 397
25 529
290 331
111 140
387 303
509 262
540 197
54 316
291 72
100 272
540 290
310 54
37 476
260 404
208 478
405 337
66 539
238 468
283 402
67 406
3 21
411 231
171 148
425 347
39 115
387 290
409 478
71 221
368 239
228 193
14 288
235 381
525 93
111 130
515 482
277 279
332 286
312 184
323 329
482 180
193 474
420 361
227 534
100 307
457 453
403 220
153 96
364 253
224 285
170 319
263 285
161 160
19 178
445 443
51 503
66 37
34 533
115 534
118 367
507 430
536 49
287 11
308 464
310 480
386 182
163 425
195 245
208 429
205 266
331 468
328 293
241 3
418 40
253 74
285 55
181 364
264 56
10 414
94 350
516 214
470 74
426 505
489 319
244 331
77 6
73 540
43 144
167 510
404 40
5 486
74 176
14 25
527 465
360 468
114 103
83 192
154 432
121 368
294 133
486 498
97 21
105 219
49 69
8 144
437 176
311 351
17 29
333 501
307 311
249 466
313 387
519 279
102 16
255 102
91 30
281 336
230 128
29 75
248 290
140 409
236 138
207 241
91 536
321 375
264 145
83 173
225 146
16 403
219 288
366 200
193 128
220 343
399 431
201 332
237 390
474 155
323 530
510 110
404 279
55 255
292 276
509 18
143 231
369 87
214 46
221 325
231 296
88 458
130 405
339 259
463 2
222 264
351 387
111 517
299 237
54 352
150 332
347 538
474 421
349 123
191 51
319 488
171 347
22 385
535 415
352 415
76 172
345 254
213 82
33 31
91 102
201 95
359 494
422 266
78 211
532 177
176 465
274 456
432 252
99 349
537 134
413 336
372 93
233 428
104 486
323 395
267 407
101 481
157 530
318 23
118 127
385 322
336 352
538 360
41 471
305 317
29 527
404 362
533 136
367 127
321 45
441 70
252 265
390 289
225 187
336 401
179 226
465 286
365 324
7 321
23 75
183 444
259 409
6 219
136 169
57 115
230 252
133 50
329 275
394 315
147 497
501 530
418 136
270 495
246 198
253 498
537 119
216 232
161 359
358 422
62 3
88 296
478 191
23 291
297 153
132 292
373 59
354 528
269 201
408 67
395 213
150 115
293 419
180 266
40 494
37 538
100 333
226 65
344 289
349 431
42 151
262 370
407 220
300 452
528 459
39 491
309 367
296 353
508 459
47 484
413 99
494 341
265 214
73 448
10 57
381 109
66 486
209 441
406 525
370 496
430 62
63 240
389 472
412 334
309 157
235 88
242 158
416 181
156 357
220 435
355 502
221 241
61 521
528 412
21 70
469 195
341 250
51 55
86 182
75 153
539 484
393 202
496 260
496 402
103 307
387 205
104 494
224 187
511 30
526 244
131 300
299 370
31 389
387 450
153 49
57 515
95 352
206 488
205 403
482 173
374 273
201 247
471 430
141 86
450 104
247 63
500 412
389 122
539 388
236 426
467 320
176 192
166 257
462 367
523 191
25 495
502 498
460 495
18 43
494 288
93 102
339 361
374 55
498 405
15 540
524 472
74 30
46 514
379 178
427 536
376 341
461 293
467 216
141 201
496 408
102 171
258 92
9 446
376 160
473 449
273 524
112 400
417 536
119 212
417 135
259 18
501 60
264 477
396 19
73 85
506 140
40 452
61 155
518 1
222 338
425 199
301 139
318 72
84 478
460 101
256 467
541 345
540 225
371 237
207 481
39 469
183 528
521 155
131 66
41 515
194 493
116 448
468 191
340 439
129 149
316 310
393 138
200 228
448 349
31 73
300 202
458 68
76 345
419 440
313 441
513 193
124 320
368 388
432 291
102 156
57 352
332 429
55 515
78 59
245 123
306 118
191 419
189 362
40 539
277 159
103 289
12 175
311 317
50 474
176 246
96 13
260 348
121 393
57 497
366 184
100 164
291 468
453 488
461 301
221 176
521 478
432 354
288 131
151 409
74 185
152 526
540 468
134 407
459 483
231 496
530 127
36 326
305 94
498 330
264 399
143 202
48 214
187 280
536 135
257 352
205 208
406 207
478 268
151 211
444 374
107 382
470 371
182 26
523 317
181 411
9 106
74 183
310 392
331 155
3 419
351 402
218 532
177 187
186 496
140 37
395 528
365 476
209 110
519 2
154 38
82 329
303 138
310 117
132 313
184 99
11 64
155 350
487 143
144 347
78 340
32 228
252 137
13 8
105 382
351 512
375 531
288 29
359 164
377 161
314 152
515 340
87 88
42 340
504 170
409 202
176 378
356 501
456 7
68 415
353 171
273 225
293 294
266 477
325 218
354 343
94 337
372 340
501 149
106 485
175 133
14 130
515 517
281 165
3 374
160 79
309 462
448 279
323 368
141 507
331 497
481 344
102 216
490 182
35 116
377 447
146 439
436 273
113 417
523 338
441 331
522 8
40 359
301 12
154 211
180 301
158 263
259 272
182 352
216 318
453 335
244 160
408 463
498 472
161 219
53 308
351 334
295 183
457 396
289 35
148 214
64 149
442 162
38 356
368 402
298 226
46 359
398 465
418 301
204 212
19 44
311 531
430 420
496 101
512 283
242 521
81 362
113 124
392 235
439 469
411 268
67 519
116 100
132 340
150 283
451 97
211 29
497 509
224 531
338 231
440 222
488 102
232 18
465 140
190 26
299 292
182 127
105 61
250 7
61 31
378 541
489 305
449 320
536 69
126 282
37 146
215 387
135 472
288 499
102 165
176 208
347 18
352 247
315 227
11 73
369 413
404 303
49 75
421 534
307 445
122 238
262 424
387 522
32 202
34 437
184 489
451 258
430 47
352 201
363 54
347 343
336 24
194 159
190 458
286 539
501 526
147 165
232 246
409 245
213 179
376 532
414 465
419 343
489 520
296 399
167 56
190 335
492 300
77 258
189 318
538 259
399 249
262 438
364 112
37 359
304 45
427 259
307 35
433 158
153 78
488 204
379 473
497 134
380 28
529 131
111 46
406 9
528 330
229 264
388 248
389 101
472 529
506 305
231 23
89 492
531 512
418 346
344 464
229 517
530 526
105 395
461 137
420 156
114 435
327 296
353 359
224 120
515 197
338 250
317 396
359 5
514 190
461 195
436 73
234 517
211 286
127 524
170 435
25 313
419 151
526 98
410 327
65 526
121 388
2 336
198 89
436 65
269 392
127 298
263 176
397 84
321 263
442 464
175 27
11 226
258 61
210 469
305 158
59 253
181 44
368 238
309 436
55 437
79 15
13 362
198 74
210 345
342 273
457 326
333 325
488 29
514 476
236 348
220 16
421 357
323 511
461 245
46 251
520 509
483 518
346 38
95 379
329 412
144 435
21 319
292 391
88 95
42 344
200 457
424 414
262 244
411 132
148 459
91 183
36 103
175 319
127 436
382 486
90 365
474 150
518 126
86 439
192 532
468 187
351 214
279 377
533 92
449 104
452 309
382 210
2 303
158 211
355 233
343 253
501 11
110 295
318 336
129 436
398 445
487 483
114 454
379 351
471 323
191 428
286 294
111 242
362 302
133 230
447 380
469 393
334 213
453 69
150 89
195 525
496 112
303 243
126 317
270 19
246 112
282 330
29 285
85 418
217 26
227 159
280 127
172 487
267 18
347 454
178 183
261 326
175 28
103 454
281 36
290 13
109 68
248 216
381 117
271 19
414 378
25 359
125 148
195 491
212 42
109 274
144 93
130 5
94 225
67 414
310 413
242 513
536 122
480 240
349 132
271 501
341 539
93 343
369 247
431 469
484 486
246 22
214 130
340 234
430 417
437 76
300 169
508 165
5 47
173 388
516 307
279 37
103 175
232 283
519 444
372 119
79 148
425 36
98 57
52 418
35 522
264 357
215 176
336 34
59 307
416 523
452 530
65 323
459 414
299 525
316 217
196 383
62 230
509 512
402 55
501 229
240 456
12 193
227 14
241 210
269 386
47 252
290 186
185 17
309 412
423 252
44 387
463 32
168 268
448 292
453 541
454 171
447 39
495 508
501 511
215 230
519 62
71 517
507 310
222 189
389 89
477 166
453 324
107 354
522 338
116 277
106 152
112 212
413 352
5 449
167 139
44 351
423 348
534 46
303 314
470 192
270 113
528 179
171 524
299 425
372 336
483 407
194 268
20 492
116 283
398 102
335 477
461 378
253 263
77 523
140 328
96 398
328 1
288 484
114 354
189 72
199 114
104 484
342 2
249 400
107 198
246 326
440 156
269 217
398 263
287 152
381 188
537 99
336 84
183 506
230 364
385 350
474 253
441 321
501 118
435 354
266 319
275 356
370 493
436 501
338 382
269 441
157 334
168 283
348 47
155 280
406 179
482 424
374 415
455 188
435 154
33 128
484 219
389 133
375 384
309 118
279 111
540 453
483 268
260 362
124 126
151 32
73 511
398 374
185 58
152 367
38 118
86 95
388 424
127 430
302 284
373 123
398 77
500 248
234 541
191 100
117 473
526 3
512 313
98 234
184 468
511 196
33 83
142 312
364 125
255 435
494 131
432 538
175 184
337 377
322 257
251 239
144 197
334 528
243 246
193 376
409 429
497 58
250 292
306 168
445 220
526 524
318 540
80 96
541 459
484 113
238 258
34 233
539 130
293 184
93 231
198 285
67 486
75 347
512 341
232 91
378 472
202 194
117 455
239 189
124 187
46 212
312 280
497 203
51 402
478 488
209 307
337 265
95 26
366 236
466 83
419 492
305 17
383 469
427 252
475 1
478 183
260 328
24 388
379 369
354 314
415 26
343 138
487 131
119 139
508 254
474 28
287 524
147 281
320 5
54 68
317 259
498 348
138 28
179 511
109 240
297 397
511 412
296 263
27 115
160 420
249 428
5 382
320 262
539 131
255 343
217 363
84 137
346 213
213 226
457 249
286 196
31 398
371 339
431 260
190 535
185 111
395 64
159 49
369 376
468 248
65 280
58 374
448 50
434 358
352 290
253 12
45 308
290 487
417 420
247 363
120 241
93 396
462 356
443 324
220 262
97 246
51 121
297 420
334 524
48 463
356 82
471 520
26 316
341 437
167 30
89 540
114 66
508 327
129 342
293 362
26 235
27 200
105 484
348 174
341 377
223 295
181 508
375 139
78 446
280 118
239 72
135 502
118 149
510 59
50 349
200 180
131 437
156 368
164 162
455 494
516 394
154 103
43 255
231 180
75 67
364 244
498 394
184 338
54 109
540 401
60 152
440 200
451 284
241 173
2 128
179 65
171 497
309 38
387 305
118 82
345 483
11 262
522 327
239 33
291 500
231 406
358 490
332 202
358 4
114 403
371 70
487 147
515 519
333 250
91 390
232 442
423 34
440 5
114 147
224 518
337 127
437 136
255 500
396 70
524 306
265 501
126 194
419 465
330 471
444 470
5 131
285 514
2 410
328 349
487 488
220 43
436 213
184 294
480 269
206 375
200 142
464 2
135 347
221 207
256 260
147 425
148 2
165 199
300 478
353 75
208 132
282 132
325 80
509 175
11 412
320 178
377 437
79 340
265 462
128 192
294 12
5 213
48 194
249 157
353 206
257 217
333 116
246 459
511 229
90 133
137 541
2 230
128 400
294 175
91 255
86 109
156 471
37 377
169 6
470 389
396 304
133 365
365 296
108 350
264 90
304 69
108 189
295 417
415 480
196 376
507 109
373 50
471 135
219 441
112 75
458 310
483 73
70 317
258 533
113 492
173 445
44 111
284 360
350 17
148 48
370 221
290 15
99 366
355 459
386 415
283 181
226 329
373 300
190 392
10 290
110 291
415 392
296 66
427 385
443 472
541 483
210 470
432 424
214 452
455 86
79 248
435 162
123 301
232 154
83 485
347 154
325 470
215 56
121 293
56 179
201 7
193 510
400 410
190 413
230 314
309 329
533 420
130 529
356 226
256 72
124 361
258 47
11 273
449 523
426 513
131 40
155 228
77 520
184 115
99 540
95 535
320 322
470 326
229 356
373 328
92 169
178 406
99 461
212 416
199 454
512 481
36 442
319 133
384 48
435 494
61 461
504 1
493 324
414 296
407 282
70 45
52 381
99 338
312 366
532 238
281 62
181 534
472 409
141 369
284 239
380 42
220 197
332 497
346 60
134 220
508 512
206 167
251 291
148 105
537 228
462 157
203 533
496 180
341 500
431 378
180 308
381 87
70 42
107 2
468 33
213 280
535 4
222 187
90 56
509 425
85 175
314 400
16 154
429 229
446 506
349 366
533 180
296 435
215 409
222 283
86 309
272 209
286 3
444 82
316 413
162 165
100 195
346 291
370 226
210 160
243 393
473 201
115 14
434 473
80 476
381 322
92 349
380 98
476 32
131 314
239 491
394 252
313 370
242 261
168 116
346 273
76 341
97 193
442 171
166 375
526 217
133 293
523 250
169 330
53 335
337 298
448 489
312 516
525 134
301 312
388 468
507 87
292 514
506 520
448 163
99 164
10 508
279 358
282 375
205 70
209 49
340 338
90 375
4 413
163 54
69 457
73 528
280 450
65 528
16 535
15 238
474 531
229 329
515 428
335 70
123 195
290 146
372 22
178 426
505 340
346 309
479 261
482 514
97 238
215 126
497 426
474 355
195 349
463 424
125 185
493 267
122 322
242 219
314 344
466 34
454 147
175 538
284 121
479 44
25 169
527 339
209 243
291 256
386 95
128 112
426 479
476 264
332 210
192 148
3 42
346 127
39 474
117 386
5 159
458 379
166 117
387 516
166 296
325 246
284 488
325 375
109 535
145 187
172 296
462 273
481 432
183 12
526 462
400 496
296 421
500 276
342 179
369 458
139 515
303 476
478 505
151 205
360 401
12 66
53 56
27 170
488 481
438 422
32 162
433 196
148 67
420 537
155 83
490 26
397 409
168 441
245 373
359 219
384 335
190 358
46 460
435 338
446 314
82 530
407 144
474 430
422 247
529 76
295 399
400 243
109 235
359 341
33 72
276 10
418 312
89 418
430 5
342 528
313 391
146 184
335 354
439 150
461 39
355 480
328 142
37 130
186 102
401 187
289 373
377 486
184 284
295 229
381 352
488 321
66 337
361 24
518 446
287 229
494 170
174 427
46 393
108 97
245 121
392 164
349 418
415 381
291 331
393 57
168 81
271 73
465 304
256 187
283 51
386 68
143 461
84 384
295 92
301 85
81 501
484 147
78 20
36 454
201 456
468 336
153 290
379 535
377 315
106 481
489 461
30 353
473 68
384 495
431 475
131 359
27 184
308 344
78 365
480 52
87 434
437 382
51 152
282 108
169 74
100 132
417 252
187 10
164 484
122 166
240 7
502 258
536 337
267 199
250 493
313 384
513 58
251 187
219 279
325 29
45 251
129 329
280 395
530 64
142 349
148 447
79 92
520 498
109 52
350 75
367 280
110 44
146 55
234 355
179 367
406 506
435 497
209 111
19 45
369 535
321 472
379 274
517 187
111 320
467 336
264 84
187 495
79 353
145 399
193 270
271 142
411 522
518 463
44 272
245 50
308 230
320 183
141 358
234 25
258 116
255 158
342 334
491 327
215 408
107 221
3 393
242 451
154 442
144 237
146 94
497 36
269 95
459 1
310 4
494 105
423 463
259 347
181 35
492 383
336 432
253 472
411 307
407 497
215 262
202 433
20 59
262 417
491 164
59 226
214 236
409 508
312 61
36 525
207 517
191 192
54 201
59 370
510 365
167 324
94 198
237 370
312 137
220 397
142 85
23 248
155 430
404 377
311 428
366 300
40 319
133 349
112 206
305 171
350 300
14 10
258 286
22 112
468 104
177 519
186 245
422 132
143 450
391 371
316 52
459 155
412 149
448 319
288 92
52 379
479 7
191 185
188 86
146 131
128 446
503 523
366 12
350 62
303 208
208 430
244 486
254 398
126 121
194 271
206 506
332 516
247 274
461 123
417 294
285 300
62 143
384 143
189 10
292 122
327 214
214 345
254 465
527 81
356 5
492 297
259 419
396 214
125 400
376 249
282 252
164 394
128 9
502 79
46 64
443 122
255 497
387 307
216 15
338 293
54 535
244 541
202 218
360 515
129 157
333 485
316 415
191 460
1 381
285 97
265 524
223 150
83 496
227 41
34 498
442 538
302 357
463 357
46 137
226 157
46 194
103 102
141 331
248 164
348 520
141 128
395 73
358 431
144 425
434 480
124 20
281 220
56 375
35 382
286 158
251 467
156 264
421 375
146 360
386 507
265 31
435 405
502 283
226 323
444 140
387 192
434 352
27 337
256 248
334 346
84 106
76 258
309 73
423 426
186 2
207 416
368 33
533 381
358 352
68 480
359 12
169 258
307 56
42 84
475 15
504 262
266 426
439 427
236 357
373 538
185 278
252 533
455 235
142 268
363 163
452 157
57 344
189 467
372 67
407 147
480 109
248 24
463 278
171 103
111 236
176 195
198 492
164 486
156 355
516 47
336 189
285 215
455 52
374 519
70 97
302 370
49 362
3 90
486 341
529 245
310 440
13 209
309 226
337 461
180 350
376 181
182 153
434 141
23 527
187 189
519 421
325 137
419 261
158 185
218 97
365 285
416 377
184 461
59 237
327 128
511 65
481 317
296 121
255 528
425 426
432 267
381 134
186 476
349 294
176 270
352 490
473 514
359 394
141 188
524 298
505 219
469 541
279 425
119 147
243 515
38 60
110 322
512 206
310 422
527 48
313 491
519 122
29 400
51 244
81 335
81 99
199 93
512 411
142 448
342 436
416 334
169 156
23 282
320 486
141 310
491 184
526 452
498 335
391 272
395 238
248 72
165 194
453 503
165 425
161 382
286 295
128 83
44 307
11 342
365 443
413 498
494 130
257 4
16 126
88 52
159 250
326 89
378 111
433 62
289 435
511 436
151 531
286 483
502 520
274 95
9 180
476 399
449 130
132 209
376 106
342 501
135 128
101 181
451 108
444 157
291 467
204 498
61 384
34 99
130 277
172 284
42 187
85 448
342 346
314 212
306 196
151 61
35 459
463 47
348 245
404 382
471 77
228 119
168 156
172 67
420 471
458 4
513 168
199 347
540 43
16 267
152 118
149 65
106 375
473 316
424 234
415 438
89 378
198 414
505 263
530 524
535 381
516 168
49 24
291 284
501 31
384 315
171 197
428 92
230 411
129 195
515 119
52 42
287 217
426 74
194 75
160 391
119 276
40 374
394 104
252 77
79 483
276 98
208 465
124 177
162 335
331 172
444 406
108 503
381 379
130 288
538 281
76 37
499 511
282 145
298 452
492 241
176 249
307 427
436 395
540 24
415 87
90 326
195 294
406 167
33 540
503 66
354 324
493 75
216 290
468 84
160 108
522 313
368 115
360 50
205 361
429 48
302 208
398 371
26 52
163 490
445 315
227 312
508 443
45 263
428 424
194 508
281 134
423 460
282 471
464 145
100 49
525 162
513 398
237 364
275 152
438 257
24 10
294 113
171 421
473 235
25 11
394 66
314 523
59 451
222 262
345 204
512 107
32 28
194 495
474 391
222 477
346 226
352 137
128 475
351 359
138 295
357 425
117 148
533 282
496 85
434 7
302 388
387 501
37 448
451 438
333 445
20 264
495 202
124 81
262 295
27 100
161 524
17 70
290 223
189 158
256 79
6 306
10 66
250 344
73 115
183 93
114 144
152 436
335 59
155 529
314 358
32 51
333 336
436 82
180 342
427 92
199 214
445 372
405 529
473 369
164 341
232 435
273 280
14 404
88 240
62 220
119 107
177 242
86 163
392 240
21 23
520 137
77 168
299 242
406 103
259 439
145 222
441 181
44 325
213 2
197 122
227 414
232 432
510 210
141 88
45 270
538 299
120 45
503 233
271 312
18 423
246 483
134 432
283 387
143 367
517 465
528 90
428 44
266 184
53 30
471 34
418 293
278 292
58 212
180 402
172 126
60 462
261 444
191 300
539 18
359 449
397 478
76 164
486 302
440 282
410 125
413 109
299 24
42 457
269 109
248 15
180 171
136 471
384 304
274 310
72 216
25 131
163 188
456 117
460 527
389 362
328 245
209 44
46 132
361 279
62 446
161 279
502 305
216 187
507 4
403 199
454 339
467 23
59 57
350 92
175 380
278 285
239 500
20 16
380 187
495 433
301 489
14 486
374 325
95 316
79 278
306 460
445 481
281 18
15 71
236 345
237 18
390 322
131 373
336 245
111 193
49 285
379 480
52 54
33 71
390 347
96 508
453 218
394 377
342 137
357 243
38 528
480 26
256 388
385 98
500 251
239 10
175 416
242 8
145 357
90 80
515 320
22 160
350 474
461 385
513 67
313 58
508 218
258 423
403 102
483 135
11 219
437 14
28 532
28 295
412 179
378 341
514 228
467 388
271 340
326 264
440 421
372 172
88 4
255 192
119 260
406 186
155 214
81 339
440 126
266 195
143 344
464 196
254 279
47 169
203 459
230 155
25 491
294 123
303 99
414 495
260 223
517 514
334 280
362 106
523 295
531 454
118 226
516 254
148 282
347 102
446 205
199 334
120 291
188 352
401 290
501 524
6 41
97 513
266 175
406 416
37 499
344 33
80 363
40 337
286 46
39 77
113 7
290 225
174 241
288 159
352 438
302 270
42 8
352 7
488 317
303 384
541 75
240 86
209 411
49 441
489 63
501 69
43 532
473 399
277 314
539 112
36 102
287 226
69 526
296 537
3 466
177 23
340 300
366 441
39 222
379 330
22 123
189 15
26 310
181 351
226 530
16 525
65 367
127 493
323 82
413 363
499 341
307 132
369 310
265 129
142 72
95 507
26 269
336 447
245 175
32 204
22 380
372 284
512 70
58 476
160 466
351 67
353 466
375 257
320 384
374 80
84 324
146 235
89 192
295 434
165 171
485 514
363 456
128 495
328 335
484 341
16 165
55 106
357 56
429 324
177 15
190 163
417 282
342 493
302 20
195 496
392 434
281 435
263 470
152 346
450 284
406 462
103 267
246 347
266 461
21 397
251 227
71 124
29 57
175 477
110 505
129 511
18 147
10 388
104 277
340 72
6 520
408 69
116 8
143 42
395 275
160 429
100 476
149 298
475 320
226 129
71 292
499 105
339 314
447 263
509 366
103 354
205 1
400 33
217 201
455 190
241 300
527 447
487 203
346 271
57 110
438 434
66 224
190 490
438 7
130 486
88 415
56 346
355 125
520 207
354 232
188 434
69 465
26 535
412 271
48 493
432 365
541 146
386 434
399 121
424 11
493 35
337 161
25 279
104 249
83 40
60 179
361 178
245 301
291 304
79 44
364 145
86 117
514 211
534 484
383 249
466 72
121 138
270 40
376 51
364 90
63 507
352 269
309 179
152 131
469 332
372 520
279 250
183 107
79 489
101 153
354 18
208 108
443 79
263 414
467 85
176 479
384 47
210 32
339 107
371 540
131 104
115 204
516 460
80 185
427 158
153 463
539 404
364 458
140 471
114 52
196 350
206 264
135 348
404 236
232 144
498 152
288 449
145 519
516 499
36 530
455 392
100 137
386 480
397 398
154 255
452 287
425 18
452 501
133 85
77 92
245 266
291 532
419 110
296 474
451 20
236 62
380 78
467 378
379 438
260 262
132 284
401 500
68 316
480 274
274 87
16 144
94 336
297 374
375 215
345 536
240 201
222 515
490 7
211 305
384 107
481 374
513 311
508 180
458 54
376 400
101 434
329 273
249 470
31 524
251 339
468 131
67 332
313 411
267 197
224 525
340 393
247 240
2 42
532 225
494 161
50 318
367 213
344 83
151 153
213 526
189 476
486 404
54 117
162 232
479 207
471 440
396 442
59 304
420 198
490 316
208 264
38 129
423 370
434 310
507 434
270 121
108 485
301 520
250 104
29 344
62 202
167 95
325 445
358 338
78 322
470 476
243 212
68 363
22 270
437 334
199 538
493 25
461 318
73 342
277 34
241 79
43 432
105 409
84 375
115 79
117 4
67 502
96 101
540 532
101 81
365 332
242 172
524 436
401 94
241 296
457 151
157 420
135 16
262 449
142 27
489 482
133 461
297 440
120 74
284 227
187 94
271 38
86 7
254 204
390 354
362 493
147 91
282 34
180 516
478 160
411 163
155 464
366 204
398 75
393 373
38 11
95 109
300 477
150 249
116 512
467 401
251 16
493 374
121 78
518 399
88 274
245 200
357 324
164 288
414 234
271 218
245 85
217 360
289 134
525 147
354 165
406 337
15 59
281 289
131 151
393 344
9 344
503 177
116 427
277 227
168 34
315 250
288 240
162 343
313 516
63 109
134 431
104 243
107 325
142 266
416 309
448 90
261 517
173 492
433 66
484 5
48 516
341 210
302 272
492 380
227 539
9 101
500 216
416 349
397 124
293 11
92 440
54 88
275 271
130 40
539 499
134 442
34 47
236 124
385 203
387 400
334 275
438 4
12 477
356 346
217 95
355 206
310 88
449 377
351 531
155 112
483 14
184 50
250 377
268 396
283 259
399 222
127 520
420 34
35 97
30 196
429 465
325 16
163 233
310 363
354 407
196 249
168 475
229 64
407 93
180 98
327 328
86 392
158 165
216 426
258 117
464 468
84 406
351 132
323 287
98 333
117 434
193 222
286 99
233 71
358 473
348 155
415 117
476 513
232 347
400 180
191 514
16 407
287 60
330 34
2 268
276 216
189 290
411 42
114 528
141 386
121 285
536 92
341 159
449 494
347 91
377 453
221 138
299 43
256 443
115 466
532 214
364 420
113 427
79 244
518 230
362 80
27 294
193 215
303 262
492 426
433 29
23 270
188 109
387 478
262 138
29 270
13 107
298 517
208 173
383 439
80 357
262 513
313 322
204 361
489 462
238 189
312 364
327 137
281 403
518 328
211 240
420 376
530 152
518 417
311 9
286 50
444 96
357 169
381 310
287 271
517 348
270 61
438 86
390 525
291 238
340 364
530 65
428 373
361 46
449 164
242 6
529 5
499 14
29 230
39 181
337 219
300 420
30 96
416 459
381 358
361 268
318 195
61 278
93 147
14 395
220 391
397 90
453 27
142 195
453 151
336 146
259 48
422 63
15 360
433 249
423 421
491 479
519 476
529 305
200 21
70 302
491 50
186 242
340 252
37 14
532 468
276 336
497 403
403 91
399 450
68 499
146 106
364 98
113 169
476 161
346 385
360 479
29 296
12 184
285 444
111 261
318 388
385 443
13 340
183 465
117 88
515 462
294 448
421 222
275 49
131 112
82 306
425 102
457 330
430 520
128 286
355 386
81 482
256 533
96 350
174 417
439 208
339 370
185 183
