*Vertices 227
150 "#171"
181 "#83"
196 "#71"
19 "#124"
91 "#69"
87 "#134"
175 "#181"
109 "#116"
178 "#139"
172 "#113"
42 "#200"
70 "#193"
24 "#160"
187 "#55"
8 "#19"
61 "#90"
37 "#112"
170 "#182"
168 "#179"
151 "#4"
63 "#5"
156 "#101"
69 "#104"
66 "#30"
163 "#219"
214 "#50"
85 "#174"
183 "#175"
148 "#109"
16 "#183"
130 "#138"
79 "#210"
76 "#73"
177 "#26"
18 "#168"
118 "#225"
205 "#32"
129 "#59"
173 "#7"
73 "#81"
193 "#136"
27 "#23"
103 "#77"
105 "#108"
204 "#92"
111 "#111"
209 "#167"
100 "#64"
217 "#220"
84 "#176"
59 "#75"
138 "#222"
192 "#126"
141 "#150"
147 "#38"
95 "#98"
77 "#164"
174 "#146"
52 "#191"
114 "#144"
116 "#213"
176 "#114"
197 "#53"
51 "#156"
194 "#100"
215 "#184"
62 "#10"
21 "#223"
120 "#192"
2 "#115"
1 "#185"
35 "#47"
160 "#205"
4 "#155"
32 "#177"
101 "#142"
115 "#195"
221 "#158"
137 "#127"
6 "#173"
126 "#65"
113 "#128"
108 "#208"
179 "#76"
13 "#201"
40 "#43"
107 "#68"
142 "#203"
82 "#172"
53 "#45"
224 "#161"
131 "#17"
212 "#54"
22 "#88"
169 "#36"
10 "#49"
136 "#214"
17 "#41"
75 "#137"
74 "#133"
83 "#18"
3 "#162"
96 "#89"
49 "#84"
154 "#13"
20 "#218"
39 "#221"
158 "#217"
55 "#178"
191 "#79"
119 "#87"
45 "#197"
11 "#60"
222 "#93"
54 "#199"
144 "#12"
211 "#102"
65 "#34"
89 "#135"
124 "#194"
219 "#140"
152 "#95"
7 "#154"
99 "#196"
159 "#202"
149 "#186"
213 "#211"
220 "#20"
97 "#67"
127 "#62"
165 "#132"
216 "#86"
184 "#51"
128 "#107"
153 "#94"
12 "#82"
58 "#70"
44 "#9"
210 "#40"
145 "#2"
186 "#153"
135 "#48"
157 "#29"
208 "#6"
106 "#120"
189 "#52"
155 "#56"
14 "#61"
134 "#8"
56 "#106"
57 "#117"
225 "#151"
33 "#216"
50 "#125"
80 "#148"
41 "#163"
227 "#78"
78 "#180"
30 "#131"
25 "#31"
122 "#166"
200 "#129"
206 "#44"
164 "#105"
9 "#25"
60 "#110"
201 "#190"
68 "#11"
43 "#72"
132 "#224"
226 "#189"
15 "#37"
47 "#33"
31 "#58"
71 "#99"
88 "#57"
146 "#66"
92 "#198"
86 "#118"
26 "#24"
133 "#204"
123 "#96"
117 "#85"
202 "#97"
198 "#28"
64 "#122"
23 "#147"
203 "#3"
167 "#16"
29 "#91"
125 "#159"
207 "#21"
180 "#157"
143 "#46"
90 "#169"
46 "#143"
48 "#0"
182 "#121"
102 "#152"
110 "#206"
195 "#39"
188 "#141"
162 "#63"
104 "#42"
72 "#35"
218 "#15"
161 "#103"
36 "#130"
171 "#212"
223 "#149"
38 "#188"
28 "#215"
67 "#22"
121 "#123"
199 "#165"
112 "#226"
185 "#1"
98 "#27"
190 "#207"
34 "#170"
81 "#209"
139 "#14"
140 "#74"
5 "#119"
94 "#145"
166 "#80"
93 "#187"
*Edges
185 196
165 178
221 199
99 92
190 79
5 17
171 33
184 26
54 99
209 14
112 217
97 187
142 117
136 112
50 106
16 170
31 40
225 186
193 165
186 35
162 40
150 78
153 49
160 45
157 62
1 50
122 147
24 7
164 204
128 69
2 29
64 100
81 112
214 73
41 199
67 178
152 126
171 79
5 107
183 32
187 81
219 174
105 106
145 72
116 28
107 35
52 159
38 159
78 82
180 7
180 176
68 134
182 86
185 59
166 49
137 86
180 220
130 36
10 195
226 70
63 216
19 139
33 46
75 161
214 123
14 173
71 66
71 162
213 217
124 17
219 101
149 1
200 35
118 110
208 104
28 112
85 204
172 226
24 221
157 151
200 165
19 209
186 222
7 77
182 19
70 52
144 75
36 30
41 66
103 69
56 176
82 149
203 157
148 172
150 183
174 141
59 18
50 109
196 59
147 86
118 112
213 79
126 200
69 172
74 193
31 185
37 105
95 152
190 110
227 49
3 7
187 65
101 202
82 34
64 155
80 101
106 162
119 183
208 193
34 1
135 126
17 96
136 213
151 152
150 17
219 62
159 70
197 195
21 118
212 150
43 119
34 48
158 118
152 131
97 166
58 61
154 95
73 192
92 133
148 151
227 2
1 150
80 67
171 76
95 133
67 14
215 85
202 211
138 81
20 21
19 5
221 15
27 22
128 208
3 221
13 160
57 204
20 190
22 61
156 194
193 225
51 180
181 12
191 166
135 183
216 22
72 185
202 148
63 202
144 116
67 63
201 92
19 117
123 75
224 41
211 152
53 220
78 183
171 162
173 72
65 8
49 198
11 174
211 206
148 38
136 171
42 226
72 9
120 13
41 81
159 115
9 73
173 47
68 66
75 211
148 176
70 38
164 37
124 38
156 119
128 105
18 24
104 46
190 108
130 27
13 201
134 178
176 105
96 61
95 17
192 82
180 77
144 107
91 18
40 207
150 198
104 117
207 107
1 141
167 209
81 108
184 204
163 21
61 55
32 215
1 55
84 149
169 214
217 28
106 215
50 5
106 19
170 149
45 52
118 81
178 125
1 6
153 97
58 3
14 169
5 115
33 217
121 190
225 156
48 218
108 20
101 174
139 14
87 197
8 205
18 4
39 108
56 205
10 88
35 90
148 76
175 32
76 123
56 196
175 46
130 137
133 170
72 153
64 177
19 86
171 213
27 25
180 4
37 176
177 71
90 95
61 154
226 52
62 21
90 18
58 124
67 11
184 37
33 158
158 217
34 19
224 24
206 123
135 185
78 174
207 49
93 209
109 149
46 80
88 22
200 74
225 130
210 123
140 56
171 87
177 62
126 5
15 11
50 205
193 184
54 93
84 210
138 33
45 13
67 207
155 210
111 91
130 12
126 184
194 202
63 192
50 64
34 150
18 153
175 49
69 148
91 200
205 221
32 55
156 208
147 171
222 226
190 163
99 13
109 106
114 167
125 7
74 137
26 127
53 96
86 42
127 15
17 170
216 117
139 111
155 23
43 58
188 11
41 12
116 219
218 134
103 166
130 89
61 222
5 109
126 104
202 167
133 52
119 61
1 215
213 158
149 85
19 2
220 159
152 37
2 146
108 158
5 210
191 133
30 193
25 212
55 85
49 91
76 196
121 80
145 65
110 20
170 78
225 114
67 211
61 226
131 177
167 208
97 109
109 64
148 56
78 32
12 56
187 145
67 124
226 186
49 65
158 39
155 151
16 61
19 119
182 106
135 169
14 140
87 119
21 112
45 120
178 113
123 151
174 23
174 46
188 114
137 210
164 172
51 224
198 27
59 140
128 167
11 72
56 111
135 187
106 64
12 177
206 184
188 219
4 125
93 42
25 8
143 62
209 15
62 84
171 163
195 106
6 59
142 160
103 212
199 141
72 128
13 227
62 184
219 223
82 67
50 178
218 62
38 133
78 84
119 140
202 32
224 92
167 53
18 199
39 112
203 210
81 190
75 137
41 180
93 99
108 138
107 135
33 108
150 167
163 77
25 63
100 205
79 163
110 200
122 18
184 105
224 77
39 138
201 93
74 30
142 203
164 5
11 154
183 84
215 150
164 47
114 80
127 167
215 165
16 1
116 138
139 47
130 113
207 208
131 203
10 44
143 5
177 72
51 125
112 33
88 220
133 93
183 16
15 161
206 119
19 48
62 88
38 92
167 89
222 195
180 129
187 144
217 132
203 150
93 159
80 113
146 127
84 45
209 224
3 209
180 97
207 191
70 42
214 17
100 175
99 115
19 227
154 207
223 94
39 110
76 139
153 145
120 93
123 73
45 159
64 204
148 105
15 143
40 9
36 212
2 109
41 77
72 97
117 29
36 4
193 162
158 112
71 128
129 135
89 87
104 64
51 3
6 183
134 121
9 147
202 31
7 90
70 115
50 73
206 84
28 110
58 76
69 164
29 17
136 116
6 215
50 65
80 12
17 210
130 200
85 32
148 164
64 167
175 170
101 154
218 91
8 9
177 44
13 93
192 109
64 86
219 225
77 125
226 153
91 131
125 122
52 142
1 85
113 200
30 72
161 153
132 81
150 82
21 39
11 176
217 81
197 181
172 176
14 40
29 222
39 81
207 98
37 212
149 175
20 217
138 109
113 157
103 63
19 192
96 222
92 54
195 130
61 204
188 211
205 207
114 223
218 205
129 222
131 76
2 161
183 121
140 178
79 118
128 148
119 29
44 154
189 179
221 209
188 73
212 147
119 216
222 220
122 224
16 175
56 202
154 5
112 35
104 26
122 7
41 87
84 155
86 5
87 36
79 196
95 153
110 21
95 59
192 106
71 156
24 199
128 114
188 75
180 11
39 132
175 78
102 80
219 114
63 10
147 187
64 121
84 1
171 132
161 156
220 27
102 94
206 100
57 5
208 36
181 141
1 20
200 166
93 170
167 20
227 73
179 207
163 118
110 81
27 206
166 43
6 83
49 80
33 149
175 1
80 188
173 58
220 103
100 8
13 38
189 101
171 69
80 212
115 120
160 99
21 81
160 159
94 141
3 90
38 115
212 107
144 216
130 178
174 134
192 78
14 185
63 91
160 201
96 46
137 129
192 37
146 195
23 225
102 46
23 223
85 51
93 115
220 144
55 34
179 187
176 111
1 170
199 61
146 224
182 61
101 146
161 41
68 121
48 134
123 194
90 216
173 50
15 9
125 3
21 210
67 68
195 35
48 144
210 154
131 205
76 75
142 38
38 117
104 72
45 70
223 199
209 188
142 92
11 156
193 113
149 168
122 90
12 100
224 18
161 123
156 202
112 138
154 98
46 186
113 30
60 103
200 19
105 127
65 126
205 197
34 170
53 221
213 81
137 200
65 167
198 35
74 87
36 131
151 184
69 4
24 4
85 161
138 28
153 156
152 71
24 123
178 74
114 186
210 173
70 93
43 115
15 48
100 105
89 75
160 93
3 201
72 5
120 54
56 60
101 46
190 122
14 223
61 185
14 179
153 129
13 176
51 53
77 75
111 108
200 89
21 49
212 134
41 24
168 34
171 190
191 61
68 192
179 76
8 152
204 214
156 129
10 105
175 6
94 219
162 63
208 8
132 112
210 31
20 79
72 144
19 92
215 168
213 110
145 198
36 134
55 82
70 120
208 17
101 223
23 219
140 222
208 198
109 121
30 71
38 201
67 57
177 221
96 203
11 143
194 139
185 139
40 131
121 57
182 22
172 53
185 35
153 130
15 144
197 198
116 39
52 120
28 136
185 143
94 187
118 28
60 85
61 117
25 64
224 7
9 126
197 40
111 156
31 73
34 149
188 23
60 37
20 33
125 41
27 15
104 143
55 150
62 208
146 97
203 189
106 57
203 155
17 129
170 215
91 68
69 60
225 121
174 75
60 152
207 194
4 7
126 173
133 211
49 103
135 151
66 131
185 146
124 99
10 70
31 27
21 132
12 87
98 89
221 41
54 160
183 185
125 209
184 222
96 14
200 23
101 102
173 204
90 51
112 20
1 78
15 29
189 9
88 133
204 196
112 95
12 19
38 42
134 15
136 190
34 7
195 92
226 124
222 204
74 113
79 28
200 146
5 121
43 222
173 216
74 89
61 123
218 88
128 172
31 11
42 133
66 217
104 63
148 41
114 105
37 214
37 126
42 54
118 108
84 16
124 70
206 148
12 212
157 66
3 191
221 4
59 11
18 29
71 20
202 152
222 154
107 186
170 183
199 209
46 223
53 208
170 85
124 115
153 123
15 177
175 84
170 113
226 45
38 52
50 80
155 27
183 149
64 182
76 82
172 9
158 163
122 77
177 197
121 182
206 210
163 116
84 150
39 33
129 27
47 157
82 1
31 126
209 77
71 161
163 201
182 109
216 96
9 184
222 117
210 197
12 27
66 10
197 206
80 119
84 168
43 47
23 135
75 49
173 129
121 2
20 14
216 222
222 102
16 85
172 111
212 14
156 95
216 148
209 18
11 211
42 159
120 92
69 190
23 17
180 205
45 61
158 132
46 94
43 11
27 39
99 184
195 95
107 62
131 48
53 206
201 64
172 37
112 110
31 218
144 77
213 112
171 39
64 57
121 192
3 14
215 78
45 46
159 124
92 2
168 150
49 73
195 85
206 174
170 150
158 171
159 54
214 44
70 201
5 14
52 93
109 57
224 154
85 165
205 166
213 118
147 76
41 209
4 156
181 154
69 139
27 114
160 206
147 123
79 217
133 159
73 56
89 148
47 81
176 60
198 131
193 26
183 201
82 146
44 101
7 199
159 29
139 225
219 80
165 75
190 37
62 35
22 4
220 195
157 129
108 163
204 66
190 112
100 194
196 58
108 136
95 62
227 127
217 118
207 206
21 33
37 148
179 140
87 182
140 43
193 175
57 86
15 135
85 168
82 183
132 79
138 20
155 153
18 179
102 62
105 22
37 200
83 97
210 208
151 11
196 68
195 108
171 81
152 40
108 21
226 99
132 213
134 131
188 186
227 150
21 190
188 221
226 159
49 59
105 83
96 204
19 121
186 23
96 192
184 23
98 196
10 35
178 87
36 182
8 114
205 171
157 184
117 34
104 166
124 42
85 183
205 33
67 129
75 113
4 202
30 75
128 164
186 219
151 97
151 40
46 76
144 9
68 203
110 138
130 75
102 186
52 175
177 144
101 225
108 79
83 48
48 212
214 60
141 161
141 101
115 54
186 214
211 197
174 192
27 47
37 103
2 50
138 118
17 137
4 90
198 83
127 206
48 196
193 84
67 154
224 221
15 18
220 24
93 226
114 181
82 16
101 81
122 209
200 36
158 20
199 122
125 221
178 36
49 10
225 102
221 90
146 35
78 55
163 39
137 30
201 42
129 145
60 186
197 155
57 214
27 83
223 225
174 186
183 55
192 50
122 129
4 181
17 67
126 195
224 180
120 196
65 17
216 61
226 92
46 43
177 168
160 133
172 60
70 99
92 42
131 68
56 166
30 87
41 122
137 204
145 25
38 99
164 111
189 115
46 141
33 28
165 74
59 127
9 153
173 202
147 155
18 41
201 226
57 50
72 61
186 94
141 225
52 99
215 82
136 21
135 104
33 132
181 76
15 145
99 67
57 182
142 99
6 149
149 55
184 86
165 5
41 51
138 136
60 111
142 93
46 93
104 131
185 91
56 25
35 30
71 173
97 189
103 22
49 12
163 138
194 218
22 204
201 126
33 110
224 90
178 173
202 71
92 93
114 101
132 116
185 25
213 20
200 178
148 150
44 200
31 220
137 36
124 13
106 46
96 117
72 187
150 49
127 65
213 190
227 191
122 23
10 14
90 24
160 52
190 132
102 223
107 210
162 145
64 41
123 71
29 96
126 176
22 155
6 15
215 175
186 141
82 102
36 176
90 180
67 131
116 110
160 226
116 158
204 216
144 29
20 136
92 13
58 59
188 94
10 190
109 41
47 98
219 46
82 206
200 193
52 42
33 79
8 17
41 176
107 134
226 13
178 225
171 28
194 117
30 178
10 53
3 104
101 94
208 88
27 179
65 25
14 107
134 95
143 182
133 54
131 191
123 88
180 125
163 217
12 103
183 34
66 25
165 173
190 26
208 25
21 171
12 166
66 73
138 217
85 150
203 143
85 175
123 202
14 147
84 55
134 199
137 101
109 137
61 34
130 74
79 136
185 40
70 73
195 127
215 183
13 52
179 43
141 188
212 10
165 24
219 15
223 188
28 4
140 24
56 178
203 126
66 174
206 157
100 19
38 93
108 28
19 222
78 16
155 142
120 226
157 56
223 166
32 4
28 39
212 3
227 12
190 39
207 153
68 38
46 225
117 22
191 49
110 171
127 207
216 47
188 101
197 213
56 164
6 170
219 102
111 46
178 89
84 215
126 15
168 55
65 156
181 91
16 218
33 190
44 210
138 21
115 142
204 62
98 65
122 88
83 14
44 206
135 123
126 192
40 154
87 113
178 156
220 185
199 152
190 217
128 111
23 46
48 199
194 148
199 90
55 6
176 164
89 61
46 38
113 11
113 173
76 105
189 44
198 53
13 54
38 54
77 3
199 181
76 189
218 9
3 18
121 154
83 53
106 196
16 149
56 215
194 161
71 166
33 118
98 197
217 136
161 211
160 115
137 89
14 80
44 169
42 109
184 143
164 7
178 137
132 20
214 48
129 48
184 53
130 184
63 97
39 133
131 57
150 16
192 57
108 110
220 189
133 115
92 168
121 106
182 5
164 60
78 85
41 7
86 2
104 214
201 52
6 168
62 72
127 211
98 129
171 108
174 114
105 69
193 130
61 190
181 227
50 147
217 171
158 79
34 6
76 4
53 12
85 34
48 88
75 36
34 78
120 171
1 183
145 103
25 9
140 151
211 120
186 80
140 196
93 45
210 68
154 66
165 13
12 4
199 197
29 204
73 147
224 125
11 8
108 217
105 164
127 66
88 216
146 188
54 201
25 214
101 164
160 124
54 124
18 162
184 137
79 81
225 188
213 108
106 2
153 202
62 113
223 111
90 41
160 70
23 114
46 124
22 124
32 149
25 35
30 124
75 87
202 135
113 137
158 21
107 218
61 212
179 196
80 69
31 46
80 225
152 156
45 92
181 191
21 217
60 92
95 140
20 28
113 89
221 101
193 166
82 168
196 43
181 137
133 142
214 144
198 62
29 22
180 199
55 195
184 73
226 121
22 26
165 139
168 131
6 78
103 191
149 150
89 134
206 167
163 110
89 36
128 32
61 51
133 120
201 45
30 130
177 97
136 81
80 94
120 159
48 130
31 2
208 188
36 74
157 126
76 12
64 48
154 65
175 150
63 114
49 181
203 117
48 200
156 10
165 137
213 163
194 71
127 72
131 11
127 31
7 51
52 92
114 5
104 123
115 226
118 171
168 199
215 180
182 67
211 194
136 33
