*Vertices 104
60 "#65"
65 "#55"
40 "#63"
90 "#18"
58 "#4"
86 "#75"
11 "#23"
6 "#77"
88 "#45"
67 "#0"
61 "#103"
16 "#90"
12 "#8"
75 "#101"
1 "#38"
81 "#58"
7 "#40"
85 "#64"
95 "#72"
21 "#51"
94 "#11"
101 "#37"
104 "#69"
78 "#91"
82 "#33"
17 "#29"
76 "#28"
72 "#44"
27 "#43"
57 "#24"
39 "#57"
31 "#34"
97 "#26"
10 "#12"
87 "#25"
29 "#100"
91 "#59"
34 "#83"
66 "#7"
68 "#22"
28 "#70"
19 "#46"
20 "#14"
42 "#47"
59 "#35"
102 "#76"
9 "#50"
71 "#67"
48 "#89"
8 "#78"
103 "#6"
49 "#21"
93 "#41"
18 "#98"
77 "#93"
53 "#60"
22 "#27"
23 "#39"
14 "#49"
3 "#30"
56 "#54"
32 "#53"
73 "#73"
51 "#88"
25 "#48"
5 "#9"
41 "#68"
100 "#3"
98 "#102"
99 "#84"
2 "#42"
62 "#66"
24 "#86"
47 "#1"
83 "#2"
15 "#19"
69 "#32"
45 "#15"
89 "#62"
26 "#81"
96 "#10"
30 "#61"
44 "#16"
38 "#97"
43 "#79"
37 "#82"
13 "#94"
4 "#92"
92 "#96"
54 "#5"
55 "#36"
46 "#85"
70 "#31"
35 "#56"
80 "#99"
50 "#17"
74 "#87"
33 "#71"
79 "#80"
63 "#52"
36 "#20"
52 "#74"
84 "#95"
64 "#13"
*Edges
64 36
95 48
19 1
93 18
104 67
89 47
10 9
39 53
66 3
45 17
82 80
89 101
60 11
67 86
9 22
43 36
13 39
13 8
91 3
79 15
26 37
39 29
44 87
15 103
75 67
17 68
20 97
70 20
36 10
100 62
51 48
70 14
21 103
73 61
86 33
50 77
79 37
38 7
49 52
61 18
53 76
84 59
80 13
91 94
101 32
28 20
93 50
29 9
85 100
12 67
45 10
64 8
73 95
5 76
31 23
61 58
37 43
16 53
56 89
12 28
68 36
44 35
46 77
41 46
68 64
67 52
35 38
97 102
37 23
72 44
11 45
79 70
62 23
47 74
80 84
93 101
61 66
48 7
62 39
83 41
46 16
100 55
19 73
62 30
35 5
67 91
9 79
94 53
34 68
90 40
46 21
83 45
7 32
12 34
65 59
7 84
98 18
26 24
34 43
60 52
65 50
43 28
70 5
53 42
70 10
27 22
3 98
18 35
101 70
88 67
19 52
67 23
100 56
69 82
48 46
52 95
17 94
4 72
68 14
49 38
11 3
34 86
59 93
82 63
67 57
22 97
65 63
78 10
92 84
2 95
62 25
97 1
33 18
93 65
75 98
78 74
80 37
51 98
41 60
34 30
13 5
85 60
12 11
98 90
17 83
18 25
51 24
1 20
21 16
70 102
21 41
55 25
78 85
13 61
41 11
96 3
18 94
85 21
85 19
85 10
50 46
9 19
16 11
52 83
100 91
83 94
34 26
70 57
66 39
38 94
63 52
79 35
77 51
90 79
45 95
10 4
63 50
93 12
91 54
1 68
60 53
51 58
21 53
48 83
8 11
56 70
10 101
103 99
67 80
20 93
49 60
78 48
36 14
60 16
31 103
35 82
67 3
33 73
2 47
23 73
93 14
4 47
84 11
42 76
48 32
50 61
73 102
90 36
29 56
28 70
78 46
37 27
42 30
27 1
16 15
56 63
78 53
79 23
60 70
27 90
32 80
104 62
8 28
61 36
14 101
102 33
52 102
58 60
103 56
27 17
57 22
13 93
75 49
78 36
17 41
92 91
99 52
77 61
78 82
46 53
9 99
37 99
102 95
32 10
29 98
2 9
78 16
61 38
84 38
71 59
91 83
84 98
26 30
30 39
7 1
26 27
20 76
41 84
39 3
52 90
64 2
63 30
13 38
77 74
53 7
56 82
79 81
45 60
53 65
88 38
63 49
13 95
59 61
45 85
2 74
67 21
82 2
67 62
57 18
86 81
34 99
1 3
98 61
99 19
101 64
22 20
58 1
26 78
83 63
53 12
95 43
64 23
86 52
6 88
86 28
78 4
15 102
34 79
43 47
60 39
51 13
85 16
5 1
90 50
20 5
84 61
81 35
22 45
52 73
79 21
86 41
90 37
5 75
29 18
82 27
74 53
47 45
40 22
55 35
62 9
29 48
85 70
7 16
19 8
63 69
2 66
37 70
1 77
17 46
74 4
64 10
71 82
98 8
78 21
29 11
26 51
60 84
3 41
11 82
84 49
46 35
63 93
55 85
14 54
36 94
27 7
51 67
35 71
8 79
52 45
16 35
73 68
18 13
29 13
62 103
46 72
70 40
26 68
57 45
31 83
98 59
76 95
32 53
98 9
72 63
43 100
86 23
80 29
46 26
35 36
52 41
78 94
28 11
58 14
17 38
15 28
96 67
60 76
68 67
27 71
88 13
2 68
65 16
48 41
14 2
29 32
97 32
80 50
33 95
98 13
81 52
104 2
45 9
75 29
35 97
68 86
46 2
2 4
2 17
40 56
59 35
34 6
19 79
62 31
104 25
94 46
42 60
77 36
2 52
101 36
8 95
89 82
44 76
1 22
16 10
93 38
19 97
20 36
59 82
89 96
14 37
45 41
94 56
64 79
58 48
52 57
52 29
14 15
62 56
97 42
85 4
67 39
85 58
46 36
85 91
98 5
86 50
46 51
16 24
89 85
53 15
62 42
50 59
19 37
102 57
63 86
86 31
101 83
79 1
19 57
30 31
18 88
63 90
32 92
81 91
90 94
14 91
17 22
57 103
20 12
5 40
92 81
87 82
64 67
84 62
36 2
66 96
98 38
78 45
37 20
17 60
35 20
79 103
32 83
16 70
47 13
89 45
98 16
1 26
30 72
35 100
100 103
84 29
40 7
98 36
97 52
84 13
76 22
58 70
75 84
28 102
11 20
76 28
21 98
63 87
27 57
92 83
79 14
50 13
19 102
67 66
62 92
26 99
50 52
57 51
45 96
87 72
40 27
57 9
26 48
84 52
4 16
102 20
42 23
11 83
11 43
52 15
20 26
57 17
103 53
28 48
77 94
48 80
37 84
48 16
26 43
13 54
94 74
50 53
56 31
64 88
59 92
81 27
68 23
55 91
15 57
24 23
76 70
79 36
17 11
22 5
96 85
77 73
6 8
4 51
97 5
88 94
53 57
74 48
60 19
63 31
80 5
73 15
51 1
4 94
87 30
17 78
101 97
43 8
33 31
16 77
79 43
70 24
48 15
40 1
88 68
17 61
92 80
27 9
10 21
6 86
103 40
92 48
82 84
43 6
66 29
54 58
75 24
75 9
67 4
12 99
87 29
76 39
79 99
83 29
12 70
46 4
34 37
38 18
38 21
26 52
75 21
75 52
49 50
56 83
74 16
98 56
12 57
20 44
11 93
102 77
23 30
35 19
12 7
48 1
8 34
44 63
29 61
70 78
27 35
46 74
12 32
86 102
19 70
35 76
