Vertices 656
61 "#308"
543 "#497"
459 "#600"
426 "#477"
355 "#571"
253 "#508"
72 "#60"
345 "#491"
551 "#113"
653 "#319"
630 "#150"
268 "#530"
42 "#181"
48 "#92"
585 "#549"
352 "#422"
68 "#456"
647 "#336"
179 "#547"
476 "#121"
358 "#377"
269 "#299"
348 "#461"
169 "#524"
627 "#13"
349 "#135"
102 "#640"
449 "#615"
124 "#260"
100 "#522"
240 "#226"
337 "#30"
540 "#347"
91 "#590"
450 "#173"
340 "#120"
473 "#432"
479 "#205"
49 "#258"
544 "#42"
243 "#251"
171 "#44"
633 "#425"
362 "#212"
628 "#77"
290 "#138"
480 "#527"
123 "#249"
309 "#166"
7 "#430"
157 "#122"
626 "#546"
50 "#575"
277 "#263"
307 "#360"
166 "#190"
395 "#194"
186 "#359"
607 "#603"
136 "#62"
460 "#149"
234 "#375"
236 "#171"
98 "#26"
229 "#215"
624 "#345"
344 "#634"
278 "#630"
79 "#99"
402 "#540"
194 "#544"
296 "#276"
21 "#25"
132 "#369"
167 "#175"
576 "#417"
524 "#492"
10 "#37"
189 "#555"
535 "#493"
615 "#331"
549 "#130"
555 "#335"
140 "#225"
159 "#489"
334 "#579"
213 "#412"
306 "#116"
547 "#12"
388 "#356"
88 "#564"
227 "#193"
559 "#158"
432 "#531"
138 "#455"
599 "#558"
525 "#199"
642 "#447"
120 "#268"
339 "#213"
299 "#337"
397 "#608"
327 "#499"
505 "#426"
569 "#568"
571 "#256"
252 "#543"
165 "#516"
357 "#424"
515 "#490"
489 "#155"
84 "#102"
572 "#346"
603 "#556"
477 "#45"
625 "#143"
133 "#76"
105 "#395"
331 "#632"
235 "#394"
453 "#565"
221 "#415"
646 "#435"
141 "#292"
516 "#429"
587 "#367"
208 "#631"
498 "#20"
271 "#97"
73 "#625"
412 "#388"
183 "#479"
326 "#623"
177 "#323"
347 "#396"
565 "#140"
13 "#380"
314 "#449"
545 "#444"
241 "#495"
409 "#646"
639 "#609"
406 "#334"
621 "#621"
9 "#238"
609 "#343"
374 "#472"
425 "#442"
308 "#354"
610 "#349"
598 "#0"
561 "#216"
557 "#84"
151 "#536"
202 "#11"
372 "#309"
57 "#409"
589 "#245"
520 "#636"
528 "#182"
185 "#90"
428 "#635"
201 "#487"
500 "#119"
260 "#475"
468 "#550"
59 "#136"
622 "#73"
635 "#131"
533 "#357"
553 "#279"
256 "#482"
301 "#411"
641 "#389"
423 "#147"
601 "#220"
4 "#518"
440 "#393"
96 "#156"
531 "#511"
580 "#537"
66 "#244"
226 "#581"
490 "#427"
11 "#322"
176 "#4"
582 "#211"
393 "#457"
454 "#316"
180 "#390"
465 "#304"
266 "#419"
230 "#598"
97 "#473"
519 "#330"
574 "#250"
488 "#154"
482 "#629"
119 "#458"
58 "#486"
246 "#53"
37 "#167"
431 "#397"
215 "#75"
158 "#416"
304 "#443"
281 "#247"
30 "#488"
541 "#655"
335 "#637"
43 "#100"
608 "#545"
182 "#38"
26 "#124"
276 "#282"
222 "#253"
457 "#552"
248 "#507"
232 "#187"
448 "#310"
160 "#481"
33 "#177"
54 "#436"
287 "#185"
212 "#203"
147 "#228"
161 "#144"
217 "#523"
223 "#611"
602 "#89"
146 "#515"
542 "#616"
644 "#431"
116 "#572"
129 "#505"
591 "#58"
8 "#441"
407 "#267"
142 "#341"
556 "#606"
197 "#255"
292 "#208"
638 "#83"
107 "#619"
588 "#604"
636 "#450"
203 "#364"
206 "#285"
399 "#506"
342 "#559"
503 "#151"
392 "#529"
134 "#362"
110 "#471"
649 "#186"
193 "#538"
93 "#557"
312 "#329"
139 "#434"
305 "#633"
373 "#528"
242 "#643"
390 "#391"
474 "#61"
47 "#401"
2 "#125"
590 "#281"
616 "#591"
274 "#95"
164 "#512"
210 "#588"
3 "#504"
434 "#293"
552 "#519"
336 "#585"
532 "#405"
262 "#510"
258 "#218"
103 "#50"
371 "#627"
375 "#445"
464 "#230"
517 "#645"
27 "#554"
178 "#274"
14 "#133"
492 "#41"
400 "#68"
534 "#65"
333 "#64"
612 "#459"
76 "#494"
78 "#3"
634 "#570"
247 "#344"
280 "#453"
320 "#580"
32 "#496"
579 "#617"
501 "#291"
289 "#573"
546 "#296"
513 "#161"
584 "#179"
90 "#644"
401 "#146"
611 "#123"
651 "#127"
5 "#567"
496 "#326"
239 "#610"
413 "#653"
346 "#312"
419 "#283"
643 "#370"
377 "#325"
174 "#448"
458 "#399"
512 "#23"
514 "#262"
126 "#327"
438 "#406"
254 "#197"
445 "#569"
422 "#51"
162 "#602"
328 "#223"
204 "#517"
469 "#410"
566 "#437"
487 "#469"
379 "#259"
433 "#210"
592 "#392"
38 "#17"
143 "#374"
25 "#112"
632 "#438"
495 "#67"
596 "#465"
264 "#403"
81 "#115"
64 "#152"
509 "#592"
418 "#265"
573 "#264"
629 "#198"
63 "#318"
22 "#224"
263 "#222"
130 "#201"
439 "#614"
207 "#55"
494 "#485"
405 "#54"
656 "#521"
95 "#106"
481 "#500"
228 "#654"
451 "#418"
44 "#586"
156 "#463"
127 "#239"
461 "#19"
365 "#235"
115 "#468"
472 "#202"
188 "#624"
83 "#270"
245 "#439"
196 "#27"
343 "#93"
378 "#105"
145 "#117"
272 "#413"
613 "#35"
385 "#503"
113 "#382"
310 "#460"
321 "#2"
455 "#402"
238 "#57"
619 "#386"
249 "#132"
219 "#206"
285 "#129"
595 "#428"
6 "#509"
163 "#376"
170 "#188"
539 "#107"
403 "#278"
497 "#541"
218 "#618"
94 "#404"
152 "#227"
154 "#533"
330 "#480"
224 "#582"
295 "#383"
350 "#348"
604 "#440"
12 "#526"
20 "#96"
618 "#501"
620 "#452"
283 "#355"
567 "#451"
99 "#464"
404 "#248"
313 "#191"
41 "#59"
149 "#338"
56 "#78"
112 "#8"
205 "#39"
155 "#398"
420 "#576"
144 "#234"
648 "#14"
570 "#532"
623 "#642"
437 "#340"
361 "#63"
510 "#280"
383 "#126"
315 "#563"
463 "#587"
322 "#221"
82 "#233"
172 "#470"
148 "#300"
486 "#1"
135 "#5"
323 "#32"
416 "#612"
430 "#328"
109 "#72"
594 "#241"
244 "#43"
526 "#24"
382 "#454"
414 "#246"
216 "#183"
46 "#421"
536 "#159"
168 "#153"
181 "#275"
394 "#104"
319 "#103"
29 "#163"
282 "#339"
85 "#574"
225 "#196"
600 "#502"
417 "#111"
359 "#607"
518 "#200"
257 "#298"
275 "#589"
475 "#165"
53 "#400"
560 "#174"
429 "#641"
652 "#313"
302 "#650"
273 "#232"
40 "#305"
70 "#189"
484 "#214"
55 "#639"
456 "#317"
251 "#273"
370 "#373"
80 "#476"
39 "#379"
606 "#294"
637 "#351"
444 "#80"
586 "#168"
493 "#596"
51 "#240"
77 "#236"
478 "#34"
470 "#620"
508 "#372"
121 "#176"
442 "#387"
153 "#324"
427 "#307"
125 "#81"
410 "#306"
137 "#560"
435 "#47"
650 "#597"
380 "#539"
550 "#287"
364 "#384"
338 "#595"
507 "#358"
368 "#243"
317 "#626"
316 "#385"
104 "#16"
24 "#290"
16 "#56"
259 "#170"
220 "#583"
92 "#252"
563 "#184"
645 "#333"
360 "#15"
195 "#109"
523 "#594"
366 "#288"
548 "#148"
446 "#466"
199 "#289"
18 "#86"
114 "#365"
578 "#242"
111 "#52"
131 "#483"
568 "#414"
86 "#101"
485 "#217"
150 "#22"
52 "#484"
577 "#566"
117 "#21"
353 "#613"
381 "#40"
284 "#553"
332 "#71"
173 "#433"
499 "#651"
298 "#286"
631 "#28"
538 "#261"
311 "#108"
575 "#70"
211 "#46"
286 "#162"
318 "#139"
214 "#33"
356 "#209"
504 "#342"
527 "#82"
31 "#381"
291 "#561"
15 "#332"
34 "#408"
466 "#315"
398 "#513"
122 "#257"
537 "#94"
106 "#542"
443 "#269"
511 "#10"
411 "#366"
108 "#88"
386 "#128"
471 "#134"
28 "#284"
297 "#69"
237 "#297"
522 "#91"
190 "#9"
617 "#378"
75 "#584"
192 "#145"
391 "#79"
279 "#462"
184 "#474"
270 "#74"
71 "#141"
45 "#577"
74 "#87"
564 "#29"
384 "#638"
35 "#363"
60 "#361"
447 "#350"
303 "#407"
467 "#514"
101 "#237"
233 "#219"
562 "#301"
436 "#195"
288 "#478"
261 "#266"
69 "#271"
408 "#599"
415 "#593"
367 "#66"
250 "#647"
654 "#551"
655 "#7"
255 "#137"
325 "#498"
329 "#85"
17 "#420"
452 "#321"
231 "#628"
581 "#534"
89 "#178"
23 "#110"
558 "#114"
341 "#652"
441 "#467"
354 "#520"
529 "#320"
187 "#172"
424 "#295"
369 "#118"
118 "#303"
605 "#31"
614 "#157"
267 "#36"
554 "#48"
483 "#352"
462 "#164"
300 "#601"
593 "#98"
530 "#311"
421 "#142"
521 "#525"
389 "#314"
265 "#18"
351 "#277"
597 "#254"
396 "#207"
87 "#229"
324 "#562"
19 "#49"
502 "#353"
1 "#535"
583 "#169"
191 "#368"
506 "#192"
198 "#648"
128 "#231"
640 "#160"
387 "#578"
209 "#605"
376 "#302"
67 "#204"
36 "#272"
65 "#548"
175 "#6"
62 "#423"
491 "#180"
363 "#622"
200 "#371"
293 "#649"
294 "#446"
Edges
597 261
304 285
96 172
418 620
311 112
625 202
603 513
118 61
631 594
527 327
24 308
586 536
391 199
11 101
79 219
245 650
242 362
47 51
15 190
655 648
157 207
66 87
290 454
168 170
361 126
158 296
494 294
129 385
7 626
186 197
378 422
265 381
98 447
548 161
25 589
391 103
409 235
532 88
294 540
377 135
176 474
649 285
253 57
382 303
280 127
624 623
22 95
498 576
453 378
285 292
520 131
294 115
526 484
510 564
500 565
104 14
395 234
414 464
542 242
149 583
49 190
388 70
453 354
34 23
575 197
545 351
601 406
228 623
389 522
376 10
101 44
401 320
573 553
130 43
551 444
156 32
603 50
450 443
523 53
535 307
115 447
377 575
291 262
162 403
302 490
596 134
565 126
630 210
122 314
240 81
503 641
78 518
475 351
199 276
650 364
483 314
642 597
192 56
126 96
455 210
615 395
595 234
78 627
354 268
87 121
290 589
403 79
488 465
154 272
42 117
82 557
214 510
444 653
387 226
133 225
208 623
150 391
475 29
454 241
21 400
104 163
485 653
417 469
431 284
319 43
627 631
625 30
651 140
453 479
168 77
485 528
474 95
141 477
109 68
617 116
246 382
247 53
30 360
126 644
550 424
383 157
369 646
384 637
427 510
26 635
190 433
11 260
469 621
490 89
590 370
168 542
259 388
625 613
539 242
36 28
530 263
4 296
148 175
125 135
43 19
87 301
156 83
19 598
281 563
152 550
340 167
118 481
56 394
627 82
356 126
227 17
40 236
586 434
277 578
220 387
307 208
183 255
61 582
591 306
266 222
538 563
216 86
271 23
486 41
78 330
387 652
530 427
212 67
538 41
545 304
649 175
246 455
179 330
490 414
400 495
48 274
536 462
190 244
430 296
261 13
494 312
492 474
411 560
301 184
603 607
472 316
512 538
381 96
534 19
227 611
227 456
47 155
439 29
466 219
627 534
158 264
305 35
272 353
35 555
143 66
425 516
261 130
481 33
491 111
276 488
207 557
498 631
9 390
122 31
301 178
290 91
467 256
209 513
207 175
474 78
367 128
414 151
14 402
581 630
494 614
374 36
339 261
232 365
576 627
610 185
568 653
655 422
410 566
147 567
69 425
513 142
84 347
117 62
98 649
573 49
637 610
351 466
412 358
526 104
57 49
155 49
447 294
347 220
537 11
361 207
375 563
337 329
38 381
645 504
312 109
537 437
584 263
372 427
529 282
15 101
235 590
627 640
368 29
564 544
640 638
176 638
50 224
531 290
214 560
191 39
63 340
507 91
119 260
122 629
588 447
652 369
36 341
150 160
637 430
178 281
503 174
565 436
152 173
551 282
380 186
48 329
11 147
557 16
507 552
475 109
282 583
140 171
430 287
412 63
364 258
94 160
254 652
228 143
516 118
632 372
173 187
582 104
201 232
631 229
581 189
563 309
137 46
171 329
22 455
642 419
390 508
203 97
548 479
139 627
495 298
8 166
379 594
124 446
20 500
323 56
271 552
445 612
471 628
463 409
649 527
30 453
510 497
78 631
602 598
378 227
400 319
117 412
91 562
122 640
567 187
295 219
160 447
329 176
480 137
172 386
163 255
459 189
649 621
193 362
616 577
224 14
33 522
576 456
301 304
57 516
291 523
113 191
544 652
68 211
406 147
89 214
533 170
579 637
521 371
538 83
481 323
516 89
372 177
39 299
343 134
305 587
213 479
119 607
573 612
292 596
510 316
405 286
273 147
654 505
408 55
150 155
188 629
323 372
207 211
44 380
430 610
410 427
56 66
171 368
476 395
246 104
485 235
582 102
264 360
600 559
644 303
255 317
237 291
171 537
24 555
613 655
612 483
234 128
21 332
36 288
105 247
86 615
385 609
114 321
273 9
540 133
251 575
453 445
50 374
57 486
575 655
461 605
124 61
441 550
579 403
491 112
521 577
362 170
552 134
255 114
243 637
653 148
445 501
376 422
573 590
86 30
178 169
356 624
68 302
302 643
267 77
349 88
254 495
185 533
479 170
81 561
221 177
290 305
95 132
20 23
578 173
61 379
77 233
323 400
372 417
313 177
253 40
609 568
471 202
236 121
14 471
489 464
471 559
541 134
327 555
444 598
228 293
415 203
145 486
62 433
653 548
67 124
222 82
646 140
279 97
637 272
64 161
367 627
306 476
528 450
548 584
163 181
64 167
384 531
361 465
478 72
141 451
583 536
434 412
259 464
314 160
391 557
532 411
108 381
354 54
563 443
533 299
638 41
258 36
482 639
427 263
631 605
434 73
397 380
133 640
502 624
576 321
532 131
409 608
214 16
101 402
284 45
424 503
270 258
485 173
634 619
189 626
527 503
258 382
349 59
261 468
359 612
77 577
367 56
512 195
576 26
505 512
474 246
233 490
70 99
360 323
434 155
193 263
597 614
591 41
538 406
372 205
402 467
573 649
565 403
503 435
471 117
498 246
472 246
316 259
294 16
442 155
342 401
152 578
498 578
464 186
241 22
161 38
247 3
444 628
269 87
501 550
433 167
522 655
211 622
11 233
179 232
540 299
365 79
310 300
210 285
358 255
602 309
511 70
271 84
194 463
266 219
548 207
196 648
299 232
82 13
545 292
273 319
276 409
91 550
75 106
485 377
559 627
267 192
207 539
475 356
575 358
372 216
141 91
393 614
59 563
133 572
462 89
394 145
127 544
63 410
366 55
5 262
366 335
48 108
79 7
46 27
301 389
158 465
645 213
494 197
593 86
218 291
71 161
629 466
343 145
258 199
170 266
232 200
29 582
56 560
500 498
285 492
461 628
385 32
294 86
47 282
3 521
23 645
362 51
356 602
150 19
82 257
624 11
361 350
607 116
472 269
629 427
200 372
563 380
650 70
132 163
4 444
493 242
538 197
381 10
460 240
255 289
503 200
647 644
355 170
369 93
319 537
474 41
609 575
555 538
305 232
543 138
476 440
251 396
650 218
82 306
280 183
323 2
408 300
362 553
71 296
212 613
313 255
574 407
171 631
178 418
321 647
16 155
29 402
532 644
279 612
384 242
6 380
287 345
139 566
255 655
423 488
321 626
289 451
185 135
43 466
136 267
58 174
25 501
98 236
167 425
5 168
430 4
323 424
394 19
481 600
583 35
628 456
411 158
25 309
362 604
351 180
629 555
277 450
210 601
450 69
551 464
246 446
373 493
405 615
330 623
551 538
363 264
572 555
400 606
134 535
543 151
596 423
207 98
285 289
195 26
361 651
426 606
403 453
629 84
380 539
78 38
649 481
10 574
78 329
21 329
587 625
177 167
486 427
578 175
270 25
389 86
216 152
455 419
349 425
25 10
617 590
313 518
255 621
20 337
178 109
453 621
177 454
606 135
79 158
280 550
491 132
192 475
434 175
87 465
541 12
151 276
482 517
542 646
403 257
81 147
137 81
555 308
302 203
655 554
482 47
64 122
582 273
35 197
617 509
130 103
86 395
417 533
420 92
414 83
96 608
637 350
339 140
63 622
305 107
635 192
269 177
167 411
640 216
413 618
564 651
8 541
632 451
245 601
235 441
427 191
81 25
584 44
307 506
569 388
388 255
249 285
25 575
577 479
615 444
258 202
527 135
357 306
227 192
557 492
314 476
342 410
313 168
531 618
650 95
380 568
512 182
375 604
178 456
608 287
380 79
56 528
577 617
219 225
630 26
211 484
155 395
369 344
39 212
613 103
317 416
621 579
23 492
106 572
463 62
284 44
257 473
72 414
205 25
654 456
472 403
287 441
434 366
229 485
512 565
387 247
345 122
29 43
244 295
482 360
168 421
220 189
287 570
550 554
554 495
25 648
281 578
163 403
89 26
232 589
356 549
85 123
348 488
359 428
411 285
211 18
406 600
96 572
202 343
372 503
332 119
482 558
160 134
160 508
471 298
71 117
591 492
471 29
64 420
512 253
261 482
15 195
301 380
350 560
317 572
286 615
598 286
589 61
603 563
130 339
321 323
213 473
224 158
463 380
651 551
491 611
598 65
9 383
441 255
450 266
531 142
109 467
414 418
595 261
505 515
31 490
380 575
520 102
260 137
592 308
403 39
175 473
350 275
622 378
573 422
260 374
576 27
151 291
319 593
290 161
205 196
265 386
155 109
417 551
285 374
628 105
29 19
558 10
444 485
133 97
432 277
11 2
133 534
500 215
287 410
525 308
299 172
87 37
448 410
173 449
340 444
124 82
520 562
47 401
185 24
458 247
608 441
362 328
584 457
255 153
467 495
69 540
135 246
480 630
417 539
310 592
601 356
513 25
553 430
263 592
137 536
353 399
430 537
301 399
406 411
459 153
635 494
235 53
144 83
177 25
494 403
464 581
190 187
655 491
510 59
447 508
192 51
573 88
220 203
343 244
487 14
330 372
16 470
513 607
323 305
261 454
555 30
306 130
582 557
495 359
280 81
286 462
130 472
85 175
414 594
619 580
234 569
278 296
295 291
434 202
253 100
558 173
281 201
492 340
575 332
449 236
486 369
130 457
527 86
441 612
323 319
530 225
133 604
554 503
560 276
141 133
413 442
437 588
117 635
6 64
516 31
161 247
130 218
612 198
214 582
38 641
190 53
266 546
538 122
580 266
178 486
117 215
99 363
286 16
638 646
395 643
304 588
148 271
469 576
386 299
246 360
525 589
388 622
629 243
27 577
103 161
583 156
435 265
640 490
167 455
395 280
486 652
20 26
510 247
419 145
325 513
343 481
124 432
602 597
253 316
343 461
177 559
540 348
437 610
131 34
135 117
50 92
568 428
253 536
153 190
465 608
544 361
135 18
389 478
337 491
462 460
315 226
130 434
582 109
639 89
586 439
632 419
64 430
615 189
354 63
205 424
255 246
563 486
452 464
393 209
638 323
30 159
644 255
571 627
327 571
436 586
247 628
590 469
28 143
107 420
595 311
124 464
555 647
633 293
413 250
120 343
405 171
71 465
629 433
11 485
555 459
405 333
453 342
623 586
66 471
112 337
655 381
171 511
450 464
185 270
461 400
454 168
344 155
3 99
589 98
81 527
329 79
471 58
306 525
44 232
365 522
361 276
558 107
653 61
49 196
114 24
436 150
301 121
239 481
168 402
636 359
2 18
391 43
640 478
119 408
323 635
104 364
416 169
381 360
47 386
244 435
606 480
570 109
155 132
266 59
514 304
503 308
432 57
212 143
236 61
441 11
361 431
25 170
201 138
202 321
161 40
588 403
77 419
135 642
386 571
583 63
98 583
286 197
428 354
504 560
577 121
87 450
316 186
109 217
438 353
447 584
605 598
225 313
456 160
269 344
313 504
511 544
592 358
23 365
126 547
512 478
436 506
380 516
461 21
306 343
273 178
621 555
133 598
493 295
220 287
157 29
496 208
203 455
524 253
432 325
421 238
627 605
242 60
644 652
509 342
640 103
166 475
88 653
304 479
559 407
169 530
83 512
238 398
488 306
503 156
41 86
566 516
332 235
348 68
187 554
588 185
275 491
312 418
590 359
588 401
122 247
105 423
156 29
257 436
178 597
571 251
527 123
533 30
289 141
311 374
320 304
511 195
573 122
289 598
500 19
574 49
632 532
472 63
287 615
613 33
574 628
414 232
508 441
585 50
35 484
513 363
325 342
647 447
557 143
566 216
601 644
434 158
588 203
436 408
490 328
56 486
476 164
142 508
256 390
94 372
555 133
286 367
399 363
391 403
608 653
558 169
161 610
422 611
574 573
533 454
42 523
202 631
427 280
54 599
219 317
165 380
173 630
136 123
276 266
185 602
207 72
37 354
37 501
68 86
257 606
51 442
159 3
311 320
20 620
577 630
304 292
22 323
31 290
238 518
345 570
59 443
20 2
486 595
378 380
11 78
171 627
211 604
312 243
646 497
269 81
256 601
401 232
505 69
206 133
152 337
263 472
388 392
350 242
453 484
244 564
493 458
140 380
643 316
57 97
270 215
402 227
45 390
505 23
127 233
249 635
644 397
115 156
106 216
112 202
14 544
3 438
180 603
506 632
572 141
167 168
249 533
418 578
58 76
475 352
267 19
209 351
332 222
165 120
573 241
126 86
638 653
201 68
561 168
337 8
349 361
537 213
189 54
205 511
436 55
155 13
117 103
97 115
288 513
527 491
17 378
13 513
356 147
23 456
320 342
157 574
469 656
503 159
81 357
113 242
417 394
35 629
442 514
200 525
530 532
113 466
282 197
93 228
606 175
514 351
482 642
492 25
75 397
330 298
358 324
42 397
462 316
587 197
345 95
617 370
253 508
118 250
251 476
19 161
31 646
514 434
640 559
31 372
535 516
496 124
256 97
353 123
491 295
424 361
447 103
56 391
66 35
158 231
575 3
476 466
527 271
588 623
32 93
64 423
518 440
384 151
64 364
628 506
68 403
363 621
395 509
141 151
170 317
324 492
293 221
552 341
277 591
444 557
205 368
77 229
185 228
586 476
248 653
519 247
96 245
143 590
39 205
410 117
532 342
215 533
489 474
126 3
83 430
550 537
301 471
570 559
102 296
526 138
107 596
314 284
121 350
508 398
194 451
53 153
356 242
494 514
530 372
25 290
601 365
540 543
379 27
152 179
575 391
549 472
381 435
527 77
265 290
625 259
48 361
443 414
6 630
144 376
454 163
493 342
465 40
101 81
485 187
646 227
372 443
78 103
86 346
44 457
68 503
433 121
21 135
323 107
258 339
112 559
451 495
335 368
448 155
139 218
371 413
297 527
115 145
175 267
337 79
644 653
340 366
395 295
313 213
6 453
455 185
190 622
226 468
23 563
130 272
364 488
476 95
246 40
37 526
360 267
309 648
163 539
469 382
434 387
292 162
112 551
134 49
296 203
536 582
580 262
385 67
26 493
586 544
42 190
560 582
410 583
319 544
251 303
599 563
507 268
592 332
433 374
161 406
629 602
338 360
458 271
220 295
190 572
157 641
404 540
237 127
600 326
578 8
573 500
419 289
621 242
74 584
551 553
173 63
633 378
310 263
211 575
521 168
225 207
358 8
20 18
259 644
433 469
205 2
285 454
362 46
444 417
341 542
22 332
473 13
53 30
180 86
476 117
343 3
196 145
436 82
592 395
109 284
616 614
103 31
527 628
241 164
486 631
551 405
37 407
168 395
609 615
343 98
342 346
79 645
427 422
145 294
140 478
489 479
1 460
453 363
191 559
603 616
232 276
114 244
75 470
614 37
156 471
599 273
329 309
246 386
156 411
232 419
562 270
578 98
411 513
614 309
38 21
503 66
516 54
29 329
105 412
398 437
481 156
148 376
121 505
447 147
168 266
143 295
179 31
34 66
534 360
311 629
380 653
79 319
577 571
427 97
525 141
243 83
181 621
627 386
124 399
244 381
495 474
527 389
629 61
600 262
109 221
281 288
406 630
39 102
491 287
425 260
466 568
397 542
94 68
414 125
632 653
325 155
141 202
533 148
151 419
617 67
25 449
612 382
419 451
32 432
612 397
604 632
547 480
342 530
433 236
271 329
534 638
269 4
603 17
256 134
122 67
405 554
578 35
412 546
87 400
246 94
467 76
67 64
278 362
646 341
75 612
454 263
405 125
438 127
269 495
618 590
19 627
49 655
81 631
594 81
421 42
186 506
629 271
233 126
506 149
338 594
425 505
270 104
340 547
630 613
387 419
337 526
626 519
534 323
598 589
190 114
356 627
499 491
3 147
644 614
223 12
498 236
47 185
369 306
270 475
457 652
345 1
291 324
14 260
609 39
460 29
142 251
205 227
389 417
16 594
418 195
260 160
425 197
538 574
245 337
155 158
101 63
35 471
377 594
315 434
614 160
395 54
391 109
425 177
313 178
227 567
256 92
117 281
26 513
71 466
101 9
406 591
62 505
134 197
304 578
10 536
255 219
109 42
554 486
237 553
35 308
419 219
216 181
559 249
419 41
259 87
479 65
276 637
480 175
19 108
441 646
525 450
55 440
164 623
494 42
391 121
362 229
81 502
390 524
623 203
432 156
107 595
72 274
348 370
292 425
323 486
121 290
167 224
475 466
56 559
28 153
400 111
27 532
165 26
304 352
461 655
58 413
574 379
35 540
302 397
235 483
342 245
228 559
138 305
584 411
121 322
345 569
348 344
477 554
34 532
323 618
626 451
604 7
359 370
148 378
636 191
290 237
340 274
144 87
66 580
225 561
35 558
196 554
35 344
465 388
255 513
131 266
256 230
166 368
493 287
152 147
74 185
25 539
649 78
606 551
525 259
376 399
403 477
9 160
160 144
516 490
166 423
376 485
655 419
512 511
149 465
258 604
391 77
232 573
201 359
16 544
319 271
383 22
243 281
165 137
314 280
452 292
86 627
516 410
507 263
185 321
131 390
236 522
616 311
424 561
609 86
597 298
10 561
232 291
414 224
306 450
587 224
581 334
232 202
378 500
405 236
572 590
20 267
394 267
39 296
639 624
621 168
321 194
427 59
483 28
415 314
534 10
422 223
219 343
637 502
44 617
18 613
104 407
374 407
72 551
314 127
271 312
148 569
590 363
280 191
272 308
49 89
224 469
77 259
418 573
360 559
38 238
234 342
196 405
300 516
131 140
231 194
560 75
623 617
362 607
225 78
279 448
617 235
378 649
331 269
197 92
257 367
648 261
28 231
273 79
299 187
626 247
244 460
190 299
630 266
172 277
584 222
575 511
119 494
17 465
146 296
647 646
548 421
260 572
606 398
130 430
18 23
341 227
558 462
225 652
610 175
627 92
372 569
251 110
641 299
311 650
181 450
196 77
537 578
186 504
312 577
227 495
207 77
261 283
276 354
524 77
549 510
214 410
284 443
205 195
129 263
369 56
163 467
633 252
29 603
94 290
97 434
542 245
64 589
517 107
360 79
85 510
234 154
536 523
199 277
340 59
53 242
64 329
321 120
647 276
307 201
383 525
361 637
65 507
356 215
255 640
347 191
132 382
505 530
290 216
655 571
403 168
655 299
144 537
20 332
526 628
389 42
197 648
173 129
297 10
211 312
233 638
337 541
115 283
472 510
444 26
621 542
487 332
110 600
129 259
647 259
414 46
294 135
599 444
427 131
544 512
612 380
160 71
539 440
533 87
155 345
214 362
356 563
10 421
450 419
292 362
508 174
573 388
160 390
385 290
292 608
19 286
26 271
517 368
143 551
143 16
163 652
652 44
99 622
127 368
378 39
461 20
633 246
351 480
40 347
22 354
67 427
481 406
385 84
274 651
482 293
322 175
606 380
518 303
332 511
616 204
139 91
341 173
549 27
149 388
306 571
401 402
242 459
381 214
426 71
537 214
49 489
563 230
207 333
372 442
11 460
163 101
126 489
578 360
469 385
517 145
399 434
347 124
74 156
9 388
632 266
129 432
403 313
561 127
180 53
424 276
258 464
15 652
246 38
220 563
190 201
13 629
140 74
223 576
163 103
386 421
427 71
243 469
460 135
138 298
296 322
401 573
227 538
163 53
72 361
22 360
525 307
649 380
211 396
152 566
389 609
625 566
491 119
291 313
328 145
253 523
350 622
426 261
117 69
25 6
422 246
160 576
67 575
545 222
301 118
612 636
610 366
503 257
445 220
277 126
161 81
259 378
227 161
512 495
121 67
299 100
527 353
66 171
638 56
286 5
108 95
259 72
298 179
646 612
371 221
630 156
385 156
315 578
3 488
638 129
249 363
538 364
632 615
588 633
548 124
479 565
172 302
446 59
334 258
491 146
22 279
253 521
43 161
478 311
332 335
447 187
374 530
645 515
173 263
271 513
127 545
466 322
526 631
238 547
273 586
13 536
467 559
570 337
619 266
378 635
508 115
490 32
268 249
255 500
555 10
396 404
5 64
314 177
31 332
640 130
347 428
66 553
418 646
271 501
448 126
26 323
79 86
480 402
316 546
477 511
589 205
49 484
483 29
505 601
314 164
171 78
361 450
249 17
86 89
75 380
553 471
395 354
200 536
120 378
131 78
608 360
38 207
527 411
513 462
291 275
405 434
290 56
388 77
548 36
582 258
33 583
566 176
648 18
505 351
404 391
81 329
516 501
655 290
637 624
63 443
117 271
63 133
594 236
316 64
259 472
491 219
140 575
524 240
549 417
382 95
226 503
533 504
500 273
632 630
73 260
565 582
11 355
554 422
206 378
365 574
178 593
227 483
348 276
117 340
255 343
558 2
328 583
340 124
205 78
85 403
445 247
125 553
89 583
633 306
360 351
303 140
173 97
265 145
630 154
332 527
479 320
90 239
379 546
442 590
159 156
412 97
330 93
45 69
381 614
571 55
590 191
230 518
80 224
353 285
267 246
191 243
422 652
363 271
84 400
311 653
291 616
574 40
74 471
309 575
423 160
343 391
91 31
231 260
96 397
576 414
617 313
219 508
80 149
255 227
240 270
43 486
98 297
235 224
538 263
584 518
471 477
267 647
434 309
143 11
255 563
353 472
19 551
246 537
196 414
370 235
216 180
174 402
343 31
106 105
228 384
373 454
597 495
125 358
295 262
610 63
444 637
118 360
643 124
362 171
424 556
453 458
271 79
238 367
537 637
340 171
476 340
625 370
446 131
96 486
216 276
571 213
64 82
190 281
587 203
340 536
136 477
56 361
307 524
526 586
623 68
83 498
267 25
150 140
201 369
243 538
25 286
321 522
417 249
171 244
197 235
163 340
249 644
72 651
146 362
168 474
195 479
60 410
61 97
386 155
260 426
108 14
619 23
319 86
7 610
435 211
247 253
481 157
559 341
225 372
599 380
269 594
79 593
414 469
232 584
195 176
395 610
445 408
587 125
553 26
566 610
64 550
387 236
460 43
578 168
121 84
281 537
450 64
648 422
362 423
304 453
635 141
332 25
194 179
20 323
655 573
505 578
266 592
258 254
514 524
472 582
484 596
540 134
393 616
558 237
257 128
138 589
238 240
104 485
181 180
514 573
372 244
622 16
482 190
596 40
147 474
257 196
443 240
588 518
507 559
624 574
146 535
333 240
135 551
8 256
136 318
266 25
163 342
63 190
460 575
495 207
602 267
652 597
570 129
422 22
539 434
498 274
1 261
524 204
608 397
602 638
411 511
480 626
404 644
583 629
471 469
83 557
555 33
563 172
67 95
211 86
208 32
585 589
112 583
83 16
360 120
256 284
628 117
66 586
551 318
107 572
411 638
234 105
448 565
173 644
4 135
646 492
214 477
51 214
90 70
558 109
135 318
485 258
562 315
322 333
82 147
629 49
49 387
469 245
146 6
428 95
553 587
158 302
651 557
419 202
247 191
244 281
33 103
20 240
208 332
452 491
593 518
50 385
462 302
9 347
197 163
447 633
522 450
311 551
503 281
329 574
38 157
617 458
590 69
574 484
226 266
133 395
257 226
199 271
496 569
524 144
10 323
196 343
597 126
611 25
485 501
647 533
616 320
503 357
157 419
545 455
425 451
635 290
433 301
95 257
100 596
641 338
445 350
402 44
631 136
571 94
266 77
196 144
508 176
620 51
582 485
354 524
367 333
115 9
517 252
286 104
95 337
513 345
590 158
364 423
578 144
530 354
113 168
581 198
216 42
158 448
560 277
16 112
409 621
255 124
526 435
200 528
306 70
653 481
492 477
559 118
253 398
450 229
481 166
539 527
202 17
489 436
417 232
461 195
64 103
107 597
323 79
571 92
160 487
229 22
512 104
37 351
361 454
152 280
236 35
77 281
434 587
311 548
84 477
52 337
492 72
215 544
318 290
37 278
171 343
211 321
37 485
74 172
448 373
378 26
498 539
298 584
607 428
77 154
546 180
392 296
418 497
557 549
60 519
341 228
418 461
24 458
420 363
321 270
524 645
26 506
99 364
451 14
60 11
296 95
468 275
596 162
410 403
377 263
14 15
627 150
446 32
335 191
651 313
295 163
383 298
71 480
87 464
107 140
37 186
136 591
624 71
554 22
377 430
645 527
246 512
340 369
560 199
648 381
573 83
602 328
337 309
532 321
411 60
491 630
460 87
618 456
602 74
20 589
606 188
584 251
532 549
570 57
481 254
95 128
573 561
298 151
369 84
322 140
10 462
114 508
124 345
76 198
424 60
294 483
442 202
639 190
186 29
231 236
16 237
375 430
414 281
624 208
517 494
293 130
645 215
325 345
101 462
306 492
246 348
237 438
575 571
628 339
272 489
419 434
566 37
378 306
174 350
21 655
66 410
649 555
117 534
504 576
219 126
569 532
453 530
130 655
117 19
197 14
545 238
501 14
101 589
378 486
151 484
300 143
630 261
259 655
635 464
43 157
634 468
205 285
637 504
13 507
242 287
576 64
535 201
626 363
307 622
66 9
99 49
187 648
306 56
585 179
83 185
378 634
298 237
311 400
210 373
503 164
637 585
414 116
30 325
436 612
266 261
606 508
212 33
237 177
87 136
123 391
168 227
89 56
351 567
465 95
309 462
258 281
477 383
350 612
572 540
322 583
451 600
526 112
387 589
527 569
567 11
152 287
627 33
159 612
129 141
75 85
305 67
33 284
13 100
143 114
84 356
273 478
635 285
245 411
537 51
434 494
598 214
321 145
105 47
479 436
434 578
650 636
185 587
372 581
587 233
559 43
540 488
627 472
201 606
135 258
286 244
483 251
161 495
578 267
141 403
608 395
48 381
553 458
503 443
593 18
505 540
381 2
244 422
418 401
612 470
153 410
379 316
41 176
587 630
638 18
237 559
578 366
397 546
322 392
526 20
60 153
190 372
410 553
617 120
291 258
205 56
311 161
219 356
454 1
174 375
89 563
583 511
632 253
379 558
646 324
516 545
538 126
136 285
465 86
36 173
375 211
133 130
53 656
135 115
267 569
582 417
538 573
178 524
478 343
17 30
356 281
510 536
606 436
304 230
62 615
170 2
596 13
529 64
528 630
10 182
410 134
266 257
95 560
285 340
116 552
305 632
392 144
256 99
634 141
393 425
619 262
26 170
593 84
508 561
600 572
533 385
563 549
13 249
494 163
607 475
82 632
85 160
509 227
324 237
278 465
79 212
553 606
379 13
35 404
554 276
152 383
171 606
401 437
320 40
475 84
414 26
480 456
270 244
550 573
571 332
152 23
133 109
633 232
118 546
214 534
122 197
473 325
17 376
163 216
161 492
400 207
264 186
560 215
455 264
14 393
12 344
144 610
227 418
148 561
160 70
561 494
494 87
120 441
155 401
347 320
313 227
466 464
294 508
303 352
150 134
273 240
365 36
392 201
212 112
246 63
363 382
190 389
441 342
544 117
42 323
101 337
64 461
28 522
316 50
104 631
578 251
65 457
596 494
584 94
401 117
339 561
322 536
121 70
426 563
565 159
18 108
578 259
63 292
37 595
21 207
112 544
601 287
249 72
643 258
292 241
63 365
488 96
504 79
332 306
532 490
450 579
448 66
188 69
431 541
197 542
633 623
532 287
634 567
378 124
211 60
495 201
278 380
380 57
472 517
37 15
251 603
478 26
67 432
16 182
469 609
185 280
271 528
551 394
381 486
161 56
380 221
565 610
377 242
492 420
412 283
70 626
143 255
647 64
56 522
129 65
87 163
213 135
175 617
67 172
47 318
261 363
156 612
169 653
375 12
439 186
386 207
422 21
285 30
127 208
578 283
143 337
136 527
54 566
528 64
498 59
290 126
628 196
505 375
487 261
444 60
402 175
348 644
323 421
81 637
270 565
372 653
149 89
307 218
476 281
425 608
270 534
337 129
192 26
634 453
254 443
584 277
202 227
536 128
219 614
153 340
338 237
497 288
31 590
318 424
170 136
81 115
607 276
173 542
618 20
501 387
455 141
278 53
155 642
155 557
651 285
109 511
414 332
110 116
423 628
259 524
120 407
165 616
16 160
307 134
25 414
590 99
314 253
454 126
62 173
149 177
263 354
68 294
492 237
148 615
26 219
42 86
492 362
513 539
558 269
648 586
614 571
215 63
101 127
353 223
435 484
205 168
163 39
225 591
358 589
125 391
418 11
81 87
538 244
175 104
125 186
540 1
458 115
550 571
643 406
254 126
553 199
590 553
13 308
205 265
369 7
554 166
85 162
531 573
307 420
126 6
360 290
292 635
225 203
164 235
638 575
549 435
536 522
421 423
263 448
498 67
497 588
436 36
494 246
417 568
460 85
570 467
490 466
405 539
143 199
255 368
254 265
160 17
240 406
396 398
480 262
574 465
100 75
243 443
557 526
589 649
595 266
41 362
510 50
227 542
186 388
511 539
285 647
613 281
101 599
244 238
361 270
627 266
442 31
261 606
465 243
480 618
19 215
104 381
404 491
339 219
158 572
554 484
36 495
168 86
168 632
36 630
390 168
287 306
375 541
442 444
4 107
570 618
222 89
400 135
77 212
62 69
124 115
247 190
203 370
474 271
163 261
17 548
62 138
563 14
307 121
597 200
571 373
298 366
398 84
365 561
476 611
105 471
189 378
480 491
625 203
434 157
575 267
135 539
25 362
614 255
376 257
432 269
495 461
617 442
513 177
496 287
378 490
211 112
326 164
235 558
440 406
277 412
271 247
364 256
70 533
462 79
306 419
166 125
279 573
50 365
238 214
589 606
555 234
480 561
450 77
236 644
372 49
597 117
63 126
419 53
394 214
382 583
74 637
599 587
20 596
573 141
539 182
527 22
323 461
568 533
345 67
173 425
91 599
447 441
565 208
64 33
408 424
173 110
273 456
561 390
625 593
321 14
56 197
66 29
498 195
577 469
163 565
377 587
495 526
551 511
542 148
35 630
33 621
156 419
492 157
18 554
293 185
473 106
358 118
381 103
536 70
370 568
87 537
342 395
228 328
201 494
104 195
412 472
333 319
160 138
170 43
253 506
269 205
406 455
160 147
651 339
361 598
320 475
488 108
353 650
432 312
24 372
249 14
645 389
489 491
505 57
410 284
255 285
475 537
69 282
15 237
432 259
642 178
29 597
546 235
354 323
155 366
293 187
276 419
28 29
267 364
225 544
209 39
309 460
544 593
540 591
118 502
214 483
584 586
339 403
5 463
329 195
80 158
387 348
311 566
156 350
371 122
213 320
122 83
186 378
161 176
285 638
448 296
189 515
3 129
564 333
480 530
496 623
280 628
44 158
234 247
629 63
70 522
243 464
540 345
141 192
635 413
137 618
28 194
653 465
41 421
196 527
49 549
108 648
168 539
637 313
37 359
267 79
629 568
287 526
632 576
16 273
386 460
270 78
203 251
649 151
373 320
8 444
422 377
48 258
49 236
111 152
499 317
655 611
411 140
45 369
171 83
464 125
513 155
48 98
514 121
483 87
510 587
80 11
340 187
565 314
566 460
453 179
191 99
182 171
574 8
36 74
207 651
71 591
321 465
83 247
536 242
442 524
549 89
61 546
500 318
443 36
587 67
25 283
244 590
26 629
65 578
113 523
12 563
405 391
59 87
430 565
644 608
52 138
573 164
265 130
633 517
381 575
214 605
71 482
649 347
236 87
174 110
14 551
543 510
249 442
476 244
488 16
533 24
494 569
165 603
69 337
623 328
638 141
212 121
171 279
477 176
266 234
504 513
560 210
394 339
367 226
247 227
131 538
410 589
41 471
615 570
114 311
533 82
527 356
563 17
565 12
287 342
189 575
391 622
342 387
209 520
526 276
70 575
135 564
591 511
616 312
644 37
56 546
350 220
424 351
427 448
511 367
360 589
292 301
299 465
466 578
633 362
575 338
103 53
41 557
643 566
18 584
97 558
416 635
62 110
76 14
281 514
276 588
571 528
43 135
4 331
609 60
547 214
118 413
435 574
14 629
279 142
418 262
216 235
553 472
559 256
219 527
156 508
16 347
573 600
6 601
533 127
480 460
526 613
7 632
455 151
264 506
401 374
245 168
197 403
539 95
115 606
191 97
466 318
249 148
113 318
376 187
630 506
595 299
68 296
450 45
599 216
486 117
645 54
20 148
247 189
88 156
70 67
247 483
227 423
579 439
277 158
190 67
72 79
561 167
300 449
286 500
572 505
563 646
246 584
226 434
364 384
485 2
386 560
45 547
413 392
203 389
373 550
146 630
190 497
361 229
163 513
549 205
163 354
482 193
307 263
318 87
258 565
95 207
453 376
434 231
624 508
408 618
302 403
260 436
183 358
610 581
581 154
181 47
286 285
281 643
25 531
231 12
358 573
82 512
142 288
117 312
34 321
639 187
300 294
504 471
345 262
372 173
171 532
310 527
135 299
69 284
391 444
230 588
53 285
173 647
411 6
59 619
46 255
472 313
202 460
99 59
653 124
188 67
285 447
360 91
345 64
548 67
561 567
604 490
171 653
33 588
380 509
460 512
47 63
72 14
487 592
136 270
346 367
491 541
257 468
601 192
338 261
624 406
620 172
546 63
192 467
455 638
253 628
153 114
513 614
155 308
377 652
287 58
460 484
237 646
233 97
64 105
589 436
161 378
377 307
582 505
124 523
183 412
253 185
151 258
299 434
617 521
10 246
179 44
560 202
367 468
532 456
357 114
175 354
380 532
109 192
466 346
628 148
101 89
472 305
453 287
240 471
182 527
311 67
71 168
188 264
175 325
144 626
177 126
153 417
462 232
406 410
378 362
106 154
190 417
53 485
3 608
265 190
611 581
205 547
28 271
126 263
411 582
503 343
190 539
411 533
117 56
142 221
231 123
26 214
11 28
418 180
204 275
646 291
639 299
525 263
272 118
587 484
652 253
582 548
134 314
338 309
109 649
383 495
137 626
644 483
489 339
638 593
638 133
63 84
192 630
37 190
187 125
327 562
62 566
273 514
323 230
172 471
536 411
407 14
548 555
337 536
360 214
263 135
238 340
551 536
119 407
121 124
104 127
332 221
602 259
565 120
610 578
346 30
5 134
49 505
64 213
267 104
269 35
330 427
546 53
492 486
489 433
402 240
394 196
636 494
471 361
446 454
471 418
574 243
436 141
340 136
487 264
502 202
158 73
565 364
20 575
219 478
266 472
486 243
311 417
87 578
543 298
395 313
222 405
627 309
481 84
366 299
305 618
378 624
539 387
413 569
541 563
222 516
411 471
147 581
561 289
454 623
349 10
219 602
71 438
628 48
226 253
443 652
148 343
295 275
24 181
459 466
279 524
232 217
258 318
629 191
53 379
5 577
462 631
134 547
628 52
652 313
486 211
503 182
270 462
488 86
86 125
500 559
485 124
307 501
401 228
390 531
501 398
368 554
635 267
537 566
214 265
112 71
532 458
521 509
257 85
259 33
176 111
86 332
641 200
592 471
153 522
232 50
191 523
44 369
161 481
29 10
652 107
293 612
4 376
542 107
52 576
205 35
292 492
488 287
495 71
246 473
460 117
294 109
187 650
443 493
31 532
368 471
267 579
569 334
596 354
618 290
436 495
139 635
70 52
111 135
158 574
321 246
29 255
411 643
95 155
103 511
19 537
67 377
26 227
527 283
339 601
460 56
276 356
536 474
63 462
574 124
295 383
87 342
631 307
117 10
276 500
47 450
90 184
174 368
245 578
53 512
300 428
505 636
290 139
64 583
273 460
611 620
586 21
301 490
173 458
620 177
402 592
386 202
487 372
235 646
46 316
58 601
197 633
117 474
37 389
575 322
378 593
444 38
62 410
211 150
372 476
219 103
548 596
244 563
377 59
78 427
7 173
56 101
576 89
332 410
115 558
197 107
418 574
471 249
311 649
434 260
482 377
330 284
481 55
276 200
401 71
86 532
158 7
99 90
197 419
547 136
629 416
175 270
120 486
215 465
269 16
340 244
652 226
227 472
347 260
414 291
559 405
587 123
526 332
289 589
16 584
532 187
373 188
211 67
257 396
98 43
91 634
177 62
509 137
145 103
496 187
362 392
109 365
347 160
296 399
495 112
390 446
347 599
43 442
307 110
378 537
104 367
103 546
587 60
575 274
222 583
287 281
46 17
533 513
68 164
48 602
192 219
366 179
375 652
63 316
207 462
630 76
511 339
45 320
258 527
306 235
595 65
568 469
385 531
495 551
521 247
30 585
236 392
573 36
222 14
235 143
403 630
358 519
617 160
638 169
440 306
485 381
527 255
506 31
322 436
398 7
402 538
117 524
533 447
401 395
411 547
597 560
290 287
203 330
648 544
202 339
511 328
250 559
53 339
312 11
66 369
573 82
77 331
491 535
584 394
482 187
643 140
479 330
451 51
380 437
476 530
434 186
389 126
105 63
56 48
213 563
176 400
247 226
605 78
346 283
344 305
149 70
138 576
51 617
94 418
648 548
87 602
408 401
582 63
636 96
101 378
227 421
32 121
647 454
64 548
196 249
66 219
292 10
409 33
578 594
323 41
266 482
93 387
476 480
232 472
154 611
506 284
595 163
36 561
167 187
561 109
153 220
86 31
482 258
448 553
643 610
550 444
653 532
474 651
241 508
120 500
150 260
554 78
605 526
124 321
563 257
500 367
314 114
110 322
276 33
565 127
505 1
160 441
442 378
205 87
122 398
604 159
150 564
260 7
532 419
612 235
362 258
188 580
300 410
191 172
572 636
508 347
135 290
606 299
641 637
233 434
172 653
611 255
387 278
16 196
300 159
49 540
508 590
527 87
202 512
79 477
82 535
19 23
598 182
622 614
113 515
384 356
148 238
62 218
330 249
539 117
361 269
395 441
413 221
97 546
343 48
376 388
468 266
501 493
109 380
205 653
600 201
298 568
202 490
185 202
613 627
303 411
83 594
458 204
467 427
109 643
414 387
63 568
176 15
77 573
178 164
542 187
378 421
585 419
206 436
396 604
423 205
117 615
430 437
197 229
585 498
625 460
120 69
572 156
374 323
356 83
158 291
171 448
363 603
514 490
511 64
365 335
473 584
506 116
642 427
297 196
565 144
173 247
386 572
118 410
281 418
22 65
341 73
176 411
221 633
647 591
390 415
437 637
485 526
340 539
212 281
67 32
393 42
495 37
589 89
550 214
644 406
350 376
469 533
172 99
637 378
578 507
395 251
149 641
193 354
44 272
276 141
123 318
604 86
649 96
173 304
183 52
172 540
86 533
369 163
96 191
43 478
87 565
615 599
159 230
629 436
466 420
252 643
531 287
622 650
318 386
262 275
421 534
412 172
401 42
391 216
175 258
126 203
539 56
271 143
361 92
110 262
295 495
507 290
103 70
610 119
128 38
38 84
369 155
442 343
450 476
223 148
437 516
91 315
107 502
219 276
507 634
493 617
327 347
395 71
505 174
321 367
631 267
301 581
175 370
400 477
629 172
247 378
312 465
573 378
493 541
272 357
41 549
278 116
226 65
491 316
545 406
3 219
78 141
381 133
60 358
547 237
285 290
479 93
593 78
408 62
177 69
498 5
151 242
567 216
109 376
211 43
484 137
476 274
305 264
179 458
635 442
103 526
142 447
82 272
174 397
565 293
286 597
44 6
153 351
267 207
467 539
402 524
505 432
27 316
512 171
360 478
168 270
403 199
642 406
577 224
89 506
300 55
628 190
290 326
348 116
322 58
376 196
386 92
156 298
291 526
391 323
400 655
366 144
211 434
454 304
396 278
136 551
567 174
444 155
45 338
46 644
84 254
292 462
276 453
433 527
64 101
386 84
540 276
185 72
176 598
129 527
267 405
44 45
516 117
418 619
84 175
500 488
539 611
306 570
360 447
221 288
105 550
192 126
600 482
434 148
147 294
313 246
310 87
45 160
389 184
620 237
469 491
129 395
290 358
183 99
14 244
655 249
621 113
374 602
185 653
271 537
593 313
518 70
511 33
530 561
601 90
525 343
494 487
311 175
508 8
224 484
47 234
282 78
410 185
601 447
278 644
134 621
296 213
30 87
408 493
127 323
484 390
174 356
532 606
169 617
575 394
266 508
401 125
466 607
445 577
263 503
332 87
460 123
186 273
472 139
516 372
3 450
465 92
495 238
641 43
133 103
402 1
520 532
437 565
322 375
436 175
285 159
167 186
377 211
399 334
538 510
127 162
555 582
121 629
647 356
236 92
140 9
109 622
87 355
546 38
479 201
612 247
501 453
295 476
238 629
16 82
637 213
78 244
322 561
637 71
233 574
212 70
154 124
495 361
527 578
444 323
630 55
144 163
413 335
64 532
536 648
335 255
124 617
251 447
504 632
471 548
548 411
313 562
388 190
487 197
382 482
280 115
306 20
490 122
278 607
266 245
107 524
558 590
500 108
531 519
412 226
165 29
93 208
84 526
385 437
337 512
255 177
543 87
109 333
86 129
498 422
553 258
332 494
386 263
465 186
629 518
42 495
103 109
481 565
405 575
529 11
329 233
527 66
551 414
518 651
22 305
506 371
177 572
400 378
33 572
602 7
362 158
491 548
145 500
375 592
287 538
168 550
654 342
411 264
361 648
498 649
571 570
591 171
544 372
158 455
45 475
331 583
544 202
379 177
643 624
503 43
22 86
103 591
70 112
570 332
575 227
393 582
601 531
516 179
211 265
617 158
640 121
109 361
389 271
566 512
447 186
532 213
109 338
282 654
247 257
539 225
426 255
628 38
168 242
515 170
489 258
518 478
125 329
493 17
186 312
342 105
191 155
174 260
26 36
618 360
584 527
14 312
420 218
450 516
250 646
115 617
589 127
585 232
586 466
347 559
134 573
647 615
467 654
211 92
586 633
251 195
297 111
270 627
494 97
118 565
506 292
472 629
95 325
402 356
323 485
467 475
388 524
139 532
83 340
328 122
147 579
216 604
383 508
347 471
110 568
313 109
574 197
589 31
526 486
493 102
354 249
573 197
246 64
434 242
38 471
618 653
246 211
79 29
49 330
318 485
23 26
410 26
246 461
643 54
341 250
597 370
501 436
201 299
456 339
512 646
275 226
469 482
545 301
435 329
650 138
587 384
381 564
32 344
427 377
464 568
358 590
122 175
613 78
441 485
637 143
267 117
196 586
523 278
292 121
29 321
109 86
406 636
414 614
473 358
64 38
608 148
244 157
218 230
116 178
221 52
586 275
509 5
527 176
580 418
29 180
522 21
598 270
471 513
642 120
182 332
453 656
422 614
404 297
412 257
351 417
555 229
40 87
227 533
38 484
566 117
99 581
570 325
646 338
276 428
447 650
228 208
385 432
117 188
39 213
612 14
513 488
171 112
532 576
458 256
205 41
46 576
350 505
491 255
602 594
29 410
301 535
40 92
503 54
596 443
388 30
82 584
414 644
218 256
380 629
209 582
474 337
82 15
491 260
203 314
436 525
92 331
369 472
290 421
293 139
185 367
605 16
246 558
460 66
271 607
227 525
110 145
255 290
204 276
167 197
289 387
379 46
263 484
625 176
355 106
333 20
174 76
190 351
554 444
299 645
550 562
261 345
86 419
178 16
231 73
40 486
401 616
563 101
587 211
73 600
335 392
378 436
601 261
43 308
635 39
299 573
49 93
324 599
225 312
351 4
277 538
557 222
549 622
230 449
394 311
633 604
141 66
47 395
42 254
630 29
478 182
175 631
154 484
72 196
241 600
40 121
577 145
594 238
270 339
450 343
65 154
169 616
441 443
63 161
255 249
504 52
388 203
381 488
53 245
294 371
104 447
286 651
632 70
341 434
601 290
286 144
26 100
68 521
329 161
356 472
186 485
483 510
642 448
240 645
650 220
478 627
81 332
260 158
242 341
337 513
629 308
383 551
531 621
121 382
368 383
242 387
339 78
250 637
346 625
643 397
418 543
49 456
338 359
14 161
63 401
175 558
472 494
505 177
72 464
534 196
523 526
162 15
398 569
503 219
579 340
129 314
527 318
184 239
221 325
22 176
11 426
563 160
255 635
373 95
392 569
304 213
216 190
251 574
271 36
351 607
80 68
17 491
451 387
211 256
241 175
249 369
70 267
234 200
553 171
474 518
133 332
267 287
464 154
286 488
461 407
211 471
229 419
175 10
191 318
89 233
636 515
156 239
367 281
364 223
118 62
41 122
226 578
370 558
304 296
601 630
322 188
258 424
543 445
546 505
518 120
82 163
628 534
127 171
332 79
236 551
569 335
453 17
259 127
329 157
263 277
152 434
532 23
134 109
240 380
490 118
101 93
606 156
277 175
227 5
496 360
540 650
244 104
598 163
607 71
197 358
144 488
158 8
286 627
160 52
436 374
627 311
364 95
275 220
175 190
350 260
583 337
182 267
545 514
158 643
311 401
293 517
43 558
221 251
231 334
65 152
178 99
238 322
279 583
126 594
573 621
592 161
238 187
574 168
35 107
478 321
175 381
332 622
293 586
454 611
129 488
586 485
357 168
521 378
289 365
213 327
625 638
607 84
414 510
212 362
72 103
477 98
69 195
379 95
245 612
120 160
161 79
360 302
466 434
205 360
547 328
540 484
267 238
64 390
299 620
396 238
335 439
540 229
363 585
353 139
519 610
305 623
263 350
481 3
167 264
161 205
176 575
1 380
414 367
270 548
372 92
61 13
478 121
41 147
409 416
161 195
624 489
129 29
246 631
1 263
205 395
95 309
157 340
435 117
78 529
405 292
135 286
103 503
500 514
489 304
316 412
340 611
439 629
140 134
285 527
630 626
113 132
271 139
436 628
579 185
314 148
378 22
14 211
220 284
227 143
208 328
227 42
486 78
526 53
308 372
166 570
376 24
19 539
149 45
550 589
598 544
615 107
582 627
404 484
646 490
332 195
116 284
124 618
380 471
655 48
405 495
485 160
289 190
517 42
10 498
627 25
346 177
10 617
639 623
611 274
407 195
247 313
114 590
176 144
561 171
13 7
397 277
610 318
270 631
32 630
630 471
402 315
365 257
47 600
534 215
232 271
191 507
129 425
388 10
112 362
394 343
440 601
199 343
627 536
240 456
208 621
218 220
213 74
372 441
49 83
450 123
56 321
591 472
362 48
500 461
604 445
21 211
507 94
332 360
269 504
460 227
222 36
326 449
500 261
192 474
246 30
379 63
337 18
158 369
476 643
418 341
426 314
207 171
64 262
655 196
381 258
567 484
484 408
169 291
147 508
133 526
387 138
561 596
465 201
383 273
57 233
211 11
503 56
448 602
627 10
51 37
403 528
306 236
621 433
363 353
243 432
505 473
365 573
372 652
618 291
261 277
20 622
93 127
105 364
95 28
276 157
503 64
263 254
636 465
178 638
380 570
367 16
412 255
34 456
304 496
312 233
376 202
477 10
267 435
362 583
578 583
490 506
215 109
158 388
235 11
366 376
170 80
21 527
571 335
376 444
568 6
360 594
424 271
259 536
276 412
16 573
505 469
128 462
237 575
42 352
150 638
506 635
456 43
232 135
216 157
96 526
489 360
565 604
367 450
20 274
356 450
139 507
577 168
37 546
329 586
614 96
316 358
596 288
77 87
350 204
130 38
443 486
53 628
513 37
32 335
551 84
175 216
529 530
533 621
402 416
565 162
414 288
277 473
574 318
607 281
81 176
401 86
269 259
17 583
552 624
598 53
71 29
356 500
467 368
569 255
505 536
71 103
87 403
587 388
119 395
271 628
432 473
340 99
439 213
316 95
4 567
395 287
176 65
557 471
209 607
178 275
46 622
540 223
159 521
593 125
512 319
87 443
385 92
507 366
179 200
202 126
279 554
80 355
562 485
33 260
560 182
329 267
282 181
414 154
555 583
303 525
559 171
643 440
237 380
400 175
618 316
386 290
258 164
124 287
186 323
493 377
219 11
380 524
301 169
26 176
311 518
532 258
207 511
582 540
450 227
505 13
506 464
81 149
47 551
325 643
408 607
236 602
292 134
542 22
527 640
373 256
174 322
502 343
42 478
236 649
428 545
539 300
238 152
432 316
236 655
340 56
403 75
171 79
652 370
477 598
253 645
275 257
396 168
198 93
378 255
49 535
199 142
361 511
601 434
192 47
527 99
249 157
629 23
283 39
542 649
59 191
586 486
492 554
436 574
654 160
252 66
617 616
508 547
319 478
293 190
410 104
150 117
339 135
559 69
307 137
362 79
540 141
501 82
439 46
174 197
203 348
385 368
188 610
491 495
11 588
505 545
113 130
602 578
232 562
293 14
57 40
472 298
434 376
620 403
275 146
510 419
187 25
10 554
528 295
294 160
408 612
125 584
124 419
319 485
31 163
614 378
532 506
20 392
486 412
519 552
280 220
97 492
132 178
654 602
427 243
606 525
306 246
222 576
453 181
501 412
416 14
86 537
558 648
83 196
530 448
22 370
144 13
213 158
197 53
70 576
178 130
144 583
87 535
49 23
489 232
606 227
11 255
21 309
476 416
404 191
326 268
167 62
16 376
418 365
368 132
269 99
86 576
649 20
602 462
586 34
288 125
81 414
486 22
16 144
426 494
646 637
246 120
474 196
460 383
159 645
539 107
86 97
574 122
322 311
585 109
89 649
419 342
259 506
271 593
503 36
655 251
610 201
22 31
171 564
572 560
117 286
70 255
489 273
453 15
547 38
415 66
298 257
467 261
196 549
590 199
332 38
637 99
431 338
255 229
305 326
513 410
474 435
501 523
635 91
385 172
15 578
600 392
269 129
143 163
255 622
551 181
465 494
342 40
418 104
637 342
290 581
260 503
316 325
543 580
289 569
264 261
268 481
615 474
29 171
246 310
91 480
14 289
395 365
99 540
411 248
135 292
560 565
263 425
318 433
339 546
326 618
248 527
464 82
340 554
444 435
203 24
89 164
59 637
476 64
46 22
360 460
181 363
538 591
261 140
267 14
192 66
405 655
601 160
283 277
307 130
171 583
232 578
4 642
82 414
350 119
266 40
564 265
287 116
517 389
472 135
628 167
510 175
386 655
630 593
77 190
573 273
331 154
629 67
457 559
404 637
496 429
269 538
105 501
380 117
535 552
498 251
628 391
427 120
35 148
615 627
420 331
186 129
66 489
560 191
472 207
157 362
168 509
358 625
269 63
32 57
410 246
169 647
362 490
380 325
461 11
17 304
402 171
343 403
134 177
354 584
63 465
332 508
112 486
126 270
631 337
528 89
20 479
553 552
500 246
312 15
345 185
369 82
168 64
342 173
163 364
198 243
124 295
651 128
639 371
513 563
113 357
509 81
460 421
261 486
545 246
169 116
57 212
211 80
617 256
84 437
453 626
350 533
413 360
449 468
289 398
67 389
265 103
225 300
39 51
600 467
255 575
628 84
369 334
136 286
471 549
558 349
602 329
171 87
302 472
653 164
46 249
453 303
563 314
92 373
597 378
226 401
32 396
368 28
481 573
176 281
172 148
134 179
255 59
452 635
411 271
478 170
522 48
481 20
592 481
643 364
599 9
360 583
185 282
492 381
455 257
243 155
203 255
82 155
307 552
612 387
55 189
28 257
63 191
212 20
564 286
267 498
216 584
299 122
29 583
414 299
334 363
55 335
220 154
298 501
494 159
137 592
26 199
304 143
119 256
17 54
104 319
175 443
606 547
572 406
149 306
63 61
526 79
83 77
460 598
419 390
191 47
536 417
442 641
22 377
317 80
543 606
3 530
546 633
224 267
492 551
2 258
13 58
99 642
478 186
144 451
634 139
566 173
450 192
612 300
120 290
424 389
139 449
522 361
644 546
163 177
630 240
39 170
252 401
304 595
406 9
270 367
143 361
543 262
346 237
564 403
126 587
197 388
455 316
158 109
246 532
218 8
576 443
101 503
630 467
314 40
549 145
475 303
69 439
191 540
578 584
569 320
569 479
163 13
367 393
136 84
554 451
643 546
650 505
339 197
352 457
254 118
546 408
554 367
486 488
403 623
625 287
138 632
161 108
573 125
498 77
553 394
455 219
86 632
492 369
192 81
369 98
594 225
467 45
437 124
259 236
246 205
644 455
440 572
54 357
265 422
622 575
597 95
434 368
393 29
550 71
494 86
365 443
551 539
318 234
652 247
504 506
306 491
335 307
264 172
2 559
84 119
635 271
115 82
526 381
372 2
95 353
418 173
554 238
93 236
629 322
238 26
370 97
111 503
178 117
175 597
94 180
42 460
122 100
76 612
309 450
461 81
299 134
111 287
107 440
628 219
110 467
221 517
602 213
551 367
546 472
372 268
166 57
5 67
606 562
572 584
236 166
337 206
390 66
474 591
89 356
393 7
141 225
336 151
18 112
559 71
195 312
586 346
329 405
261 577
243 573
50 624
160 11
387 410
214 565
649 25
35 12
578 601
206 342
629 478
151 318
492 627
263 118
595 181
257 222
3 161
512 360
46 536
353 489
397 278
472 377
177 290
622 482
433 36
14 494
617 292
253 552
68 571
605 486
33 358
179 141
87 419
51 109
363 92
323 15
425 495
560 43
140 382
421 462
570 235
236 488
105 633
509 563
448 258
95 71
396 644
74 298
481 287
460 401
379 597
90 408
263 40
160 471
37 260
649 547
66 63
253 164
548 61
289 494
424 450
503 276
379 576
145 545
598 81
271 86
15 25
142 550
331 16
274 557
453 320
484 480
472 655
29 555
377 617
173 326
202 411
434 519
307 350
627 450
78 167
4 399
146 322
57 279
54 454
138 504
523 493
401 461
187 96
494 16
220 415
122 480
444 627
546 492
630 620
37 309
519 524
25 230
247 468
62 490
348 135
77 632
546 232
3 644
232 549
395 63
567 114
194 349
231 455
88 583
617 81
485 461
410 105
535 80
360 391
424 306
158 602
18 655
573 464
69 582
89 188
553 399
307 386
45 115
457 228
608 342
249 59
536 548
241 653
572 539
135 444
360 490
649 164
553 308
186 406
292 294
410 527
484 336
337 136
367 275
11 358
213 84
281 486
314 310
280 456
198 14
357 186
409 169
561 311
190 287
611 529
380 233
177 611
74 207
550 561
57 133
293 623
568 269
465 450
463 116
257 554
649 167
206 395
300 54
186 240
440 481
262 87
652 445
436 571
253 58
592 431
387 37
530 597
167 453
20 299
644 94
524 471
277 546
369 365
310 135
127 319
30 272
653 542
124 282
455 60
428 649
339 630
519 210
13 413
433 535
312 380
544 622
141 516
109 270
412 292
293 409
387 575
74 150
386 21
550 624
89 574
428 37
592 618
300 382
342 30
74 108
133 249
617 409
368 66
627 575
636 540
23 405
491 220
611 472
491 559
79 628
342 615
546 300
81 54
559 478
634 189
160 571
152 507
536 434
307 44
511 95
599 141
544 270
79 87
268 363
304 372
532 127
550 167
238 139
596 390
135 417
615 509
651 527
80 546
103 180
498 244
18 602
651 471
178 648
255 125
329 436
77 101
171 598
56 212
82 263
121 319
628 86
500 472
253 129
455 129
606 432
630 66
559 52
612 503
540 121
310 497
554 329
227 1
323 533
81 165
499 572
218 364
487 301
215 42
536 7
653 410
631 444
10 22
563 243
485 403
600 321
220 291
306 167
526 175
264 323
351 378
247 214
626 635
198 539
42 602
642 47
519 478
172 636
8 230
355 189
60 459
489 583
102 439
90 93
527 532
2 507
543 509
25 548
99 147
313 510
227 104
367 466
187 633
143 192
106 63
125 38
649 629
81 500
337 342
175 171
265 333
439 67
466 498
439 604
454 268
460 18
104 117
142 61
577 137
303 584
221 635
136 479
514 16
238 598
567 247
622 202
91 594
623 231
256 49
290 478
500 313
502 378
67 322
347 563
471 403
506 167
645 66
637 200
390 287
109 272
491 472
372 641
364 180
325 637
72 214
235 456
196 29
501 208
653 609
403 185
445 90
216 75
591 282
11 277
317 321
380 432
270 286
498 472
647 126
210 123
425 367
17 141
427 49
176 549
583 513
183 618
574 37
410 291
527 108
298 101
315 437
370 592
269 316
648 554
29 536
644 88
234 257
440 242
491 11
396 240
59 246
233 343
492 125
584 339
586 309
535 8
509 198
598 207
14 419
185 361
314 53
472 49
450 104
96 638
244 74
555 523
411 70
125 388
157 186
38 321
107 198
426 44
123 229
291 492
144 454
186 1
377 597
113 483
13 655
179 210
465 66
645 465
175 547
353 71
311 572
259 414
282 229
60 285
589 141
603 149
119 374
133 70
297 135
550 628
653 346
653 121
258 560
558 461
311 144
586 378
607 347
23 575
564 95
199 448
82 559
112 258
655 395
390 77
67 156
645 488
277 594
595 627
192 598
271 64
474 285
219 644
251 236
28 501
25 385
398 555
475 518
19 489
358 281
255 195
216 18
486 645
15 63
169 83
79 606
306 224
575 92
43 200
260 101
188 317
400 564
264 126
523 387
373 600
66 401
219 575
158 45
13 236
24 649
435 150
51 86
466 640
216 147
593 613
621 536
622 69
26 436
426 13
246 248
478 238
655 358
72 182
282 345
536 542
504 35
505 459
136 536
595 450
5 462
526 270
160 462
536 577
266 443
148 199
112 67
6 629
199 56
89 296
440 230
329 185
211 19
70 280
356 467
444 624
24 332
71 19
453 637
354 542
307 439
5 173
312 490
343 407
259 170
424 298
342 66
396 545
193 377
471 269
314 629
618 99
527 334
261 313
419 235
364 86
409 428
321 456
516 62
196 490
159 350
512 140
475 157
372 103
416 321
644 107
267 285
197 544
167 358
482 326
529 469
476 498
185 343
543 619
548 74
23 306
18 16
310 433
38 361
401 419
83 516
610 130
434 301
579 250
266 596
563 42
235 113
496 633
644 290
227 603
247 456
51 450
350 35
376 216
631 417
608 416
78 378
451 47
465 253
391 649
281 331
540 95
620 59
69 4
450 83
611 259
28 434
172 114
526 354
454 467
223 95
107 303
182 476
200 361
17 71
86 84
287 167
339 127
476 362
263 533
117 582
381 611
234 528
258 292
614 564
467 174
240 527
653 28
201 288
433 624
606 510
618 574
141 555
550 314
358 370
82 253
39 592
456 257
167 424
503 199
360 21
169 245
155 63
65 109
187 649
42 43
419 141
272 306
431 370
80 97
8 625
34 390
220 65
94 13
656 408
331 470
176 117
49 435
121 61
494 255
125 557
476 367
166 495
363 607
202 575
89 216
590 218
506 123
518 69
638 456
387 116
340 143
35 376
249 641
526 614
109 223
390 142
531 392
419 576
597 51
415 284
417 21
322 287
134 563
493 52
626 122
130 132
383 624
85 15
50 124
4 155
461 312
89 436
598 240
212 491
636 363
418 160
91 437
56 23
358 555
425 62
36 590
447 364
554 167
598 136
155 637
424 169
404 541
377 631
225 518
260 16
132 109
521 260
186 126
307 284
46 348
576 176
406 202
421 316
582 351
562 451
98 197
261 181
536 95
578 286
71 598
455 68
474 82
149 242
421 255
500 594
647 406
87 650
318 286
39 370
182 56
650 633
551 527
16 136
496 219
402 476
216 16
539 317
48 20
401 214
161 401
376 263
282 140
611 15
52 507
155 373
583 456
171 498
81 183
191 61
594 257
176 471
329 124
42 542
343 150
578 488
246 251
450 372
545 469
580 437
564 627
383 244
547 69
547 362
489 286
433 581
267 86
191 53
574 450
574 610
453 325
224 382
190 117
452 95
492 176
454 330
169 495
345 532
346 164
564 20
610 47
565 537
456 234
243 326
360 287
190 427
454 292
563 654
122 639
372 264
53 483
455 295
257 536
234 546
375 622
474 312
230 300
233 199
241 392
14 195
445 275
52 476
447 496
69 3
12 305
145 270
296 362
273 87
353 334
653 323
486 377
362 640
170 189
219 290
45 3
361 215
287 578
399 123
495 501
500 16
87 321
292 588
86 636
583 80
232 438
448 524
77 578
638 488
656 264
606 192
411 506
156 213
60 484
235 180
323 155
323 150
473 425
548 561
565 383
494 141
559 276
457 223
45 316
265 244
555 356
6 608
277 17
606 536
110 430
414 586
635 448
340 435
375 557
570 485
192 14
403 342
15 622
606 283
376 313
560 216
23 369
213 448
549 484
429 175
62 414
574 83
38 14
159 563
67 100
190 416
245 450
565 86
199 263
239 173
134 655
526 78
274 22
120 235
580 53
459 636
25 529
67 21
40 86
583 329
424 656
454 25
395 277
197 124
14 11
628 26
524 550
387 105
37 507
128 16
86 20
338 284
354 507
177 417
450 546
443 426
117 240
444 189
320 210
572 468
110 375
374 355
146 262
193 37
367 339
208 571
31 216
447 483
559 413
506 328
421 202
68 540
453 162
298 124
363 331
153 66
140 467
232 270
25 237
26 548
300 277
332 241
346 611
1 425
202 337
385 121
606 43
204 77
343 649
494 565
42 324
135 56
139 42
207 83
474 170
355 515
432 54
589 214
598 511
460 593
301 160
259 346
546 14
1 484
366 388
170 506
177 563
10 318
501 240
474 421
253 555
290 623
396 311
620 646
487 434
600 227
361 575
347 298
258 26
109 583
110 577
592 494
108 22
410 365
258 503
440 161
6 316
159 515
624 228
134 536
121 95
627 202
632 512
22 472
135 549
594 87
247 366
78 651
429 84
5 17
154 127
17 255
40 540
442 128
460 192
313 422
266 158
238 110
418 266
158 74
429 650
453 54
471 141
303 57
574 101
290 565
472 568
648 629
300 485
123 120
95 100
50 179
639 506
565 342
3 567
462 598
424 222
554 41
85 9
600 114
414 419
538 192
573 618
115 277
494 91
306 163
524 465
11 377
559 37
652 408
481 212
111 306
454 450
78 573
284 547
227 628
614 41
281 313
64 370
335 377
585 623
26 488
131 330
146 392
648 486
436 362
623 409
536 473
610 537
358 466
564 207
404 243
11 431
383 406
139 458
39 166
607 401
256 58
87 51
360 98
535 3
322 433
586 130
611 125
560 246
493 252
195 270
623 618
365 152
203 561
493 652
318 2
632 535
435 337
365 285
519 316
464 583
522 259
120 496
560 59
421 391
14 143
214 38
365 480
427 421
63 359
654 337
74 329
434 128
536 400
388 177
555 501
368 129
533 285
15 205
166 287
67 491
349 463
360 498
87 571
116 577
158 508
7 57
523 577
281 185
302 296
512 21
148 444
128 222
570 475
148 171
207 265
195 11
635 498
20 289
281 219
367 158
432 535
87 547
356 50
8 592
345 399
511 270
651 95
510 103
13 284
265 135
260 393
271 590
646 159
77 451
66 360
645 301
369 171
251 644
391 638
309 536
41 43
355 154
175 182
395 520
617 633
505 213
390 383
115 160
647 116
604 209
498 648
367 598
494 353
430 604
485 211
617 597
186 587
381 112
191 55
410 532
246 451
464 643
141 244
532 465
214 496
249 408
165 509
68 599
204 606
362 472
518 352
470 380
217 284
322 396
537 593
478 606
652 485
37 171
400 553
625 512
59 262
104 605
630 402
258 632
115 172
498 49
597 510
374 616
129 439
140 538
605 175
432 599
349 125
367 477
643 421
103 225
115 134
477 591
39 442
18 41
161 395
23 551
203 284
253 124
350 503
467 277
263 440
227 250
617 291
101 600
378 1
366 175
178 249
203 529
115 372
429 180
421 360
550 61
447 587
390 266
339 79
637 443
326 139
385 155
48 391
201 514
631 422
367 117
4 3
600 448
246 583
67 92
650 99
607 459
343 535
122 606
87 314
369 15
42 290
202 148
479 532
622 249
211 38
205 329
419 154
86 383
486 422
12 348
348 625
452 386
38 349
637 30
308 655
13 369
511 202
356 270
245 584
340 26
321 255
303 6
584 424
43 421
186 635
601 93
572 527
566 627
127 369
104 207
81 256
127 578
627 333
608 149
558 617
175 503
535 581
363 515
63 589
25 159
284 572
207 244
135 492
584 557
621 170
196 500
411 555
387 309
190 205
112 640
216 255
483 71
419 446
515 323
307 281
462 589
221 165
389 225
32 454
322 559
171 136
30 310
238 130
358 31
478 104
366 480
23 321
511 16
339 272
253 32
82 424
60 316
109 422
405 29
486 495
104 360
286 640
173 115
459 31
165 325
296 439
362 631
166 303
423 495
191 578
378 244
489 170
255 136
278 612
16 49
10 492
412 275
42 45
367 586
645 86
548 288
66 236
560 513
358 216
29 209
306 522
365 570
36 656
649 113
606 653
234 386
201 573
163 1
101 544
130 357
497 369
63 118
362 588
378 233
476 472
456 481
259 436
20 374
467 14
412 350
301 502
481 365
128 553
526 640
462 28
135 266
280 617
43 372
439 362
43 86
478 211
387 53
155 316
135 536
465 232
629 305
321 526
383 98
223 541
419 115
634 54
54 561
526 500
350 29
161 308
506 122
95 49
466 188
231 341
645 246
84 258
653 367
549 508
398 547
503 421
413 388
122 362
606 262
214 196
464 277
452 219
654 620
11 187
143 181
544 563
130 187
143 124
125 82
414 50
356 582
161 26
71 227
655 227
152 41
622 304
286 14
343 498
161 513
125 649
612 644
391 148
95 653
181 467
257 631
493 618
453 204
395 260
599 276
507 480
84 492
438 139
530 42
63 488
192 488
6 362
492 439
33 547
124 397
572 126
137 266
604 651
122 567
553 388
495 83
318 652
560 84
645 64
144 155
651 318
5 585
569 581
481 570
645 357
577 509
455 260
141 232
145 4
448 304
360 133
641 45
471 487
646 122
534 56
156 172
28 212
582 118
378 81
505 563
453 411
612 226
637 147
172 186
191 84
366 378
75 473
403 393
168 351
604 543
416 102
541 458
268 364
397 408
314 172
418 238
374 79
28 205
312 316
518 390
106 530
200 571
343 195
417 6
168 472
109 431
44 443
234 450
596 437
347 150
629 317
579 433
222 298
506 378
587 255
478 79
627 422
532 109
87 391
319 84
125 124
277 408
511 337
165 382
320 450
553 36
225 489
574 238
503 476
516 428
167 332
10 583
10 135
351 271
611 498
378 376
584 79
524 142
517 451
160 426
179 365
565 483
269 535
627 405
332 365
219 607
122 547
560 503
309 631
517 29
28 128
537 278
503 168
180 165
203 246
259 204
60 2
81 565
95 362
300 397
106 484
630 481
510 262
354 325
190 635
422 495
28 585
3 581
446 168
69 290
486 456
123 334
528 270
191 471
33 354
628 297
543 99
618 506
29 526
269 436
513 570
584 37
395 308
633 445
276 143
234 191
4 320
533 511
308 637
141 206
306 643
513 112
28 623
66 101
276 68
545 332
527 126
232 35
199 251
358 363
113 645
618 443
603 102
149 338
132 610
2 611
145 602
211 237
395 306
582 319
575 37
53 539
143 575
133 391
563 127
176 537
573 594
222 627
637 96
199 394
527 121
600 388
517 47
116 145
561 499
648 130
287 385
399 532
10 367
419 586
192 495
601 161
505 368
505 557
306 622
71 243
209 102
426 515
646 449
95 505
338 91
116 313
282 11
154 290
553 378
602 41
433 572
335 482
364 351
571 234
245 518
133 575
240 381
113 542
221 499
402 226
386 595
401 175
598 109
61 101
536 113
494 187
86 313
559 140
391 329
253 236
349 2
255 254
395 440
290 563
418 304
565 69
472 414
205 323
366 120
538 9
431 578
627 259
314 330
207 435
220 55
51 643
329 472
29 102
240 475
361 641
114 497
56 492
474 205
77 418
102 402
365 129
356 306
492 434
296 639
105 445
540 555
365 645
11 199
509 248
71 313
346 25
451 313
518 169
472 255
160 338
591 555
386 651
210 46
625 410
178 226
307 567
47 326
409 358
241 388
134 291
153 125
248 198
29 520
204 158
551 161
578 59
339 536
656 501
287 120
603 624
434 216
151 164
561 383
210 550
354 106
454 447
16 437
286 487
436 298
133 155
8 471
376 586
97 458
367 139
246 199
549 482
527 386
103 216
650 223
27 479
626 46
157 98
571 533
408 571
148 403
656 545
553 423
269 648
426 277
314 395
121 312
351 561
216 173
539 177
287 375
411 642
372 557
557 298
394 265
229 133
233 140
602 631
150 329
242 107
443 46
486 21
68 159
368 112
448 464
205 290
89 103
629 130
67 370
26 590
244 486
438 607
370 343
400 321
406 598
363 140
208 170
101 572
243 540
386 191
156 313
391 318
306 489
527 127
287 377
306 49
189 569
150 16
442 503
260 552
357 94
101 68
392 573
215 450
652 612
461 492
140 119
253 64
335 137
157 176
455 411
341 457
229 527
159 53
575 522
396 460
467 612
126 40
314 293
526 158
273 406
396 375
526 190
492 267
170 436
646 506
582 404
185 384
303 404
610 426
451 326
249 311
220 589
382 120
235 339
197 473
532 578
370 584
634 289
3 292
608 300
141 553
215 411
495 489
56 553
360 346
63 645
151 34
467 595
338 217
272 261
537 380
640 563
246 644
306 500
306 41
120 351
338 654
606 141
246 419
360 171
260 268
242 153
419 51
9 41
268 84
110 287
519 142
462 360
158 103
655 155
453 213
522 195
253 341
527 562
339 328
2 26
60 389
644 57
392 621
21 444
246 11
233 277
366 486
79 263
366 30
147 627
86 227
481 164
189 332
13 332
68 412
559 62
478 192
448 153
602 530
23 267
508 205
630 18
25 563
87 99
132 337
181 454
555 406
647 266
527 481
354 287
201 526
561 583
343 103
178 266
544 530
186 314
465 548
276 179
345 253
560 157
498 313
311 380
418 548
632 52
427 465
178 544
311 238
378 447
70 443
374 169
119 29
133 323
323 575
87 176
385 601
267 337
583 14
464 292
16 512
10 360
318 260
318 56
25 601
479 103
76 402
365 95
473 354
237 362
316 121
270 84
382 192
564 628
655 549
469 499
490 633
344 93
222 38
168 424
59 205
290 464
63 254
211 40
584 352
196 498
207 591
586 643
16 64
345 316
124 233
644 382
224 453
243 244
242 30
429 164
64 469
90 622
346 546
205 471
620 94
64 182
533 282
23 394
469 653
43 79
3 439
483 653
423 443
197 601
163 378
122 634
417 146
128 36
313 169
376 181
265 104
300 371
652 517
189 599
246 277
285 176
303 396
96 651
582 271
178 235
49 249
49 571
281 207
492 274
367 35
177 13
403 233
652 584
411 47
498 400
350 567
440 3
617 293
465 264
113 372
25 147
411 608
490 645
598 152
453 608
629 253
407 610
190 215
410 258
521 316
126 340
410 119
563 582
495 368
293 252
109 346
229 343
227 398
510 224
548 503
340 649
512 112
244 507
280 233
510 241
14 339
521 268
176 37
343 8
208 162
285 601
265 655
153 389
438 545
342 175
64 618
499 626
558 524
221 396
490 246
103 649
476 383
638 634
287 41
615 266
52 322
389 28
595 457
576 316
331 406
375 471
315 65
121 318
422 340
235 586
49 299
655 143
267 171
628 89
481 480
536 59
366 11
617 211
177 66
112 254
652 461
615 576
367 328
594 592
263 268
566 576
476 544
368 109
104 435
314 220
21 651
332 560
78 187
178 512
481 258
124 252
252 342
244 443
202 136
655 551
409 354
241 85
462 77
178 617
396 474
91 324
260 610
628 64
603 509
378 290
342 585
444 256
142 15
653 104
365 337
16 598
86 135
482 245
3 348
321 262
384 293
2 23
604 615
545 121
67 22
647 538
401 103
32 198
316 224
106 8
219 646
161 207
588 496
492 103
112 96
220 204
42 622
583 547
135 473
164 130
320 630
78 564
517 326
590 62
385 656
603 5
249 524
558 367
598 29
92 177
614 42
457 568
596 36
316 11
338 492
455 383
636 642
629 414
169 295
54 376
298 76
270 202
367 26
403 553
486 104
6 253
609 67
166 251
533 35
257 75
246 648
444 539
24 629
567 533
459 351
439 450
234 410
42 640
356 584
562 631
50 602
25 485
651 593
107 284
654 431
174 287
591 196
549 249
298 82
486 339
66 215
424 545
537 180
589 319
627 537
551 400
164 290
112 534
638 117
467 380
491 227
339 640
599 174
133 279
202 16
53 177
304 518
141 448
280 97
595 586
116 390
390 632
287 25
118 655
653 2
386 525
135 544
617 347
577 90
436 271
369 152
256 115
235 28
145 124
130 14
42 260
505 363
324 141
361 26
54 568
245 382
225 587
106 311
207 538
205 166
40 537
227 4
623 194
578 128
225 281
337 383
112 479
10 72
103 38
358 263
128 14
593 648
249 507
168 240
272 74
359 58
653 353
578 16
28 218
623 89
271 209
388 75
107 399
197 546
9 77
306 263
602 421
58 57
478 563
596 567
565 489
559 147
532 158
215 488
558 460
108 655
254 365
29 442
48 185
235 463
650 36
628 561
203 393
78 285
367 410
176 440
572 332
474 593
179 589
388 249
79 583
96 435
650 155
587 107
214 258
197 67
141 453
497 542
112 56
402 448
216 609
233 186
471 207
262 365
266 262
527 164
25 574
573 223
580 380
277 74
458 238
623 296
338 630
316 513
37 377
362 7
499 292
112 511
489 460
355 426
121 112
610 401
365 210
255 42
311 87
645 443
246 21
61 465
136 492
220 28
575 258
538 356
651 492
83 377
5 621
255 295
311 222
610 11
520 606
365 238
468 122
85 115
379 582
273 376
7 615
578 394
596 541
238 101
212 271
577 81
651 38
503 279
105 187
3 638
64 462
13 191
171 403
514 356
549 319
368 178
8 628
604 39
79 460
256 434
190 471
281 216
560 379
277 563
632 216
222 615
260 212
161 381
119 592
360 388
421 435
103 235
283 127
186 411
274 117
570 208
495 190
452 428
63 485
440 600
178 291
453 267
447 233
170 531
19 475
227 389
54 428
611 153
6 385
239 647
379 168
202 203
589 363
553 78
15 529
147 460
542 250
602 549
537 612
135 161
130 139
42 174
563 449
370 428
418 250
168 617
478 21
125 404
372 458
582 640
184 337
46 292
411 134
536 561
460 631
249 347
418 59
8 4
471 21
341 260
549 479
292 438
19 405
417 305
588 650
117 246
452 528
351 29
72 136
221 312
187 629
445 656
394 263
204 445
289 148
604 174
449 159
246 159
342 641
536 28
432 609
304 457
603 271
645 532
598 215
43 227
319 564
612 192
173 90
251 17
290 43
540 36
633 106
454 226
614 538
577 260
86 71
640 633
482 563
484 493
302 22
114 611
461 120
487 330
215 513
498 117
342 197
244 573
87 277
141 257
120 424
79 57
182 207
362 251
366 414
136 544
127 9
648 10
294 51
614 78
572 462
121 465
602 460
178 500
532 122
53 550
50 523
420 489
507 315
437 562
644 294
286 128
631 598
186 396
336 546
282 9
16 4
529 28
21 539
213 569
531 242
49 321
649 435
527 573
628 600
332 516
241 201
335 208
346 68
469 226
397 173
461 573
134 186
503 197
339 41
635 59
501 589
237 101
192 340
524 531
93 243
321 629
179 550
501 212
127 112
421 244
446 236
358 420
414 554
626 536
585 134
489 173
407 285
59 381
25 573
513 53
582 520
461 232
69 572
18 274
43 648
295 340
299 155
108 564
618 485
436 20
480 343
356 478
552 463
190 20
617 390
42 636
421 472
561 484
234 496
389 510
100 629
143 508
260 256
484 130
158 304
512 207
354 467
474 436
516 595
203 489
175 590
332 109
627 522
646 615
553 153
199 530
471 247
171 391
256 395
236 629
243 471
548 271
557 546
270 343
511 503
351 450
78 510
302 588
326 623
201 388
179 204
174 257
185 581
628 19
529 576
265 611
362 491
170 84
641 276
122 402
316 22
612 55
29 462
378 141
406 238
450 324
451 486
516 453
246 87
208 144
48 74
417 484
450 271
42 178
79 394
41 386
79 26
68 203
141 410
598 637
332 403
434 592
147 287
87 574
615 645
640 135
333 211
609 380
244 48
285 59
472 251
508 574
469 484
444 424
601 168
361 400
560 627
42 160
443 508
41 150
236 303
612 294
372 189
421 537
201 9
426 395
566 462
167 501
375 223
366 330
406 471
352 595
534 598
280 565
270 539
187 90
527 10
215 133
463 173
21 56
211 20
499 630
37 590
469 370
116 362
203 403
358 621
601 89
145 637
405 394
574 506
502 490
203 332
588 354
308 415
219 443
283 548
89 624
526 368
549 577
477 605
172 482
489 79
447 59
257 462
281 364
367 306
152 315
151 225
650 496
527 391
306 64
251 102
37 263
516 124
306 486
49 548
264 312
566 595
401 185
488 522
644 597
325 277
220 9
611 130
542 418
595 83
442 323
421 171
292 448
364 353
559 151
306 388
587 615
340 486
45 654
124 214
322 548
572 62
597 419
126 645
444 151
189 453
164 180
166 177
406 356
185 125
339 564
154 434
280 61
145 645
602 59
546 171
329 559
198 440
308 74
570 335
377 43
629 101
26 479
628 627
193 268
474 460
258 495
604 609
211 70
298 227
631 476
283 206
133 191
3 601
205 318
16 389
498 340
251 450
205 591
406 12
260 165
127 395
78 25
358 425
227 166
495 656
400 37
151 154
589 44
539 244
555 271
417 37
263 35
368 242
136 145
307 187
151 60
472 26
170 559
186 168
318 349
582 635
213 565
546 582
391 185
642 385
539 13
408 140
79 66
572 125
346 476
425 654
524 218
468 178
618 253
375 133
175 398
589 87
258 569
337 56
257 81
244 192
26 189
286 340
288 52
312 165
394 419
487 119
