Vertices 405
190 "#222"
242 "#201"
251 "#56"
333 "#155"
76 "#109"
232 "#295"
31 "#83"
12 "#289"
101 "#231"
237 "#134"
297 "#278"
52 "#21"
180 "#217"
315 "#44"
62 "#38"
312 "#372"
374 "#350"
63 "#95"
216 "#117"
343 "#158"
9 "#157"
55 "#90"
146 "#68"
283 "#106"
352 "#80"
367 "#142"
124 "#176"
189 "#48"
375 "#1"
22 "#25"
260 "#103"
255 "#234"
93 "#357"
129 "#59"
131 "#112"
3 "#204"
18 "#334"
177 "#91"
80 "#232"
274 "#303"
372 "#152"
376 "#326"
158 "#163"
254 "#358"
13 "#154"
368 "#94"
266 "#34"
107 "#191"
49 "#268"
5 "#312"
14 "#328"
294 "#129"
317 "#255"
366 "#400"
335 "#71"
395 "#131"
393 "#156"
7 "#291"
278 "#42"
24 "#18"
228 "#133"
45 "#102"
330 "#344"
208 "#236"
83 "#266"
199 "#373"
323 "#73"
81 "#237"
126 "#140"
280 "#84"
247 "#249"
319 "#259"
68 "#316"
202 "#188"
211 "#198"
392 "#167"
214 "#314"
369 "#147"
36 "#226"
250 "#0"
91 "#173"
245 "#20"
311 "#166"
103 "#194"
292 "#308"
121 "#148"
200 "#101"
361 "#181"
377 "#65"
134 "#92"
66 "#300"
130 "#365"
204 "#360"
39 "#325"
268 "#340"
50 "#87"
198 "#298"
399 "#331"
171 "#404"
270 "#279"
381 "#43"
11 "#190"
156 "#342"
205 "#320"
332 "#282"
321 "#215"
86 "#239"
159 "#309"
282 "#399"
43 "#30"
239 "#319"
324 "#54"
310 "#185"
359 "#99"
102 "#196"
345 "#11"
170 "#218"
164 "#146"
316 "#182"
72 "#262"
222 "#132"
111 "#60"
265 "#89"
272 "#223"
42 "#13"
88 "#57"
301 "#273"
136 "#39"
212 "#61"
244 "#78"
326 "#37"
340 "#240"
141 "#41"
145 "#370"
25 "#180"
279 "#100"
346 "#250"
299 "#151"
398 "#17"
193 "#9"
85 "#247"
329 "#53"
353 "#301"
210 "#24"
137 "#394"
231 "#69"
112 "#356"
285 "#118"
150 "#390"
122 "#254"
168 "#116"
27 "#75"
16 "#214"
120 "#235"
187 "#136"
290 "#135"
46 "#110"
188 "#138"
215 "#355"
273 "#366"
267 "#113"
123 "#224"
286 "#270"
233 "#149"
313 "#137"
362 "#31"
388 "#335"
334 "#403"
336 "#5"
152 "#74"
355 "#385"
271 "#367"
306 "#85"
391 "#208"
154 "#221"
225 "#281"
378 "#318"
227 "#248"
110 "#168"
165 "#244"
173 "#165"
133 "#339"
21 "#228"
117 "#243"
109 "#391"
234 "#62"
277 "#29"
89 "#349"
221 "#353"
54 "#287"
405 "#210"
26 "#386"
360 "#284"
35 "#108"
65 "#377"
151 "#172"
144 "#285"
276 "#378"
287 "#297"
402 "#104"
74 "#242"
161 "#253"
32 "#402"
40 "#27"
1 "#310"
371 "#368"
15 "#267"
147 "#207"
207 "#107"
347 "#280"
373 "#272"
17 "#346"
79 "#125"
10 "#296"
230 "#105"
325 "#351"
96 "#286"
78 "#261"
135 "#380"
48 "#145"
59 "#126"
104 "#81"
167 "#98"
71 "#130"
64 "#283"
380 "#363"
197 "#317"
284 "#209"
4 "#2"
291 "#64"
220 "#23"
67 "#389"
269 "#211"
263 "#121"
195 "#33"
331 "#161"
358 "#329"
84 "#40"
275 "#324"
140 "#177"
143 "#189"
73 "#159"
30 "#257"
203 "#343"
219 "#276"
240 "#271"
253 "#192"
320 "#336"
206 "#374"
60 "#72"
162 "#178"
90 "#293"
213 "#304"
337 "#79"
293 "#186"
132 "#233"
57 "#45"
382 "#97"
116 "#28"
33 "#88"
28 "#388"
356 "#305"
235 "#364"
155 "#199"
196 "#337"
194 "#114"
115 "#313"
192 "#227"
344 "#395"
94 "#277"
258 "#4"
95 "#120"
157 "#96"
105 "#170"
51 "#3"
106 "#369"
82 "#392"
77 "#396"
363 "#371"
389 "#179"
236 "#322"
209 "#111"
350 "#241"
128 "#401"
365 "#10"
322 "#269"
2 "#86"
302 "#327"
44 "#32"
100 "#160"
87 "#55"
304 "#26"
241 "#260"
119 "#123"
351 "#195"
70 "#213"
370 "#290"
264 "#49"
138 "#361"
41 "#387"
169 "#225"
224 "#206"
58 "#311"
238 "#315"
97 "#47"
259 "#193"
20 "#63"
118 "#52"
390 "#58"
257 "#46"
281 "#379"
384 "#162"
201 "#115"
178 "#352"
256 "#345"
75 "#256"
252 "#183"
142 "#299"
396 "#139"
303 "#15"
182 "#119"
341 "#383"
386 "#164"
328 "#362"
400 "#251"
339 "#245"
53 "#354"
349 "#77"
327 "#398"
172 "#265"
229 "#333"
248 "#341"
175 "#19"
397 "#216"
114 "#323"
6 "#150"
127 "#347"
342 "#330"
166 "#359"
300 "#141"
183 "#175"
176 "#381"
108 "#171"
19 "#264"
387 "#174"
246 "#66"
295 "#229"
307 "#238"
289 "#307"
394 "#263"
338 "#306"
160 "#384"
148 "#7"
305 "#274"
249 "#338"
354 "#128"
125 "#202"
163 "#122"
298 "#252"
385 "#6"
308 "#50"
261 "#144"
185 "#294"
223 "#70"
184 "#288"
314 "#321"
318 "#82"
226 "#200"
139 "#203"
309 "#275"
243 "#67"
149 "#376"
92 "#212"
186 "#382"
218 "#93"
404 "#35"
217 "#127"
61 "#197"
357 "#205"
401 "#14"
23 "#124"
174 "#397"
296 "#292"
288 "#393"
113 "#36"
37 "#348"
47 "#258"
179 "#169"
29 "#8"
348 "#246"
181 "#375"
98 "#153"
56 "#219"
379 "#76"
383 "#184"
34 "#143"
38 "#16"
153 "#22"
364 "#230"
403 "#302"
262 "#51"
191 "#332"
69 "#12"
99 "#187"
8 "#220"
Edges
218 40
326 388
152 216
395 188
304 374
148 262
255 384
93 143
264 267
39 180
305 220
206 251
204 323
122 347
63 141
229 359
309 267
279 233
375 38
367 145
303 359
400 325
404 308
95 88
241 292
246 5
223 84
135 319
299 165
251 345
264 46
287 194
401 194
190 93
21 310
233 333
183 7
168 390
223 259
180 131
152 384
246 52
136 369
12 394
382 23
362 210
194 326
300 264
363 279
65 82
295 74
117 136
352 256
216 272
256 236
302 394
107 98
372 168
270 225
241 77
192 285
207 264
12 58
181 388
277 347
259 330
93 380
91 213
381 50
297 316
260 220
367 98
209 207
174 82
168 177
264 113
88 81
51 152
126 255
326 245
286 348
243 142
355 10
208 386
12 225
256 333
128 378
302 68
18 145
339 195
386 116
17 393
27 13
294 95
39 375
394 364
168 47
287 5
308 102
389 190
78 18
125 329
158 117
299 308
209 116
206 165
345 233
237 193
190 380
61 378
13 168
282 370
251 80
159 289
143 124
166 156
53 299
381 367
124 139
349 337
395 187
365 267
299 218
243 175
24 262
277 297
90 101
192 21
126 49
314 224
4 213
227 371
198 101
134 304
327 132
378 10
263 95
392 15
55 111
382 66
159 308
39 204
59 263
326 318
204 124
97 153
349 40
88 192
346 213
99 74
128 55
154 223
234 251
116 233
246 380
148 84
343 182
318 267
237 57
41 158
326 290
124 211
141 45
18 388
352 207
283 213
345 387
191 323
166 56
250 195
41 225
44 41
90 196
214 360
161 198
244 31
132 135
134 84
280 132
179 162
73 283
388 127
270 53
200 42
287 270
195 368
286 251
211 135
55 4
261 308
369 344
377 349
211 35
105 108
360 137
25 343
108 405
244 52
152 55
241 346
134 349
211 388
122 385
284 168
5 238
64 137
158 359
268 89
400 375
194 319
191 136
387 319
203 281
36 98
161 96
31 2
165 359
281 139
125 301
92 141
142 401
247 337
109 397
380 179
162 249
182 245
23 224
113 329
245 63
250 278
259 200
127 269
62 113
60 117
78 259
156 387
306 261
88 250
324 337
349 210
102 51
346 400
388 179
34 404
270 369
303 304
351 162
168 155
348 211
67 196
267 324
157 257
325 14
360 7
405 124
364 104
213 298
341 241
300 107
363 73
137 194
305 167
335 183
78 310
10 269
36 291
367 354
261 201
308 210
368 329
266 124
345 170
206 267
366 319
148 71
120 192
345 367
338 310
152 302
391 324
376 195
238 263
158 4
126 295
55 134
360 283
311 392
92 129
403 90
367 337
270 373
221 256
300 52
20 23
358 236
166 392
287 96
200 302
230 9
390 136
375 381
246 250
150 10
170 29
210 379
315 66
22 257
251 47
141 95
247 318
125 98
264 377
175 19
277 384
91 340
19 80
352 325
257 153
36 157
403 198
212 97
299 367
151 180
262 116
139 208
13 48
220 43
366 10
237 87
102 350
188 244
117 106
295 318
206 225
282 270
229 302
52 329
12 270
309 206
126 188
370 335
354 217
346 56
31 223
335 60
208 172
50 169
16 380
277 51
346 47
316 181
163 95
389 374
184 330
359 111
65 190
194 290
374 68
368 315
267 46
87 85
132 343
251 19
84 381
142 156
35 402
374 312
93 365
44 159
58 263
324 399
180 396
300 325
148 196
55 218
327 255
358 175
340 48
259 125
328 218
365 278
116 250
300 289
54 372
100 336
230 262
180 115
313 112
285 304
42 291
51 151
375 141
386 233
33 264
336 118
51 398
180 110
18 338
276 39
336 73
280 129
277 157
44 375
55 370
315 397
104 141
128 164
331 207
195 241
232 299
187 222
250 87
13 84
344 151
88 35
121 215
306 134
16 138
393 293
367 368
71 347
200 126
179 255
400 213
396 346
303 195
76 365
369 11
90 117
179 365
389 99
167 31
354 329
321 208
292 269
220 366
59 163
43 306
284 265
278 102
70 389
306 76
101 360
34 310
287 69
275 177
218 66
23 13
38 210
237 345
153 169
164 361
43 97
284 383
211 378
392 340
99 152
119 63
165 295
232 183
296 99
279 200
184 95
66 297
78 317
62 251
18 256
12 23
327 400
160 150
117 29
348 125
4 241
274 269
222 93
159 298
110 348
116 245
368 74
398 228
304 163
95 375
64 366
88 398
246 70
205 236
284 78
270 19
19 373
149 230
161 398
317 166
196 184
403 262
237 117
106 43
351 349
349 344
303 123
9 51
251 287
329 171
318 201
53 388
151 183
295 201
74 85
62 250
104 112
134 177
346 286
340 128
218 293
42 269
148 267
168 75
271 16
315 390
291 260
179 92
237 165
295 80
124 3
302 393
208 286
259 185
95 206
335 76
87 207
129 367
221 230
365 272
81 86
349 52
53 159
386 158
153 264
338 331
263 125
48 224
152 36
146 270
147 154
357 202
165 108
319 292
170 126
315 87
335 176
193 85
402 113
87 398
265 224
315 218
362 251
155 59
195 57
68 114
349 346
51 315
31 153
354 396
171 159
368 268
170 373
260 180
187 371
212 21
379 222
131 68
244 375
342 65
78 390
87 286
245 262
90 110
138 294
258 146
103 288
230 296
101 246
42 404
345 354
97 52
325 268
261 228
246 23
159 79
167 34
382 282
88 243
271 302
53 148
229 156
200 98
81 299
209 159
348 184
334 273
95 302
326 42
382 7
263 278
116 362
193 289
78 48
251 403
133 390
267 29
302 345
83 169
180 403
319 122
129 31
90 72
244 270
284 389
67 279
70 129
273 121
377 52
170 336
132 389
95 285
362 42
208 245
51 19
234 57
320 78
76 191
199 385
51 306
62 111
129 307
244 299
250 27
382 358
29 251
128 354
267 108
262 401
355 65
245 146
112 235
43 25
66 230
100 313
234 250
132 348
327 135
166 364
236 206
230 167
31 294
212 243
351 296
179 315
386 311
97 38
230 241
265 113
389 161
167 404
136 259
386 87
113 74
6 70
280 389
305 60
151 236
301 91
379 84
186 238
352 280
300 259
232 161
9 224
29 179
230 51
372 344
211 292
346 120
301 389
46 229
44 303
206 43
379 44
301 223
62 385
182 83
244 396
14 372
207 283
315 62
327 41
52 399
80 59
401 84
110 351
194 246
266 22
47 121
224 238
349 224
361 259
152 20
50 373
212 51
258 118
44 367
375 401
190 37
327 371
119 105
318 337
295 64
243 261
20 325
69 136
311 401
20 223
389 171
232 94
22 318
308 52
258 255
264 257
276 3
39 115
126 351
92 321
390 87
346 356
91 48
105 230
4 320
182 13
354 75
351 132
206 341
387 122
127 16
99 19
345 116
141 111
105 140
244 246
308 111
260 86
152 121
52 63
152 45
148 189
94 49
59 123
260 359
239 213
338 55
125 245
222 35
78 267
387 62
328 273
229 378
375 285
122 302
108 293
23 48
38 84
193 3
380 388
385 276
337 223
187 295
31 273
297 237
289 211
303 339
36 80
300 29
53 327
4 295
366 70
1 270
121 154
32 138
201 142
25 92
383 313
104 280
113 303
45 398
175 180
88 66
127 124
28 344
50 87
87 291
165 213
320 302
122 9
229 196
375 229
255 74
198 330
342 355
135 207
39 122
346 89
23 373
18 21
76 23
133 205
315 303
195 126
155 296
159 263
349 366
172 175
335 131
351 306
405 183
244 162
342 90
120 397
299 98
195 92
36 18
43 311
229 13
383 85
75 298
121 292
2 401
354 24
181 363
304 108
337 297
294 188
300 261
29 210
150 94
135 371
258 201
313 236
405 333
55 50
211 401
107 217
68 188
154 88
170 160
316 363
326 303
234 390
207 245
125 313
385 152
107 245
71 136
401 110
105 265
216 24
394 74
223 3
114 319
129 258
362 51
351 144
66 403
52 269
88 69
63 217
75 42
170 270
337 12
7 28
168 108
228 76
191 44
296 57
258 212
250 60
273 382
180 210
136 380
245 301
302 378
303 165
96 77
33 261
369 349
193 378
142 351
141 336
375 184
356 368
274 148
182 396
251 182
3 123
23 202
156 237
241 133
169 217
265 187
218 199
112 213
60 361
258 57
217 51
378 28
379 378
236 175
365 251
311 9
311 73
104 290
326 131
27 229
28 52
349 45
402 359
382 12
281 202
15 343
364 179
29 345
165 270
131 188
348 201
190 359
228 10
240 269
390 394
324 343
126 357
66 93
50 306
260 146
98 397
322 61
351 105
79 23
17 388
165 48
57 250
238 100
176 252
113 116
238 110
66 337
179 158
244 165
191 193
20 60
81 96
289 47
336 190
168 323
183 114
243 333
275 130
403 345
395 294
125 390
300 54
259 369
258 294
4 313
397 312
315 365
114 188
152 4
164 385
235 345
394 350
264 52
188 383
162 253
38 266
89 14
122 340
383 361
354 190
159 58
265 122
137 366
53 279
42 73
61 120
246 263
211 405
59 57
47 162
237 6
12 402
40 286
86 93
252 387
214 318
132 241
21 42
165 285
393 13
277 217
220 29
212 351
186 178
41 230
232 54
233 244
239 338
123 63
343 237
347 330
40 198
401 279
182 125
143 112
241 306
182 284
152 170
226 51
382 351
18 6
216 218
177 42
136 76
104 200
143 379
140 372
158 300
308 242
245 108
121 213
166 266
159 363
229 200
91 168
63 223
325 363
90 345
180 352
12 206
27 278
200 336
3 271
284 162
141 42
139 360
201 249
294 273
31 34
175 22
276 199
42 264
261 259
330 181
70 359
31 56
338 296
44 337
359 261
337 124
301 329
384 131
195 164
330 366
382 388
296 48
351 7
364 91
96 59
105 5
76 175
168 249
224 376
103 98
306 163
207 366
85 263
123 321
289 39
167 104
71 265
141 212
323 157
111 217
322 381
380 53
23 170
269 125
364 105
402 270
151 88
79 236
136 142
194 276
381 228
21 233
59 397
278 110
163 398
112 270
183 32
226 240
387 269
142 237
255 149
343 279
126 240
171 135
129 310
380 156
177 140
291 157
369 92
323 193
30 100
60 308
338 270
349 318
127 390
237 371
74 179
208 85
249 253
153 218
1 190
137 308
317 3
381 59
238 90
100 242
139 404
120 172
47 16
318 234
101 398
91 232
183 253
336 52
23 266
149 160
265 58
265 74
283 239
263 92
304 339
158 178
288 145
84 170
381 225
396 247
22 244
353 99
305 182
135 335
81 191
332 163
209 73
360 177
152 126
332 224
383 381
116 265
91 311
51 189
95 151
23 195
96 351
304 179
349 330
132 104
146 87
159 279
204 354
271 317
367 188
308 366
113 306
230 374
159 47
85 246
38 381
275 313
111 195
152 353
12 1
16 398
226 35
371 330
147 212
15 38
308 252
367 279
130 313
35 209
202 98
56 374
265 108
368 14
71 97
273 169
230 49
193 385
156 93
242 119
19 230
234 247
258 273
350 142
95 52
401 151
296 185
190 16
183 98
64 90
76 313
354 387
246 338
131 311
22 306
371 400
289 347
60 106
292 339
168 285
289 3
45 260
188 49
61 243
131 151
281 149
230 122
90 311
173 284
154 3
337 31
193 17
236 25
20 332
137 317
350 182
317 304
222 254
295 124
320 374
27 331
107 114
275 1
346 301
372 261
274 10
260 277
386 378
296 1
258 76
114 207
20 142
92 125
86 307
275 165
315 220
182 230
252 337
218 91
313 206
210 152
72 19
206 137
224 218
307 80
82 281
33 401
331 93
303 245
124 100
110 137
172 88
129 2
147 36
218 337
56 271
163 87
78 160
148 103
81 165
243 193
236 360
299 263
235 301
149 308
6 83
257 143
379 144
25 168
88 246
392 258
337 295
296 237
194 279
64 321
19 400
107 182
11 114
206 325
266 185
297 315
58 1
317 10
70 83
154 291
270 237
214 138
175 372
323 278
325 221
311 306
78 383
243 7
253 351
105 253
264 182
46 382
2 265
159 280
368 258
211 266
141 326
374 294
331 261
308 24
42 266
165 27
86 278
295 340
66 385
309 133
392 7
116 329
286 30
305 401
182 210
175 148
52 212
84 195
266 188
153 351
118 231
19 381
401 148
182 329
387 279
352 95
321 133
202 333
383 266
296 198
71 260
258 250
67 325
109 226
308 293
346 392
91 284
27 182
223 317
405 193
257 180
301 263
158 233
329 4
278 115
389 394
215 131
283 277
371 77
396 186
384 324
128 371
212 294
397 54
208 40
160 85
218 56
143 273
346 97
227 231
305 197
365 60
101 217
310 168
265 386
107 330
99 71
284 71
184 90
267 364
207 244
272 265
18 166
44 86
38 113
338 23
65 138
159 67
5 215
230 351
164 268
33 283
38 152
37 93
249 114
248 12
52 245
2 389
148 33
15 346
9 78
253 273
132 364
318 336
198 116
169 223
98 319
199 194
12 299
326 346
381 207
131 113
67 20
76 261
213 358
315 86
203 138
161 324
245 401
51 308
149 176
54 195
104 65
13 251
237 18
100 42
142 380
35 161
217 87
112 249
394 56
297 338
296 165
346 295
375 49
245 381
45 211
258 34
101 74
32 59
63 2
308 84
4 44
193 207
306 189
209 267
125 28
126 59
81 346
226 88
103 263
60 293
327 325
302 334
64 332
83 107
75 93
20 290
22 220
124 239
141 189
343 77
223 233
73 179
329 398
355 145
116 352
310 193
348 350
5 119
105 42
7 344
340 41
111 266
313 148
331 392
141 217
237 217
358 355
350 295
332 99
43 283
9 277
38 329
350 201
368 230
366 149
354 155
343 222
84 36
155 185
211 179
252 162
74 389
345 41
10 308
387 45
48 6
184 49
45 284
130 381
232 20
315 113
385 315
193 330
6 373
241 206
206 259
283 365
114 298
164 52
97 293
266 202
148 2
359 200
354 148
83 375
197 181
189 299
101 181
259 243
281 230
355 32
190 289
50 153
67 363
360 117
55 306
91 27
80 233
362 38
385 87
126 268
359 167
73 328
298 3
354 314
313 119
233 34
20 237
371 366
244 402
200 260
250 36
98 152
381 48
214 232
23 225
318 25
166 271
365 299
139 29
115 159
232 44
71 383
368 340
233 147
145 169
74 187
187 347
373 322
369 160
101 228
160 38
315 295
263 283
211 151
201 221
345 296
326 123
124 318
275 119
389 50
379 327
284 224
270 315
59 312
189 88
287 188
257 398
159 370
265 306
22 335
141 285
263 168
212 48
269 209
123 200
186 242
378 323
64 164
240 188
331 383
335 387
285 46
315 277
11 259
40 377
305 278
158 173
9 393
19 131
146 392
194 175
14 126
377 29
359 386
266 80
230 184
265 233
152 250
332 210
267 128
308 216
311 383
24 277
319 378
76 177
20 401
299 41
296 388
265 129
107 115
329 401
149 207
96 7
43 359
20 55
182 40
351 202
27 213
135 292
125 297
234 294
347 214
239 246
323 230
329 394
50 121
384 294
241 121
29 61
398 22
108 148
164 99
273 69
105 73
44 79
313 252
243 20
15 218
323 337
211 382
178 360
84 9
136 303
80 72
267 352
180 79
161 162
389 110
28 198
195 88
183 54
277 336
43 331
251 195
252 251
12 332
394 236
45 382
54 248
345 259
224 70
283 92
146 336
387 42
224 299
382 200
400 227
47 196
294 320
27 387
104 227
3 139
318 100
312 71
282 330
269 382
237 71
220 243
123 375
63 134
335 157
143 322
382 316
148 64
382 167
95 293
329 136
374 303
295 208
129 212
91 38
124 29
204 190
234 45
383 81
137 225
121 172
315 165
374 178
299 62
58 205
132 42
380 403
212 367
250 352
39 116
215 144
177 4
100 361
223 75
385 113
385 351
59 109
46 244
201 182
222 294
99 64
55 239
304 279
111 348
39 262
43 113
38 303
313 61
396 371
87 62
166 358
23 95
266 359
185 48
73 401
145 10
317 112
273 331
187 325
23 352
309 370
32 334
386 391
120 198
246 384
127 379
336 278
375 393
39 257
179 331
289 375
179 161
183 334
6 167
402 223
214 3
23 259
388 273
173 36
240 76
272 69
7 131
217 396
269 388
303 179
269 170
162 386
103 200
397 183
116 42
247 253
365 87
237 172
292 378
384 336
308 390
42 262
403 40
59 117
371 378
336 24
372 160
305 375
180 38
270 51
75 181
8 70
165 233
366 193
305 117
32 198
303 333
302 17
73 269
109 372
167 2
38 374
396 337
190 302
374 93
63 263
374 271
295 255
258 141
154 343
153 337
325 368
49 240
78 286
52 326
62 372
293 35
367 355
336 188
170 180
52 375
349 66
351 211
316 244
124 260
13 160
377 244
330 195
39 187
313 230
74 105
242 88
315 95
266 35
42 152
45 57
64 168
156 331
12 170
47 40
97 381
151 242
257 3
261 121
225 130
159 299
5 60
181 103
23 6
307 78
250 362
398 290
198 360
42 311
165 338
44 166
27 361
370 388
388 379
386 355
9 262
89 106
389 121
345 218
148 19
324 148
149 38
131 51
149 331
317 244
106 149
303 377
278 383
169 266
170 92
246 4
62 207
119 95
51 296
9 210
220 345
121 73
372 316
23 270
197 198
356 295
250 251
107 347
45 77
262 243
76 358
281 11
187 322
113 395
60 291
13 255
229 213
23 125
260 80
366 275
190 61
263 110
279 375
244 136
202 279
299 279
177 105
351 154
245 238
125 119
309 252
313 143
223 287
397 154
182 126
352 327
318 224
68 93
326 403
329 338
113 208
396 124
90 324
16 257
60 379
256 300
31 44
200 356
43 179
4 146
371 387
48 233
382 139
332 189
325 201
216 182
313 271
114 366
315 169
267 133
349 352
361 266
49 15
295 258
125 190
357 234
57 390
306 136
385 90
328 169
360 386
226 212
207 98
94 230
246 110
70 100
95 245
22 311
252 137
206 223
84 326
214 200
20 87
324 46
259 367
119 263
216 40
99 175
47 286
34 105
129 153
192 59
198 201
385 252
43 29
292 54
295 234
202 212
113 157
188 302
298 108
178 366
50 134
236 355
168 149
177 148
162 71
403 37
97 87
179 272
345 34
294 293
350 88
379 242
308 140
81 378
337 293
116 38
210 393
289 262
60 403
296 17
254 371
102 226
92 301
337 280
367 121
233 295
102 85
202 92
90 242
189 16
146 35
351 157
367 313
303 334
92 69
83 122
165 1
351 243
387 17
332 299
85 145
164 175
100 252
207 52
91 259
45 378
277 381
54 256
341 95
246 272
302 20
222 163
148 301
284 332
141 294
384 234
193 136
47 193
10 125
261 336
229 318
246 38
223 44
354 327
199 3
387 331
401 83
217 22
78 220
375 189
218 152
208 19
23 349
52 305
352 336
230 110
322 378
373 120
385 84
261 23
382 359
241 3
230 146
257 29
70 73
98 297
379 103
269 227
22 237
143 226
187 313
339 295
396 405
323 257
292 124
185 83
336 231
200 150
216 402
183 372
351 198
136 396
104 293
136 98
176 308
270 125
20 363
228 278
19 164
55 246
176 159
181 354
100 210
27 20
236 12
133 317
218 321
250 300
289 187
386 372
148 25
13 331
9 129
315 306
308 379
348 85
269 319
230 325
119 205
201 116
113 88
12 329
386 99
40 136
113 46
308 374
125 71
43 192
278 317
328 127
249 143
377 152
170 243
279 238
402 324
196 19
22 207
364 348
35 261
45 200
147 88
303 266
312 109
329 194
276 340
131 205
199 123
323 335
106 242
367 265
110 40
73 101
100 379
236 51
171 254
251 74
288 258
45 146
378 179
343 169
116 375
327 148
87 121
165 158
357 333
344 128
294 51
137 186
244 337
85 284
294 391
160 126
196 281
89 325
157 63
156 359
298 354
296 102
352 42
2 404
368 264
7 180
20 250
87 220
19 30
269 284
181 198
274 61
37 20
329 326
279 260
43 244
143 3
172 164
164 300
210 45
315 117
108 324
333 80
234 116
302 235
158 122
136 212
150 309
52 85
66 90
116 263
259 38
107 259
84 29
308 398
190 168
124 108
124 213
279 257
11 243
261 84
228 191
241 104
261 136
300 308
38 384
157 43
70 51
294 136
323 251
253 202
281 41
146 175
13 375
182 175
190 288
147 98
228 161
228 15
231 349
115 375
379 27
120 285
42 51
392 295
263 372
188 313
132 372
29 278
121 269
244 44
321 388
101 384
367 88
279 185
79 170
261 230
185 146
336 267
367 97
162 23
237 121
13 310
126 89
403 184
141 261
42 131
248 301
48 250
93 27
111 63
338 378
90 73
313 235
326 111
214 251
303 337
210 116
195 178
73 177
158 264
305 251
348 246
53 135
397 35
250 379
55 337
262 123
308 365
20 91
365 152
315 381
241 313
33 13
152 116
304 59
300 390
343 202
389 359
294 313
116 315
93 294
298 223
38 86
378 274
292 274
113 359
380 66
329 236
304 218
242 70
295 265
44 180
43 59
189 129
78 381
239 292
398 69
81 230
335 201
168 182
284 72
29 86
223 345
379 377
115 262
351 23
84 141
29 331
5 34
232 389
318 313
267 234
141 163
127 227
230 375
308 162
155 53
189 40
189 324
326 246
197 137
172 76
224 266
152 246
91 372
201 21
271 112
299 318
179 338
131 5
88 211
29 25
317 64
368 167
269 38
116 43
150 366
374 187
69 302
91 394
112 403
318 382
388 390
273 73
329 168
70 10
19 296
65 236
52 278
44 146
277 146
104 337
176 123
118 25
298 257
51 210
218 297
150 308
382 225
131 348
335 318
252 188
170 70
192 46
379 337
279 336
209 402
230 23
113 223
79 202
397 19
131 119
108 135
68 149
338 38
371 281
10 28
104 271
349 193
117 243
178 301
395 41
50 33
343 306
388 121
128 396
24 38
122 96
78 19
297 70
99 380
328 19
4 244
315 343
398 10
30 317
403 151
68 190
86 117
39 190
382 349
381 159
74 245
293 211
154 35
153 52
354 371
278 159
41 279
177 143
334 358
260 269
319 10
350 286
253 23
395 166
43 212
333 359
17 379
74 402
286 284
239 44
326 158
7 36
146 295
396 318
359 179
395 313
246 267
258 312
256 59
214 203
102 87
350 116
51 404
224 102
79 136
240 225
347 195
94 397
381 87
222 148
33 318
72 85
348 267
293 131
325 256
118 168
230 188
212 217
228 70
397 326
157 223
73 198
214 302
273 237
312 248
185 270
351 346
233 359
188 303
18 250
368 382
146 148
176 41
236 138
81 386
339 260
84 398
361 193
48 95
143 223
362 195
243 25
28 391
347 125
228 222
389 318
360 239
123 335
54 344
209 222
120 46
11 189
217 167
19 286
233 361
27 377
1 338
34 271
307 59
297 359
223 392
123 39
55 336
148 188
45 167
326 377
102 107
45 354
368 295
60 262
90 252
339 185
283 300
212 399
144 230
56 236
4 210
4 257
366 250
219 300
86 383
6 380
373 161
146 22
187 387
173 11
352 239
318 40
65 225
29 365
326 62
276 225
177 214
233 36
189 348
304 87
137 180
242 16
180 269
70 152
211 380
194 79
372 398
261 188
401 242
166 180
341 149
358 257
137 150
233 52
218 308
85 310
385 293
285 222
163 381
234 73
271 270
136 360
224 32
331 135
93 273
96 389
384 74
104 166
184 236
165 380
183 51
400 286
145 364
327 90
189 198
233 236
369 13
96 198
54 98
89 342
286 315
250 264
165 229
81 307
296 64
96 259
43 345
217 398
30 129
306 56
136 237
69 234
245 395
174 199
267 217
52 113
250 386
137 70
341 59
87 22
55 265
191 119
384 250
327 106
142 194
130 312
78 346
151 393
279 188
375 28
153 44
257 287
392 343
220 286
177 22
87 78
179 140
152 173
36 318
292 10
81 339
121 357
307 18
296 144
157 168
352 54
400 289
96 232
133 51
168 132
317 346
368 42
47 211
356 302
108 13
388 320
140 42
251 72
42 349
266 88
79 396
29 35
56 241
39 3
190 132
168 218
145 263
230 395
130 370
182 332
232 382
318 62
110 403
89 378
148 404
242 279
211 371
230 201
333 99
387 283
299 363
217 283
261 244
136 188
230 367
91 42
207 95
340 145
152 131
365 143
104 19
243 300
212 329
402 190
262 375
148 22
201 81
373 397
259 230
261 258
124 154
73 347
257 237
141 168
152 386
397 70
19 364
135 148
264 402
166 80
198 283
160 113
129 237
20 111
236 257
170 387
191 287
315 285
8 284
17 335
120 338
47 19
298 317
207 119
267 73
101 386
52 193
136 232
241 364
400 364
105 86
144 103
104 11
339 155
163 158
382 91
58 102
222 313
100 384
162 339
134 337
367 326
379 371
129 71
276 41
307 208
277 153
223 42
167 401
365 207
304 231
78 30
353 116
258 306
37 124
213 300
189 401
266 62
206 312
132 232
372 81
398 67
84 79
146 385
47 75
129 78
370 211
365 57
367 369
209 214
333 165
382 360
68 309
223 39
42 315
163 173
81 278
216 234
225 373
84 303
391 276
324 207
320 284
39 279
215 281
290 79
78 400
283 212
157 139
352 22
85 107
111 87
384 13
200 113
234 95
73 146
349 277
323 345
47 71
74 303
302 78
237 77
215 185
273 269
61 302
325 21
52 361
264 27
297 335
179 397
300 400
264 173
17 127
95 378
259 155
125 42
146 57
168 288
6 165
291 324
314 316
120 19
195 162
20 213
237 330
336 2
152 381
232 98
265 361
149 250
52 27
354 22
187 84
318 17
141 267
152 316
297 281
127 240
218 175
286 245
357 76
87 113
273 345
293 304
224 308
294 68
309 403
88 381
301 74
317 19
64 402
384 399
6 404
200 129
117 11
357 308
284 302
121 397
168 244
339 338
244 343
189 246
152 234
244 10
222 66
384 42
194 386
346 162
15 175
157 357
44 377
222 135
175 201
281 199
278 58
25 313
250 265
24 84
48 244
317 401
128 91
253 334
20 321
306 201
236 228
132 93
81 162
234 202
80 269
2 29
51 116
375 322
362 385
256 230
345 64
365 246
78 394
91 94
136 24
107 125
154 211
392 191
293 69
237 222
167 212
297 296
384 122
157 79
179 69
2 6
322 385
100 343
46 79
97 352
233 167
49 175
385 225
235 34
8 6
351 357
379 223
246 251
374 160
87 243
11 136
121 299
263 288
390 102
354 87
55 85
393 29
276 77
335 62
141 175
170 299
84 180
335 348
271 102
264 324
340 195
104 270
310 74
251 278
190 58
335 200
396 267
262 329
199 82
113 234
191 205
49 226
396 188
295 93
64 347
345 234
218 266
210 43
243 361
332 67
293 162
251 372
351 339
158 360
66 345
365 20
212 390
134 157
115 175
277 42
386 198
383 400
356 261
129 44
328 69
158 237
241 276
120 229
396 89
100 269
182 384
238 396
385 45
54 349
110 80
321 116
157 210
372 339
4 49
112 168
73 212
2 233
395 281
188 24
291 246
315 367
116 92
382 94
265 31
381 263
217 226
248 374
115 102
139 85
363 155
60 337
396 295
75 295
121 35
330 261
279 359
322 325
359 335
305 80
28 355
212 333
180 316
145 160
243 369
128 48
279 158
98 372
87 125
335 223
351 92
167 226
220 365
299 97
263 5
293 370
308 141
243 29
2 257
19 350
266 284
233 259
329 356
332 363
131 136
1 302
183 95
361 279
116 311
196 127
137 276
18 59
313 218
167 51
111 40
333 351
131 339
183 273
56 302
131 92
104 324
294 217
24 87
289 1
120 177
403 107
92 270
341 313
181 128
372 320
187 136
251 327
106 25
326 336
2 46
153 42
149 135
40 324
168 333
148 105
149 114
36 166
80 403
166 334
253 166
217 70
168 145
328 196
316 162
159 102
243 59
394 295
253 230
220 62
340 281
346 91
201 48
326 73
375 216
381 341
97 257
220 76
149 313
244 81
24 242
200 157
279 264
375 362
69 295
211 226
24 193
378 120
242 125
385 116
122 283
388 284
243 122
172 358
263 245
333 25
218 12
274 65
127 47
73 360
139 7
395 44
177 91
70 272
290 396
10 137
143 29
333 126
330 382
400 211
358 212
64 32
2 79
270 267
54 19
114 159
235 205
70 375
241 124
209 22
182 49
215 83
141 280
337 208
250 377
71 209
289 58
330 197
354 188
22 3
234 313
107 325
295 359
280 286
298 20
131 114
239 159
302 114
85 170
120 322
141 391
157 182
216 265
331 366
260 368
121 382
195 69
37 380
345 99
291 257
230 168
363 122
350 319
359 224
305 31
129 354
235 271
308 347
13 213
134 20
318 258
278 345
313 114
87 38
225 312
175 157
347 51
18 273
346 306
85 381
241 317
259 48
126 269
168 246
121 239
206 332
52 38
92 30
200 349
39 125
315 92
279 261
103 168
385 299
317 70
48 206
177 20
99 125
50 265
178 330
29 244
190 394
226 107
117 189
38 239
169 154
312 136
73 187
339 386
180 297
207 152
323 240
387 163
189 57
326 391
132 21
267 111
114 135
169 133
46 211
158 40
389 251
54 189
387 195
208 318
207 267
211 53
280 327
260 38
195 398
329 64
318 165
175 44
182 19
293 388
300 343
125 367
289 338
279 337
354 42
134 92
216 229
236 133
90 207
51 381
277 84
80 21
228 358
148 134
328 338
113 143
152 345
239 79
228 383
84 33
372 179
245 293
81 43
206 382
24 148
141 57
65 19
21 129
190 299
371 45
307 133
257 356
345 55
112 166
178 239
313 259
259 93
107 329
194 385
318 231
373 101
273 27
324 158
172 259
158 306
210 404
379 31
210 366
365 136
371 343
296 270
250 201
74 13
254 135
242 110
331 9
95 381
356 190
38 228
97 84
374 166
378 191
212 98
145 256
217 20
267 261
5 114
71 258
131 331
75 363
390 365
112 193
233 381
93 44
70 333
92 272
6 158
400 322
42 377
381 134
164 378
329 175
217 384
302 333
93 320
328 148
358 191
55 32
335 168
25 125
352 403
141 131
329 389
139 143
4 266
156 325
45 173
405 17
266 342
96 243
278 277
92 340
24 257
100 383
105 295
185 267
133 128
257 223
110 210
56 297
87 257
365 273
158 388
177 244
367 361
71 280
73 397
227 380
244 336
172 236
105 348
149 81
270 297
261 264
315 359
269 383
365 43
222 40
85 258
244 134
70 345
346 30
101 283
398 352
60 179
52 395
356 108
379 321
305 85
351 185
52 263
365 250
325 37
233 367
185 198
336 71
148 223
341 224
234 278
97 393
349 264
385 326
252 159
42 345
394 387
271 138
183 168
66 397
397 349
94 98
243 392
345 4
182 72
259 148
40 402
352 337
228 48
97 95
295 335
23 357
359 57
252 149
91 295
255 286
207 131
350 108
61 361
382 212
280 217
104 164
149 95
262 22
151 293
90 56
39 392
324 243
302 48
257 375
306 382
338 34
400 85
152 27
375 383
242 148
252 163
22 303
372 308
229 214
385 154
194 60
119 68
60 323
18 345
337 315
136 281
339 136
125 148
286 95
24 381
91 309
132 19
328 153
348 23
315 158
346 88
330 286
57 362
397 232
12 190
125 105
273 138
111 228
122 64
238 74
168 375
370 235
266 220
22 329
264 384
278 260
350 198
337 306
401 40
17 354
119 84
199 137
91 263
321 247
258 223
257 266
146 243
335 235
318 207
126 220
134 265
302 166
311 233
157 23
197 279
314 25
246 182
340 64
365 372
280 63
222 395
125 284
373 127
361 188
73 110
350 265
69 95
200 176
131 201
24 402
60 107
41 352
190 403
67 41
175 349
333 264
86 70
251 280
179 133
114 287
1 126
258 52
29 100
291 277
360 90
336 104
48 173
278 167
228 7
382 99
200 160
323 223
378 355
158 250
355 166
327 184
168 232
6 271
391 92
300 103
375 51
396 234
344 330
87 208
64 163
227 337
85 375
48 266
8 162
398 261
257 138
378 329
73 154
143 73
316 6
162 383
74 350
103 301
386 303
405 154
95 63
148 75
335 365
136 44
195 338
271 247
91 316
302 350
107 167
301 12
101 161
15 76
346 172
177 223
52 358
336 207
132 96
65 223
49 232
367 289
336 22
127 321
129 136
192 129
377 195
348 196
119 259
130 206
206 139
234 111
210 280
87 277
68 20
95 73
147 35
206 360
20 174
131 21
195 269
168 129
277 33
266 260
35 267
382 260
16 97
333 47
296 381
23 121
157 2
378 269
44 260
293 51
383 187
339 296
346 19
131 287
67 163
375 210
303 233
316 341
244 139
294 113
127 356
349 237
125 306
344 160
180 392
244 387
59 267
324 306
253 156
29 92
381 400
295 322
89 242
271 39
100 266
195 170
280 87
325 227
267 146
104 275
329 220
241 96
119 148
180 321
302 318
270 230
258 191
21 284
313 158
154 179
243 286
270 275
3 29
73 43
186 106
327 47
5 110
210 359
10 5
52 31
349 359
101 270
359 306
326 179
46 402
303 367
96 280
223 313
396 181
106 305
379 102
213 295
238 246
322 91
44 326
398 349
164 233
349 183
20 278
313 107
398 104
300 98
141 234
20 206
222 77
80 359
237 344
349 162
390 320
147 198
100 308
287 81
208 193
308 164
76 38
299 373
76 218
183 293
342 138
324 42
218 49
248 292
27 378
200 93
35 3
189 352
78 142
33 182
298 42
306 104
159 282
71 222
313 321
98 346
231 326
42 343
384 95
86 397
20 244
366 180
368 89
396 384
402 389
318 123
384 52
94 303
223 131
284 18
329 387
161 132
152 278
239 136
210 392
336 70
23 331
26 46
251 40
69 140
204 116
284 42
317 321
155 218
206 148
33 228
259 98
228 237
398 242
378 13
378 165
265 311
108 295
78 190
349 372
40 390
59 200
382 373
29 343
73 185
187 294
315 234
365 223
172 305
84 210
299 118
235 329
189 262
170 333
123 33
224 313
12 244
380 237
297 57
271 90
179 306
79 254
266 343
237 258
12 387
372 121
327 44
213 334
110 64
113 245
98 166
391 378
24 291
230 381
356 124
3 25
381 193
155 204
398 20
333 384
382 214
160 94
252 403
251 2
110 22
54 368
395 23
275 338
91 208
222 67
298 356
24 119
310 25
392 9
257 329
147 166
40 231
188 124
127 296
197 31
159 136
193 27
252 150
178 126
193 252
263 62
112 326
39 236
222 111
210 385
2 43
138 355
41 218
46 23
379 296
135 255
108 292
397 60
315 245
31 377
64 224
278 220
137 178
252 2
388 78
126 302
37 323
23 88
71 216
343 21
395 48
16 346
223 324
385 35
228 113
55 104
367 377
242 211
47 97
359 23
226 266
279 163
139 25
202 105
303 335
189 2
52 122
168 143
370 53
351 155
80 182
151 189
138 232
320 18
338 138
166 213
197 70
310 183
378 344
76 152
292 213
14 268
357 29
128 309
279 129
202 93
103 107
398 237
245 119
138 79
216 325
114 209
114 112
299 322
38 385
164 200
97 113
57 246
245 329
155 91
257 228
326 386
258 31
91 68
300 238
217 393
262 107
92 287
262 119
241 376
224 25
396 336
255 251
31 100
268 251
319 346
23 211
332 232
318 217
322 383
370 93
266 214
284 318
223 46
267 402
389 252
320 113
165 224
220 303
119 25
121 401
114 331
368 200
210 335
209 336
372 306
255 368
166 328
366 317
368 236
64 91
130 119
40 148
218 402
47 245
346 163
210 16
24 97
311 110
300 200
296 332
276 326
401 326
191 131
163 92
336 233
114 142
206 280
343 287
335 137
40 195
56 12
152 284
241 95
56 230
379 335
306 97
263 341
313 182
129 64
119 104
56 208
76 301
236 180
404 140
179 333
177 108
195 24
233 354
274 190
143 308
243 189
362 175
122 199
196 327
352 44
403 370
148 47
122 276
37 204
278 401
326 396
280 161
95 275
365 140
168 46
121 3
237 280
13 177
289 213
267 228
27 60
283 311
379 303
320 68
206 149
365 70
243 210
367 386
71 16
111 364
87 283
90 166
40 71
313 104
381 254
306 110
136 51
239 241
46 141
315 29
180 353
134 170
218 134
381 384
233 250
339 86
22 375
212 233
257 200
266 279
262 95
364 295
380 194
393 84
36 201
395 269
12 66
329 179
125 47
55 286
172 19
170 145
3 203
76 245
120 60
85 404
118 310
313 329
91 321
99 336
7 132
118 146
81 208
158 210
360 275
101 251
33 2
190 155
4 398
368 173
107 156
197 36
219 283
283 319
83 8
197 80
121 131
119 79
375 29
32 273
145 110
332 325
236 76
260 167
345 365
16 227
301 75
65 148
176 218
301 374
218 245
213 356
170 385
193 159
178 347
350 251
202 45
84 375
386 73
67 299
78 347
304 57
129 390
39 336
88 120
381 262
209 352
360 205
59 233
125 336
232 352
70 169
279 259
95 189
18 80
387 273
228 242
129 375
252 361
317 8
244 141
111 105
47 328
208 74
57 326
257 271
65 199
81 292
247 91
113 48
200 107
107 297
153 306
333 364
283 120
169 307
384 251
339 54
40 255
146 20
58 122
136 295
60 48
163 258
127 380
157 46
237 331
339 378
243 267
343 79
137 236
25 259
132 198
123 44
60 327
299 85
316 75
361 313
244 62
132 212
212 40
318 200
70 402
244 285
152 60
104 151
371 181
218 381
354 318
189 183
85 172
108 380
95 244
225 199
251 132
245 40
337 308
346 131
90 141
402 195
211 125
214 275
81 211
251 220
125 355
61 115
225 19
113 324
324 315
38 220
43 234
117 165
24 61
194 225
159 41
349 70
335 338
210 97
403 255
51 205
405 256
167 200
33 134
387 332
14 242
27 284
305 122
197 375
108 211
69 312
189 326
378 213
224 236
70 277
163 90
45 267
382 52
382 372
372 369
261 87
38 172
7 54
387 126
304 74
118 192
103 136
372 299
297 12
192 310
321 318
32 341
257 276
401 131
