Vertices 446
291 "#443"
172 "#17"
141 "#155"
246 "#42"
63 "#44"
14 "#154"
348 "#37"
117 "#52"
406 "#306"
446 "#7"
59 "#278"
184 "#72"
287 "#432"
407 "#354"
254 "#116"
370 "#436"
25 "#25"
96 "#406"
388 "#16"
279 "#149"
275 "#158"
160 "#430"
118 "#357"
167 "#2"
190 "#395"
440 "#49"
208 "#61"
378 "#212"
1 "#307"
154 "#390"
170 "#107"
391 "#356"
99 "#297"
178 "#23"
389 "#312"
24 "#215"
127 "#163"
298 "#249"
234 "#199"
282 "#84"
304 "#59"
214 "#280"
257 "#57"
89 "#309"
359 "#139"
401 "#434"
187 "#178"
46 "#427"
149 "#332"
219 "#422"
47 "#141"
211 "#8"
390 "#74"
216 "#192"
107 "#36"
224 "#144"
166 "#131"
180 "#235"
295 "#266"
293 "#291"
335 "#200"
94 "#130"
146 "#121"
237 "#216"
273 "#126"
438 "#204"
384 "#299"
105 "#394"
175 "#290"
321 "#101"
9 "#123"
267 "#418"
300 "#63"
120 "#385"
307 "#445"
281 "#360"
305 "#171"
409 "#342"
366 "#136"
345 "#58"
405 "#392"
13 "#237"
248 "#160"
199 "#35"
144 "#377"
436 "#221"
53 "#177"
21 "#391"
12 "#326"
207 "#29"
251 "#208"
98 "#11"
23 "#184"
260 "#333"
108 "#272"
106 "#292"
266 "#285"
341 "#56"
296 "#19"
6 "#399"
353 "#244"
403 "#310"
383 "#317"
256 "#441"
380 "#353"
16 "#370"
354 "#246"
212 "#270"
437 "#113"
131 "#241"
60 "#219"
418 "#214"
43 "#133"
84 "#165"
374 "#364"
76 "#132"
411 "#421"
240 "#258"
362 "#166"
288 "#439"
185 "#301"
402 "#5"
114 "#366"
342 "#384"
263 "#374"
3 "#182"
330 "#22"
22 "#68"
163 "#262"
121 "#320"
48 "#213"
408 "#3"
135 "#362"
40 "#10"
73 "#358"
379 "#153"
188 "#226"
130 "#381"
158 "#41"
44 "#433"
37 "#426"
358 "#46"
394 "#202"
165 "#419"
368 "#51"
196 "#210"
102 "#50"
410 "#224"
162 "#367"
364 "#286"
312 "#331"
399 "#62"
316 "#156"
169 "#416"
213 "#254"
174 "#127"
371 "#409"
202 "#38"
87 "#122"
352 "#379"
88 "#408"
5 "#194"
173 "#275"
350 "#98"
414 "#157"
128 "#55"
103 "#263"
269 "#289"
347 "#167"
97 "#415"
277 "#261"
194 "#197"
375 "#287"
176 "#142"
400 "#337"
337 "#402"
35 "#335"
404 "#134"
223 "#0"
280 "#411"
442 "#97"
74 "#180"
20 "#359"
231 "#284"
424 "#300"
100 "#352"
152 "#323"
38 "#185"
317 "#69"
11 "#271"
186 "#296"
417 "#193"
4 "#162"
119 "#405"
261 "#6"
245 "#45"
392 "#303"
311 "#209"
308 "#250"
111 "#135"
365 "#248"
218 "#13"
396 "#428"
42 "#90"
278 "#401"
367 "#435"
434 "#319"
432 "#53"
315 "#207"
233 "#318"
45 "#387"
299 "#245"
27 "#393"
159 "#372"
385 "#112"
420 "#389"
30 "#96"
69 "#412"
250 "#150"
161 "#316"
143 "#293"
78 "#173"
153 "#120"
443 "#114"
377 "#223"
148 "#386"
373 "#253"
109 "#424"
205 "#108"
241 "#105"
56 "#70"
36 "#350"
309 "#9"
147 "#414"
164 "#188"
419 "#206"
255 "#80"
195 "#76"
72 "#211"
182 "#232"
101 "#255"
243 "#274"
133 "#417"
306 "#383"
113 "#111"
381 "#313"
157 "#375"
230 "#181"
51 "#21"
215 "#380"
156 "#66"
276 "#26"
270 "#238"
115 "#179"
351 "#102"
64 "#86"
93 "#277"
363 "#218"
226 "#28"
85 "#315"
2 "#18"
435 "#233"
427 "#288"
382 "#40"
28 "#308"
31 "#170"
346 "#175"
62 "#87"
361 "#73"
79 "#205"
444 "#220"
395 "#283"
19 "#148"
116 "#60"
49 "#341"
220 "#240"
376 "#54"
7 "#410"
18 "#343"
369 "#189"
292 "#159"
15 "#373"
349 "#169"
65 "#349"
150 "#242"
26 "#344"
283 "#269"
179 "#298"
433 "#429"
329 "#128"
242 "#440"
340 "#257"
272 "#99"
8 "#119"
191 "#321"
83 "#137"
339 "#225"
10 "#314"
252 "#334"
210 "#34"
181 "#243"
221 "#75"
68 "#103"
303 "#71"
136 "#186"
313 "#227"
264 "#396"
326 "#95"
393 "#151"
80 "#222"
192 "#231"
344 "#106"
258 "#339"
320 "#145"
343 "#164"
331 "#64"
268 "#361"
139 "#304"
66 "#33"
95 "#444"
168 "#236"
332 "#239"
189 "#27"
52 "#82"
426 "#336"
155 "#259"
29 "#176"
228 "#347"
285 "#363"
17 "#32"
301 "#117"
197 "#338"
61 "#348"
439 "#190"
259 "#378"
90 "#295"
398 "#138"
294 "#79"
413 "#228"
54 "#273"
126 "#201"
441 "#407"
123 "#267"
334 "#118"
104 "#31"
323 "#195"
227 "#382"
124 "#146"
284 "#437"
290 "#89"
33 "#279"
229 "#355"
357 "#423"
355 "#325"
429 "#217"
193 "#345"
244 "#438"
239 "#281"
86 "#24"
77 "#203"
171 "#371"
70 "#92"
134 "#20"
327 "#183"
67 "#268"
324 "#196"
217 "#100"
232 "#172"
129 "#1"
445 "#91"
253 "#442"
39 "#168"
333 "#110"
430 "#81"
289 "#251"
262 "#305"
314 "#234"
325 "#294"
112 "#276"
204 "#256"
421 "#376"
271 "#431"
57 "#365"
356 "#413"
415 "#311"
372 "#404"
422 "#368"
137 "#230"
247 "#388"
138 "#94"
55 "#85"
75 "#397"
336 "#88"
235 "#369"
203 "#198"
319 "#115"
297 "#191"
302 "#324"
50 "#48"
132 "#351"
328 "#14"
310 "#124"
201 "#143"
386 "#12"
274 "#125"
423 "#93"
249 "#398"
225 "#187"
286 "#65"
236 "#83"
82 "#30"
222 "#327"
238 "#302"
41 "#39"
151 "#104"
71 "#129"
140 "#265"
200 "#78"
428 "#67"
360 "#252"
322 "#140"
387 "#147"
265 "#15"
206 "#329"
142 "#340"
58 "#77"
338 "#346"
32 "#400"
125 "#229"
110 "#174"
318 "#43"
177 "#4"
397 "#264"
412 "#328"
81 "#47"
416 "#322"
145 "#152"
425 "#109"
34 "#403"
183 "#420"
122 "#260"
209 "#282"
431 "#425"
92 "#330"
198 "#161"
91 "#247"
Edges
226 129
314 229
60 80
193 260
199 184
371 183
325 224
96 251
296 172
157 105
338 24
374 124
398 212
444 142
101 35
347 360
444 188
130 235
316 277
209 190
131 126
315 376
304 446
207 388
213 80
251 60
23 29
297 181
381 130
363 251
360 243
206 191
414 128
232 136
372 140
260 7
274 378
181 137
445 336
379 336
20 380
224 48
233 302
411 263
53 110
331 300
45 256
410 131
51 78
185 260
161 183
197 409
75 396
410 209
338 130
433 401
47 393
422 352
244 44
431 400
212 204
131 99
254 151
380 397
427 175
40 200
408 115
406 298
97 242
236 63
366 19
34 67
216 292
73 407
271 371
332 153
204 205
15 32
48 332
31 131
21 148
196 11
397 289
197 20
66 128
384 123
305 350
403 412
213 67
54 270
187 232
261 296
270 249
32 171
422 48
95 54
287 75
179 196
435 327
249 427
97 148
243 165
434 89
288 242
302 1
360 414
429 391
439 335
267 253
334 182
75 308
92 421
8 168
248 412
346 136
403 262
418 363
196 422
433 363
381 355
182 93
38 305
332 220
152 126
310 203
288 147
34 342
327 383
97 121
247 398
131 314
135 193
135 417
314 270
407 252
206 28
203 363
188 48
358 376
33 214
280 411
381 132
252 57
136 325
269 175
243 61
441 431
46 371
413 45
321 188
335 77
337 297
327 115
99 325
121 149
369 164
11 270
253 219
28 21
270 342
289 377
186 280
74 89
199 178
312 269
14 413
254 11
149 289
123 425
182 312
150 31
446 255
345 223
3 29
391 161
194 332
193 374
13 212
362 355
314 389
248 131
24 316
9 443
235 88
251 362
148 11
356 183
20 21
279 176
193 197
285 35
165 271
251 419
332 39
65 415
84 155
141 391
209 375
365 384
328 210
44 397
83 398
23 289
16 378
209 378
65 214
220 237
217 363
85 204
339 94
400 96
186 427
411 216
86 432
222 149
380 285
198 290
359 355
170 333
281 197
307 431
424 27
82 350
90 424
235 421
37 169
31 38
302 262
180 179
54 368
353 92
121 112
127 24
53 78
405 203
26 305
352 431
77 322
290 428
242 356
295 283
121 10
387 3
163 319
29 78
325 79
371 7
357 256
190 263
219 69
242 235
394 91
145 101
258 323
91 266
444 8
438 91
281 65
387 51
344 443
344 68
439 373
65 352
442 14
203 324
152 89
242 7
173 37
93 12
288 411
34 253
48 429
364 93
280 18
277 213
430 42
1 260
337 99
412 10
48 15
314 135
65 159
51 427
248 141
46 291
415 392
381 188
191 152
306 247
215 298
266 209
31 305
148 235
20 125
185 400
427 171
211 86
169 112
20 252
127 316
357 169
169 95
65 72
154 227
106 277
299 131
194 310
100 60
343 90
121 306
127 198
371 88
47 201
141 372
51 379
400 36
47 72
89 122
422 15
403 183
164 376
328 202
36 65
196 60
356 46
96 340
18 196
171 227
112 59
252 139
348 362
135 262
413 10
260 121
252 100
377 238
139 201
292 89
262 412
23 420
338 118
152 204
118 215
219 21
204 295
147 267
85 31
378 436
362 85
77 126
182 135
79 229
168 298
18 139
40 319
176 82
436 142
209 243
108 155
179 395
80 286
141 127
215 396
119 384
365 176
27 415
313 332
60 322
398 359
338 235
30 68
251 272
2 226
372 15
93 131
329 3
13 173
378 133
254 212
96 161
31 15
96 118
244 15
87 53
422 365
179 109
406 435
400 7
283 360
325 176
160 411
247 75
239 47
185 85
381 357
260 444
378 176
125 298
425 230
391 28
383 10
363 23
334 24
383 106
259 61
111 404
121 233
332 146
48 311
377 429
243 183
408 203
34 183
274 314
248 292
434 415
224 181
75 157
420 405
171 131
281 142
411 371
47 218
397 185
239 231
252 228
381 161
39 155
431 169
141 94
298 214
69 7
133 258
316 51
378 215
328 207
101 201
143 209
140 264
58 282
150 23
248 375
316 283
79 323
39 371
118 180
377 356
135 32
110 63
419 420
135 131
342 227
283 384
320 302
420 171
422 332
74 217
137 322
132 355
36 103
171 352
37 112
16 227
406 256
88 370
12 38
135 114
75 6
145 254
419 315
378 163
422 357
445 202
292 444
319 274
73 18
250 33
381 384
119 349
215 422
327 392
232 181
244 127
324 270
19 250
294 254
267 183
405 422
114 73
271 179
106 108
148 171
232 322
419 237
85 149
262 355
305 435
92 149
186 71
429 181
339 377
236 382
66 442
377 72
69 247
20 46
21 416
173 384
21 247
363 135
394 5
3 305
23 61
429 53
295 397
383 49
339 283
250 426
379 67
180 96
326 200
406 217
352 157
188 181
122 155
42 341
7 231
338 243
407 132
51 140
373 380
185 305
213 407
135 110
28 161
388 410
301 67
3 279
168 181
141 292
343 362
91 436
287 410
24 143
15 73
322 358
197 206
32 433
155 15
237 272
230 13
253 292
403 191
103 196
19 47
1 89
446 156
93 59
340 441
177 174
171 372
383 16
7 307
141 177
227 130
123 126
72 259
298 175
9 273
100 118
315 311
334 139
185 27
193 38
126 5
371 114
254 93
110 444
171 273
206 155
305 312
159 278
346 93
150 375
354 278
131 121
92 260
413 90
131 137
118 416
264 165
445 189
237 363
416 139
216 192
191 212
73 369
39 95
175 181
237 139
1 415
438 203
193 395
278 59
235 278
315 93
239 114
40 336
175 173
267 193
342 38
396 392
100 73
290 251
284 240
182 91
433 88
124 168
258 288
72 339
441 238
289 295
314 145
38 136
431 370
45 140
163 103
49 120
61 258
108 213
189 320
235 372
256 367
430 261
348 304
219 243
257 418
127 360
72 190
222 137
78 217
333 151
244 97
123 163
387 434
383 212
422 252
67 65
71 359
311 73
313 287
235 27
247 215
5 379
283 427
237 12
365 13
357 242
73 377
203 280
439 324
268 114
434 187
162 26
187 220
374 118
279 48
196 378
235 154
159 421
273 85
355 412
97 6
324 417
441 121
298 414
49 219
397 369
97 355
118 35
283 231
240 106
386 66
146 106
352 263
231 259
325 238
147 244
114 118
281 165
377 89
143 377
391 400
45 426
254 207
180 1
249 147
91 353
315 205
163 243
34 288
11 391
154 427
258 285
393 176
418 204
1 381
253 431
322 124
273 93
21 127
131 332
297 27
279 47
249 3
27 356
66 309
132 197
168 5
419 77
314 149
357 324
104 52
122 425
101 340
209 347
101 378
332 435
179 260
214 384
297 322
31 20
389 299
201 143
231 209
283 424
74 395
6 214
389 48
25 432
185 254
100 381
89 340
173 364
311 316
10 404
149 15
105 391
168 420
421 439
421 99
302 293
283 179
259 6
24 353
397 140
347 217
101 295
429 339
43 329
325 61
425 360
160 396
49 418
49 57
54 295
16 215
32 325
351 217
426 193
213 54
80 124
377 434
187 414
372 197
303 390
406 233
104 210
120 422
135 7
74 5
287 27
176 192
65 355
179 279
349 403
336 290
170 359
327 230
444 180
360 373
292 374
43 272
8 319
288 69
163 20
173 273
148 101
123 78
242 183
181 205
315 427
288 392
357 421
192 194
201 224
397 228
131 353
103 140
75 154
271 267
444 27
407 18
360 21
407 419
80 377
149 141
352 278
337 45
91 384
159 141
212 240
270 235
357 263
53 308
205 131
29 209
233 59
282 430
115 238
216 297
75 424
120 157
267 367
417 422
409 229
96 291
154 11
64 385
246 279
415 159
340 397
205 270
29 136
25 201
183 95
443 425
163 257
349 412
213 257
213 396
234 76
342 352
429 119
30 217
112 65
59 147
30 189
100 67
185 248
398 206
409 311
29 31
431 287
435 71
229 49
441 237
228 281
164 234
23 236
117 226
206 89
395 352
93 281
352 148
383 35
443 331
89 161
120 73
229 88
254 318
183 411
142 135
308 101
256 130
160 88
419 59
238 173
409 20
258 100
102 385
313 100
270 125
258 18
29 346
93 293
273 436
341 167
50 199
278 249
157 227
189 71
290 9
250 175
360 438
269 422
334 8
38 208
268 212
229 54
84 395
7 89
403 89
122 262
201 384
70 42
433 219
15 148
130 112
13 137
130 75
220 330
251 339
227 15
345 279
253 392
72 378
154 144
39 378
235 342
251 166
175 410
398 250
48 168
233 395
354 15
340 214
105 209
307 258
421 190
195 326
235 381
169 125
78 35
104 82
60 188
62 195
80 339
32 21
152 262
14 347
426 33
342 409
247 249
396 325
306 206
90 384
253 114
406 203
378 254
431 280
358 366
72 196
244 72
288 287
191 159
371 262
110 291
176 439
12 92
171 15
3 292
164 315
269 254
416 403
444 3
169 119
267 260
364 424
33 400
316 84
79 121
110 365
395 175
209 193
427 96
439 424
401 279
334 270
325 71
49 228
57 228
185 214
279 92
251 231
364 268
93 3
13 238
312 11
100 285
89 357
389 12
363 381
435 409
227 306
270 209
48 142
29 58
374 228
444 109
247 263
213 163
231 427
214 378
173 103
91 74
206 118
388 292
326 110
352 249
280 307
372 422
73 229
154 264
376 115
377 29
375 33
148 80
168 356
60 308
271 133
135 18
340 169
424 222
101 403
302 424
187 250
305 412
417 164
346 78
378 179
57 360
249 237
395 191
69 307
369 324
423 62
64 42
359 436
59 305
11 395
205 230
320 349
133 119
242 67
112 230
420 179
120 188
341 369
375 424
83 404
6 247
186 266
16 421
171 240
120 298
99 269
415 403
108 99
234 203
38 163
160 271
356 291
421 299
434 410
412 312
61 109
127 368
182 188
378 23
227 277
415 168
338 262
179 268
429 291
59 89
137 395
331 117
223 218
396 109
5 286
100 391
225 238
44 39
57 258
305 49
154 6
130 422
335 194
232 374
97 162
37 135
11 353
34 175
254 5
247 171
369 13
137 259
320 440
23 234
75 253
6 190
161 403
171 36
2 129
88 284
322 395
160 133
163 278
395 360
24 235
172 58
325 233
253 356
389 13
88 411
49 142
155 308
120 352
383 260
215 405
312 89
76 326
159 75
115 31
362 406
90 186
122 46
419 416
30 341
279 161
409 59
99 182
289 244
332 180
383 27
293 384
139 85
283 362
176 309
357 125
320 363
176 224
152 237
285 281
108 373
128 81
306 54
157 21
92 191
84 181
38 54
270 236
407 75
183 307
406 383
27 249
60 130
15 130
156 210
307 136
289 413
288 37
401 295
31 417
222 412
209 61
279 39
191 262
305 122
364 209
404 201
72 101
147 57
229 144
260 54
414 343
235 220
411 287
125 229
13 381
270 299
129 210
400 20
396 411
99 15
269 381
50 226
72 60
145 25
74 322
108 367
83 301
51 93
46 85
163 308
270 123
357 6
26 409
134 128
182 405
397 191
429 334
140 123
7 431
295 163
69 97
289 231
157 206
240 91
216 323
141 325
23 125
302 434
280 433
202 174
372 227
80 127
379 320
236 425
279 28
35 61
137 353
182 124
417 438
78 87
140 91
155 45
340 284
269 60
214 229
325 334
391 284
173 259
337 144
228 100
330 187
305 18
65 165
280 219
431 325
80 316
266 297
225 316
169 244
99 100
13 99
217 43
133 88
159 342
28 416
292 155
284 427
222 61
179 141
400 157
133 139
272 351
13 89
120 27
362 286
121 413
120 372
278 269
179 59
180 272
323 344
69 356
136 370
444 83
407 374
311 314
413 424
103 238
134 217
394 421
299 115
131 420
183 244
249 34
410 145
139 312
353 113
210 402
377 13
149 119
190 15
248 198
281 45
39 344
362 413
213 285
424 249
28 97
243 308
435 326
5 322
84 101
221 335
224 251
317 275
438 13
302 383
403 54
233 48
440 210
88 367
146 312
70 83
208 82
208 17
291 242
427 371
338 252
290 48
413 220
33 418
39 349
110 390
11 106
148 163
190 144
268 400
426 320
271 396
367 264
438 53
270 137
75 292
418 89
363 148
126 306
397 103
36 118
13 73
14 87
124 19
93 124
99 188
380 281
112 384
89 163
140 130
232 230
232 194
203 151
46 92
142 406
346 242
375 280
13 347
65 380
410 371
125 260
434 11
189 316
364 239
403 426
322 31
438 426
311 166
295 71
270 283
228 88
219 356
95 253
414 14
301 56
352 216
206 1
220 91
390 255
212 220
324 193
342 405
154 248
262 365
176 59
95 292
266 148
99 267
12 415
297 4
63 14
398 153
354 365
125 391
417 323
84 273
92 234
155 67
12 260
96 182
151 204
213 313
60 404
211 127
329 111
168 180
337 27
325 214
344 369
183 97
281 434
357 288
180 243
355 10
354 235
103 420
306 391
234 233
176 125
258 311
136 207
44 281
175 16
445 217
373 213
404 140
248 215
381 121
326 56
23 299
438 279
60 77
34 353
288 154
110 229
143 395
271 411
131 312
243 313
133 96
144 15
267 410
35 204
14 319
377 57
331 388
370 397
127 201
295 411
337 159
313 109
203 417
97 441
168 84
314 192
373 53
10 419
263 15
305 115
66 124
389 16
159 227
148 154
48 393
73 354
299 11
139 214
187 338
180 372
83 390
267 119
50 156
121 392
392 85
112 337
83 42
411 5
439 31
144 424
185 228
431 183
422 396
240 312
180 3
39 151
268 176
281 162
214 395
425 362
191 305
393 3
10 320
168 125
441 433
429 165
213 18
440 47
80 21
106 59
429 183
363 372
156 98
439 234
149 191
331 138
1 243
197 35
241 345
238 426
166 364
252 391
413 354
268 130
367 411
228 229
44 96
153 240
171 215
171 235
16 67
7 169
28 323
427 13
359 379
381 369
148 414
17 199
99 33
224 186
108 284
96 242
157 148
352 214
396 147
337 215
151 289
143 61
256 33
232 293
278 292
179 65
63 210
162 268
37 381
270 106
368 176
141 343
204 123
10 340
329 136
47 293
126 225
173 131
302 416
203 317
48 426
220 374
337 135
161 149
251 24
414 424
32 346
44 238
69 391
396 433
384 391
138 305
272 316
284 244
133 85
254 25
214 136
173 293
370 389
258 135
406 292
24 109
370 433
222 89
405 176
149 262
331 104
434 12
441 161
231 26
32 130
216 414
259 27
109 291
143 416
135 284
195 303
379 86
269 373
442 292
36 108
277 266
312 355
306 259
80 24
237 414
28 240
374 229
187 391
123 391
293 90
251 90
51 141
39 236
429 150
338 182
185 173
206 121
186 263
45 28
157 405
157 354
443 113
243 182
412 6
403 429
438 310
264 444
94 379
418 217
23 31
372 147
45 427
51 107
331 41
156 331
279 170
134 98
426 268
198 246
324 310
291 244
412 325
81 156
15 277
106 424
415 149
292 231
401 372
440 66
375 394
115 297
394 323
370 219
345 201
71 329
158 9
267 118
380 407
148 114
441 119
180 13
378 247
414 242
269 375
198 230
292 349
174 19
115 255
352 405
368 125
365 373
354 12
277 23
276 304
108 420
211 42
264 80
135 285
54 426
283 425
49 26
340 404
244 74
96 237
258 400
124 194
131 413
16 171
263 157
9 319
280 173
406 355
417 260
110 54
240 424
439 33
65 248
140 277
290 318
267 291
225 395
259 144
159 325
288 271
374 100
106 175
191 21
320 282
205 404
162 69
438 324
39 51
272 379
435 429
54 197
289 150
280 149
205 167
372 34
433 97
330 72
77 23
139 406
419 349
324 429
407 101
106 161
210 71
173 125
256 360
353 163
109 264
101 232
232 143
95 125
387 54
382 22
137 75
291 270
195 210
72 380
177 203
347 225
237 227
217 437
366 81
45 157
220 182
320 224
19 273
31 324
90 266
257 201
107 318
336 430
67 352
384 139
36 228
251 29
225 297
22 184
33 143
267 160
69 427
137 283
60 370
424 36
417 194
282 113
119 148
154 147
439 225
8 238
404 409
95 287
437 319
312 258
208 60
262 161
206 392
400 142
267 256
6 169
397 299
224 281
165 147
106 77
406 416
266 175
198 272
445 70
308 11
115 237
316 4
374 20
250 198
362 198
292 105
234 350
420 130
171 249
100 65
393 379
175 347
255 71
25 440
188 112
111 366
299 240
267 120
109 424
419 127
269 319
129 153
105 215
283 365
152 392
88 283
185 162
93 185
264 21
413 217
246 201
161 206
110 19
121 89
239 49
58 77
137 95
400 389
35 28
302 152
316 198
103 28
26 101
60 253
122 284
134 399
367 292
432 386
101 59
35 229
96 307
224 197
411 44
180 364
122 240
161 389
143 364
438 3
110 88
231 185
87 436
291 324
439 427
118 126
59 74
73 157
183 370
139 193
401 105
390 124
398 329
284 91
273 233
372 159
73 426
340 153
372 84
325 424
24 410
77 234
193 338
238 209
434 389
85 45
216 203
374 153
375 171
188 91
421 215
284 46
428 156
136 19
214 118
341 217
140 143
226 379
360 179
384 188
76 208
429 299
429 262
68 153
435 365
209 26
340 380
289 340
400 100
228 380
401 6
258 161
334 386
42 417
73 136
411 196
413 192
285 179
240 155
353 413
289 235
33 201
444 368
395 291
251 69
329 38
325 228
112 298
381 416
405 438
273 138
268 61
229 121
363 99
126 279
386 141
251 352
7 219
253 268
299 342
292 414
69 271
376 31
222 355
15 243
248 190
376 321
38 73
72 7
232 299
168 250
6 269
372 297
441 263
188 363
378 27
251 401
139 97
350 23
320 290
155 148
371 370
432 116
280 396
270 131
436 196
285 394
162 232
289 443
411 191
183 253
374 61
73 299
38 72
76 445
407 45
378 363
263 185
147 97
143 214
231 225
327 23
217 346
29 173
198 91
231 120
163 288
33 38
94 445
165 242
55 64
75 131
351 341
171 106
333 290
410 196
362 275
411 162
67 247
354 422
281 73
240 295
343 412
302 12
26 91
181 391
80 324
54 340
263 204
127 185
394 168
18 193
33 269
314 332
142 374
333 19
69 93
236 131
278 136
260 191
35 426
91 166
277 283
3 248
84 52
377 157
199 117
242 370
142 232
198 377
244 367
73 36
296 177
338 100
181 435
88 256
80 29
278 120
392 75
334 153
425 270
214 426
411 244
299 278
143 354
191 161
196 140
229 90
305 363
168 192
222 139
401 244
280 242
380 365
149 389
109 183
239 190
348 399
383 299
193 277
110 29
262 91
38 380
431 109
182 214
282 200
392 171
206 244
427 49
402 425
26 228
277 278
406 152
209 306
394 324
251 372
112 90
141 194
288 312
48 157
257 315
337 165
417 357
80 97
8 326
56 345
6 21
127 143
37 365
291 88
254 225
243 85
101 379
229 196
315 422
339 23
72 237
159 31
258 398
56 275
249 372
12 244
259 16
192 232
357 10
244 371
176 48
339 311
167 232
242 21
349 201
21 227
381 173
161 434
391 209
409 186
369 60
355 403
356 295
240 219
10 435
406 238
260 234
36 268
109 135
277 11
262 416
152 308
372 144
249 141
244 75
162 279
33 397
325 217
148 38
13 34
136 228
1 372
237 311
381 118
262 260
271 33
53 208
392 389
36 438
214 175
15 16
301 334
427 293
159 149
438 444
14 363
145 320
220 299
150 168
247 89
209 273
321 377
305 230
109 401
246 442
387 36
279 325
28 415
80 239
231 434
161 248
157 18
444 60
123 340
225 269
226 376
301 310
325 429
194 225
6 215
108 1
206 176
102 158
12 292
27 148
274 334
141 155
281 1
280 302
130 74
74 127
371 168
270 171
131 326
434 254
247 284
256 325
352 154
5 439
242 112
363 322
444 262
84 367
259 263
168 213
243 54
235 227
118 162
119 295
312 222
201 190
76 71
118 364
421 253
102 51
36 182
95 367
37 355
419 19
253 367
123 74
125 139
184 382
180 413
416 35
414 362
188 27
124 13
33 140
398 166
384 427
187 34
395 149
150 435
406 144
10 196
147 373
233 124
138 187
419 28
7 147
262 160
131 239
375 238
363 24
171 154
117 414
206 312
281 355
153 93
347 319
389 395
85 13
350 321
131 229
324 180
337 407
420 137
12 416
133 97
400 186
152 179
215 342
420 422
173 213
243 79
436 410
7 256
322 197
389 363
212 314
218 279
11 67
1 233
295 37
446 60
38 14
324 408
186 389
235 422
387 281
119 244
74 366
372 322
281 268
278 263
444 72
131 125
145 250
424 215
39 28
346 439
362 292
279 404
76 136
159 231
393 19
45 259
258 252
137 46
374 197
58 326
54 397
385 113
111 286
166 304
326 378
370 396
39 78
182 354
12 112
35 162
152 10
274 254
407 197
403 10
239 112
322 337
392 187
271 214
371 182
189 24
3 311
191 412
100 197
38 8
324 297
251 213
410 315
54 212
20 142
288 295
432 348
330 318
436 291
160 214
268 404
138 71
306 441
69 28
392 416
22 98
332 431
278 45
123 229
438 439
288 396
317 366
381 109
239 136
349 294
131 149
264 297
247 422
31 94
236 210
347 213
426 100
108 29
248 4
250 224
380 252
38 71
32 306
69 441
257 279
312 147
264 436
422 59
238 38
56 296
389 188
190 337
284 67
359 225
71 418
250 386
127 275
181 225
137 48
320 71
302 193
402 115
203 164
272 220
267 342
264 421
196 48
364 384
441 365
398 146
5 281
78 146
433 371
225 54
258 380
88 280
131 182
74 115
325 337
100 240
182 187
47 214
392 161
65 13
15 75
400 232
273 301
338 320
71 33
417 278
203 359
412 159
142 155
392 229
34 91
407 367
278 16
13 313
127 310
264 263
203 79
336 382
372 193
123 143
164 324
283 89
237 13
383 11
274 111
291 280
103 155
314 180
12 108
264 337
435 299
433 132
88 420
369 250
302 139
379 322
124 220
436 278
196 32
353 13
306 215
240 259
20 434
308 122
272 326
354 13
314 91
39 178
239 293
409 258
20 284
349 421
420 299
95 411
44 371
69 24
1 10
169 307
105 405
106 311
266 106
283 401
236 292
186 347
94 23
209 384
146 310
270 387
166 366
363 214
258 229
125 267
231 397
427 266
201 31
436 220
63 205
229 280
354 239
422 154
324 221
443 8
398 47
240 143
166 43
195 386
23 243
334 252
277 354
137 125
59 279
392 109
180 125
326 138
321 141
419 260
327 31
26 397
348 333
141 251
113 170
35 244
150 137
89 188
374 258
424 395
149 130
6 337
164 225
264 28
266 250
364 145
224 47
18 118
59 375
360 434
312 23
296 328
193 49
358 388
139 121
210 138
337 269
239 119
389 28
37 123
71 182
289 204
284 165
355 233
16 193
35 400
30 47
204 279
333 225
213 283
387 176
392 26
108 130
337 372
33 403
186 179
238 85
410 306
415 126
273 339
385 437
330 2
423 70
91 319
423 445
260 235
353 220
258 65
381 233
249 307
327 76
378 395
265 217
150 192
157 175
88 147
237 196
163 338
315 191
72 24
114 48
314 137
277 281
263 45
18 12
419 230
216 238
115 216
268 197
159 395
5 3
231 36
36 201
248 14
190 105
204 397
338 434
334 87
306 342
301 354
53 40
302 89
221 136
325 372
416 359
308 346
375 23
21 420
84 398
210 326
281 72
78 40
438 168
100 231
187 30
25 326
220 14
367 372
280 371
13 182
97 371
164 238
397 84
232 305
397 240
301 414
128 348
405 209
110 263
233 61
137 192
280 103
160 256
73 238
220 306
374 15
114 49
312 108
418 72
248 234
398 363
244 405
205 241
364 188
145 341
135 281
266 384
73 35
165 427
444 48
415 324
354 181
168 391
108 335
313 14
216 155
181 159
396 313
378 444
122 232
443 79
31 346
144 105
418 74
154 20
351 223
179 35
125 88
123 95
314 335
21 194
396 163
119 193
222 377
374 252
380 378
234 83
39 45
79 280
329 359
79 157
142 136
229 162
9 87
16 405
103 54
337 251
59 396
358 153
115 389
295 147
386 188
181 150
283 212
261 104
253 307
233 75
80 363
42 336
181 413
206 239
169 219
269 343
404 127
38 194
233 220
148 337
275 203
135 26
85 152
171 252
63 349
171 203
352 206
373 204
237 89
421 229
270 313
405 171
58 8
116 40
333 344
88 271
173 149
409 85
285 441
71 369
217 350
293 395
235 39
244 84
255 443
46 417
292 298
292 289
204 176
212 325
324 412
283 108
118 65
28 412
255 145
262 126
259 299
124 397
127 265
28 360
400 436
101 125
291 284
238 371
445 62
36 196
133 287
363 68
362 150
15 21
427 123
241 344
110 157
90 412
85 269
11 257
440 304
202 408
322 32
227 259
367 396
373 338
49 141
289 220
178 107
392 280
93 33
294 94
85 396
175 26
49 197
365 71
215 235
425 241
209 377
219 427
137 305
270 122
322 19
222 302
422 190
320 143
19 387
61 75
258 391
152 219
1 146
237 164
197 109
437 360
84 245
128 64
441 209
431 371
362 314
352 27
124 71
119 185
54 222
268 422
118 26
230 176
88 28
92 152
44 24
360 366
103 154
176 90
334 185
9 136
378 80
64 245
390 223
299 181
373 96
353 123
327 174
91 192
360 186
395 375
233 240
204 360
243 396
366 436
6 160
417 197
306 39
133 312
419 92
307 284
106 364
349 139
260 171
7 237
228 258
138 217
155 54
185 114
293 360
353 8
434 78
418 60
149 383
39 397
163 283
260 415
364 297
266 179
269 212
99 11
151 63
125 34
101 106
106 49
257 40
96 127
59 26
418 387
89 192
412 149
325 258
190 244
357 13
101 414
315 222
91 406
337 1
376 201
74 103
280 253
195 437
36 409
240 163
171 37
189 94
426 60
5 414
412 139
246 304
342 106
108 364
212 131
356 287
214 269
101 373
237 410
217 89
124 23
92 277
287 280
363 115
415 411
308 28
36 197
125 307
23 157
135 133
346 407
438 230
162 285
23 186
369 221
194 59
115 85
318 74
88 357
285 374
360 279
39 285
165 183
435 103
158 276
280 279
133 381
47 320
181 192
169 256
285 232
118 23
439 46
377 24
112 240
429 251
125 4
295 10
291 365
174 64
368 101
21 263
244 109
278 190
62 56
209 59
421 355
238 140
232 36
182 295
244 431
368 394
360 404
401 165
196 213
115 79
424 209
378 419
389 305
356 238
292 183
79 283
112 135
412 397
323 5
427 162
86 201
69 377
299 124
61 142
97 137
88 244
53 8
113 344
25 223
249 130
104 217
18 36
268 122
270 417
8 5
119 209
258 49
78 305
407 269
437 241
96 249
433 165
413 141
7 277
206 419
164 79
289 308
442 30
16 320
416 101
438 365
85 135
31 180
371 165
140 213
190 394
213 190
33 373
342 73
433 297
158 317
192 393
201 444
226 286
144 249
126 438
325 112
57 299
9 51
174 198
48 130
237 270
369 157
362 84
354 229
384 239
3 92
129 221
1 191
263 39
418 122
287 244
198 397
400 302
438 381
166 93
103 295
397 110
80 270
413 314
1 343
434 264
401 367
124 224
332 209
124 222
317 79
231 99
243 381
111 174
60 378
37 216
59 403
364 185
293 106
226 388
1 322
15 228
357 260
169 299
242 307
60 373
389 406
403 434
28 92
63 377
319 397
429 264
207 223
358 320
259 381
225 115
271 401
360 155
275 350
52 445
163 192
347 329
131 354
443 385
65 227
44 243
262 201
372 299
75 215
219 325
257 110
381 135
314 125
242 154
157 31
188 237
185 112
288 307
69 179
60 112
111 43
244 263
417 51
236 296
165 419
353 247
176 277
395 374
362 434
114 57
95 441
127 349
431 133
181 292
104 442
373 254
149 342
173 302
386 110
103 389
162 61
3 369
111 333
130 352
316 343
123 101
441 396
334 25
307 46
179 368
369 126
291 60
309 14
349 297
162 100
383 75
263 235
352 337
235 147
325 239
234 141
214 375
33 175
433 307
152 91
181 7
237 429
296 442
412 392
17 330
238 397
136 74
336 341
278 27
407 3
351 326
182 204
405 372
266 164
148 120
155 404
34 171
209 314
130 171
368 230
311 312
203 168
179 173
90 59
16 148
20 224
24 207
204 283
221 234
11 375
441 219
285 268
384 179
406 67
259 357
431 291
354 270
444 315
32 264
142 10
135 57
424 384
176 137
340 1
277 297
120 135
323 363
84 26
224 161
185 349
105 287
306 364
398 101
290 70
368 373
173 352
30 382
98 232
222 99
260 31
359 222
302 28
299 114
380 49
173 250
299 125
115 311
229 380
187 371
139 101
67 314
426 212
258 73
202 362
114 187
124 378
252 72
19 181
149 405
355 214
433 37
221 361
407 277
285 365
67 340
67 182
65 431
175 371
306 372
54 313
85 100
110 376
111 359
140 4
176 375
371 283
33 118
297 164
401 219
110 23
257 77
48 339
121 183
406 392
144 381
8 111
37 441
264 105
405 133
320 181
10 422
229 18
67 262
239 394
13 168
142 422
340 79
138 376
200 52
145 201
325 260
126 6
26 191
197 337
360 13
30 321
412 144
389 252
409 135
183 160
220 356
269 112
130 27
166 385
119 356
30 223
30 198
362 246
74 60
243 212
64 393
14 156
254 123
394 362
45 215
203 378
321 351
79 77
216 398
130 38
178 200
249 32
85 121
411 289
289 277
368 365
415 292
218 336
431 260
112 106
360 308
75 278
185 243
420 277
247 124
95 433
395 183
350 273
114 334
179 33
385 250
224 277
107 52
57 100
219 284
430 70
93 266
213 243
97 165
400 132
87 74
405 3
125 13
92 15
135 65
252 162
372 121
337 434
427 173
224 208
60 9
332 182
262 175
365 88
120 32
256 96
217 94
400 118
417 77
373 122
23 148
407 391
28 140
201 100
201 19
365 31
305 152
260 73
157 306
420 106
419 333
32 84
429 208
355 114
38 68
256 44
168 37
150 353
170 443
269 186
136 285
366 91
67 355
307 15
331 328
411 96
168 436
202 304
192 313
173 325
337 271
232 23
1 342
323 192
222 392
37 7
332 79
321 14
168 12
441 75
418 263
217 40
97 396
149 90
316 438
418 189
240 93
422 84
101 69
147 180
342 222
231 269
370 374
177 300
105 152
381 185
246 350
244 24
386 408
227 36
150 217
325 164
217 260
161 415
398 264
163 394
359 424
389 46
60 238
67 6
324 96
283 354
326 350
15 24
12 278
254 53
197 159
245 393
419 344
89 19
295 23
380 36
169 400
31 27
16 411
27 322
26 380
206 302
353 35
205 170
295 127
4 70
313 169
47 184
291 182
341 446
233 238
67 3
2 63
207 9
206 434
82 25
363 444
122 72
28 5
337 380
367 160
39 293
28 262
150 377
144 16
186 419
45 148
39 32
262 233
366 298
164 185
137 349
99 3
370 357
21 383
190 171
348 211
233 401
57 73
239 424
235 190
75 21
370 147
165 338
244 288
100 403
91 180
237 392
384 106
279 233
263 6
394 194
290 74
181 444
188 203
325 106
406 176
20 85
421 26
146 231
59 269
72 188
371 69
228 18
257 289
420 356
421 130
131 166
8 89
191 238
372 16
213 212
279 56
85 416
418 292
327 118
97 209
169 415
419 436
176 250
355 369
413 146
55 445
23 427
441 256
373 342
140 59
194 347
131 152
113 9
45 135
240 277
56 210
445 210
23 268
339 292
412 188
34 37
49 281
67 378
404 122
215 249
112 394
154 105
230 154
80 67
375 367
33 338
236 151
79 69
11 19
269 181
216 164
111 71
273 49
287 44
120 45
185 424
60 377
345 146
191 233
404 106
436 418
137 175
189 116
180 160
252 409
280 192
74 40
389 278
436 111
228 28
163 140
58 444
37 183
338 36
61 283
257 270
269 256
254 231
26 391
215 90
273 310
48 315
234 93
252 229
230 39
20 73
20 26
289 298
367 147
166 435
13 270
194 203
26 258
385 344
95 270
433 431
264 313
337 259
438 15
93 269
355 140
13 414
228 426
188 69
191 13
388 404
403 109
66 343
150 59
299 13
442 333
115 150
131 193
327 78
439 164
213 273
354 269
357 367
141 347
237 157
115 424
371 256
185 84
267 242
61 179
345 177
194 166
130 264
436 251
186 164
141 216
63 155
383 173
201 151
88 49
169 291
339 363
175 59
89 307
2 104
142 228
297 145
414 192
326 348
141 290
397 174
88 389
186 284
347 365
155 51
419 106
145 387
87 443
340 23
369 410
274 445
332 392
414 388
144 227
18 270
94 366
377 166
100 263
325 433
404 366
296 345
90 173
133 165
280 263
269 209
409 127
109 325
412 225
389 233
138 351
193 24
396 118
320 201
356 133
87 274
20 222
12 45
236 282
249 264
263 48
188 14
346 53
68 110
369 174
191 139
256 307
143 281
108 163
279 346
434 149
143 215
333 74
421 74
214 427
436 315
144 21
212 406
327 100
444 204
118 209
306 92
220 400
16 355
337 280
40 379
269 434
16 444
60 237
271 157
436 188
370 96
427 244
426 374
235 302
54 11
157 372
194 57
390 199
248 121
45 247
38 334
368 187
365 313
269 135
311 80
67 395
291 216
237 8
290 218
439 339
144 6
162 374
364 339
137 362
412 434
2 218
384 404
278 357
280 244
18 57
353 88
36 61
135 224
88 162
297 161
387 341
367 397
426 391
329 361
435 270
370 46
269 253
182 252
268 142
133 267
394 373
360 131
327 38
444 196
108 188
156 445
438 5
120 16
264 277
287 109
283 421
415 176
87 254
415 234
420 421
235 389
105 278
33 239
394 338
297 353
377 253
293 319
436 305
26 256
429 149
20 278
231 179
84 275
167 76
27 16
187 398
204 240
65 411
193 355
39 87
169 135
67 283
437 110
149 7
356 88
408 208
168 205
49 374
296 42
21 215
185 7
37 69
230 38
313 357
206 61
313 394
292 100
214 59
256 216
110 175
419 394
161 365
34 163
343 415
256 284
394 148
314 368
188 416
148 130
274 251
377 378
68 351
185 132
210 31
93 157
113 237
76 417
44 220
435 191
173 143
314 23
92 121
84 292
320 415
44 99
27 405
408 330
356 190
337 120
87 168
165 302
322 12
124 393
389 260
291 256
125 332
409 237
78 257
288 183
231 412
227 39
137 197
189 234
59 406
4 84
101 273
302 323
149 12
420 15
295 252
250 279
20 433
10 392
242 109
48 252
407 100
176 155
267 95
146 319
324 370
65 71
307 103
240 222
53 23
233 33
444 415
9 272
292 372
106 411
179 373
123 435
372 37
150 101
299 269
327 394
143 213
314 213
367 280
365 137
280 133
12 365
272 319
186 173
206 412
169 242
326 31
221 83
231 424
327 53
45 360
387 58
216 438
193 118
342 23
122 277
123 67
87 94
431 96
311 112
182 314
147 307
339 325
415 183
345 290
229 381
13 375
38 23
415 85
65 169
242 238
48 342
141 123
393 329
342 32
60 213
433 148
48 78
352 262
219 392
226 172
307 357
203 69
93 106
161 65
126 395
132 35
161 232
375 143
236 255
55 70
67 204
143 424
130 263
236 47
13 91
91 65
118 380
322 145
216 143
415 244
122 243
340 249
356 280
346 6
182 421
33 173
259 295
258 281
333 53
284 271
323 297
354 100
180 92
374 10
392 193
186 293
39 376
326 52
191 222
93 164
242 441
363 252
240 289
166 248
390 146
90 434
356 410
410 10
161 165
204 269
380 135
219 96
354 332
379 232
435 155
162 405
204 213
308 99
71 330
284 12
127 243
354 90
280 95
201 157
30 326
259 401
391 439
92 416
412 367
219 287
57 229
418 433
400 374
324 446
99 173
132 212
140 352
298 435
405 306
39 289
215 1
297 201
171 161
414 284
118 182
387 129
253 44
124 418
349 347
164 323
348 414
154 342
190 45
319 254
91 419
323 335
409 228
304 300
355 161
67 124
125 93
154 249
181 353
327 429
266 404
175 260
241 386
78 391
220 206
21 306
283 54
11 24
396 357
111 351
395 415
377 196
239 60
181 113
23 323
21 27
436 206
233 439
103 216
141 349
287 183
44 401
342 120
288 267
32 374
161 314
354 85
330 192
269 173
150 396
426 258
105 130
297 327
176 366
155 373
209 427
109 227
170 79
16 370
337 130
190 444
37 219
346 237
166 335
150 421
115 72
69 190
254 141
138 226
427 18
8 146
12 324
324 413
24 122
278 144
155 188
132 141
405 15
80 263
190 409
372 339
436 425
36 365
281 118
437 272
298 319
268 100
140 155
90 106
220 230
65 417
123 360
92 320
160 219
373 266
421 34
92 415
109 160
322 352
63 38
269 61
270 427
213 439
13 131
434 143
293 154
95 181
94 417
319 196
231 93
333 77
190 280
10 302
37 75
177 366
14 273
324 3
433 357
283 65
271 60
391 281
58 31
419 441
91 347
85 260
133 284
135 288
338 194
197 285
240 381
374 307
182 391
244 160
274 31
39 347
138 78
264 45
391 103
256 46
388 40
372 295
45 91
314 58
81 296
95 284
416 411
112 45
390 56
391 259
267 401
225 67
131 435
419 54
243 238
411 441
139 355
228 355
61 118
284 1
98 166
177 261
236 440
73 176
143 59
360 192
15 44
144 148
49 118
301 146
320 70
5 216
406 312
373 404
330 230
118 229
8 254
6 243
241 333
297 175
365 133
191 67
341 440
306 249
33 337
410 189
238 99
253 332
208 386
363 419
400 123
248 20
428 22
144 374
400 392
440 273
368 296
230 138
204 258
425 435
444 407
74 187
121 28
76 53
219 307
345 320
252 26
271 159
443 241
349 161
104 317
118 121
24 243
51 397
278 405
269 240
429 277
384 395
155 163
305 240
199 107
108 31
406 269
391 413
254 301
62 362
335 80
103 353
94 71
439 330
277 435
375 106
394 235
227 422
429 288
51 408
222 391
331 210
259 139
311 20
231 293
154 278
152 413
323 140
136 331
257 439
150 38
11 340
109 136
338 220
297 396
100 157
397 308
135 49
171 370
103 79
396 88
139 401
287 169
232 327
269 34
204 10
132 258
154 130
439 23
406 19
383 159
169 150
350 30
159 15
304 414
356 162
35 193
37 96
262 417
5 89
182 326
401 45
114 374
169 370
149 5
26 259
216 149
239 378
19 17
277 212
54 60
389 209
200 390
414 198
436 235
430 382
155 79
394 215
234 131
97 119
341 304
119 378
168 340
228 193
135 407
235 15
182 374
154 16
249 413
90 152
192 338
381 179
164 5
12 103
185 439
151 366
185 150
190 162
88 315
209 101
313 237
254 243
421 389
219 242
185 37
180 79
65 374
200 111
141 68
37 324
349 333
119 147
352 365
326 393
172 153
270 188
149 183
197 135
246 40
407 392
239 360
438 137
414 370
441 46
203 49
42 279
394 443
85 406
99 395
315 302
433 287
119 396
180 192
3 277
71 340
142 270
137 254
83 9
228 135
39 401
234 126
86 22
98 128
271 96
433 235
340 213
339 196
191 103
111 127
443 104
52 345
20 338
141 281
18 281
388 290
219 88
243 391
220 257
107 134
410 19
121 412
345 76
345 322
33 160
169 185
24 247
235 337
420 311
106 143
420 306
217 339
203 254
316 128
165 7
91 243
26 123
413 367
115 87
380 132
338 405
83 188
20 438
349 426
410 28
436 339
368 397
26 204
414 112
438 34
146 361
78 421
243 421
280 400
391 73
80 166
404 103
8 25
123 103
297 233
103 248
122 397
137 320
179 419
329 64
342 422
11 295
252 161
3 38
335 161
297 394
155 123
370 37
8 124
244 193
325 417
297 313
147 219
106 214
37 88
325 88
322 273
243 75
269 26
78 9
163 381
237 100
375 1
122 253
132 72
119 132
365 192
295 59
387 250
358 440
196 311
75 171
301 8
45 159
183 88
235 97
252 35
347 266
148 247
344 151
155 204
413 182
284 97
287 365
34 251
235 32
394 270
421 105
239 90
300 138
410 311
413 165
60 148
254 369
167 294
16 256
157 360
186 380
264 6
401 119
199 22
284 44
290 62
404 319
257 343
277 157
214 270
434 48
376 246
34 394
202 177
293 33
61 405
181 219
383 80
323 369
370 332
89 392
27 46
24 387
105 6
389 239
97 421
168 182
32 263
187 439
127 396
372 278
215 120
11 80
249 308
6 148
149 194
259 215
173 349
143 73
354 112
252 54
353 97
349 221
224 374
61 346
190 215
254 273
431 342
255 124
403 312
260 404
313 71
305 248
313 330
397 11
34 228
298 187
5 243
358 345
251 307
239 1
46 88
314 435
34 278
95 291
401 287
292 196
330 180
217 266
313 91
291 49
44 6
53 146
91 168
415 49
327 208
180 33
382 134
263 407
414 443
105 342
119 258
142 101
108 233
396 165
89 136
395 222
42 62
220 301
90 131
330 404
114 121
148 306
341 257
312 28
161 85
291 313
176 60
330 386
150 418
427 201
192 322
308 57
371 133
114 180
231 395
211 341
252 281
175 21
168 234
312 149
118 232
204 201
394 234
99 150
28 405
364 378
179 369
122 387
343 349
444 114
189 348
281 35
338 284
185 67
389 34
24 418
83 339
273 237
67 77
237 58
36 135
293 422
183 44
307 75
355 28
23 43
26 224
111 58
352 74
301 42
430 296
191 389
359 87
131 181
96 165
360 340
264 157
234 305
319 87
375 148
446 318
406 307
256 242
293 228
58 255
381 206
125 217
44 85
415 3
353 416
396 407
182 10
217 332
73 26
167 216
345 344
72 176
99 171
168 413
152 292
419 95
45 16
418 168
96 125
171 6
105 16
141 275
325 33
82 86
100 124
193 400
213 270
32 422
123 51
316 349
295 198
140 340
422 312
397 13
326 331
387 299
403 332
286 81
371 57
378 366
130 433
31 394
371 220
150 412
108 209
228 349
186 88
239 227
232 280
435 5
201 341
322 214
201 193
297 77
7 370
47 124
323 438
89 381
188 339
23 438
84 414
97 357
64 443
361 331
346 406
234 136
332 363
441 291
219 84
84 198
24 427
80 257
319 24
413 299
48 203
340 250
378 237
260 18
263 338
444 313
131 220
114 434
130 247
148 444
428 336
79 83
384 186
267 219
174 351
352 372
201 252
155 212
299 14
262 287
303 361
435 354
438 115
196 149
436 60
21 54
151 56
101 302
186 143
62 376
101 85
368 43
100 266
375 311
103 159
394 374
356 411
184 303
403 5
431 357
214 256
427 140
405 21
348 442
380 162
362 89
65 35
280 131
400 420
315 24
113 52
247 264
15 278
74 90
232 186
166 234
289 123
353 410
11 266
190 16
198 200
401 88
436 426
162 338
301 52
206 435
248 383
155 31
279 87
262 297
397 311
277 249
171 313
437 212
441 133
47 378
34 45
61 59
122 406
77 324
411 123
91 151
16 365
283 240
163 11
136 411
130 21
431 411
24 436
356 353
16 118
419 188
388 146
46 424
446 218
126 10
215 278
426 162
428 124
337 75
84 235
227 34
210 324
389 355
109 284
34 6
200 145
110 327
67 228
395 427
139 59
263 284
435 13
44 271
339 248
68 286
396 133
59 92
279 220
15 338
359 54
163 281
341 327
268 237
74 329
302 307
424 65
28 10
325 185
354 362
51 47
228 405
196 188
80 44
295 444
165 219
16 240
241 52
75 155
37 242
6 280
99 164
277 373
416 267
99 253
20 65
1 212
121 355
181 314
338 295
60 403
195 432
426 400
121 93
318 86
91 225
27 75
143 314
306 337
211 138
213 370
340 271
144 353
230 414
405 190
421 32
53 167
146 240
443 368
6 426
113 151
132 378
134 3
253 441
21 342
133 44
306 16
19 70
131 124
16 268
37 101
337 338
400 252
192 191
154 15
258 36
182 180
352 16
236 326
352 190
357 215
123 3
61 15
252 186
212 342
361 199
435 323
267 419
238 90
431 37
237 418
26 278
248 417
4 51
320 393
376 40
260 233
419 225
118 415
143 4
12 72
393 241
87 250
115 140
15 140
309 385
222 259
157 342
101 426
206 418
128 432
95 24
140 127
63 31
170 225
195 282
311 72
12 222
152 121
392 434
433 367
100 84
422 155
389 238
173 124
240 6
27 97
259 75
192 46
22 236
202 329
27 215
85 237
401 169
112 339
367 169
369 419
87 108
362 112
154 119
59 201
61 426
357 356
10 89
157 420
365 248
109 415
222 130
404 93
23 99
373 187
201 132
195 58
373 23
154 306
443 189
277 114
322 393
396 144
29 444
327 89
186 372
73 233
357 219
172 345
60 389
400 196
124 387
356 37
83 94
233 12
445 64
384 120
131 51
227 85
80 292
249 355
380 173
403 12
422 421
87 146
321 335
38 237
406 191
78 355
354 186
444 384
182 253
278 131
304 442
48 327
160 136
317 170
57 369
289 374
167 417
78 407
20 444
155 198
367 96
80 289
258 419
51 59
407 281
71 203
15 204
306 34
434 381
176 63
414 349
185 391
313 392
354 118
342 249
257 328
69 253
323 244
137 332
226 261
57 268
250 204
139 389
10 173
253 433
167 349
413 78
315 71
334 310
13 8
254 305
419 15
301 101
18 5
279 231
1 106
323 203
442 187
5 443
115 48
278 337
427 325
267 411
111 70
124 324
270 421
146 318
435 313
418 368
215 38
422 338
38 205
369 252
231 219
238 101
171 337
149 206
49 20
230 115
243 123
429 196
236 134
112 109
322 250
429 72
48 352
281 378
236 52
433 44
115 10
371 307
206 378
263 313
262 324
237 24
421 45
411 182
108 416
347 173
323 439
204 262
73 135
268 123
37 407
324 71
435 151
6 93
80 224
441 192
325 232
103 289
247 235
324 161
73 413
228 283
186 46
60 319
140 293
88 287
147 95
13 123
295 373
249 100
438 297
409 180
18 419
35 409
403 254
173 338
180 10
120 130
10 73
124 394
297 338
355 415
57 420
389 160
354 135
394 164
6 159
343 68
354 75
144 354
292 316
395 97
421 28
5 389
136 132
45 235
419 60
23 155
36 132
224 393
240 23
50 178
263 239
309 305
360 67
200 128
66 387
79 234
252 439
65 142
272 363
426 197
80 436
85 403
54 291
212 289
180 306
415 127
344 377
99 143
232 246
407 229
436 363
166 76
338 429
290 77
319 205
179 166
164 23
36 162
163 277
422 124
96 357
61 132
59 182
141 329
110 185
301 53
263 369
410 389
406 401
108 123
74 124
93 222
28 126
93 214
106 173
49 407
127 414
113 128
185 99
146 222
91 108
80 259
98 184
444 192
110 136
354 314
66 428
136 79
436 137
422 159
231 324
187 110
383 424
198 349
173 123
427 149
61 340
356 125
346 203
103 204
111 188
383 280
84 206
240 243
121 105
87 8
205 51
27 190
180 181
27 247
145 325
80 96
391 219
284 252
109 367
216 332
152 192
6 394
298 427
39 11
272 321
411 99
373 231
227 421
160 147
122 110
414 26
393 248
118 268
259 247
233 206
277 33
100 139
110 143
433 133
335 216
285 36
320 353
169 396
10 101
63 39
96 160
29 217
243 277
444 429
390 196
28 335
7 427
7 253
135 362
233 291
150 89
383 5
176 89
277 260
327 138
85 103
285 73
45 130
213 109
374 380
396 157
212 334
257 255
417 233
355 234
238 169
406 342
194 177
382 172
32 38
289 205
204 338
71 166
151 11
122 360
147 357
24 284
12 89
5 342
66 41
133 149
373 398
53 437
220 150
244 192
439 152
342 307
100 18
140 110
46 12
183 324
242 95
16 337
114 373
419 125
213 186
143 230
233 435
239 175
79 206
157 411
268 193
422 263
141 220
378 188
421 21
158 218
13 349
291 264
260 161
238 33
94 74
24 162
132 338
367 97
262 114
350 13
80 48
361 282
131 154
61 407
251 321
109 106
422 299
302 436
439 429
398 76
114 18
304 98
204 36
223 272
401 190
419 224
87 437
299 313
415 93
366 359
322 190
192 359
319 230
411 57
297 209
430 187
28 65
415 315
159 201
379 141
132 15
73 312
251 323
258 365
110 352
98 172
114 229
354 89
18 371
371 109
123 38
67 108
54 308
18 142
426 26
345 368
244 219
281 362
285 65
378 362
88 431
11 161
70 347
147 169
253 112
182 307
196 392
36 229
438 135
99 20
140 139
69 222
120 109
75 148
311 24
174 48
215 233
75 190
174 329
108 150
391 135
346 337
114 258
201 298
220 405
150 439
435 418
349 191
101 217
46 252
251 288
88 150
123 164
95 37
391 196
414 168
97 375
437 31
57 373
19 418
183 7
293 325
214 266
378 365
183 441
166 29
397 35
32 159
428 386
242 110
426 407
26 281
5 186
353 155
414 248
270 46
105 120
143 28
356 169
212 151
63 48
38 20
427 185
192 79
125 405
16 203
277 443
66 50
95 444
307 175
262 269
378 77
314 183
238 378
130 419
23 105
89 155
239 214
78 369
46 165
22 443
287 203
435 407
7 365
298 353
307 353
340 162
54 122
199 345
185 69
216 417
370 378
248 206
122 234
298 180
194 198
353 370
186 118
108 33
360 140
438 174
232 144
237 59
201 434
360 53
106 185
360 325
160 356
170 177
233 28
142 338
161 374
353 87
67 153
208 4
8 429
188 33
93 424
34 405
32 75
397 235
88 89
108 122
156 350
144 413
73 228
31 84
289 87
244 256
67 51
170 151
332 168
396 44
173 239
178 226
191 418
411 37
273 210
367 44
322 209
227 396
92 142
342 148
244 295
427 33
133 89
131 231
227 135
297 443
397 283
261 107
406 394
353 332
118 305
95 214
250 127
107 368
338 280
301 194
140 151
20 420
161 103
162 283
91 339
233 24
264 424
314 168
271 219
152 403
144 159
329 303
213 378
106 422
397 312
187 346
189 439
153 369
100 367
16 247
398 43
117 104
39 221
114 84
260 381
270 150
92 312
408 382
414 39
406 219
201 1
371 119
28 12
127 311
411 112
95 256
136 44
229 232
95 97
140 35
403 144
284 69
435 289
3 74
148 215
114 35
144 306
419 239
214 16
79 5
105 263
38 277
141 166
126 349
323 420
152 355
47 145
67 240
20 10
369 234
306 422
283 180
144 49
164 446
222 75
91 395
335 149
365 182
167 348
24 419
270 409
152 222
410 220
320 227
120 235
439 384
71 409
263 143
404 80
11 204
254 146
438 369
20 193
314 289
92 233
176 201
294 255
131 289
312 400
16 5
133 147
437 378
410 289
299 154
409 400
98 322
429 363
443 216
21 103
127 343
108 360
280 424
57 398
169 264
316 254
392 312
212 101
1 251
353 191
212 163
124 414
378 182
66 223
201 12
220 435
421 424
386 440
44 395
187 319
340 370
376 55
253 26
29 101
182 112
407 285
29 179
194 443
268 65
110 295
88 441
37 352
148 315
375 266
64 70
192 14
38 306
90 273
355 168
398 362
15 1
352 60
77 125
22 102
146 217
76 382
324 84
180 338
277 75
74 75
11 233
212 5
235 95
203 170
375 274
168 313
433 5
313 16
380 278
46 161
74 305
212 362
188 307
191 12
96 356
109 433
71 327
29 308
101 196
278 130
37 13
369 283
92 110
19 224
173 234
91 259
357 270
27 197
148 372
353 262
21 238
175 364
150 322
113 123
431 243
170 385
362 435
277 185
106 244
238 424
176 22
132 100
131 313
78 201
231 339
405 284
396 306
247 227
114 287
135 150
44 288
254 84
346 176
61 381
375 175
314 179
269 308
243 340
224 99
347 128
380 269
250 20
338 357
374 35
171 259
378 279
324 113
267 395
280 179
238 269
221 390
353 175
103 122
8 208
23 305
94 111
277 375
202 58
264 168
160 45
171 39
122 26
141 142
329 134
238 383
11 101
406 415
6 227
374 57
251 410
133 109
441 79
353 192
59 372
239 118
439 79
1 249
442 321
269 427
266 130
112 378
135 406
443 348
88 288
359 94
438 214
206 146
182 298
101 185
3 220
439 180
425 327
400 327
38 444
144 150
20 35
413 270
264 420
157 130
63 335
315 251
420 278
74 157
72 315
361 200
48 363
360 152
149 413
85 381
65 78
186 99
418 365
332 5
271 370
439 316
215 253
418 196
222 383
159 130
324 79
383 263
61 378
242 271
96 401
223 50
243 337
88 232
337 420
119 277
130 306
280 24
374 281
215 130
426 285
308 293
431 288
59 288
135 325
258 224
313 113
146 440
415 175
103 291
37 160
405 264
89 324
445 290
393 255
14 366
231 263
179 375
93 209
288 160
23 136
273 405
35 233
216 194
396 228
244 157
217 378
143 112
101 367
155 11
35 238
18 252
282 241
381 12
106 357
137 3
338 160
367 34
137 20
264 125
433 291
164 228
155 314
301 84
190 420
46 427
140 338
430 224
5 225
251 160
132 125
330 181
155 101
76 205
291 160
404 58
264 215
393 4
275 14
13 240
346 389
125 222
205 19
111 347
360 11
48 24
380 247
337 194
436 92
13 332
375 185
388 53
103 23
262 307
85 383
397 266
103 277
388 117
101 31
415 152
24 400
126 94
114 39
141 316
4 156
370 287
166 198
442 272
115 3
179 1
152 203
83 394
334 378
252 73
387 77
258 34
77 240
431 242
424 59
240 88
136 270
307 405
400 34
413 150
326 221
410 419
184 386
200 345
341 76
313 314
260 312
446 98
230 320
137 313
157 422
335 13
248 114
264 15
101 213
296 174
100 232
182 89
322 11
84 141
381 99
307 97
405 99
434 36
362 191
147 183
71 414
97 259
363 60
434 312
259 280
127 4
106 61
409 162
332 325
387 162
64 4
236 180
414 152
128 2
347 137
338 407
439 203
249 227
197 400
242 292
281 100
214 186
285 400
130 34
395 227
232 349
73 54
10 127
24 163
78 436
43 359
123 397
228 268
414 416
100 239
224 387
176 320
31 168
64 255
258 404
340 93
204 54
121 140
362 349
391 162
95 91
95 295
381 312
123 297
331 199
12 130
185 293
372 150
289 347
381 262
35 36
303 348
125 353
387 102
435 259
89 175
268 135
429 390
78 120
376 326
33 367
26 114
124 98
269 227
26 285
3 8
146 415
279 136
414 353
103 416
100 49
251 73
1 416
253 287
363 266
112 114
175 88
303 134
36 426
166 163
6 135
39 160
180 419
139 426
141 412
234 14
263 367
369 365
401 46
192 101
93 247
192 270
120 59
291 168
89 79
127 70
149 244
285 214
392 271
54 182
208 309
297 113
80 410
304 116
297 314
147 291
201 17
219 44
338 57
209 136
47 364
99 426
89 389
422 34
372 27
58 394
266 362
381 412
254 313
353 299
283 289
185 18
90 322
15 431
228 206
27 418
248 275
394 59
422 194
69 280
27 421
182 393
181 395
220 142
163 122
279 31
140 270
89 149
444 13
47 345
357 284
4 343
40 128
401 69
297 167
362 213
202 43
41 210
272 50
375 293
357 213
112 424
198 141
146 86
320 279
433 414
342 60
173 93
338 233
354 240
354 298
45 338
442 217
441 169
395 325
171 121
291 411
84 381
219 396
228 248
16 6
413 238
370 165
310 388
21 251
443 437
263 13
182 254
112 427
299 159
381 424
376 136
3 191
56 138
225 394
274 310
181 155
323 352
429 311
173 263
139 60
264 190
80 315
20 258
269 268
337 132
80 395
303 442
308 157
125 266
325 26
205 123
268 74
97 190
162 28
289 225
274 418
288 284
250 326
224 435
341 309
324 185
120 263
85 191
101 268
193 203
362 401
330 254
267 44
273 70
234 48
389 381
181 23
190 363
435 281
157 235
190 252
118 224
422 75
413 332
338 120
220 441
279 313
28 176
283 140
325 441
419 339
335 349
262 163
335 429
46 133
228 391
236 51
225 232
352 105
12 411
82 387
390 386
435 360
435 212
209 44
220 314
293 194
433 411
406 434
263 215
414 73
19 324
48 173
186 175
121 20
77 376
255 341
91 403
121 295
409 118
206 144
139 306
396 355
90 372
268 73
189 398
65 61
279 353
150 14
77 323
11 122
220 316
231 112
260 280
205 437
208 330
186 34
232 251
191 410
314 239
289 122
6 267
213 342
15 160
142 180
132 20
378 118
442 232
163 204
123 39
395 173
292 176
369 389
142 325
149 292
61 242
157 27
396 260
247 106
357 291
150 4
20 72
190 414
252 38
105 277
434 234
342 427
263 414
427 367
37 384
409 268
361 382
293 49
250 379
405 427
222 96
44 427
390 296
162 57
253 160
6 89
418 310
406 92
274 91
233 283
114 281
263 421
112 93
61 371
148 65
185 414
51 83
373 234
85 355
222 194
444 326
330 83
126 210
325 285
250 201
103 108
299 365
395 266
65 320
353 219
308 352
97 12
93 322
375 54
93 375
18 61
436 222
406 161
1 118
361 390
345 221
206 406
146 74
293 377
249 405
31 345
271 291
109 114
160 119
32 49
20 108
100 227
115 29
305 274
286 31
201 13
234 135
424 33
308 61
25 387
415 105
89 203
152 381
254 354
383 237
137 91
63 213
394 278
220 335
130 33
438 392
157 34
243 289
333 200
61 417
116 71
364 293
258 438
109 118
312 179
380 212
132 24
46 169
338 16
201 90
342 61
412 7
157 278
394 143
297 368
430 58
297 335
66 208
93 384
181 268
411 165
169 267
239 369
119 287
133 288
365 131
160 165
409 407
427 426
240 166
392 262
88 109
325 194
280 370
312 12
191 157
174 166
280 439
30 50
72 419
381 405
387 74
414 201
91 126
70 296
182 287
408 178
283 155
251 204
14 86
288 441
373 225
139 392
141 29
46 253
109 372
373 54
199 156
425 91
125 424
18 353
229 100
168 115
93 392
18 28
287 357
213 359
57 269
254 103
125 31
224 434
160 370
444 297
228 35
171 24
340 411
122 118
175 209
126 194
254 79
169 253
436 127
400 403
223 300
10 415
158 64
92 401
382 128
407 224
75 306
104 388
23 140
362 359
74 185
101 397
429 182
299 180
236 323
74 389
356 179
80 130
367 46
384 143
431 271
370 356
435 285
162 407
383 89
248 349
38 142
159 136
88 44
175 151
285 95
334 277
343 146
1 59
166 188
314 416
384 185
10 149
348 345
384 99
20 36
15 105
331 50
211 98
341 81
191 302
13 420
407 152
241 170
417 266
24 197
250 99
118 132
73 346
445 398
262 46
148 421
127 286
417 335
39 292
34 188
267 431
194 64
397 4
404 43
284 206
25 399
198 117
271 239
281 140
11 10
324 322
23 266
150 132
235 306
252 118
263 171
51 277
315 390
39 403
197 375
311 377
142 118
441 96
7 65
121 312
357 424
359 354
112 118
421 237
147 109
355 392
7 46
67 35
308 27
80 271
224 322
427 1
274 238
438 359
410 368
365 397
387 233
168 400
259 360
214 173
103 89
346 240
259 100
7 119
394 3
176 101
273 274
410 240
176 305
271 280
419 404
109 288
92 84
344 40
48 266
185 175
58 126
115 378
160 293
228 285
263 249
354 272
139 219
91 377
206 269
93 191
44 92
269 266
271 186
143 347
426 118
220 414
121 389
27 34
178 52
359 386
316 42
142 26
213 391
232 313
196 123
132 222
37 147
283 346
18 194
378 349
302 381
292 407
191 10
250 436
415 196
263 306
271 289
194 204
132 242
126 80
423 290
231 418
342 370
221 110
101 54
289 203
222 185
391 292
168 412
355 95
411 292
323 316
144 32
362 375
99 136
341 177
28 93
197 222
347 127
16 263
301 166
209 114
411 240
220 168
162 20
150 307
416 216
38 78
169 133
137 209
354 273
369 285
3 398
375 231
161 302
285 20
361 76
285 142
144 263
306 120
13 380
236 363
174 366
346 96
421 372
417 439
236 60
399 318
387 443
414 7
403 34
284 287
160 433
139 152
97 431
288 237
299 236
4 173
260 28
427 252
155 227
39 199
373 13
346 289
206 10
333 317
119 59
237 1
215 407
239 186
316 14
166 316
330 115
429 188
437 366
256 396
345 331
215 196
179 383
438 212
334 316
49 426
135 35
370 119
444 11
273 190
61 213
354 192
244 46
16 131
308 115
335 394
233 311
112 364
104 22
177 328
285 229
238 59
262 406
352 147
354 426
95 396
224 142
149 375
259 32
222 356
52 442
265 223
409 391
140 324
47 127
409 381
1 31
353 168
133 342
205 385
179 288
165 44
80 72
150 182
438 151
306 278
253 411
242 119
308 123
152 69
46 183
322 247
429 253
96 284
119 95
159 60
182 273
93 163
90 209
332 411
34 32
95 57
83 273
189 330
420 342
239 224
203 213
313 288
232 311
395 306
152 412
192 302
394 64
125 140
333 167
222 230
125 115
431 160
403 431
91 125
158 331
426 127
277 181
132 268
65 26
424 427
147 108
307 119
141 54
373 420
284 48
124 29
71 398
174 192
271 109
171 144
20 90
96 69
34 260
395 37
126 211
35 338
146 40
223 172
384 375
365 270
248 23
254 266
274 166
278 314
103 375
72 169
333 297
219 135
253 244
131 431
44 289
75 89
339 427
165 109
273 416
19 186
44 95
134 77
173 15
73 374
159 264
260 176
175 227
406 302
77 112
130 214
380 114
187 251
292 35
155 378
114 193
222 433
214 90
60 410
214 219
280 212
314 225
378 204
103 168
287 179
44 235
227 308
51 270
188 233
176 339
212 297
125 413
163 373
317 388
365 205
314 19
123 401
404 398
347 239
61 140
228 20
127 144
86 309
251 243
34 332
97 61
185 143
24 378
126 78
284 16
301 167
338 171
77 232
444 365
51 50
139 364
180 367
269 143
435 135
182 346
10 12
210 146
411 33
434 370
149 38
364 441
7 96
91 149
345 361
78 417
171 228
361 156
16 239
110 298
271 97
44 431
418 127
357 277
308 418
291 253
161 12
65 426
427 11
36 93
185 217
309 64
132 228
139 119
143 228
392 295
315 113
176 197
144 373
70 136
45 32
279 19
373 103
108 250
272 170
308 380
49 391
106 394
78 409
322 51
262 349
288 36
178 333
245 232
275 349
79 55
126 235
59 384
125 268
28 144
396 295
398 374
26 185
238 108
444 79
212 67
333 339
426 95
240 308
398 292
131 186
244 375
377 250
43 94
58 177
403 436
373 443
420 235
8 274
360 231
254 406
237 411
191 59
100 444
409 380
207 358
116 246
308 319
58 47
233 179
274 301
205 299
389 243
340 394
63 167
338 435
137 168
419 374
194 413
242 396
339 185
381 182
21 159
92 213
78 77
426 269
237 278
132 414
53 232
355 416
72 185
91 230
140 320
255 223
311 378
338 215
42 445
36 109
238 232
400 101
369 270
310 87
262 11
186 414
142 273
206 85
46 97
406 201
119 291
420 95
374 305
123 283
112 271
237 94
27 171
177 362
232 70
115 78
34 247
7 357
268 380
442 351
322 176
294 200
95 180
219 34
316 151
191 147
143 368
394 390
371 400
36 260
193 281
125 342
373 238
422 135
242 433
403 377
424 4
384 175
260 291
151 425
121 216
112 147
335 286
103 121
365 244
311 91
418 48
33 100
183 119
436 434
188 366
390 195
89 281
258 141
441 367
110 426
293 179
445 195
427 132
90 33
122 362
321 187
373 44
424 269
35 97
11 234
242 411
441 357
5 143
414 204
381 394
398 391
411 278
252 10
217 388
214 251
360 99
114 11
233 176
164 438
334 158
157 171
186 106
60 391
243 11
413 137
11 126
20 18
21 34
221 56
395 33
420 407
75 411
235 369
286 38
21 186
136 356
100 397
78 136
294 230
192 67
312 34
147 144
366 110
400 135
126 297
341 417
445 329
180 150
372 6
126 213
233 305
150 342
189 404
122 140
269 281
379 277
229 426
216 140
280 352
380 193
23 201
148 5
143 154
5 426
417 225
7 160
227 215
313 294
347 344
301 275
7 367
113 204
288 367
279 379
72 3
97 292
393 279
314 228
161 363
283 420
28 237
206 410
419 198
280 96
359 340
43 180
98 382
21 308
96 337
76 329
206 222
148 32
97 99
412 1
296 382
425 3
283 164
308 373
6 342
124 440
332 365
232 67
7 271
424 28
121 262
354 105
135 132
228 114
356 149
406 354
410 48
114 285
383 176
308 379
362 353
137 141
232 115
437 425
61 234
24 154
237 80
439 411
89 415
253 97
369 258
266 284
292 175
262 219
415 193
171 342
422 378
168 233
142 74
385 425
294 390
21 372
164 335
362 200
403 139
91 435
279 253
173 209
248 419
378 353
175 28
30 174
324 290
256 431
186 325
67 37
136 53
42 55
38 151
31 205
175 99
281 338
169 69
201 112
435 58
422 214
349 142
185 147
277 179
280 183
44 69
112 439
109 190
181 283
94 53
407 302
214 231
249 354
139 12
419 279
262 413
33 106
415 225
170 437
378 295
367 349
295 212
192 240
337 374
146 54
180 100
144 69
69 88
370 352
410 438
53 245
130 122
419 284
8 172
75 240
44 191
182 181
193 26
12 181
403 299
147 233
365 155
266 372
99 424
306 93
93 395
141 126
114 99
132 409
406 28
326 437
18 409
35 26
39 14
222 338
239 366
213 123
131 338
31 313
254 248
352 1
398 231
326 436
56 437
379 224
64 336
103 176
60 191
364 90
103 283
233 416
364 405
182 333
121 415
400 380
207 172
60 259
131 73
99 295
435 394
7 244
105 375
140 289
401 121
72 48
242 284
420 27
280 256
306 264
100 44
162 231
371 284
178 117
269 152
187 120
47 131
79 414
10 312
366 410
383 392
76 430
59 381
162 99
219 109
185 380
243 422
324 283
39 169
292 324
127 152
308 67
431 356
96 419
401 298
197 380
98 366
406 353
85 338
3 31
280 110
436 393
115 403
159 420
112 293
249 222
352 220
407 89
130 6
372 169
161 433
67 10
196 315
126 413
149 190
398 20
283 101
387 189
106 302
15 27
26 1
69 183
373 105
407 258
190 268
61 411
85 89
431 165
337 396
249 60
404 76
351 350
267 259
23 387
27 7
257 150
369 151
371 353
375 338
325 206
422 397
176 283
52 58
416 10
114 100
181 91
170 102
260 355
206 416
89 355
118 54
93 1
31 374
196 264
54 87
369 383
177 8
109 37
415 312
105 21
84 286
19 394
392 6
391 193
180 346
410 9
16 74
397 327
230 79
377 436
384 238
397 114
278 171
101 87
31 187
36 391
214 220
372 312
180 373
206 139
47 343
187 23
370 307
308 32
314 346
377 346
219 95
375 288
256 433
67 159
313 182
323 206
176 203
273 24
4 444
277 308
27 105
26 355
323 406
49 28
159 16
396 103
313 140
239 215
78 420
215 32
206 262
38 182
238 346
239 179
84 175
162 431
149 139
416 96
279 227
293 429
102 300
177 107
191 312
222 182
29 232
21 444
271 414
6 131
123 413
279 272
374 92
400 61
85 281
344 279
361 210
315 412
401 262
224 354
33 310
251 75
212 302
339 378
320 322
87 414
242 295
286 305
424 232
15 84
137 74
180 291
431 374
179 424
381 88
38 375
434 85
74 288
289 108
421 15
405 401
391 285
273 297
232 79
436 141
251 237
378 269
441 152
191 264
367 242
133 48
79 253
182 270
220 196
187 115
234 5
338 380
180 297
104 303
199 330
228 61
19 427
357 244
23 78
429 109
157 287
378 212
307 149
150 127
256 253
272 378
225 446
95 340
292 370
259 264
9 25
318 134
188 311
411 155
414 165
284 34
363 49
217 327
411 119
371 203
27 49
362 123
63 82
412 80
280 97
113 126
340 103
440 274
151 443
135 295
108 378
143 135
69 133
14 127
78 108
205 66
99 293
324 13
288 190
116 153
204 112
441 6
291 252
324 234
285 190
401 7
206 108
369 203
28 216
183 325
121 431
20 293
185 431
108 268
87 340
51 185
112 173
75 413
149 127
279 420
383 434
147 444
368 123
115 123
85 412
205 398
293 95
126 312
318 98
66 189
185 34
110 305
7 235
292 78
51 297
144 79
96 288
67 349
84 142
133 253
440 9
59 395
419 189
143 419
144 11
128 50
29 187
392 110
79 163
180 89
427 114
363 196
109 44
332 91
297 14
109 169
409 65
110 378
143 179
293 59
424 263
196 232
39 198
51 360
360 78
74 4
140 187
82 87
289 369
325 160
313 259
362 128
305 150
264 185
248 283
205 333
75 269
213 397
288 362
238 93
313 3
320 218
238 264
279 201
416 263
438 222
259 194
74 346
278 227
342 372
121 414
379 418
6 32
45 6
424 11
219 413
392 234
31 232
126 315
65 57
435 436
72 443
288 46
31 110
260 149
297 274
88 422
154 187
369 390
180 130
404 365
264 187
242 186
309 151
411 426
400 299
14 418
10 249
144 215
59 186
257 378
269 273
130 229
355 305
49 16
54 319
327 3
322 24
16 179
12 238
109 370
330 346
125 153
205 180
416 264
168 354
389 320
266 419
254 353
230 110
233 122
196 29
38 110
186 33
298 13
262 389
405 78
286 321
217 272
330 333
232 344
182 389
441 165
401 307
263 131
416 410
396 377
238 419
135 352
180 232
57 242
6 120
200 107
217 424
372 252
324 254
204 233
55 440
331 241
398 111
254 9
357 253
186 424
235 352
256 352
65 132
137 426
444 6
339 307
240 36
283 159
269 325
39 343
79 131
289 101
176 141
41 328
216 419
211 349
38 311
105 139
32 372
257 261
327 136
45 306
421 306
405 231
309 195
163 185
105 5
174 84
266 238
297 220
171 84
363 154
266 212
414 4
277 67
368 236
389 163
10 356
46 44
92 395
411 307
16 413
76 303
222 434
340 373
206 240
411 69
358 404
283 12
143 238
125 313
397 249
131 168
370 33
139 346
425 344
435 339
207 376
84 360
71 326
120 420
391 163
365 84
92 392
299 150
292 14
401 431
292 67
180 410
239 427
55 423
260 95
268 103
200 58
166 353
77 394
297 417
323 61
268 391
242 283
4 275
287 371
417 23
388 17
161 173
52 294
212 373
28 191
380 133
34 259
337 247
60 381
324 323
289 264
171 421
7 97
90 427
109 400
299 51
242 253
293 356
294 40
129 330
397 74
326 217
283 122
157 197
159 355
444 88
183 396
119 165
196 12
309 201
87 327
163 5
148 26
403 1
98 305
185 23
72 77
256 271
225 272
141 89
7 49
79 297
89 219
142 90
244 165
269 48
35 377
94 42
7 88
212 444
326 442
153 346
72 201
7 291
141 23
110 264
61 230
306 339
1 142
204 115
11 289
287 299
416 168
388 78
176 171
296 257
119 109
367 307
49 73
212 33
154 34
176 142
163 250
422 140
18 285
69 244
368 300
194 26
113 205
109 357
163 162
419 323
206 16
229 97
162 404
306 250
267 88
181 13
232 3
131 150
92 403
431 284
334 189
154 383
259 292
196 412
74 308
170 425
273 377
383 352
109 97
155 213
144 75
74 324
199 208
115 151
91 31
142 380
193 234
389 222
32 105
300 385
330 311
105 370
103 151
413 214
298 23
437 82
11 140
110 401
40 113
342 15
44 169
430 236
123 250
340 122
427 157
329 83
268 392
119 288
26 441
12 355
18 26
99 180
147 395
277 99
234 297
108 212
368 63
39 129
146 334
429 286
88 292
280 288
265 207
419 228
307 191
326 82
159 277
295 297
134 362
77 5
231 238
354 65
80 214
38 228
424 227
366 76
243 365
6 157
138 250
195 184
170 347
197 114
439 194
11 201
71 79
16 157
289 287
161 383
230 124
420 16
325 182
118 13
424 180
247 278
343 110
222 307
313 239
227 45
159 154
126 280
110 227
383 188
345 78
322 444
169 97
224 339
73 380
239 109
360 225
298 26
315 188
332 311
278 259
327 167
393 250
290 64
86 245
316 185
110 349
307 108
72 15
192 220
380 356
371 37
16 299
422 127
231 180
277 132
372 190
230 155
97 181
369 79
45 171
313 266
429 97
127 355
91 118
65 237
12 121
333 443
48 11
65 391
10 84
71 238
308 295
109 377
92 243
353 354
297 413
426 252
400 44
26 229
19 217
159 105
198 111
249 374
8 378
31 391
259 235
20 127
282 345
139 434
21 413
390 339
53 42
176 412
292 6
126 342
383 419
155 166
256 133
346 397
37 54
237 352
215 230
144 110
97 216
407 126
95 371
440 43
206 18
214 362
190 247
443 377
39 393
361 86
292 305
285 6
435 125
305 192
168 381
137 27
123 441
438 146
233 213
13 192
271 46
336 70
174 365
1 312
68 345
163 360
148 424
325 80
83 47
164 20
396 37
5 416
175 233
254 12
14 84
317 71
113 314
10 161
32 337
26 36
65 196
280 119
356 271
339 418
369 377
289 88
326 321
113 254
96 88
232 8
24 73
439 297
355 206
115 326
161 92
57 281
225 400
63 418
206 152
420 227
430 202
441 229
267 315
110 381
1 112
188 20
95 133
191 441
302 312
433 60
163 263
259 405
353 203
364 179
298 308
426 140
379 43
162 73
147 222
68 326
272 5
157 414
299 91
305 53
84 349
163 74
240 61
126 155
180 379
103 367
238 120
37 5
398 75
297 321
158 261
250 344
296 326
186 395
417 251
289 222
432 341
283 308
109 307
355 6
76 70
368 78
247 144
264 415
244 93
128 245
326 429
249 420
363 232
20 1
136 144
297 85
445 104
45 372
216 324
297 204
18 24
61 231
265 74
192 57
100 401
429 234
329 368
183 418
148 34
383 404
264 27
8 85
77 59
89 108
311 436
363 12
217 68
295 155
70 63
222 258
279 177
1 121
209 293
370 420
270 393
95 69
100 283
394 417
214 260
20 57
313 24
161 233
347 66
392 15
134 348
206 260
324 192
250 324
233 374
75 45
234 110
429 118
21 190
39 316
340 163
56 195
119 173
308 306
52 184
214 315
21 337
288 401
213 19
221 442
441 307
299 252
175 413
273 340
106 15
305 285
149 32
180 166
273 10
249 407
188 11
144 312
101 254
175 27
439 216
306 105
36 193
113 218
338 293
289 262
435 182
307 239
180 270
419 140
34 383
219 367
171 417
340 47
100 61
44 121
404 412
230 397
92 287
82 116
338 65
126 324
262 44
271 72
446 404
96 95
37 46
312 233
322 231
131 61
366 186
19 397
123 277
427 216
57 285
14 48
173 335
152 298
196 163
396 360
395 119
269 197
82 254
157 152
233 403
266 338
139 405
339 409
365 19
277 248
438 204
443 232
400 65
444 377
119 431
144 367
431 219
240 135
148 39
106 359
176 124
403 121
173 5
259 99
287 405
360 301
109 439
252 431
161 416
16 130
190 369
435 363
369 335
279 364
306 171
176 54
139 171
416 152
79 408
444 115
108 240
12 206
124 315
227 75
167 304
175 39
204 144
319 334
140 24
257 3
153 176
254 349
8 181
431 144
405 75
243 371
179 217
110 418
244 133
395 118
53 74
325 405
410 292
213 23
92 10
127 442
436 395
384 131
145 19
248 136
252 273
369 127
216 77
247 342
174 326
31 74
281 61
191 377
112 33
260 392
48 406
347 316
367 370
375 139
409 308
120 3
354 258
225 203
305 318
262 232
110 232
5 306
7 15
109 168
39 429
260 224
444 281
130 173
417 313
349 60
259 230
237 365
364 377
369 39
20 436
88 427
114 20
184 30
144 139
293 150
106 362
5 27
418 4
56 361
21 154
169 284
262 65
443 225
256 137
234 272
222 196
147 253
396 60
436 412
46 269
48 232
259 249
148 405
124 214
297 307
397 258
155 205
374 90
354 209
234 335
432 211
80 429
426 187
213 11
161 412
103 38
297 34
5 133
346 345
221 42
196 83
412 59
6 315
144 235
392 1
181 427
401 356
44 97
95 165
114 163
395 289
152 112
416 346
365 381
374 222
48 19
85 292
429 418
381 220
7 109
185 266
396 7
25 113
277 340
395 185
247 120
49 35
441 244
92 262
414 413
411 197
124 408
436 343
387 279
345 9
248 407
437 151
126 164
291 33
297 215
338 433
301 241
22 300
116 257
18 35
138 399
174 43
400 281
39 313
343 275
214 293
422 264
333 437
124 413
259 355
92 169
299 284
11 366
251 133
413 293
186 209
196 24
314 444
421 84
349 96
368 38
132 26
140 229
338 61
186 26
298 220
401 263
289 148
356 44
191 97
19 218
349 62
192 283
93 143
346 23
49 234
283 209
378 435
267 284
168 169
323 31
264 16
257 368
185 118
248 124
217 321
162 137
152 78
424 410
295 90
72 189
27 45
162 400
72 54
387 152
265 172
428 218
192 37
24 339
377 342
264 352
397 360
169 99
264 220
103 219
406 12
263 377
415 34
330 30
103 308
92 67
249 15
340 212
101 441
280 99
413 295
438 304
267 69
168 306
11 100
443 346
47 232
150 91
314 61
288 95
72 410
12 305
22 210
144 342
289 356
147 118
442 68
277 418
224 65
420 34
98 81
190 131
225 137
426 142
411 243
420 438
193 363
360 185
79 360
249 105
268 229
432 153
307 325
145 329
256 119
372 375
178 81
356 397
108 306
405 163
223 201
381 90
239 143
260 88
198 347
4 443
232 365
204 379
139 273
370 441
201 316
365 436
220 99
238 97
429 436
120 416
124 61
273 347
373 243
380 100
122 213
65 252
183 169
63 358
303 64
109 411
418 130
142 302
387 416
394 405
319 33
74 63
186 248
155 289
54 298
336 226
420 352
315 397
324 176
77 248
268 416
183 367
41 2
92 410
405 67
376 257
373 181
190 312
218 304
120 292
88 380
146 82
431 147
78 220
123 84
136 272
380 5
12 380
269 305
416 179
186 150
73 409
187 407
356 165
302 88
155 91
415 416
251 144
147 35
182 11
114 95
247 32
245 331
417 263
179 150
240 404
60 339
214 424
31 220
136 266
162 332
405 11
127 292
21 278
75 183
422 150
298 237
271 244
393 282
227 389
257 436
386 52
187 327
371 96
92 389
283 105
118 57
150 124
232 312
268 46
374 391
37 291
280 360
35 57
140 308
142 252
320 410
395 57
262 85
94 174
353 365
203 72
57 280
310 9
272 172
279 267
99 427
157 249
23 345
110 3
346 327
332 429
391 197
242 337
110 74
238 215
163 54
19 428
334 30
212 198
307 235
194 324
146 83
392 99
238 311
34 337
190 155
7 411
190 391
297 106
240 131
347 84
47 379
336 423
11 59
16 270
39 444
179 357
374 323
392 403
95 46
133 401
137 182
210 87
184 255
349 210
97 103
409 163
175 115
132 92
99 59
179 216
178 345
367 133
282 255
363 315
223 224
157 144
97 289
153 343
307 88
100 131
193 65
298 77
349 14
396 96
252 197
105 90
417 247
99 239
299 105
429 307
67 373
168 285
8 423
121 374
161 36
37 284
399 51
32 162
283 27
117 272
251 46
375 186
298 277
2 117
125 373
185 392
5 31
327 206
412 372
68 226
375 99
204 192
19 152
133 384
384 325
252 271
57 409
257 327
112 395
342 194
203 217
256 332
405 93
47 53
291 125
79 209
365 26
293 366
446 210
35 312
345 134
130 259
346 230
367 353
34 416
360 160
383 412
273 428
302 429
180 28
373 239
327 434
190 79
187 14
422 16
353 234
410 429
441 7
119 37
290 79
101 67
151 241
238 152
442 347
131 36
257 87
394 142
233 222
367 118
262 89
39 6
332 192
378 251
7 44
368 425
359 79
401 160
48 256
24 54
394 414
293 79
160 95
262 383
423 42
395 269
69 370
326 279
307 291
5 24
227 433
189 107
94 387
405 263
397 373
150 13
11 20
392 429
313 21
8 194
131 67
264 262
159 140
219 291
166 394
19 408
364 238
169 165
287 271
145 30
243 397
258 142
384 271
216 92
185 426
67 190
282 158
419 83
220 155
132 45
385 345
436 8
327 29
208 428
401 411
347 379
292 59
295 205
109 75
347 343
250 232
244 120
113 19
37 44
108 254
176 19
422 171
147 284
107 348
142 375
254 153
84 259
78 378
212 29
435 137
267 97
243 19
20 426
18 46
90 175
427 106
188 410
445 167
381 436
425 365
192 88
259 190
394 439
197 190
3 124
407 34
396 181
239 32
392 233
323 139
416 38
281 133
369 375
409 193
139 441
150 356
295 371
204 154
290 232
440 153
353 435
137 232
315 429
368 24
62 64
138 4
243 120
125 136
162 18
416 33
201 429
320 67
5 335
92 302
39 141
59 79
301 39
244 110
359 83
346 419
30 345
158 366
31 166
227 434
400 190
3 205
225 257
307 287
259 120
35 364
197 238
197 258
43 71
240 5
220 39
418 80
191 121
430 200
57 197
118 163
7 284
307 267
194 297
333 194
197 12
173 277
124 38
365 168
434 152
139 161
302 415
267 180
282 218
242 46
34 5
6 187
20 391
149 152
363 72
365 314
394 100
144 422
61 197
144 89
236 200
41 50
389 403
353 61
150 90
405 269
250 182
60 298
40 39
253 231
341 164
269 90
239 315
249 235
357 182
179 291
185 181
370 97
26 197
188 24
240 123
173 231
192 404
304 223
6 422
416 131
395 381
369 90
306 356
5 93
263 342
114 324
244 307
58 115
320 158
154 155
350 188
387 320
254 68
99 187
284 370
413 383
249 16
408 129
257 304
219 16
20 153
124 238
220 438
354 220
215 414
201 268
335 324
301 341
342 45
427 369
175 312
444 346
187 24
389 1
15 127
375 224
163 67
60 67
371 258
62 210
364 395
390 203
147 433
132 285
251 441
90 395
184 390
69 125
280 7
21 78
205 53
378 418
307 85
327 393
83 71
79 272
95 271
365 91
377 363
392 338
270 308
293 355
11 389
320 153
273 8
84 412
332 299
403 381
434 233
254 293
277 225
181 18
271 263
341 223
324 260
412 240
435 180
353 314
108 60
154 263
389 313
289 438
144 420
44 307
66 51
277 397
139 196
119 88
51 166
149 403
333 113
159 119
436 48
173 59
78 230
419 80
273 361
349 132
157 355
157 142
118 258
70 167
184 124
37 367
412 92
443 438
34 352
243 26
320 378
270 159
219 46
96 183
262 405
166 177
27 410
244 65
194 5
143 60
75 84
53 145
315 333
33 209
406 438
138 292
368 311
92 185
106 238
106 191
59 427
183 155
305 153
346 338
353 99
204 49
320 250
44 441
160 44
229 61
40 19
439 77
378 30
159 352
16 127
415 135
270 298
322 151
206 308
217 344
1 247
397 48
207 78
343 186
322 283
122 230
45 364
138 70
406 54
343 216
434 191
404 166
250 214
370 429
74 126
325 231
307 106
29 398
229 338
271 233
288 370
443 410
421 179
34 168
279 141
411 118
335 438
6 405
189 145
18 268
58 236
205 354
164 213
38 302
292 119
294 158
239 273
397 121
426 406
413 375
69 143
49 36
108 11
23 230
205 70
92 89
77 379
359 74
396 291
270 85
36 252
35 142
394 140
26 16
8 310
294 58
342 67
127 19
433 96
101 248
416 78
419 159
232 146
443 82
427 217
285 75
27 338
396 214
307 292
152 312
27 159
385 261
38 314
398 94
239 12
192 151
78 74
135 100
410 404
4 212
253 206
263 337
156 166
319 318
115 262
324 59
99 79
263 7
360 369
31 14
295 360
181 140
126 333
203 73
4 394
277 101
242 381
267 36
39 127
97 59
298 192
240 367
373 230
311 418
131 277
40 223
97 352
271 119
312 416
269 191
256 159
441 280
419 88
46 267
108 269
419 131
278 112
263 148
303 107
60 443
415 191
271 5
339 321
34 16
91 92
201 393
385 151
187 301
396 244
424 293
446 369
352 15
127 425
162 132
264 120
149 392
260 78
10 209
314 99
374 409
302 85
20 312
260 416
441 313
8 298
342 27
132 302
421 352
188 342
44 280
274 9
222 80
364 33
369 297
247 154
295 126
220 395
400 155
126 390
149 61
407 114
331 234
39 287
400 228
433 183
339 444
292 110
105 372
440 399
409 338
409 256
353 420
49 162
70 366
179 99
239 395
406 80
323 194
375 196
445 82
234 257
190 32
325 69
369 130
224 145
97 405
253 271
105 273
313 5
125 105
305 207
215 154
146 9
288 97
39 7
413 311
88 97
354 400
182 192
202 366
161 90
251 418
397 59
437 353
419 87
379 19
11 248
192 435
416 191
205 320
77 194
159 396
196 108
259 152
75 99
93 79
281 148
405 227
120 21
39 84
222 381
284 61
332 298
214 179
59 231
284 416
157 280
92 355
409 289
413 389
325 378
220 188
23 74
278 32
365 159
247 159
415 206
372 438
61 37
235 21
261 223
78 151
79 14
192 193
436 446
278 252
312 383
44 147
278 421
238 222
348 47
246 257
368 134
321 369
135 426
102 205
213 28
433 169
35 268
314 154
278 3
37 182
325 373
441 269
190 342
370 59
191 429
259 21
60 106
67 397
291 165
150 239
259 110
39 237
237 279
238 110
434 260
93 297
94 166
385 156
239 340
445 442
301 286
164 346
422 105
431 367
69 10
168 166
274 180
84 251
224 279
137 234
167 194
21 422
194 79
392 422
277 194
354 313
51 167
329 124
118 73
203 338
398 48
12 152
155 277
140 19
239 151
3 78
180 220
406 89
221 210
429 1
278 287
422 418
414 141
24 360
143 78
313 353
100 35
69 313
356 371
264 293
99 412
222 239
431 33
1 152
353 283
411 230
140 54
182 262
374 342
186 126
71 174
154 337
215 213
305 60
308 340
150 237
72 37
436 301
99 61
230 365
385 333
74 376
261 276
142 114
93 316
96 287
169 302
35 380
224 189
299 242
185 179
397 371
30 76
205 208
378 68
303 56
357 271
131 45
13 61
367 193
12 88
126 103
186 335
392 433
342 314
275 51
405 279
69 110
366 327
298 91
152 185
414 275
86 300
310 254
352 92
250 239
298 230
72 390
333 250
354 180
206 11
13 225
250 251
292 347
291 401
396 356
121 222
438 228
209 395
372 143
331 205
414 280
57 26
329 94
297 330
44 114
237 437
407 118
365 220
3 389
325 436
384 152
105 148
311 363
388 221
103 380
353 196
114 36
290 134
387 332
155 444
274 211
12 61
424 266
362 239
209 400
283 90
168 407
366 59
378 35
331 167
306 240
135 39
59 287
271 183
173 181
158 87
98 290
205 327
365 150
114 364
254 223
23 3
239 125
230 180
326 168
75 152
288 433
181 147
10 114
388 359
323 105
237 427
297 203
103 287
39 62
444 311
203 362
262 13
75 444
259 421
247 352
210 74
1 439
221 172
225 167
153 9
253 118
289 373
441 267
106 229
103 67
53 316
153 310
431 299
277 257
211 25
110 383
15 306
291 370
405 247
220 251
393 145
73 197
284 99
113 241
123 266
164 77
53 230
411 375
380 353
19 320
398 437
197 338
315 3
412 415
49 60
4 292
238 365
169 427
289 179
392 69
363 74
302 355
225 206
90 392
377 230
57 327
391 287
187 230
278 179
218 56
28 346
253 337
281 36
264 34
77 308
405 396
49 201
375 20
297 387
119 44
225 438
299 168
219 340
6 262
374 72
220 137
193 162
273 112
6 421
106 269
20 281
252 132
162 424
233 289
405 120
297 143
228 360
337 267
228 155
429 349
203 314
263 75
148 139
416 374
36 100
343 198
140 101
226 330
35 324
347 40
112 252
206 142
109 46
207 115
105 416
15 215
398 16
124 386
429 427
353 326
204 308
89 298
363 254
421 31
407 28
358 47
216 359
295 370
59 100
75 93
54 57
28 54
267 357
113 386
45 405
141 335
419 150
422 112
175 179
168 441
121 416
232 106
400 415
228 389
72 23
172 408
359 286
371 192
441 279
304 201
100 248
30 272
159 215
24 444
397 288
391 97
78 31
383 420
420 417
345 107
212 316
367 291
395 396
167 77
101 381
137 112
292 394
355 105
229 132
337 203
159 186
443 419
234 68
374 268
39 319
177 156
370 215
93 73
155 99
306 28
178 230
61 263
277 352
136 92
132 387
298 314
46 69
33 288
237 376
79 394
151 178
122 161
364 299
183 256
315 266
45 249
180 175
260 400
363 410
365 15
305 29
20 34
370 372
350 376
440 81
293 122
125 414
3 234
316 275
18 49
409 49
287 171
70 62
252 61
37 84
295 277
4 192
1 28
212 417
418 188
87 273
364 16
152 240
406 114
230 54
214 112
196 372
91 3
78 179
378 29
224 269
181 20
422 380
20 392
400 234
7 133
212 142
136 305
244 27
100 260
253 96
381 418
360 427
91 234
169 100
171 394
397 96
418 220
42 40
181 360
252 150
276 382
255 82
295 190
147 175
299 6
277 44
32 27
239 59
250 180
287 37
393 223
438 42
321 83
186 141
367 380
121 302
139 28
266 163
297 13
97 220
221 184
291 190
325 364
377 132
144 307
324 236
391 114
251 253
169 160
243 233
15 137
144 421
280 130
239 413
308 338
92 357
334 100
313 180
45 434
253 396
72 254
45 354
238 112
439 188
311 419
160 372
180 263
373 175
219 288
273 174
28 367
370 121
233 149
21 171
187 4
314 299
73 65
350 377
258 251
108 403
99 332
244 237
308 213
111 76
357 44
315 237
90 363
33 191
39 360
422 161
32 405
192 34
179 106
173 212
182 125
12 262
308 212
400 110
400 39
82 102
204 108
352 418
404 298
234 294
237 189
251 33
137 414
288 7
354 185
122 295
228 141
119 381
159 148
4 198
368 419
270 353
142 372
191 89
439 431
44 148
248 250
391 150
270 168
277 411
410 35
251 377
67 369
285 233
420 426
355 191
154 413
308 220
119 219
187 376
367 119
160 97
323 60
346 110
371 288
171 120
374 387
228 162
248 150
411 392
231 384
352 32
266 33
101 77
222 415
269 185
75 235
203 51
258 24
335 131
220 407
63 108
144 285
260 139
222 262
1 168
137 127
111 166
53 3
262 295
13 406
288 181
1 157
232 217
257 365
237 169
341 386
311 65
293 347
118 391
184 341
97 287
187 57
197 65
267 433
167 254
413 91
31 227
145 379
119 284
19 260
340 283
338 417
374 338
405 421
182 28
379 387
32 16
256 288
419 444
26 374
159 263
287 325
154 99
118 227
384 270
84 85
442 128
147 411
90 378
362 347
111 156
446 115
400 338
405 283
142 73
89 412
326 196
279 316
96 119
280 247
340 279
45 15
273 413
146 274
370 253
410 135
281 426
356 267
166 221
255 52
160 287
377 188
119 69
427 238
363 189
334 208
365 125
300 428
370 175
112 392
133 39
204 374
383 400
26 155
128 41
47 175
97 291
393 387
256 401
111 19
314 26
439 342
324 441
135 148
320 420
259 244
422 337
383 12
389 10
351 50
426 132
243 60
242 69
13 54
64 43
14 201
29 424
155 88
119 357
266 240
148 190
4 39
444 418
57 206
91 146
283 279
256 108
165 357
93 147
390 98
3 89
254 331
129 326
438 418
37 401
210 86
108 444
189 225
277 360
242 147
181 298
269 436
236 70
259 157
443 122
374 283
80 196
52 341
255 200
298 413
161 99
122 204
444 233
130 325
292 308
227 27
289 342
380 119
256 37
191 367
57 193
293 362
294 146
36 222
344 170
215 372
34 75
412 93
104 361
57 125
122 212
391 35
351 218
93 179
444 193
242 99
4 347
60 154
186 435
135 371
331 113
148 297
163 133
123 122
174 76
253 400
295 123
92 400
217 429
240 32
417 310
414 347
159 152
3 386
237 123
417 26
280 306
65 407
343 442
435 127
92 38
360 174
115 53
45 105
357 39
287 84
85 1
427 375
23 153
166 64
36 278
69 243
281 409
191 179
177 257
27 422
79 335
79 244
15 240
284 235
262 434
420 89
396 35
102 128
325 59
314 323
332 6
59 258
7 136
431 69
374 263
434 194
90 93
417 369
24 372
406 381
4 273
360 398
357 160
75 352
7 267
413 377
127 84
19 38
39 384
354 335
95 88
112 175
1 383
322 279
305 81
438 77
256 165
298 257
440 86
253 371
105 427
99 354
149 431
308 185
182 324
40 141
342 264
26 100
382 42
140 362
405 444
89 405
306 27
360 389
6 396
340 142
59 289
8 150
357 99
220 270
78 194
379 176
198 435
238 175
289 431
74 230
352 215
320 327
254 224
112 334
140 366
430 52
59 193
279 307
75 120
123 151
415 438
242 401
340 155
136 66
129 208
26 61
141 415
6 119
137 5
71 366
342 122
68 350
246 272
99 209
272 350
417 234
398 174
80 444
306 163
180 375
387 419
15 325
437 54
215 406
38 312
127 110
332 69
258 268
93 91
92 5
79 308
209 239
290 55
293 175
23 249
322 47
103 127
224 418
27 110
381 191
365 32
185 186
39 352
169 96
218 366
410 418
83 350
219 133
4 220
243 362
427 127
46 147
238 147
309 42
101 204
439 291
141 139
71 99
397 163
138 68
90 375
400 114
441 284
77 51
127 248
360 217
353 227
142 260
348 301
130 144
212 404
198 115
299 283
133 307
307 37
417 316
148 259
90 338
288 291
398 167
247 157
289 360
397 383
110 200
115 71
91 206
54 67
197 185
397 127
109 441
359 182
419 243
323 390
153 122
110 115
220 194
12 85
95 179
73 132
314 204
444 251
367 270
318 345
439 407
414 246
250 209
294 440
272 414
269 145
377 48
409 142
256 429
416 434
159 306
182 126
250 124
139 420
59 91
11 105
274 397
18 222
406 403
40 279
325 267
38 426
136 83
20 313
414 324
429 179
222 85
61 214
201 66
101 360
176 79
194 313
383 139
90 143
178 331
127 120
325 375
104 304
97 37
16 367
416 412
93 18
105 34
260 194
125 363
293 436
215 420
238 67
130 417
154 175
94 40
388 63
335 308
16 21
147 371
45 352
346 16
401 284
179 338
135 302
198 19
387 322
59 346
357 16
232 38
268 222
20 435
184 113
232 12
260 61
411 24
90 155
378 250
401 280
1 149
372 175
1 139
132 114
427 401
193 410
136 28
201 366
384 233
229 65
433 69
140 204
378 288
369 264
140 438
150 139
206 389
129 51
140 201
341 176
252 49
289 89
59 122
305 238
357 429
149 19
59 161
392 28
173 334
415 44
99 214
261 300
162 135
26 182
333 425
251 325
243 283
92 39
260 239
323 121
181 220
368 194
214 342
79 417
96 235
395 65
405 235
154 372
71 404
268 407
100 185
222 39
341 156
196 293
54 277
32 314
343 225
283 7
396 371
392 108
306 194
364 266
244 419
374 410
324 314
354 312
333 311
243 403
100 90
392 13
342 75
207 176
98 177
290 14
108 349
277 20
385 241
404 318
215 256
139 415
405 214
42 2
411 154
178 205
10 233
409 426
439 221
220 294
31 49
251 338
264 278
419 406
264 235
410 437
92 222
188 251
189 134
222 243
70 53
151 64
353 441
37 133
130 190
5 324
360 18
280 26
154 356
54 203
69 396
244 20
24 60
357 95
281 229
10 260
159 291
407 36
33 228
14 68
73 357
44 91
88 169
343 84
139 89
260 403
217 53
283 435
408 166
355 130
4 442
113 194
24 376
21 155
209 13
12 412
73 263
438 194
108 362
326 151
54 240
315 135
349 326
338 228
221 331
161 312
150 338
57 438
190 204
251 14
441 417
14 404
54 400
315 418
346 250
66 2
118 135
136 391
246 327
25 345
270 90
101 225
105 235
389 312
370 108
119 433
63 3
131 298
44 242
97 219
403 313
181 270
245 379
139 233
313 298
136 31
218 167
334 9
415 19
74 355
124 145
376 388
76 94
246 255
441 39
106 155
3 377
60 346
106 100
337 342
249 159
36 186
147 401
180 135
256 109
49 278
338 391
89 240
392 162
278 422
33 392
412 273
415 24
354 125
242 33
264 242
404 173
159 367
21 352
108 101
263 320
145 279
3 254
88 405
59 33
249 143
189 393
401 183
87 361
152 411
175 37
21 11
108 338
338 285
230 137
295 67
196 225
88 149
327 74
349 267
352 374
123 227
401 441
105 227
24 106
365 413
237 377
392 240
146 330
4 314
13 220
395 259
20 262
82 223
148 249
394 387
20 229
439 270
74 431
220 29
59 297
192 108
429 378
267 34
90 325
49 295
366 419
340 204
111 177
380 57
140 144
406 260
380 15
297 237
175 424
34 109
83 318
217 329
377 331
427 141
39 356
20 407
130 372
38 429
99 235
424 123
394 203
59 364
148 179
383 416
363 408
89 416
84 199
285 74
197 162
331 444
4 175
400 57
153 347
407 144
338 18
234 191
442 156
110 148
89 313
347 164
419 89
16 342
49 185
156 386
130 279
240 340
287 69
318 81
45 339
131 39
258 233
262 10
161 201
150 43
271 147
222 406
93 154
328 304
141 206
411 256
83 43
375 69
420 109
197 229
167 347
113 345
375 391
196 31
226 321
66 329
5 295
112 186
298 1
345 390
268 342
23 115
219 371
148 262
250 380
377 228
122 192
141 4
170 275
216 322
352 409
383 355
305 346
209 409
360 240
334 283
396 99
404 168
422 73
188 405
220 112
46 280
185 59
325 262
64 202
74 29
75 401
444 123
38 319
120 227
362 232
156 376
360 6
240 137
137 132
292 427
308 398
193 407
349 65
237 192
141 136
288 253
213 367
271 375
212 11
18 201
338 212
419 367
238 121
149 416
148 137
51 223
4 194
229 6
20 118
383 121
255 361
439 60
330 365
365 408
48 365
80 188
179 139
322 33
34 263
95 229
143 322
20 131
186 124
384 88
348 318
285 92
427 137
34 215
230 376
13 413
262 1
129 349
280 165
163 23
144 120
143 325
326 187
410 79
325 374
424 346
326 232
83 366
214 397
118 225
59 145
177 126
247 420
279 163
212 397
159 190
356 367
38 263
200 331
302 260
236 443
368 72
314 3
245 317
362 269
374 216
159 120
152 389
415 233
340 18
196 441
110 97
231 106
421 120
435 413
400 71
285 327
403 212
54 404
306 67
201 233
46 396
176 33
45 154
67 418
393 429
144 352
159 34
303 189
48 378
38 146
135 365
427 180
103 362
313 220
185 365
231 400
287 291
183 133
204 33
83 111
340 173
162 140
338 12
28 232
358 82
26 268
114 162
264 171
265 81
239 375
228 65
233 224
88 242
68 3
350 255
308 365
179 51
251 136
378 410
183 291
157 101
326 83
249 190
147 356
279 155
266 143
8 324
238 340
152 295
324 48
334 33
123 429
354 237
217 397
11 45
13 75
125 408
313 166
148 307
337 157
304 439
375 144
121 291
435 57
135 280
244 433
260 26
349 285
365 180
120 364
396 267
364 381
257 126
46 28
439 160
112 283
3 200
337 227
283 237
429 207
378 268
389 302
50 300
401 97
429 28
24 356
65 162
314 13
367 69
374 373
256 219
150 238
134 86
265 296
167 189
361 430
259 420
149 28
120 355
298 153
61 398
383 191
205 397
138 330
274 394
91 222
53 187
371 441
188 193
401 357
131 80
228 37
287 396
430 428
104 276
435 23
350 138
427 84
299 160
369 77
236 104
150 366
159 157
280 85
426 346
11 240
77 203
31 369
190 120
313 181
29 39
307 165
176 131
424 425
435 330
183 284
65 324
209 185
252 12
404 146
184 200
103 1
413 373
150 295
381 383
352 227
206 54
270 91
72 127
165 367
155 312
279 72
384 281
397 263
190 168
288 356
377 313
74 416
209 368
344 5
437 83
242 287
46 5
155 13
414 270
407 57
20 389
38 346
273 390
267 244
237 21
239 433
347 185
217 274
149 417
135 204
305 327
24 429
173 375
223 294
444 396
249 284
412 60
109 405
142 197
253 119
204 38
92 383
206 154
220 213
92 434
367 12
277 108
69 109
397 165
154 96
295 312
266 112
61 441
429 185
222 28
190 49
240 59
163 146
306 190
391 229
39 56
3 397
243 16
31 135
10 335
160 308
343 248
34 150
92 387
26 179
259 192
343 292
314 147
147 403
405 378
26 187
267 280
215 434
239 306
48 420
416 220
289 67
206 403
133 357
83 348
319 310
136 123
166 225
327 240
394 438
100 278
299 298
93 436
82 246
355 72
395 49
187 231
307 197
255 430
11 230
150 378
391 250
114 298
74 153
362 141
75 421
302 387
61 135
426 114
161 152
226 408
118 353
100 409
139 283
52 234
253 150
178 104
347 248
244 242
13 175
196 343
158 128
409 173
193 75
216 220
284 27
396 401
264 227
6 232
304 55
220 273
11 214
215 20
152 115
80 251
374 36
212 140
25 341
309 432
227 137
155 243
164 150
144 405
421 247
176 424
253 295
433 163
367 284
287 165
61 49
196 251
314 74
229 400
250 388
426 234
105 398
14 141
360 212
10 434
76 359
14 91
306 231
265 23
233 284
18 380
120 15
424 374
83 48
409 285
37 271
204 186
87 378
419 390
61 332
201 85
336 296
342 325
322 20
78 279
119 337
135 20
444 283
133 291
161 13
325 175
93 186
180 287
44 370
217 251
21 356
149 231
296 176
121 434
326 327
191 263
426 413
220 125
108 297
389 137
377 315
179 392
21 90
72 337
114 295
404 174
285 49
356 441
398 131
440 345
277 109
165 37
391 372
228 118
99 431
153 286
38 74
237 434
394 230
165 69
47 176
430 107
255 40
284 162
140 243
183 357
6 79
81 14
38 138
287 256
394 216
238 239
426 18
191 165
90 164
216 234
253 238
245 201
1 434
81 386
203 239
13 23
74 444
398 115
304 261
148 227
427 179
127 372
136 439
74 214
413 198
397 378
370 95
339 315
146 444
414 1
187 73
408 428
296 211
405 130
433 424
235 248
115 346
319 113
19 173
121 335
203 381
149 147
187 3
115 359
203 299
131 441
71 23
243 259
268 20
235 163
329 194
369 368
342 130
175 377
252 126
369 394
408 429
64 76
232 378
283 254
185 234
332 37
353 383
392 367
27 273
299 173
235 34
110 77
411 97
111 444
431 396
439 392
260 222
260 109
140 405
243 12
387 355
323 174
27 266
126 417
290 310
354 334
155 59
299 47
74 46
164 124
214 249
339 186
364 427
370 401
209 106
30 51
61 193
139 6
190 157
434 28
278 427
231 15
98 361
100 89
99 112
44 324
232 78
314 126
370 133
38 201
169 371
123 373
238 179
319 153
252 135
263 433
262 139
12 392
11 123
340 365
127 57
146 223
159 182
6 249
370 411
125 192
295 51
353 375
109 280
7 95
54 148
101 380
299 182
406 412
337 405
278 89
229 142
1 204
118 349
214 133
190 380
373 283
157 69
401 253
405 136
118 372
77 225
350 442
443 388
309 211
64 82
362 145
176 38
190 426
100 277
26 396
407 26
383 426
370 256
109 299
2 50
245 158
35 277
322 249
65 137
97 256
335 213
15 36
118 197
101 260
37 121
297 103
240 371
367 429
266 239
128 343
280 239
436 414
156 440
96 97
403 395
216 126
78 58
298 343
357 371
411 133
338 49
424 225
418 377
275 246
351 30
263 27
125 431
427 100
297 192
99 237
405 103
34 370
75 105
204 90
128 19
258 193
185 90
90 220
409 114
357 240
90 233
125 185
96 147
109 96
109 267
108 137
75 179
377 419
3 346
88 154
372 75
269 140
115 233
268 182
356 97
391 18
113 414
13 372
268 150
353 401
273 146
183 105
295 362
176 342
203 60
63 317
194 163
356 244
6 420
410 324
356 284
220 108
240 101
27 427
145 198
339 410
90 419
423 116
401 371
192 274
175 11
79 287
433 356
192 203
260 152
270 155
398 315
238 185
192 243
177 358
298 384
410 417
160 284
237 121
380 59
205 314
369 216
312 85
20 298
414 354
368 427
147 346
74 400
375 281
444 436
303 221
214 372
419 429
213 380
352 306
238 183
372 263
357 411
108 243
150 96
169 280
45 422
110 284
85 28
216 79
291 150
235 6
340 74
277 49
203 335
75 420
121 161
374 180
274 126
304 290
291 332
378 248
15 283
273 124
281 132
126 339
135 338
271 433
6 352
155 319
187 38
250 48
438 234
313 324
436 67
317 111
57 220
404 48
431 373
392 191
142 100
174 359
264 372
188 407
222 369
93 416
364 99
258 35
92 369
83 76
433 1
114 338
345 117
39 85
59 266
163 201
46 287
60 315
151 297
66 376
154 26
123 18
15 6
106 405
372 427
339 395
200 199
27 237
410 71
96 230
83 166
374 132
413 313
120 39
124 185
14 362
292 198
142 407
377 372
331 346
372 247
46 420
360 54
351 56
407 256
373 240
169 288
232 318
148 420
248 387
341 50
126 203
154 271
437 137
224 392
264 197
62 55
201 181
361 202
269 29
209 112
187 90
354 130
186 374
45 367
406 395
381 280
251 391
137 268
11 316
421 157
36 406
354 259
38 13
154 32
282 294
54 123
297 65
349 144
180 131
403 49
269 293
439 290
439 34
347 74
342 109
428 102
203 131
110 124
101 53
146 153
126 362
438 31
46 413
357 346
4 320
222 416
426 353
436 266
144 196
368 177
112 115
11 103
149 355
360 205
206 92
403 302
175 360
342 278
157 143
159 260
274 362
414 366
209 214
67 173
284 280
332 232
135 231
439 285
424 164
441 271
74 401
61 114
412 444
183 289
329 166
13 15
370 244
327 175
391 152
188 390
126 435
368 14
39 362
415 381
34 144
189 254
233 412
333 324
65 114
85 10
150 219
295 131
197 228
243 395
73 400
406 10
19 200
109 12
73 39
61 373
277 222
189 104
32 231
308 110
431 95
67 169
312 6
287 353
302 149
73 61
27 192
231 364
18 400
112 368
288 39
1 355
266 13
237 208
433 284
93 325
381 24
219 278
225 234
67 377
416 424
347 47
307 135
37 357
397 173
425 113
387 201
179 165
236 188
373 324
192 153
30 141
219 183
18 374
201 260
338 139
49 406
77 153
108 340
116 376
127 319
238 214
312 59
183 187
183 299
53 341
165 253
412 302
318 117
253 88
148 264
291 44
308 59
30 29
35 45
48 39
242 371
157 215
78 36
405 416
166 419
270 240
403 383
92 114
33 185
19 23
59 337
384 269
221 195
14 4
400 28
414 316
175 231
99 291
418 181
371 291
427 93
335 124
343 435
145 137
324 7
160 242
143 283
230 340
16 353
406 324
340 295
88 165
191 214
345 141
228 407
204 12
75 264
274 43
165 130
354 375
10 168
194 234
100 31
151 266
188 294
122 67
435 28
436 347
85 389
161 325
115 136
297 166
194 164
187 305
180 356
99 93
256 39
185 239
92 85
159 204
222 150
65 263
289 213
209 179
14 198
321 68
154 421
288 439
444 443
147 256
143 389
103 212
13 74
368 414
31 294
135 374
417 283
300 156
254 155
233 89
214 188
377 83
253 185
238 312
204 243
105 44
120 289
18 334
160 307
92 381
259 422
132 391
325 370
429 386
410 137
230 157
252 114
312 262
171 105
23 143
57 142
3 230
234 302
90 6
13 193
136 3
8 279
260 110
221 29
353 182
145 66
5 170
90 57
203 1
427 347
247 31
113 437
435 168
197 18
273 414
5 417
415 397
160 280
42 290
108 419
186 28
397 155
24 212
32 227
390 382
176 262
124 201
182 409
181 166
82 344
90 334
271 367
125 162
391 61
237 444
252 268
196 342
1 232
340 151
353 58
313 236
39 275
193 73
243 352
297 435
420 263
157 97
209 217
325 179
228 92
120 34
150 294
107 399
406 375
325 266
250 342
224 24
254 362
338 73
28 152
70 3
101 243
101 103
1 92
85 233
196 419
6 306
187 123
358 368
333 14
188 271
274 30
35 407
319 353
74 342
416 389
102 321
404 200
206 196
325 95
269 287
132 57
106 368
183 79
192 424
211 201
153 8
131 308
269 267
211 442
139 190
285 61
239 154
32 395
359 404
312 118
291 214
425 137
243 324
217 141
268 406
239 132
231 147
354 137
278 148
366 185
118 410
359 393
144 264
151 230
100 193
424 101
232 182
280 240
227 190
179 269
103 368
444 232
131 91
63 22
131 204
270 332
311 36
110 78
250 86
47 250
29 38
410 186
11 283
225 191
297 5
298 426
335 225
49 96
230 31
150 196
139 147
84 312
412 260
193 229
278 6
400 394
366 398
298 222
213 435
313 150
435 368
201 374
353 333
176 23
275 379
383 155
249 419
396 307
153 58
137 269
380 61
280 147
190 34
11 29
163 289
84 106
60 429
391 271
168 308
201 379
351 19
219 411
99 248
149 97
422 412
225 212
267 96
201 255
280 230
157 15
294 79
130 239
248 84
212 123
239 157
78 178
347 275
231 163
106 26
14 343
208 378
365 305
63 300
355 434
162 142
356 256
323 239
441 147
15 247
391 405
228 91
253 284
186 356
391 380
424 253
73 215
446 76
237 314
360 213
171 69
442 414
347 204
57 264
381 225
267 268
314 53
412 389
43 76
140 185
173 368
287 441
74 232
175 285
346 431
383 74
372 136
324 36
247 105
338 271
325 44
312 99
247 429
314 422
330 419
174 31
408 39
233 152
174 83
266 231
151 277
168 206
307 154
252 287
391 142
375 174
104 318
137 143
150 389
66 71
441 391
38 320
87 301
240 419
320 421
199 98
418 443
239 269
355 424
3 121
137 53
279 140
384 33
280 5
311 60
353 162
177 124
365 181
285 118
298 365
295 400
239 324
92 150
299 171
287 267
259 15
215 267
338 127
48 292
356 7
301 319
286 232
99 90
28 247
410 257
95 244
425 185
61 57
126 394
394 343
44 259
173 159
237 256
373 291
381 106
161 1
114 123
322 440
298 24
157 401
179 112
37 280
149 381
349 288
413 106
338 268
277 16
222 123
256 75
278 311
335 212
411 284
39 427
429 173
143 427
38 115
18 164
337 105
434 188
99 260
85 324
404 211
16 75
10 222
288 165
154 405
121 259
8 68
316 200
420 32
20 61
192 131
285 260
26 110
146 150
277 204
84 234
31 194
249 36
268 284
91 89
54 346
229 135
182 155
405 155
405 237
9 301
49 364
46 168
150 298
192 419
137 250
14 110
245 388
103 213
367 277
31 53
413 43
215 292
187 418
293 238
178 172
176 145
168 43
405 219
278 48
240 140
135 147
179 28
396 89
334 254
238 395
235 18
1 12
171 23
178 318
8 299
169 411
103 354
420 105
13 39
142 132
274 413
420 372
420 45
188 37
39 422
237 436
186 364
1 135
342 421
143 313
11 422
237 332
24 213
370 182
188 281
