Vertices 140
103 "#103"
33 "#59"
17 "#111"
138 "#121"
86 "#27"
26 "#70"
65 "#76"
19 "#93"
47 "#75"
104 "#74"
130 "#122"
69 "#65"
77 "#139"
87 "#33"
117 "#117"
95 "#114"
28 "#51"
139 "#81"
110 "#128"
15 "#66"
43 "#32"
82 "#123"
66 "#39"
48 "#101"
38 "#29"
99 "#47"
31 "#132"
34 "#104"
140 "#53"
125 "#113"
106 "#50"
128 "#8"
135 "#86"
129 "#23"
112 "#11"
88 "#25"
132 "#77"
113 "#62"
61 "#5"
62 "#55"
96 "#105"
70 "#1"
137 "#120"
51 "#107"
4 "#43"
14 "#15"
107 "#34"
53 "#22"
89 "#35"
46 "#89"
67 "#112"
1 "#133"
27 "#44"
6 "#84"
74 "#138"
64 "#83"
136 "#125"
60 "#72"
100 "#97"
115 "#91"
80 "#52"
8 "#54"
39 "#129"
76 "#42"
36 "#58"
52 "#12"
12 "#96"
30 "#16"
45 "#61"
25 "#92"
21 "#7"
111 "#135"
114 "#102"
16 "#90"
79 "#57"
85 "#119"
41 "#24"
10 "#118"
81 "#18"
78 "#106"
124 "#100"
93 "#26"
134 "#87"
73 "#6"
18 "#49"
11 "#115"
57 "#82"
58 "#14"
94 "#10"
75 "#130"
32 "#36"
20 "#127"
49 "#30"
83 "#88"
122 "#110"
68 "#60"
126 "#64"
24 "#137"
84 "#71"
131 "#28"
119 "#134"
105 "#48"
133 "#98"
118 "#116"
101 "#108"
127 "#0"
9 "#56"
35 "#17"
97 "#80"
5 "#45"
102 "#4"
116 "#13"
91 "#109"
109 "#31"
29 "#67"
90 "#131"
72 "#2"
42 "#68"
23 "#37"
123 "#94"
55 "#38"
2 "#3"
120 "#69"
92 "#126"
22 "#79"
63 "#63"
98 "#40"
59 "#95"
50 "#9"
3 "#19"
54 "#136"
37 "#124"
7 "#85"
121 "#78"
56 "#20"
71 "#46"
40 "#41"
108 "#21"
44 "#99"
13 "#73"
Edges
106 63
84 56
62 112
22 104
6 97
53 131
77 110
39 90
125 96
107 59
32 113
12 136
75 22
134 19
55 115
89 104
42 107
33 109
98 3
107 138
70 108
119 53
49 88
125 101
133 100
126 5
9 117
18 107
93 73
49 59
126 129
64 95
17 91
125 130
18 41
129 32
17 52
98 12
5 40
92 118
127 97
86 119
68 49
91 67
140 41
18 113
76 133
41 4
82 18
127 104
29 46
3 59
126 13
57 115
104 98
10 136
52 15
96 95
6 40
3 25
12 100
83 9
109 42
32 56
104 138
95 17
122 129
65 132
85 136
117 37
51 101
67 36
94 121
7 18
31 54
133 123
25 115
19 16
25 83
95 28
73 3
121 97
53 4
32 28
107 64
139 64
51 96
104 47
124 44
57 97
139 13
115 46
88 59
51 122
32 4
138 130
36 47
31 25
99 54
4 129
133 12
124 115
128 50
112 99
49 138
110 13
22 132
15 102
26 36
2 129
69 77
36 80
137 140
105 126
24 20
12 114
20 75
23 122
120 51
104 13
55 110
10 117
59 65
134 107
108 2
78 17
85 117
100 122
109 126
40 22
112 56
37 85
119 54
18 64
116 29
104 36
11 117
105 63
93 40
109 64
116 72
24 39
102 36
82 44
109 124
139 57
28 102
3 26
136 111
79 73
8 76
111 114
33 73
126 101
31 36
98 16
89 80
115 65
125 17
57 36
115 7
54 116
19 25
132 111
125 24
72 86
83 46
38 30
125 11
90 136
3 64
132 57
3 139
137 68
84 109
82 10
62 106
130 92
138 10
65 104
25 46
67 135
84 60
97 13
34 67
98 62
110 84
49 106
60 9
45 52
35 132
139 16
44 127
31 110
100 23
4 24
131 103
82 11
60 89
19 7
6 13
26 123
136 11
95 51
4 11
98 2
17 60
7 135
3 35
91 95
13 130
3 58
123 59
13 36
135 55
100 109
104 60
94 83
110 39
138 53
40 10
20 135
123 114
89 126
64 6
33 72
135 5
130 117
120 109
46 16
12 44
11 10
120 122
22 94
51 17
133 48
78 51
123 103
3 100
98 139
71 30
116 46
123 126
24 75
48 69
94 76
28 91
133 15
25 64
82 138
111 75
55 132
29 45
103 118
56 23
12 86
7 46
80 81
112 35
30 47
47 65
117 82
95 86
90 112
36 46
86 74
106 51
27 71
81 70
92 85
31 84
130 107
115 74
125 59
127 12
99 4
24 16
97 49
119 4
99 129
96 52
85 10
15 89
107 92
127 35
87 127
87 101
99 3
137 11
57 52
122 101
39 111
63 27
48 44
90 110
78 49
90 15
83 29
57 60
13 84
14 38
47 13
111 54
71 119
17 122
81 109
69 131
138 119
123 107
9 124
87 39
97 104
30 119
7 16
72 31
25 139
47 35
4 113
16 135
11 138
75 31
26 59
97 22
89 43
96 117
45 2
96 67
130 40
109 73
22 138
13 112
114 133
88 85
117 23
34 135
33 90
118 53
1 74
88 82
39 54
98 112
39 77
134 46
35 137
82 136
24 1
24 110
110 135
103 133
50 135
137 138
137 82
90 117
59 126
99 15
23 72
1 135
21 31
58 107
102 58
36 23
114 127
128 112
50 67
118 126
110 28
79 33
126 63
86 68
57 96
47 16
84 65
130 118
45 87
20 31
3 14
98 56
31 139
106 48
10 86
34 125
77 1
140 128
102 79
13 138
40 73
85 118
15 13
137 85
103 69
88 128
18 1
122 95
12 108
20 74
59 23
33 9
108 32
25 134
106 40
17 88
132 102
23 128
75 94
18 87
14 99
87 50
76 79
31 39
92 138
131 80
52 140
90 2
25 135
79 94
38 8
89 32
132 137
76 100
115 135
111 15
116 17
43 53
116 81
94 8
82 36
42 64
33 55
59 8
37 10
121 36
37 130
81 66
104 3
129 121
6 22
91 64
127 108
24 90
134 26
98 60
4 36
88 10
125 91
48 12
136 138
134 135
81 87
83 135
18 92
6 139
55 13
4 56
89 36
104 92
81 53
86 115
55 58
11 118
118 37
16 83
39 86
29 87
33 100
31 59
68 94
85 19
41 56
39 68
60 52
57 22
112 89
109 93
135 62
82 46
124 48
122 125
112 60
81 27
21 15
36 56
63 15
40 82
85 103
124 133
90 1
114 105
34 51
70 2
14 35
62 66
8 48
119 31
8 79
3 16
121 139
119 1
132 121
33 127
126 17
54 112
75 77
49 45
20 54
28 56
35 98
71 54
92 117
60 97
12 10
36 103
98 64
54 90
113 108
100 128
125 49
107 126
139 83
66 87
127 94
105 89
17 96
65 6
35 2
42 98
59 47
126 36
49 27
61 107
81 62
96 78
106 101
28 36
98 31
78 67
41 128
124 103
109 115
13 121
101 67
16 75
125 95
75 86
9 128
65 134
44 100
93 98
39 20
74 111
116 6
128 16
26 47
24 119
99 62
8 133
63 127
121 104
86 53
111 1
24 117
96 122
2 131
24 82
84 86
33 112
84 135
89 42
138 36
31 135
115 49
60 65
117 72
111 102
49 41
133 59
94 16
58 38
72 115
64 28
114 48
109 49
88 36
101 17
118 22
106 67
7 134
96 36
129 101
108 87
9 140
44 125
117 136
53 2
74 75
62 140
24 31
30 77
133 97
96 126
9 16
82 17
13 92
82 118
13 98
32 121
77 31
92 37
73 32
137 70
131 73
67 63
17 57
104 112
131 105
1 136
137 69
23 33
75 39
109 30
74 31
79 3
105 127
102 32
131 129
49 71
124 75
57 100
76 97
138 37
105 108
59 124
31 111
121 22
103 100
5 30
115 107
110 1
95 109
53 24
132 85
118 117
12 105
128 3
100 48
127 73
123 124
31 13
126 58
23 4
6 132
20 1
15 18
97 139
9 114
137 118
58 66
19 83
121 119
90 102
40 120
89 45
67 90
68 33
113 88
30 80
9 102
39 119
114 59
73 139
97 9
96 34
103 48
124 114
120 111
136 118
10 118
91 78
100 59
63 41
102 73
86 87
129 35
130 136
11 37
135 49
6 36
63 42
66 105
131 30
33 58
139 55
48 131
134 115
35 38
44 59
118 138
107 41
3 102
9 15
6 17
84 23
115 136
107 26
65 125
13 41
7 33
62 56
44 105
19 46
126 15
32 36
9 21
9 127
126 95
107 109
121 126
83 3
135 46
29 15
82 130
106 42
26 104
34 50
90 74
24 54
21 112
101 96
17 118
63 29
54 40
112 42
68 79
50 140
108 90
85 11
140 65
105 62
9 18
16 115
102 55
87 105
57 117
13 89
54 102
36 78
114 103
53 45
31 1
97 94
30 95
70 45
28 63
129 80
45 43
12 20
24 74
18 88
30 120
24 111
84 104
131 35
137 10
79 58
52 53
16 81
13 109
5 62
99 18
47 100
107 66
139 132
73 67
119 20
128 123
29 52
63 102
10 52
20 111
113 23
86 109
109 57
129 109
12 9
95 67
127 22
9 79
18 22
83 116
22 72
57 121
136 18
86 56
53 70
25 24
32 57
102 71
13 26
77 54
23 140
59 103
127 116
105 81
132 64
11 94
135 40
39 59
76 33
68 140
60 42
50 9
107 21
20 102
67 122
74 77
130 85
76 49
123 131
41 50
15 67
118 127
89 129
44 133
31 115
52 65
39 1
108 24
119 74
68 8
20 3
54 75
115 100
75 90
67 17
42 29
77 24
4 21
60 121
26 34
8 131
11 130
107 65
66 126
7 25
25 16
105 9
72 9
23 32
114 44
124 78
113 56
23 95
124 14
27 120
41 42
10 130
113 123
63 33
127 14
16 134
82 37
40 62
71 28
126 80
84 26
67 51
97 132
105 15
1 55
74 54
32 139
57 59
126 72
136 37
119 132
115 15
29 2
64 57
71 36
90 20
119 77
36 35
138 24
35 44
54 55
12 59
64 97
84 47
61 91
111 69
17 11
138 117
15 8
21 33
40 126
12 124
32 86
78 95
110 115
37 137
36 17
71 38
122 78
129 57
136 92
98 83
135 90
125 124
89 121
123 63
118 4
82 108
87 62
48 59
68 76
74 39
116 40
50 16
80 109
54 120
34 17
34 59
77 111
63 73
90 111
99 69
52 9
125 26
96 91
70 131
127 49
107 13
32 84
55 20
49 118
15 112
34 78
88 9
122 34
110 75
4 138
52 2
50 45
124 100
51 91
1 75
20 114
5 120
52 99
74 110
106 29
100 114
137 103
86 23
18 33
125 67
122 91
3 36
103 12
12 53
46 33
56 64
55 2
127 138
19 115
118 72
47 60
77 20
19 68
33 116
115 83
121 6
21 116
34 95
4 80
138 85
85 35
103 78
59 20
140 88
107 15
12 31
51 125
130 49
111 119
105 129
49 95
57 9
42 95
21 119
11 101
74 72
65 50
20 110
44 11
96 6
89 53
31 90
26 65
34 91
30 8
41 138
81 131
110 111
126 30
64 121
118 86
70 59
115 75
8 71
109 4
29 139
82 92
99 9
138 18
133 49
33 93
127 38
95 97
30 27
90 119
36 129
