*Vertices 187
47 "#65"
33 "#19"
147 "#72"
15 "#66"
6 "#88"
84 "#34"
69 "#166"
81 "#160"
30 "#163"
36 "#108"
122 "#29"
177 "#97"
124 "#180"
10 "#85"
102 "#141"
185 "#55"
83 "#38"
115 "#139"
71 "#21"
8 "#142"
104 "#144"
119 "#16"
156 "#114"
159 "#109"
166 "#138"
139 "#111"
120 "#113"
105 "#127"
78 "#129"
157 "#159"
168 "#7"
25 "#122"
50 "#84"
171 "#70"
164 "#161"
86 "#71"
85 "#170"
117 "#174"
46 "#42"
114 "#77"
56 "#17"
14 "#136"
49 "#116"
66 "#36"
74 "#146"
186 "#147"
67 "#87"
96 "#56"
38 "#76"
154 "#119"
109 "#67"
149 "#68"
17 "#25"
23 "#118"
7 "#154"
173 "#181"
101 "#10"
123 "#133"
126 "#135"
133 "#62"
68 "#152"
175 "#137"
128 "#120"
65 "#27"
32 "#98"
48 "#106"
21 "#48"
77 "#90"
11 "#112"
167 "#143"
22 "#74"
135 "#186"
13 "#134"
54 "#80"
111 "#110"
91 "#107"
57 "#6"
155 "#78"
170 "#12"
9 "#153"
97 "#45"
41 "#81"
89 "#149"
45 "#60"
146 "#23"
161 "#132"
28 "#22"
4 "#115"
143 "#185"
131 "#151"
172 "#176"
80 "#91"
110 "#175"
64 "#131"
127 "#89"
180 "#61"
153 "#49"
103 "#148"
75 "#15"
129 "#99"
92 "#18"
162 "#140"
87 "#73"
63 "#162"
19 "#44"
20 "#126"
151 "#4"
29 "#184"
137 "#50"
79 "#32"
116 "#53"
3 "#83"
118 "#1"
34 "#96"
134 "#11"
178 "#165"
51 "#100"
44 "#128"
18 "#124"
35 "#155"
95 "#82"
26 "#171"
39 "#145"
145 "#102"
53 "#33"
2 "#183"
141 "#2"
165 "#79"
72 "#157"
125 "#13"
61 "#63"
82 "#104"
160 "#173"
5 "#182"
113 "#101"
174 "#5"
136 "#40"
90 "#179"
52 "#39"
37 "#0"
60 "#26"
70 "#14"
94 "#20"
58 "#30"
112 "#94"
187 "#41"
184 "#52"
132 "#58"
138 "#103"
150 "#24"
158 "#3"
93 "#123"
62 "#31"
59 "#178"
27 "#164"
179 "#158"
183 "#177"
121 "#86"
73 "#167"
144 "#125"
16 "#51"
142 "#172"
108 "#57"
107 "#46"
169 "#156"
163 "#9"
176 "#54"
152 "#69"
55 "#28"
31 "#37"
106 "#75"
130 "#43"
98 "#169"
1 "#168"
88 "#130"
76 "#64"
140 "#92"
148 "#105"
100 "#8"
12 "#35"
181 "#117"
182 "#93"
43 "#47"
40 "#150"
99 "#59"
24 "#95"
42 "#121"
*Edges
66 118
94 184
129 34
72 98
171 175
168 126
145 34
82 23
52 21
95 45
109 46
15 107
169 63
137 139
42 18
122 127
90 124
59 142
93 128
16 75
184 176
74 8
43 45
134 125
158 149
45 161
147 38
124 125
5 142
8 167
21 134
185 109
80 103
35 72
135 29
130 106
49 42
110 142
186 74
133 184
30 54
109 65
155 95
28 168
132 31
132 131
141 75
80 113
116 122
173 90
16 97
57 176
162 97
80 77
30 157
139 31
85 59
162 74
14 115
52 94
37 184
47 53
122 168
147 87
107 99
3 70
22 79
48 122
149 94
45 134
19 167
82 147
152 43
60 47
127 186
174 37
6 127
29 26
23 47
136 187
64 123
99 92
134 136
31 61
78 115
52 153
117 29
118 56
97 149
130 101
88 108
40 9
22 171
74 185
121 127
47 61
179 69
51 129
170 61
181 86
176 168
147 136
6 77
156 139
154 144
54 128
114 3
102 104
164 72
180 53
19 181
116 76
37 140
187 151
142 135
89 183
23 187
43 16
41 95
122 146
160 59
55 94
57 99
96 100
170 101
34 51
78 45
37 176
186 162
128 65
26 160
122 112
136 79
74 104
185 51
186 136
15 180
81 27
176 97
55 176
68 102
137 153
146 171
163 45
98 164
155 176
131 74
101 15
93 42
82 120
83 58
75 107
42 25
167 162
185 182
159 139
22 94
93 37
99 151
22 86
86 75
26 135
11 48
157 178
56 76
160 142
38 87
45 61
99 47
130 186
161 166
81 105
25 54
53 70
121 182
93 174
37 46
159 148
74 167
58 24
134 152
132 186
49 18
186 1
65 11
181 128
17 175
75 132
107 134
160 117
168 61
70 47
179 35
34 24
36 120
83 84
63 27
50 95
122 66
171 70
95 54
173 5
83 16
46 32
74 39
136 53
139 143
26 124
107 53
42 154
66 107
43 56
15 125
63 69
48 65
174 84
77 55
164 30
95 67
21 66
133 21
14 88
168 153
23 176
122 57
6 80
117 30
38 86
52 156
29 160
63 72
47 50
168 94
181 117
95 153
127 77
56 17
76 45
3 50
91 156
99 112
151 105
133 151
77 168
183 173
69 100
85 29
164 175
147 10
146 130
129 49
185 99
52 28
64 81
46 33
148 120
95 165
162 8
54 182
23 164
60 168
60 133
10 127
153 106
95 99
55 141
94 129
144 20
62 151
166 115
68 8
180 148
1 169
71 21
136 97
180 146
187 55
41 165
94 145
84 133
139 182
14 105
85 90
162 136
88 64
9 131
171 80
76 57
117 5
77 31
9 8
56 100
85 117
72 175
170 100
95 80
136 184
60 156
130 77
58 163
52 133
90 2
132 162
61 146
13 166
5 183
30 73
61 65
46 108
146 137
60 31
94 31
161 44
16 96
31 82
43 161
30 1
72 81
22 67
157 27
17 23
124 85
12 168
112 177
115 126
81 73
43 136
176 136
108 33
140 127
79 21
22 122
119 19
156 55
168 31
77 82
7 156
141 19
168 83
35 164
97 76
124 52
176 82
64 14
184 152
156 82
43 53
171 50
89 167
105 126
39 131
46 184
126 166
162 131
171 73
117 178
45 150
186 40
90 29
5 124
144 181
15 127
147 86
88 46
108 176
33 158
54 155
123 127
186 102
178 7
100 150
66 116
171 145
181 167
30 181
91 139
15 122
87 166
143 29
142 90
33 185
136 22
151 152
48 158
7 169
147 186
101 45
4 181
170 79
165 3
90 143
187 33
92 145
155 50
166 105
130 35
178 164
51 24
140 123
102 89
130 122
157 72
98 100
127 166
122 140
186 166
83 95
123 78
114 95
184 75
177 145
17 66
139 124
126 13
107 178
143 173
97 37
178 85
172 90
52 92
140 112
177 129
65 146
178 30
108 151
74 51
11 91
84 187
47 176
56 176
138 70
58 122
102 74
34 177
41 50
63 7
130 119
3 137
65 122
167 104
144 30
47 184
19 52
28 150
31 65
20 18
151 116
27 98
5 7
100 43
172 160
187 17
58 101
115 44
7 164
126 61
48 101
128 25
170 116
153 141
25 182
180 101
107 33
75 92
108 73
166 123
122 118
104 40
176 122
98 179
57 61
131 103
183 135
177 138
98 7
172 142
152 180
47 45
5 156
33 99
146 153
16 130
64 13
105 152
18 128
83 33
58 185
159 91
96 146
113 116
54 65
88 115
119 101
114 50
145 175
137 167
20 42
74 68
121 140
11 37
80 23
164 73
53 133
128 42
63 1
68 186
127 79
151 180
137 31
43 130
42 182
183 28
144 18
98 103
49 144
153 62
79 58
100 80
60 33
116 111
179 164
146 170
19 118
39 102
139 48
92 15
124 183
31 182
173 168
137 180
185 134
180 60
60 111
165 25
96 70
114 147
88 175
133 180
181 18
107 21
61 99
15 43
186 8
54 185
68 103
120 11
102 8
147 130
42 144
182 140
108 79
17 10
122 153
136 132
160 143
116 58
172 2
186 87
1 27
117 142
100 101
11 31
113 51
88 44
185 92
97 57
62 108
10 92
50 187
80 136
178 73
22 145
94 88
6 140
58 133
169 98
64 152
112 24
37 31
60 150
17 50
90 110
152 109
22 147
5 94
160 2
177 48
28 106
29 59
116 80
139 3
148 139
123 105
135 59
52 138
51 145
30 63
130 96
87 152
118 21
40 102
130 1
136 6
56 122
7 72
64 105
170 70
157 7
156 148
77 146
98 178
35 27
157 98
58 33
20 139
60 55
171 147
87 22
93 18
96 75
151 72
4 144
58 21
76 75
78 161
67 10
5 143
177 24
136 131
52 107
136 58
107 137
126 175
176 94
39 89
179 63
71 58
136 185
153 187
132 141
66 46
16 184
181 93
136 153
126 44
52 84
52 5
17 100
89 104
70 73
48 55
89 28
171 38
163 24
66 61
141 52
5 90
31 147
5 29
161 134
65 25
171 12
72 73
184 130
101 96
182 77
118 84
83 97
66 33
120 91
64 161
132 28
171 77
23 42
163 46
182 67
32 185
55 45
114 53
27 179
118 15
49 25
56 57
182 34
71 15
22 175
65 70
108 21
26 59
85 183
75 145
175 49
109 146
58 56
37 76
33 136
91 148
118 10
167 186
76 101
96 109
109 45
66 163
144 54
161 123
114 41
100 49
73 157
157 81
10 6
165 114
87 76
82 148
131 68
47 57
135 5
16 14
170 58
44 94
130 116
47 28
34 113
6 16
50 34
117 183
184 119
117 124
15 56
79 123
78 166
152 81
20 4
33 156
182 80
83 56
88 171
6 14
114 45
83 170
44 22
138 112
63 73
77 67
65 42
43 180
67 6
110 135
14 78
8 40
41 54
69 27
58 137
138 3
170 46
62 136
61 153
114 100
94 97
182 133
125 46
143 183
77 151
155 3
16 119
145 129
59 124
158 55
136 116
185 128
54 165
182 65
179 1
41 155
9 162
178 75
165 50
50 83
120 139
118 174
160 135
88 105
156 29
129 24
113 24
182 50
111 82
108 70
91 82
101 148
94 57
69 1
140 41
170 96
36 148
113 177
50 23
176 76
83 122
47 55
126 64
55 75
35 98
181 42
144 116
80 185
99 21
152 53
100 12
72 30
33 134
73 12
122 106
13 115
119 134
25 154
64 166
171 151
97 56
44 64
152 15
25 4
182 137
147 116
6 182
126 78
100 70
51 177
38 22
12 17
104 186
101 109
18 25
48 120
40 131
128 38
13 88
92 136
20 49
87 133
58 46
184 158
23 179
97 131
62 187
16 100
179 178
17 168
78 64
72 169
83 100
83 57
108 47
76 94
186 131
170 168
186 15
94 7
185 42
125 119
113 145
141 107
85 142
13 78
117 90
108 84
153 66
13 14
115 64
143 142
58 15
120 159
160 85
80 164
17 61
94 47
87 184
162 173
104 131
4 18
26 183
106 38
122 45
114 133
69 103
105 164
77 140
120 111
99 136
53 182
167 131
139 55
76 185
33 88
49 17
110 117
47 65
105 161
77 170
80 127
154 93
122 186
82 60
31 97
49 128
116 60
59 110
39 104
116 87
153 83
134 66
30 98
142 29
116 137
156 159
48 180
41 3
130 22
134 99
19 153
63 98
1 157
184 19
60 17
66 137
105 175
19 16
37 49
136 15
113 129
128 23
152 158
158 139
19 84
168 95
55 61
12 133
80 32
176 181
83 185
12 122
106 146
78 38
165 155
80 179
31 146
175 44
50 168
54 42
65 185
6 31
88 145
49 181
174 137
96 83
187 176
79 46
160 90
148 48
45 112
58 184
155 51
20 23
3 52
140 67
166 175
161 126
69 72
164 169
29 52
157 164
5 59
20 93
8 104
45 100
5 85
183 59
44 145
40 68
106 171
89 131
44 78
94 124
22 88
14 161
185 46
22 116
77 61
99 50
138 24
73 98
31 28
140 80
103 100
20 124
134 43
25 20
170 31
168 92
43 12
140 45
79 147
124 29
89 186
171 44
147 77
80 50
88 58
126 14
171 170
84 47
151 60
82 37
60 28
166 122
187 58
121 12
89 8
169 69
23 144
33 180
100 175
73 27
37 163
167 102
148 177
83 70
110 124
178 169
154 20
131 8
53 101
133 185
22 12
77 10
147 53
26 143
151 84
22 43
53 15
36 159
108 65
86 76
28 136
151 81
156 137
45 99
51 31
6 121
120 156
94 156
69 80
106 87
27 164
187 83
178 72
181 25
75 129
45 97
130 75
11 82
171 86
57 55
85 26
19 107
129 92
151 176
144 25
145 24
181 178
87 127
55 130
116 67
67 122
105 115
94 133
157 169
100 95
84 136
84 33
85 135
80 121
1 81
97 100
65 152
59 117
119 53
96 184
11 156
171 87
99 66
39 167
12 76
53 137
114 182
40 89
67 80
132 168
105 78
154 23
185 12
92 94
