*Vertices 134
118 "#71"
105 "#4"
123 "#29"
82 "#120"
66 "#56"
19 "#60"
42 "#55"
11 "#101"
20 "#5"
1 "#61"
40 "#73"
69 "#16"
90 "#116"
65 "#47"
128 "#126"
89 "#0"
92 "#7"
14 "#8"
126 "#32"
16 "#130"
5 "#128"
131 "#74"
134 "#82"
120 "#90"
10 "#97"
37 "#84"
38 "#37"
50 "#44"
30 "#129"
54 "#75"
6 "#11"
129 "#22"
110 "#88"
44 "#133"
22 "#3"
23 "#31"
116 "#33"
81 "#42"
7 "#87"
45 "#121"
98 "#100"
24 "#112"
21 "#113"
53 "#9"
60 "#66"
49 "#24"
34 "#52"
36 "#105"
97 "#50"
78 "#19"
132 "#80"
87 "#127"
26 "#125"
39 "#96"
83 "#53"
8 "#62"
15 "#70"
35 "#98"
115 "#39"
2 "#40"
121 "#132"
117 "#28"
109 "#68"
63 "#91"
74 "#104"
68 "#72"
25 "#30"
94 "#83"
75 "#63"
58 "#41"
18 "#110"
17 "#94"
96 "#92"
114 "#58"
41 "#57"
46 "#34"
51 "#45"
76 "#13"
29 "#49"
13 "#54"
133 "#43"
73 "#111"
47 "#102"
100 "#93"
108 "#124"
31 "#122"
71 "#77"
113 "#114"
104 "#27"
33 "#95"
95 "#59"
103 "#51"
43 "#99"
3 "#2"
84 "#86"
55 "#46"
57 "#103"
85 "#119"
88 "#108"
56 "#115"
127 "#107"
93 "#106"
101 "#1"
77 "#25"
80 "#20"
28 "#118"
67 "#64"
79 "#48"
72 "#23"
99 "#76"
32 "#12"
64 "#109"
122 "#81"
4 "#89"
91 "#18"
48 "#67"
124 "#38"
12 "#14"
119 "#78"
106 "#26"
61 "#79"
9 "#85"
70 "#65"
107 "#117"
125 "#35"
86 "#36"
27 "#10"
112 "#15"
111 "#123"
52 "#17"
62 "#131"
59 "#6"
130 "#69"
102 "#21"
*Edges
43 120
130 80
101 42
18 15
49 107
104 126
29 95
98 43
111 87
67 74
99 124
113 30
80 43
56 116
95 63
14 31
50 55
24 98
111 103
90 18
75 70
70 14
95 109
65 42
87 132
84 110
21 90
122 110
69 54
134 7
73 81
114 15
131 102
116 103
40 7
16 109
92 15
98 2
130 25
9 17
42 103
22 39
121 106
13 42
47 18
47 87
94 69
26 108
47 44
35 4
37 96
108 71
124 132
89 118
36 95
124 112
131 34
6 17
59 15
97 85
47 85
121 119
46 82
68 121
99 14
89 82
42 72
122 78
65 119
54 129
109 62
111 127
82 79
80 40
73 83
1 120
34 33
78 95
116 9
25 50
13 103
53 34
73 14
15 58
107 9
65 68
70 60
26 128
30 58
107 18
130 75
66 42
30 62
48 33
21 23
11 119
46 41
72 4
109 97
122 128
114 6
93 35
75 67
55 18
114 50
109 39
63 82
11 123
85 113
77 93
67 14
95 25
45 105
103 107
91 132
109 93
102 10
95 34
27 131
105 87
128 120
73 108
67 94
77 44
9 33
61 49
127 77
4 41
113 21
28 56
80 39
11 62
48 115
109 65
115 13
6 128
95 12
11 74
66 18
131 64
114 94
92 62
70 85
65 59
33 74
37 61
32 8
99 40
97 43
57 126
131 19
110 105
34 35
25 26
66 76
7 53
95 7
46 130
7 24
62 60
50 51
73 88
61 48
74 32
5 37
93 24
116 119
120 23
61 64
56 64
63 105
120 75
114 93
110 101
124 85
93 8
59 37
80 62
44 64
66 75
27 98
131 12
43 100
31 75
70 125
68 120
7 50
85 112
63 5
34 40
89 5
33 53
49 87
8 41
67 8
29 99
15 61
81 88
6 84
66 78
45 86
57 62
18 112
41 73
54 12
95 115
17 12
134 76
133 47
16 82
26 99
22 32
24 105
73 21
92 67
16 81
90 5
85 76
24 21
53 100
42 113
78 45
3 4
2 87
87 91
114 27
15 134
29 22
124 104
118 4
5 6
83 118
101 44
66 55
77 30
7 33
44 108
48 75
131 33
56 106
3 125
41 2
119 117
87 88
74 131
101 8
2 5
78 70
24 85
17 7
31 44
96 15
45 119
65 23
24 46
88 29
51 10
72 130
93 39
116 26
107 88
74 63
34 19
13 25
27 85
132 8
110 93
99 52
77 35
94 109
115 78
36 12
35 18
24 101
57 130
109 14
134 25
8 103
132 70
43 127
31 57
77 105
68 99
16 84
128 14
111 44
74 43
115 90
93 32
115 119
38 44
54 31
73 90
75 111
40 25
51 95
59 18
48 109
51 18
45 4
104 17
45 112
68 33
125 84
87 131
37 32
133 36
126 46
28 37
69 37
99 121
72 129
2 42
128 31
39 33
65 4
55 94
71 51
83 55
45 87
32 85
100 119
81 103
66 1
127 99
8 28
30 95
40 10
30 24
81 70
69 56
37 1
47 83
8 15
42 81
71 118
66 108
130 116
17 123
61 104
76 10
53 60
92 114
18 14
30 108
105 32
41 114
120 62
101 97
76 81
115 34
7 22
84 11
28 3
48 121
23 127
63 104
64 70
55 82
19 41
118 7
40 61
40 125
107 106
93 49
24 127
132 9
2 94
37 132
112 87
18 134
10 98
116 7
97 91
26 39
1 111
101 100
93 104
11 47
100 65
71 117
3 129
99 71
114 82
58 90
129 94
66 14
60 113
7 107
60 48
48 95
117 41
44 20
62 87
104 20
4 12
80 16
54 40
46 110
98 31
106 14
112 75
71 32
48 32
4 56
13 11
23 78
11 93
79 102
110 7
4 94
54 64
30 31
1 52
113 65
114 25
27 121
34 77
35 17
86 124
23 63
78 12
38 55
43 78
88 83
30 43
7 4
19 79
81 125
134 130
7 77
9 77
20 127
25 60
127 128
19 8
18 10
45 125
12 94
131 54
15 71
78 13
74 127
88 72
128 98
62 38
72 49
32 134
50 52
25 48
59 100
109 8
70 13
98 133
64 19
86 97
36 23
68 78
68 41
62 64
49 41
25 39
134 99
127 119
87 108
15 54
74 66
54 107
46 47
121 128
25 56
63 53
95 134
15 49
70 23
82 37
108 74
56 84
47 42
94 101
34 126
39 6
133 62
7 78
39 129
109 25
38 124
56 119
4 68
5 1
14 40
108 128
28 33
14 103
23 111
110 65
131 45
77 18
34 52
46 8
54 63
113 53
4 114
100 31
29 83
122 32
125 26
41 94
13 117
43 10
131 85
17 122
132 59
49 96
82 128
68 67
122 67
64 51
121 20
48 130
62 71
85 5
19 86
126 68
30 22
127 51
42 97
105 97
113 29
3 66
117 115
55 119
56 114
50 103
14 101
121 44
109 89
108 57
13 36
107 92
22 85
134 120
19 89
49 4
23 95
28 36
17 114
18 48
122 22
19 5
41 87
31 87
66 133
22 36
19 87
36 43
95 129
127 98
4 25
118 15
128 55
20 11
111 62
121 82
53 124
45 31
114 74
61 106
83 72
39 17
92 117
132 134
74 20
65 33
94 8
60 6
28 48
81 4
101 105
93 56
59 116
90 85
9 110
133 17
18 34
7 100
85 109
8 113
73 43
42 83
21 111
24 113
112 109
83 12
55 93
11 116
106 79
121 101
8 129
121 129
101 17
96 65
10 85
67 123
13 38
109 76
77 20
43 122
46 114
66 79
24 10
26 59
64 107
69 97
41 9
110 100
8 51
41 105
13 133
86 21
106 84
62 45
32 7
54 37
38 9
1 124
92 1
48 104
121 35
57 20
98 104
82 15
115 26
42 98
100 85
106 68
57 58
42 133
96 1
71 131
67 6
1 115
111 124
85 28
123 124
54 44
114 38
26 121
38 120
108 16
4 111
113 18
86 6
130 65
17 112
96 50
120 7
6 107
64 13
107 45
13 83
9 1
82 45
98 36
5 14
41 1
51 22
54 29
132 60
29 86
17 93
5 30
46 91
117 19
31 71
49 75
18 8
101 21
22 37
119 59
102 35
48 37
117 130
22 110
18 88
53 130
10 72
76 1
28 44
94 95
100 12
7 94
40 78
1 128
102 47
130 77
17 4
131 35
94 122
42 46
68 131
55 113
61 132
56 24
72 14
60 75
18 64
14 93
3 45
101 30
68 104
71 50
13 52
122 116
109 122
33 89
30 115
54 24
31 88
117 75
5 65
90 75
68 40
73 77
76 15
72 51
116 54
132 81
59 130
30 45
117 60
109 7
126 96
79 134
48 86
10 2
63 110
83 38
53 61
125 35
122 31
32 124
115 16
70 40
14 16
3 64
14 48
125 73
56 126
78 87
4 134
31 116
97 114
56 101
96 75
27 113
31 50
133 48
72 84
22 120
42 27
38 19
62 4
13 116
77 57
25 131
102 40
106 45
20 93
52 131
44 16
117 89
37 23
75 37
23 87
66 95
14 83
133 85
114 106
97 83
132 114
48 50
48 17
30 44
100 33
123 113
70 131
69 25
108 11
81 34
116 52
90 122
123 80
120 40
2 66
91 74
8 11
31 33
107 56
64 38
122 97
129 83
93 88
4 46
54 72
78 94
16 36
118 113
91 95
83 24
2 121
53 13
51 82
127 85
33 10
41 66
123 87
50 102
87 26
111 108
21 35
118 106
108 56
119 94
30 11
31 84
123 59
46 127
49 70
4 33
116 110
81 113
127 50
118 73
123 40
67 129
9 119
79 127
83 122
21 71
60 134
42 91
64 42
55 110
105 37
68 119
40 33
122 106
76 21
43 3
38 11
40 23
48 99
57 85
75 57
67 64
30 18
104 36
96 7
97 34
109 70
21 124
75 32
76 41
105 106
57 50
99 47
5 44
82 30
79 18
120 34
103 53
28 79
29 100
46 68
14 54
35 64
23 19
114 126
24 107
93 36
19 10
95 6
121 15
39 128
84 102
66 70
126 86
79 60
94 9
41 24
116 127
33 88
40 2
91 44
68 93
61 125
89 48
60 15
36 68
114 20
56 85
80 69
39 116
96 40
87 33
104 34
39 4
60 37
22 83
28 113
30 13
38 53
113 3
118 55
48 78
24 88
127 42
30 4
59 39
13 76
42 70
94 110
94 132
134 24
45 55
40 52
132 29
73 117
63 96
48 20
40 1
21 47
132 99
79 116
88 43
132 32
28 106
50 13
19 52
79 84
134 117
33 122
85 16
118 68
13 93
76 57
61 17
72 127
70 130
39 76
65 72
45 35
95 84
114 81
45 23
79 130
72 16
47 36
121 73
108 9
121 5
133 38
52 88
34 117
64 24
107 78
34 83
39 44
128 5
107 21
108 31
28 46
58 101
84 101
133 56
88 57
132 72
39 101
26 133
34 42
37 24
5 133
111 16
3 60
84 97
120 17
55 13
2 128
108 109
43 96
74 113
109 67
116 98
88 98
73 40
98 94
99 1
47 10
126 100
30 128
123 81
117 66
57 116
10 130
74 24
4 40
60 40
134 96
59 43
79 49
134 119
113 68
45 44
75 113
133 12
97 32
26 45
44 9
29 70
43 52
87 82
44 19
65 47
122 12
34 6
95 9
26 94
93 103
77 97
105 86
44 72
72 7
6 71
11 41
26 67
64 117
92 97
20 66
21 133
9 92
70 74
34 59
130 50
3 97
45 121
76 31
40 130
46 10
96 70
131 95
84 60
76 113
70 48
114 12
103 78
71 112
28 72
36 66
93 43
74 1
91 14
44 125
114 95
51 126
129 113
69 124
95 27
68 103
62 118
84 1
23 31
60 106
88 8
61 32
51 96
77 88
102 1
101 48
91 117
114 119
99 19
63 12
83 112
48 81
7 86
21 56
125 1
27 44
55 67
119 61
40 92
13 110
131 6
122 74
72 97
78 131
127 35
48 85
35 123
95 19
49 66
48 12
77 24
62 95
82 90
80 98
109 96
23 131
106 93
59 97
124 71
134 62
131 15
87 8
81 124
82 26
133 45
57 83
9 60
118 115
114 34
97 125
79 43
70 69
130 60
10 93
16 87
50 98
39 97
13 65
98 12
6 73
7 111
80 5
35 33
85 87
23 7
119 14
57 127
14 94
34 103
130 69
94 57
9 37
73 84
123 71
130 23
130 17
17 31
1 127
102 128
96 123
70 24
37 52
3 17
79 100
11 133
33 17
90 107
115 105
43 117
43 90
6 50
65 103
45 79
22 11
120 47
6 103
78 75
66 105
97 67
18 97
63 51
84 78
126 127
28 92
45 65
92 72
44 103
93 89
5 57
30 121
38 87
64 103
67 1
118 48
48 39
111 45
67 60
114 88
86 2
107 25
40 50
82 31
127 92
56 47
43 26
64 92
53 77
3 57
1 55
53 95
15 78
24 123
89 2
110 74
84 130
110 70
94 21
68 25
34 74
37 112
103 131
129 66
83 103
13 71
61 27
112 46
69 74
131 28
49 13
100 93
117 81
25 62
62 68
37 110
65 123
36 62
47 93
103 48
65 50
4 122
1 49
77 56
116 132
96 39
81 64
30 76
124 70
3 40
107 8
53 57
108 5
95 41
133 28
35 55
8 60
35 134
52 119
19 29
123 120
61 97
41 38
107 95
74 52
30 16
134 37
37 77
60 80
40 57
66 8
1 29
48 41
95 93
57 10
32 118
72 8
66 72
99 113
110 4
120 110
8 55
25 75
120 39
66 32
77 79
59 94
27 132
2 25
76 34
63 77
41 118
117 97
130 68
113 132
81 44
105 23
97 20
42 37
3 119
103 22
72 119
41 99
37 122
38 79
8 95
87 95
91 93
131 42
73 17
16 48
114 48
122 118
78 41
30 25
3 61
63 134
114 122
107 23
33 50
76 4
132 28
29 93
102 68
61 9
69 3
6 36
117 76
48 71
3 1
104 132
15 33
78 132
29 7
34 132
67 130
109 118
117 12
4 85
72 48
115 8
8 76
16 15
113 56
120 96
114 83
128 60
2 54
12 68
95 97
81 69
51 33
119 4
13 66
134 29
29 80
64 130
108 47
107 133
122 62
105 83
103 2
90 56
15 40
45 64
96 2
28 119
63 102
132 31
83 60
8 49
38 37
101 40
102 126
9 28
111 19
57 54
121 130
99 23
75 92
39 1
125 66
74 75
133 54
134 51
4 96
74 48
46 134
134 9
117 30
131 84
109 130
90 29
21 18
75 50
9 70
114 59
37 89
117 9
120 83
68 38
32 114
45 51
88 127
51 53
104 32
78 130
17 96
36 58
120 100
119 95
75 125
33 109
67 124
32 81
22 41
9 84
127 10
54 103
37 108
10 11
67 128
39 50
76 130
4 50
30 21
37 55
33 104
7 91
46 67
123 95
23 81
20 95
9 21
115 39
77 25
121 89
99 128
70 129
32 35
52 39
124 134
94 115
66 82
45 5
41 6
23 60
68 108
132 119
76 93
1 8
6 68
57 60
23 84
63 118
79 4
85 123
2 97
13 102
67 7
17 32
6 123
123 83
131 110
127 19
13 48
19 101
15 128
36 127
74 35
63 7
1 56
74 23
96 100
37 126
114 107
123 122
23 46
104 15
97 58
90 65
48 64
38 60
5 71
34 101
16 124
131 56
79 54
76 47
56 88
24 90
35 88
93 83
23 94
109 11
56 110
7 97
78 67
71 110
118 131
72 111
65 7
23 66
48 67
8 12
81 99
84 68
75 109
75 104
111 68
73 28
76 99
73 113
93 111
89 25
43 47
92 32
134 78
36 7
128 111
123 9
42 52
106 90
57 112
43 25
126 24
124 73
112 89
63 20
77 70
103 96
127 78
124 34
87 74
19 92
109 29
78 83
56 36
81 74
66 68
49 60
95 69
65 21
68 90
64 28
98 91
55 107
15 41
90 102
57 11
84 93
98 54
8 124
86 26
9 68
63 124
103 79
77 90
111 15
47 74
91 118
45 67
85 88
127 47
71 43
108 88
1 85
29 111
7 25
1 114
84 80
121 62
110 80
48 58
31 29
114 131
15 68
16 35
134 70
40 13
56 58
28 68
127 69
31 67
35 20
2 111
83 128
31 24
67 56
114 8
31 70
97 45
1 81
123 73
70 104
67 72
4 109
50 133
47 116
107 75
67 82
34 69
73 97
35 73
11 99
132 52
123 38
47 69
76 108
94 113
112 97
39 19
9 121
54 127
75 116
45 53
126 2
5 111
28 107
121 70
132 47
76 37
24 86
130 19
97 103
40 117
75 105
45 15
115 71
75 9
13 14
101 66
99 20
36 114
79 29
75 102
113 90
132 2
34 13
72 100
43 57
26 114
113 22
64 1
133 55
118 123
47 57
78 56
110 129
93 98
53 9
81 84
99 77
94 61
52 23
51 92
121 19
126 64
10 23
92 94
116 4
42 14
96 76
96 54
57 74
15 67
24 18
53 80
81 127
101 20
134 31
42 88
53 64
18 53
20 96
132 122
98 47
34 22
11 39
44 123
110 42
37 113
110 133
55 99
39 111
88 121
131 40
98 57
41 55
43 121
118 72
99 131
99 67
64 90
28 45
119 84
121 81
127 125
129 118
127 44
101 103
98 78
131 48
32 39
3 92
57 100
49 9
68 50
131 86
54 71
114 77
33 111
109 22
99 109
102 83
29 105
40 94
93 70
46 52
78 91
71 68
43 102
86 113
128 95
102 119
131 124
21 17
79 65
60 82
85 110
25 116
102 54
89 46
133 79
23 75
64 12
108 63
8 22
80 58
44 26
83 21
49 39
126 83
54 99
15 129
29 75
83 54
98 1
78 126
31 120
63 17
105 80
21 28
64 89
56 31
31 16
126 74
33 96
4 52
110 115
58 110
85 107
28 128
8 42
92 13
87 51
94 38
74 93
10 75
85 21
123 130
7 12
44 62
45 128
18 56
36 35
81 28
99 88
116 80
100 21
13 132
76 42
58 65
54 1
85 64
19 1
40 133
4 48
129 120
34 106
92 39
110 96
71 133
86 70
103 134
94 130
64 6
109 129
29 84
21 79
89 98
127 31
100 121
134 97
108 129
48 62
133 10
104 97
65 118
132 53
120 115
29 104
132 123
51 118
108 24
59 95
103 90
84 37
29 48
73 19
52 122
81 14
54 49
59 108
133 123
10 21
76 71
49 11
85 18
98 81
81 130
92 73
60 27
2 14
7 117
26 30
30 99
131 133
98 96
34 63
122 54
116 118
62 76
70 83
43 35
30 40
63 46
110 32
105 103
57 93
130 89
8 56
61 84
65 1
99 118
10 74
93 127
39 28
134 122
46 103
74 19
5 88
53 70
116 44
15 29
22 42
107 126
131 58
53 118
129 98
75 17
134 80
89 95
19 12
68 56
48 23
14 122
109 126
57 84
68 81
79 40
68 95
127 73
104 83
1 78
61 116
103 47
109 2
61 83
9 8
86 43
130 1
131 94
15 133
104 43
34 89
68 72
42 23
100 63
16 128
74 106
83 125
119 25
75 44
81 109
121 111
64 17
97 115
38 4
20 64
112 119
106 131
33 11
103 37
15 99
68 3
97 29
66 128
129 112
32 34
75 41
86 4
66 11
58 103
10 29
17 110
133 109
49 53
33 134
38 134
48 119
42 117
97 62
84 87
52 84
90 4
16 62
25 22
94 120
24 33
3 85
30 111
133 97
55 60
44 113
47 35
102 113
107 113
10 53
70 8
11 64
101 47
7 112
28 70
102 45
23 34
61 73
73 24
84 47
48 83
55 120
95 108
4 100
46 18
11 117
103 41
20 119
67 100
84 134
31 5
119 122
13 104
85 67
65 71
106 98
45 39
72 70
86 58
52 120
115 92
83 119
1 20
97 110
46 121
40 45
76 110
123 72
39 2
84 85
125 109
48 31
63 60
96 25
78 118
54 33
108 82
15 100
62 112
24 47
95 13
19 35
72 41
4 63
96 67
27 75
105 134
91 70
127 14
58 44
95 43
80 108
68 20
36 88
65 112
28 88
60 99
102 51
58 74
80 132
34 113
108 102
89 90
120 63
33 12
37 13
2 33
39 100
41 51
105 88
53 1
5 83
103 49
29 40
8 16
69 43
18 128
54 6
98 99
78 60
71 59
134 10
86 127
104 9
31 111
15 10
81 118
22 54
66 19
40 71
116 46
54 115
111 66
99 92
10 77
54 132
97 106
106 39
15 95
132 67
73 58
26 111
134 61
7 81
28 97
37 27
1 73
96 22
58 127
77 71
114 120
9 50
34 11
116 65
123 68
98 74
131 93
102 73
4 18
33 120
114 123
130 7
74 88
124 57
113 16
69 18
40 118
14 131
126 103
87 70
95 32
54 120
132 84
61 51
87 30
60 114
90 15
102 99
105 78
99 126
47 96
39 110
52 94
127 4
63 111
108 127
28 90
94 37
90 66
73 64
65 120
14 105
13 97
92 41
101 13
104 30
28 95
36 18
98 105
47 121
132 97
66 123
122 126
120 71
87 128
71 7
70 76
105 57
126 52
15 124
17 102
42 40
121 38
55 89
91 35
58 67
44 87
91 120
31 112
97 111
61 19
108 22
39 85
6 40
100 17
109 60
127 11
109 72
102 57
130 14
27 34
6 58
33 110
41 88
66 114
20 84
39 23
63 58
119 58
28 43
19 114
28 18
55 95
125 93
66 73
10 126
82 118
62 128
85 73
26 62
1 46
83 130
134 13
111 99
27 93
8 48
15 52
117 39
33 82
77 26
96 57
46 54
53 27
102 92
99 116
67 69
97 23
17 121
10 12
16 75
68 19
55 19
86 10
126 41
69 116
117 28
120 4
63 80
106 87
36 84
3 48
94 134
13 126
48 132
79 71
46 93
90 31
54 75
82 115
88 78
101 35
39 63
69 42
133 19
110 25
60 4
41 37
100 98
46 7
46 107
6 106
61 66
