*Vertices 390
305 "#90"
223 "#67"
256 "#157"
300 "#81"
267 "#339"
388 "#63"
356 "#139"
366 "#43"
151 "#24"
292 "#280"
201 "#262"
173 "#40"
346 "#124"
207 "#275"
182 "#328"
298 "#164"
372 "#92"
91 "#88"
231 "#182"
147 "#127"
14 "#54"
347 "#151"
79 "#312"
131 "#86"
37 "#177"
20 "#194"
148 "#301"
30 "#365"
39 "#259"
170 "#378"
100 "#152"
27 "#261"
5 "#179"
32 "#325"
316 "#310"
74 "#158"
50 "#126"
291 "#257"
90 "#340"
242 "#217"
361 "#78"
258 "#282"
359 "#80"
136 "#376"
117 "#58"
185 "#191"
81 "#39"
255 "#91"
29 "#128"
171 "#236"
196 "#120"
107 "#260"
80 "#94"
293 "#300"
229 "#258"
189 "#289"
200 "#235"
132 "#313"
16 "#354"
332 "#200"
266 "#281"
280 "#270"
377 "#210"
264 "#381"
195 "#156"
353 "#116"
202 "#333"
240 "#279"
301 "#97"
352 "#251"
363 "#346"
166 "#12"
113 "#61"
385 "#87"
320 "#10"
265 "#322"
215 "#190"
311 "#213"
159 "#82"
236 "#268"
327 "#46"
78 "#30"
18 "#243"
279 "#183"
193 "#295"
161 "#176"
146 "#382"
103 "#334"
272 "#230"
232 "#291"
245 "#65"
86 "#266"
313 "#131"
58 "#188"
209 "#357"
219 "#180"
69 "#234"
222 "#248"
57 "#17"
227 "#345"
323 "#290"
163 "#211"
237 "#326"
177 "#253"
325 "#15"
71 "#196"
52 "#349"
351 "#154"
72 "#222"
335 "#254"
174 "#149"
56 "#375"
211 "#201"
143 "#209"
194 "#285"
281 "#117"
257 "#202"
99 "#150"
355 "#22"
319 "#352"
210 "#144"
134 "#133"
360 "#70"
108 "#113"
181 "#96"
142 "#72"
198 "#231"
140 "#136"
381 "#175"
155 "#145"
387 "#274"
87 "#205"
139 "#287"
7 "#384"
191 "#32"
321 "#62"
259 "#294"
241 "#170"
55 "#130"
239 "#265"
213 "#335"
369 "#169"
31 "#186"
54 "#311"
205 "#137"
218 "#292"
386 "#283"
133 "#369"
77 "#50"
104 "#141"
308 "#76"
70 "#6"
341 "#224"
204 "#332"
35 "#45"
93 "#98"
375 "#37"
314 "#204"
244 "#203"
94 "#271"
384 "#143"
284 "#8"
254 "#146"
97 "#55"
135 "#327"
38 "#273"
21 "#52"
187 "#264"
190 "#29"
43 "#79"
65 "#214"
68 "#364"
260 "#112"
390 "#31"
137 "#85"
330 "#215"
235 "#255"
141 "#132"
208 "#66"
263 "#388"
315 "#330"
150 "#33"
123 "#207"
214 "#367"
206 "#342"
125 "#38"
262 "#338"
115 "#13"
83 "#296"
337 "#142"
183 "#135"
318 "#220"
167 "#99"
234 "#331"
287 "#125"
286 "#172"
13 "#195"
299 "#249"
114 "#192"
268 "#7"
84 "#181"
310 "#370"
276 "#307"
370 "#385"
326 "#187"
120 "#318"
271 "#298"
111 "#9"
63 "#276"
158 "#189"
48 "#368"
106 "#351"
365 "#95"
376 "#4"
61 "#185"
24 "#219"
283 "#269"
127 "#129"
228 "#121"
26 "#245"
47 "#371"
343 "#71"
153 "#134"
303 "#239"
144 "#216"
175 "#347"
88 "#387"
41 "#303"
306 "#153"
338 "#89"
197 "#380"
288 "#206"
294 "#49"
105 "#308"
102 "#343"
19 "#20"
261 "#229"
154 "#53"
101 "#317"
304 "#362"
156 "#178"
225 "#118"
344 "#267"
317 "#366"
121 "#286"
180 "#19"
188 "#26"
165 "#198"
122 "#174"
364 "#242"
199 "#299"
64 "#11"
345 "#350"
253 "#60"
373 "#57"
3 "#315"
383 "#227"
95 "#288"
328 "#337"
334 "#75"
8 "#14"
233 "#108"
162 "#197"
224 "#360"
221 "#168"
203 "#100"
285 "#304"
226 "#68"
340 "#162"
112 "#272"
49 "#277"
251 "#160"
339 "#232"
152 "#372"
116 "#161"
374 "#5"
109 "#111"
220 "#171"
28 "#106"
186 "#250"
249 "#48"
169 "#59"
278 "#321"
46 "#110"
248 "#77"
25 "#41"
273 "#244"
4 "#225"
22 "#361"
82 "#212"
75 "#341"
274 "#102"
367 "#35"
119 "#0"
176 "#148"
40 "#56"
216 "#18"
53 "#34"
217 "#379"
269 "#247"
252 "#44"
12 "#83"
389 "#238"
62 "#356"
212 "#166"
184 "#36"
23 "#107"
124 "#319"
89 "#314"
1 "#27"
9 "#218"
324 "#114"
336 "#336"
270 "#163"
129 "#241"
302 "#138"
126 "#28"
67 "#25"
342 "#21"
354 "#383"
329 "#284"
275 "#119"
371 "#389"
2 "#147"
192 "#237"
160 "#122"
178 "#252"
307 "#47"
138 "#221"
98 "#256"
230 "#123"
382 "#278"
44 "#306"
118 "#358"
149 "#320"
362 "#240"
92 "#23"
36 "#293"
60 "#386"
179 "#167"
312 "#109"
59 "#84"
357 "#69"
295 "#3"
76 "#184"
66 "#104"
350 "#263"
145 "#115"
164 "#193"
110 "#233"
128 "#42"
42 "#316"
322 "#305"
297 "#374"
246 "#165"
250 "#309"
85 "#223"
380 "#359"
247 "#302"
243 "#228"
15 "#226"
290 "#373"
378 "#16"
379 "#155"
34 "#377"
130 "#324"
289 "#64"
10 "#208"
348 "#353"
11 "#93"
358 "#1"
73 "#103"
17 "#323"
96 "#355"
168 "#159"
33 "#101"
51 "#246"
296 "#329"
277 "#363"
157 "#140"
238 "#105"
172 "#74"
333 "#199"
331 "#348"
282 "#2"
45 "#51"
309 "#73"
368 "#173"
349 "#297"
6 "#344"
*Edges
143 280
126 268
235 192
313 292
131 249
305 160
7 22
16 135
61 18
193 337
294 131
330 15
226 12
86 228
145 72
243 65
107 239
5 20
172 365
319 240
71 247
175 277
243 369
91 25
253 21
220 241
141 313
104 385
36 313
48 264
324 258
209 75
337 71
160 347
33 9
369 185
369 213
141 250
223 81
215 20
191 21
388 376
217 277
103 304
370 231
347 52
305 338
234 380
69 389
156 135
143 377
282 378
177 72
292 138
283 218
292 350
205 191
298 174
231 356
230 63
200 61
270 13
220 274
102 20
58 103
114 326
195 99
202 206
94 291
314 129
213 303
118 62
192 221
276 271
120 103
156 274
341 258
261 371
104 140
276 139
23 390
9 18
167 84
38 224
211 257
239 240
338 282
202 350
250 50
75 328
157 180
283 323
219 286
106 209
337 155
296 175
38 85
87 122
34 47
235 266
336 116
260 109
322 86
42 336
139 31
152 280
56 383
10 349
254 108
340 361
254 295
356 290
186 52
123 389
330 203
359 203
101 259
360 122
162 65
201 167
311 62
306 69
79 85
185 257
221 356
383 41
363 212
336 88
352 58
116 387
380 152
357 142
14 337
70 12
144 262
27 239
93 220
210 76
144 230
110 69
147 158
183 384
107 145
352 200
100 380
309 338
275 161
128 97
356 347
175 9
157 226
340 66
323 369
24 99
154 294
171 228
239 129
369 145
188 300
305 313
152 48
25 289
67 137
22 332
217 174
223 117
294 223
86 16
201 383
306 18
262 174
225 219
287 367
211 314
127 179
304 96
292 32
347 203
83 278
148 298
203 150
309 173
93 299
323 356
164 55
125 230
290 114
300 270
359 286
231 161
206 75
131 43
157 332
351 257
229 109
23 364
389 210
153 209
10 281
105 52
74 200
379 344
332 82
226 385
310 69
75 42
61 87
346 363
101 51
340 24
8 154
203 320
140 58
178 275
178 350
389 41
311 4
302 69
383 50
208 308
92 190
311 341
58 377
138 15
164 158
220 141
362 231
361 2
60 276
319 192
382 236
122 36
134 318
260 261
286 140
193 258
77 43
117 361
88 84
339 129
307 252
211 386
144 348
387 69
27 288
303 286
69 74
172 176
299 196
169 253
317 258
288 389
109 187
271 194
144 244
333 175
346 169
144 102
226 119
232 44
145 254
321 359
159 45
340 160
183 79
105 345
195 104
29 307
62 207
124 237
61 9
386 122
230 15
42 139
218 195
290 124
267 237
140 360
332 174
127 225
120 278
280 86
112 89
198 335
201 348
86 382
199 130
95 89
386 3
12 84
298 153
229 42
225 112
111 228
340 43
365 196
78 287
118 363
237 52
65 3
225 186
235 381
160 301
134 384
385 305
153 213
94 24
101 246
353 326
290 363
195 381
89 332
100 195
360 137
115 346
377 213
326 174
356 59
231 187
348 224
346 196
289 355
259 377
318 121
278 241
116 354
338 117
222 178
65 9
129 258
361 159
128 385
177 246
299 285
117 59
46 53
243 55
166 117
61 273
93 80
332 76
257 146
281 243
6 381
347 29
290 297
254 365
115 28
328 182
389 362
210 347
258 322
204 175
322 351
137 37
36 41
38 29
182 148
164 63
126 361
103 331
153 180
296 322
171 387
255 122
311 314
62 306
157 168
204 330
114 160
38 27
239 152
304 272
94 106
164 242
74 288
83 214
7 60
381 114
86 4
365 309
4 87
52 204
285 121
186 156
4 24
226 254
258 152
309 282
234 350
26 186
334 131
337 257
14 358
333 200
298 214
233 105
195 76
99 204
294 19
34 118
300 257
14 366
114 132
11 360
213 2
41 341
330 315
365 1
161 238
119 78
40 74
309 321
332 228
176 287
230 336
39 271
316 350
389 217
95 4
353 100
240 303
172 12
297 62
369 146
92 131
349 105
139 230
27 319
336 221
374 1
196 353
65 47
24 37
377 351
361 23
90 186
259 195
259 389
199 293
335 42
345 160
371 90
336 135
6 206
275 332
299 177
361 327
288 298
144 279
241 37
95 22
191 300
200 271
46 220
349 58
369 76
269 122
71 141
318 313
99 9
314 20
235 288
201 236
134 375
41 379
321 289
98 219
160 255
104 306
186 84
192 201
242 123
340 44
267 206
328 140
253 184
152 322
312 323
280 337
191 180
63 177
309 372
214 189
335 250
197 304
229 73
145 55
371 32
109 373
150 43
281 344
286 335
267 52
212 233
127 163
322 51
116 59
161 344
44 293
309 180
272 192
37 341
365 219
292 118
259 165
237 152
123 384
246 181
162 114
239 231
297 322
312 375
13 29
350 311
54 210
168 354
75 196
302 195
102 328
299 170
312 314
234 383
206 265
372 241
206 333
381 170
117 66
160 192
366 281
384 242
138 211
66 46
105 364
65 328
72 212
136 276
347 312
219 43
241 340
335 9
274 164
229 285
143 319
298 379
149 10
313 223
146 185
300 332
66 269
49 141
337 28
387 18
347 132
266 239
126 128
121 13
179 369
354 297
265 152
61 156
272 270
201 237
76 192
272 44
356 210
356 198
233 387
183 237
277 380
104 75
314 230
72 237
68 256
2 294
335 112
228 72
361 145
33 321
107 75
17 215
159 357
63 231
139 259
155 327
219 326
118 121
91 273
73 191
196 76
175 362
345 277
199 197
219 361
167 244
95 121
211 110
267 213
35 372
382 122
15 39
329 79
330 168
193 100
270 195
341 65
241 271
251 246
377 303
256 203
206 63
340 83
55 195
352 47
146 290
197 62
257 74
125 248
247 118
191 372
224 178
1 154
67 109
384 139
223 359
140 109
132 346
156 231
116 346
354 332
14 97
306 234
240 228
203 23
50 346
324 359
40 245
141 53
285 276
174 306
332 292
39 277
61 313
76 343
347 318
29 101
389 33
220 232
322 218
232 54
321 28
134 228
227 306
365 21
176 212
50 228
159 372
326 215
257 20
323 370
134 190
236 66
187 118
183 231
274 261
329 139
287 42
313 241
369 158
84 183
102 221
300 313
29 127
239 72
251 309
213 6
332 269
73 38
277 340
204 6
74 368
244 59
176 103
337 225
258 290
266 236
102 235
326 158
370 336
298 164
260 184
201 384
297 222
298 50
313 115
73 67
83 313
248 241
359 294
345 101
158 12
382 380
388 223
36 322
114 185
280 183
301 155
342 301
120 10
360 57
86 58
331 229
220 47
152 254
40 253
259 163
86 254
136 118
133 206
215 58
253 134
142 375
136 7
206 243
145 321
340 167
229 46
110 315
263 96
335 141
330 71
302 202
231 104
69 261
47 171
230 157
323 95
121 218
18 224
343 180
326 94
327 46
225 167
179 192
250 105
208 159
69 352
192 203
140 157
363 345
174 348
279 273
160 164
192 261
141 206
73 98
53 301
242 95
189 183
277 88
99 270
193 232
304 331
238 260
390 180
176 31
275 113
250 102
267 239
105 62
283 301
19 29
283 189
15 145
362 192
63 103
174 169
360 50
222 87
150 140
49 347
258 277
346 120
93 332
301 93
387 344
127 333
47 7
99 72
368 222
239 382
334 248
359 343
250 259
109 183
10 123
130 333
211 279
369 368
278 183
106 315
120 246
265 27
235 239
165 71
221 23
386 144
157 83
76 225
269 87
321 360
135 244
356 302
350 387
36 278
64 334
297 339
80 219
93 364
270 28
225 231
338 255
52 170
9 82
216 203
213 124
346 259
192 33
313 50
359 43
298 318
341 330
71 338
267 32
226 294
227 234
140 118
330 322
26 93
114 156
379 293
314 356
354 370
27 311
57 59
159 306
122 140
71 13
165 302
253 183
299 251
237 262
176 200
83 189
379 182
185 58
149 144
312 113
305 279
211 362
141 161
151 113
91 28
145 117
341 82
318 205
245 225
353 85
210 222
96 331
9 386
357 100
3 138
222 330
363 2
54 299
43 80
37 109
348 60
199 215
375 154
289 180
311 95
354 292
87 164
306 276
218 236
389 314
66 55
153 372
150 308
380 179
370 332
340 296
73 223
133 136
335 84
330 368
301 108
379 260
67 21
206 88
97 312
103 240
350 41
219 65
370 6
248 153
5 204
76 238
202 16
183 203
152 9
161 140
178 301
193 189
312 84
67 337
277 56
233 144
13 312
332 149
340 96
112 368
381 183
56 279
197 291
49 144
263 15
337 320
50 344
63 132
365 272
324 327
356 138
144 219
347 251
176 297
233 46
176 215
7 277
110 203
66 365
113 372
54 199
20 337
316 194
271 330
351 90
226 181
141 18
105 353
388 334
205 293
175 336
364 261
192 340
273 36
71 352
353 259
271 218
20 211
197 162
6 124
199 323
50 235
97 173
46 108
205 245
328 112
366 248
273 134
325 73
119 357
383 346
27 362
366 157
27 31
264 273
338 78
207 116
127 58
39 313
289 357
164 233
251 155
3 178
92 361
156 343
328 241
147 50
355 226
315 335
240 157
243 299
16 291
261 383
350 174
279 38
58 192
353 256
351 315
384 161
29 284
112 218
8 366
106 232
115 321
316 20
93 274
187 5
243 135
30 217
250 277
163 147
307 361
13 159
159 308
51 73
368 211
314 330
282 312
367 40
293 46
185 254
341 368
359 231
221 248
285 316
262 17
71 68
267 311
256 336
182 138
357 270
389 276
183 169
390 77
388 372
249 203
42 250
207 267
224 192
144 381
175 82
319 47
231 220
198 186
89 83
73 176
206 15
326 333
319 189
225 291
231 59
157 50
257 162
386 293
107 153
224 7
168 82
127 25
302 343
71 233
157 174
286 272
310 314
288 138
89 153
311 338
2 93
206 17
330 39
316 44
266 279
231 26
220 171
80 1
183 282
304 60
302 210
220 211
25 184
353 189
265 227
364 260
368 29
336 124
226 153
273 189
194 182
71 49
114 334
260 167
235 51
188 142
7 354
339 186
240 291
212 300
252 45
226 195
174 260
44 176
109 343
71 360
228 242
356 51
351 18
2 339
357 220
256 38
28 288
29 303
190 372
195 213
289 306
139 72
147 110
187 318
279 357
104 116
198 72
142 342
373 40
32 120
280 27
171 181
323 44
346 112
138 60
116 283
107 224
17 87
127 37
182 160
366 287
210 29
346 190
30 290
364 89
342 268
130 345
221 270
214 72
17 306
126 77
14 191
137 268
225 73
225 77
9 15
332 74
219 248
333 341
174 315
108 184
112 260
265 354
50 196
113 342
145 91
287 236
224 22
253 113
341 204
320 157
329 227
153 121
104 197
77 228
322 6
99 256
265 192
279 112
149 254
238 341
110 73
47 348
305 330
293 243
382 160
42 217
340 244
58 12
251 207
230 278
160 362
197 362
62 333
353 225
313 352
292 287
296 165
152 62
116 201
101 369
30 106
372 365
100 338
168 74
202 74
256 277
85 186
84 228
144 15
178 136
99 2
383 12
106 347
370 314
263 48
317 152
94 107
332 187
242 196
199 104
181 99
269 202
197 22
224 217
159 260
369 220
168 318
347 62
236 50
258 94
139 121
148 183
50 84
128 367
68 310
114 194
109 241
46 301
20 278
114 195
140 83
331 68
43 166
377 312
219 241
149 336
302 293
340 69
68 354
22 83
71 179
357 226
193 291
221 200
147 122
76 48
140 155
220 206
260 145
352 344
13 22
208 231
277 118
216 2
314 272
237 130
372 260
250 215
135 285
247 323
49 276
206 105
29 5
15 95
24 330
278 349
31 219
333 132
129 389
317 48
151 137
255 373
385 357
296 227
185 84
143 260
299 347
224 299
39 49
269 55
360 151
196 110
216 385
231 181
64 205
11 168
279 234
305 383
306 323
140 20
307 183
369 127
290 164
127 287
1 356
85 63
154 14
90 114
300 180
83 195
290 209
258 292
179 332
366 40
349 100
350 235
205 321
170 48
383 17
308 274
340 59
134 181
150 384
314 363
253 43
183 115
141 308
328 206
281 79
176 80
309 165
300 256
142 221
100 302
384 195
27 94
196 39
110 313
107 49
133 276
26 326
246 298
174 156
141 50
324 190
38 350
55 32
168 159
322 280
59 320
244 104
106 178
265 106
342 252
107 363
343 369
110 259
181 13
155 10
39 229
304 161
235 298
185 389
287 364
44 100
317 47
176 57
154 92
35 196
337 227
98 340
366 108
115 113
71 211
228 325
66 21
291 144
90 161
99 313
56 121
100 59
139 218
272 243
178 83
355 305
75 182
213 258
275 366
144 258
9 104
122 141
95 79
175 121
176 140
233 117
384 305
198 299
212 33
236 379
167 177
189 323
336 257
247 304
263 47
76 339
223 180
41 314
359 111
165 137
220 273
199 71
12 8
225 300
362 198
315 232
159 360
98 283
124 130
238 274
293 263
299 315
36 72
285 3
379 27
310 207
220 72
317 118
232 350
65 24
185 225
97 390
172 104
371 6
332 90
336 103
167 127
195 117
89 194
44 5
110 352
313 213
159 84
59 307
108 109
263 329
197 239
254 251
235 283
52 242
176 326
359 58
228 82
23 284
245 367
318 148
387 10
315 138
272 109
299 222
33 127
256 281
156 220
240 236
160 220
93 266
20 326
123 212
219 267
317 139
46 9
79 322
160 231
38 129
100 99
314 165
251 61
28 114
233 95
304 37
13 46
270 321
118 195
124 175
162 314
137 337
13 293
358 145
216 245
65 377
136 222
214 197
181 295
162 80
114 356
226 208
254 70
293 121
319 317
242 65
381 156
264 106
265 63
164 213
328 41
258 240
22 186
118 47
20 239
118 155
298 341
197 68
271 261
97 378
118 42
43 309
208 375
19 313
390 181
385 238
104 205
314 360
384 167
361 137
382 229
220 139
287 102
163 220
142 76
182 332
305 142
352 389
351 109
152 34
333 233
296 270
150 53
53 281
220 76
3 353
119 327
118 262
50 243
215 305
58 305
170 263
359 147
61 129
330 12
27 85
84 212
160 84
358 11
74 334
264 152
38 247
273 174
104 134
345 163
387 227
162 267
182 44
158 94
389 98
360 294
162 159
266 229
315 201
216 93
360 116
41 176
117 305
286 179
122 37
384 84
314 24
292 39
355 12
240 279
196 26
90 370
134 150
243 260
10 354
329 247
261 267
210 91
133 198
134 285
3 316
236 281
301 273
160 248
168 87
331 29
127 364
256 10
92 268
280 292
87 385
75 102
138 61
58 260
3 15
318 146
18 42
254 334
379 174
63 240
199 206
274 163
387 129
143 362
203 211
162 24
353 247
162 161
94 103
65 227
185 215
106 217
285 240
315 331
208 313
3 326
181 188
254 109
54 83
91 66
78 302
110 192
130 194
121 232
372 151
127 279
365 119
269 389
273 129
350 218
251 26
329 149
217 194
123 277
249 294
116 364
93 326
55 274
176 85
31 274
65 15
194 34
37 153
181 66
161 254
386 207
211 32
88 37
386 237
104 203
227 243
292 347
93 374
245 355
311 318
81 361
299 353
75 382
369 133
20 10
15 10
136 364
351 231
291 170
266 13
216 169
96 83
143 341
159 9
2 298
261 171
74 106
168 301
235 382
76 340
100 135
114 272
340 17
218 316
275 144
51 269
63 136
341 103
107 244
165 85
46 368
312 191
71 351
110 176
368 360
178 161
11 82
157 146
378 167
9 48
98 387
183 156
380 354
170 99
169 147
169 373
144 387
265 82
107 9
350 63
99 289
37 259
385 180
230 220
356 65
258 85
213 18
31 93
131 76
279 286
193 139
315 30
182 318
384 165
51 340
177 336
65 258
158 385
89 164
338 249
54 194
99 341
326 58
143 311
372 210
174 245
131 109
35 159
228 312
4 118
102 182
66 300
54 247
257 131
382 362
326 334
234 347
323 270
229 112
201 10
15 163
342 140
113 50
331 164
85 10
364 354
293 232
77 67
129 153
322 41
166 80
322 95
303 338
270 201
142 248
388 126
112 199
52 124
177 129
17 387
9 364
58 345
169 119
358 253
335 202
20 11
338 104
346 55
178 339
278 149
95 2
246 351
157 232
198 13
189 229
132 84
178 162
205 322
222 261
71 24
147 180
182 211
161 87
100 168
173 284
32 345
88 96
351 40
234 138
331 311
287 368
172 117
5 223
180 172
58 218
390 388
233 318
24 132
100 233
211 91
37 313
26 241
188 66
356 385
52 315
58 203
176 190
266 240
203 215
264 133
105 76
178 168
107 105
353 26
51 353
122 273
86 302
324 83
129 15
155 220
365 65
215 118
127 101
186 50
345 74
206 60
236 277
164 338
69 238
245 219
33 163
297 163
197 363
239 261
222 313
39 114
93 23
262 130
87 71
8 300
215 274
211 22
346 211
342 309
144 206
359 125
363 175
55 238
165 229
305 212
142 161
79 276
74 371
389 344
339 385
299 110
214 333
357 53
131 91
61 265
52 149
348 263
146 197
241 63
79 58
124 170
94 213
2 254
13 360
215 164
363 96
341 201
319 16
219 39
76 326
121 148
213 202
335 158
315 273
305 257
233 141
368 161
301 35
347 246
302 142
48 371
74 112
214 290
221 94
138 161
140 388
258 269
286 231
231 308
27 273
313 230
44 218
340 15
230 143
336 55
69 229
152 291
181 91
72 61
135 313
31 114
209 170
75 122
349 176
82 104
196 53
149 182
352 143
138 116
380 197
206 99
83 198
385 23
341 247
297 96
295 238
111 173
199 271
253 29
237 61
305 159
383 22
77 275
360 212
204 265
176 157
137 168
138 79
241 247
82 202
136 314
303 312
187 219
73 383
31 314
225 128
7 4
88 158
95 24
88 371
383 141
238 167
246 168
248 183
79 241
246 311
289 388
210 78
267 349
165 328
142 180
379 219
288 364
161 291
22 84
102 336
281 388
261 80
235 123
26 129
34 271
143 302
69 108
343 324
268 117
228 309
146 319
100 240
160 246
199 290
313 351
100 62
205 112
366 254
346 260
381 212
7 110
377 163
338 93
76 104
156 238
179 79
21 119
218 41
242 279
207 335
142 306
378 21
348 328
88 72
271 72
338 228
211 316
34 135
246 389
71 322
285 60
85 55
39 368
152 175
232 50
52 100
11 307
105 130
80 384
147 365
107 235
103 36
356 368
141 257
262 103
76 261
301 23
165 210
75 211
68 263
83 30
54 135
369 277
261 63
11 156
117 78
207 280
193 168
86 2
143 299
382 316
199 244
75 103
306 145
162 363
259 158
121 246
26 167
140 366
355 321
336 262
7 285
18 199
354 286
225 271
22 34
167 219
201 23
176 202
253 312
175 279
138 192
159 379
233 238
354 47
31 71
383 140
183 166
347 137
355 254
259 269
15 157
90 377
162 340
215 220
31 315
257 196
231 162
45 384
74 4
20 164
156 141
125 153
338 372
308 230
230 390
175 182
208 388
368 331
174 16
278 146
255 346
368 281
386 147
379 276
184 338
139 201
273 110
215 142
347 348
69 286
61 31
354 88
3 271
13 241
30 132
146 214
238 381
277 333
163 101
133 247
216 66
244 351
133 146
307 45
312 251
136 148
84 5
340 127
155 278
104 251
370 348
298 91
69 356
225 129
119 137
121 83
100 356
49 60
302 117
30 157
223 248
255 111
371 267
212 4
352 382
137 281
84 215
270 168
382 369
132 79
197 9
175 153
144 60
312 344
171 285
233 147
207 286
225 10
204 311
262 75
165 159
99 60
28 385
386 241
376 260
107 229
139 174
219 227
181 355
156 349
151 147
5 104
232 254
163 318
273 51
34 15
171 122
363 98
198 18
21 33
131 164
350 328
47 30
319 170
133 209
137 375
18 389
324 344
232 368
323 261
124 182
160 157
60 317
383 230
110 200
7 36
320 169
383 379
353 244
326 15
283 280
169 155
192 219
216 97
233 92
297 104
306 270
23 27
3 36
338 186
343 111
75 132
160 269
70 181
66 203
360 308
133 104
365 314
210 131
358 181
116 62
131 73
163 9
163 44
387 263
149 331
10 277
126 137
274 318
91 255
193 89
84 330
278 267
220 134
324 143
90 34
276 105
196 227
238 255
140 353
58 71
385 159
133 155
64 21
5 211
196 24
299 385
154 357
147 325
321 324
168 192
345 384
309 390
47 370
219 159
382 258
86 107
257 389
49 380
332 63
65 144
17 75
329 41
48 122
378 169
157 194
382 5
80 306
221 322
27 7
145 195
200 129
168 174
55 226
185 108
87 244
253 366
201 267
283 127
155 146
158 55
212 379
384 113
61 86
205 310
54 329
313 130
122 7
122 359
134 144
114 258
305 307
162 287
12 251
16 162
79 232
240 207
266 79
288 297
189 177
15 85
344 179
281 179
372 167
265 31
165 101
163 149
142 168
52 84
38 63
159 157
140 193
373 360
238 8
156 386
336 165
206 182
322 370
379 210
61 48
324 338
178 232
299 6
174 300
282 223
87 165
86 221
101 147
306 340
233 67
192 384
105 323
64 29
162 215
9 75
246 379
331 341
11 221
230 84
286 76
41 89
55 388
367 282
85 68
200 273
11 108
129 329
18 167
339 258
335 331
239 144
262 345
54 7
279 231
7 297
101 326
104 279
121 379
365 226
333 370
10 24
16 88
55 74
179 357
124 107
358 223
109 4
233 57
221 275
368 172
201 39
113 183
195 256
271 336
74 351
359 61
74 159
235 319
181 19
128 45
170 352
138 303
299 368
310 344
243 9
275 46
18 51
221 116
13 314
329 297
321 157
351 181
119 126
335 369
42 227
5 122
155 183
120 304
150 45
341 257
219 102
112 381
109 76
148 62
201 76
316 324
148 271
377 359
258 63
36 319
374 40
126 40
177 324
209 266
185 274
146 56
339 239
244 326
15 332
198 261
377 72
84 220
73 72
270 275
381 322
40 50
58 364
294 233
109 243
211 134
100 98
298 196
61 210
279 243
275 172
110 293
80 269
330 82
157 262
364 187
155 356
242 270
222 144
297 319
308 287
47 222
126 159
161 55
4 85
108 246
348 220
112 134
136 60
146 47
120 37
116 26
354 96
229 288
222 241
320 43
280 344
166 321
316 212
309 21
258 42
244 86
338 151
145 104
286 334
241 261
188 43
265 22
288 202
14 223
65 143
102 207
287 330
275 301
351 256
55 9
376 19
359 300
132 247
70 59
187 382
159 43
177 286
79 250
203 173
203 163
259 299
93 61
208 137
250 110
264 194
77 81
271 349
48 328
248 379
352 91
243 4
250 256
333 51
378 12
61 222
6 240
302 312
352 339
338 115
139 285
116 195
93 340
109 43
230 388
388 245
80 71
137 24
309 158
4 140
182 265
130 101
369 132
51 250
197 246
93 21
115 245
351 117
105 209
200 362
37 231
175 331
185 304
224 189
84 141
340 42
205 369
9 310
383 291
79 349
343 50
385 369
274 301
317 10
345 213
50 265
195 30
209 215
115 360
255 125
148 101
113 180
314 260
298 51
323 102
62 387
85 203
315 42
277 224
236 241
108 210
179 251
136 202
384 92
2 120
237 83
146 30
287 38
196 245
213 182
207 270
147 274
100 104
255 67
224 16
322 20
76 157
290 76
202 340
229 49
266 29
82 206
302 368
48 62
183 70
314 217
168 113
310 148
86 273
320 275
286 287
162 116
44 105
174 228
260 299
38 291
76 37
380 207
232 36
192 83
281 288
340 74
54 382
354 34
237 32
291 71
382 168
142 289
315 363
72 386
137 252
68 22
274 46
183 118
328 10
227 2
279 369
88 105
49 63
85 158
236 239
33 29
283 292
79 147
49 205
147 196
232 326
271 344
43 361
45 77
68 262
127 230
335 176
156 352
263 354
382 189
384 267
226 307
171 48
352 106
10 301
56 310
161 26
215 31
260 54
153 306
222 186
143 99
147 364
338 307
61 218
189 139
315 328
134 287
314 338
290 118
159 312
275 225
170 165
110 306
195 373
240 107
262 101
236 72
175 352
190 142
376 154
225 50
132 85
136 266
370 88
379 36
112 155
2 338
137 91
189 120
55 313
153 118
270 141
11 140
288 362
28 94
188 302
158 389
224 279
212 255
260 293
210 90
247 271
345 206
28 176
219 179
384 2
286 104
56 30
252 23
79 369
250 174
293 36
51 198
244 160
61 3
257 387
300 80
356 333
223 210
298 274
13 205
138 380
369 247
368 286
362 94
186 87
311 274
214 87
276 182
20 299
165 340
381 13
204 302
212 312
153 263
203 128
371 218
386 242
272 16
134 55
243 181
295 91
106 204
281 327
261 26
287 109
362 186
117 246
37 123
219 168
107 39
150 78
328 232
114 250
29 275
288 242
103 387
13 104
368 181
55 163
388 78
98 147
90 271
281 231
294 155
110 254
93 137
192 302
291 211
372 181
203 386
384 221
58 60
127 171
62 335
44 269
102 114
146 356
350 71
148 138
43 59
286 114
354 186
386 246
240 72
202 186
158 257
244 183
223 361
278 315
205 18
260 183
306 338
365 11
34 129
273 145
263 349
267 303
203 174
221 15
269 303
104 254
383 153
292 383
142 140
314 39
101 242
202 315
311 138
256 104
90 362
60 121
266 218
65 288
127 123
145 162
372 288
239 351
376 166
205 254
99 185
116 330
62 227
317 314
350 170
340 174
6 71
49 231
387 323
116 169
234 213
77 131
228 141
273 335
183 379
312 292
219 370
113 59
88 278
222 55
278 204
29 255
84 124
42 236
140 179
207 229
104 102
247 165
244 257
231 241
261 185
90 122
42 273
372 84
360 164
242 161
379 31
109 335
368 162
261 118
196 255
348 214
189 244
153 357
241 58
229 344
87 167
236 293
154 274
286 36
297 198
118 44
260 383
31 158
106 276
278 283
23 384
351 143
369 108
102 286
202 382
204 234
106 48
237 273
165 99
329 258
186 197
251 293
306 89
74 108
284 46
287 285
72 52
303 348
46 325
58 210
228 361
202 368
380 247
234 175
340 250
376 358
130 214
98 110
239 272
92 373
343 172
347 247
204 185
198 347
234 143
244 324
3 273
261 315
102 212
202 192
195 15
281 110
318 38
100 31
51 177
258 229
256 114
65 204
259 132
354 22
154 108
368 311
384 246
122 175
306 272
260 59
387 76
296 106
256 365
255 185
269 291
48 37
197 61
4 356
59 67
49 156
62 383
231 245
11 249
158 157
299 168
204 273
194 79
385 221
129 210
346 351
68 163
26 228
289 113
250 163
21 77
261 259
40 109
257 24
150 73
123 356
215 24
100 332
188 281
296 333
350 280
101 277
315 276
228 3
165 94
308 340
27 9
324 318
323 89
291 387
131 84
74 353
134 92
342 131
105 259
172 93
332 29
366 80
330 276
323 193
264 317
45 142
252 57
97 233
218 353
273 209
196 314
287 382
37 204
114 221
93 24
147 313
61 183
160 29
109 218
302 377
143 31
44 135
296 102
69 345
131 55
323 54
241 347
300 353
21 169
358 97
79 315
321 113
127 114
208 73
5 179
337 283
349 219
244 301
104 273
6 217
244 220
5 346
18 200
193 293
296 202
206 227
337 368
181 256
287 177
299 100
236 16
330 46
220 27
199 61
192 389
273 186
88 74
259 349
311 24
40 33
258 148
154 367
206 3
292 362
367 226
93 167
308 284
249 375
145 346
139 199
246 171
2 157
37 103
389 165
243 39
42 296
65 344
114 158
79 323
65 193
100 108
151 28
99 158
113 109
193 22
152 96
242 80
363 296
206 84
162 165
100 120
143 202
229 302
176 100
88 335
316 213
360 46
341 241
349 118
240 330
110 346
180 154
192 301
256 5
389 68
73 157
144 287
204 262
302 308
345 232
183 361
225 321
269 186
33 374
260 281
147 71
77 378
265 94
114 12
70 11
325 385
86 207
196 155
351 206
156 329
59 372
341 193
313 246
342 205
24 362
230 242
310 16
333 149
277 146
231 381
200 251
287 122
291 347
133 48
334 20
298 74
248 76
23 33
364 199
31 247
222 272
280 23
215 114
321 358
122 143
165 347
45 21
329 193
241 302
66 362
226 338
138 22
198 260
66 301
182 147
328 16
369 285
210 21
228 69
4 44
389 302
320 111
313 42
274 150
172 97
91 59
198 195
69 296
11 191
318 377
85 59
114 120
215 143
361 338
390 59
312 357
27 18
35 365
189 153
60 48
360 165
2 132
59 158
21 172
286 32
316 98
156 261
320 97
328 204
51 167
270 264
58 4
15 102
340 233
287 229
218 75
181 57
53 142
205 94
255 25
54 292
122 161
231 163
13 292
383 381
348 96
273 82
333 13
46 205
350 254
322 178
153 322
36 149
312 14
283 344
228 89
184 153
153 165
73 23
189 148
71 174
258 262
55 230
311 90
237 228
130 158
23 129
326 213
369 246
131 188
18 50
74 79
120 350
13 258
7 89
340 230
241 156
348 206
344 139
55 344
291 29
301 173
253 2
345 370
88 132
364 381
267 148
313 325
73 61
380 322
286 132
204 213
157 337
243 203
379 161
89 204
319 371
24 175
384 287
333 263
112 292
151 14
153 228
273 11
335 259
199 276
295 127
241 122
170 364
362 185
6 175
152 311
337 315
235 39
281 18
319 370
99 76
70 307
272 168
95 144
12 203
93 283
164 314
376 91
5 134
199 140
346 127
298 27
163 24
228 287
264 114
29 386
233 145
265 187
354 264
383 122
18 288
370 175
40 97
309 306
179 260
304 7
76 292
174 256
14 238
311 228
121 110
222 362
299 65
168 20
123 368
364 285
12 81
230 77
178 82
145 215
47 36
332 230
311 330
291 118
198 351
140 84
177 50
199 218
80 64
362 267
323 139
361 155
383 287
291 49
333 161
359 342
288 72
322 105
171 364
86 314
167 70
12 287
101 179
75 85
61 95
199 105
269 368
53 23
364 167
345 349
83 224
100 373
26 145
204 36
96 122
377 311
7 370
238 246
12 137
40 166
362 286
281 228
192 254
128 308
276 341
257 212
302 103
29 65
20 272
257 177
103 291
165 58
328 130
387 4
146 103
202 242
230 29
47 193
10 59
153 216
115 126
388 367
15 303
387 31
253 99
341 138
39 280
272 299
196 31
256 298
341 318
254 273
16 380
229 371
389 91
7 171
352 369
72 26
274 303
381 55
215 311
177 178
261 234
304 65
49 195
144 82
23 268
10 351
199 143
138 84
155 194
338 351
220 334
6 141
161 236
82 10
132 90
274 307
261 283
153 234
157 213
381 105
322 227
89 16
80 20
118 348
63 235
345 42
383 160
286 389
169 223
16 277
48 348
16 341
247 194
121 189
58 353
291 250
328 118
292 86
185 182
69 385
308 84
306 108
266 212
103 280
251 74
172 188
119 312
322 194
131 113
255 334
277 60
104 89
118 175
223 226
14 169
315 56
278 363
163 109
134 215
123 281
52 22
78 169
258 227
356 337
223 337
381 278
334 173
254 225
108 127
46 8
266 275
369 313
186 352
366 172
178 338
87 160
363 75
273 178
88 100
234 231
333 280
272 285
254 42
129 181
310 133
257 12
329 95
9 345
3 344
151 45
172 308
229 170
321 117
341 144
104 81
389 332
272 33
118 130
165 238
210 204
306 107
145 131
175 267
361 381
165 60
123 2
326 185
63 219
162 337
209 20
310 348
120 170
281 353
312 260
198 368
288 338
177 301
116 28
41 211
274 53
352 24
321 12
200 318
94 292
131 374
386 104
219 299
281 312
171 186
271 185
55 242
377 251
139 94
346 160
211 6
275 44
72 227
138 322
70 361
371 237
243 83
341 349
147 381
207 27
197 347
135 99
208 357
68 133
171 162
260 139
31 335
241 297
179 231
28 226
28 333
343 248
363 68
384 135
180 359
170 62
202 264
31 296
102 241
353 148
212 109
212 297
236 235
51 178
240 260
370 41
196 40
347 351
64 281
238 340
351 9
256 33
277 133
137 388
178 364
66 386
146 211
169 8
251 24
335 272
222 110
101 17
186 149
384 155
364 109
123 319
23 249
239 147
291 178
242 56
176 26
389 303
329 229
99 304
197 56
275 73
303 345
239 62
29 363
76 107
55 38
92 338
264 118
144 211
44 107
192 161
268 373
105 314
105 222
251 324
57 309
343 385
369 259
124 222
279 161
186 158
30 76
244 148
146 162
266 58
68 352
225 9
246 279
351 205
3 319
200 13
27 174
346 323
341 227
210 153
114 178
243 207
192 18
254 12
172 28
245 1
261 256
346 69
258 350
170 306
389 312
343 355
362 260
329 30
360 343
245 159
120 331
212 142
227 345
220 55
58 254
6 286
171 110
254 107
290 263
335 269
322 356
308 373
51 164
53 113
249 357
328 76
200 29
374 384
47 133
351 168
56 285
94 162
83 322
85 288
69 156
79 3
238 186
256 74
17 267
220 7
62 279
161 221
134 374
207 265
313 134
148 194
374 361
373 388
350 382
369 157
106 246
122 6
91 256
187 351
357 29
167 301
313 240
213 199
99 220
17 222
249 188
312 341
283 138
51 339
190 137
340 168
321 147
170 214
23 128
291 313
81 196
33 373
319 118
307 390
136 369
83 244
181 261
316 299
82 351
383 183
110 158
363 288
259 276
99 54
215 65
316 273
210 255
99 369
83 39
169 142
91 19
46 281
312 385
273 312
55 92
228 289
167 23
315 132
368 76
338 365
174 323
161 168
211 247
110 89
322 261
140 131
371 136
209 288
170 290
263 222
122 17
178 171
262 162
338 212
185 224
283 332
121 211
267 143
281 39
34 221
121 177
357 309
203 153
153 2
183 171
165 278
292 106
50 300
297 382
152 263
93 109
26 324
189 303
193 259
115 104
167 1
20 13
243 10
302 349
91 286
165 136
161 381
74 139
62 349
225 145
172 145
382 386
25 45
318 58
356 190
114 322
318 123
158 346
241 167
87 333
74 117
314 141
114 241
187 16
191 301
358 93
7 152
360 181
142 365
302 384
329 36
152 354
189 194
138 298
89 219
340 270
34 204
66 128
240 229
51 186
244 241
311 251
246 80
299 362
220 368
293 69
158 127
240 287
281 275
61 162
73 128
34 106
244 48
85 65
26 198
50 305
69 382
52 258
174 351
220 142
372 360
246 183
148 225
151 111
156 360
32 90
212 114
315 36
69 51
135 262
91 372
120 175
107 278
197 124
256 274
229 332
37 243
272 69
294 253
228 255
120 79
146 304
88 340
322 48
293 71
384 127
383 349
248 385
176 219
117 8
302 44
105 298
262 132
29 205
351 281
175 213
366 360
139 244
197 207
384 375
92 40
39 146
224 267
242 152
244 165
347 143
226 346
122 340
290 362
203 97
134 107
132 95
134 324
196 137
87 176
326 103
59 246
28 374
56 130
198 271
4 301
164 340
380 76
124 135
373 151
114 291
3 333
60 52
291 364
288 215
336 318
90 99
336 298
241 361
102 331
96 206
113 307
94 49
13 147
338 181
289 356
106 47
173 77
207 389
116 298
387 235
253 181
364 69
159 313
17 185
182 17
87 308
379 339
237 102
387 258
27 382
330 163
236 200
322 341
70 21
212 130
125 55
201 168
272 156
256 165
169 226
60 330
18 352
90 341
225 161
125 166
93 241
172 125
238 117
184 77
260 129
231 337
39 74
22 363
164 353
116 168
84 43
105 212
91 116
5 37
31 160
230 253
102 211
255 21
312 382
296 269
51 100
69 9
123 204
381 229
21 126
116 109
139 206
292 27
347 163
350 344
274 33
283 54
243 197
21 324
138 4
344 107
177 18
192 80
91 307
28 201
275 198
129 148
299 171
123 206
182 120
97 115
334 127
138 352
263 106
357 253
318 301
245 359
49 61
200 207
97 91
87 69
362 194
388 134
321 208
123 233
349 232
246 242
232 298
233 29
244 271
323 187
309 246
74 91
325 80
10 168
363 130
243 298
88 121
134 187
247 95
25 145
78 91
306 251
26 299
23 347
246 169
6 218
147 265
343 196
32 114
65 257
137 179
183 90
104 160
44 98
330 7
158 364
277 370
86 229
339 318
14 127
17 72
143 193
271 189
234 299
102 63
147 346
189 5
257 71
96 241
362 23
60 34
3 341
262 261
141 306
179 108
179 112
373 64
117 253
4 132
3 199
93 155
371 193
200 187
144 9
136 354
104 227
260 76
353 275
314 285
66 324
260 231
6 121
221 271
171 301
299 356
199 306
63 328
240 219
379 306
225 259
127 260
341 69
263 22
348 194
110 292
332 369
23 256
324 349
130 162
210 341
336 363
79 94
130 110
17 32
162 361
365 225
328 269
26 318
360 74
34 183
279 330
353 167
190 80
212 260
332 158
236 193
106 118
249 46
75 333
133 290
123 6
37 369
327 216
313 108
242 383
311 291
125 378
163 341
95 176
134 98
235 134
241 332
46 44
166 91
46 172
216 210
229 303
110 42
329 38
76 280
96 32
122 258
101 120
25 353
116 291
138 302
74 148
143 261
18 56
31 286
78 295
250 316
211 84
274 359
298 108
308 104
59 156
378 59
384 67
260 104
340 73
125 159
72 86
137 306
381 37
96 326
69 280
258 235
163 269
339 276
226 231
293 20
44 177
276 178
229 179
150 155
168 259
91 327
19 357
86 170
108 322
201 257
297 310
246 148
25 23
105 371
88 15
38 135
357 141
68 136
76 329
226 245
96 197
277 239
127 314
274 195
266 10
272 177
283 387
384 181
237 317
203 86
141 344
385 92
307 190
366 33
287 50
230 204
264 186
383 143
250 139
120 256
345 364
79 178
65 153
305 5
356 85
247 79
268 14
99 260
107 24
252 302
346 84
185 120
198 114
163 39
169 159
356 374
14 81
243 185
198 141
123 4
186 181
173 40
187 356
2 215
339 232
329 179
372 307
206 234
160 158
144 302
189 176
9 157
74 31
211 43
230 248
246 314
316 41
268 77
257 198
128 142
280 386
377 193
63 46
379 373
370 299
244 42
122 379
335 362
49 98
316 257
112 262
269 310
283 240
364 318
13 5
30 48
138 123
122 331
195 298
56 88
91 300
14 375
78 172
51 192
170 13
349 228
31 257
322 293
2 205
240 290
64 181
30 144
326 314
259 194
62 16
32 138
26 193
380 214
221 157
146 9
74 241
139 37
89 322
199 231
297 56
6 17
28 39
339 257
130 58
369 10
184 125
311 80
176 314
68 98
159 180
387 29
125 289
290 310
66 221
333 257
98 330
344 121
216 77
274 58
256 116
205 17
272 255
58 54
311 242
390 40
233 281
361 205
127 169
73 282
222 26
52 265
235 161
343 154
90 345
88 197
291 34
306 274
10 103
248 309
356 254
300 334
246 10
187 262
192 200
49 65
154 21
329 363
309 109
272 178
38 122
191 142
349 225
24 228
94 269
169 40
306 359
183 4
120 54
202 311
363 135
363 335
85 281
118 217
134 315
386 106
215 36
266 2
85 362
370 239
213 262
108 274
121 22
81 287
306 324
67 134
249 67
314 313
65 335
189 313
388 1
230 198
93 153
324 61
186 98
115 157
170 136
296 271
147 94
192 243
107 98
127 299
20 84
77 92
278 103
172 100
240 205
5 38
360 172
68 69
270 174
212 340
204 105
50 220
370 3
371 202
357 12
349 293
317 146
178 4
79 243
345 296
306 290
183 265
24 82
183 314
69 164
381 314
9 273
74 363
296 380
121 316
256 383
284 160
105 153
259 239
67 308
316 179
194 324
218 3
290 87
157 288
110 181
54 193
55 273
162 34
31 354
343 190
329 270
269 138
36 193
18 90
91 338
194 55
106 369
238 251
163 144
181 15
374 67
100 285
188 228
337 208
205 195
75 293
243 331
312 289
127 322
194 164
138 106
227 237
273 7
167 233
241 351
34 48
199 304
329 20
385 184
181 255
75 5
357 369
88 240
213 292
205 165
256 85
192 136
259 217
31 310
199 339
83 233
136 381
325 160
373 223
254 55
127 134
205 4
35 169
131 137
253 57
18 13
141 227
262 42
186 303
318 4
287 147
349 194
257 46
340 288
227 363
225 316
63 362
63 158
44 247
124 250
274 258
147 211
85 29
383 271
2 44
365 159
203 239
160 145
99 228
372 385
238 339
157 381
364 352
284 154
69 220
314 94
179 178
237 76
305 377
241 344
284 216
182 90
296 278
291 201
72 65
65 56
100 346
35 321
312 313
255 220
356 259
344 49
331 168
107 326
333 58
279 356
68 192
219 266
286 365
333 241
233 321
319 179
317 16
230 83
318 110
30 264
78 226
105 27
282 228
91 163
210 221
10 93
127 212
44 351
171 179
153 48
145 368
312 138
56 16
183 350
80 212
48 164
176 14
210 10
295 45
307 228
225 126
319 213
309 208
323 276
64 312
176 164
290 243
102 264
93 122
271 262
116 85
167 221
156 385
158 334
116 338
279 37
44 332
55 135
52 199
202 265
172 228
140 327
45 334
109 167
310 354
285 200
278 303
349 174
337 189
161 365
333 185
85 16
72 332
182 243
144 261
155 73
194 293
227 187
82 143
3 102
3 20
350 112
275 86
224 161
90 170
333 203
113 57
121 261
163 369
102 90
102 36
300 59
350 207
69 63
248 215
274 91
346 19
242 138
319 197
37 228
160 138
368 50
284 289
138 94
24 234
334 270
46 312
237 243
219 55
92 230
361 231
328 230
249 151
240 350
294 324
272 194
379 341
37 146
252 14
299 152
161 322
289 270
204 32
32 227
338 300
332 213
371 197
317 266
123 46
110 160
288 263
46 2
370 214
207 212
153 172
127 72
224 310
74 157
67 376
300 289
160 300
321 223
279 289
176 24
212 292
125 108
64 248
283 65
352 218
255 385
60 96
252 142
256 55
16 139
269 165
125 275
171 222
255 177
335 18
82 138
9 85
153 338
365 71
348 197
377 260
157 301
314 122
308 324
55 223
153 350
85 306
130 290
129 299
138 290
147 266
189 297
317 62
183 385
326 140
161 386
205 356
337 362
31 72
26 240
112 50
249 309
112 17
242 73
164 143
172 116
273 198
152 276
226 343
236 63
196 174
333 389
318 62
156 365
23 308
277 183
289 275
362 383
158 251
73 185
244 387
231 349
70 357
66 205
332 103
244 56
40 321
208 249
95 148
213 61
66 27
190 19
45 172
240 281
371 146
387 262
66 40
66 167
236 102
35 268
273 324
142 8
46 279
95 183
389 265
116 382
58 5
74 316
131 33
274 198
368 12
372 114
385 20
104 287
238 66
290 303
221 71
33 270
302 199
327 169
288 305
307 137
2 145
112 382
36 239
18 257
69 129
241 9
268 253
34 7
140 278
159 359
207 189
171 153
222 98
198 69
341 26
232 46
95 297
315 381
152 54
372 243
332 46
370 285
390 128
71 20
317 207
324 108
185 122
55 108
129 18
313 286
130 153
135 52
376 203
98 280
271 153
155 246
305 255
363 123
382 152
200 290
128 223
230 156
203 301
224 41
223 286
318 82
330 264
314 28
201 292
205 274
337 70
227 54
299 286
136 347
389 130
187 386
357 245
204 60
334 203
373 191
223 168
365 185
165 63
56 15
108 104
94 13
157 302
259 41
172 147
101 20
277 34
321 253
58 47
191 145
302 132
94 9
139 369
259 90
156 333
75 371
382 246
5 176
7 379
12 173
61 244
208 154
305 167
339 221
224 183
365 69
70 155
74 362
112 264
193 194
331 17
266 167
152 88
287 283
225 172
49 280
331 140
362 251
18 283
118 56
242 225
157 161
204 239
84 51
4 341
155 228
183 135
119 159
75 72
163 177
312 23
277 214
196 101
297 136
246 346
90 329
203 138
122 256
111 245
144 174
72 90
128 125
27 304
346 344
281 390
139 227
296 2
271 228
96 56
234 346
28 274
224 350
121 165
226 275
113 66
361 100
268 113
59 388
270 182
23 238
222 198
217 264
270 233
253 126
347 290
4 152
53 334
329 351
330 336
298 340
365 13
351 270
5 55
248 270
172 257
258 207
301 159
209 297
379 205
28 289
31 213
185 211
21 176
340 11
345 319
310 186
373 295
87 305
41 148
148 311
269 314
4 139
213 20
121 34
385 111
362 230
262 179
238 25
61 178
202 234
80 116
348 270
112 38
73 298
135 227
102 2
185 314
309 122
223 245
63 96
343 270
278 75
180 196
54 363
158 225
267 95
244 44
324 12
193 272
106 207
344 32
238 177
243 131
179 365
255 369
154 334
27 90
194 260
36 369
275 158
193 170
241 161
343 150
49 54
283 254
144 137
73 183
201 344
16 347
31 309
135 6
123 377
243 276
189 316
90 287
352 176
309 113
356 133
110 383
127 292
337 264
228 366
243 158
26 69
227 107
177 362
138 90
300 77
359 92
23 205
239 209
254 66
174 347
379 362
389 371
175 306
141 274
313 231
74 167
279 322
314 255
191 117
4 241
210 278
172 76
85 82
277 164
225 384
224 58
183 54
105 379
260 270
243 36
145 340
10 72
49 281
215 303
141 208
32 76
239 345
15 264
6 344
172 37
123 280
254 33
98 291
339 251
348 52
352 41
207 4
205 144
330 48
3 299
358 374
104 258
38 292
43 50
131 275
33 28
155 2
179 220
343 298
49 31
335 3
116 208
130 273
183 288
293 329
147 185
100 102
278 182
22 71
98 262
123 385
334 373
141 29
135 319
235 314
311 156
134 185
123 257
72 293
136 48
267 163
77 374
341 73
96 10
115 40
108 353
227 6
316 132
245 55
215 189
367 313
374 23
69 98
251 169
305 390
65 192
340 373
385 365
56 306
270 137
39 352
206 127
10 27
102 270
185 363
25 307
332 43
209 317
213 103
153 302
145 274
130 351
112 68
379 251
229 182
275 291
380 352
302 369
258 239
203 353
171 23
215 316
221 286
265 296
380 176
47 386
31 73
29 366
225 122
231 112
278 270
24 72
332 276
16 152
361 330
4 250
236 274
152 15
160 11
198 104
271 123
135 344
122 272
122 278
144 250
127 178
178 110
335 329
38 98
303 383
380 99
27 112
335 303
44 132
189 352
100 27
53 159
277 185
379 110
84 260
125 140
56 95
326 162
187 250
283 135
178 329
227 118
301 381
245 220
369 161
376 176
95 52
194 243
284 223
340 20
305 12
171 192
65 195
66 223
342 255
192 7
263 118
126 309
97 324
110 20
289 360
349 158
6 352
21 305
104 154
321 45
79 127
311 2
125 321
82 65
306 286
311 140
356 172
50 93
71 5
177 261
12 373
346 20
65 155
278 168
287 204
261 230
174 344
198 152
114 273
358 45
122 195
180 245
110 339
264 32
138 278
369 227
72 369
158 39
369 71
361 150
194 105
9 10
161 145
86 122
339 171
368 361
38 18
364 148
107 28
123 140
379 321
49 363
150 181
23 143
257 296
382 62
41 88
186 18
122 201
355 92
145 261
56 363
95 123
59 31
351 5
176 43
123 132
38 132
45 312
97 59
222 338
312 187
220 148
256 41
43 333
255 72
255 384
30 197
368 163
263 146
208 251
339 69
335 177
252 372
275 338
126 109
150 160
380 272
190 128
254 274
251 385
22 285
59 29
156 298
176 246
322 240
267 350
123 317
84 286
100 177
84 156
229 183
2 270
217 84
58 382
217 370
224 60
276 340
385 126
221 89
314 316
346 40
116 224
134 156
253 119
231 145
257 256
343 246
113 128
98 34
44 148
46 132
49 46
44 120
282 142
306 100
13 100
349 291
275 314
68 174
372 246
250 46
87 43
120 267
83 149
7 383
138 18
93 342
192 189
115 128
340 235
322 193
99 84
275 368
65 84
361 215
102 234
15 341
217 153
281 151
68 60
221 257
368 7
364 241
247 250
225 163
175 58
230 147
302 176
358 108
348 236
278 314
118 179
257 39
108 201
223 141
233 155
227 202
158 20
71 183
161 66
24 211
54 218
384 14
389 198
115 301
119 173
297 4
345 124
2 271
288 41
272 18
253 109
178 55
7 176
285 179
362 272
145 168
353 324
24 225
42 182
221 258
253 23
147 87
133 94
71 269
116 29
120 6
323 162
303 171
61 275
44 267
286 13
18 108
231 36
36 32
37 47
169 131
50 154
229 177
169 153
75 90
122 156
89 348
220 131
82 290
66 158
191 59
205 28
262 193
217 101
273 85
272 98
145 338
270 346
385 381
334 295
315 182
336 130
101 52
213 75
81 91
116 299
283 244
74 28
92 334
359 77
52 102
174 276
363 291
55 379
116 287
242 63
208 255
162 341
205 258
151 321
259 348
50 289
94 270
363 6
56 220
390 245
254 45
58 340
42 82
385 166
190 117
87 114
176 220
283 319
212 179
194 3
231 164
221 31
365 4
363 213
58 139
309 172
256 357
18 24
354 291
243 85
165 6
51 285
40 142
172 233
189 354
186 234
89 293
231 285
279 87
140 71
52 103
365 360
122 361
283 5
223 25
203 74
76 170
155 379
47 380
84 223
203 366
254 140
136 56
379 350
247 299
57 66
114 38
261 85
276 4
186 73
186 141
174 28
170 219
268 282
4 198
342 50
3 346
302 201
90 56
286 350
211 177
191 173
8 80
217 146
129 364
140 30
22 297
362 51
237 135
260 369
277 209
27 41
103 322
353 307
211 272
351 134
287 107
344 37
313 248
49 352
365 181
237 196
102 177
181 174
183 215
26 380
236 291
283 187
133 214
67 78
246 51
175 86
154 361
30 107
99 109
100 41
321 97
29 251
386 291
315 130
382 51
147 194
360 334
176 13
330 143
2 53
206 51
249 342
332 221
298 139
279 76
66 378
72 192
290 298
370 290
46 157
332 114
37 15
368 221
168 117
84 276
244 145
93 28
50 327
189 322
222 292
206 86
377 10
121 276
4 192
69 277
360 196
315 333
254 235
390 223
299 261
224 199
270 83
312 111
156 204
180 228
169 77
277 264
86 89
226 173
139 312
384 260
93 183
176 185
347 280
42 52
259 275
31 94
311 198
356 145
147 251
224 146
322 247
147 213
171 87
369 51
232 197
380 333
101 182
68 47
272 198
385 93
27 225
89 241
44 240
250 242
366 91
336 79
262 314
276 381
176 155
224 170
204 335
262 55
205 45
226 325
69 136
230 299
325 59
180 23
142 374
65 60
341 183
103 85
389 186
203 39
332 314
384 245
124 328
359 368
136 348
304 170
114 101
381 131
226 368
33 116
270 88
186 210
260 334
261 153
244 285
107 162
11 92
122 219
114 80
290 63
372 374
36 271
264 280
177 204
379 213
169 390
299 50
96 379
51 133
309 308
357 174
228 335
101 32
68 296
199 102
196 208
72 296
14 111
141 200
239 315
369 377
90 232
228 360
129 84
297 3
384 352
275 288
9 254
84 324
385 301
291 105
287 183
306 356
140 60
47 152
29 90
162 206
379 49
133 302
21 320
364 52
122 105
142 238
302 85
145 305
381 247
100 305
52 30
71 296
235 263
293 231
360 268
204 195
302 129
338 261
207 377
83 291
376 228
326 165
3 82
135 89
209 148
292 297
149 20
246 330
50 203
169 321
41 384
63 283
66 233
375 253
183 101
212 258
255 145
108 137
211 152
50 55
58 306
65 68
178 377
315 316
271 329
241 65
206 149
146 297
259 207
176 111
44 24
30 263
329 194
383 275
363 232
383 338
158 285
44 168
100 79
328 175
39 161
384 205
271 48
155 306
365 2
130 34
266 122
32 102
332 211
177 332
240 56
173 50
226 220
215 301
112 26
221 263
309 252
75 240
231 10
296 122
339 377
240 3
205 228
297 99
356 274
279 381
260 191
54 214
339 273
69 230
48 231
204 205
33 361
354 170
145 28
83 212
307 14
285 197
58 379
221 29
289 160
87 343
117 379
232 51
122 129
65 316
112 387
42 135
201 96
356 250
104 37
126 373
330 49
124 259
335 324
18 362
386 272
131 238
347 309
91 358
121 132
245 91
140 159
237 276
371 354
184 167
51 364
118 90
354 211
80 205
248 126
176 210
302 292
127 141
299 153
63 179
299 227
15 383
321 281
133 243
109 141
186 280
14 21
153 53
255 159
17 135
276 158
177 203
130 152
74 71
390 205
342 14
185 71
72 5
256 288
242 9
296 331
200 261
385 281
231 368
228 29
127 81
82 15
347 303
356 31
105 350
165 298
280 158
134 205
5 240
213 102
390 210
251 80
375 254
174 235
315 13
195 382
7 186
6 328
339 222
305 80
260 5
20 341
243 201
66 243
109 23
11 305
71 215
231 287
206 161
66 374
246 287
120 107
355 203
265 370
220 135
68 350
329 322
365 242
333 244
178 69
246 226
60 32
334 99
137 251
220 2
132 232
67 365
188 376
203 143
139 155
28 284
236 61
291 324
239 207
349 276
188 208
388 80
291 219
18 222
292 108
293 389
198 102
2 50
30 354
353 330
359 225
332 49
344 186
300 164
298 353
344 187
359 173
323 176
273 18
71 333
32 99
272 63
102 277
186 312
16 370
12 73
97 274
155 60
381 98
180 40
121 44
251 340
313 127
169 28
156 86
243 287
340 87
283 58
82 58
206 336
222 201
313 244
357 76
75 267
86 269
59 334
340 163
205 86
289 385
317 370
128 104
105 100
22 262
228 181
298 350
243 157
80 233
201 356
80 137
87 109
126 181
330 348
183 200
103 32
263 311
386 286
301 58
167 140
389 107
83 240
118 88
211 341
225 268
60 146
302 115
196 51
71 76
111 205
178 271
383 80
244 318
82 136
185 236
236 351
315 213
94 290
15 351
332 24
141 173
332 20
126 153
14 91
73 29
250 3
203 308
21 1
341 38
187 380
172 223
363 234
300 150
127 309
202 17
229 280
9 205
273 211
46 127
136 322
191 308
168 120
352 161
199 79
110 79
255 73
128 131
328 257
169 298
227 256
176 148
345 149
142 137
247 261
116 145
6 386
209 56
302 203
38 10
113 357
180 45
26 54
85 274
213 244
235 280
347 228
6 114
239 278
319 290
223 343
324 225
379 239
109 72
293 15
299 351
193 247
315 50
153 201
87 9
58 62
255 302
166 295
242 213
258 157
12 57
216 28
336 100
112 39
180 208
51 225
194 171
239 383
359 57
302 300
28 23
216 359
282 33
110 280
123 15
170 179
82 387
281 225
12 176
87 237
308 327
317 381
12 284
52 121
232 122
47 200
200 278
301 365
311 123
210 337
278 3
167 274
251 224
141 281
46 98
179 214
218 232
5 148
108 281
39 60
261 93
228 107
6 335
16 72
167 141
101 185
183 104
204 146
305 161
341 114
341 189
149 202
153 136
179 144
7 214
206 140
281 41
114 4
318 256
149 124
140 384
315 341
131 367
274 99
98 133
152 56
91 13
244 13
157 336
338 326
382 108
239 326
207 49
26 283
348 168
282 77
182 32
13 309
28 73
197 135
98 244
128 233
232 377
163 277
3 377
290 277
369 217
158 139
300 31
132 246
117 320
56 331
363 237
205 304
100 80
199 189
86 195
13 265
137 245
220 122
207 174
98 200
307 142
82 354
154 245
156 330
102 153
169 210
35 228
230 45
164 103
107 50
247 177
242 156
312 245
380 56
131 19
211 201
39 291
102 315
353 220
189 384
192 236
83 349
33 362
26 271
3 99
204 232
225 188
352 332
361 325
206 271
324 116
156 109
13 124
248 81
312 134
114 55
228 279
144 138
343 300
316 251
137 169
273 16
317 254
87 215
362 22
350 229
118 60
1 294
79 225
250 24
238 242
324 3
58 106
37 90
250 336
377 256
278 323
53 140
389 171
334 306
303 192
256 339
233 195
176 109
18 110
226 347
383 328
14 40
105 41
351 330
45 173
42 246
65 305
269 9
24 293
381 179
134 31
148 195
251 85
342 35
44 17
238 43
32 85
6 149
143 292
288 318
295 59
85 347
51 3
356 174
227 315
110 65
296 82
375 327
1 127
108 230
98 322
43 312
72 318
383 318
224 297
363 37
193 95
83 153
96 371
318 10
211 87
164 302
164 273
35 312
158 244
50 272
370 34
200 199
99 116
152 362
171 347
46 35
353 168
243 15
108 145
11 330
174 382
221 352
88 265
15 80
276 83
305 241
249 228
215 74
214 34
221 156
84 72
122 237
240 42
344 220
221 381
201 235
139 271
162 131
301 33
192 146
73 46
259 79
200 234
136 277
189 49
336 56
95 127
98 101
222 344
340 384
196 362
364 205
271 259
242 69
337 204
262 331
279 12
377 96
336 234
267 230
187 146
123 163
155 143
272 95
263 187
232 348
162 46
255 241
149 270
287 328
303 200
20 189
178 303
4 274
136 152
349 329
46 167
324 260
178 246
340 356
342 80
212 99
12 147
301 73
176 266
343 128
383 44
372 226
359 318
44 263
10 109
269 346
313 356
207 387
123 380
303 143
204 17
335 69
90 165
102 337
28 119
207 123
233 357
349 13
246 270
71 195
198 9
86 3
45 140
248 166
43 360
299 330
68 348
189 299
162 123
150 33
149 204
48 197
107 280
256 221
292 220
222 315
9 5
228 18
293 175
114 230
16 222
22 229
360 55
260 66
31 10
368 255
79 149
2 179
103 339
322 229
243 174
221 181
155 184
18 382
174 267
356 178
62 256
168 357
155 134
32 87
38 239
98 104
212 220
10 86
83 199
140 222
273 235
289 108
360 76
211 17
24 134
259 26
317 278
235 317
18 123
160 196
79 314
291 2
279 72
71 114
10 341
352 261
136 304
20 186
242 33
223 338
193 104
313 192
128 378
180 373
196 205
103 118
297 331
147 199
15 192
105 18
251 51
325 53
356 103
4 213
227 177
366 223
104 265
46 239
356 255
233 229
2 27
384 51
267 153
120 389
89 170
5 212
254 37
175 285
72 313
213 7
162 244
182 247
329 276
56 311
78 167
145 153
44 86
246 195
266 291
121 323
13 340
114 246
131 156
72 82
54 105
369 47
169 255
202 162
286 264
256 340
26 362
15 143
299 323
203 292
175 354
189 276
330 273
222 389
158 368
352 89
22 250
306 299
339 326
155 210
251 106
145 242
31 52
341 351
303 193
72 270
240 7
41 363
261 345
53 91
141 267
331 6
193 49
215 354
242 17
275 324
357 390
311 10
105 241
267 304
318 386
346 33
335 280
244 179
250 183
163 300
301 111
382 118
134 346
181 305
205 376
337 230
375 338
318 229
58 52
8 365
352 123
148 105
74 349
223 225
87 51
144 365
317 259
38 205
88 138
192 108
10 365
248 337
133 269
120 247
313 259
372 274
175 17
72 219
152 105
176 178
126 167
38 28
243 46
111 169
275 115
369 122
302 66
225 71
239 22
297 155
20 127
333 10
75 336
313 299
144 228
109 210
10 297
16 369
364 162
265 267
244 254
294 388
239 206
383 10
156 93
338 12
245 67
323 329
262 287
185 20
198 90
14 115
53 385
156 138
161 258
131 28
242 89
221 98
158 87
52 246
190 140
15 260
138 324
10 198
196 119
4 261
157 300
211 13
62 258
115 274
15 93
20 331
77 167
277 297
2 71
282 208
161 261
36 136
18 349
202 278
104 383
334 87
316 27
96 106
54 85
340 6
184 301
241 265
166 77
2 304
241 84
316 133
213 298
206 120
18 178
53 321
91 171
87 49
181 115
247 313
286 314
108 225
214 217
251 213
364 156
61 157
198 194
383 286
28 117
361 385
156 162
315 32
192 364
138 274
368 389
173 181
193 127
330 372
189 130
180 254
314 143
136 102
49 287
100 379
293 101
134 114
360 208
146 83
99 293
279 212
384 16
313 210
131 9
5 302
145 312
299 291
51 222
53 338
246 210
109 80
316 381
318 145
88 140
183 188
167 195
388 357
44 241
309 19
337 240
350 244
74 277
212 59
171 340
338 31
229 110
122 245
381 369
155 52
16 96
76 127
259 34
155 302
195 58
186 31
117 188
230 385
78 385
27 258
153 345
256 80
212 227
225 292
97 309
9 158
12 353
70 117
304 204
248 325
95 235
197 178
5 147
288 324
143 72
63 51
283 386
26 18
80 273
171 381
50 29
170 244
157 260
133 56
324 55
161 212
148 132
140 337
241 158
138 157
303 364
211 219
243 94
256 22
203 186
178 186
150 145
301 388
160 336
109 205
160 131
179 239
262 285
46 223
265 34
2 83
2 351
287 139
53 373
361 342
105 157
370 31
203 11
205 233
176 358
346 23
230 372
292 387
153 158
375 147
21 50
279 250
299 255
263 283
190 275
183 390
304 348
308 359
133 381
372 245
61 147
364 251
284 40
243 155
219 368
239 187
283 178
337 151
209 9
314 385
282 43
340 80
202 352
83 36
170 297
347 157
298 356
91 115
202 22
189 328
333 194
45 373
191 342
141 232
315 349
289 225
203 246
237 278
228 318
29 258
388 166
141 213
133 261
222 69
30 319
69 316
91 172
85 86
238 301
13 41
60 51
187 209
203 158
199 232
342 324
54 22
255 279
229 98
169 117
122 381
103 380
50 103
270 29
55 93
58 87
230 244
257 121
40 376
368 37
23 72
261 212
265 62
381 129
231 214
362 219
113 308
279 227
144 122
225 314
196 249
12 108
26 296
222 239
382 107
82 127
337 132
306 122
226 161
240 286
59 159
61 50
79 215
164 383
55 377
155 320
12 143
317 186
76 141
335 235
143 76
79 384
118 30
94 281
291 234
374 223
7 82
16 214
43 35
371 277
312 286
200 105
330 148
9 54
374 113
65 37
68 170
234 229
183 2
236 5
220 210
141 320
16 118
385 309
23 368
170 380
99 98
140 347
303 304
176 317
301 207
376 390
33 231
376 284
25 134
322 112
322 323
192 263
272 232
5 287
2 233
336 383
154 295
312 288
141 99
218 244
65 240
361 144
261 36
351 11
85 318
85 389
273 161
210 83
116 351
112 266
217 198
341 260
304 118
148 242
220 164
38 49
204 206
116 200
250 179
171 337
63 62
299 340
142 353
146 256
333 224
313 287
250 269
293 138
349 89
332 87
95 218
299 363
28 238
139 120
63 364
170 49
315 24
36 98
17 266
316 246
101 197
250 89
327 208
275 181
341 274
332 194
165 236
99 346
65 233
58 121
381 241
201 177
39 200
13 261
153 157
63 153
334 134
366 176
63 254
96 51
79 302
25 73
276 297
313 162
66 33
278 175
236 3
46 111
303 174
61 98
388 325
351 6
364 222
149 383
76 179
300 167
344 127
105 56
174 330
82 123
234 276
255 372
234 37
142 145
241 228
117 113
371 138
38 363
244 123
278 228
245 125
2 69
5 389
344 94
134 72
311 144
71 158
255 390
163 11
76 138
281 241
308 357
331 298
161 338
9 263
279 116
173 210
78 357
308 294
193 41
365 332
130 175
276 218
24 32
245 284
184 324
318 15
3 27
187 389
13 65
95 177
135 175
214 310
235 49
66 9
234 250
168 298
227 352
73 374
142 324
328 55
82 162
346 379
104 18
325 275
339 26
313 387
230 141
371 42
188 284
192 377
330 267
48 270
388 342
207 93
243 333
155 33
10 278
60 381
34 371
206 175
158 91
230 181
13 6
327 28
230 113
98 170
28 156
291 61
345 146
260 368
162 140
148 18
59 12
376 59
210 127
385 11
67 343
33 18
389 272
21 81
314 2
362 17
143 74
198 192
157 246
162 248
95 351
352 319
97 126
255 20
179 84
68 377
145 78
305 156
229 362
165 330
69 66
279 49
173 365
138 389
274 280
208 324
160 353
141 128
98 267
123 171
201 37
140 208
221 267
153 273
330 167
377 85
275 233
271 79
116 142
287 389
353 2
123 134
217 135
79 214
66 23
369 141
262 114
234 107
54 273
220 205
275 193
303 306
205 252
199 265
386 356
72 242
381 10
157 274
152 84
288 104
164 269
39 68
360 231
279 263
102 112
283 29
218 293
244 229
260 246
324 82
211 241
152 290
304 63
190 357
253 142
135 143
355 324
200 270
49 85
112 82
276 123
128 245
88 304
58 156
251 219
305 81
258 177
61 305
311 155
347 195
93 74
269 20
217 202
361 11
50 230
385 150
16 296
141 188
179 323
79 277
319 380
267 380
231 258
282 225
66 249
99 251
335 364
179 106
30 68
340 217
117 80
127 182
233 198
58 155
157 12
222 283
341 292
298 183
373 59
254 363
203 99
297 258
301 99
260 301
26 65
240 369
102 175
46 378
118 371
187 210
144 201
290 179
356 281
269 222
300 301
23 288
113 195
227 101
249 334
74 177
159 37
78 281
210 297
272 105
58 163
373 233
199 381
245 275
194 162
324 10
20 335
58 152
270 164
187 171
353 119
347 259
179 37
90 328
380 58
90 276
332 287
176 384
317 217
176 337
95 333
384 327
64 289
270 43
369 138
140 205
290 2
298 117
179 247
13 44
14 309
116 18
140 51
287 316
134 311
134 173
192 164
168 238
218 292
276 95
200 383
171 207
141 93
322 195
218 349
2 136
158 32
306 354
223 289
292 209
286 198
297 106
37 221
192 26
387 328
334 309
355 346
66 25
315 124
119 157
204 120
95 259
251 127
89 123
34 114
85 185
61 152
166 181
157 139
163 82
31 162
387 280
313 79
165 185
151 43
178 189
243 270
154 254
114 211
165 114
203 196
221 41
207 89
257 254
132 311
242 158
358 80
45 14
245 161
56 224
86 201
22 79
141 245
347 323
3 130
49 240
202 100
382 283
290 60
13 300
207 76
102 194
364 186
32 136
94 211
180 360
264 96
319 7
91 138
326 72
80 312
295 372
378 289
176 218
141 283
284 128
340 352
217 149
255 8
247 152
377 4
143 9
322 177
164 195
16 193
187 65
349 36
244 382
69 384
313 33
37 181
340 210
156 46
179 104
5 149
371 22
21 295
198 60
390 57
201 197
17 246
73 160
334 151
44 251
333 145
93 66
244 329
333 110
303 82
217 316
261 389
100 30
381 310
199 30
50 130
337 302
365 300
134 241
40 249
187 353
262 263
338 359
90 52
12 43
48 214
251 32
158 116
387 63
254 378
296 52
200 26
339 177
131 57
46 67
301 257
40 190
39 98
153 74
236 123
93 11
282 355
4 324
38 171
137 164
211 36
185 231
151 245
44 381
26 58
162 251
79 339
276 242
281 305
319 340
356 183
124 61
1 203
50 160
37 334
36 105
76 211
113 29
236 317
60 270
127 338
177 264
5 234
34 206
176 353
362 20
278 213
290 153
144 255
322 246
327 366
195 243
20 349
371 270
124 218
315 69
365 145
368 167
144 241
254 325
146 168
82 221
330 144
241 254
341 267
163 311
370 199
113 305
313 366
300 122
212 43
147 175
194 265
281 84
107 215
318 61
356 222
348 277
123 383
354 278
317 270
282 275
153 174
119 203
73 385
54 257
372 314
139 222
67 142
57 308
60 6
227 160
243 12
372 305
234 345
84 316
266 387
50 308
194 221
259 54
68 189
220 347
82 361
219 344
227 88
93 233
75 219
17 95
197 98
270 123
336 236
242 256
82 269
260 373
291 207
197 31
370 62
244 164
214 224
228 198
357 248
145 381
194 199
332 244
10 130
360 353
157 296
18 304
187 79
201 266
242 318
154 77
304 68
273 69
137 205
88 297
263 88
207 242
211 215
177 123
131 142
140 380
160 185
107 183
274 73
66 289
279 388
188 203
322 228
192 143
88 290
116 276
16 303
132 105
148 336
363 156
12 375
80 28
317 318
242 353
318 340
101 315
138 100
266 288
104 43
304 62
51 301
293 285
239 99
133 170
157 338
153 142
322 121
380 44
177 303
268 312
72 100
313 375
131 324
262 283
366 238
16 290
32 340
76 80
83 368
246 165
100 114
117 375
191 23
340 266
138 333
74 324
265 262
307 385
90 206
244 142
218 328
247 105
199 314
203 140
77 109
310 272
93 365
270 55
79 26
124 331
37 237
225 195
6 182
82 235
268 313
27 39
308 253
20 132
386 202
369 5
21 188
85 141
129 24
320 208
351 305
142 360
28 14
99 263
185 61
124 257
386 351
46 100
295 305
133 31
244 109
95 387
237 86
9 38
105 183
139 36
359 137
159 116
84 17
227 124
57 300
142 343
302 140
158 100
376 255
168 211
256 270
258 194
49 257
14 245
216 53
92 35
353 239
269 198
220 68
221 279
50 266
269 177
130 213
271 322
99 87
112 339
87 85
383 330
90 98
294 160
272 264
276 156
337 199
106 319
350 162
101 102
333 162
306 300
374 2
131 357
314 163
4 91
69 192
387 27
10 247
377 383
231 256
124 234
276 3
111 125
100 372
208 359
271 269
86 147
377 168
141 333
339 44
222 302
50 46
174 24
97 154
390 228
280 324
70 150
299 31
18 214
109 268
223 279
239 84
118 178
277 47
114 148
204 242
178 201
76 112
246 2
18 364
202 379
194 15
195 106
350 210
345 22
2 228
380 164
99 10
161 380
158 72
346 109
194 213
263 7
289 196
330 288
314 58
108 93
317 214
195 177
206 103
158 4
70 359
370 304
194 383
12 140
120 202
126 208
282 113
90 265
346 231
113 23
220 286
27 63
224 212
285 270
13 135
270 116
302 219
284 357
364 28
235 130
71 18
235 386
251 109
168 365
141 144
4 108
50 176
347 278
303 165
31 306
362 291
74 161
232 322
286 381
323 99
89 15
248 114
140 229
66 338
220 318
344 160
127 381
365 165
235 207
170 204
116 108
240 238
43 161
162 73
103 149
41 145
38 258
118 146
69 112
269 243
203 19
26 338
155 165
133 222
209 247
4 288
242 356
101 75
107 201
51 130
257 88
356 127
336 351
383 212
304 297
314 308
81 353
52 239
317 189
89 218
294 77
179 309
8 180
2 140
252 248
4 65
202 161
125 356
293 290
314 238
269 319
347 55
216 126
327 113
52 32
388 320
241 179
17 127
18 264
5 254
238 64
266 271
6 130
389 381
158 5
225 26
73 26
109 85
109 121
67 93
178 362
237 175
131 59
17 336
55 19
280 233
372 11
365 260
256 9
121 2
317 179
352 199
218 193
237 280
218 79
356 282
152 348
148 260
112 235
74 245
363 90
193 380
304 26
387 341
41 285
346 70
220 345
68 336
188 64
116 124
132 55
212 241
248 70
301 269
246 116
376 294
231 211
274 13
244 2
67 176
345 292
264 214
223 78
160 352
180 357
246 194
84 323
286 203
149 363
82 116
362 330
175 54
8 301
63 55
141 300
231 60
34 319
389 155
96 27
343 373
355 210
74 98
244 370
69 189
247 102
101 158
36 237
123 20
73 313
31 260
65 255
187 38
123 143
103 129
54 178
160 36
104 340
264 198
363 273
205 176
369 360
290 224
179 346
338 353
28 301
156 110
187 98
346 101
22 110
104 32
263 136
265 340
138 9
293 345
212 167
1 14
229 186
120 147
364 104
116 245
248 35
288 13
104 10
139 13
157 27
286 27
137 225
59 351
118 143
331 317
243 58
114 196
5 301
65 160
54 84
323 200
203 73
304 102
209 2
330 318
153 352
218 132
257 101
263 231
253 8
109 259
275 157
246 98
63 345
2 62
176 254
2 147
28 154
73 376
72 123
7 62
214 258
260 53
189 312
220 37
102 84
139 90
7 341
270 240
302 169
223 208
71 99
12 180
140 245
306 302
316 356
37 36
146 329
153 29
81 376
156 203
386 112
380 339
93 205
58 332
312 243
45 154
244 272
361 257
44 231
74 379
311 181
139 38
24 9
248 91
114 279
230 379
231 165
126 8
270 349
98 278
91 365
172 390
347 74
124 266
327 305
92 176
333 172
206 290
170 387
353 40
287 112
164 246
132 215
227 328
269 129
234 271
306 235
387 163
205 210
202 323
153 140
272 298
195 80
168 253
224 264
220 387
155 315
76 69
3 364
185 137
276 239
339 351
229 283
214 263
60 75
63 15
27 167
47 143
64 45
110 186
74 287
186 71
346 71
5 153
385 257
108 307
157 356
143 270
83 377
155 330
232 261
85 30
241 368
104 165
220 312
31 261
242 10
96 243
116 269
225 46
294 301
347 28
95 54
345 323
338 230
364 153
84 273
312 98
369 212
195 363
36 16
106 243
331 38
58 234
75 279
240 387
156 41
137 321
43 55
352 36
299 262
314 270
148 139
154 109
271 168
110 139
156 104
373 115
334 365
28 245
225 109
3 72
210 314
196 213
77 1
328 263
230 329
126 2
126 312
114 352
177 135
35 255
288 146
362 281
368 175
114 137
52 278
241 148
209 220
157 210
22 86
51 261
43 137
370 272
296 90
390 308
229 380
296 336
211 236
266 114
332 291
43 111
239 201
29 82
121 194
286 156
378 145
102 230
177 27
222 177
356 144
19 378
163 18
99 298
136 149
223 166
351 152
361 5
334 244
165 171
219 138
17 369
287 235
242 210
139 107
116 196
295 321
92 321
275 63
346 59
65 379
382 72
100 69
91 305
274 61
309 142
381 219
15 69
295 97
150 307
60 217
361 12
383 203
109 324
96 214
368 122
89 370
283 48
118 17
353 185
95 296
149 156
380 317
298 112
143 24
163 187
65 212
141 203
324 388
174 354
163 156
369 114
313 203
274 275
182 85
197 69
211 267
132 230
346 37
143 339
174 12
373 376
98 212
310 72
154 260
42 331
79 89
327 14
90 330
23 230
364 339
21 390
152 22
274 346
93 367
294 113
385 294
368 365
144 106
2 166
287 194
145 289
51 299
325 307
290 329
224 61
117 374
266 73
358 131
73 220
126 81
20 129
187 15
381 209
114 362
157 357
165 335
18 132
134 13
230 346
330 212
318 293
241 205
90 204
386 84
387 298
293 104
381 384
288 198
199 24
260 67
195 56
138 377
56 347
374 141
190 70
346 177
284 309
195 133
208 131
279 80
284 50
239 318
4 199
383 24
290 74
106 383
266 121
103 86
97 284
306 6
56 350
342 167
52 161
34 68
10 178
298 285
342 154
154 43
98 175
82 377
143 262
327 154
4 104
332 324
371 370
203 233
220 304
100 277
176 274
84 174
383 243
181 225
148 175
89 316
248 108
158 133
331 258
363 110
157 155
56 389
156 351
302 166
190 169
217 297
65 147
170 315
273 148
160 23
236 350
221 196
312 172
326 377
117 287
83 90
61 233
233 33
168 26
78 14
58 61
224 100
41 247
317 106
138 181
156 304
27 266
238 169
186 236
174 225
357 126
235 219
315 340
257 259
134 165
147 83
180 375
134 163
186 199
122 163
138 145
304 240
2 60
209 178
221 241
118 224
32 363
176 52
260 349
130 291
250 209
343 188
103 130
22 247
292 236
38 165
71 326
124 384
65 389
350 17
63 192
154 73
340 351
225 361
274 305
229 239
318 24
224 24
46 109
171 72
156 157
31 20
257 42
37 286
99 201
2 173
388 252
84 231
220 83
190 125
23 164
95 194
353 271
349 121
382 85
74 246
42 381
347 2
185 381
390 208
142 66
302 358
159 131
13 69
94 63
6 267
205 244
110 382
303 107
353 109
49 266
7 387
214 30
86 65
259 258
103 313
156 291
177 380
192 256
337 135
144 71
66 337
303 157
200 107
197 336
383 340
302 193
164 385
269 306
354 197
121 162
338 342
42 350
95 196
164 95
355 334
182 116
168 99
118 370
171 232
205 368
270 209
266 51
101 331
157 380
114 305
87 311
230 39
370 197
188 77
370 356
194 9
308 219
77 385
332 304
159 77
230 107
277 193
211 58
257 6
63 198
103 204
153 50
338 221
277 13
58 13
290 68
293 335
360 25
238 332
181 212
121 158
146 380
362 206
384 58
324 111
56 60
266 198
145 89
199 217
351 357
289 327
179 165
72 68
89 124
319 136
28 87
200 389
385 318
141 119
220 42
103 175
137 76
314 152
95 152
338 150
23 379
141 235
347 72
98 260
273 231
87 75
60 47
160 388
29 143
380 96
249 150
98 116
313 343
384 57
279 271
283 68
41 164
130 90
195 306
13 326
191 153
145 366
169 180
14 57
115 205
256 129
129 5
62 310
362 204
134 23
385 243
337 341
302 233
150 23
39 337
389 235
56 371
160 115
379 241
100 352
231 147
13 61
330 247
204 100
56 267
152 235
248 164
340 246
390 53
15 311
344 217
176 145
339 161
121 18
332 6
201 258
30 18
5 221
23 338
163 260
352 219
331 163
78 142
15 312
207 38
67 111
299 99
361 9
7 200
384 372
52 156
381 103
376 184
382 280
242 290
12 309
275 11
369 379
226 128
67 357
221 331
290 56
361 169
240 347
77 25
337 270
162 148
33 318
382 238
70 77
279 89
273 41
138 313
15 225
153 190
90 193
350 266
66 20
99 305
75 130
3 75
373 205
240 94
162 221
11 26
84 365
178 218
314 5
387 161
261 317
313 251
308 381
301 117
285 193
174 9
314 242
318 158
23 233
68 380
89 276
323 349
277 286
219 85
354 118
159 46
377 340
99 207
190 375
354 224
132 189
259 84
140 181
317 83
244 110
112 329
260 233
359 37
26 302
78 127
225 309
239 280
273 389
276 22
168 121
7 16
289 11
146 339
237 271
332 326
217 96
274 333
315 348
322 350
331 336
158 286
140 285
74 318
273 23
333 254
334 308
303 299
275 91
379 347
239 283
189 246
231 46
118 24
21 111
362 273
84 164
132 234
230 294
293 276
288 99
29 44
104 337
196 212
30 62
26 130
99 275
41 371
336 58
27 229
133 42
258 283
195 369
116 179
256 118
168 343
328 231
148 337
302 173
164 379
131 180
328 326
228 314
245 306
90 176
361 282
11 8
293 95
96 170
237 120
209 205
84 279
157 384
240 177
354 15
340 130
306 49
194 143
71 285
219 76
200 201
72 330
38 232
181 80
74 44
178 344
102 82
167 158
324 115
150 334
33 333
354 192
305 154
107 152
175 50
164 266
24 369
254 79
107 313
27 236
101 89
101 354
87 330
155 268
259 316
80 165
158 211
147 286
45 59
324 31
199 259
116 31
38 236
26 108
226 37
236 383
22 380
267 331
184 294
372 231
378 357
6 314
280 238
280 244
134 337
271 4
146 143
386 31
341 255
178 229
22 209
28 244
233 129
351 279
141 375
123 9
241 129
309 190
164 28
285 89
151 208
139 256
195 127
279 137
181 50
51 90
292 133
280 293
57 338
302 347
153 283
330 352
101 322
148 356
198 207
335 139
243 163
318 212
172 334
184 223
272 103
185 256
23 326
297 380
351 51
183 140
145 324
38 382
270 121
291 112
34 140
112 189
50 296
100 189
31 13
266 346
305 57
120 105
68 149
331 379
147 189
338 343
200 198
269 147
179 109
272 210
386 176
104 177
343 35
10 330
361 300
360 355
31 269
16 297
74 385
46 77
117 64
171 352
100 239
238 270
260 274
232 83
332 162
222 200
107 99
189 250
154 233
269 377
140 248
222 29
320 134
313 338
346 233
351 344
369 233
314 212
169 12
95 62
303 273
359 361
241 5
31 87
82 306
134 141
201 179
345 279
305 369
186 262
14 159
110 364
254 38
127 315
47 74
85 359
316 95
114 269
20 176
140 145
286 39
161 135
260 160
33 273
33 375
382 203
171 69
57 150
33 156
290 121
221 193
246 365
334 113
202 65
279 90
301 362
370 132
46 40
182 387
187 377
127 261
121 296
109 144
283 107
31 195
114 204
99 93
353 270
384 11
277 304
210 200
96 319
201 203
342 73
260 203
147 84
369 365
220 299
108 275
377 121
364 30
40 388
270 217
9 51
367 23
339 277
198 138
42 17
274 353
261 339
90 6
85 287
228 327
46 272
183 157
78 208
372 78
187 9
275 138
16 106
202 52
361 284
28 181
206 20
63 313
268 384
238 302
135 341
158 348
118 39
346 13
84 172
175 89
134 128
358 309
117 208
367 43
246 43
39 209
69 213
4 383
328 205
56 276
216 305
59 327
138 10
191 57
268 181
51 42
172 64
15 73
259 304
309 360
338 373
267 130
81 321
51 279
229 292
163 228
32 262
66 253
211 218
5 76
218 36
352 230
381 82
276 266
385 8
302 13
153 324
186 145
2 178
57 53
187 162
251 223
34 380
166 21
145 189
381 62
92 151
340 347
261 350
80 365
330 66
127 156
54 82
6 102
278 297
259 187
102 319
272 93
32 37
256 172
1 166
290 221
281 45
333 381
24 49
306 298
187 147
294 334
174 230
94 51
347 20
262 34
221 79
278 336
365 137
318 353
33 104
270 288
5 143
140 87
377 20
31 211
140 324
214 118
307 92
238 21
76 158
304 380
129 362
49 16
341 313
185 387
376 233
171 116
222 9
57 361
168 114
33 343
385 338
312 195
382 214
181 5
33 308
213 328
31 350
140 37
234 32
256 356
342 308
73 321
292 167
116 218
93 159
192 222
25 361
6 228
299 27
72 204
326 257
215 332
316 83
167 19
220 82
236 298
228 342
47 201
45 274
315 345
161 194
34 345
303 212
389 26
346 256
355 169
329 339
306 312
264 344
183 177
256 337
172 231
259 164
197 317
251 195
246 152
238 313
162 219
265 10
168 220
100 200
261 178
389 201
338 46
158 138
109 275
240 39
167 73
69 158
288 82
285 58
32 194
366 274
129 346
114 82
61 121
142 308
127 160
356 134
356 257
305 190
359 311
299 121
134 225
260 46
73 66
19 255
79 210
326 331
207 214
158 50
299 339
178 26
379 123
181 143
16 363
274 155
85 101
322 139
331 84
80 160
185 346
32 135
359 166
50 86
313 169
196 195
277 132
332 136
293 39
110 164
337 12
301 357
218 250
304 371
195 168
340 60
233 368
352 326
370 263
325 337
221 245
351 29
100 74
382 22
202 251
358 40
65 196
25 358
100 334
236 174
293 362
236 55
283 30
54 317
253 223
112 243
248 307
137 373
15 153
348 58
337 182
186 79
198 196
129 185
46 116
269 299
61 326
48 83
47 363
20 93
213 183
71 240
181 113
173 372
4 9
242 29
292 227
315 221
304 345
240 199
135 314
204 283
77 176
222 306
102 204
362 130
160 134
201 280
250 95
285 44
186 351
146 165
266 283
41 31
107 225
156 179
218 296
26 76
92 245
174 43
199 331
133 333
84 368
304 69
340 100
292 55
16 68
145 238
192 260
280 236
140 319
167 11
353 388
104 157
102 42
299 32
230 179
5 269
121 86
243 110
72 138
33 295
33 312
296 326
89 39
3 139
345 135
90 207
51 33
84 306
333 99
241 59
302 332
1 359
387 279
151 104
207 326
58 368
47 102
168 306
329 148
49 47
108 85
275 55
350 27
280 177
107 292
251 257
79 265
347 139
305 334
72 157
209 304
352 134
245 208
240 225
228 147
208 270
379 270
119 29
298 31
379 32
219 383
317 24
380 133
152 205
168 37
49 168
334 312
119 223
238 303
174 287
322 104
6 61
242 344
163 186
229 316
322 377
185 267
304 214
94 299
77 325
298 389
305 72
93 327
17 213
161 24
219 260
254 231
63 23
176 226
386 20
360 70
11 141
390 160
117 77
161 217
202 336
311 82
105 285
303 203
248 61
173 184
70 287
244 58
32 333
125 21
11 388
285 196
341 167
337 109
356 211
210 185
332 3
220 22
339 314
248 29
252 365
85 220
309 326
60 384
158 262
26 203
346 295
215 330
171 27
281 3
68 96
17 315
304 76
91 385
388 381
338 80
53 28
100 63
360 1
287 340
2 222
155 185
203 351
71 112
337 187
236 94
146 328
217 218
231 93
223 1
12 390
377 30
273 221
58 30
364 26
96 136
121 200
168 167
302 317
271 88
211 213
156 348
62 302
314 299
197 310
102 258
37 134
203 252
132 323
22 153
238 356
128 357
285 217
97 45
262 110
250 36
239 94
262 165
125 113
51 337
177 99
215 168
29 292
206 32
77 14
312 225
142 230
215 165
200 102
381 108
128 338
68 340
215 182
389 385
211 90
80 108
60 319
248 67
129 335
281 203
203 326
2 302
337 47
209 329
251 270
230 18
133 382
158 123
283 104
184 64
353 145
45 372
104 230
218 143
112 6
158 73
237 17
33 339
241 203
129 73
366 309
44 259
270 212
96 333
35 373
205 155
370 143
134 216
79 269
88 264
306 116
250 345
340 372
283 13
296 234
120 122
95 189
389 270
242 66
334 8
176 365
134 29
142 164
171 336
147 153
285 88
237 224
296 194
108 260
133 197
215 38
205 160
85 170
80 223
14 33
58 56
39 221
332 288
343 251
314 27
16 354
153 288
309 245
15 302
160 323
103 345
18 60
277 143
235 163
113 367
330 61
156 283
82 312
102 278
201 352
89 234
343 2
380 220
79 54
155 258
123 23
20 203
376 159
259 6
246 245
343 327
141 196
94 271
368 239
340 310
91 355
386 370
56 47
1 125
62 202
68 118
72 80
226 115
160 252
246 337
168 256
27 86
333 234
364 202
250 197
331 32
239 330
136 34
285 322
175 52
260 28
241 140
272 323
116 261
369 219
257 343
189 389
189 281
379 87
17 330
328 240
352 16
292 83
108 84
78 181
159 249
165 266
311 349
166 169
80 18
192 149
160 129
310 156
40 270
42 279
46 189
225 114
26 351
285 199
256 361
210 359
21 358
156 215
43 379
243 225
287 242
26 218
368 237
261 279
98 266
152 197
292 171
109 138
31 291
36 121
388 268
367 134
189 306
28 179
339 260
156 5
31 205
234 251
61 20
63 281
343 119
292 121
143 144
299 235
23 92
131 359
94 350
178 160
336 89
278 383
42 333
370 22
344 353
15 28
215 251
5 172
191 281
226 172
220 109
347 186
229 384
282 40
387 209
322 68
254 201
62 209
33 151
51 239
6 189
71 157
76 306
295 35
287 315
68 318
249 167
231 206
363 333
123 136
381 343
285 84
211 4
308 332
198 178
168 283
185 13
81 181
211 7
64 208
28 188
255 381
379 297
259 123
104 23
241 285
386 263
348 240
318 277
39 319
241 86
218 148
292 165
315 153
359 254
104 326
65 286
253 249
311 39
247 82
64 252
211 326
364 346
359 14
187 221
321 116
237 202
219 281
167 282
261 225
281 339
270 176
32 58
298 161
353 46
313 142
200 51
147 345
153 100
28 242
170 221
298 210
364 257
32 130
345 75
138 212
343 308
202 10
383 94
215 280
324 236
85 246
187 27
235 86
171 270
215 131
41 54
225 59
138 162
237 103
198 73
51 349
160 245
200 132
231 212
351 99
221 121
322 337
382 266
388 305
109 246
220 288
334 205
333 273
370 69
26 335
299 5
69 362
177 144
20 106
62 9
169 225
257 233
167 272
337 379
36 225
11 80
318 75
73 115
240 235
357 223
2 333
272 273
145 362
246 281
373 375
345 202
162 158
381 210
87 384
219 312
387 311
155 254
220 107
299 178
163 164
285 10
82 5
273 323
197 217
3 213
292 328
164 296
178 101
306 131
341 58
210 254
381 17
50 49
143 98
36 39
30 133
47 224
390 66
12 255
105 121
191 1
286 120
346 41
354 214
109 39
165 291
318 297
342 353
37 248
347 87
205 100
238 116
303 313
132 349
166 254
331 176
5 110
130 135
33 241
31 76
47 246
71 106
381 223
6 368
89 314
359 150
350 103
83 79
47 105
206 107
140 351
87 86
190 260
218 237
181 77
143 185
27 283
347 100
328 49
55 81
110 95
212 145
176 65
102 345
134 251
17 278
323 254
87 257
221 103
192 339
82 259
313 191
4 10
241 50
228 225
259 51
220 116
287 346
207 236
34 88
246 323
213 336
159 20
209 389
72 15
76 312
198 348
41 349
390 108
386 27
156 383
102 135
312 128
177 242
287 71
287 141
84 348
195 174
196 55
370 380
223 76
151 40
93 143
344 273
103 363
65 23
127 115
55 37
192 299
258 386
304 56
116 241
181 379
149 339
9 311
248 381
5 286
288 356
231 192
140 23
334 340
298 134
336 24
223 241
127 94
322 250
19 25
246 131
161 204
150 287
121 230
292 291
161 283
177 256
228 367
251 328
116 379
172 270
247 121
142 373
127 302
187 292
127 262
334 23
286 20
233 76
272 123
93 229
387 134
316 242
268 308
226 289
123 335
346 174
171 365
224 39
109 342
292 262
8 321
226 156
359 334
321 327
82 20
198 41
195 87
112 344
66 366
90 364
158 165
242 90
33 291
144 240
62 194
177 196
225 366
347 172
179 226
217 82
47 290
224 215
99 332
267 102
24 341
276 194
344 286
114 333
224 30
298 12
94 87
2 330
351 144
222 11
324 320
22 240
336 3
358 233
289 195
12 385
272 212
286 79
28 230
144 346
153 356
351 286
17 90
386 278
279 344
160 204
387 84
214 36
348 209
73 69
62 27
380 387
231 340
28 11
61 163
378 245
183 254
204 336
118 79
147 188
295 275
99 271
161 85
208 80
163 60
58 158
42 101
48 52
172 20
213 42
255 161
272 89
362 124
380 69
332 91
73 369
26 272
387 261
267 123
110 338
303 281
386 270
99 153
311 273
351 20
204 315
99 241
72 365
2 211
140 132
270 298
91 11
251 59
368 199
189 349
29 63
146 17
196 5
359 59
141 129
183 210
346 137
327 373
352 271
24 201
3 132
61 11
77 91
103 148
82 225
215 241
275 23
98 236
153 387
108 261
207 63
377 330
29 58
321 373
190 64
220 219
356 230
296 124
306 271
262 346
94 232
257 270
361 251
116 74
76 212
266 205
56 122
314 369
205 372
13 384
85 138
194 90
111 45
2 110
194 87
195 47
326 100
347 372
20 171
187 164
257 332
111 365
10 279
366 226
56 205
269 74
367 77
333 365
389 244
340 99
46 93
306 230
35 191
140 19
192 20
96 153
118 133
333 9
326 181
311 305
368 110
228 379
269 242
242 247
240 47
366 301
301 390
283 207
41 290
155 190
228 93
97 104
387 229
245 97
113 373
250 231
217 16
330 85
15 305
120 124
164 332
343 81
203 195
288 177
128 359
142 338
389 193
140 315
289 308
223 43
173 78
168 2
262 286
158 177
353 110
187 168
28 167
6 101
65 351
340 369
260 275
248 172
328 32
382 273
366 77
46 74
221 84
89 189
377 24
131 356
189 165
153 204
380 163
284 172
219 118
10 144
382 103
257 11
28 186
340 272
112 332
211 385
61 71
183 302
312 167
58 143
323 138
232 233
328 364
159 166
146 241
58 131
175 48
184 287
100 116
165 257
332 203
200 338
179 164
16 247
157 266
94 178
303 63
184 228
138 80
84 157
206 210
223 45
271 384
287 289
302 381
3 318
107 147
236 17
375 159
226 77
367 183
387 138
335 215
208 50
49 244
100 155
333 148
116 251
331 52
281 200
270 74
256 226
18 7
76 256
351 388
225 4
245 66
31 96
348 170
362 283
346 280
49 74
260 358
215 229
164 165
225 379
334 221
344 266
91 72
281 161
192 36
36 153
58 31
37 315
324 266
252 140
254 338
232 264
270 23
165 93
72 336
299 114
331 186
229 339
164 185
86 73
2 256
278 4
216 180
195 227
128 166
132 280
312 9
87 37
268 81
94 332
292 28
359 270
148 79
92 226
279 156
144 123
161 99
205 183
193 326
20 214
171 335
20 359
138 13
115 21
183 270
269 192
34 54
210 179
254 344
333 215
220 242
389 377
70 46
230 311
157 145
86 258
195 379
238 390
318 136
221 369
364 322
12 74
307 343
207 160
4 143
222 4
281 145
25 172
89 44
201 347
263 197
101 103
292 239
338 252
368 210
349 316
88 383
98 328
192 329
71 198
60 197
53 191
346 102
274 66
189 41
250 49
42 32
135 332
347 288
141 226
34 341
305 248
97 366
221 10
98 20
68 277
361 141
44 83
147 24
50 95
145 139
231 379
123 99
377 182
127 147
94 16
47 129
38 283
143 213
274 50
79 285
187 201
146 7
386 88
268 309
369 48
303 87
43 168
279 232
365 230
110 129
142 347
147 99
280 90
69 200
50 387
2 337
5 263
323 74
85 229
3 176
95 210
27 195
329 218
383 341
372 289
130 160
182 285
357 92
52 247
23 378
34 384
250 52
332 178
274 74
328 89
385 177
137 159
331 182
55 27
220 59
264 237
134 293
135 273
157 387
379 2
87 13
275 303
314 167
228 259
297 162
330 359
157 254
259 145
224 152
385 67
221 234
155 11
39 297
117 40
153 207
243 160
144 185
41 110
362 158
136 272
323 155
33 190
210 67
377 286
220 326
80 372
84 369
332 338
294 159
83 261
245 172
207 241
349 192
244 71
110 303
207 17
136 214
114 298
192 326
38 109
293 244
323 116
190 93
112 240
36 259
211 195
17 96
300 226
222 220
116 288
201 138
166 268
264 187
130 271
246 250
147 55
296 143
281 105
265 32
280 187
18 122
16 318
372 178
87 199
51 319
183 283
91 76
307 324
168 194
293 287
107 112
121 383
127 75
30 229
183 312
123 275
17 227
281 324
91 200
293 225
59 140
210 281
80 141
23 67
8 172
67 117
91 150
357 255
313 26
326 199
285 83
267 198
44 124
225 92
286 58
20 231
354 217
266 38
234 267
67 287
254 39
117 281
239 316
228 382
194 152
128 21
245 294
270 9
160 335
338 159
109 284
283 298
134 202
215 135
181 361
232 68
6 192
336 382
337 184
332 309
378 150
333 302
366 190
28 66
311 264
108 280
9 323
160 298
313 182
291 52
61 211
219 38
233 201
14 180
309 87
74 145
201 329
385 260
375 305
83 132
359 190
357 140
34 317
379 318
141 158
41 114
262 350
47 262
234 384
195 292
159 115
255 87
312 93
134 210
344 200
174 114
138 256
149 7
94 17
73 125
377 175
98 220
157 361
163 65
94 116
213 99
278 368
154 190
308 125
109 344
156 158
359 211
269 132
62 371
272 90
259 121
21 359
202 101
330 302
9 203
98 318
314 362
389 262
197 86
26 255
275 166
113 111
112 281
252 327
193 121
112 212
285 42
242 24
211 333
292 207
10 65
39 239
384 109
223 59
110 161
341 243
112 313
205 313
246 73
279 61
278 331
145 180
271 144
90 185
266 207
30 348
86 183
354 195
127 389
308 223
204 29
289 268
366 334
115 372
269 18
56 299
314 87
292 49
353 276
136 193
132 89
181 11
172 66
176 260
9 233
174 159
61 255
32 140
28 386
28 320
199 340
389 205
10 240
262 347
187 49
116 300
179 387
131 147
161 185
68 229
21 97
337 205
388 73
16 22
256 371
204 182
169 360
159 300
298 382
12 117
30 202
65 330
340 131
295 294
237 302
233 73
354 140
344 233
285 259
54 239
11 134
146 48
86 233
251 160
230 360
261 75
288 178
283 72
386 344
236 387
185 227
85 123
233 365
364 296
45 353
76 110
155 189
162 185
148 368
64 131
174 87
205 192
60 30
12 91
356 246
44 257
147 51
48 326
71 55
347 168
306 283
326 27
117 154
83 335
51 74
252 35
71 176
41 127
169 294
175 287
256 306
257 382
183 316
8 338
120 52
29 154
30 194
37 147
352 233
71 228
192 247
75 269
50 64
112 120
126 14
43 116
76 84
123 29
313 228
300 295
265 175
223 252
95 243
211 124
88 224
203 356
1 238
104 298
104 255
381 360
4 72
99 131
89 206
106 156
107 386
123 87
32 79
261 95
197 27
274 131
117 252
152 106
48 384
390 147
215 116
256 140
276 124
194 232
37 267
100 117
247 285
36 74
379 171
313 104
352 177
370 264
211 23
260 185
243 316
112 352
104 324
257 56
30 371
357 381
176 390
362 371
363 339
189 347
169 374
331 135
80 255
109 233
128 55
236 258
75 364
174 176
106 56
184 23
289 368
240 280
135 120
148 36
82 287
122 158
121 84
235 344
66 352
185 87
276 247
318 251
127 326
200 167
112 63
219 273
62 339
226 191
215 80
107 66
133 152
226 321
286 361
271 217
347 12
362 311
141 55
38 344
299 167
235 38
182 237
157 205
348 63
124 42
131 172
364 385
55 130
174 305
116 164
318 167
369 318
165 243
266 3
384 299
219 135
142 346
292 240
127 165
24 359
4 368
212 66
96 202
24 385
278 29
94 266
123 297
196 351
334 372
172 169
368 5
50 87
101 195
380 246
36 132
96 44
144 93
129 199
381 50
388 151
257 108
121 217
39 103
106 161
91 26
7 348
341 220
38 229
154 300
381 270
191 104
342 334
7 299
249 225
347 54
182 384
271 60
259 38
134 137
149 61
253 93
39 350
239 49
161 293
74 104
379 178
319 56
311 288
97 23
288 243
196 127
289 92
43 251
135 50
159 19
360 340
98 161
181 251
316 105
14 150
149 44
304 133
94 386
101 278
364 155
250 44
226 308
212 319
256 12
76 18
313 306
197 10
357 73
268 281
135 340
62 178
27 371
347 3
261 347
331 63
350 192
133 354
375 111
30 293
47 236
161 328
145 113
342 274
231 218
244 118
55 321
175 75
303 120
127 228
351 197
145 46
200 114
176 1
279 18
5 80
166 59
62 264
319 161
157 346
321 245
148 283
114 314
104 366
280 156
236 238
180 388
61 352
337 153
283 201
157 352
4 82
165 337
105 261
42 103
202 328
100 20
66 388
85 386
135 229
359 117
50 179
5 347
85 207
61 205
71 219
371 380
253 172
83 177
174 335
58 221
227 114
124 278
20 12
320 254
252 73
153 91
124 333
372 377
144 124
148 323
314 257
351 298
2 151
116 347
152 231
120 235
97 57
364 4
1 28
102 362
263 34
296 368
85 345
41 194
27 201
280 258
232 250
82 280
386 49
158 313
143 379
112 15
53 289
310 51
332 5
171 273
230 255
341 279
199 132
168 147
132 380
183 25
301 92
170 88
107 10
30 326
205 142
65 161
258 220
148 149
187 301
277 112
92 153
351 52
222 228
174 363
344 371
254 64
309 294
217 5
153 122
276 5
244 372
266 31
109 64
280 303
3 247
61 51
11 338
265 30
254 316
378 78
76 4
120 75
317 13
330 44
168 129
194 36
287 337
170 47
98 198
232 105
277 114
319 61
116 185
345 182
35 23
308 248
48 68
153 183
54 141
251 11
28 166
367 109
13 145
313 195
316 336
153 137
337 334
237 239
17 258
140 17
212 195
199 95
260 178
275 312
91 114
12 300
274 159
126 302
114 288
109 69
312 50
346 213
10 132
287 269
165 163
363 311
353 29
90 336
148 96
149 315
265 101
209 356
118 87
267 337
158 261
364 230
237 234
315 347
68 264
310 129
148 197
200 269
32 149
75 354
204 162
186 127
257 170
148 319
183 172
281 248
28 67
316 29
146 61
142 141
274 266
199 41
272 36
259 279
199 311
147 82
314 71
371 163
191 66
296 37
216 343
20 121
291 290
37 195
54 3
98 344
233 28
141 358
281 165
145 275
51 275
176 2
322 316
109 292
149 311
214 340
237 352
76 83
213 58
385 169
261 218
85 276
163 240
127 5
361 333
190 147
90 347
36 368
50 341
185 29
370 278
10 29
340 113
160 359
187 94
340 116
292 72
318 143
164 123
3 205
176 311
359 320
384 276
177 281
181 33
118 218
336 227
292 298
261 183
141 360
155 203
231 292
174 324
275 156
15 31
324 76
386 182
136 232
113 174
217 56
146 51
160 230
366 249
59 119
180 167
242 141
134 45
287 230
24 236
40 327
129 272
293 163
309 174
116 341
17 328
73 372
340 389
135 335
31 254
21 117
233 272
354 129
28 142
109 190
230 40
342 346
62 47
301 179
204 217
312 374
325 355
156 66
367 309
186 246
377 382
177 41
261 303
312 318
69 167
13 196
149 389
81 113
164 13
146 164
264 178
345 314
300 76
2 103
11 243
266 280
15 156
180 281
94 3
147 232
283 6
238 40
108 241
287 259
54 229
93 37
219 171
248 231
258 163
205 366
110 11
350 155
71 196
155 77
45 284
200 335
338 134
56 7
193 219
199 193
231 323
335 91
187 112
239 311
174 352
100 309
77 376
135 266
360 248
230 389
388 74
272 135
313 218
193 306
145 311
33 365
208 59
163 10
160 159
346 61
204 379
139 194
81 180
336 350
293 68
380 189
269 372
91 195
155 204
249 45
131 390
98 16
63 144
219 231
82 124
237 290
104 243
161 84
220 221
265 234
385 252
260 245
77 358
189 243
257 225
231 221
130 265
40 355
242 143
232 89
296 107
387 158
288 163
61 66
106 277
105 96
277 72
372 138
91 80
13 337
16 48
300 9
358 284
376 45
262 219
82 365
125 325
158 386
276 299
237 315
123 54
87 207
332 13
59 137
221 379
206 331
261 382
355 154
44 79
16 133
140 318
265 323
201 369
186 39
340 332
285 353
324 128
246 221
41 323
312 174
284 337
381 69
333 204
258 4
148 20
379 340
61 105
134 274
208 302
301 253
389 364
288 84
304 354
60 101
35 147
135 278
16 330
48 215
239 302
118 65
306 162
196 117
283 330
238 176
71 43
192 103
287 303
277 95
346 66
360 104
105 139
47 303
242 23
326 120
84 254
285 30
195 210
104 384
293 127
253 141
53 45
13 192
232 285
381 304
388 174
335 368
58 95
101 237
114 13
12 359
170 116
134 46
148 3
319 178
117 128
139 83
390 385
310 316
294 353
233 180
193 222
362 239
231 140
37 4
49 175
30 158
65 383
218 105
356 378
41 276
220 5
220 153
207 312
223 181
52 287
382 387
15 50
146 136
246 88
200 56
385 286
318 219
217 247
198 89
82 231
245 251
243 204
149 114
53 117
243 361
66 15
92 284
273 139
107 332
92 343
246 66
192 267
175 26
267 302
74 86
33 15
379 256
363 170
339 303
257 164
250 229
79 340
175 56
116 210
303 103
233 89
328 382
199 298
118 48
380 120
156 379
24 36
362 306
335 153
205 122
368 31
281 311
165 332
283 236
153 251
219 153
359 19
29 15
203 113
110 362
300 284
160 147
67 301
1 43
309 305
140 112
377 33
159 241
195 40
129 171
225 233
297 348
345 52
388 298
208 289
318 332
351 306
253 147
9 377
42 171
18 260
179 29
312 340
52 217
113 40
317 140
61 369
206 130
112 10
384 28
196 287
63 229
99 215
9 200
255 66
174 49
46 266
29 99
250 264
369 274
333 231
240 267
252 8
383 9
296 30
247 183
181 71
219 290
17 303
112 196
104 153
174 251
210 312
352 26
105 69
137 113
247 316
12 268
29 114
144 362
279 203
146 62
50 169
141 137
116 271
212 256
67 127
244 298
177 34
171 198
307 249
18 299
185 109
13 131
384 93
111 19
372 76
302 340
6 152
125 183
110 51
189 17
383 247
276 44
319 315
160 41
234 246
28 294
20 244
267 228
264 4
364 299
328 262
75 236
251 211
212 349
333 164
309 73
144 23
369 309
52 75
104 95
85 177
205 302
206 185
352 377
353 312
252 78
97 92
193 160
285 332
198 239
271 292
279 350
94 200
195 96
160 334
106 250
47 197
312 109
132 5
204 254
278 156
296 103
256 147
246 256
238 71
210 232
319 362
102 130
190 248
178 250
289 77
238 61
286 263
124 346
230 116
24 122
94 283
59 286
299 335
76 214
216 147
360 244
139 211
300 87
32 296
178 108
101 271
29 163
383 74
69 368
93 298
260 23
176 107
281 334
288 143
329 222
237 158
234 85
222 335
157 317
64 169
94 38
102 103
155 298
283 377
161 176
53 119
368 114
278 389
137 243
222 50
106 380
317 58
193 138
291 86
272 333
285 54
295 2
68 297
190 300
212 2
326 99
137 1
223 160
330 9
61 131
99 33
80 69
105 293
338 379
346 272
134 147
334 284
24 288
357 80
281 164
330 243
147 66
172 142
18 303
363 120
150 137
127 324
362 339
171 372
324 165
161 156
227 84
67 353
198 333
207 272
187 243
220 280
201 240
368 236
195 50
174 242
37 43
329 340
258 344
226 313
257 281
73 346
156 100
323 237
150 357
86 247
106 68
200 272
200 152
176 379
59 14
100 113
95 185
248 31
50 23
18 318
51 17
215 244
359 29
126 127
167 169
161 76
101 213
206 147
144 100
230 228
362 123
359 289
352 155
69 186
346 248
161 20
278 265
255 53
305 76
43 40
134 87
261 227
242 82
80 172
185 332
245 337
18 155
358 274
68 314
58 354
254 376
374 255
155 264
226 388
201 260
10 116
181 24
264 60
322 55
143 121
301 13
339 182
310 170
228 63
160 55
117 300
63 143
361 78
352 293
80 385
265 239
240 36
144 242
166 343
205 273
256 368
318 9
130 42
257 250
158 220
314 116
169 81
350 86
211 130
324 295
153 200
77 97
152 278
6 52
181 151
15 108
221 101
212 202
181 210
324 369
147 275
196 15
3 286
60 310
321 46
339 29
42 156
36 157
145 188
198 177
308 233
247 251
210 6
48 297
189 198
24 157
374 308
312 379
211 187
236 167
143 254
6 76
366 252
147 245
341 310
42 204
14 284
165 211
303 382
227 189
369 194
89 74
334 104
185 266
104 155
240 187
355 141
242 85
381 236
76 231
383 298
30 164
335 316
279 208
156 167
173 254
142 361
20 108
235 103
93 302
63 196
221 347
385 295
347 298
204 54
368 247
140 263
240 386
282 80
261 231
357 111
108 176
306 246
265 290
88 276
247 46
167 287
52 107
360 125
77 313
345 29
122 212
368 141
115 248
114 152
58 297
282 2
343 255
263 62
235 196
185 124
72 261
271 114
157 43
317 286
357 307
174 338
315 288
267 39
274 23
259 83
148 94
86 236
198 107
217 209
97 2
324 285
265 271
228 145
177 16
212 37
255 1
272 183
22 271
271 136
334 164
247 199
219 274
39 269
301 200
63 382
27 244
257 230
357 115
61 231
76 11
208 338
194 60
66 357
256 98
122 33
62 24
271 95
214 322
306 113
255 93
214 371
20 74
138 27
19 208
339 280
195 137
140 10
289 12
257 217
37 333
201 38
37 317
51 165
37 269
191 45
39 139
235 229
196 327
258 183
383 82
351 63
3 323
192 381
127 308
276 232
186 9
13 202
149 123
241 360
31 185
52 182
115 108
101 222
16 132
314 333
316 271
20 145
90 352
185 127
118 297
229 136
38 4
386 39
256 127
356 116
366 375
347 202
295 226
256 28
73 334
78 313
346 140
49 86
34 30
378 104
161 312
5 231
118 209
217 170
245 76
334 179
153 381
335 17
95 280
157 318
261 298
134 265
371 16
100 276
352 351
70 169
39 4
39 72
184 172
116 266
348 371
359 114
362 48
212 156
378 334
174 136
152 38
38 310
107 347
73 50
241 324
352 362
223 298
37 380
334 81
331 114
13 248
286 118
140 376
346 189
126 356
56 211
336 237
327 12
228 377
84 122
67 145
54 344
122 76
232 148
236 197
223 92
161 33
58 65
80 314
31 18
55 127
107 187
42 379
314 96
250 251
382 156
230 173
265 118
290 157
149 104
196 59
382 215
212 368
162 211
358 134
356 55
247 4
360 301
137 82
207 344
257 109
240 38
238 225
382 26
302 104
117 360
266 85
365 160
219 236
252 181
255 11
380 27
147 373
356 260
211 143
127 358
121 197
269 262
380 48
278 24
325 154
68 146
195 385
109 377
167 203
198 338
207 5
337 383
107 291
301 29
128 109
121 271
9 156
195 74
50 162
303 260
82 337
135 267
222 381
203 160
338 76
57 21
257 179
234 331
186 27
77 384
96 280
133 22
301 309
5 200
382 153
285 185
304 386
47 198
158 212
314 98
196 206
82 185
234 285
59 324
129 340
10 36
40 334
50 127
103 182
286 127
213 287
217 368
73 33
63 239
35 356
329 328
2 156
221 179
271 377
351 66
172 57
41 72
361 131
313 6
299 36
272 209
110 48
339 356
183 304
166 93
55 367
199 202
100 26
162 58
387 156
373 173
196 27
200 346
155 299
156 338
166 104
314 331
312 8
377 263
243 386
31 285
326 164
170 303
364 37
233 49
254 340
196 228
350 133
256 251
176 11
148 263
127 89
384 254
250 48
163 143
160 228
344 13
127 110
231 330
138 120
104 94
352 167
182 242
25 64
38 369
225 232
251 175
195 352
297 286
305 356
38 44
383 288
264 98
84 80
10 139
76 281
92 142
210 34
362 72
312 192
164 227
58 257
248 249
246 161
135 348
112 94
96 65
162 20
239 247
325 205
166 300
85 144
346 369
238 279
341 140
244 270
254 153
79 140
240 354
69 135
24 273
329 174
231 127
217 22
340 141
315 257
365 223
372 203
5 275
46 21
171 287
82 292
290 272
265 41
354 387
30 42
224 130
84 176
193 83
222 48
291 24
313 144
107 161
115 308
10 66
223 154
159 12
242 183
143 331
65 138
330 256
105 329
349 175
335 51
30 250
112 157
14 248
370 240
20 22
283 61
215 110
356 147
209 48
65 291
172 320
309 64
119 325
22 118
168 276
285 202
58 160
69 269
55 337
241 237
174 269
57 167
49 201
56 170
347 274
1 142
33 126
269 112
99 159
376 147
369 261
237 213
108 249
111 208
247 220
89 20
104 123
144 80
380 263
122 233
61 91
150 388
269 171
180 203
225 142
75 164
52 152
214 232
348 264
293 270
32 336
191 154
333 27
197 340
381 266
102 161
51 254
297 311
191 184
336 114
356 160
252 357
78 309
254 318
324 46
29 346
149 30
282 324
2 141
291 379
259 267
146 36
333 182
74 109
62 219
98 287
100 298
107 267
62 5
174 91
203 8
135 107
59 375
363 352
167 248
181 287
143 340
18 98
223 312
211 304
113 251
204 384
243 213
211 353
190 289
375 125
248 127
187 86
79 65
167 153
221 233
269 155
241 369
137 111
338 195
273 146
103 383
28 45
51 49
372 221
271 89
228 286
172 342
180 376
114 311
343 174
347 248
48 88
225 53
140 75
157 376
155 380
78 159
261 122
189 50
8 223
198 349
75 155
200 163
186 177
93 5
100 368
340 195
86 94
194 183
53 97
329 215
244 80
203 274
20 87
284 55
86 38
41 79
251 145
240 381
184 245
100 351
130 71
168 58
13 103
103 328
37 33
84 155
231 336
250 285
28 203
307 365
29 6
144 329
147 173
203 13
222 332
303 51
237 377
303 179
182 134
202 306
61 288
73 111
31 276
85 323
86 344
242 300
194 20
203 238
226 284
34 332
187 106
101 36
73 11
169 281
274 192
99 156
95 330
261 269
339 215
168 302
288 211
174 40
336 267
341 23
116 235
95 377
188 353
350 10
390 253
266 328
323 240
11 111
57 77
386 201
269 36
51 153
28 367
383 364
218 354
215 61
255 123
158 175
119 140
270 239
233 160
225 251
70 104
285 164
89 120
140 247
74 33
63 291
150 19
22 244
379 80
79 380
15 106
266 33
332 312
109 125
305 365
373 253
29 318
187 288
243 16
22 56
386 73
90 384
11 294
153 41
90 331
39 62
227 133
165 61
164 61
132 283
212 339
100 71
73 312
129 107
164 68
153 340
149 101
358 12
109 25
370 60
260 306
385 134
351 153
313 211
86 270
223 275
226 33
238 46
368 135
59 115
166 66
47 329
368 160
369 183
269 178
210 60
82 204
62 214
348 381
363 182
227 103
139 76
222 44
239 371
272 281
280 20
328 101
85 143
170 382
149 273
198 246
356 171
24 177
262 227
138 98
197 65
76 344
265 102
179 240
387 49
250 132
337 254
39 207
83 7
196 99
251 167
134 230
179 283
64 142
347 264
348 217
173 29
238 93
98 241
259 112
71 305
181 4
339 71
119 302
327 253
46 254
33 38
26 181
131 242
281 168
261 254
35 111
378 274
374 183
343 309
318 236
278 333
270 324
84 300
97 307
109 82
196 269
373 117
59 311
286 256
347 193
7 298
335 389
104 312
260 353
271 254
330 280
205 170
