*Vertices 206
43 "#166"
87 "#159"
84 "#186"
3 "#189"
52 "#48"
88 "#201"
190 "#195"
82 "#179"
76 "#139"
37 "#24"
61 "#187"
149 "#197"
157 "#119"
203 "#36"
109 "#173"
150 "#95"
10 "#92"
74 "#70"
163 "#55"
173 "#152"
59 "#112"
204 "#59"
36 "#124"
105 "#43"
144 "#153"
199 "#204"
75 "#164"
206 "#21"
159 "#72"
136 "#150"
177 "#120"
126 "#114"
182 "#86"
201 "#170"
174 "#5"
62 "#94"
24 "#198"
89 "#82"
200 "#171"
13 "#142"
179 "#58"
117 "#138"
153 "#134"
111 "#63"
161 "#52"
175 "#68"
94 "#147"
64 "#51"
119 "#33"
103 "#73"
65 "#109"
145 "#161"
15 "#87"
106 "#22"
2 "#91"
66 "#105"
186 "#17"
134 "#117"
138 "#62"
34 "#101"
102 "#190"
45 "#64"
171 "#176"
85 "#199"
176 "#191"
91 "#135"
92 "#79"
70 "#203"
93 "#75"
141 "#96"
112 "#6"
167 "#141"
1 "#205"
147 "#174"
205 "#93"
4 "#71"
120 "#47"
29 "#177"
23 "#113"
113 "#29"
164 "#140"
196 "#67"
121 "#32"
155 "#88"
39 "#118"
180 "#28"
170 "#11"
192 "#136"
152 "#44"
181 "#35"
78 "#183"
71 "#169"
108 "#76"
72 "#3"
63 "#130"
73 "#20"
160 "#83"
41 "#103"
124 "#162"
20 "#154"
90 "#34"
14 "#122"
140 "#26"
99 "#60"
129 "#131"
77 "#163"
79 "#133"
118 "#49"
130 "#146"
30 "#196"
18 "#110"
187 "#77"
104 "#97"
156 "#129"
131 "#0"
169 "#104"
57 "#69"
56 "#80"
184 "#19"
143 "#182"
114 "#194"
44 "#155"
110 "#115"
38 "#180"
197 "#126"
142 "#25"
132 "#10"
7 "#143"
55 "#132"
185 "#106"
139 "#81"
32 "#128"
122 "#61"
135 "#31"
202 "#57"
46 "#89"
21 "#16"
54 "#188"
49 "#38"
195 "#123"
96 "#102"
22 "#178"
107 "#37"
158 "#14"
116 "#4"
125 "#144"
48 "#184"
189 "#2"
11 "#121"
194 "#100"
183 "#200"
12 "#127"
83 "#12"
128 "#78"
123 "#137"
31 "#18"
151 "#42"
5 "#202"
47 "#193"
60 "#40"
193 "#151"
33 "#145"
133 "#168"
81 "#56"
97 "#27"
9 "#74"
95 "#65"
35 "#7"
58 "#8"
162 "#149"
172 "#54"
188 "#30"
98 "#160"
42 "#46"
50 "#181"
19 "#156"
40 "#107"
8 "#13"
27 "#90"
80 "#85"
166 "#158"
67 "#53"
115 "#23"
16 "#84"
178 "#125"
154 "#39"
51 "#116"
86 "#1"
6 "#172"
101 "#185"
26 "#111"
100 "#66"
53 "#192"
127 "#165"
198 "#157"
17 "#167"
28 "#50"
146 "#148"
68 "#15"
137 "#98"
148 "#108"
191 "#45"
168 "#175"
69 "#99"
165 "#41"
25 "#9"
*Edges
8 161
169 41
161 66
172 156
93 134
184 56
118 15
92 80
201 23
116 148
124 10
184 107
95 21
127 199
135 11
189 103
203 165
18 156
26 201
150 24
111 10
152 150
51 142
193 32
29 156
105 9
168 23
3 197
92 56
36 169
145 193
69 206
102 91
196 184
98 3
99 55
146 77
26 166
30 91
145 16
114 1
117 94
183 3
170 123
22 133
93 60
183 92
2 168
15 71
18 51
16 70
185 62
124 71
117 108
111 196
138 179
176 183
155 53
124 20
23 134
70 85
144 162
97 172
45 177
103 39
128 11
165 120
128 42
40 185
108 50
46 126
51 177
132 100
179 44
156 180
95 9
58 9
127 141
15 83
25 60
126 111
142 25
89 128
84 30
1 24
173 202
204 172
134 110
132 111
171 176
103 144
110 45
203 153
202 12
117 131
93 3
28 186
42 134
105 62
185 175
50 71
197 4
49 68
12 6
8 23
49 91
114 56
156 125
206 111
154 184
135 134
147 139
127 129
54 44
74 100
104 158
154 138
88 176
135 182
1 92
75 24
170 204
181 122
191 150
149 128
82 196
103 10
114 23
68 187
125 127
197 18
165 51
157 182
18 112
57 168
182 73
150 161
103 156
14 8
26 48
142 80
104 102
197 81
85 76
77 5
187 47
107 16
117 87
159 102
170 103
39 11
55 74
153 180
159 90
205 2
175 46
148 134
72 202
185 41
107 49
81 184
182 63
62 146
117 47
150 50
200 136
76 45
19 62
113 27
200 182
195 23
41 34
178 30
200 197
139 158
174 55
133 198
23 96
204 91
171 127
26 69
186 141
126 63
74 179
189 196
22 50
150 141
84 101
122 169
51 61
116 123
65 158
145 9
127 145
182 26
197 32
128 115
119 56
151 57
143 82
19 45
44 75
200 137
18 28
171 201
44 40
160 21
192 206
80 87
127 44
1 47
39 98
95 181
40 123
29 82
136 19
174 128
206 52
85 1
46 164
133 193
130 33
89 8
58 128
169 124
56 143
178 203
32 120
4 75
122 124
134 187
142 179
29 36
168 19
85 176
28 118
27 160
150 120
161 135
127 103
15 155
136 153
199 74
192 193
118 33
93 118
34 108
115 148
177 55
194 127
113 56
48 38
72 83
133 187
192 57
141 74
137 63
201 192
32 99
75 33
87 150
11 30
186 103
136 99
196 87
28 172
103 161
65 26
115 40
2 66
54 51
64 79
74 202
41 67
142 161
201 17
153 200
28 180
14 156
132 55
119 4
121 153
203 49
144 89
173 109
204 158
128 68
76 162
96 120
34 72
192 100
173 122
67 161
52 100
69 187
206 152
27 134
74 9
122 81
79 65
63 175
94 43
159 123
121 16
12 157
114 88
40 35
185 69
5 55
148 62
65 50
164 57
143 16
24 136
27 31
111 116
95 57
120 172
83 91
4 98
135 196
71 91
142 146
114 50
141 30
81 20
95 37
94 189
197 60
12 143
169 121
8 175
36 72
67 68
84 133
193 159
187 155
148 39
159 142
162 183
167 163
105 99
152 46
44 62
50 147
40 157
9 167
29 6
121 64
39 139
126 100
177 154
40 93
35 65
36 30
47 114
38 96
159 74
46 107
56 97
175 72
145 74
125 13
128 39
35 189
148 66
148 179
93 70
93 167
162 95
200 133
136 20
58 60
152 80
12 178
38 95
165 128
28 181
144 124
54 125
15 89
147 192
126 156
41 101
188 111
64 192
27 111
16 116
44 198
129 68
168 63
194 198
186 163
173 84
192 131
47 77
55 129
64 161
106 189
84 149
196 55
195 14
145 144
47 14
13 153
183 178
206 11
120 113
163 81
187 159
57 62
139 197
92 25
39 134
187 32
5 139
54 27
27 10
41 121
194 114
201 53
44 201
199 125
186 182
175 131
156 204
124 205
189 11
156 8
133 78
104 136
117 156
106 68
200 63
82 43
65 121
84 144
67 4
22 17
14 59
192 30
198 34
8 46
185 182
176 147
1 70
175 121
205 128
152 159
15 168
74 197
11 181
121 186
21 16
146 86
20 192
188 179
12 191
134 170
182 126
74 106
158 205
72 130
187 196
115 45
41 116
110 109
53 78
110 128
81 135
167 61
169 171
149 171
120 205
177 123
176 24
47 17
182 5
186 152
55 30
64 37
80 77
5 88
97 161
18 123
189 128
91 164
108 183
131 42
173 136
119 120
193 125
81 162
100 111
80 137
43 110
44 46
76 191
167 15
78 143
205 87
19 175
15 188
8 172
96 85
5 133
16 112
2 57
192 205
201 71
58 13
71 126
43 44
150 9
5 114
16 8
145 36
188 159
149 187
177 63
191 4
137 201
146 185
1 102
157 132
45 197
143 74
205 46
11 12
144 153
59 90
197 194
79 46
48 109
98 62
82 177
80 95
151 41
136 94
76 130
66 172
71 103
182 76
131 196
67 26
36 34
114 173
153 57
111 41
96 101
1 54
153 117
93 21
9 165
156 55
166 110
55 79
70 91
37 141
36 3
58 103
145 166
145 19
2 125
12 176
200 51
32 60
157 49
198 109
164 104
67 93
193 1
128 168
33 24
179 107
28 129
108 178
185 1
175 100
72 126
23 62
180 35
31 184
172 146
67 184
4 129
6 65
43 5
96 51
196 115
158 194
139 184
65 92
51 173
192 17
50 7
134 18
141 34
34 104
82 12
30 199
32 41
64 159
149 13
193 127
194 129
113 36
184 182
167 82
9 187
94 7
45 28
204 118
15 46
206 197
59 162
64 170
109 55
75 19
114 199
159 46
149 101
129 73
45 170
28 203
156 86
109 157
11 33
26 137
92 37
54 201
73 113
41 206
59 96
193 164
13 44
38 200
201 145
80 47
64 196
41 182
175 111
65 59
182 50
102 149
89 2
63 66
66 129
113 187
142 104
119 64
46 89
35 108
128 98
200 17
183 53
161 21
180 8
134 50
56 172
71 168
145 17
73 165
14 79
204 74
202 34
12 113
200 2
170 93
38 62
202 116
153 3
3 24
13 192
9 82
155 185
31 94
44 143
86 174
138 103
61 46
10 194
8 163
159 153
123 32
167 166
26 192
17 29
60 104
77 66
36 101
98 162
151 83
15 160
125 23
204 174
78 29
193 20
194 167
181 67
159 107
22 164
40 128
154 187
197 178
205 23
22 16
54 101
153 197
24 89
205 112
100 80
15 31
137 62
69 97
5 27
94 153
28 154
73 141
203 40
145 102
139 14
123 167
13 39
68 41
157 199
77 98
92 77
175 10
89 57
132 185
89 65
62 173
64 60
32 36
124 65
191 65
189 91
196 202
110 71
129 195
118 175
125 56
59 202
22 66
185 181
197 129
98 144
75 196
94 13
203 23
12 136
193 117
48 164
166 183
65 44
168 111
138 39
92 50
32 53
84 103
196 169
9 109
140 179
85 110
17 82
159 144
118 97
130 68
37 93
39 130
94 87
155 27
9 196
73 69
94 85
161 112
109 69
168 12
104 179
62 141
71 148
150 127
51 65
116 81
125 188
135 27
27 93
108 151
15 103
106 126
159 80
150 159
199 91
162 11
140 12
117 183
95 97
68 11
5 1
91 65
194 96
46 4
190 103
52 89
78 6
33 192
162 20
88 30
170 159
148 69
127 47
182 56
113 139
94 20
157 45
79 75
66 48
92 89
179 19
199 11
78 50
62 150
137 174
50 201
191 18
50 146
75 198
167 173
72 188
63 82
94 197
169 81
81 36
57 188
140 110
45 165
28 68
36 197
22 91
70 61
189 69
78 156
185 15
44 84
122 186
130 21
125 133
82 27
62 43
202 16
117 86
139 46
108 45
179 20
79 76
131 57
77 138
127 94
159 9
27 154
194 119
65 157
63 79
79 96
172 196
112 204
109 32
23 137
24 54
66 72
32 195
147 74
166 44
28 157
178 119
106 115
77 93
34 65
128 196
28 67
2 161
54 124
90 131
135 195
15 151
64 195
7 54
165 64
168 156
75 87
183 133
17 93
156 39
190 123
162 30
105 164
2 201
134 127
138 134
10 62
173 18
152 117
141 61
103 181
122 202
55 159
39 51
155 90
69 194
120 46
105 146
117 164
98 38
196 125
36 17
104 89
175 115
160 9
104 137
99 107
72 138
153 164
113 157
139 1
161 49
69 3
71 199
144 48
89 192
155 163
68 111
79 80
4 83
44 22
169 9
162 204
178 55
134 140
206 182
9 203
111 37
200 123
107 100
201 126
198 127
90 121
159 48
171 175
7 35
155 119
69 21
22 46
194 60
1 190
83 155
159 70
160 179
28 139
96 27
125 91
143 175
202 4
64 7
175 108
45 65
130 54
193 76
1 4
93 16
54 61
185 172
188 155
199 84
182 14
126 183
49 26
139 183
65 137
96 76
157 72
110 86
43 147
23 67
69 66
133 145
96 200
87 134
192 113
142 41
196 204
186 69
54 6
110 124
45 139
6 200
133 168
187 143
155 205
183 24
206 51
2 141
130 124
20 114
45 178
67 97
81 93
56 109
78 11
160 184
144 44
67 32
146 200
133 143
138 122
19 198
68 18
198 77
206 46
103 46
61 149
69 133
192 111
93 59
157 141
82 109
139 62
63 23
136 26
166 81
67 128
156 188
195 162
69 55
173 148
60 55
25 18
147 201
56 46
175 106
180 39
39 79
12 9
113 4
30 1
96 102
152 123
130 116
62 102
19 98
32 136
136 48
65 110
74 108
69 19
167 108
169 137
98 32
106 36
34 147
117 4
5 128
42 7
195 40
175 188
86 172
2 76
184 74
42 177
176 79
13 68
137 205
200 65
206 159
157 46
55 106
33 204
195 200
108 93
3 156
24 30
167 8
64 134
42 108
57 180
78 27
18 89
165 155
34 105
188 152
158 46
147 56
149 54
129 46
53 85
87 69
74 48
143 95
56 112
9 132
167 124
2 116
159 158
53 190
16 6
78 1
23 86
39 38
75 193
79 167
98 44
36 143
12 197
92 97
163 161
65 93
114 3
28 15
107 12
84 96
135 108
96 67
143 43
27 71
161 121
69 27
103 173
12 98
192 117
77 40
134 37
164 184
109 143
123 93
178 79
124 55
194 148
160 192
15 1
16 127
117 140
201 133
162 39
17 57
51 81
81 26
27 129
206 126
109 134
59 134
75 144
136 98
41 129
76 156
194 66
59 194
94 199
6 56
139 69
170 26
198 87
56 95
123 11
48 17
186 128
30 190
137 15
179 139
163 40
148 19
24 199
198 76
156 177
120 23
19 193
142 110
1 79
179 177
121 60
144 45
85 5
141 196
76 110
28 140
41 65
187 190
101 12
15 187
102 30
89 190
85 194
72 161
3 169
51 94
80 113
133 76
4 31
75 125
36 187
139 43
78 145
27 197
149 145
34 130
93 202
46 156
78 76
58 172
96 75
67 100
63 49
90 202
54 70
60 203
57 100
151 56
86 160
122 10
200 16
179 173
146 97
199 195
95 115
168 197
14 70
176 50
164 168
86 182
97 121
137 46
146 113
62 124
78 100
110 36
92 191
1 197
96 130
159 115
124 195
79 24
149 70
88 155
25 161
171 2
10 199
178 109
59 17
185 166
70 24
44 123
191 11
19 46
103 24
192 152
12 96
76 194
48 61
130 91
178 146
123 20
122 110
110 46
125 48
201 102
51 23
110 119
39 48
21 18
14 32
14 50
71 96
188 110
144 198
123 26
128 80
16 39
120 10
19 156
164 41
83 141
68 123
41 127
109 13
77 70
59 50
196 99
96 22
28 92
159 151
110 23
32 105
111 57
6 109
56 16
187 201
11 156
16 83
122 27
199 185
193 87
139 50
182 101
63 77
92 88
126 4
11 136
144 55
105 81
142 188
185 194
3 14
13 93
9 49
78 101
67 130
50 130
129 79
56 31
192 1
103 95
88 87
171 22
15 195
115 46
112 74
80 53
38 92
124 162
33 76
133 71
187 38
39 140
159 66
93 154
80 19
162 193
62 97
41 149
104 41
151 113
172 163
7 137
16 64
71 55
20 78
119 41
11 9
196 201
195 111
44 173
147 39
114 190
178 177
162 87
143 192
159 185
76 88
145 185
12 76
112 128
13 130
67 197
58 57
136 61
180 187
129 19
86 79
124 178
180 111
204 83
6 150
194 41
204 36
159 117
206 104
160 178
56 132
48 171
47 5
6 194
191 89
176 53
11 140
114 192
20 141
36 2
173 36
90 89
95 10
156 54
146 1
171 92
40 90
69 39
181 111
128 159
42 4
141 128
53 30
160 202
16 126
74 10
127 33
130 146
48 183
65 131
49 41
126 113
204 113
205 7
15 152
11 153
170 187
8 117
205 33
40 79
146 41
157 105
39 95
52 187
78 22
77 19
160 5
153 204
176 1
99 9
141 205
133 127
31 153
176 41
94 180
182 140
137 142
118 52
193 65
192 91
103 93
16 76
56 144
45 14
44 202
158 62
152 120
98 5
43 141
184 103
120 128
13 80
188 172
90 119
126 79
23 104
56 139
5 23
53 198
190 12
51 159
15 57
183 149
44 162
46 37
38 89
153 38
28 86
148 185
147 168
136 36
174 65
65 162
20 169
68 14
202 81
196 56
137 33
200 50
43 19
182 102
19 177
133 82
27 161
38 17
98 103
34 161
27 173
13 76
44 124
14 196
87 136
41 189
144 129
198 96
110 63
25 11
135 120
145 87
155 154
83 161
80 122
192 159
189 92
167 70
178 181
34 4
153 192
137 40
204 2
183 164
93 115
154 172
155 106
33 123
130 56
162 153
100 98
65 9
72 118
59 150
27 171
40 169
6 15
110 185
178 6
140 169
102 98
194 51
93 166
17 168
139 129
111 97
60 94
134 15
137 29
84 177
30 61
192 40
131 204
201 74
125 124
58 32
65 170
91 167
71 176
14 177
11 116
147 82
53 88
50 196
163 60
26 62
37 100
40 69
87 29
96 55
96 110
103 162
26 5
193 44
83 89
13 195
160 75
45 10
55 195
71 117
130 83
153 155
182 174
124 173
82 71
94 4
95 171
66 97
57 142
185 104
35 172
81 37
41 138
39 171
92 16
92 74
40 191
159 97
141 8
61 3
182 149
5 176
74 150
149 88
198 20
95 157
41 160
123 206
127 20
101 125
200 79
14 123
87 179
6 22
96 176
69 104
56 39
20 153
117 188
77 91
139 175
28 89
44 63
95 175
154 128
109 201
136 201
185 97
115 37
192 146
151 179
43 199
61 53
161 186
161 126
143 156
180 141
153 126
133 44
172 95
51 160
43 124
101 47
2 199
104 99
18 157
27 48
69 38
103 60
71 44
165 66
168 176
167 34
118 205
190 32
130 63
43 156
69 205
160 139
155 101
44 11
10 15
55 11
59 40
65 122
64 120
39 157
182 125
127 164
171 34
27 120
48 29
37 167
38 146
84 48
56 160
200 57
40 14
196 188
61 192
19 47
10 7
2 165
19 202
68 90
60 10
15 114
156 34
137 101
162 111
206 9
63 73
146 13
184 134
201 16
108 196
185 141
31 180
86 64
128 123
3 54
84 19
168 38
195 76
55 136
103 188
160 112
99 12
186 108
41 91
61 173
59 104
126 56
6 20
190 65
152 10
35 129
7 28
39 66
149 53
190 150
80 16
74 11
164 192
196 16
93 72
184 12
52 11
202 179
200 48
20 30
38 108
171 134
171 192
171 87
4 140
88 3
114 176
137 124
157 155
47 199
8 96
126 24
38 71
72 15
99 52
30 38
206 67
27 205
156 98
171 166
202 99
5 17
173 128
55 151
155 125
206 26
54 133
175 151
123 96
34 37
192 6
130 82
122 32
55 197
171 114
10 96
69 41
199 6
59 36
80 107
167 19
125 176
150 14
19 30
116 83
150 71
96 169
199 150
192 54
174 91
75 51
2 169
52 119
50 12
169 57
120 51
144 77
123 129
18 148
138 8
62 55
152 158
114 6
99 87
25 65
185 205
166 77
65 64
29 71
104 118
205 41
70 26
96 56
101 70
140 52
86 96
144 46
201 20
176 130
119 79
46 84
107 42
134 38
108 55
2 62
96 33
89 16
103 11
123 125
195 17
149 3
5 199
109 76
196 97
141 133
141 198
170 141
96 146
24 149
194 91
129 188
81 204
5 18
29 26
117 85
70 126
194 183
118 182
101 1
93 182
15 203
154 178
77 199
193 63
138 49
71 23
28 179
156 178
44 59
117 24
1 108
146 115
70 74
145 98
157 164
111 169
100 189
201 134
178 188
79 7
130 85
26 200
46 150
167 198
72 163
190 117
81 177
117 65
124 156
141 122
194 153
177 150
18 166
131 89
3 48
52 194
132 179
116 58
94 77
1 53
136 59
166 84
194 162
4 139
29 1
17 150
127 59
98 26
28 163
8 41
180 76
74 124
166 155
75 167
113 76
93 74
170 161
79 132
139 119
26 130
99 57
168 110
76 63
96 63
6 156
160 126
22 167
75 177
100 177
65 189
127 169
4 175
16 131
67 118
129 70
151 63
155 73
169 133
100 179
153 130
47 44
115 39
151 40
85 148
65 183
111 135
156 176
177 80
95 123
193 201
6 168
28 161
55 140
4 115
180 154
102 54
119 192
148 94
131 185
99 81
15 158
20 177
100 196
119 40
35 154
40 104
105 175
22 194
19 173
160 23
198 13
11 178
12 60
167 112
133 159
143 85
148 118
144 93
28 69
78 18
169 185
87 12
143 129
193 160
112 119
39 53
152 41
141 46
195 79
42 16
142 116
91 76
7 117
48 30
204 98
196 165
59 121
172 206
177 4
204 182
65 172
54 199
153 173
141 72
153 175
194 166
116 89
44 36
155 110
113 67
12 147
183 32
45 136
174 81
157 126
22 26
153 124
94 128
15 62
82 201
187 57
152 170
90 185
176 199
9 108
29 201
62 113
14 205
115 7
150 196
87 127
33 194
56 4
80 182
56 25
165 28
69 112
157 175
59 26
150 171
139 104
22 136
134 76
167 29
144 117
47 143
49 56
5 24
41 57
144 122
160 166
164 133
2 7
108 40
109 171
18 158
80 138
101 169
107 7
158 184
204 128
139 89
114 61
90 135
15 204
194 190
163 115
108 156
98 80
2 191
39 18
88 85
15 90
203 99
94 12
179 121
51 87
67 185
158 66
9 143
183 195
76 174
15 199
201 34
62 206
71 41
185 42
64 163
76 49
50 102
80 17
28 60
169 123
37 80
96 54
198 160
143 48
52 120
2 135
51 139
190 183
76 9
112 179
22 15
59 142
128 179
80 134
102 79
118 74
157 9
48 148
66 40
128 82
39 105
185 140
8 151
25 107
109 43
39 3
50 43
54 194
63 154
184 4
64 123
144 182
79 36
130 64
133 50
103 172
165 110
22 82
35 74
162 92
74 37
124 108
106 81
47 70
137 83
130 112
9 193
153 90
74 186
77 185
50 143
120 115
39 52
144 173
168 125
106 160
26 36
101 88
74 45
163 90
102 114
119 172
152 14
50 164
90 96
157 171
116 28
197 146
202 159
91 137
33 112
135 103
144 19
9 140
94 70
152 187
141 154
177 33
44 145
17 143
167 164
180 163
105 169
159 99
177 131
192 36
20 16
152 141
160 54
195 164
166 20
75 77
63 55
184 111
104 25
9 48
94 123
66 185
82 50
187 191
197 156
94 46
158 105
182 192
204 138
143 130
183 46
75 155
63 47
89 64
59 82
141 136
88 51
195 156
126 120
186 90
62 30
87 124
74 190
53 3
21 188
27 141
80 111
163 148
94 83
147 171
18 65
64 58
82 146
157 63
75 124
142 7
159 184
111 95
67 116
69 178
1 88
9 163
81 172
195 115
181 92
169 141
98 33
54 14
190 13
200 143
190 146
10 153
198 162
202 138
113 79
27 110
47 183
114 93
61 137
26 91
45 196
168 53
189 21
14 58
39 65
82 190
95 118
152 105
58 26
48 4
205 115
93 14
185 83
45 159
131 4
2 97
139 48
104 103
23 105
150 97
174 142
76 124
179 117
19 88
34 169
95 163
20 144
166 87
13 160
35 83
93 41
34 172
54 190
7 130
147 109
25 100
41 200
139 72
67 107
194 97
94 164
19 194
145 198
9 77
10 53
80 56
169 45
78 194
139 67
61 162
176 32
20 46
127 66
205 25
185 17
134 204
1 87
77 133
175 160
133 93
97 76
133 177
180 100
203 95
142 150
134 126
134 111
63 95
148 101
153 9
197 17
120 159
178 7
100 56
30 94
105 196
58 81
45 56
93 173
135 186
22 168
126 59
69 184
80 29
145 32
173 193
166 69
91 33
121 67
159 47
51 14
22 173
93 124
177 90
193 103
94 37
89 145
16 132
200 3
185 96
60 131
45 58
93 56
69 192
179 166
175 57
27 72
176 149
203 104
143 110
142 18
187 27
99 35
150 195
25 4
8 187
204 159
12 195
20 22
129 175
152 196
13 37
48 155
155 28
63 30
10 41
127 166
47 176
143 141
120 122
55 205
86 137
59 146
185 47
96 182
199 61
39 90
69 124
85 185
157 77
175 120
149 124
94 192
105 192
164 7
108 96
195 53
49 113
85 150
76 129
180 69
93 105
84 76
37 25
75 127
100 45
137 185
16 160
87 122
95 55
196 168
23 127
82 79
181 81
30 150
148 138
183 155
127 146
84 187
136 171
56 194
2 27
95 106
2 46
155 9
27 67
115 79
3 84
147 124
195 122
87 144
120 68
196 65
51 46
162 141
143 134
40 21
56 53
143 149
63 115
131 32
205 5
108 174
147 1
26 180
65 99
135 169
23 144
143 76
23 156
81 92
185 8
53 173
59 10
169 21
151 196
76 189
64 138
108 143
196 86
46 179
182 47
14 193
181 129
7 59
62 145
52 40
16 192
41 33
146 23
117 13
159 36
92 124
57 45
110 182
39 141
95 25
151 21
155 150
61 194
86 161
109 45
92 146
61 190
40 65
50 171
128 46
28 204
48 196
176 136
64 72
31 204
115 67
20 145
38 149
40 165
103 163
12 160
124 201
53 43
155 162
106 204
138 63
39 80
185 118
34 107
151 65
62 70
179 113
145 195
194 40
57 173
91 101
180 128
62 92
160 107
135 66
148 33
84 114
83 28
201 22
108 142
206 122
23 52
167 33
52 46
84 59
126 50
72 94
36 178
59 164
151 64
93 1
69 188
120 91
196 179
4 87
182 92
3 1
101 176
10 121
130 125
130 201
70 20
161 131
185 193
78 48
9 93
187 83
78 43
10 143
11 184
194 14
59 86
13 77
148 34
97 28
96 69
162 178
17 50
179 204
110 114
96 21
120 112
148 109
154 160
45 113
72 67
126 84
16 139
191 104
16 179
167 121
85 9
12 88
7 192
55 171
195 63
26 39
110 18
90 104
27 76
187 142
93 187
8 123
87 53
59 95
31 125
89 204
4 71
86 99
146 114
23 145
60 202
15 4
175 45
10 141
122 35
27 150
198 63
85 47
75 76
91 50
108 194
48 10
94 44
9 185
189 62
35 39
22 195
203 11
174 185
160 58
26 145
29 93
166 164
88 190
122 8
135 204
151 148
168 104
2 142
77 36
112 57
123 7
166 137
55 26
182 128
83 111
114 2
174 7
86 141
124 16
195 10
119 14
68 16
184 202
102 24
41 157
144 54
185 179
48 126
149 98
12 169
70 190
14 110
203 13
123 147
99 186
43 148
10 191
16 186
131 99
102 110
76 173
203 59
34 150
54 109
140 51
186 27
133 7
38 201
132 130
169 159
206 36
16 172
198 24
178 167
140 139
109 128
74 103
139 162
141 99
82 54
94 110
112 141
148 77
135 151
59 148
57 182
91 128
165 26
34 22
67 64
175 9
109 18
123 109
134 5
170 203
137 153
110 39
93 122
110 153
89 74
49 122
71 136
32 153
179 9
168 199
35 206
129 63
123 13
139 169
188 128
15 104
85 128
178 13
23 49
51 166
5 54
162 75
92 119
183 61
126 26
154 156
138 90
86 58
92 160
4 22
6 198
123 25
5 13
51 59
161 169
204 160
174 34
106 138
130 106
115 35
187 103
119 128
105 107
115 28
3 201
107 89
71 147
71 183
52 205
3 160
163 65
60 195
142 185
164 125
55 131
138 45
160 45
59 18
57 55
21 167
45 90
57 159
190 6
142 95
75 173
192 50
18 145
199 59
174 179
12 153
182 89
16 122
116 146
22 149
44 38
124 182
16 142
100 145
39 41
108 49
107 79
166 173
123 19
118 195
62 80
80 97
59 167
77 139
185 64
38 109
93 6
16 10
180 99
188 10
27 22
7 190
113 33
73 56
157 183
19 48
48 187
194 93
20 194
167 46
200 29
155 72
137 31
7 146
129 178
25 172
89 29
14 12
124 41
122 57
147 48
47 3
88 199
144 110
130 169
141 7
185 198
169 194
44 146
185 58
117 66
96 34
1 19
33 117
61 47
97 74
97 156
38 147
204 117
30 136
77 162
67 106
65 129
137 89
101 27
153 113
9 158
62 65
201 88
166 74
33 164
143 22
42 152
36 127
182 54
73 118
45 184
199 62
170 182
183 1
25 73
146 205
41 36
88 48
181 189
47 139
153 125
108 100
98 124
128 34
29 133
10 8
173 16
130 110
9 170
193 10
65 38
127 179
127 98
134 11
5 30
197 201
135 99
148 57
27 106
126 203
28 141
5 166
99 108
56 161
61 103
39 197
176 102
156 85
48 62
16 177
19 127
89 136
16 135
196 118
172 67
166 15
2 78
180 103
100 197
200 109
26 23
62 50
89 95
163 126
145 139
88 56
177 30
11 137
186 146
52 57
98 15
32 133
172 107
124 47
173 9
114 169
198 143
197 42
13 169
21 45
124 70
15 205
3 63
26 103
51 118
101 61
130 94
198 82
46 196
105 194
163 135
45 35
74 167
62 68
101 98
49 187
39 204
39 5
196 138
82 48
194 117
53 109
46 189
57 152
128 55
174 28
151 180
84 79
174 40
34 129
105 104
28 182
17 30
129 156
80 123
73 100
150 104
140 58
41 84
157 51
179 158
93 2
15 120
87 159
28 189
125 10
152 172
88 183
135 9
146 125
51 146
117 2
204 185
7 127
190 141
51 74
57 104
190 201
5 70
80 24
23 39
187 105
39 196
79 125
201 89
20 82
190 18
197 137
111 62
42 99
53 14
162 89
130 171
193 96
107 130
15 135
89 10
141 175
172 13
148 150
121 134
136 43
184 135
6 48
158 160
10 64
13 167
166 124
129 100
82 6
154 161
163 132
34 32
66 96
22 200
5 4
170 202
47 46
193 175
105 66
94 200
150 205
172 37
14 148
131 180
105 74
89 166
4 162
181 40
107 202
103 4
73 57
79 165
94 11
147 128
194 73
167 14
21 204
64 9
115 191
106 194
62 46
26 40
98 193
46 195
78 127
145 167
23 126
104 5
99 122
11 177
150 146
109 175
16 182
154 196
121 123
30 12
113 105
143 6
123 84
4 120
204 184
104 8
52 18
58 40
95 138
69 169
142 4
187 108
188 46
95 7
75 23
205 62
59 89
168 117
88 102
136 157
102 61
148 142
37 12
155 16
55 86
160 109
118 103
84 130
84 14
156 69
151 182
201 200
156 63
109 71
42 100
90 55
92 29
16 43
35 179
193 24
86 116
12 95
69 70
75 204
143 91
34 119
60 188
110 159
133 30
35 202
154 204
95 31
57 90
56 206
200 70
100 41
21 76
19 147
26 181
184 148
126 138
74 43
199 85
176 14
146 9
111 104
2 1
143 34
94 91
157 8
84 146
150 12
76 123
148 86
83 167
75 166
30 82
29 9
66 15
19 110
118 126
181 91
108 58
5 130
117 139
95 196
107 52
108 126
126 110
63 58
51 77
175 127
40 122
42 18
145 200
138 81
129 159
45 111
56 179
118 99
177 162
204 125
168 190
152 40
79 99
148 157
120 163
192 194
153 147
122 42
184 110
59 76
28 175
137 42
105 96
71 78
159 4
171 133
32 55
161 132
34 77
45 49
13 112
96 119
42 31
147 29
143 88
46 48
62 179
113 34
42 160
65 180
124 145
14 56
115 15
149 133
179 66
186 139
50 195
83 117
36 176
192 49
206 96
144 62
10 69
104 115
5 61
146 175
77 32
66 170
81 95
77 190
99 91
111 152
43 169
41 197
127 95
205 98
89 50
77 4
141 178
79 111
100 13
111 20
42 45
93 90
82 141
197 164
127 92
29 168
135 125
71 200
9 184
141 155
17 104
39 143
145 138
127 144
197 63
164 13
95 185
57 120
75 179
19 125
123 135
11 79
202 191
198 40
12 116
125 106
132 204
199 147
41 196
124 127
89 118
141 188
30 101
38 61
18 104
27 42
50 6
202 8
162 185
150 158
45 78
121 108
4 2
88 82
205 194
98 166
168 91
113 137
60 56
109 133
46 202
1 44
107 27
81 179
73 89
85 168
166 23
84 102
148 117
143 171
96 157
20 77
110 98
145 176
49 89
57 119
139 84
103 17
88 78
32 157
175 60
2 177
16 84
159 121
184 172
113 26
10 173
192 123
202 108
147 95
36 80
169 165
1 199
175 15
184 95
18 22
50 144
52 105
156 12
114 62
6 128
13 132
147 44
92 140
103 57
13 30
149 178
92 67
120 187
106 93
87 173
128 124
148 32
85 22
184 194
103 35
64 96
77 124
71 43
93 53
8 155
46 27
74 192
139 83
151 4
14 118
204 161
167 154
43 77
96 155
62 155
95 67
185 31
19 162
11 6
15 79
196 129
30 164
100 95
39 19
45 77
22 147
178 91
188 204
173 117
80 120
155 95
61 156
148 110
70 195
128 92
41 96
9 188
87 20
26 202
167 23
203 33
170 62
87 89
196 67
69 199
103 27
198 192
169 150
102 27
147 2
11 197
108 103
79 22
1 162
22 162
23 18
155 42
186 119
25 146
172 155
10 93
67 158
71 156
103 1
42 33
34 29
127 182
14 27
60 79
28 195
76 153
153 187
30 74
203 116
76 15
65 11
16 98
179 170
186 169
180 172
149 62
137 117
22 205
198 136
66 104
75 20
182 12
103 147
103 122
146 161
44 92
157 122
62 24
103 183
187 156
63 13
9 18
184 64
206 2
156 142
146 47
33 28
123 202
159 27
200 43
135 23
75 136
93 111
161 125
15 45
137 99
78 196
59 156
32 125
38 88
122 151
11 193
32 16
149 18
25 49
173 145
107 113
150 80
84 53
105 172
147 178
138 86
43 171
89 180
62 123
36 63
148 9
25 64
105 129
17 175
13 95
133 46
40 184
82 32
18 90
59 54
204 202
194 160
83 138
138 34
199 129
33 13
2 10
92 26
137 22
77 100
36 177
125 142
111 205
198 150
155 182
14 41
64 93
25 15
127 4
92 98
57 21
190 79
10 37
93 79
96 18
11 46
12 177
161 18
36 16
19 122
178 195
44 91
160 35
130 93
1 84
194 152
114 9
114 82
74 195
93 156
129 101
184 177
20 205
87 19
53 71
40 121
87 77
158 93
198 134
28 11
19 124
120 16
139 150
143 128
40 197
26 157
139 128
57 135
175 164
21 28
195 99
81 189
36 50
2 14
60 130
147 148
65 144
59 71
177 190
81 66
55 94
5 183
65 134
128 164
60 81
183 199
160 186
100 16
3 30
75 91
167 48
128 38
57 108
30 54
123 79
91 165
72 191
196 92
104 194
81 42
115 202
130 192
9 50
45 205
175 36
187 192
161 179
195 5
123 10
32 51
183 70
15 88
148 41
176 84
96 144
117 76
100 138
183 11
74 47
168 143
74 177
18 79
53 199
12 79
27 43
115 182
55 100
53 19
7 33
109 84
104 96
71 36
125 33
124 114
123 130
109 50
59 48
172 161
122 45
53 62
175 58
141 119
194 122
6 3
135 116
155 2
86 205
85 149
119 93
179 67
117 82
34 189
174 2
79 20
160 128
190 124
156 165
201 143
205 48
34 182
110 167
160 80
32 2
15 68
79 156
104 135
48 43
43 29
56 108
160 2
4 187
36 12
176 54
42 202
74 109
15 133
190 84
121 206
139 164
96 40
53 22
46 119
137 94
122 26
142 26
187 193
173 23
69 1
142 178
58 67
175 29
16 72
113 170
127 204
115 58
41 75
169 63
202 64
110 138
127 62
163 58
66 145
154 51
127 24
135 95
14 11
8 57
156 82
93 61
52 177
2 100
80 25
129 201
13 127
93 150
167 105
121 184
27 201
125 145
131 188
12 129
25 126
66 98
167 190
145 155
33 94
5 20
24 61
124 202
153 184
166 193
142 13
103 152
168 108
141 60
163 31
198 57
53 102
144 167
42 105
99 161
192 116
103 160
182 159
142 52
137 114
56 101
101 190
102 128
202 121
50 10
75 47
29 12
46 203
141 109
198 139
27 136
103 113
92 85
95 14
15 40
143 29
140 161
133 95
197 177
160 155
47 134
138 164
7 186
43 22
98 95
70 130
36 8
157 59
200 14
131 80
117 125
180 80
55 200
197 109
164 8
15 180
88 84
47 93
44 77
122 25
159 171
36 198
151 167
164 76
125 76
137 150
25 191
156 198
50 136
186 148
161 197
192 141
90 31
120 155
119 188
115 153
85 30
120 11
132 126
155 10
102 70
130 184
199 55
27 179
58 18
27 53
64 52
193 124
204 80
52 103
90 122
115 113
129 121
142 28
62 78
102 187
37 185
149 110
73 2
125 24
146 61
112 28
126 98
117 60
206 128
199 146
141 79
204 197
184 57
5 84
117 38
195 2
40 34
100 89
47 102
165 74
196 174
40 142
45 39
140 116
50 11
24 101
160 60
155 105
137 24
133 40
118 116
40 36
80 78
46 160
99 40
118 122
168 74
20 57
190 36
129 167
113 57
104 82
109 29
158 99
58 196
23 50
66 204
26 4
151 169
86 163
183 150
137 183
11 110
111 63
129 98
172 64
121 110
144 149
92 87
164 171
129 6
35 33
9 4
181 63
62 82
103 100
55 107
200 147
29 56
40 135
204 191
196 158
116 59
66 137
74 4
178 26
169 95
119 111
204 99
59 77
115 81
205 133
167 40
75 111
78 57
195 141
90 192
73 103
95 166
131 68
162 53
10 174
124 183
14 62
130 18
122 189
86 103
72 10
82 36
65 107
26 28
205 74
127 14
74 49
167 92
62 9
150 38
196 6
157 3
182 9
46 43
75 145
29 63
48 134
163 151
168 78
138 44
88 61
195 49
96 19
136 183
183 114
196 57
192 73
197 108
149 5
169 59
98 79
143 38
39 159
159 43
94 99
167 6
165 41
22 175
160 78
48 50
50 160
29 11
23 187
129 89
23 80
168 171
133 6
187 168
117 167
151 39
174 94
54 84
41 3
157 23
84 145
94 90
197 75
164 110
64 116
200 87
129 204
56 32
136 93
203 196
7 62
148 40
164 36
12 56
130 23
84 75
46 90
80 48
7 156
194 201
83 49
92 43
77 57
49 151
124 7
2 101
168 182
137 181
197 195
162 160
22 74
34 43
138 18
189 157
46 100
24 47
37 52
134 51
58 151
195 185
86 62
151 161
43 177
73 116
74 80
122 184
70 10
122 154
110 2
137 161
193 94
32 73
117 123
55 80
148 12
150 94
194 131
49 2
49 95
159 145
34 81
9 137
151 95
27 7
27 89
100 184
155 139
198 5
172 187
163 94
28 146
3 173
97 49
166 111
99 92
35 191
98 196
138 185
104 14
14 187
101 102
134 35
36 96
14 111
100 140
176 198
141 197
162 57
104 33
45 11
148 169
81 77
30 114
109 2
54 32
27 15
143 100
63 196
19 15
205 121
175 138
110 21
142 15
18 137
27 1
83 56
195 108
30 46
135 28
85 54
135 100
176 30
201 128
27 20
47 190
189 39
179 122
34 175
202 37
57 67
180 158
104 169
108 159
175 130
17 70
93 206
128 56
103 150
21 49
136 77
108 206
46 162
64 51
153 91
29 192
81 52
27 30
198 155
119 80
103 92
167 153
67 163
21 163
108 119
52 69
9 91
7 119
125 17
83 196
142 79
26 20
106 45
14 63
141 135
115 56
141 106
3 136
55 48
138 115
121 203
138 37
88 94
66 101
70 30
192 42
122 162
61 40
93 139
95 58
17 24
187 13
149 109
137 82
70 104
145 204
20 173
89 150
172 121
70 75
97 83
134 157
3 155
57 48
73 119
187 195
69 203
67 42
79 33
166 198
67 148
108 4
12 135
134 179
146 164
20 32
98 88
14 143
2 202
159 174
132 25
83 169
30 92
18 94
63 74
57 65
2 71
75 153
95 177
53 160
52 169
67 59
118 108
31 12
31 169
104 157
87 57
83 179
155 86
202 111
8 81
1 26
148 108
177 191
98 14
89 172
132 194
17 6
132 164
172 42
58 197
147 55
199 156
136 34
80 144
194 193
7 167
24 123
65 48
26 43
194 3
129 8
74 24
186 56
114 36
123 164
156 32
135 160
194 102
6 53
81 86
83 92
71 3
190 85
155 169
188 100
18 81
34 145
3 103
23 59
101 143
11 129
134 125
166 30
65 98
54 87
179 90
129 20
11 32
98 153
103 9
117 180
197 149
43 3
145 92
19 65
3 109
2 90
160 98
205 157
126 18
180 34
152 64
37 122
81 159
183 201
163 105
28 35
167 67
59 185
168 43
134 90
45 23
201 168
196 62
36 14
143 167
184 116
10 113
197 122
110 51
171 146
187 29
56 54
119 15
36 112
17 133
8 91
95 65
167 78
166 201
161 180
199 39
132 33
87 114
114 160
137 147
99 138
69 201
33 146
196 4
97 174
26 151
94 118
175 200
53 187
54 183
201 10
182 66
126 189
185 13
110 105
127 53
192 95
9 39
200 33
86 165
163 96
202 148
159 195
36 20
187 74
48 71
110 150
98 122
91 122
175 68
191 138
105 130
181 175
198 128
96 166
204 42
178 179
48 198
205 10
89 14
61 176
157 83
29 79
118 111
204 69
150 25
199 108
55 148
115 57
191 152
59 38
200 102
36 148
138 163
55 77
187 44
206 137
40 46
124 198
169 99
130 167
7 40
9 110
176 59
81 83
43 69
14 135
91 187
58 31
153 69
79 205
59 43
12 138
200 159
178 112
81 113
127 71
110 179
4 168
138 158
95 200
69 22
2 43
15 59
149 129
74 138
155 6
81 19
198 147
182 190
46 171
100 117
158 2
34 185
143 13
166 34
93 200
199 190
143 137
16 59
55 175
157 196
6 38
42 138
111 35
25 204
64 28
123 138
40 47
85 102
176 2
206 103
15 65
160 89
166 19
129 29
5 9
118 203
160 164
63 19
3 129
71 57
180 81
30 39
49 153
185 22
15 128
190 110
166 109
164 18
95 8
96 190
109 125
43 17
104 121
160 138
9 198
13 26
36 195
126 51
80 35
99 26
64 90
70 51
146 123
133 10
112 187
182 122
202 180
74 8
114 143
51 131
46 10
159 113
25 57
52 182
51 69
57 32
3 70
17 23
33 144
152 179
161 9
32 79
105 178
108 8
7 91
51 192
192 167
15 184
116 194
5 15
110 66
2 15
122 174
157 68
194 31
105 11
43 198
146 162
170 197
128 33
100 62
196 175
156 72
148 26
182 48
30 148
185 45
73 36
160 130
66 18
41 174
30 66
48 124
190 176
4 106
146 135
134 188
3 164
98 167
70 114
54 22
201 43
144 126
145 47
53 24
95 144
104 190
195 11
117 146
113 59
101 197
89 184
110 171
164 131
101 114
16 111
103 105
151 46
165 170
80 89
77 127
136 145
32 170
126 169
57 160
170 100
91 117
54 88
63 12
124 143
190 139
186 172
119 33
174 79
50 162
69 137
149 114
114 166
139 58
56 89
113 112
123 71
36 156
177 194
191 121
150 131
137 96
116 154
18 74
105 134
56 28
140 159
77 187
196 18
75 137
35 141
68 12
164 101
54 33
174 169
194 151
145 95
164 87
41 103
132 92
96 47
13 196
46 18
136 1
88 40
171 71
109 150
108 89
170 140
6 84
123 91
74 71
59 110
17 26
150 175
99 179
73 21
139 144
126 39
8 126
33 34
109 88
137 55
77 168
190 155
103 159
130 170
87 66
79 181
194 163
27 62
77 145
85 61
187 129
155 80
159 126
146 102
41 40
204 12
92 197
127 91
198 51
89 188
175 204
2 167
38 63
146 160
140 141
89 114
206 191
82 200
141 11
116 164
10 150
138 56
71 19
77 56
148 137
95 48
171 78
169 179
155 46
139 121
11 201
149 199
31 79
96 164
29 85
202 80
62 83
185 7
101 187
116 155
1 12
60 150
11 42
122 7
98 198
88 200
91 140
44 19
175 198
22 157
46 186
154 4
3 16
104 74
52 93
155 19
81 195
39 150
89 44
198 94
2 25
141 29
42 126
151 79
91 112
28 105
153 80
125 60
56 118
30 146
129 107
182 181
140 194
7 69
28 31
36 162
19 197
93 58
172 7
126 151
32 17
94 146
88 36
78 111
25 41
151 181
150 15
39 28
182 100
108 122
9 204
135 91
164 89
51 111
16 163
105 123
81 111
14 75
157 110
197 14
171 66
159 189
7 39
22 182
119 21
51 26
137 136
9 186
35 26
46 169
