*Vertices 104
73 "#38"
26 "#62"
53 "#15"
31 "#70"
51 "#2"
87 "#35"
66 "#53"
90 "#50"
40 "#52"
69 "#85"
61 "#71"
8 "#54"
45 "#49"
23 "#91"
14 "#23"
5 "#67"
64 "#87"
28 "#90"
19 "#8"
80 "#27"
33 "#22"
77 "#103"
41 "#48"
32 "#66"
104 "#47"
27 "#29"
81 "#89"
102 "#16"
9 "#76"
38 "#42"
22 "#83"
89 "#86"
62 "#14"
11 "#56"
67 "#18"
58 "#97"
16 "#34"
21 "#5"
74 "#82"
65 "#44"
91 "#80"
44 "#0"
70 "#64"
82 "#65"
46 "#93"
83 "#9"
39 "#55"
55 "#25"
56 "#58"
2 "#57"
93 "#3"
50 "#1"
12 "#60"
68 "#88"
92 "#7"
98 "#61"
71 "#84"
24 "#96"
97 "#46"
60 "#75"
17 "#45"
42 "#33"
3 "#92"
4 "#94"
47 "#78"
10 "#31"
94 "#79"
1 "#20"
75 "#37"
54 "#81"
34 "#102"
20 "#39"
99 "#100"
78 "#98"
43 "#13"
36 "#77"
95 "#72"
48 "#69"
96 "#51"
88 "#19"
7 "#21"
101 "#36"
15 "#11"
57 "#32"
35 "#59"
100 "#28"
25 "#73"
76 "#101"
63 "#6"
49 "#41"
18 "#74"
6 "#12"
29 "#4"
52 "#40"
79 "#30"
37 "#24"
13 "#26"
103 "#95"
59 "#99"
84 "#17"
72 "#68"
85 "#63"
86 "#43"
30 "#10"
*Edges
19 14
69 64
36 37
8 80
10 43
81 28
72 17
17 44
63 72
53 101
18 44
38 21
7 38
29 44
52 67
64 68
65 93
77 76
101 73
21 67
3 86
7 21
72 85
26 38
71 91
50 57
74 48
69 94
10 42
101 69
77 99
38 19
24 61
81 22
31 103
31 52
3 85
55 97
41 50
81 3
41 49
57 72
40 29
17 30
62 1
26 79
14 66
93 87
56 35
73 75
90 87
42 52
7 101
86 27
35 89
26 11
80 12
61 31
56 80
86 104
88 49
58 69
46 13
11 73
94 53
4 43
3 68
85 31
36 94
43 75
10 102
98 29
60 44
82 47
14 11
14 77
24 31
74 80
17 49
59 16
57 88
22 82
60 18
101 39
65 86
1 66
9 53
16 14
30 11
17 42
43 93
36 82
46 18
72 39
95 30
55 66
88 66
12 73
101 104
56 65
37 24
62 80
35 33
36 43
103 12
38 44
4 65
83 5
73 14
77 34
43 96
22 7
69 59
75 49
10 63
54 71
70 32
84 51
59 12
22 33
17 34
14 15
80 20
94 3
72 21
55 61
75 41
46 28
9 22
7 102
5 39
67 83
30 56
38 30
96 55
28 12
36 45
38 11
73 63
5 96
48 40
64 28
62 52
79 100
9 31
18 37
17 10
5 72
72 88
18 85
52 53
30 44
42 53
41 96
85 60
9 57
59 76
50 102
94 9
43 87
15 19
65 63
104 33
43 82
44 39
64 81
76 97
32 2
38 14
7 33
35 76
27 36
37 93
51 47
34 58
101 26
90 12
12 75
94 22
66 51
60 38
70 27
32 44
39 86
85 38
73 44
57 35
44 26
92 68
42 84
18 82
100 1
102 63
35 41
87 37
71 94
92 89
92 8
16 51
97 39
78 59
94 47
75 52
61 25
84 34
38 25
29 17
67 39
83 20
98 20
72 27
55 72
5 8
67 20
99 76
84 66
4 76
15 26
95 85
39 27
82 80
58 78
66 96
89 41
37 51
97 104
44 45
43 8
92 52
92 87
79 19
85 47
42 11
48 80
11 15
63 39
43 70
38 18
35 50
61 37
75 48
42 82
2 41
80 92
28 3
41 5
100 96
70 8
78 34
17 56
32 47
76 36
30 31
61 30
25 15
10 88
43 18
104 67
48 36
52 102
7 104
68 89
93 84
37 102
101 102
100 102
78 76
38 15
97 50
66 101
79 101
86 46
13 48
37 50
94 54
39 73
7 66
61 74
98 80
35 81
62 68
15 79
60 95
42 12
52 3
85 23
88 55
4 45
36 84
92 55
72 51
75 7
31 22
37 63
75 63
37 59
65 73
1 65
28 69
6 84
25 24
44 2
37 71
55 50
100 50
62 75
21 28
3 103
40 21
30 18
77 72
90 93
97 84
3 92
5 37
26 12
92 88
27 77
1 75
10 37
24 3
76 43
99 94
101 2
42 44
55 74
31 25
74 75
35 20
54 8
23 92
44 9
8 94
56 26
36 3
32 17
94 25
44 11
41 92
31 43
16 12
58 77
66 100
61 59
47 3
22 89
39 104
62 89
52 27
28 54
102 16
73 61
101 65
93 100
100 10
28 85
97 16
70 67
53 1
22 57
51 97
37 100
101 59
51 57
75 21
91 36
97 70
5 2
101 100
37 90
84 2
76 34
27 33
41 32
45 33
5 85
86 102
65 30
65 26
73 16
56 20
80 42
102 104
36 34
24 103
62 96
20 30
29 35
30 14
45 82
35 98
63 34
44 95
89 81
66 62
30 19
13 99
74 36
30 15
53 16
104 69
14 102
45 43
55 14
36 7
2 42
19 11
86 67
53 61
56 98
85 30
52 84
75 32
82 9
26 17
86 52
101 81
72 40
60 9
72 29
100 26
57 47
52 68
94 31
92 72
97 45
3 23
101 24
3 64
60 82
22 47
49 26
14 79
63 101
33 94
11 25
94 57
10 44
47 7
66 102
59 77
53 102
33 57
42 6
6 2
39 12
33 43
33 97
66 75
63 52
98 5
97 24
44 85
99 35
92 96
77 4
16 55
77 38
37 9
46 3
25 95
100 15
65 39
69 81
41 8
36 80
10 11
9 52
79 69
7 32
61 95
25 97
45 60
20 66
62 41
84 91
85 12
24 76
59 79
21 89
27 38
100 63
19 82
1 86
70 39
95 18
51 23
77 70
94 91
54 69
67 27
48 21
39 85
88 5
61 9
13 3
90 49
65 53
92 62
22 35
9 95
17 41
82 7
70 24
82 44
53 55
58 4
102 67
31 57
24 27
7 45
89 103
50 93
49 43
41 80
1 101
67 97
102 39
69 3
21 27
4 78
34 72
57 82
49 12
39 71
75 17
28 94
52 104
1 96
50 10
14 53
79 24
23 47
59 58
79 30
77 78
49 29
23 55
