*Vertices 170
159 "#107"
63 "#91"
9 "#148"
82 "#19"
113 "#87"
17 "#108"
14 "#127"
107 "#169"
134 "#99"
165 "#6"
4 "#39"
161 "#12"
18 "#110"
93 "#156"
137 "#20"
125 "#166"
76 "#56"
147 "#57"
136 "#71"
35 "#101"
146 "#64"
94 "#142"
96 "#41"
135 "#89"
163 "#61"
67 "#94"
131 "#150"
124 "#120"
148 "#72"
117 "#30"
119 "#136"
105 "#139"
121 "#154"
145 "#43"
48 "#68"
6 "#102"
24 "#116"
123 "#103"
153 "#117"
16 "#42"
31 "#49"
120 "#106"
130 "#76"
128 "#60"
54 "#75"
55 "#130"
44 "#85"
34 "#90"
19 "#23"
127 "#79"
79 "#1"
92 "#160"
85 "#96"
114 "#84"
1 "#59"
29 "#97"
41 "#62"
144 "#55"
50 "#104"
154 "#133"
155 "#69"
39 "#164"
158 "#80"
138 "#25"
53 "#8"
170 "#137"
20 "#47"
60 "#105"
52 "#81"
71 "#157"
140 "#44"
38 "#0"
47 "#54"
11 "#152"
27 "#83"
152 "#7"
70 "#5"
149 "#113"
97 "#149"
46 "#98"
81 "#40"
73 "#66"
100 "#135"
5 "#100"
83 "#73"
122 "#124"
37 "#161"
168 "#82"
111 "#132"
49 "#17"
32 "#109"
64 "#48"
21 "#145"
99 "#46"
68 "#115"
88 "#3"
126 "#93"
7 "#111"
51 "#31"
133 "#121"
56 "#28"
42 "#27"
57 "#153"
84 "#13"
98 "#122"
22 "#15"
77 "#53"
151 "#138"
66 "#63"
13 "#24"
142 "#38"
129 "#65"
12 "#144"
62 "#51"
58 "#26"
30 "#163"
106 "#74"
87 "#4"
8 "#32"
141 "#125"
160 "#168"
157 "#10"
166 "#146"
167 "#29"
23 "#131"
162 "#162"
164 "#112"
65 "#37"
108 "#2"
25 "#70"
101 "#95"
143 "#114"
102 "#151"
78 "#21"
69 "#58"
36 "#16"
33 "#52"
95 "#147"
132 "#77"
110 "#165"
115 "#140"
156 "#50"
45 "#141"
10 "#123"
169 "#88"
139 "#78"
112 "#18"
2 "#129"
104 "#14"
61 "#167"
103 "#45"
28 "#155"
40 "#126"
72 "#128"
86 "#119"
15 "#22"
90 "#11"
75 "#34"
118 "#143"
91 "#134"
43 "#36"
109 "#67"
59 "#159"
74 "#86"
89 "#33"
80 "#92"
26 "#35"
116 "#118"
150 "#9"
3 "#158"
*Edges
99 75
107 37
94 72
31 18
2 162
18 85
145 159
31 5
20 144
164 43
45 31
128 42
8 15
160 59
26 74
136 138
14 163
165 65
94 20
43 56
86 169
145 20
18 24
99 146
120 169
69 1
125 59
157 144
79 13
80 169
126 34
25 136
44 138
16 41
78 166
135 97
38 130
125 44
42 132
104 137
63 108
38 31
105 149
132 129
16 70
101 10
134 43
9 94
168 138
70 96
66 80
74 141
42 160
78 65
145 81
80 34
42 129
16 123
99 15
165 51
109 48
79 81
52 96
83 16
44 113
142 102
129 31
86 162
50 89
112 146
36 79
103 6
170 108
49 14
99 154
129 139
33 102
85 117
91 144
80 127
9 102
6 123
4 88
74 135
120 144
66 144
41 162
51 56
169 104
26 131
24 73
99 20
152 82
138 91
140 43
31 162
157 69
38 56
27 46
63 32
116 139
49 158
17 7
53 117
106 13
138 152
18 122
36 145
119 23
34 128
19 123
6 48
22 127
136 83
6 149
85 35
12 49
158 114
12 32
10 137
43 144
79 88
95 94
156 13
140 41
163 20
71 167
164 9
75 36
84 106
53 19
101 128
136 157
157 38
41 128
140 157
51 13
159 168
126 50
23 170
81 167
3 44
141 85
116 111
128 65
70 12
100 141
139 8
89 161
96 124
163 1
102 157
74 99
97 38
15 167
112 50
25 27
157 32
79 56
72 14
81 96
90 16
50 25
144 167
159 138
37 121
161 147
62 152
48 33
49 77
12 68
8 108
60 151
45 30
135 39
136 130
84 35
138 125
157 66
36 51
137 77
99 83
114 1
99 144
130 81
114 144
101 78
155 70
8 82
120 163
1 27
80 44
111 42
65 84
46 67
83 85
150 109
18 50
152 80
101 25
25 66
144 112
122 66
138 63
79 96
139 53
62 137
164 104
13 53
60 83
42 163
4 77
4 163
147 73
91 14
133 10
129 84
159 10
133 142
100 49
139 127
16 160
140 44
49 108
162 92
22 130
143 5
130 111
97 39
49 88
105 168
129 53
43 18
62 56
12 109
12 144
74 18
48 137
89 38
70 78
162 38
18 149
84 62
106 88
103 64
139 108
30 42
7 50
62 10
87 48
6 49
122 75
98 30
104 125
89 22
94 102
97 72
124 116
38 148
140 134
44 160
28 31
62 124
119 170
138 22
31 50
66 148
98 44
13 30
43 36
86 76
101 74
157 117
99 35
98 58
41 124
3 140
156 81
75 19
41 76
139 73
31 159
148 130
43 117
26 118
147 43
86 60
110 98
87 163
38 76
34 44
27 8
79 138
137 133
60 160
108 106
28 162
157 159
93 14
58 103
87 12
97 118
31 67
18 47
36 165
26 84
112 89
97 145
110 21
64 109
142 128
127 47
126 153
16 157
19 157
87 1
56 13
135 38
42 168
98 145
84 88
96 87
7 158
52 44
145 21
148 136
111 23
58 5
29 46
4 2
139 151
76 157
64 79
143 65
43 85
68 87
11 132
20 44
111 7
61 37
47 152
162 70
128 144
123 46
143 77
14 114
70 105
30 134
47 140
8 1
159 144
112 153
1 91
5 123
60 46
78 132
19 36
120 157
71 61
20 81
1 15
156 112
70 168
31 54
56 125
35 5
80 113
152 42
83 25
85 136
81 25
22 43
83 148
126 75
65 81
96 114
160 138
96 64
12 156
129 130
58 40
152 74
159 149
36 20
120 159
60 48
11 49
55 152
72 1
7 56
17 48
146 144
92 27
115 40
38 54
114 55
104 65
150 4
56 140
36 22
47 146
65 142
65 105
80 81
84 31
57 102
32 136
35 70
80 139
56 117
96 149
124 59
35 52
156 96
76 142
38 66
140 22
93 81
51 84
138 62
44 135
44 68
104 59
146 123
149 53
62 64
6 165
131 74
80 58
128 75
155 33
83 127
19 138
1 64
13 71
167 140
159 142
44 4
81 53
27 139
81 71
43 137
27 130
167 16
131 46
96 6
63 66
103 69
128 14
62 112
153 86
69 45
131 21
137 124
106 164
74 46
17 53
3 139
70 158
38 51
94 147
1 55
54 148
138 72
12 44
156 11
160 125
130 25
84 92
66 54
90 19
79 93
48 70
29 134
17 50
109 13
159 7
151 22
56 77
148 21
123 167
26 152
156 45
47 149
142 165
84 132
4 42
51 76
31 86
156 78
77 104
138 75
113 34
144 142
168 170
53 99
21 23
140 88
85 74
81 165
57 11
127 130
121 81
140 165
158 20
19 117
16 53
137 65
132 49
77 43
156 49
91 66
86 105
151 112
13 20
117 41
84 146
32 170
41 2
73 38
64 74
139 124
2 96
2 170
144 145
124 147
88 44
139 138
75 92
124 98
51 89
149 14
110 67
134 136
139 159
5 30
158 149
53 93
130 54
144 165
89 49
161 49
79 116
128 134
122 37
36 78
152 151
23 137
139 12
104 64
11 95
4 139
113 144
72 144
15 31
49 81
88 56
41 105
167 70
145 124
121 93
107 140
107 44
106 153
106 66
145 140
12 60
117 134
130 13
17 149
53 45
112 150
77 108
163 96
3 45
77 78
103 51
36 81
80 101
43 41
87 44
86 121
135 34
67 60
50 43
149 70
99 91
5 97
169 81
102 126
43 78
85 101
35 6
6 132
156 128
138 77
35 134
102 11
19 142
65 155
41 170
167 48
111 128
125 164
106 41
3 92
159 150
71 125
159 70
14 138
94 5
13 117
110 30
159 164
99 108
159 106
138 70
52 166
139 79
152 112
143 148
109 82
104 81
30 140
96 18
127 44
157 148
94 1
90 34
34 108
90 94
122 32
127 52
8 129
128 154
123 35
57 106
41 56
146 85
73 78
137 22
101 124
45 38
69 42
127 94
139 97
51 88
42 126
21 122
1 74
48 66
35 40
45 109
96 128
55 111
140 84
3 53
154 111
88 2
90 157
79 121
68 82
3 47
9 11
83 76
87 55
109 147
138 82
117 37
124 133
87 38
97 56
70 97
89 76
13 6
12 5
35 1
134 39
39 56
33 70
128 66
165 13
142 168
12 4
123 48
141 122
52 49
77 72
128 89
139 78
99 85
169 167
99 138
8 79
14 101
106 9
159 124
168 68
145 62
92 53
106 34
116 24
125 97
35 46
112 99
1 4
157 25
106 148
27 129
88 13
112 36
27 135
105 100
61 125
52 114
96 12
168 87
69 140
167 132
86 3
143 39
121 169
141 143
13 36
107 134
70 112
44 32
133 102
96 14
49 91
21 43
40 103
17 12
48 144
14 168
122 121
98 87
144 58
62 104
138 7
103 48
73 106
29 44
77 82
157 103
12 11
153 50
23 151
7 149
120 167
105 151
76 19
67 84
13 134
38 106
139 50
126 145
106 90
80 145
90 53
126 58
25 8
104 5
73 34
156 153
13 85
143 100
10 124
45 166
116 58
103 89
96 24
90 108
67 94
68 86
167 112
47 43
117 107
129 54
120 117
64 147
48 165
89 129
145 150
122 147
105 4
42 47
22 19
155 42
156 69
70 7
4 112
70 92
16 66
111 152
145 137
73 76
119 111
35 67
19 77
132 80
21 68
141 105
65 64
74 27
117 20
66 14
65 168
21 163
82 132
142 11
168 136
9 59
122 85
89 81
127 114
114 91
57 159
112 10
43 154
124 162
43 25
34 127
85 82
125 117
6 29
152 169
114 101
53 157
68 38
109 66
54 16
52 47
158 127
155 58
4 157
15 84
170 111
59 120
42 104
103 38
163 109
127 5
108 13
36 56
158 122
34 52
15 27
43 135
27 127
11 82
13 26
142 75
125 39
159 158
96 103
123 134
65 73
31 43
118 46
95 132
153 41
137 78
151 2
70 52
147 145
164 37
104 143
90 117
142 140
146 73
133 78
20 15
90 41
67 140
12 37
91 55
98 40
23 43
163 69
138 144
2 163
147 38
30 97
152 72
145 112
48 152
12 122
55 7
48 108
21 154
81 12
124 2
131 122
140 137
147 89
48 138
42 50
135 1
47 44
89 42
155 168
149 50
139 96
167 84
123 67
138 49
74 117
103 65
106 165
47 50
9 104
4 69
144 14
96 41
94 97
152 63
1 5
44 117
86 73
142 38
135 113
111 98
156 26
84 96
84 47
130 8
91 87
165 150
134 5
13 93
44 30
30 108
56 135
46 26
32 106
53 76
20 112
121 21
5 98
56 137
24 85
13 81
44 11
151 4
158 132
113 169
119 81
70 34
42 86
163 59
105 139
91 154
90 83
31 99
87 33
125 120
107 30
44 64
127 25
132 13
64 73
134 75
9 12
86 85
162 105
70 65
103 41
46 97
56 165
78 129
53 79
53 74
104 74
38 129
31 110
134 44
139 70
38 21
2 14
90 76
157 106
164 88
151 94
63 139
62 77
124 20
99 49
72 112
47 64
48 8
24 79
16 78
31 47
152 64
151 12
122 124
167 88
82 86
72 90
77 163
21 97
90 97
151 70
158 124
55 42
38 16
25 85
11 133
127 8
32 4
170 30
127 148
88 26
124 79
2 119
47 25
52 46
17 111
66 34
145 154
152 81
30 39
25 84
134 12
42 153
45 12
35 132
70 5
38 144
43 20
78 15
167 85
16 106
36 32
70 74
140 144
75 22
72 151
158 138
43 44
37 53
99 79
69 41
77 65
78 31
109 144
127 132
14 105
163 117
117 59
78 27
94 145
166 89
48 82
80 126
65 100
16 19
88 71
32 19
79 1
94 57
123 29
47 30
139 18
156 166
165 43
136 142
133 101
98 144
145 167
136 13
35 166
71 93
78 124
141 18
21 139
24 139
41 149
96 82
129 106
22 136
78 45
36 77
167 146
90 56
31 132
65 96
144 36
94 163
66 139
35 115
74 97
46 6
59 41
80 85
142 43
23 122
155 132
18 25
23 2
30 31
101 96
75 3
75 108
52 100
67 29
78 20
76 16
74 169
13 114
42 64
54 106
156 88
168 132
149 168
146 148
49 66
53 107
80 63
160 104
9 113
104 152
49 147
51 79
127 15
103 87
159 78
134 46
109 47
102 20
39 38
159 137
144 9
101 137
106 126
80 135
71 37
81 22
73 103
2 111
73 108
38 41
144 49
168 41
38 30
62 109
51 82
112 81
96 116
92 168
32 87
