*Vertices 227
74 "#142"
37 "#47"
156 "#138"
30 "#45"
65 "#148"
193 "#147"
90 "#217"
177 "#43"
8 "#0"
173 "#80"
12 "#19"
7 "#41"
145 "#223"
1 "#72"
93 "#209"
84 "#162"
51 "#176"
36 "#194"
192 "#181"
175 "#113"
54 "#103"
152 "#8"
188 "#10"
141 "#78"
62 "#77"
48 "#64"
146 "#48"
139 "#22"
197 "#54"
100 "#200"
142 "#24"
58 "#82"
106 "#202"
63 "#132"
35 "#201"
209 "#146"
66 "#93"
110 "#128"
195 "#188"
172 "#81"
60 "#119"
218 "#101"
91 "#215"
50 "#38"
71 "#120"
40 "#210"
118 "#207"
47 "#189"
68 "#39"
148 "#136"
200 "#115"
57 "#150"
171 "#76"
122 "#140"
61 "#79"
97 "#109"
111 "#70"
153 "#36"
81 "#219"
167 "#170"
174 "#15"
181 "#89"
169 "#75"
121 "#49"
186 "#121"
170 "#123"
184 "#155"
31 "#154"
39 "#13"
187 "#63"
72 "#1"
149 "#179"
13 "#225"
3 "#204"
109 "#27"
83 "#184"
41 "#139"
131 "#87"
207 "#193"
205 "#51"
165 "#31"
15 "#34"
120 "#28"
6 "#122"
19 "#11"
27 "#149"
203 "#216"
127 "#187"
92 "#107"
133 "#37"
64 "#171"
28 "#152"
224 "#26"
137 "#205"
147 "#218"
112 "#86"
77 "#99"
198 "#167"
4 "#191"
20 "#129"
125 "#57"
80 "#153"
29 "#135"
182 "#52"
5 "#61"
216 "#12"
38 "#169"
32 "#7"
117 "#83"
67 "#108"
132 "#73"
168 "#3"
194 "#46"
138 "#66"
88 "#177"
158 "#163"
143 "#221"
23 "#21"
226 "#96"
211 "#29"
199 "#110"
159 "#74"
164 "#118"
102 "#102"
78 "#141"
11 "#17"
136 "#133"
213 "#20"
46 "#130"
210 "#42"
191 "#157"
25 "#60"
134 "#50"
96 "#178"
103 "#85"
34 "#203"
116 "#71"
130 "#124"
223 "#180"
220 "#166"
212 "#159"
101 "#16"
22 "#168"
17 "#126"
119 "#56"
201 "#172"
185 "#222"
151 "#174"
214 "#160"
42 "#182"
178 "#214"
150 "#131"
108 "#106"
128 "#67"
206 "#137"
176 "#196"
163 "#197"
99 "#213"
196 "#69"
104 "#192"
219 "#117"
180 "#175"
129 "#35"
190 "#190"
53 "#183"
115 "#104"
155 "#2"
76 "#185"
123 "#32"
204 "#94"
14 "#90"
44 "#97"
85 "#114"
161 "#18"
221 "#33"
183 "#212"
56 "#156"
225 "#6"
75 "#92"
217 "#224"
107 "#127"
26 "#65"
189 "#208"
140 "#62"
9 "#59"
55 "#53"
126 "#125"
45 "#195"
52 "#58"
162 "#5"
10 "#95"
202 "#134"
208 "#84"
69 "#68"
227 "#164"
59 "#116"
157 "#111"
73 "#98"
135 "#198"
21 "#226"
113 "#105"
114 "#55"
179 "#25"
215 "#44"
144 "#30"
86 "#186"
49 "#220"
87 "#9"
79 "#161"
94 "#91"
33 "#165"
105 "#145"
16 "#211"
82 "#206"
2 "#100"
43 "#112"
98 "#23"
124 "#158"
166 "#144"
95 "#40"
89 "#173"
70 "#4"
222 "#199"
154 "#151"
18 "#88"
160 "#143"
24 "#14"
*Edges
171 117
120 19
39 159
94 187
181 131
211 162
128 142
58 149
196 133
215 39
123 117
92 141
153 174
16 147
75 95
70 69
20 71
171 26
148 150
3 179
19 147
7 166
27 207
134 88
128 190
21 80
70 166
67 152
25 134
130 207
150 213
12 123
39 88
124 214
56 107
13 131
13 124
56 86
130 62
14 25
27 162
175 173
140 159
83 192
166 28
153 103
74 61
156 192
152 47
84 101
146 71
83 214
121 39
102 140
153 77
70 5
59 7
57 73
148 63
10 226
209 78
224 6
147 128
152 188
111 94
171 142
15 93
114 6
78 207
125 201
105 177
1 48
89 101
112 126
63 46
136 99
123 139
152 119
103 215
130 57
82 77
47 3
204 44
13 143
100 47
143 212
146 125
199 44
7 70
103 75
112 53
133 39
72 71
187 114
121 139
112 129
134 168
25 187
103 166
164 63
162 112
95 111
124 215
68 141
136 11
12 28
95 166
99 147
51 156
227 77
213 10
134 11
183 43
223 184
167 195
221 95
144 220
139 39
24 32
67 3
210 187
7 72
184 84
166 11
114 8
19 151
77 144
67 86
225 101
94 64
7 141
157 46
80 159
201 71
115 219
105 136
17 224
103 61
111 10
99 184
175 64
153 125
159 147
16 221
200 21
197 172
112 226
215 197
101 90
201 24
92 170
15 124
226 12
202 70
212 39
171 63
22 103
17 222
206 156
27 5
107 73
106 52
150 23
192 209
40 143
80 218
68 207
154 65
220 24
202 179
38 158
110 9
220 27
52 140
188 98
67 157
14 138
199 112
2 158
120 8
139 194
137 184
92 58
52 78
93 16
200 12
94 89
184 195
214 117
133 30
13 99
137 152
37 139
185 149
61 117
137 122
80 28
117 111
8 221
7 208
41 141
120 144
205 24
45 167
53 149
20 168
150 16
97 206
30 17
54 204
193 128
159 66
66 115
94 75
45 44
96 93
175 138
141 187
134 52
181 8
112 27
12 128
186 23
19 152
62 109
150 206
10 71
141 71
210 19
92 121
130 126
97 159
2 61
211 168
24 43
192 15
31 18
111 123
116 77
19 155
26 8
4 218
179 55
166 18
176 134
107 11
82 66
225 153
186 170
187 29
38 183
121 2
225 87
134 154
132 116
140 7
117 26
132 226
10 217
134 66
208 173
83 46
124 2
103 220
150 153
38 79
111 188
128 87
142 120
38 215
171 174
19 27
18 24
9 74
123 9
28 65
120 165
41 175
39 15
125 15
150 63
8 138
109 146
212 16
219 140
66 109
194 37
179 98
83 96
170 10
85 227
119 210
102 73
27 73
130 97
8 210
8 105
162 210
108 220
179 220
177 27
117 181
58 175
52 5
7 25
2 162
169 159
93 39
99 162
77 130
1 86
114 153
68 52
5 144
108 114
100 73
202 136
11 221
30 165
9 72
155 94
59 226
161 162
16 83
220 181
59 182
221 26
90 123
61 53
32 12
53 214
16 90
43 220
139 103
225 95
33 121
197 158
146 133
37 71
96 86
103 144
167 113
84 162
109 197
158 215
217 17
221 130
32 156
225 133
23 213
221 125
64 32
6 71
111 132
115 141
114 107
25 107
197 189
197 48
175 166
19 74
134 78
41 162
142 101
71 180
112 146
149 112
162 179
137 134
6 158
144 19
159 210
162 7
124 152
130 173
138 141
49 93
74 156
135 40
214 39
52 9
22 45
146 7
82 62
65 159
11 28
70 9
105 31
140 119
72 59
159 227
157 115
8 159
91 183
64 86
69 123
9 5
155 142
143 45
121 8
30 224
142 165
211 95
138 188
120 72
125 67
156 83
34 152
107 187
14 61
39 19
59 64
10 186
95 126
71 164
50 186
134 166
77 215
155 141
174 156
172 29
71 186
116 171
32 179
221 119
10 107
68 87
219 145
132 1
6 103
111 153
44 28
45 130
124 223
114 101
77 158
161 115
9 181
60 200
136 35
111 43
5 195
161 170
168 176
46 202
202 194
206 163
199 111
5 105
74 80
215 204
82 134
98 119
126 85
171 1
47 94
141 166
11 216
77 44
191 142
170 126
177 92
152 210
39 204
41 133
46 32
107 100
103 200
20 68
179 205
44 103
77 62
142 144
62 58
157 175
227 127
143 3
84 20
204 121
95 148
179 194
225 159
126 199
53 206
193 62
28 134
179 72
139 117
113 45
58 116
22 210
202 9
66 91
174 98
179 157
77 185
111 47
119 188
67 65
152 112
152 175
177 74
11 168
121 166
40 51
145 38
111 19
141 123
3 65
161 87
21 95
68 193
12 90
188 92
2 156
41 40
211 39
220 227
35 201
177 66
128 163
10 25
95 11
169 192
213 120
219 46
89 207
66 213
48 21
8 1
188 144
8 27
102 93
48 211
81 117
159 187
210 188
1 85
175 115
97 103
159 19
166 128
132 113
206 47
216 145
135 67
73 204
111 207
199 121
52 114
37 95
208 61
133 58
57 112
140 25
167 94
86 71
38 152
226 218
169 8
73 77
77 54
168 191
58 70
189 20
187 91
23 10
23 162
203 67
216 221
102 175
194 136
106 103
103 14
141 61
92 87
187 1
1 116
58 179
120 101
21 226
175 67
183 7
129 73
140 175
19 98
31 60
38 203
71 23
113 73
97 68
27 120
133 95
216 125
190 207
219 109
112 117
188 145
218 62
102 225
36 4
119 149
141 162
74 110
114 179
35 178
85 55
129 57
99 211
134 129
14 172
5 128
177 211
78 23
143 124
69 54
42 159
109 32
134 209
58 214
93 149
165 12
191 198
71 205
138 155
25 15
69 102
132 194
70 8
211 108
215 177
39 106
116 97
24 146
20 156
101 165
177 159
23 138
154 50
189 7
146 32
161 177
15 135
162 147
182 154
180 28
108 188
134 35
58 93
105 153
215 213
151 16
6 177
52 30
33 6
90 95
96 46
31 59
181 153
33 158
220 22
54 211
165 221
141 94
222 207
84 211
39 129
71 173
218 2
50 114
143 135
192 27
187 128
201 86
103 158
156 162
162 218
27 110
84 121
151 53
23 139
154 80
101 177
205 32
65 149
9 99
135 35
168 86
210 132
136 153
5 107
119 19
37 153
124 197
48 138
11 178
168 72
142 198
142 134
225 143
4 80
37 103
8 227
144 212
55 155
208 172
218 9
207 80
168 103
110 107
141 156
162 127
118 27
219 159
177 205
5 74
57 42
72 141
168 39
29 85
21 58
79 31
143 38
196 224
136 175
73 117
131 103
152 214
166 78
90 91
122 45
162 173
114 110
170 223
72 165
134 96
65 203
5 100
51 152
18 75
192 74
8 78
199 153
39 111
142 168
121 158
24 212
174 15
119 60
159 127
2 151
180 76
226 137
56 142
21 118
157 16
39 120
201 146
166 65
73 4
126 226
130 113
9 146
87 53
173 179
108 5
32 63
101 55
75 147
68 80
192 214
120 205
26 141
216 88
15 156
200 58
37 86
50 58
25 114
159 142
25 63
152 95
121 175
53 119
201 135
118 67
107 7
68 55
95 18
198 220
94 97
109 25
97 188
128 152
141 50
44 73
92 43
105 200
35 214
182 162
109 24
47 171
39 173
7 164
203 143
28 62
95 56
105 130
95 134
109 22
102 33
213 133
55 98
26 23
66 206
133 203
138 145
179 141
137 130
43 7
138 146
118 5
161 32
152 142
223 32
109 196
188 175
39 7
214 206
11 29
167 212
163 192
182 223
140 195
8 200
92 50
144 79
142 102
165 8
77 15
168 159
226 199
52 215
37 161
131 139
161 101
174 101
146 72
60 138
2 195
38 133
191 211
128 197
142 226
131 75
45 183
162 92
194 121
14 155
11 125
188 1
73 54
53 96
116 174
158 8
142 178
13 111
161 110
37 5
51 3
96 49
62 173
203 212
171 111
108 186
59 116
74 204
133 85
48 54
142 62
59 89
101 54
14 159
33 204
154 66
105 27
213 86
37 142
2 15
54 51
73 168
162 214
61 62
123 155
99 149
69 162
82 181
25 136
27 181
194 15
27 17
121 26
227 158
141 105
219 60
125 135
104 130
68 41
54 102
86 224
216 86
135 51
27 158
61 197
200 166
68 166
72 56
51 214
107 4
32 197
101 15
2 27
134 171
124 103
159 1
141 124
160 73
221 174
141 27
59 180
130 166
89 44
58 18
42 96
188 187
12 55
159 101
25 221
23 16
183 6
69 213
134 219
22 113
95 191
18 60
116 179
102 218
194 155
11 187
100 168
172 218
35 171
61 172
134 86
30 8
167 32
179 11
150 105
4 78
112 119
26 159
76 223
195 137
147 151
102 151
144 226
50 153
15 67
78 121
209 218
173 8
172 103
183 216
135 45
167 104
71 84
124 78
194 72
133 7
96 141
208 107
127 106
23 62
206 148
159 33
146 205
215 140
223 59
10 7
69 187
214 134
24 2
155 15
90 147
128 78
100 15
226 211
96 130
153 23
220 191
51 47
159 21
195 102
140 137
48 226
120 157
148 83
147 95
169 87
109 115
226 116
151 39
125 100
6 151
147 122
208 202
219 181
31 130
171 214
30 188
192 207
154 58
103 197
212 22
162 106
39 218
69 155
61 75
74 181
73 218
45 139
206 20
169 210
158 109
69 30
13 15
19 132
91 58
106 93
183 186
82 154
31 56
39 16
199 197
72 123
164 141
104 45
176 114
34 226
77 115
50 225
15 82
211 62
64 224
50 151
227 120
71 92
213 92
56 152
46 109
148 68
208 9
77 166
18 121
213 55
101 98
11 55
101 97
32 207
24 55
59 164
66 86
32 110
106 223
32 112
66 15
99 212
126 90
58 109
137 65
152 194
180 146
20 5
194 114
224 114
188 19
63 109
156 150
95 7
99 62
154 188
5 68
165 119
115 185
106 32
161 163
105 33
195 183
130 15
67 69
114 92
54 44
226 194
139 9
38 144
138 59
197 115
182 69
68 188
197 111
54 46
157 63
138 99
158 78
169 171
160 27
194 161
45 128
222 89
75 141
79 152
140 30
188 215
56 37
174 213
2 224
103 28
144 108
42 44
211 139
31 64
105 1
107 13
45 225
144 98
115 153
28 193
59 199
169 1
14 19
221 30
117 141
190 193
164 224
35 106
82 99
130 199
122 151
39 26
161 35
55 120
107 99
192 206
9 2
78 36
107 84
25 50
70 182
67 166
71 7
39 165
198 79
156 113
138 133
123 61
206 83
212 157
181 145
71 212
50 119
212 140
36 80
5 184
120 168
62 12
95 31
120 91
121 60
131 65
140 144
114 131
24 35
15 98
162 172
20 148
102 7
6 53
9 117
143 48
144 37
166 113
159 138
5 212
80 5
147 225
146 128
75 66
140 20
79 166
160 129
44 135
141 42
149 22
141 151
66 224
30 146
155 11
20 86
168 107
90 54
124 195
146 168
102 159
133 29
42 28
99 77
8 50
48 39
38 216
39 89
23 121
111 115
74 154
112 9
141 59
26 123
174 179
196 58
7 172
111 27
34 47
32 18
174 215
209 27
99 35
177 84
82 105
226 60
168 129
2 74
67 63
19 99
11 194
55 133
72 31
71 140
75 62
23 169
206 63
21 27
23 192
218 17
161 114
69 225
75 187
120 140
173 37
159 84
123 171
58 41
166 2
144 112
6 17
93 83
114 65
142 72
217 58
101 37
126 29
131 18
226 111
6 2
133 24
168 215
128 205
50 215
69 12
223 183
46 208
65 74
226 153
106 46
15 51
166 162
95 177
109 52
30 138
114 225
168 5
36 218
91 206
169 121
181 112
182 76
109 68
181 120
24 65
59 28
60 109
195 126
88 129
218 122
139 13
121 62
31 94
202 107
75 177
158 206
103 45
60 12
209 172
136 18
114 188
19 140
68 9
19 207
68 161
27 227
152 141
218 204
112 194
67 100
69 128
210 98
15 83
34 51
79 202
141 23
192 53
199 141
95 161
26 62
215 225
73 112
187 130
21 33
193 74
103 77
86 180
54 16
142 116
12 7
180 116
149 77
121 153
219 66
43 79
159 99
211 114
177 71
106 16
107 41
23 134
176 4
23 117
177 125
207 4
171 8
54 218
60 122
70 6
147 152
213 64
75 32
31 76
104 195
109 221
106 114
48 161
59 222
192 2
177 213
102 110
126 147
98 152
224 75
67 143
99 188
175 197
23 209
60 84
98 50
114 208
197 146
54 210
11 102
121 184
26 152
196 182
103 179
100 176
36 68
129 142
168 43
161 219
211 69
101 72
35 11
207 128
24 135
217 18
14 75
65 212
190 33
194 218
149 131
54 98
159 43
221 151
25 133
134 161
58 162
152 144
166 156
175 92
92 80
156 161
140 210
114 69
69 179
61 134
176 171
141 34
58 107
46 70
192 181
208 142
125 35
60 124
89 28
116 50
169 187
214 142
111 187
65 43
20 7
93 46
197 39
175 107
159 93
115 221
28 154
119 138
215 120
71 130
196 62
14 162
55 205
175 7
225 86
3 223
159 92
152 72
59 94
45 195
62 11
68 103
102 30
41 84
142 158
111 206
37 177
125 71
197 64
95 170
70 103
10 75
92 173
115 199
90 41
218 77
155 159
157 162
79 130
139 61
133 23
56 201
93 82
212 162
67 225
16 214
3 34
175 199
168 201
38 77
221 209
153 120
121 197
206 140
150 20
71 170
23 37
154 186
64 51
225 165
138 125
73 5
214 15
167 88
169 26
170 213
162 196
103 38
62 39
7 134
14 66
23 210
65 143
145 99
221 161
46 9
174 95
39 167
110 179
184 122
58 206
95 171
181 93
58 223
8 21
212 108
127 46
55 153
210 211
195 130
155 206
170 207
137 45
213 205
176 52
41 29
115 67
218 78
173 11
16 122
114 202
167 106
22 179
222 66
100 4
181 227
120 225
226 75
192 87
153 213
223 152
47 134
41 126
180 201
35 32
133 212
112 10
45 184
65 130
136 177
101 23
54 2
53 156
50 15
152 163
61 171
172 86
109 5
11 114
153 43
79 83
46 162
28 50
201 43
166 136
125 74
183 108
151 110
39 205
104 113
143 51
61 132
195 80
63 6
184 128
70 97
50 133
11 172
146 103
19 110
168 180
220 212
144 153
120 186
108 92
37 114
142 95
118 80
48 194
153 140
116 111
128 114
153 215
101 16
124 126
167 170
220 120
92 157
156 68
212 38
105 57
61 173
76 59
186 213
149 115
18 112
78 152
1 61
63 20
130 150
173 120
161 205
179 15
89 42
113 204
55 110
5 55
213 71
15 105
189 183
83 220
91 217
74 27
98 97
12 179
92 23
59 66
99 115
132 119
172 201
213 24
181 14
152 3
60 113
214 84
8 188
187 8
8 125
183 120
114 166
207 218
92 179
223 34
118 143
11 202
32 175
188 116
8 84
2 77
74 37
107 211
115 121
168 68
41 156
191 56
1 134
35 170
101 153
181 103
122 17
7 5
211 161
140 84
152 183
64 135
32 69
106 207
32 94
61 86
172 73
226 45
183 145
111 61
58 140
23 55
18 108
24 85
32 129
187 202
94 179
223 128
24 95
221 122
147 184
197 153
168 165
207 193
158 155
69 113
39 94
188 159
226 130
127 184
70 200
18 211
30 70
43 86
79 191
72 95
61 174
102 44
215 114
106 170
133 162
60 41
110 156
131 14
125 128
88 94
130 82
154 37
142 77
225 142
33 93
20 107
147 221
2 85
64 40
87 23
84 39
7 199
25 77
177 114
102 62
140 41
52 188
128 192
170 205
135 100
7 30
166 97
177 87
187 14
46 181
137 97
8 140
95 101
215 211
75 181
134 53
78 80
112 24
75 183
28 186
96 221
32 95
125 130
24 22
72 164
157 173
162 175
66 89
147 183
48 114
109 26
119 8
136 63
143 111
212 94
10 208
223 207
170 32
179 107
