*Vertices 115
47 "#68"
85 "#106"
64 "#53"
74 "#111"
4 "#3"
78 "#96"
73 "#39"
104 "#108"
59 "#8"
1 "#85"
29 "#93"
54 "#31"
16 "#25"
72 "#97"
107 "#113"
61 "#102"
69 "#0"
94 "#45"
46 "#24"
68 "#69"
20 "#80"
55 "#14"
15 "#107"
25 "#20"
108 "#35"
37 "#103"
103 "#94"
67 "#104"
27 "#79"
86 "#38"
5 "#48"
34 "#37"
90 "#32"
99 "#78"
77 "#63"
43 "#10"
62 "#88"
92 "#71"
109 "#40"
100 "#23"
113 "#91"
42 "#59"
110 "#82"
65 "#77"
39 "#60"
44 "#6"
58 "#44"
10 "#72"
22 "#52"
82 "#13"
102 "#17"
98 "#49"
57 "#46"
17 "#33"
60 "#87"
106 "#41"
40 "#86"
11 "#12"
87 "#7"
18 "#73"
63 "#51"
48 "#55"
30 "#110"
35 "#75"
2 "#22"
79 "#26"
38 "#105"
115 "#65"
33 "#36"
93 "#81"
14 "#56"
12 "#114"
75 "#27"
70 "#100"
9 "#101"
101 "#11"
23 "#28"
91 "#43"
114 "#95"
3 "#18"
6 "#84"
53 "#109"
19 "#74"
105 "#50"
56 "#62"
21 "#64"
13 "#54"
111 "#4"
76 "#30"
41 "#29"
97 "#89"
84 "#19"
71 "#57"
50 "#42"
95 "#98"
96 "#1"
32 "#76"
28 "#83"
31 "#15"
80 "#58"
51 "#16"
52 "#21"
66 "#47"
8 "#99"
88 "#9"
89 "#66"
49 "#61"
112 "#5"
83 "#2"
24 "#92"
26 "#34"
36 "#90"
7 "#112"
45 "#67"
81 "#70"
*Edges
90 54
22 94
40 46
6 108
11 84
14 19
114 8
92 14
108 77
79 71
80 66
110 79
52 73
108 56
79 47
14 68
67 12
37 70
24 29
15 7
80 23
38 67
109 89
76 22
31 34
44 58
5 51
34 26
93 6
112 101
113 1
49 72
49 42
111 76
107 15
52 50
80 41
57 35
51 46
92 10
53 15
98 42
24 32
89 54
10 32
23 64
71 102
51 41
68 2
94 91
100 32
46 69
57 11
61 89
83 10
3 49
16 87
32 18
52 98
63 86
41 111
31 94
34 58
77 56
58 101
51 11
112 68
92 35
90 108
14 48
47 49
113 32
6 40
3 84
10 35
80 105
50 115
15 30
26 45
23 97
98 106
31 13
88 101
80 5
79 101
97 36
96 90
108 76
93 87
17 52
113 97
39 115
111 14
80 74
24 4
37 114
21 23
88 92
41 94
107 38
46 16
112 2
49 46
49 19
34 39
15 67
66 74
98 111
108 23
115 68
103 114
34 88
84 29
91 26
5 108
106 84
29 36
74 8
7 104
52 21
98 115
99 58
42 3
102 2
44 109
23 89
6 20
63 51
112 55
58 79
41 47
4 34
6 23
51 16
13 86
93 28
75 49
32 81
87 41
16 76
84 41
63 47
53 7
76 94
88 44
61 9
88 86
43 5
65 71
91 59
31 22
33 57
108 51
5 92
34 98
47 19
44 81
68 94
3 25
27 59
8 37
66 15
47 20
54 101
45 106
63 66
64 101
54 64
97 60
74 89
103 9
70 49
71 89
90 33
3 17
73 2
44 89
54 3
20 25
62 36
106 14
110 99
76 3
113 24
109 114
16 5
27 20
96 6
68 17
11 109
88 106
76 11
65 110
106 89
24 36
82 77
33 47
75 5
46 58
1 87
111 79
80 56
31 107
105 11
100 50
105 14
32 87
83 106
52 59
34 57
52 86
6 28
95 58
81 18
77 98
84 112
100 84
4 64
62 97
99 76
49 108
101 106
71 80
39 11
49 82
81 92
23 11
54 42
105 100
30 67
46 111
62 29
107 80
31 96
34 115
88 64
34 101
10 102
59 22
58 108
109 105
99 28
6 51
10 19
40 36
10 14
88 93
42 71
17 88
11 41
100 13
82 3
65 101
25 86
44 73
74 104
14 94
115 109
115 11
92 19
110 31
90 41
27 93
114 44
94 86
84 102
5 6
98 89
98 54
112 44
69 101
53 67
43 23
38 85
8 23
25 91
3 5
33 106
74 15
31 74
88 2
88 55
23 26
91 50
14 51
56 109
89 95
81 87
3 113
50 3
57 111
104 53
17 63
21 42
109 20
14 102
51 49
91 39
97 50
109 32
66 10
58 90
31 18
25 47
66 31
113 36
111 16
102 86
109 100
23 60
88 83
112 94
43 68
23 74
10 47
92 93
30 85
88 80
91 3
31 111
84 23
96 2
76 91
46 96
75 42
74 38
90 50
4 39
80 11
88 71
41 50
8 104
27 71
95 114
19 18
14 91
103 78
46 82
6 41
73 112
77 51
74 7
89 107
45 22
54 25
50 45
53 85
83 82
33 101
41 77
40 60
78 8
27 88
91 100
56 105
31 17
59 11
79 106
6 27
94 57
73 63
31 3
22 91
13 73
94 102
63 88
68 44
48 42
107 74
115 102
9 95
87 14
110 34
98 33
10 88
4 16
57 84
2 6
102 59
68 102
98 50
107 66
71 101
65 14
101 47
93 20
27 73
52 111
33 22
4 57
95 109
80 58
2 111
4 51
91 57
76 57
92 108
42 13
71 110
37 103
46 2
31 76
47 92
20 99
61 95
26 76
63 87
60 29
112 106
56 70
20 91
112 17
31 64
22 16
69 45
83 84
48 58
91 31
111 23
36 60
14 16
111 64
5 23
93 10
16 23
88 110
24 40
64 16
40 11
27 28
54 46
43 75
100 83
100 34
23 2
51 89
92 18
60 113
5 45
108 17
90 63
45 76
1 73
61 109
67 104
89 80
67 7
6 59
111 87
41 63
91 90
51 54
41 52
17 73
21 54
16 26
6 99
57 22
42 64
48 115
43 63
17 26
4 46
86 31
45 79
90 95
46 44
110 27
23 107
111 22
23 79
60 62
66 86
98 51
89 66
3 75
108 82
102 112
49 10
28 20
43 76
24 62
51 102
35 59
50 59
31 112
88 81
5 71
66 109
14 47
63 13
39 57
48 17
83 80
108 21
66 69
107 8
14 49
4 102
15 38
46 102
23 51
26 68
101 14
26 44
24 87
56 49
73 108
96 54
90 31
81 9
59 86
13 64
44 101
64 2
40 62
87 4
101 26
63 54
39 59
46 59
88 84
14 112
48 101
4 31
101 23
68 73
30 38
99 27
27 2
90 59
5 14
20 110
80 22
91 54
89 114
92 32
6 46
4 79
83 3
45 101
88 48
23 106
41 33
43 97
52 108
49 77
23 71
51 31
94 48
49 21
23 47
47 106
9 70
48 26
70 103
110 101
95 103
105 66
4 32
92 6
45 34
93 99
52 115
95 70
12 85
32 35
113 16
76 50
57 102
49 52
89 31
78 114
71 45
51 111
6 11
87 90
57 115
86 73
109 80
106 102
71 14
1 17
100 59
30 7
74 67
33 89
83 50
9 62
112 88
20 54
88 102
49 98
115 111
82 17
100 14
73 43
110 54
102 33
93 34
10 100
14 115
54 82
43 41
19 35
83 17
81 14
7 85
85 15
113 62
102 66
3 46
54 47
87 113
44 79
71 22
1 24
24 16
68 48
11 56
85 67
87 50
90 51
