*Vertices 104
43 "#54"
9 "#33"
57 "#47"
80 "#102"
42 "#84"
15 "#87"
33 "#60"
99 "#71"
4 "#14"
39 "#18"
3 "#58"
85 "#53"
72 "#2"
36 "#24"
51 "#35"
102 "#68"
21 "#90"
44 "#40"
26 "#17"
83 "#51"
5 "#15"
87 "#56"
8 "#100"
6 "#73"
35 "#0"
52 "#69"
27 "#65"
93 "#45"
10 "#21"
97 "#77"
1 "#86"
70 "#36"
63 "#34"
71 "#27"
79 "#19"
82 "#57"
34 "#82"
92 "#72"
88 "#50"
12 "#99"
53 "#42"
69 "#83"
56 "#101"
40 "#96"
65 "#85"
91 "#44"
61 "#28"
101 "#5"
45 "#22"
20 "#93"
75 "#3"
47 "#76"
37 "#30"
54 "#79"
55 "#61"
103 "#103"
78 "#26"
7 "#98"
67 "#11"
62 "#59"
66 "#91"
25 "#88"
50 "#94"
59 "#32"
2 "#70"
14 "#6"
49 "#8"
24 "#16"
104 "#97"
32 "#62"
84 "#37"
86 "#80"
64 "#39"
30 "#7"
77 "#49"
68 "#46"
41 "#89"
100 "#31"
48 "#81"
58 "#29"
74 "#41"
38 "#64"
60 "#1"
46 "#10"
89 "#78"
11 "#48"
17 "#52"
13 "#92"
94 "#23"
98 "#95"
18 "#9"
28 "#25"
96 "#13"
73 "#20"
31 "#43"
95 "#75"
29 "#67"
19 "#4"
76 "#55"
22 "#38"
81 "#63"
23 "#74"
90 "#66"
16 "#12"
*Edges
13 66
28 30
71 39
62 71
25 21
40 50
84 29
59 5
61 67
84 27
20 15
37 31
19 87
39 73
74 26
58 70
53 72
17 68
45 36
70 90
68 95
30 13
23 99
10 64
53 39
57 83
90 44
86 54
3 90
39 37
91 89
64 46
68 93
104 55
73 100
44 27
31 59
40 98
55 62
81 96
11 46
9 5
85 61
99 47
66 25
11 87
39 72
61 41
76 87
51 81
9 76
89 48
24 75
101 18
17 93
98 12
44 7
28 66
56 8
58 30
74 18
86 48
55 51
5 93
98 90
78 75
86 100
74 61
30 65
30 59
68 70
29 82
42 89
9 39
92 18
5 22
36 91
52 101
52 63
66 15
50 56
81 77
31 17
100 24
53 49
87 92
86 89
48 54
53 10
56 80
61 28
55 39
92 55
67 70
9 72
95 92
80 44
10 58
5 19
11 24
6 47
27 52
62 82
90 61
76 62
3 18
94 79
79 61
42 24
75 13
96 36
60 36
70 26
18 4
81 58
92 23
28 85
27 16
78 82
94 53
45 60
99 2
28 17
30 48
78 102
46 61
24 83
26 79
93 31
84 94
23 87
42 58
96 72
87 27
2 14
28 75
37 46
30 2
43 85
18 9
3 57
85 100
2 87
36 14
62 77
42 61
82 87
59 70
34 82
16 42
47 30
100 83
23 102
52 64
83 64
76 93
30 19
50 7
68 26
34 86
55 96
37 16
38 55
63 29
24 87
85 19
28 63
16 79
11 3
50 8
22 83
5 85
61 78
80 7
47 2
35 57
9 64
6 99
90 80
25 41
61 63
42 69
44 47
103 98
21 66
28 87
98 14
49 16
32 16
19 27
8 103
38 10
102 73
63 9
24 90
93 87
63 84
39 96
99 48
17 29
61 82
101 9
64 43
53 41
51 24
15 1
32 8
84 75
17 3
19 61
25 20
91 78
81 55
91 14
64 51
53 37
39 62
89 54
11 71
86 69
93 52
59 49
63 67
91 3
93 101
95 49
47 75
79 72
64 65
59 24
51 37
24 26
11 29
67 35
84 67
18 83
100 38
70 17
70 102
96 9
76 18
86 31
14 63
101 87
39 11
58 24
66 30
24 36
44 88
83 30
36 75
5 43
32 55
77 70
100 31
102 92
60 100
82 17
14 101
14 52
31 49
30 75
83 58
94 87
17 19
52 45
11 82
86 73
31 87
56 25
27 26
39 36
23 6
72 18
75 5
10 9
6 5
41 21
99 102
15 21
46 58
34 78
74 78
10 27
48 92
87 99
84 68
92 94
36 26
53 77
78 67
43 94
75 26
90 77
29 35
45 85
45 64
48 84
22 57
77 27
44 98
49 33
36 49
24 55
32 88
49 10
16 33
52 26
32 3
90 74
24 19
43 22
47 66
60 59
72 74
61 102
67 101
86 102
32 81
29 78
16 24
77 100
20 13
79 74
50 103
7 56
4 101
5 101
7 8
37 63
82 67
33 75
39 31
79 18
74 87
65 9
10 77
34 5
74 101
90 100
75 68
90 14
57 92
94 44
24 61
65 13
27 76
15 41
92 26
78 19
85 62
18 99
23 55
15 25
69 89
35 36
1 21
91 67
31 5
87 102
97 67
92 47
39 100
19 37
37 68
25 13
12 103
101 64
54 42
19 10
37 5
44 57
99 92
16 88
56 2
29 74
94 47
55 102
58 93
14 44
90 82
91 76
36 100
58 79
71 46
79 68
34 84
31 68
39 66
102 100
5 60
26 49
49 22
81 24
33 31
53 30
102 58
46 83
19 28
82 3
88 57
59 83
94 31
5 17
37 93
74 67
76 52
67 102
83 102
100 62
29 53
100 96
69 54
88 94
42 45
90 7
67 34
26 57
18 48
15 61
1 13
13 47
3 88
76 67
86 42
26 93
99 95
66 65
17 49
74 77
22 93
16 44
17 37
23 95
37 29
10 51
34 54
9 83
50 98
12 40
48 42
16 61
53 27
31 53
96 51
78 14
18 14
52 46
13 28
18 84
48 69
87 88
74 102
68 27
89 34
100 59
58 16
63 31
84 5
68 19
31 73
92 72
18 22
76 63
52 9
34 97
97 82
53 59
55 36
3 44
68 33
33 84
97 87
67 87
49 94
19 77
60 42
53 58
43 83
14 64
27 33
71 55
28 36
55 87
87 30
39 79
51 32
8 55
20 21
45 101
85 75
24 5
55 10
26 87
101 26
24 28
41 46
41 66
77 55
24 77
29 67
45 61
3 58
19 58
18 2
52 87
32 44
19 45
64 22
98 7
94 72
39 5
2 6
101 79
51 9
14 67
68 16
74 70
3 72
28 37
59 58
19 36
22 10
21 13
43 62
25 1
95 47
16 3
62 38
