*Vertices 85
16 "#15"
66 "#49"
42 "#42"
82 "#57"
4 "#79"
72 "#41"
62 "#2"
20 "#45"
27 "#17"
77 "#1"
55 "#31"
75 "#24"
12 "#75"
61 "#27"
14 "#51"
11 "#25"
78 "#78"
58 "#72"
85 "#13"
52 "#33"
34 "#22"
60 "#59"
83 "#5"
51 "#61"
57 "#37"
69 "#18"
65 "#26"
17 "#63"
47 "#7"
67 "#21"
50 "#9"
2 "#47"
37 "#10"
39 "#36"
25 "#55"
45 "#58"
80 "#46"
73 "#20"
35 "#82"
21 "#65"
54 "#50"
29 "#84"
46 "#14"
49 "#73"
3 "#11"
38 "#81"
79 "#12"
36 "#40"
9 "#19"
8 "#60"
59 "#54"
43 "#28"
13 "#66"
40 "#0"
5 "#34"
1 "#8"
84 "#52"
31 "#23"
32 "#62"
22 "#76"
53 "#68"
10 "#77"
76 "#67"
81 "#32"
30 "#39"
70 "#29"
41 "#43"
56 "#71"
6 "#44"
24 "#48"
64 "#74"
33 "#70"
15 "#80"
19 "#83"
44 "#53"
26 "#35"
23 "#4"
71 "#64"
48 "#16"
7 "#30"
63 "#38"
68 "#6"
18 "#69"
28 "#56"
74 "#3"
*Edges
66 39
2 27
34 30
7 16
37 30
84 76
70 42
82 3
47 33
9 62
75 55
81 1
58 22
62 50
44 55
9 50
7 41
41 31
56 58
60 51
62 45
71 60
48 11
16 84
63 14
59 30
48 51
20 25
50 14
3 72
28 33
53 43
25 60
26 7
78 29
27 28
44 16
48 70
60 69
7 11
78 19
13 66
52 50
72 9
39 72
48 23
21 66
18 20
43 34
14 55
28 18
18 27
66 42
14 81
69 73
5 76
45 6
84 20
59 14
24 69
82 43
69 62
1 42
29 38
17 32
83 50
2 45
6 75
35 4
12 58
56 12
7 23
21 42
34 44
77 75
7 84
2 63
45 50
52 62
8 79
64 58
62 72
70 45
41 69
8 80
22 33
77 16
83 28
75 11
48 24
65 43
14 53
1 75
83 16
70 81
52 85
41 42
45 84
55 13
61 24
5 25
39 70
17 66
43 37
41 81
18 34
16 59
20 7
70 17
52 83
27 58
2 58
62 85
76 7
74 65
48 14
25 52
75 68
42 7
71 67
15 29
53 72
69 7
55 71
26 51
75 74
41 8
42 81
11 84
18 30
27 74
37 14
83 18
76 24
50 46
6 25
28 72
84 39
43 13
24 82
38 19
67 23
55 85
44 74
63 67
41 5
52 14
6 65
69 52
49 16
83 72
54 28
7 37
52 16
15 35
57 76
85 75
17 51
39 27
9 83
20 28
16 63
67 51
34 83
48 16
13 48
46 83
24 45
54 36
16 41
20 16
44 60
79 7
51 66
82 45
45 36
67 66
81 55
1 12
66 55
57 5
33 49
66 60
80 74
20 70
52 18
60 55
64 12
4 29
23 16
21 57
3 57
75 51
10 82
72 50
27 9
80 41
11 44
5 52
48 81
35 10
72 76
77 34
23 47
71 51
4 38
80 7
74 48
28 21
65 23
68 30
69 51
42 76
40 3
36 21
26 32
84 41
75 48
28 41
70 47
8 21
70 37
16 69
72 13
23 84
4 15
10 3
77 81
16 81
27 72
60 59
55 77
41 20
53 65
78 38
81 39
28 31
5 3
56 49
69 42
76 3
45 54
8 74
79 54
68 18
79 80
70 67
22 56
55 69
57 74
4 19
37 18
3 83
37 61
16 74
19 15
29 34
72 43
21 25
18 25
13 39
22 36
30 83
28 3
79 21
13 82
25 3
48 66
61 69
85 17
36 79
31 36
80 12
80 27
66 23
18 21
28 11
47 42
3 65
3 35
76 65
27 75
84 1
28 25
59 31
54 32
20 63
44 23
79 45
56 64
72 65
5 7
82 35
14 70
67 42
28 10
80 57
68 6
12 22
22 31
80 39
78 4
76 82
55 48
2 40
21 23
79 32
80 20
81 47
50 25
68 50
48 26
82 28
85 26
33 68
80 23
30 14
41 1
84 82
27 20
2 54
43 3
15 78
14 47
43 44
65 68
23 43
38 15
31 57
59 44
18 5
63 50
3 68
69 85
19 29
66 72
14 2
32 36
32 45
75 34
48 27
21 67
13 45
60 61
83 27
57 8
78 35
69 75
20 83
56 33
6 3
70 23
24 37
29 77
9 80
80 21
50 33
79 1
36 2
17 48
21 27
23 75
48 28
63 1
26 17
61 51
11 23
68 5
54 31
84 80
49 64
1 8
59 63
83 68
34 23
1 31
23 28
70 53
67 1
40 76
49 22
85 51
28 47
9 69
24 28
