*Vertices 206
54 "#11"
49 "#115"
95 "#45"
184 "#23"
60 "#89"
155 "#148"
61 "#196"
99 "#29"
36 "#141"
160 "#16"
22 "#145"
201 "#166"
93 "#63"
194 "#138"
21 "#151"
150 "#124"
179 "#136"
97 "#170"
8 "#24"
34 "#1"
126 "#98"
12 "#14"
116 "#123"
195 "#70"
37 "#57"
19 "#168"
188 "#52"
51 "#180"
83 "#85"
189 "#56"
46 "#134"
104 "#22"
186 "#133"
185 "#161"
135 "#91"
202 "#58"
57 "#186"
66 "#119"
56 "#137"
39 "#43"
28 "#126"
175 "#96"
42 "#59"
196 "#112"
29 "#195"
70 "#3"
75 "#153"
50 "#73"
79 "#4"
136 "#15"
180 "#184"
123 "#97"
113 "#155"
111 "#177"
198 "#109"
143 "#67"
73 "#86"
177 "#106"
98 "#120"
197 "#78"
137 "#65"
170 "#194"
151 "#132"
176 "#20"
26 "#79"
193 "#182"
139 "#82"
59 "#142"
53 "#44"
169 "#154"
138 "#69"
94 "#167"
206 "#93"
82 "#32"
134 "#164"
68 "#28"
152 "#34"
16 "#51"
131 "#204"
85 "#118"
6 "#158"
163 "#121"
41 "#185"
153 "#189"
65 "#95"
11 "#171"
200 "#7"
181 "#192"
128 "#127"
63 "#99"
144 "#198"
15 "#71"
117 "#37"
23 "#110"
148 "#191"
112 "#21"
172 "#18"
96 "#169"
1 "#149"
205 "#117"
86 "#6"
71 "#162"
183 "#53"
30 "#39"
27 "#140"
156 "#36"
78 "#165"
132 "#129"
90 "#61"
157 "#144"
67 "#146"
107 "#131"
87 "#47"
48 "#87"
74 "#13"
45 "#187"
58 "#74"
159 "#92"
165 "#202"
92 "#75"
147 "#12"
52 "#88"
38 "#55"
44 "#174"
124 "#108"
81 "#200"
18 "#50"
127 "#66"
164 "#102"
9 "#0"
168 "#197"
142 "#90"
167 "#64"
119 "#157"
110 "#179"
114 "#175"
146 "#9"
166 "#5"
149 "#199"
154 "#38"
199 "#31"
47 "#8"
88 "#114"
89 "#94"
43 "#26"
182 "#111"
25 "#27"
192 "#30"
102 "#77"
4 "#107"
10 "#41"
20 "#83"
171 "#203"
118 "#35"
105 "#40"
13 "#193"
106 "#49"
76 "#156"
204 "#81"
62 "#122"
120 "#101"
109 "#201"
91 "#128"
2 "#33"
55 "#103"
174 "#104"
145 "#48"
203 "#160"
133 "#105"
32 "#2"
84 "#172"
40 "#80"
129 "#72"
162 "#125"
69 "#143"
101 "#178"
108 "#17"
141 "#62"
100 "#10"
64 "#113"
103 "#25"
125 "#205"
14 "#130"
173 "#181"
17 "#84"
140 "#176"
130 "#46"
158 "#152"
77 "#68"
115 "#163"
24 "#54"
33 "#147"
190 "#100"
187 "#19"
3 "#60"
31 "#173"
178 "#188"
191 "#116"
5 "#135"
7 "#183"
80 "#139"
161 "#159"
35 "#150"
72 "#76"
122 "#42"
121 "#190"
*Edges
93 74
80 63
120 140
174 176
192 93
52 40
4 87
22 1
162 28
182 174
77 90
143 122
9 145
189 95
72 78
139 2
87 154
186 179
160 118
85 82
206 56
134 71
200 82
79 8
53 129
138 166
127 190
90 201
42 38
17 137
118 167
195 72
120 103
68 104
133 174
157 27
17 58
146 166
146 38
182 87
188 39
9 143
15 146
52 123
177 4
203 13
10 143
130 24
57 110
202 4
99 75
154 123
137 130
202 105
103 107
89 190
127 64
90 160
111 132
157 59
50 162
113 203
91 151
146 16
171 109
189 54
52 206
167 199
158 1
63 64
149 178
21 42
95 82
89 76
13 149
101 11
135 52
120 194
65 126
24 183
16 200
178 153
203 171
105 141
154 156
74 143
15 58
179 46
83 200
145 118
125 29
173 193
72 129
53 86
30 138
106 79
175 140
192 172
47 48
202 99
88 198
133 64
67 162
106 156
172 75
68 79
63 175
137 189
189 10
142 135
101 37
166 95
47 26
79 192
77 123
183 46
184 117
186 109
115 185
189 166
30 16
126 190
167 141
201 156
182 63
77 10
92 47
49 46
39 46
3 117
8 17
112 94
41 193
95 163
86 195
113 198
95 184
42 5
68 77
87 105
112 90
90 8
7 57
37 104
68 98
117 139
56 46
182 133
105 18
141 197
198 188
42 206
92 15
204 73
189 77
74 24
133 52
200 85
136 24
79 104
201 115
40 18
113 94
45 109
159 73
24 186
120 94
14 91
70 56
195 106
192 100
156 199
41 44
167 42
42 56
106 122
172 122
49 62
40 103
73 161
54 9
37 54
112 162
80 200
170 153
40 139
79 189
40 107
14 17
65 175
79 188
103 183
193 7
65 105
196 49
139 164
65 98
108 154
112 172
72 40
84 180
53 43
84 97
77 129
37 188
127 199
60 48
55 65
154 24
88 38
9 135
42 54
152 38
139 80
49 124
104 64
93 200
90 80
78 29
93 194
182 68
38 137
206 187
2 20
177 88
162 187
70 103
60 135
194 49
133 149
33 68
83 30
192 130
128 80
106 117
5 39
103 74
53 54
29 109
117 54
70 8
108 47
85 108
200 204
178 137
75 150
162 171
89 120
100 20
160 188
147 17
82 39
163 98
182 196
42 79
124 63
106 112
60 167
116 191
1 21
15 145
157 24
197 139
48 74
72 139
147 73
137 28
80 164
183 74
145 172
170 181
130 106
30 60
110 101
201 96
10 166
95 194
160 128
159 200
136 54
67 136
103 192
107 151
53 197
90 58
50 123
147 25
187 184
135 161
162 138
117 152
73 48
122 39
126 82
19 185
39 95
8 128
183 39
142 73
205 98
112 2
50 108
30 91
80 152
179 128
45 153
196 177
74 163
147 141
170 133
147 68
118 82
187 25
152 192
154 47
99 17
182 48
21 37
183 33
22 8
145 52
108 53
164 2
192 95
74 46
124 182
102 17
101 89
16 162
3 139
132 23
117 136
39 152
86 138
83 2
143 117
90 74
118 186
25 93
123 16
185 113
147 202
112 206
33 5
203 138
2 80
179 80
193 89
151 194
153 148
139 37
127 160
93 53
76 203
160 103
93 188
174 203
50 136
34 104
151 186
43 37
161 203
176 74
104 70
155 1
160 70
60 9
85 5
50 195
147 190
108 129
46 107
140 68
146 191
146 54
122 47
80 93
204 78
30 193
58 9
99 30
156 130
49 102
196 198
77 156
93 145
29 181
156 99
201 1
184 122
79 130
32 187
33 59
79 136
80 14
42 25
113 78
148 125
149 121
130 117
15 195
192 98
69 40
14 128
125 109
40 66
197 192
163 62
86 105
130 39
132 46
137 147
40 123
96 19
132 194
95 99
10 54
78 37
89 55
183 80
95 38
87 129
188 103
163 138
127 87
161 113
184 47
90 126
40 204
91 124
182 64
33 157
118 192
183 9
102 157
130 195
190 64
176 201
202 206
108 104
30 183
124 53
169 201
70 183
174 150
196 23
138 91
77 131
122 99
197 17
2 138
134 203
129 15
102 139
195 200
63 65
156 176
131 42
37 204
160 8
39 189
79 194
17 178
39 172
163 203
42 155
192 147
52 120
87 16
48 174
191 28
39 3
100 68
163 66
108 118
135 159
85 103
118 2
12 67
160 79
108 124
71 6
197 24
161 76
56 107
206 142
201 203
103 187
77 54
26 80
200 53
108 49
52 48
13 163
44 185
11 173
205 62
96 161
102 189
172 102
64 68
138 199
18 184
156 91
71 119
41 173
8 30
40 17
187 108
70 43
84 51
161 115
52 47
136 34
44 84
62 5
66 98
108 36
173 111
72 92
127 156
187 168
179 167
99 93
196 174
54 38
78 94
91 106
141 201
16 160
118 124
190 120
176 196
91 154
111 57
53 82
47 28
18 141
204 15
200 103
147 130
195 98
25 74
146 204
8 9
26 37
150 69
37 28
7 44
139 172
166 30
116 28
188 80
202 68
93 85
14 63
135 103
187 166
42 106
20 204
202 42
126 197
56 179
152 88
181 165
39 30
183 53
160 17
74 75
120 195
110 111
67 93
151 80
2 30
188 14
138 38
26 14
172 135
143 54
170 125
176 187
80 132
143 145
42 1
187 147
96 113
156 10
149 109
11 84
4 37
91 132
139 43
58 129
135 200
138 189
103 189
129 204
179 82
132 140
72 50
158 67
13 45
44 57
133 42
54 145
152 2
52 172
128 125
109 181
28 17
183 197
95 85
80 67
64 4
160 175
99 147
67 49
176 39
6 120
86 146
130 188
40 197
72 97
195 179
166 80
104 26
5 191
43 91
166 86
49 66
205 95
23 52
155 132
189 53
74 124
74 147
136 162
96 76
42 12
80 75
202 145
163 49
15 50
101 41
112 118
164 127
33 124
186 113
140 11
190 55
182 98
174 141
172 183
76 183
137 29
172 8
195 103
159 58
197 204
129 90
35 157
189 15
99 187
59 22
199 39
93 90
49 150
136 39
46 186
155 157
87 108
108 67
99 77
203 176
176 172
172 90
118 30
180 41
206 162
30 24
98 150
17 34
186 107
155 111
16 77
4 196
14 179
50 141
156 141
158 75
141 205
199 34
189 18
57 173
185 165
25 103
14 98
44 97
59 155
189 133
33 74
82 47
30 100
100 99
159 206
4 56
160 145
133 177
95 60
199 176
8 87
118 90
68 54
75 126
87 177
60 2
37 71
152 54
54 15
1 90
200 70
184 24
113 193
13 165
49 136
188 192
74 32
153 125
136 2
106 39
16 154
49 162
106 93
132 107
163 150
184 32
52 110
178 45
42 149
145 25
4 174
79 137
172 138
79 120
123 18
99 200
160 87
183 68
42 37
155 22
187 20
78 137
127 86
122 60
99 112
2 172
162 43
167 90
160 82
146 129
46 14
108 133
92 58
2 204
137 162
28 66
156 108
17 177
24 16
66 116
80 186
152 138
46 91
117 70
117 25
138 181
30 5
127 10
108 166
135 2
201 161
139 26
136 64
91 56
188 183
187 68
86 95
60 68
137 138
42 103
172 74
128 152
14 192
18 87
183 79
5 155
141 190
91 186
160 93
69 43
108 102
202 56
192 190
182 4
143 175
137 112
73 150
172 42
71 70
128 63
136 160
200 152
9 87
1 36
98 28
126 89
146 154
66 85
104 146
38 189
188 75
24 87
76 134
72 105
125 181
175 87
188 64
120 74
140 25
153 61
24 109
70 130
45 170
125 45
155 140
140 111
75 112
47 4
118 17
146 195
173 180
59 36
91 107
189 160
108 10
82 167
85 25
204 185
113 41
117 204
178 29
144 45
202 182
148 178
6 134
37 143
103 20
188 155
23 133
68 6
56 87
147 91
126 127
68 37
39 192
204 26
198 174
181 171
105 147
158 36
105 184
137 16
65 37
8 74
145 47
110 114
91 163
100 16
75 69
172 133
160 106
39 91
186 61
60 6
163 171
65 150
172 136
162 108
160 12
16 2
34 82
32 146
149 125
201 174
73 52
179 109
100 60
180 11
172 32
129 42
142 159
75 50
79 200
24 108
107 179
68 127
47 147
157 134
69 158
138 171
115 112
78 161
95 188
188 106
77 149
32 202
41 89
120 126
20 40
68 63
144 171
116 162
74 174
3 197
92 130
154 176
40 199
28 48
102 206
30 9
204 174
12 166
204 147
147 127
197 26
46 24
164 120
43 10
167 95
122 192
80 107
137 106
188 136
189 200
83 135
137 105
53 133
141 118
45 148
68 10
63 55
137 108
202 141
134 96
99 150
7 95
172 163
115 96
14 194
188 202
156 161
174 108
118 43
67 50
194 53
111 101
192 65
44 173
178 121
147 176
103 8
47 3
25 190
154 112
138 60
172 120
117 74
11 97
199 183
33 123
95 154
177 174
189 108
136 192
22 158
39 40
22 21
159 83
29 17
181 13
147 160
53 64
138 13
69 73
36 157
127 182
76 113
56 151
160 68
47 135
143 87
47 17
199 77
85 190
99 62
105 126
78 178
195 182
63 166
187 146
146 26
58 183
168 33
87 136
120 25
88 160
146 139
16 99
198 4
28 16
156 188
28 182
86 82
106 127
146 117
198 186
205 163
174 88
90 106
24 3
97 101
194 5
118 189
155 101
49 93
78 44
183 42
189 58
114 111
118 68
74 128
6 167
100 2
183 60
53 80
117 137
146 108
160 199
167 126
3 72
202 127
159 70
175 89
82 16
174 156
183 136
198 43
176 40
122 137
37 70
25 100
52 187
42 107
42 40
25 172
142 60
161 174
53 188
32 10
87 202
103 152
2 175
43 54
108 70
129 92
101 193
22 75
189 90
200 72
136 139
104 166
37 145
148 144
25 111
132 25
36 43
17 204
128 194
52 60
104 183
135 72
26 30
68 167
20 197
48 142
17 20
99 79
136 154
3 147
139 199
36 33
17 104
108 37
7 184
67 75
183 64
42 199
7 183
155 25
128 53
95 74
15 35
122 32
149 131
146 10
32 129
136 102
191 163
93 190
43 68
72 15
50 40
70 91
180 110
20 80
20 26
37 202
77 58
205 75
54 102
177 58
37 189
206 172
57 180
126 164
17 26
57 11
39 184
197 162
111 11
150 28
74 125
13 148
14 132
127 136
47 37
162 203
94 103
50 49
15 159
161 134
195 90
183 75
158 59
84 101
199 106
37 102
155 106
163 183
74 179
80 157
103 48
188 67
105 40
140 6
198 160
170 131
120 68
135 174
136 145
70 179
76 80
129 189
148 149
95 136
155 158
94 161
44 101
74 2
74 118
130 3
106 5
93 154
153 144
146 43
8 108
54 139
199 172
70 3
108 138
105 127
1 59
176 25
54 86
82 136
87 64
105 164
24 139
118 93
138 100
86 205
191 12
146 60
188 143
7 11
86 152
30 112
166 26
85 33
166 2
188 5
91 123
30 123
75 59
65 99
129 184
199 74
122 200
191 150
27 59
8 199
135 145
202 146
30 145
98 140
146 194
198 31
176 86
143 43
102 163
169 71
68 145
24 179
91 179
54 79
126 206
134 113
48 206
202 18
176 190
109 81
68 17
187 172
176 117
14 75
159 72
141 126
62 98
145 100
167 197
98 116
2 38
180 7
127 37
82 99
143 163
156 82
177 23
172 16
70 72
169 134
10 106
28 4
50 18
146 37
86 43
133 4
77 43
172 103
90 20
190 33
23 82
104 138
90 42
6 98
138 106
47 112
54 183
123 105
79 103
92 102
82 60
33 16
38 53
52 138
115 169
92 167
48 195
189 195
183 146
37 128
85 192
126 53
21 27
141 172
77 176
152 68
65 86
95 138
127 176
95 130
5 157
104 30
124 43
205 49
77 40
113 19
131 181
142 52
129 54
59 67
93 95
67 160
75 65
86 30
121 148
113 89
4 23
159 103
102 50
64 202
137 3
91 199
166 136
141 90
23 40
26 63
169 119
87 42
93 91
140 72
114 119
4 48
17 73
72 24
43 8
36 155
124 174
52 159
179 61
206 87
40 26
183 126
5 120
189 145
201 78
13 171
199 93
47 188
54 135
192 33
96 169
124 146
77 15
89 65
136 9
112 50
47 39
42 146
198 124
58 60
44 165
108 74
64 197
53 118
72 184
33 158
62 28
95 183
117 53
190 90
77 33
152 143
25 90
184 189
8 48
2 32
42 24
167 50
98 120
54 156
197 63
65 14
147 18
157 132
124 75
123 90
197 118
95 190
20 77
158 157
16 199
43 79
127 65
140 97
104 8
146 2
152 53
8 53
124 54
8 47
132 38
30 48
172 147
136 182
167 102
150 196
196 124
99 160
166 54
162 181
44 11
52 105
180 193
133 77
125 121
8 86
82 199
185 37
4 42
50 172
43 158
107 96
5 123
192 105
167 112
13 125
175 16
138 82
34 8
145 17
187 130
15 17
199 54
15 157
174 147
68 48
120 85
145 103
95 53
178 125
161 150
108 130
172 205
122 112
194 191
187 95
8 73
82 122
58 50
180 44
186 56
48 135
138 133
195 91
160 108
180 97
70 136
91 130
75 33
176 49
68 103
43 14
172 7
22 67
198 177
94 115
156 145
42 191
48 43
5 99
37 44
22 69
163 139
194 205
23 174
12 146
112 79
118 15
187 10
53 202
154 30
192 143
36 27
5 91
149 170
108 95
133 91
194 179
101 199
198 118
93 141
165 178
7 97
187 96
172 91
