0,degree_centralization,163,316,361,613,631
1,0.39696969696969703,0.323569023569024,0.167340067340067,0.128956228956229,0.111111111111111,0.286195286195286
2,0.36885245901639296,0.354371584699454,0.156284153005464,0.116120218579235,0.0989071038251366,0.226502732240437
3,0.33889376646180897,0.347673397717296,0.132572431957858,0.140035118525022,0.112818261633011,0.196663740122915
4,0.319279279279279,0.332612612612613,0.117477477477477,0.132792792792793,0.12,0.217297297297297
5,0.287981193064943,0.317367029091978,0.127534528357332,0.165442256832207,0.169850132236262,0.162356744049368
6,0.257763975155279,0.304586717630196,0.1134734830387,0.162207357859532,0.163401815575729,0.163162924032489
7,0.250242671325956,0.322267520869734,0.121335662978063,0.16521063871093,0.146961754999029,0.153368278004271
8,0.24004424778761105,0.333754740834387,0.125,0.177860303413401,0.160477243994943,0.151311630847029
9,0.287548387096774,0.34858064516129,0.111354838709677,0.169354838709677,0.169354838709677,0.150064516129032
10,0.26499523960647403,0.318946366232942,0.121866074262139,0.151697873690892,0.151697873690892,0.141225007933989
11,0.24686301847333603,0.31186824677588,0.110142906936215,0.143604043220634,0.143604043220634,0.186040432206344
12,0.22191331622469299,0.295623039635016,0.111633875106929,0.149415454804676,0.149415454804676,0.186199030510408
13,0.216568742655699,0.274853113983549,0.121944770857814,0.152820211515864,0.152820211515864,0.222473560517039
14,0.209697672172317,0.268086544962813,0.133198106828938,0.154447986090988,0.154447986090988,0.24104124408384
15,0.201309523809524,0.25640873015873,0.127777777777778,0.185257936507937,0.185257936507937,0.214126984126984
16,0.18865090766618803,0.239845892647251,0.134125636672326,0.164000261198903,0.164000261198903,0.217905184798224
17,0.172497845291963,0.21978021978022,0.126952704158587,0.158303706097824,0.158303706097824,0.226217410040939
18,0.169944629014396,0.213466223698782,0.132369878183832,0.149302325581395,0.149302325581395,0.199047619047619
19,0.14816365158519298,0.212080952207622,0.123157281694755,0.151439595238962,0.151439595238962,0.190459724092746
20,0.139187064900067,0.203009207275994,0.111175986226514,0.148798562766674,0.148798562766674,0.186046859794895
21,0.145087218991889,0.198782761132304,0.114903151735121,0.146599508660173,0.146599508660173,0.185382022888041
22,0.13471823968438001,0.190633070994245,0.0962113354889879,0.143645903239583,0.143645903239583,0.191812580074431
23,0.13094639444835598,0.181920278923196,0.0960181367125951,0.133607395487613,0.133607395487613,0.176170840457273
24,0.13182834555184,0.170726810796591,0.0910192242459485,0.129315417471427,0.129315417471427,0.165403279959572
25,0.12406251429094098,0.193762290208991,0.0856827639822564,0.127406594411671,0.127406594411671,0.170153656194265
26,0.12080989134224801,0.179765909926211,0.0814603300255388,0.122991527899503,0.122991527899503,0.172226777114962
27,0.11126521446914,0.1691821773639,0.0741871695357086,0.116121412726347,0.116121412726347,0.163191571193809
28,0.10193643612327699,0.158640163000754,0.0774349841972694,0.108004042932088,0.108004042932088,0.147939227671624
29,0.10702751719493199,0.149389095999958,0.0755861125399713,0.10931310420898,0.10931310420898,0.140620608464626
30,0.0994326272207496,0.141238581348989,0.0783938311901685,0.0976604087712765,0.0976604087712765,0.133194593528883
31,0.09404586614956599,0.142543946920007,0.0663355196752685,0.103007094456484,0.103007094456484,0.132003559890454
32,0.0901264809979952,0.139426155727023,0.0624582962010918,0.0907146258488169,0.0907146258488169,0.127969273163428
33,0.0875174651406275,0.132331813624598,0.0638573635992556,0.0992463938261267,0.0992463938261267,0.12108999742262
34,0.0864147373844442,0.129348203494345,0.0592291424201788,0.087327067175372,0.087327067175372,0.126206978711965
35,0.0799623923950934,0.120973931053845,0.0559503485470133,0.090071222448899,0.090071222448899,0.116146052672502
36,0.0760768847956589,0.113990392523909,0.0519804574413519,0.0866151241746503,0.0866151241746503,0.111880384771019
37,0.07353401637135001,0.108677251347362,0.0506715877823897,0.0806444398312171,0.0806444398312171,0.11144881974655
38,0.0681705863818032,0.102670950042289,0.0489676543543309,0.0777053615638112,0.0777053615638112,0.104164919437949
39,0.0652156810558411,0.100179065571268,0.0456401936647971,0.0700248147698763,0.0700248147698763,0.104561377415428
40,0.0615829322121333,0.0930374927112949,0.0454992973106456,0.0705511101457482,0.0705511101457482,0.0966349777686413
