0,assortativity,163,316,361,613,631
1,-0.242663475254316,-0.238972287727057,-0.0052519905044005,-0.111001156262044,-0.0789407252383946,-0.169719788574325
2,-0.326680899747629,-0.318844811524076,-0.0392619368761805,-0.0179588052572639,-0.049035397133756,-0.120268854471852
3,-0.30953594542977503,-0.377650479925008,-0.0300650913132228,0.0690304001311797,0.111920521145879,-0.086349944614415
4,-0.284763387455855,-0.32950844751853,-0.0243713369205968,0.107278007524265,0.208433065706077,-0.0656805249316902
5,-0.27994103202131,-0.327338348060481,-0.0149708853639471,0.19811971546895,0.233009689027548,0.0121712455019431
6,-0.26239452825145004,-0.274920910746699,0.0265400161516641,0.289300511262356,0.277008476399837,0.0925301297339223
7,-0.258578895208291,-0.285831063741557,0.0843796976798619,0.308238503483885,0.338829508182504,0.144885564168495
8,-0.23719706596845,-0.288699911611488,0.126260004534564,0.35840495242498,0.333479147929274,0.180184982405564
9,-0.224615130468303,-0.266113324412342,0.189367928745246,0.361478972054814,0.361478972054814,0.235115798026943
10,-0.208965609116212,-0.278467311669955,0.213128616784228,0.372064536124872,0.372064536124872,0.269249500457511
11,-0.198987594989333,-0.26616164324514,0.144037827235145,0.398362751242629,0.398362751242629,0.246480994954065
12,-0.166979159731676,-0.237244106637284,0.143549647291638,0.341583046030668,0.341583046030668,0.167888132397995
13,-0.130118502429331,-0.200324625839759,0.167931160728695,0.291663288049769,0.291663288049769,0.122595159830588
14,-0.10589303357098499,-0.165152245680602,0.204446822684608,0.286307348166835,0.286307348166835,0.122868751997494
15,-0.079246281868501,-0.131679030912708,0.25908799460788,0.310455829711225,0.310455829711225,0.145695693924712
16,-0.0519387129914234,-0.104578621638355,0.304052625283196,0.348074834434846,0.348074834434846,0.182233925935543
17,-0.0221282124516038,-0.080168602689039,0.348473127358799,0.391203213836423,0.391203213836423,0.21455307689765
18,0.00341408836050294,-0.0579653581620035,0.388684723590241,0.433089098692109,0.433089098692109,0.26861424500984
19,0.0215581773805461,-0.0359382050501119,0.419017823249944,0.451199473547094,0.451199473547094,0.319987274408883
20,0.0437911818396754,-0.018083673019238,0.450128054848965,0.473338367149633,0.473338367149633,0.344737767590605
21,0.0587540533879529,-0.00356961525244588,0.475080196618238,0.500830816514305,0.500830816514305,0.366149949468242
22,0.0697662387835101,0.00556868684704587,0.489611990840266,0.523957193196005,0.523957193196005,0.378624814667708
23,0.0815547080875975,0.0100864851070764,0.495405852925183,0.544729699321419,0.544729699321419,0.389833568665437
24,0.0921289703568978,0.0114736499611142,0.509743717126348,0.552935051502998,0.552935051502998,0.396705003687847
25,0.0945907821233711,0.00717213998564724,0.52105291500555,0.558817558985546,0.558817558985546,0.404808329115606
26,0.103872790250155,0.0130153038394408,0.532062820508754,0.571200048071447,0.571200048071447,0.409237781313805
27,0.11157255844330101,0.0182584059141338,0.539079136532994,0.578299500286638,0.578299500286638,0.419182821591306
28,0.10754420802679598,0.0167649651507546,0.548807961511803,0.586707254380373,0.586707254380373,0.41885838685492
29,0.115624347450188,0.0157454078101088,0.558553207563278,0.592475867104206,0.592475867104206,0.419941134476101
30,0.11732307364515898,0.0197572458553632,0.561152865506664,0.598449445364509,0.598449445364509,0.420646277854355
31,0.12427494688158801,0.0195971342477791,0.56897777812507,0.6011473436401,0.6011473436401,0.424315496237266
32,0.13067906754495698,0.0198007053451591,0.578724196940141,0.607209991344314,0.607209991344314,0.426118207453423
33,0.137514897512455,0.0211941589472145,0.580965355851732,0.611845281103844,0.611845281103844,0.427325516106659
34,0.14112354051662301,0.0237573497138994,0.590001401490275,0.613310435444988,0.613310435444988,0.426346739872733
35,0.142280154345022,0.0225595909863026,0.597610519195949,0.617341531552706,0.617341531552706,0.42684336912408
36,0.14559698093552897,0.0231816589023054,0.602810969711541,0.617336569956424,0.617336569956424,0.42850835165133
37,0.148542641527625,0.023149632685599,0.607597990397003,0.616076396151355,0.616076396151355,0.428362169510879
38,0.15084264152259802,0.0249546450270148,0.609792558515086,0.618589024776419,0.618589024776419,0.425842034950751
39,0.15459630743570701,0.0277309579692567,0.617869714284337,0.621060267272559,0.621060267272559,0.426561457157059
40,0.15870231602830098,0.0302934976084154,0.621609826885701,0.622906621465378,0.622906621465378,0.427108528456899
