Vertices 108
76 "#5"
108 "#90"
14 "#80"
4 "#18"
6 "#10"
80 "#31"
54 "#29"
38 "#15"
41 "#83"
94 "#19"
93 "#69"
61 "#16"
47 "#104"
25 "#107"
89 "#37"
12 "#32"
10 "#46"
40 "#51"
98 "#11"
17 "#24"
74 "#82"
58 "#92"
1 "#25"
24 "#101"
65 "#2"
73 "#38"
66 "#21"
75 "#20"
43 "#59"
102 "#3"
23 "#4"
11 "#41"
77 "#62"
92 "#47"
18 "#9"
88 "#64"
16 "#89"
83 "#86"
33 "#70"
55 "#14"
13 "#27"
35 "#105"
59 "#96"
20 "#95"
51 "#61"
105 "#39"
3 "#91"
7 "#98"
31 "#33"
70 "#26"
29 "#48"
15 "#55"
99 "#56"
30 "#87"
86 "#75"
103 "#49"
52 "#76"
100 "#67"
21 "#52"
5 "#100"
50 "#73"
60 "#45"
90 "#50"
85 "#30"
104 "#7"
27 "#54"
39 "#34"
82 "#0"
87 "#77"
57 "#12"
2 "#36"
106 "#85"
34 "#93"
96 "#106"
42 "#66"
81 "#57"
19 "#103"
79 "#43"
28 "#60"
78 "#28"
107 "#71"
84 "#22"
64 "#94"
36 "#13"
62 "#102"
71 "#84"
9 "#81"
97 "#53"
95 "#58"
48 "#79"
53 "#97"
22 "#40"
26 "#72"
72 "#1"
63 "#44"
45 "#65"
69 "#74"
67 "#78"
68 "#42"
37 "#35"
101 "#68"
49 "#88"
46 "#6"
8 "#99"
32 "#23"
56 "#17"
44 "#63"
91 "#8"
Edges
68 31
95 77
47 62
15 38
80 9
84 20
44 12
6 104
41 53
101 30
106 86
65 52
59 62
54 89
77 43
19 7
13 82
64 61
10 63
5 53
26 66
66 53
74 83
96 19
67 71
27 40
70 80
74 41
4 90
71 58
103 63
76 46
21 56
104 100
27 4
67 83
15 55
106 105
76 61
76 25
90 40
13 70
2 92
13 75
21 46
50 3
24 56
52 13
27 22
78 46
105 73
39 67
17 84
64 108
88 106
95 51
14 101
29 89
51 81
19 24
23 60
16 59
18 68
33 50
32 73
96 8
97 40
82 2
49 9
94 34
30 34
107 15
107 52
72 73
99 92
86 50
88 42
54 94
18 77
17 104
87 52
44 50
68 3
78 105
35 96
28 20
80 13
82 21
34 45
41 48
75 63
78 90
80 15
39 76
78 103
29 95
15 27
79 57
55 17
6 23
26 94
13 61
75 4
58 2
40 94
60 22
73 59
88 13
89 107
3 34
16 20
20 108
93 42
38 6
38 52
14 48
52 61
79 13
55 18
20 64
19 28
65 43
61 10
28 54
66 95
42 89
43 26
87 1
46 88
12 97
59 64
94 9
5 62
86 40
9 31
8 53
85 37
73 17
94 80
1 94
94 63
91 39
77 60
68 92
76 105
22 18
82 84
8 62
52 50
39 27
85 17
84 63
62 79
96 62
86 107
77 11
107 55
92 29
106 41
99 95
25 19
83 14
33 52
64 76
80 1
46 11
93 55
59 30
104 69
54 60
10 82
78 98
48 67
72 90
12 80
49 34
14 44
53 35
28 44
5 8
108 85
66 17
81 95
96 5
91 83
105 55
75 81
41 71
19 53
45 78
44 93
66 50
98 28
103 38
47 25
86 75
61 105
48 71
97 80
81 2
92 6
56 91
54 98
77 1
7 84
70 54
90 60
21 27
17 83
28 3
45 76
82 42
38 72
104 102
66 88
45 28
4 20
78 65
77 92
100 88
72 28
12 45
7 10
61 102
45 16
32 79
76 40
83 71
42 76
95 12
74 14
67 9
55 37
72 81
35 62
87 80
7 96
22 13
106 38
2 61
64 100
76 13
15 21
63 88
102 31
49 48
86 26
53 25
81 77
88 72
62 38
84 2
2 73
90 27
98 38
97 26
91 92
78 57
31 32
18 28
58 16
28 78
36 98
84 23
15 103
62 29
27 95
81 15
84 15
41 69
79 18
104 75
25 41
3 58
28 33
12 40
60 94
93 46
6 91
72 12
67 69
18 29
54 42
78 86
29 65
25 96
25 73
28 36
88 68
80 6
107 12
25 24
103 76
83 41
76 57
95 19
10 75
57 41
4 106
73 12
42 33
32 4
57 77
40 63
8 51
16 30
68 93
16 34
75 87
105 102
17 22
93 12
99 72
12 104
95 101
87 107
80 44
14 9
73 81
59 58
81 13
38 28
40 61
28 77
27 97
35 8
92 84
15 7
9 69
80 25
49 104
19 35
65 54
58 108
93 87
47 65
53 96
86 54
45 101
48 101
84 68
29 22
59 60
32 39
36 65
82 43
107 105
12 57
33 107
19 5
65 13
78 66
68 26
73 18
49 20
3 49
21 100
28 9
24 8
82 19
84 44
95 63
66 23
60 76
101 94
26 39
36 105
45 95
96 47
65 94
101 29
16 108
61 101
79 36
18 71
23 33
37 100
89 75
104 9
106 80
48 9
77 97
68 76
108 59
30 64
103 53
2 44
92 57
106 71
48 106
91 79
95 22
64 2
94 3
17 40
57 44
68 90
65 31
66 102
57 1
70 79
79 4
58 64
26 33
84 22
23 94
23 65
102 75
94 32
78 89
1 12
23 29
93 105
40 65
106 100
68 10
97 23
46 37
14 106
46 102
52 101
81 36
100 101
1 105
92 27
55 56
50 105
88 2
41 107
58 26
59 3
102 73
96 24
80 54
62 7
54 99
42 44
92 89
69 99
6 39
36 78
10 78
68 101
88 76
36 51
9 106
55 3
49 108
107 50
60 70
104 65
50 4
86 9
89 70
78 43
12 61
89 60
98 50
28 95
85 95
85 27
23 61
70 90
26 99
18 60
41 78
18 63
104 26
84 51
102 35
4 87
57 103
11 63
103 79
99 43
73 104
41 26
38 88
29 68
97 59
81 92
26 30
84 85
93 100
81 21
28 22
47 24
27 36
97 4
68 80
59 20
51 77
38 85
29 28
11 20
76 33
42 104
46 103
73 92
69 26
21 94
18 23
93 88
11 105
48 102
99 28
99 49
42 101
45 27
80 65
68 27
49 64
58 11
56 57
99 104
27 104
5 35
10 93
101 93
49 89
94 92
48 64
46 63
61 74
81 28
55 65
27 29
82 45
104 91
54 53
18 95
70 63
15 26
86 72
80 22
45 88
41 28
49 14
88 87
98 21
27 32
41 9
16 14
67 74
6 63
26 107
36 12
90 97
69 50
33 40
6 43
62 16
61 97
99 77
20 58
103 19
39 66
18 57
98 56
51 99
74 18
73 94
30 20
71 9
64 18
43 71
7 8
6 18
22 98
51 17
39 80
105 39
48 74
95 43
43 32
38 43
82 88
101 71
88 32
42 91
52 69
86 48
35 7
29 60
85 25
105 88
75 79
39 73
66 86
76 58
99 58
9 52
33 34
67 51
11 85
82 77
29 5
27 103
44 106
20 57
1 10
47 19
34 20
20 92
64 3
101 88
52 86
88 78
98 52
78 102
25 93
85 72
32 17
90 15
38 13
44 100
40 53
57 54
97 52
103 86
58 4
107 69
71 1
48 47
96 11
29 90
13 67
1 40
38 18
46 68
73 79
38 46
42 87
36 39
65 4
102 101
25 35
69 33
70 55
19 62
34 58
49 30
37 6
43 51
53 62
61 63
46 2
89 91
17 11
50 10
4 91
21 97
65 32
36 26
60 68
74 106
44 45
4 95
32 18
36 17
63 21
52 44
23 21
6 66
5 47
13 1
73 16
26 52
18 97
65 33
21 33
81 97
9 70
54 46
55 36
70 46
12 52
43 36
5 24
39 15
5 7
91 73
48 29
86 87
35 41
30 58
40 104
72 36
86 60
76 11
2 16
4 59
53 69
11 68
102 2
2 54
7 24
42 7
17 76
55 80
79 102
38 40
49 59
49 16
93 60
32 40
56 66
9 83
83 64
11 72
103 16
25 7
108 30
6 82
78 4
88 34
29 46
29 102
39 90
28 31
9 102
87 74
71 33
70 36
73 75
35 9
101 28
35 24
3 52
100 45
91 105
71 38
4 104
15 97
14 65
41 67
67 84
55 79
2 51
90 21
35 47
5 25
22 68
37 60
48 91
40 15
72 55
56 41
46 18
21 102
73 82
13 10
50 91
82 29
15 4
95 21
87 50
93 45
15 100
79 49
48 84
44 101
6 65
47 57
90 1
90 32
56 12
97 99
29 8
32 60
11 84
2 85
9 101
62 24
68 6
83 84
56 73
10 99
60 17
69 73
78 79
31 95
86 89
98 47
15 36
71 74
14 41
47 53
75 84
92 28
63 66
36 40
91 32
89 104
13 31
53 24
6 100
60 72
40 21
15 75
55 77
57 34
69 86
51 68
60 46
48 6
10 36
86 85
29 39
99 39
87 26
36 103
34 108
74 55
100 92
28 60
36 45
99 81
46 27
100 42
14 103
83 106
76 10
34 59
51 66
74 50
84 37
101 10
54 64
17 42
105 40
88 44
8 19
80 84
70 38
55 87
62 25
88 90
87 41
11 16
34 64
41 5
83 101
107 56
54 33
86 39
79 48
40 51
10 91
73 77
78 80
39 40
15 93
89 95
10 42
77 29
57 15
105 63
55 12
2 15
47 8
53 7
43 73
76 3
23 26
70 42
5 76
86 33
104 44
66 75
94 48
63 22
106 29
93 102
50 43
103 69
51 72
18 72
9 74
103 42
105 17
11 91
61 18
95 41
61 99
61 67
28 43
67 14
39 106
102 55
51 28
31 2
61 26
49 58
86 77
68 102
12 89
69 87
106 67
42 45
23 39
83 48
6 17
31 51
84 31
46 31
61 103
14 56
80 95
37 102
103 91
64 16
21 24
16 107
41 73
2 90
70 10
72 6
108 98
6 97
3 84
92 90
21 104
107 61
57 36
8 26
61 1
50 26
30 3
103 75
97 44
4 77
64 10
81 4
87 33
67 99
8 25
86 57
79 65
16 3
103 71
3 108
22 79
47 7
71 14
43 81
76 97
101 56
23 87
56 88
39 46
56 39
13 77
104 58
66 18
81 89
3 20
18 20
85 103
38 21
68 108
