Vertices 108
85 "#74"
57 "#23"
48 "#68"
20 "#51"
108 "#16"
19 "#96"
14 "#44"
75 "#65"
81 "#9"
80 "#14"
84 "#21"
41 "#59"
51 "#29"
74 "#69"
78 "#39"
71 "#63"
102 "#85"
25 "#98"
104 "#13"
83 "#72"
33 "#94"
10 "#60"
40 "#7"
43 "#33"
27 "#88"
63 "#49"
5 "#28"
35 "#25"
60 "#67"
54 "#101"
61 "#46"
11 "#10"
86 "#76"
77 "#75"
64 "#79"
13 "#82"
42 "#66"
70 "#81"
49 "#92"
23 "#42"
8 "#62"
7 "#31"
28 "#15"
58 "#20"
66 "#34"
62 "#95"
72 "#36"
31 "#18"
89 "#91"
98 "#80"
105 "#24"
100 "#87"
2 "#48"
88 "#56"
38 "#55"
36 "#73"
18 "#11"
65 "#2"
26 "#107"
76 "#0"
6 "#40"
97 "#83"
39 "#4"
24 "#12"
73 "#70"
12 "#64"
79 "#1"
46 "#103"
95 "#86"
94 "#5"
29 "#22"
91 "#19"
69 "#100"
90 "#58"
1 "#32"
59 "#8"
30 "#30"
53 "#41"
47 "#54"
92 "#99"
103 "#47"
52 "#104"
82 "#6"
99 "#78"
9 "#50"
34 "#27"
4 "#61"
93 "#45"
50 "#71"
45 "#3"
107 "#43"
56 "#17"
101 "#89"
37 "#97"
21 "#35"
17 "#77"
3 "#90"
32 "#38"
15 "#57"
96 "#93"
22 "#52"
55 "#37"
106 "#106"
87 "#105"
44 "#102"
68 "#53"
67 "#26"
16 "#84"
Edges
5 107
57 33
68 2
54 106
57 38
88 83
80 47
61 28
61 55
42 44
6 41
29 92
3 108
45 17
62 46
26 50
39 49
104 21
32 84
41 8
68 75
18 56
45 50
58 15
19 49
60 95
1 45
78 26
49 44
12 14
80 29
10 61
58 56
14 32
49 17
2 12
81 68
59 9
99 86
91 10
9 30
69 8
38 72
82 17
70 11
100 39
58 75
15 9
97 49
77 30
81 102
38 1
100 20
22 80
34 7
57 42
103 62
98 103
11 86
6 23
25 37
105 90
107 60
84 107
71 32
84 9
5 70
31 106
46 70
11 10
38 40
49 96
94 104
77 53
9 22
8 58
47 68
38 39
108 54
36 17
2 73
90 88
8 81
100 101
56 28
13 17
55 102
86 42
39 75
68 10
9 20
95 13
27 4
35 46
12 20
47 81
47 34
6 72
106 52
21 42
78 25
28 68
51 20
57 27
47 19
94 76
49 16
97 88
76 99
38 106
76 48
8 67
73 15
84 33
31 78
60 68
40 57
58 88
67 93
5 66
42 30
38 105
2 3
57 16
18 72
29 60
22 78
9 107
52 15
74 58
90 19
96 100
26 6
38 91
8 47
22 24
17 43
87 2
77 4
88 66
84 78
91 50
36 46
72 24
108 51
48 12
50 1
105 34
43 82
77 59
89 86
20 103
25 11
47 41
105 91
41 24
1 81
67 25
89 43
90 16
21 1
25 86
101 39
40 16
72 47
15 96
11 31
53 42
96 3
94 106
36 97
56 20
10 4
75 79
6 50
99 56
47 48
28 84
65 47
83 85
84 83
103 81
68 62
23 86
95 81
81 57
37 22
82 42
8 71
108 31
20 23
61 81
24 75
71 70
38 65
62 88
85 42
59 100
77 44
29 56
62 41
9 50
24 91
57 108
33 62
6 20
88 10
9 79
38 87
51 64
85 90
26 20
58 43
14 42
48 64
63 90
68 89
23 65
91 108
10 63
73 86
36 27
4 15
107 34
98 9
80 4
46 60
31 47
50 39
15 72
72 4
41 86
101 24
22 63
4 23
89 32
90 108
7 8
69 14
34 50
63 96
35 87
77 24
70 86
77 74
26 106
104 16
53 30
22 4
78 4
10 29
108 37
78 55
30 22
45 22
102 74
104 26
16 81
48 10
25 20
97 101
77 82
36 73
33 89
84 20
91 52
44 70
95 29
31 60
76 43
17 21
17 57
83 106
97 5
55 15
10 8
40 35
50 63
22 11
44 12
108 9
96 84
12 83
48 71
66 8
56 73
83 23
105 45
42 16
66 54
58 41
11 89
19 56
48 40
59 96
34 80
22 108
61 11
98 74
49 54
23 47
9 70
83 93
15 85
88 59
107 36
73 80
11 98
99 58
2 96
12 41
33 8
83 78
93 105
22 14
82 97
51 107
91 101
1 36
43 21
68 108
5 73
15 78
3 106
52 102
41 40
97 50
2 9
36 20
39 108
86 38
100 2
42 54
106 70
35 86
53 65
108 38
44 25
45 30
71 7
60 74
83 50
30 50
77 107
52 53
52 105
17 12
83 8
33 60
45 12
63 83
74 104
35 21
9 32
106 14
61 91
95 86
70 67
74 3
56 52
5 51
73 76
93 98
65 95
47 66
43 90
26 69
62 21
40 15
4 49
15 95
24 100
99 95
53 95
71 56
65 36
5 6
64 87
25 92
16 92
32 93
27 97
60 2
29 12
88 1
44 23
9 101
53 97
88 4
101 2
82 2
71 45
29 71
59 52
58 35
79 41
59 17
73 33
98 40
62 77
38 103
37 52
71 34
31 1
98 101
91 60
59 41
19 3
89 36
84 19
40 8
104 52
57 91
75 48
47 77
66 22
70 62
23 17
101 105
32 40
9 43
35 7
72 106
74 65
68 63
15 50
87 15
22 47
34 56
48 88
53 18
44 56
84 7
93 42
9 26
3 43
19 38
48 8
15 13
105 73
61 66
37 85
107 38
20 48
98 86
30 106
51 54
57 95
7 60
107 76
80 20
52 82
69 70
21 75
9 81
58 9
75 2
97 81
88 107
2 92
85 73
31 82
17 65
44 61
104 91
47 44
8 85
47 51
43 41
68 23
84 62
89 90
46 5
76 24
10 105
41 16
10 71
40 67
38 102
83 17
68 79
32 37
1 49
47 67
72 39
105 46
105 59
73 25
61 40
17 98
30 104
13 10
67 52
36 34
84 1
96 62
43 38
97 17
43 20
30 60
42 50
88 35
91 59
80 83
32 82
20 53
80 45
51 49
39 32
97 59
62 53
63 1
74 18
75 72
69 25
77 17
7 9
43 99
67 35
46 59
80 107
10 101
26 52
69 106
95 5
56 12
57 34
51 71
60 70
50 36
103 106
108 107
82 67
103 42
42 47
34 24
11 88
19 37
58 69
51 85
107 47
83 28
95 69
94 96
82 74
101 88
96 12
98 27
46 95
12 3
66 15
55 56
36 99
70 3
11 29
64 96
92 106
26 43
95 18
60 84
54 19
104 23
23 101
6 75
85 56
47 40
102 80
1 13
79 16
52 75
23 88
18 8
44 105
61 4
29 42
7 49
66 62
64 16
105 63
103 86
74 97
53 101
21 71
3 55
1 6
104 87
58 94
10 18
29 57
23 62
27 70
76 22
43 61
2 13
11 62
30 76
80 21
32 79
61 67
79 78
43 11
45 25
91 36
36 94
77 70
88 93
9 89
7 81
89 5
38 2
20 76
51 87
95 23
40 68
60 61
20 17
86 51
26 27
68 70
83 81
25 22
68 97
48 34
21 23
50 75
65 22
48 103
52 83
70 41
26 39
103 76
63 77
7 64
98 70
93 9
58 98
64 68
19 64
81 92
54 32
102 3
8 65
79 6
104 12
3 98
12 72
55 59
97 56
3 22
55 50
98 24
79 60
75 67
81 28
30 27
30 6
43 100
71 37
20 83
21 30
39 62
19 33
43 68
34 49
81 40
105 40
70 47
12 58
82 4
108 79
53 12
11 28
105 27
86 2
94 52
55 16
6 98
97 75
82 72
42 74
42 34
46 52
91 100
17 76
52 9
48 74
91 56
29 44
41 25
88 39
69 87
12 10
43 34
49 73
38 22
85 98
89 17
76 88
96 51
68 98
42 8
85 95
41 82
74 100
18 99
87 28
10 69
3 101
75 108
68 20
105 57
100 11
28 77
12 42
51 50
94 20
53 89
91 45
47 58
103 5
19 2
59 103
95 31
53 76
24 12
38 61
102 108
30 51
40 97
43 29
105 6
47 52
68 83
64 24
83 104
16 91
67 74
9 73
108 19
80 43
71 69
82 91
21 63
64 15
54 79
28 71
41 2
65 93
6 3
102 51
8 63
101 74
85 66
39 68
22 82
49 56
88 56
83 36
4 24
7 80
44 54
97 3
4 56
69 89
82 29
56 14
77 96
94 24
65 37
62 25
26 85
20 34
24 42
24 15
101 82
100 106
60 1
75 34
55 64
57 88
19 97
8 19
17 29
52 54
41 46
31 101
67 88
57 48
54 15
65 25
41 23
46 44
48 72
33 99
85 77
38 64
22 56
95 91
63 88
55 46
23 54
28 95
64 99
54 107
54 3
11 34
79 91
9 21
48 56
68 30
35 8
21 31
63 86
68 88
33 39
81 74
94 34
28 24
62 89
104 102
59 70
1 83
74 66
4 32
4 18
78 100
74 11
55 83
92 104
64 46
91 46
46 69
47 104
56 15
18 108
16 108
91 9
20 90
58 68
36 86
85 25
38 60
5 71
76 46
30 48
57 100
84 102
20 78
44 3
44 45
9 76
24 52
23 87
9 18
83 21
60 28
44 64
55 97
88 31
87 60
6 29
87 67
85 58
96 33
14 9
107 16
98 35
64 39
62 100
18 96
99 16
25 51
90 48
72 25
93 47
50 85
8 95
55 37
7 3
71 66
84 108
80 2
89 49
54 21
17 30
41 4
18 15
71 60
22 21
61 85
73 45
104 78
87 62
28 80
60 17
61 108
51 90
46 72
10 34
30 69
31 99
10 55
37 18
22 27
41 71
11 102
108 34
30 8
41 7
24 82
95 20
100 68
70 74
19 102
94 97
79 58
3 72
50 48
36 12
75 42
16 17
72 67
3 48
108 4
106 23
107 39
52 88
53 11
105 36
70 95
27 96
29 32
102 97
82 53
85 28
38 16
44 87
74 15
36 21
51 4
108 86
21 97
78 73
1 100
94 86
71 6
74 45
27 29
101 7
86 24
85 22
68 82
44 96
55 69
72 1
101 89
22 15
18 25
41 49
5 79
85 14
62 104
84 27
83 82
60 48
65 31
46 25
90 7
77 3
92 38
38 35
75 9
101 86
97 108
49 15
64 97
68 18
50 56
104 90
87 98
88 65
7 96
104 24
58 80
57 85
35 66
30 63
11 77
106 19
60 73
1 106
76 61
13 4
9 61
92 66
2 5
46 33
97 79
33 86
10 50
25 87
102 36
6 44
71 82
80 42
40 65
81 19
67 19
22 52
13 92
19 91
10 75
97 100
16 59
60 76
48 11
54 5
3 76
21 48
1 91
48 22
90 75
47 24
96 24
88 91
77 61
93 23
30 18
15 10
97 26
101 18
53 90
21 108
18 78
36 9
31 71
54 65
77 36
49 63
105 32
87 85
73 82
90 17
66 103
79 18
83 13
38 69
57 83
12 101
94 85
42 60
12 16
7 4
22 62
59 20
85 24
90 82
27 104
36 35
20 74
76 35
78 98
10 90
49 87
60 13
73 106
12 89
24 35
71 90
29 101
6 49
12 1
35 83
11 55
9 34
3 8
7 88
1 78
95 16
53 24
83 91
71 103
35 41
26 67
88 17
33 12
37 46
15 8
13 70
85 35
81 11
44 90
20 27
99 13
73 83
22 72
8 38
41 17
26 4
61 2
15 1
67 51
86 37
103 24
12 103
28 9
27 12
107 42
93 104
77 50
24 40
63 42
18 20
42 45
32 35
42 61
8 53
58 64
68 66
34 101
35 71
12 90
38 10
65 50
61 70
74 90
80 103
38 78
102 107
95 97
43 83
96 20
32 20
1 97
29 107
105 5
28 88
96 8
7 48
90 91
9 102
64 31
59 102
94 33
14 10
64 101
11 8
104 68
92 72
47 45
68 9
23 27
81 88
22 73
33 101
99 105
2 37
13 57
91 54
1 86
29 99
91 15
24 19
56 82
96 95
63 75
22 105
52 6
36 7
94 26
76 67
73 55
43 102
20 98
61 64
9 39
17 106
85 44
90 103
85 76
16 26
104 72
95 59
80 13
1 22
31 26
70 64
85 65
77 21
12 4
12 60
73 57
90 35
47 57
53 59
84 30
2 14
61 37
76 64
10 86
89 76
10 5
15 32
66 97
6 80
30 65
22 7
107 78
15 39
35 105
74 93
32 45
76 49
85 7
62 49
78 9
101 43
55 86
108 101
55 84
17 47
46 56
50 107
2 108
2 88
40 90
51 39
27 95
32 62
77 73
37 47
12 76
83 59
105 74
6 87
58 55
9 47
60 41
35 26
5 45
29 81
71 11
74 94
82 76
30 102
79 22
67 7
18 17
14 105
46 26
104 56
53 41
98 15
74 21
12 75
99 20
19 79
98 13
66 31
62 8
90 95
26 86
64 13
52 8
13 97
46 87
95 64
94 54
63 38
47 43
87 50
23 26
95 71
73 72
60 47
83 19
26 44
78 34
4 86
62 101
66 10
72 28
52 44
108 20
41 51
54 87
99 67
58 76
55 32
99 50
59 49
41 92
21 32
19 75
6 48
50 80
44 24
104 95
34 2
79 25
62 28
68 27
46 20
60 40
93 26
89 27
57 54
88 60
31 4
47 26
46 65
74 12
86 69
17 73
81 30
19 101
103 13
90 9
18 66
44 22
52 96
68 29
99 96
92 73
73 19
43 103
30 3
43 10
93 3
11 9
102 98
100 49
94 9
85 75
2 55
8 80
31 67
106 18
23 15
83 4
103 28
33 95
69 60
20 47
91 22
84 17
74 28
21 4
42 106
65 73
61 88
37 44
90 58
90 57
14 7
25 106
95 43
7 65
17 61
76 77
19 57
25 55
63 13
72 70
98 100
8 51
94 103
1 102
10 74
61 83
77 9
65 86
27 72
23 56
83 42
2 57
75 7
100 33
57 87
62 27
76 44
68 44
8 59
78 77
68 103
63 51
100 86
47 97
102 78
98 18
74 75
17 72
99 59
35 73
55 28
75 71
93 59
99 10
69 67
75 61
11 49
66 36
14 89
48 102
11 15
108 6
47 18
47 15
102 73
97 25
62 30
50 38
47 35
95 9
33 31
6 56
61 105
75 8
99 14
83 86
78 91
22 104
70 85
81 73
104 41
79 21
76 68
25 5
83 76
97 34
69 11
92 30
24 30
48 51
45 85
8 97
3 105
33 34
44 10
82 88
6 82
54 25
77 1
95 93
105 70
80 40
89 35
64 5
37 80
6 34
61 22
105 49
40 88
76 51
94 40
62 82
80 32
64 91
78 42
97 93
23 81
8 87
78 8
94 60
9 80
74 29
22 93
67 39
45 103
91 51
42 72
100 44
52 84
73 51
68 38
15 84
24 57
62 91
100 48
38 9
25 66
47 73
3 71
66 84
30 98
16 30
76 84
20 22
75 65
52 69
31 105
23 82
84 85
68 56
105 17
70 35
47 88
95 24
4 99
101 84
27 33
19 74
16 67
88 14
101 66
35 62
15 38
12 34
61 98
8 70
48 85
105 79
52 78
28 34
94 62
49 28
85 92
99 97
4 43
99 66
41 42
106 93
43 2
68 6
59 71
106 84
83 66
16 24
32 75
34 19
53 74
88 80
47 76
34 76
103 88
55 41
23 77
68 107
75 77
86 93
48 82
61 48
5 68
12 81
102 24
40 21
27 93
93 1
71 108
69 17
3 79
38 24
53 104
34 32
15 61
56 21
87 39
37 34
84 21
27 60
21 19
76 15
90 86
87 66
4 8
54 29
107 66
41 54
65 51
65 27
96 73
28 66
22 88
20 66
31 15
78 61
15 14
56 107
103 95
77 29
33 18
52 18
75 49
9 35
20 57
11 39
41 88
81 4
13 82
99 77
46 108
4 90
58 82
81 18
87 47
9 24
60 78
94 6
33 9
23 60
69 43
86 34
98 99
74 59
99 78
35 75
102 71
107 41
23 13
16 19
72 59
62 76
90 99
77 48
11 87
89 100
93 24
93 25
17 104
30 38
98 95
90 39
53 66
101 93
74 8
86 85
91 3
49 66
72 90
38 5
94 21
7 10
45 77
50 81
71 30
19 9
47 28
107 59
10 49
13 29
82 102
21 10
14 43
19 87
106 68
78 30
39 2
99 11
2 53
31 46
32 100
36 61
84 10
41 68
11 83
91 33
9 56
69 27
10 40
95 32
49 64
85 36
23 33
93 71
91 81
53 37
33 50
38 29
37 54
54 30
90 24
6 65
8 21
63 31
13 90
18 29
17 39
82 92
12 63
101 94
53 87
15 88
23 53
20 67
52 87
108 41
24 39
60 21
47 11
102 50
43 22
6 4
67 50
