Vertices 97
39 "#60"
86 "#83"
74 "#39"
12 "#45"
21 "#8"
5 "#11"
61 "#69"
3 "#15"
78 "#0"
34 "#31"
87 "#19"
23 "#84"
58 "#43"
51 "#33"
82 "#10"
33 "#59"
54 "#85"
53 "#7"
66 "#1"
46 "#71"
67 "#90"
92 "#46"
59 "#56"
8 "#93"
29 "#76"
4 "#89"
49 "#32"
56 "#44"
77 "#16"
47 "#23"
72 "#27"
45 "#82"
70 "#50"
62 "#61"
16 "#81"
76 "#58"
41 "#37"
71 "#12"
63 "#48"
17 "#78"
88 "#66"
60 "#36"
37 "#80"
7 "#65"
10 "#4"
94 "#68"
2 "#41"
81 "#28"
30 "#88"
83 "#53"
79 "#91"
96 "#52"
25 "#92"
69 "#73"
24 "#77"
22 "#79"
27 "#72"
85 "#42"
57 "#6"
32 "#87"
44 "#24"
52 "#86"
50 "#22"
90 "#17"
14 "#34"
28 "#74"
40 "#47"
65 "#95"
36 "#49"
91 "#29"
55 "#26"
73 "#2"
95 "#67"
38 "#57"
43 "#5"
35 "#94"
84 "#21"
13 "#20"
18 "#75"
97 "#30"
75 "#35"
89 "#96"
9 "#13"
48 "#63"
19 "#38"
93 "#18"
80 "#40"
64 "#9"
1 "#62"
20 "#55"
31 "#25"
42 "#70"
6 "#54"
26 "#14"
68 "#64"
11 "#3"
15 "#51"
Edges
39 41
42 38
33 80
96 26
47 71
42 11
72 88
1 39
9 23
54 41
72 39
71 53
76 77
89 6
81 39
70 75
76 15
63 72
81 42
77 58
59 58
79 69
26 63
62 5
36 83
7 36
39 83
14 65
9 54
13 26
77 23
17 37
19 41
59 56
24 79
21 25
4 37
13 17
31 28
38 85
65 16
40 3
14 96
46 87
27 24
22 45
58 81
70 69
50 18
40 45
75 39
24 73
89 55
68 94
20 1
38 37
4 79
92 16
37 15
54 91
85 80
5 37
54 94
64 70
35 42
25 23
47 23
34 39
57 61
58 26
42 90
65 59
64 50
69 68
15 51
13 51
36 18
31 34
61 73
38 45
62 92
61 44
70 72
6 24
19 52
19 79
10 19
90 15
65 97
96 12
37 54
49 69
18 67
4 14
4 93
48 97
29 37
42 44
24 33
83 40
79 32
93 22
75 97
61 9
37 70
18 70
2 21
21 60
51 57
49 74
53 23
76 57
37 53
65 2
13 90
89 35
95 52
29 41
62 60
86 45
13 22
15 68
32 83
15 19
27 69
81 16
1 64
62 45
57 42
87 4
89 25
8 91
71 8
46 39
50 82
95 45
52 12
3 84
40 14
67 61
70 35
38 46
6 85
67 41
52 29
67 96
75 66
32 94
78 2
71 43
24 60
83 80
33 48
86 67
75 24
52 30
62 18
29 49
13 57
52 71
62 75
81 11
65 4
14 61
67 68
36 76
10 58
12 27
70 5
62 39
35 87
4 34
74 87
70 34
91 36
63 77
8 65
12 48
21 17
73 80
49 45
55 93
94 22
76 70
57 33
51 24
23 88
54 86
42 78
76 7
21 8
29 27
85 62
49 54
3 6
12 30
7 73
47 94
53 86
57 87
45 37
2 57
5 97
10 82
25 8
96 49
1 67
12 4
61 54
58 50
30 95
15 6
78 31
77 92
96 57
77 93
67 89
1 55
79 29
8 1
57 60
73 46
51 20
67 8
18 61
46 69
80 26
24 97
12 29
52 48
22 20
92 88
9 83
70 79
81 44
18 85
3 18
28 34
6 60
91 10
60 30
57 63
30 8
48 95
47 6
17 18
26 15
28 29
46 88
15 14
71 2
66 95
94 1
5 61
52 37
73 12
35 43
38 71
32 49
92 96
71 9
48 34
78 15
45 47
47 42
63 2
60 7
51 76
5 50
11 28
86 81
60 94
42 24
65 10
71 57
51 79
29 72
59 47
34 56
86 30
39 56
91 87
62 30
6 33
18 46
10 7
34 62
76 52
56 38
70 77
40 81
72 94
31 59
17 51
75 86
87 49
30 73
12 21
44 19
58 72
15 77
38 28
33 88
48 93
86 25
70 38
73 29
88 7
76 61
28 3
22 10
28 16
89 20
66 81
61 86
94 67
24 5
62 19
25 80
56 88
80 37
9 6
95 78
75 48
80 62
37 67
68 56
20 74
47 32
36 96
60 16
65 75
28 42
91 1
97 54
52 64
2 88
77 72
68 40
34 33
58 21
1 65
91 62
81 80
95 24
48 16
75 43
16 83
74 41
37 24
24 50
65 96
62 33
57 94
38 53
92 78
83 90
43 69
78 28
65 82
74 70
35 5
27 74
63 51
13 61
3 52
8 18
90 56
44 76
5 38
12 6
95 93
70 54
59 62
55 16
97 23
52 35
4 50
44 56
53 59
28 14
44 24
48 39
9 74
54 74
94 46
16 1
84 34
27 26
11 49
88 1
6 82
54 57
57 48
52 50
2 15
70 4
94 53
12 85
4 71
17 86
93 62
57 62
8 15
32 74
82 41
29 91
50 83
22 78
14 81
26 62
63 32
58 84
6 95
30 65
27 84
65 85
31 29
13 76
97 78
70 90
23 21
51 96
24 15
69 86
24 21
83 15
94 78
94 90
10 35
75 19
90 41
64 83
93 57
53 73
23 71
84 74
90 58
5 90
80 60
90 87
70 84
47 76
82 51
82 25
5 83
89 42
73 28
16 45
7 39
60 55
54 89
20 36
78 18
80 44
97 37
42 96
48 50
14 48
11 24
70 26
92 94
27 14
48 82
22 86
59 4
89 22
39 45
6 31
8 63
95 53
71 60
71 72
87 64
88 71
41 84
59 90
54 21
32 8
9 30
63 89
24 86
22 91
61 82
77 84
8 84
33 16
75 93
59 83
66 33
42 63
95 33
84 65
2 52
50 61
16 30
78 24
65 79
31 76
49 80
59 36
58 83
92 59
27 51
28 7
86 46
55 15
53 31
65 83
50 68
88 97
4 63
61 21
95 43
31 42
21 48
57 80
6 78
82 64
97 94
10 20
46 27
13 59
48 3
2 18
33 85
57 90
39 92
50 88
29 82
50 95
55 61
37 40
7 1
73 1
65 3
77 5
69 17
54 77
86 66
48 81
80 94
65 40
78 70
6 86
62 76
94 28
73 93
40 88
20 92
51 75
31 70
28 56
95 92
25 39
25 7
89 66
70 7
92 44
87 32
78 84
32 15
47 53
93 74
80 97
6 18
12 70
61 11
63 92
29 4
85 27
53 19
47 20
64 42
35 32
65 43
77 87
17 78
69 31
87 71
1 86
12 44
86 14
28 71
3 25
35 1
70 92
95 88
97 1
28 13
21 27
74 97
3 41
80 48
53 26
12 88
52 45
73 52
43 78
81 63
33 58
41 42
78 13
51 83
33 13
14 83
64 62
58 54
83 81
35 68
70 3
78 55
69 34
88 6
44 87
50 30
20 46
87 70
89 47
51 39
42 6
53 20
31 79
28 91
1 2
5 52
27 82
84 39
42 27
95 34
1 52
75 18
29 88
65 35
92 37
70 51
36 68
68 24
72 86
46 10
14 69
86 49
35 79
13 70
34 7
44 67
27 57
47 88
88 68
79 83
68 76
61 88
15 74
89 71
84 19
96 87
64 68
90 50
67 60
20 29
77 86
27 15
17 56
79 30
3 72
23 33
58 70
57 85
57 55
7 71
52 70
30 68
22 4
59 10
17 90
59 39
52 17
39 87
97 11
71 62
70 15
90 48
45 17
64 97
45 76
66 87
58 88
75 7
59 3
69 15
47 24
90 96
27 9
44 66
92 24
76 48
92 82
94 7
92 55
70 6
97 9
71 70
57 59
74 18
97 73
16 22
18 57
42 95
51 26
78 59
39 17
13 68
35 17
11 44
27 87
75 96
59 26
7 31
60 49
8 36
1 74
4 5
24 59
97 91
85 4
2 82
87 59
88 74
24 84
18 49
49 38
63 56
84 97
16 70
33 53
36 44
59 33
82 59
51 67
84 75
96 71
50 57
34 96
81 79
63 29
60 10
95 3
31 13
88 75
72 26
21 44
18 69
42 73
76 28
86 4
59 14
46 36
50 45
85 9
8 5
62 27
96 15
11 46
76 59
64 92
5 74
26 19
83 10
15 47
38 92
22 87
17 5
58 18
52 21
60 9
68 49
3 27
35 93
42 91
93 59
88 11
25 79
42 54
16 18
62 90
96 73
42 74
68 62
72 51
67 78
17 23
78 96
37 31
36 27
75 77
15 80
20 63
89 4
72 44
95 20
57 19
23 87
32 29
83 66
84 49
22 8
45 24
49 25
10 77
82 39
18 28
38 74
29 39
1 14
65 9
12 71
60 68
72 68
76 89
95 75
19 7
34 76
18 71
34 22
74 17
82 94
61 68
46 54
76 24
84 38
77 62
13 83
28 46
46 35
43 8
41 13
26 75
7 68
16 61
78 40
75 1
91 46
12 37
40 52
18 42
66 19
43 28
75 49
52 87
82 32
96 56
87 9
20 50
38 93
16 52
6 51
96 94
38 60
55 91
91 78
29 43
27 92
30 96
72 90
54 26
54 64
86 41
85 95
89 86
73 20
91 6
27 64
71 76
70 56
24 18
82 16
19 56
36 49
14 58
97 2
10 25
10 63
57 86
49 64
4 43
86 32
61 3
25 90
32 71
53 1
12 67
72 89
86 43
17 76
62 96
69 58
61 37
52 28
59 95
28 96
61 64
36 45
89 87
9 24
30 83
40 51
26 11
68 39
25 33
34 1
16 21
20 38
32 65
61 43
22 52
33 31
95 84
37 13
68 11
19 48
14 92
70 42
47 52
48 40
91 94
76 23
6 38
55 10
15 21
58 95
38 61
20 96
17 82
59 49
74 37
20 49
33 83
1 61
20 31
33 21
71 10
71 22
77 89
6 71
97 71
41 27
6 58
49 93
66 77
58 46
59 55
85 75
20 40
20 23
28 47
88 57
1 5
87 92
10 76
75 53
18 65
87 20
38 19
58 23
71 29
77 7
28 92
77 29
74 96
29 40
58 74
72 46
61 95
43 13
38 87
78 27
29 69
67 34
97 30
31 14
94 76
14 25
23 22
27 31
10 24
34 72
76 91
42 25
62 51
46 80
92 51
40 76
35 8
78 68
69 73
95 94
2 33
63 7
87 47
58 78
64 86
27 89
73 2
20 71
65 57
38 10
94 34
17 29
53 39
38 90
73 91
1 62
93 82
53 55
9 75
10 32
84 89
27 88
39 14
71 54
31 75
25 36
51 52
6 53
92 18
52 86
33 71
96 77
65 78
83 78
25 65
79 2
1 33
93 36
72 15
8 38
30 47
85 15
52 93
25 24
48 72
94 75
33 65
16 67
89 75
96 9
66 5
40 21
32 25
53 64
22 81
47 44
12 86
62 17
39 38
74 92
72 82
90 86
2 86
85 35
66 67
39 5
46 70
66 70
87 65
56 51
30 84
20 97
95 83
18 21
84 4
83 37
59 96
64 40
69 54
77 91
39 94
3 14
67 4
38 62
22 41
84 35
7 48
81 20
95 97
78 57
24 85
46 41
6 11
90 89
26 88
35 47
6 72
70 82
78 25
19 50
1 27
83 20
50 39
17 8
4 35
61 94
42 69
96 60
77 4
64 23
35 72
59 85
96 82
94 18
66 7
92 69
87 21
48 67
46 7
29 35
71 68
97 70
49 12
37 32
27 49
24 69
11 48
41 33
28 1
23 52
19 12
23 55
65 31
34 59
77 33
50 47
45 57
63 59
68 95
21 86
64 5
75 61
69 75
66 13
83 63
23 24
9 2
38 1
97 18
85 90
7 72
96 70
64 47
43 40
27 28
66 96
70 20
69 72
59 12
59 21
64 59
44 25
25 34
71 31
59 40
34 73
94 15
12 61
7 61
92 3
20 39
34 8
44 20
60 88
26 40
68 90
91 25
11 96
77 20
52 15
74 62
14 2
57 83
69 28
47 77
2 5
93 44
83 3
11 19
23 68
67 87
95 63
22 83
43 70
82 54
39 36
34 55
57 4
4 72
59 38
11 87
29 85
8 68
51 54
88 36
38 22
52 38
85 30
97 96
40 71
19 32
91 58
7 86
79 68
53 76
26 6
22 17
29 62
1 89
38 13
6 14
6 96
91 15
61 15
39 61
36 75
6 93
1 48
23 89
6 13
45 63
92 7
42 29
39 76
4 61
91 48
59 73
42 26
81 91
38 41
6 83
51 33
25 22
1 82
69 30
97 36
55 31
47 27
50 80
68 2
44 16
57 24
13 7
84 54
59 86
79 76
96 44
16 31
71 78
64 34
33 9
89 64
83 70
15 84
91 33
69 44
37 71
2 61
76 87
31 19
33 29
4 51
19 70
17 44
26 3
19 72
67 80
51 78
73 85
35 30
1 26
76 2
75 90
38 78
94 48
2 85
70 21
15 17
85 64
82 38
25 38
60 3
80 77
96 38
1 36
52 81
61 89
82 37
72 74
10 70
22 92
63 47
18 11
29 16
80 66
67 77
76 9
30 37
53 83
77 48
68 27
40 11
85 45
15 30
60 5
14 17
46 26
53 44
43 15
82 3
68 63
93 17
90 28
55 46
95 74
68 33
80 7
76 60
37 16
21 32
26 45
26 34
63 33
18 7
86 83
44 31
42 60
64 46
70 89
3 71
28 84
92 41
72 78
79 78
