Vertices 70
69 "#42"
8 "#57"
51 "#61"
27 "#65"
2 "#0"
32 "#12"
48 "#44"
10 "#68"
15 "#55"
30 "#34"
35 "#20"
14 "#46"
37 "#28"
33 "#45"
47 "#36"
62 "#33"
66 "#4"
50 "#27"
57 "#18"
65 "#10"
64 "#26"
55 "#1"
24 "#67"
36 "#43"
58 "#54"
18 "#3"
26 "#6"
25 "#29"
29 "#5"
53 "#37"
34 "#52"
67 "#41"
4 "#49"
38 "#25"
59 "#39"
43 "#58"
12 "#32"
16 "#35"
45 "#30"
7 "#48"
21 "#60"
22 "#11"
1 "#38"
61 "#16"
17 "#53"
13 "#24"
19 "#64"
28 "#22"
52 "#59"
41 "#47"
46 "#62"
68 "#7"
5 "#19"
56 "#2"
31 "#15"
63 "#31"
9 "#40"
42 "#13"
3 "#51"
44 "#23"
23 "#66"
70 "#21"
49 "#50"
40 "#56"
39 "#9"
54 "#63"
6 "#69"
60 "#14"
11 "#17"
20 "#8"
Edges
25 58
2 8
49 65
24 31
38 15
63 46
6 65
11 19
26 51
5 12
52 23
52 40
49 70
60 49
3 17
49 66
20 36
66 17
6 13
65 62
56 68
12 57
15 24
34 42
67 2
2 32
10 19
10 2
26 17
9 45
26 32
42 45
26 54
28 65
54 65
58 50
7 61
66 15
10 63
38 27
20 3
16 42
55 34
7 37
21 46
58 3
32 5
33 54
17 11
5 21
54 63
49 22
32 52
66 40
8 66
21 48
32 41
35 43
54 41
24 68
1 3
15 32
24 69
11 34
60 58
28 26
64 66
50 65
58 49
27 21
61 52
46 10
67 56
8 59
58 38
26 23
39 49
2 19
69 11
58 65
48 11
23 36
32 8
10 9
43 61
61 70
34 5
52 7
24 17
40 20
56 9
33 40
52 26
8 1
13 33
27 23
49 63
62 2
40 63
68 46
8 53
49 31
7 44
56 40
26 5
1 53
6 8
6 3
69 3
23 58
16 54
7 17
42 32
18 19
48 1
34 32
30 46
27 16
28 39
63 50
17 39
59 53
49 3
65 8
6 46
1 70
2 17
62 16
36 60
15 49
36 61
4 12
52 69
34 12
24 52
7 14
24 6
28 17
49 43
39 46
29 32
62 51
62 52
36 50
9 52
10 25
10 65
65 31
49 55
30 54
30 67
62 17
49 20
24 57
23 18
60 1
51 46
2 49
51 9
54 20
67 19
2 14
17 52
59 50
35 6
28 22
66 43
6 21
6 56
59 70
6 39
27 19
7 40
4 19
5 55
36 40
54 46
16 51
28 1
44 15
5 25
58 31
14 30
22 46
65 66
68 38
43 27
44 10
25 2
41 17
67 52
2 34
46 52
14 8
4 46
26 62
35 11
22 59
14 49
64 46
43 6
17 21
43 4
1 51
49 34
19 47
30 34
68 58
46 15
16 60
64 14
34 48
17 31
37 54
34 3
66 7
59 46
24 70
33 1
63 27
58 36
14 27
6 10
13 20
58 44
49 45
21 22
70 3
35 55
57 51
18 37
21 62
36 2
30 41
24 10
56 45
41 23
63 43
32 45
24 23
22 6
5 44
27 61
35 62
43 21
61 54
62 7
40 8
54 57
62 60
46 27
26 64
51 8
33 49
40 43
45 24
3 60
34 51
35 58
51 21
22 55
49 1
47 9
55 24
63 39
34 60
35 38
32 33
40 11
50 31
17 22
15 34
38 64
45 54
69 42
27 32
52 68
69 67
12 59
1 27
15 45
24 2
58 18
19 41
8 48
1 18
19 21
34 10
47 43
45 16
10 26
27 7
47 64
49 35
50 54
6 23
34 8
17 30
4 13
33 58
47 10
56 15
3 61
8 70
6 67
51 32
33 23
36 24
36 66
50 3
66 27
14 31
48 49
3 64
4 25
13 15
2 38
43 41
13 68
9 3
3 67
57 58
11 26
60 51
11 54
49 17
8 47
65 34
36 30
28 54
2 40
28 23
37 15
17 36
24 58
39 14
19 7
6 27
35 60
59 14
16 24
54 21
40 21
11 22
59 24
34 45
24 63
2 70
52 54
69 16
50 49
69 56
5 14
41 2
43 42
31 40
56 27
67 23
21 10
14 61
51 47
15 21
11 3
17 55
39 40
16 6
16 10
60 68
26 40
23 4
38 40
57 13
69 8
4 40
6 19
26 2
5 61
26 6
23 32
58 42
5 13
63 56
27 10
40 12
46 65
46 67
54 25
38 30
20 52
70 21
23 19
19 48
59 23
3 30
43 54
38 16
53 52
22 45
40 24
61 57
58 2
3 44
49 5
7 60
8 11
1 66
34 62
62 43
43 68
39 69
45 70
13 9
6 33
58 34
24 28
59 5
46 16
58 69
51 39
34 14
44 32
5 40
46 56
44 68
8 21
58 62
39 68
15 4
35 17
10 50
21 37
43 3
50 19
64 40
21 14
65 57
34 18
25 45
40 48
54 27
19 24
61 55
32 31
12 33
6 29
63 70
21 16
19 39
1 54
31 53
18 5
60 63
42 6
61 16
43 25
21 63
31 6
60 9
67 7
31 41
44 28
3 29
10 45
36 49
58 32
36 11
8 57
35 52
16 12
32 19
5 15
47 23
47 42
52 55
47 12
62 15
18 45
52 25
68 1
8 12
15 28
1 50
68 8
11 10
58 17
44 13
10 54
66 25
4 16
41 15
19 12
34 63
49 27
29 24
42 52
51 63
15 17
23 45
23 48
50 13
40 17
5 43
36 52
39 22
63 38
45 2
38 49
51 52
14 62
47 34
70 36
68 17
21 28
14 15
50 2
1 55
42 17
32 49
67 43
49 16
10 3
59 34
52 19
33 20
35 27
59 57
7 24
9 17
56 57
46 25
4 34
68 10
42 5
58 47
34 61
37 36
58 52
20 67
46 45
14 51
43 44
14 23
27 50
70 12
59 42
21 65
13 34
2 3
67 26
68 64
24 54
39 45
68 40
62 49
40 44
16 34
56 25
43 51
30 40
23 60
19 43
26 1
6 64
21 53
17 37
40 51
26 57
