Vertices 255
158 "#55"
137 "#162"
210 "#96"
228 "#20"
182 "#224"
168 "#133"
1 "#242"
82 "#176"
40 "#2"
123 "#207"
119 "#1"
146 "#211"
99 "#222"
212 "#236"
150 "#156"
116 "#74"
7 "#80"
223 "#52"
22 "#180"
106 "#118"
153 "#223"
148 "#238"
252 "#226"
242 "#66"
32 "#15"
189 "#185"
205 "#153"
75 "#249"
155 "#136"
147 "#62"
100 "#245"
8 "#171"
156 "#127"
224 "#146"
201 "#32"
65 "#40"
103 "#159"
133 "#79"
219 "#49"
128 "#94"
28 "#230"
125 "#183"
130 "#181"
151 "#219"
234 "#204"
64 "#85"
191 "#110"
180 "#216"
110 "#158"
238 "#195"
141 "#198"
159 "#128"
76 "#101"
167 "#160"
4 "#191"
70 "#202"
50 "#65"
2 "#169"
138 "#3"
85 "#45"
19 "#57"
174 "#106"
84 "#212"
90 "#10"
20 "#8"
86 "#120"
109 "#35"
21 "#231"
118 "#122"
47 "#23"
89 "#203"
231 "#194"
101 "#37"
236 "#11"
114 "#91"
200 "#138"
108 "#248"
218 "#215"
45 "#175"
131 "#68"
68 "#73"
27 "#19"
12 "#31"
48 "#143"
117 "#252"
91 "#42"
115 "#149"
142 "#82"
77 "#145"
239 "#72"
74 "#129"
122 "#124"
149 "#170"
135 "#47"
129 "#115"
6 "#4"
73 "#114"
251 "#150"
88 "#229"
111 "#16"
253 "#250"
104 "#39"
80 "#225"
17 "#184"
49 "#151"
5 "#199"
183 "#214"
208 "#95"
81 "#25"
211 "#36"
37 "#13"
154 "#103"
176 "#7"
46 "#157"
162 "#29"
177 "#83"
11 "#147"
161 "#197"
96 "#99"
107 "#196"
57 "#30"
248 "#148"
134 "#59"
230 "#18"
186 "#87"
62 "#26"
165 "#227"
39 "#246"
203 "#81"
36 "#187"
166 "#154"
126 "#5"
195 "#240"
222 "#254"
14 "#63"
197 "#139"
172 "#107"
58 "#51"
26 "#134"
169 "#14"
55 "#98"
136 "#61"
51 "#152"
3 "#24"
35 "#123"
145 "#140"
98 "#247"
181 "#210"
143 "#165"
42 "#119"
227 "#9"
53 "#237"
31 "#108"
254 "#97"
188 "#137"
102 "#125"
185 "#46"
33 "#200"
216 "#41"
132 "#131"
226 "#168"
217 "#201"
92 "#6"
157 "#188"
250 "#48"
60 "#71"
105 "#86"
23 "#28"
13 "#233"
56 "#239"
179 "#182"
209 "#167"
97 "#84"
187 "#17"
54 "#155"
63 "#70"
59 "#234"
233 "#111"
164 "#126"
235 "#38"
127 "#135"
112 "#117"
69 "#77"
67 "#105"
87 "#172"
121 "#116"
213 "#161"
30 "#186"
229 "#56"
43 "#220"
178 "#113"
240 "#209"
66 "#0"
232 "#100"
173 "#21"
24 "#235"
190 "#244"
207 "#27"
202 "#33"
175 "#130"
41 "#179"
198 "#243"
44 "#22"
193 "#93"
194 "#173"
245 "#12"
16 "#193"
249 "#206"
140 "#90"
163 "#88"
72 "#112"
152 "#58"
79 "#34"
93 "#76"
124 "#251"
220 "#89"
241 "#121"
18 "#174"
255 "#64"
144 "#166"
237 "#232"
244 "#50"
78 "#78"
94 "#53"
95 "#54"
52 "#164"
204 "#241"
160 "#75"
215 "#144"
34 "#163"
61 "#253"
196 "#189"
171 "#221"
113 "#208"
170 "#44"
206 "#178"
243 "#177"
247 "#60"
83 "#142"
38 "#218"
29 "#43"
120 "#92"
199 "#104"
10 "#217"
184 "#228"
225 "#213"
71 "#67"
15 "#102"
192 "#190"
25 "#109"
221 "#69"
139 "#132"
214 "#192"
246 "#205"
9 "#141"
Edges
234 102
244 119
224 166
98 180
22 114
38 166
32 187
175 68
156 35
187 63
214 46
29 20
156 46
239 42
42 85
149 255
31 25
79 122
40 248
18 166
84 139
62 232
16 33
4 42
246 193
141 174
81 116
2 225
119 64
73 179
60 6
209 205
201 227
254 76
96 112
157 16
202 140
2 141
52 59
212 163
102 179
151 112
169 142
30 72
208 81
180 117
172 51
47 79
210 239
152 247
46 36
150 54
140 210
139 168
92 216
196 148
40 162
183 123
200 160
12 164
132 156
155 233
44 71
157 193
199 52
239 11
125 178
76 222
27 111
140 119
140 139
95 228
45 38
125 204
41 123
69 2
40 250
142 102
82 226
102 214
15 28
93 166
231 218
219 93
25 241
2 112
211 223
252 183
196 188
113 222
115 83
169 250
154 230
220 210
74 52
28 154
58 142
123 194
126 172
25 112
19 76
64 37
222 42
97 243
45 195
142 152
214 34
58 95
178 233
69 19
42 131
76 120
87 76
114 42
16 220
111 210
76 193
63 82
255 233
102 78
175 7
231 174
100 157
233 143
35 74
193 38
174 249
195 82
20 134
165 240
174 98
96 191
96 227
242 118
159 10
48 241
15 80
88 18
21 208
191 76
91 19
114 147
204 53
18 165
255 245
43 180
186 27
86 131
193 118
148 53
93 251
160 251
20 197
2 120
3 230
206 122
149 182
132 92
50 160
153 8
48 57
69 40
128 213
101 64
141 4
135 245
206 52
221 85
249 78
15 183
153 107
74 191
153 46
107 164
135 202
239 63
75 4
83 96
114 23
92 187
119 236
189 116
80 114
178 175
164 178
247 131
157 53
203 140
40 93
125 199
71 104
155 249
43 31
157 97
5 210
56 67
108 190
225 153
250 96
55 34
232 59
208 92
57 208
31 126
146 203
157 30
40 105
124 159
98 237
105 202
59 22
4 21
67 32
149 154
30 218
125 10
71 166
211 6
169 91
199 216
28 194
33 151
31 234
74 173
207 200
114 1
79 76
5 208
57 131
112 87
9 187
118 167
66 131
15 116
246 49
138 116
46 171
130 82
217 157
142 247
63 55
47 239
174 173
10 41
194 67
48 74
75 193
121 58
207 58
72 185
187 147
176 71
133 15
177 247
48 21
155 69
229 176
120 224
239 68
245 116
212 102
230 19
105 44
139 223
81 174
155 36
108 54
91 160
222 1
229 42
57 223
211 174
113 11
172 46
71 27
14 241
165 4
208 179
84 76
225 123
50 205
224 231
168 251
46 237
190 77
37 57
78 160
36 38
222 22
42 129
24 190
60 33
97 174
118 45
253 238
199 149
171 179
178 251
247 27
116 110
174 7
168 76
139 166
18 70
174 164
223 202
197 183
130 102
89 159
11 210
45 83
229 177
91 216
15 95
97 49
208 90
232 159
102 189
174 10
132 59
111 203
166 128
104 248
20 200
142 91
46 41
46 140
159 97
248 160
74 245
217 252
51 205
70 150
52 139
102 54
60 31
141 224
253 61
229 170
249 56
74 97
215 238
148 249
145 120
195 240
189 159
55 173
140 160
44 69
210 34
176 227
76 214
243 89
186 96
126 128
177 207
31 149
12 170
250 25
75 200
175 97
148 146
254 40
247 54
70 97
208 163
49 194
230 235
156 166
45 59
71 242
166 153
28 48
174 242
229 68
81 173
198 194
224 178
216 221
211 79
237 17
34 155
226 49
109 223
40 74
218 184
178 40
20 239
173 127
15 14
229 69
121 211
114 51
76 145
160 83
77 76
128 51
67 216
39 238
30 55
144 88
150 82
22 156
55 225
212 15
242 78
39 31
150 34
149 78
211 96
229 199
89 36
42 84
123 49
194 204
221 233
81 229
24 241
52 9
104 57
117 139
130 204
110 48
167 220
159 82
66 248
111 185
254 184
199 156
17 253
114 232
22 133
241 66
18 144
151 218
105 218
132 50
234 248
251 166
102 178
35 50
127 200
139 207
188 250
254 212
108 38
125 76
136 185
232 93
42 58
134 76
196 154
161 75
99 194
206 54
62 92
69 236
102 200
127 45
91 128
227 94
199 65
220 155
112 72
206 203
76 47
201 241
162 57
116 173
95 233
45 249
252 100
54 177
176 177
123 31
43 41
12 42
215 11
80 222
193 162
142 251
192 74
12 81
163 128
136 115
53 36
26 231
215 247
52 118
59 110
150 143
180 8
189 132
84 171
78 48
44 94
54 213
17 164
172 43
143 55
74 154
163 211
128 236
235 81
124 146
95 254
134 255
25 193
147 122
217 5
163 193
167 63
115 166
71 175
198 156
30 68
60 244
192 196
9 163
84 78
103 186
43 184
125 82
114 209
132 97
213 45
49 60
102 147
247 118
156 243
159 7
251 149
85 172
224 36
180 125
139 209
220 181
102 20
4 128
102 103
86 9
182 70
54 225
229 62
155 74
167 195
248 205
51 129
151 159
63 2
204 15
112 6
60 219
156 77
140 228
93 31
169 79
51 189
124 144
171 172
113 167
252 105
235 170
63 22
28 128
97 81
155 71
247 203
19 193
60 68
166 160
135 152
22 188
141 51
90 14
30 196
199 153
108 110
144 108
133 248
45 2
69 37
138 27
154 125
72 33
251 112
42 132
64 82
48 157
42 35
95 207
114 156
173 58
229 85
21 226
52 123
179 130
163 166
220 145
124 188
194 220
69 18
93 90
54 87
239 199
109 57
49 209
132 149
89 122
101 247
6 191
224 104
112 131
175 11
114 12
192 38
187 91
20 216
59 140
172 107
172 214
108 168
210 109
75 76
19 6
11 251
220 63
152 176
253 222
106 17
146 220
60 78
173 156
219 142
242 47
226 254
89 188
105 72
215 89
244 187
125 226
191 30
232 218
71 173
136 73
199 33
248 71
215 255
116 49
158 244
73 147
52 100
115 18
220 244
117 21
131 19
109 164
206 132
63 95
196 171
226 102
12 120
204 34
13 76
241 181
164 168
208 117
80 156
53 171
73 168
244 170
220 215
73 32
69 7
95 81
231 137
139 22
199 240
188 246
12 247
91 58
163 45
64 186
145 114
206 233
103 5
151 99
213 117
239 136
186 163
85 74
248 128
160 92
9 105
28 215
191 104
231 98
138 102
76 152
96 251
100 1
132 166
242 34
36 234
244 72
68 109
72 171
179 18
15 46
2 75
177 70
216 134
127 26
211 37
52 2
240 143
202 174
174 65
1 98
149 116
244 228
7 176
76 18
113 146
162 95
254 63
215 230
149 41
245 93
133 145
243 39
241 161
50 115
183 146
112 74
72 221
211 201
160 25
243 17
93 158
171 254
176 131
128 123
112 60
8 56
231 115
38 46
137 180
92 241
130 15
233 21
40 106
50 251
255 69
94 133
202 203
177 20
206 43
68 121
50 106
15 246
49 164
207 68
151 70
5 49
35 26
64 227
143 141
164 33
5 115
63 66
183 18
85 105
144 129
223 163
197 217
140 86
240 127
169 72
46 150
187 236
160 110
129 56
23 63
142 97
76 31
201 142
98 215
220 17
214 213
73 11
18 142
152 216
87 251
69 109
76 27
40 31
84 41
200 148
225 77
86 216
101 140
68 172
205 115
208 100
190 15
157 210
46 13
60 65
66 185
55 11
248 15
233 106
231 232
59 42
223 140
221 55
93 162
217 35
7 232
31 16
87 143
154 208
88 16
78 142
87 182
77 155
26 33
120 106
252 33
224 143
58 129
56 96
145 35
199 75
96 167
42 254
144 112
147 109
103 7
77 44
169 55
161 146
110 238
125 241
58 162
104 101
41 97
174 106
41 226
61 48
120 193
208 86
147 169
193 161
233 214
68 126
245 57
251 155
163 108
11 232
95 69
94 32
69 141
65 126
118 121
250 142
233 57
186 82
153 190
45 8
245 186
249 16
218 75
250 94
60 187
248 164
135 20
156 67
17 252
111 221
121 249
184 42
50 147
255 208
63 83
65 140
97 247
233 32
46 188
9 254
218 16
193 145
105 23
11 81
159 253
27 133
232 67
168 40
217 39
197 5
255 97
125 239
89 129
243 181
18 2
4 164
130 141
174 42
5 11
14 187
52 175
128 199
243 35
156 203
67 65
28 240
66 208
245 164
118 56
29 215
139 21
110 232
252 108
70 154
81 50
121 208
111 31
133 12
146 77
46 218
124 213
254 122
66 92
213 114
51 36
159 31
171 38
38 238
172 230
208 243
185 68
200 79
49 203
189 13
47 245
148 205
16 209
186 202
137 117
189 78
157 114
94 208
67 249
110 61
165 175
147 219
224 75
231 9
183 38
206 186
199 224
220 79
197 1
35 247
114 200
225 165
52 54
191 137
200 16
97 145
3 65
181 217
29 223
254 93
154 122
82 21
114 244
254 127
6 111
255 188
228 188
129 94
254 199
116 170
78 11
94 163
198 67
187 44
158 188
159 40
30 63
233 161
138 168
169 239
212 43
228 229
67 183
51 8
12 71
90 244
254 33
127 151
66 9
188 54
88 83
154 128
255 248
144 2
55 162
78 16
69 211
48 26
92 152
39 222
254 118
55 144
205 49
181 195
22 64
192 226
192 217
133 163
31 102
201 68
128 212
68 137
18 163
9 138
175 103
188 161
220 85
222 72
221 58
41 180
75 114
147 251
151 190
252 99
195 156
106 65
15 214
199 245
220 229
206 131
47 232
116 105
168 212
197 145
164 61
229 128
52 157
15 67
143 238
156 49
157 31
95 173
115 52
171 189
178 124
13 153
226 48
158 47
71 154
88 108
178 122
235 114
253 128
209 82
66 94
105 147
80 38
77 179
172 188
144 110
188 204
127 167
59 76
101 19
148 231
239 34
147 150
140 249
79 23
234 133
134 244
249 84
106 80
54 67
81 158
182 100
31 215
106 117
40 176
250 50
120 232
190 100
92 14
10 196
233 121
137 215
121 199
72 146
178 112
120 90
96 14
122 49
180 88
72 115
254 60
58 68
72 55
248 196
176 47
72 58
69 134
224 142
188 187
247 147
70 86
24 193
17 70
105 193
95 138
114 163
132 118
227 244
69 152
137 142
92 229
228 119
247 79
60 186
67 154
120 132
93 152
84 106
73 64
154 184
154 174
67 18
178 37
188 105
7 241
115 132
147 242
217 69
110 78
206 238
99 177
214 100
26 167
241 99
135 7
200 29
124 54
55 90
131 139
136 230
156 109
243 179
140 177
183 98
96 165
199 174
184 49
102 64
192 59
60 18
30 113
35 163
188 178
129 86
163 26
155 180
29 160
29 42
244 202
25 157
224 237
246 213
206 115
147 128
30 33
91 227
133 250
178 108
60 50
230 23
87 67
119 177
62 210
73 91
232 179
238 61
169 223
120 92
226 43
55 159
142 135
159 122
72 217
167 145
102 243
254 129
148 178
49 167
105 251
120 32
163 49
14 235
231 48
46 137
118 112
194 149
97 172
97 150
205 36
57 154
149 48
163 140
15 193
85 239
11 123
247 23
48 51
120 18
42 227
174 196
191 11
106 23
147 104
155 159
232 68
145 174
20 244
242 156
7 246
114 47
131 32
147 152
14 105
139 29
209 22
178 96
70 127
178 252
49 78
82 124
143 217
163 142
199 236
139 15
113 143
4 7
224 232
217 13
200 250
246 67
142 43
86 36
68 112
192 17
251 225
232 137
96 125
227 95
129 233
94 37
101 254
70 179
168 2
96 57
178 73
72 15
243 226
91 67
92 220
233 217
151 248
182 140
154 20
36 197
83 134
199 244
100 114
247 145
35 127
201 86
223 12
141 209
131 77
130 30
165 218
206 93
254 236
185 79
60 224
133 5
103 198
55 4
6 221
32 111
178 6
249 153
126 42
86 94
231 125
12 139
194 180
221 86
31 52
120 25
58 105
78 118
38 164
19 90
255 131
140 118
185 104
79 55
230 174
132 117
1 122
52 56
73 177
74 15
47 227
182 143
191 207
66 120
74 206
209 251
156 124
62 221
188 31
177 101
49 74
238 199
252 35
181 25
42 163
20 3
29 79
77 176
217 140
218 155
18 93
137 69
7 243
8 192
144 4
134 203
42 149
178 128
27 239
163 38
42 94
160 49
154 64
166 105
146 251
214 11
78 62
118 25
226 1
41 178
105 135
208 130
25 68
203 95
102 156
40 63
129 230
171 52
42 233
115 174
160 57
145 175
1 123
206 107
206 177
163 55
49 231
11 76
142 89
221 247
94 244
49 71
131 129
73 233
131 122
220 144
32 229
133 225
103 70
129 98
211 186
75 54
188 62
147 215
83 222
167 5
143 103
235 73
208 114
117 83
193 233
161 33
162 152
93 33
102 14
72 59
125 238
226 22
129 48
162 62
172 132
111 233
3 138
64 251
226 160
174 175
76 23
211 65
169 12
249 178
186 141
121 61
115 69
116 50
254 55
198 251
129 112
248 73
65 131
233 3
169 25
120 52
135 126
4 10
49 48
200 189
147 164
164 46
120 6
57 147
1 34
198 2
126 159
215 9
224 63
181 84
13 1
69 47
173 245
31 11
22 178
101 20
171 157
220 38
178 97
47 44
34 18
175 254
136 247
177 133
130 215
232 170
101 35
26 83
121 126
220 12
169 32
8 71
113 238
22 206
183 2
56 53
160 44
27 187
31 12
7 94
104 160
18 188
195 15
83 95
209 34
232 165
186 209
186 193
250 186
145 123
16 240
152 50
11 108
255 71
201 64
134 101
36 198
116 55
181 193
49 132
162 140
255 186
225 234
27 20
166 56
81 112
130 128
251 184
52 48
239 94
99 217
55 151
144 133
215 105
83 157
74 158
82 121
115 127
225 218
131 15
154 187
130 49
60 201
36 123
179 213
117 192
214 181
54 220
135 93
183 168
101 235
216 254
158 185
88 11
220 49
2 129
64 125
242 85
191 61
82 100
208 193
209 210
7 34
17 168
200 28
94 203
59 80
73 82
127 63
93 101
255 138
235 188
241 50
229 131
115 254
155 13
25 102
137 107
208 157
156 89
239 74
199 9
90 203
21 166
64 110
105 27
22 254
124 98
205 155
171 64
143 22
208 181
66 72
152 244
164 129
89 61
200 233
196 249
60 162
108 28
65 94
137 84
178 191
212 13
220 42
33 237
250 101
200 206
156 164
171 133
51 217
187 15
14 82
75 1
164 16
206 197
211 32
7 145
104 58
218 243
112 211
121 55
137 96
191 216
169 6
74 84
92 94
55 23
249 132
46 231
26 43
170 78
18 78
167 186
220 208
171 2
160 69
64 169
155 72
236 94
155 11
72 237
83 100
52 83
243 144
109 12
74 100
29 229
242 109
187 29
218 234
16 226
6 90
142 146
191 53
178 19
153 80
143 210
26 202
142 106
31 137
141 73
160 128
127 105
214 212
229 15
7 65
75 248
19 187
192 179
2 222
94 111
152 233
215 140
120 126
119 111
84 8
30 171
83 107
212 33
169 175
156 86
84 197
130 16
30 161
110 224
102 121
132 179
45 82
233 136
65 119
3 31
194 13
86 113
31 228
168 184
154 172
101 133
84 151
117 96
156 83
25 17
126 119
123 8
4 189
27 221
196 121
221 236
8 226
175 113
98 148
76 67
175 107
3 42
146 155
210 155
63 158
203 42
174 186
172 86
30 167
187 120
214 30
73 113
182 249
23 65
236 136
74 70
31 42
152 35
220 209
39 88
209 7
199 231
18 180
161 253
243 128
19 51
188 145
231 163
220 88
121 36
27 152
71 188
116 67
114 139
57 60
110 142
175 34
199 64
42 200
200 125
185 7
203 121
84 34
32 208
49 31
167 224
220 35
112 97
15 30
115 183
70 117
136 160
250 47
72 83
247 255
166 144
221 37
188 221
238 17
213 194
239 25
7 142
139 242
13 241
98 122
81 26
25 114
255 112
151 106
96 164
132 164
138 201
196 67
111 173
178 123
81 14
190 218
32 160
84 83
156 24
145 50
118 51
7 234
60 55
76 164
251 114
95 244
103 49
166 122
177 172
90 186
168 122
235 244
30 254
84 178
210 50
221 112
124 233
143 203
118 223
72 123
163 71
37 126
98 9
252 26
154 159
115 54
29 86
147 199
131 186
156 222
67 70
40 116
219 173
15 103
163 198
112 103
173 235
72 226
113 38
164 121
101 86
62 172
94 26
75 35
208 55
236 145
99 113
79 255
126 250
57 65
97 133
194 243
96 74
167 46
193 69
67 90
77 216
210 147
241 111
203 60
181 179
9 122
211 20
201 104
95 131
80 233
253 67
155 184
160 186
53 100
114 106
102 90
71 230
186 251
73 221
114 186
84 72
231 103
81 228
51 164
5 150
49 131
2 26
86 41
54 9
136 223
201 199
100 232
224 229
248 155
225 180
193 219
35 160
204 13
60 239
197 224
27 128
215 139
44 230
135 229
186 199
238 239
43 137
198 4
146 52
254 151
162 116
246 122
210 141
118 249
231 209
254 124
82 143
2 42
96 142
97 143
12 155
116 168
137 89
234 238
47 93
48 210
48 153
210 63
176 25
232 128
34 203
229 26
155 118
63 248
71 203
250 220
154 232
102 230
15 185
225 112
173 66
24 13
102 231
224 103
41 146
127 152
110 149
42 23
20 72
46 87
60 90
194 242
10 139
250 170
31 89
205 93
169 202
140 61
47 27
232 243
25 231
118 168
224 222
246 225
152 228
95 71
31 65
114 84
35 213
112 194
15 203
175 90
104 186
210 192
163 21
118 147
51 208
239 229
140 51
76 114
141 212
44 155
244 6
255 191
220 164
157 151
22 159
38 182
9 15
214 128
72 41
137 172
109 160
233 44
210 163
223 95
200 219
210 51
177 147
186 150
203 3
38 129
70 89
18 181
129 143
85 72
67 27
14 54
103 218
93 45
180 5
139 193
180 150
108 198
9 252
121 8
77 96
106 167
181 113
127 113
137 7
121 239
168 178
74 172
46 9
203 132
98 117
248 175
207 50
80 73
55 217
96 177
83 105
254 154
61 56
106 131
31 145
196 143
188 47
131 90
75 103
203 213
2 107
203 62
105 37
229 136
219 188
191 120
228 255
139 93
115 234
89 125
89 161
154 218
127 2
36 120
205 87
139 199
50 119
101 228
1 214
159 83
55 67
233 160
238 217
241 168
223 83
132 209
128 142
222 237
175 204
223 73
178 118
130 39
135 208
224 62
101 187
128 208
66 255
11 199
204 237
209 121
18 114
120 189
178 137
84 172
24 87
190 5
26 105
219 178
173 193
127 165
173 128
248 152
209 99
229 47
52 174
70 156
156 79
132 213
3 176
232 61
135 112
190 70
164 86
179 145
117 164
204 87
68 142
51 224
150 106
154 59
200 97
36 18
118 64
79 116
77 205
200 201
216 71
85 94
17 178
213 2
55 125
42 127
212 130
153 100
128 209
238 75
95 40
182 43
185 250
154 15
251 215
34 49
36 56
141 80
113 189
251 82
240 191
175 122
121 65
35 188
157 64
172 25
189 97
217 127
69 185
71 142
42 26
186 58
16 76
243 133
120 63
217 26
3 15
130 17
204 76
199 132
147 40
183 33
166 137
238 220
86 153
15 75
12 50
25 26
153 150
253 45
255 152
25 175
148 75
142 38
245 6
24 28
62 6
216 156
93 168
25 209
55 196
138 169
149 248
155 106
76 10
145 37
240 252
154 160
172 21
33 246
72 152
18 105
231 144
123 120
6 223
148 139
93 175
188 185
82 55
162 76
110 200
50 242
129 121
26 44
117 234
42 16
138 223
160 34
218 56
241 18
121 175
26 249
154 8
114 194
105 142
233 115
117 123
183 206
172 26
149 172
86 42
205 203
245 126
74 56
201 91
152 219
3 140
144 28
209 45
195 26
76 22
34 112
245 210
12 160
221 32
221 103
190 106
122 123
14 57
91 134
95 232
46 52
14 44
139 132
134 102
12 86
131 8
110 42
235 40
68 244
225 38
48 72
37 109
246 200
105 42
240 254
242 95
10 232
159 145
183 172
228 50
7 169
234 196
18 54
79 112
65 63
232 102
217 164
192 140
120 229
52 97
219 229
123 67
207 186
115 17
249 206
129 72
215 96
185 71
174 144
10 105
66 78
111 50
1 52
227 147
238 16
3 120
175 127
66 160
53 175
173 239
81 178
87 99
16 153
139 146
9 121
163 30
233 34
213 53
192 123
21 22
248 76
42 109
27 37
242 104
48 248
252 222
40 154
224 150
228 187
15 122
243 125
253 11
154 66
168 125
159 80
36 190
159 81
89 96
96 9
55 13
5 155
183 64
167 165
66 245
144 39
45 144
247 176
45 67
140 10
118 46
153 237
105 236
230 159
237 36
74 167
213 205
93 231
51 86
169 62
42 49
177 95
196 214
212 164
156 131
218 204
173 79
237 28
29 68
127 48
193 140
38 102
192 13
125 9
72 7
178 151
186 159
115 60
254 157
178 106
126 76
5 172
155 206
195 222
228 233
127 135
201 172
38 67
37 97
142 34
220 255
150 96
64 177
33 154
31 50
86 139
203 103
140 208
236 193
63 81
167 130
184 175
7 52
86 63
151 30
94 79
87 191
210 80
95 129
126 220
12 68
140 129
33 96
100 77
107 166
60 196
150 243
125 70
231 212
186 17
239 90
64 202
252 125
184 28
214 220
229 66
23 133
128 192
118 174
111 223
81 154
53 226
14 32
199 100
103 93
163 106
66 207
170 3
27 175
74 139
57 71
101 111
3 207
73 169
181 248
213 251
73 77
203 229
66 126
201 173
98 96
46 145
59 39
87 84
47 186
199 92
132 41
114 202
8 22
117 61
36 16
173 104
139 191
100 96
74 111
97 213
105 154
150 174
23 162
77 203
243 84
188 40
14 254
161 141
192 4
247 19
204 156
35 7
37 9
208 199
158 126
164 15
175 59
124 161
226 67
73 98
116 254
213 80
6 128
192 189
176 210
2 125
180 83
233 37
239 147
29 134
10 8
53 144
175 179
178 93
113 184
208 120
51 105
164 24
84 120
175 196
229 94
198 11
102 24
204 38
121 215
193 99
33 11
167 178
94 114
239 110
222 112
170 223
158 29
228 133
51 254
64 221
138 235
68 242
58 62
241 202
255 14
2 243
31 57
120 247
236 244
148 149
89 45
250 207
236 227
56 156
165 213
35 175
166 103
19 116
163 232
164 175
35 159
223 55
140 85
122 94
165 251
144 117
138 23
213 193
103 26
211 72
114 108
19 201
127 171
165 146
129 191
68 155
5 243
83 57
164 169
51 197
152 111
239 92
81 152
8 115
208 50
76 174
233 162
36 112
198 161
1 61
74 36
174 112
25 170
221 140
85 163
151 25
181 163
245 244
125 150
123 165
120 222
54 48
136 235
127 55
128 159
203 221
210 254
34 246
58 7
33 148
224 216
208 229
28 84
137 14
134 202
102 30
55 76
155 33
227 221
178 78
37 163
89 231
248 79
143 134
220 199
217 52
110 248
253 89
155 245
56 238
71 128
63 64
10 18
175 137
194 87
68 114
14 25
145 45
60 205
31 109
60 158
121 178
199 87
107 13
223 35
74 144
236 147
135 211
145 224
166 140
6 102
161 192
116 32
44 74
234 120
212 220
105 6
165 84
211 236
134 77
148 36
196 222
140 205
143 2
137 177
64 193
128 255
78 152
106 137
76 166
211 55
156 74
111 83
14 74
229 121
155 186
107 18
233 30
197 43
100 248
18 86
76 215
131 200
2 24
78 83
34 16
221 109
213 9
220 231
128 144
253 212
180 80
37 83
147 241
26 99
221 130
34 118
46 128
199 187
5 4
10 83
35 155
158 102
108 149
72 127
17 114
74 250
3 223
85 62
141 108
29 173
97 20
102 177
46 136
15 44
209 174
126 25
182 132
129 114
132 90
185 244
139 70
189 181
110 49
70 8
179 122
58 154
206 166
94 119
60 221
124 199
188 28
194 82
97 141
102 193
38 64
157 231
217 194
139 63
123 16
36 243
133 41
64 7
34 164
242 112
111 230
141 125
177 227
52 103
157 82
227 135
91 23
60 128
130 218
121 56
159 111
37 187
163 22
148 24
42 183
122 74
58 236
175 89
253 153
128 230
229 34
49 120
193 224
143 251
141 70
26 98
179 78
83 106
209 156
127 81
204 161
211 255
22 115
101 239
167 159
91 65
210 226
81 134
175 51
155 48
69 177
25 191
48 15
158 232
53 194
111 72
221 194
241 193
74 38
240 144
42 37
26 212
25 145
224 172
90 147
213 82
55 99
24 70
8 13
17 105
176 178
136 152
188 174
136 103
11 146
179 165
94 140
128 217
160 245
176 186
154 181
150 172
178 120
165 114
25 228
217 193
30 232
37 168
150 165
251 127
9 234
127 118
31 216
58 47
81 211
43 127
157 7
24 9
166 49
209 8
208 45
174 210
126 86
46 233
95 134
34 116
133 51
13 218
137 131
226 151
211 155
206 143
213 69
181 246
133 191
255 140
198 181
112 99
67 167
37 199
118 130
170 255
64 112
87 16
11 26
28 53
90 202
246 114
246 100
237 209
141 214
61 167
68 81
118 76
144 41
70 215
63 169
99 59
74 187
64 144
64 14
215 129
216 79
146 246
248 7
11 106
127 134
63 130
233 139
110 86
1 128
220 120
68 3
202 78
49 99
24 232
36 143
222 13
159 224
174 232
70 56
70 157
110 11
79 68
218 197
217 123
102 41
218 224
80 107
240 196
191 70
240 98
184 61
113 215
199 25
11 204
155 115
27 210
50 247
76 109
159 220
233 35
144 168
129 113
108 55
49 70
185 247
27 158
71 14
201 221
129 25
57 118
16 137
201 219
241 235
97 181
100 56
164 28
76 106
87 140
230 62
127 232
160 4
5 63
14 8
209 175
12 127
244 50
202 207
164 218
214 33
192 75
159 249
115 2
92 242
213 49
230 105
146 175
11 211
108 150
199 178
61 38
159 191
125 25
193 20
112 220
119 200
186 238
93 246
107 38
252 13
9 120
185 203
9 211
130 174
74 125
133 121
15 66
122 72
114 170
132 151
130 182
227 57
194 146
162 35
110 115
199 95
237 52
222 157
184 133
71 2
48 63
161 191
244 85
110 134
48 128
25 42
83 203
197 114
152 3
174 61
238 30
6 133
243 73
102 113
36 17
115 238
97 188
210 244
86 133
151 249
243 151
156 165
242 44
3 199
31 125
133 154
130 51
118 239
81 7
76 194
1 145
13 113
119 178
198 1
94 126
154 35
7 154
199 44
22 107
163 160
177 220
195 254
207 14
45 140
132 44
125 106
63 41
130 183
197 253
71 112
131 152
223 187
228 202
229 106
97 176
80 48
15 217
76 240
142 231
50 235
29 202
11 63
19 7
203 142
177 27
72 124
234 60
152 211
19 63
29 111
57 72
199 68
73 247
131 31
98 34
35 83
9 75
210 128
141 56
157 130
87 93
96 103
29 63
83 11
47 92
102 12
68 177
63 68
104 27
33 123
156 118
146 117
74 161
249 184
220 41
185 50
191 236
214 4
205 34
244 160
224 71
101 97
52 86
64 87
215 161
169 207
121 14
200 32
147 191
102 74
132 95
238 97
181 38
160 90
125 213
133 203
214 251
234 49
134 14
177 210
232 105
99 253
176 83
197 220
5 196
239 54
102 89
78 122
155 192
199 50
77 248
126 176
191 142
188 59
126 35
64 146
224 128
101 63
52 200
107 67
130 175
76 139
95 79
134 92
235 77
163 209
72 157
78 251
67 233
55 134
136 142
173 101
72 65
25 73
197 18
175 199
208 91
111 14
98 128
66 102
154 101
142 177
195 61
189 89
139 37
125 127
26 251
221 186
74 72
158 6
232 14
213 215
231 4
57 76
128 205
49 129
161 68
126 26
176 155
241 45
254 182
164 160
248 42
47 152
67 190
207 104
119 96
107 238
105 120
77 215
77 125
194 212
148 174
139 71
249 175
182 146
196 22
150 240
31 168
95 160
33 133
178 45
46 60
145 122
174 85
87 150
19 208
34 141
117 103
158 94
88 106
65 58
223 27
243 221
85 20
9 116
222 197
192 103
190 38
195 192
47 233
183 88
217 237
195 1
142 240
167 209
203 73
72 156
89 26
140 123
53 174
56 165
140 35
229 134
163 251
182 52
134 119
191 233
42 191
160 60
31 175
253 113
62 199
97 192
11 114
162 29
199 86
159 36
232 156
128 139
101 32
54 69
184 35
25 131
49 17
233 26
84 118
217 121
62 106
153 110
246 203
59 118
252 70
67 33
241 255
231 41
125 220
230 109
201 131
72 128
55 8
112 125
114 159
239 37
243 139
121 191
231 10
8 50
110 15
223 199
16 60
112 105
188 25
5 102
106 25
142 116
61 183
1 132
188 234
178 147
49 254
36 238
93 144
243 56
148 197
79 245
206 194
251 42
143 174
28 13
205 159
193 160
85 93
34 89
97 137
235 44
141 39
175 54
21 77
162 136
175 205
58 216
83 214
160 221
196 163
200 45
208 223
14 131
20 186
87 1
158 72
239 48
73 186
255 58
229 173
232 144
248 204
9 216
161 132
205 25
134 208
16 150
48 125
129 242
8 87
77 234
239 202
196 184
198 157
139 198
165 206
152 202
16 181
180 183
93 201
248 93
127 93
126 207
244 27
252 113
72 151
68 15
156 213
197 208
143 77
112 91
64 111
203 232
161 166
168 15
11 96
57 97
159 254
200 214
146 241
172 141
196 106
152 46
172 202
81 203
240 24
168 242
140 40
89 217
176 119
238 198
179 8
234 96
246 199
197 8
26 65
130 193
85 3
209 69
105 32
142 206
94 78
93 55
25 122
10 51
24 251
177 153
70 166
183 128
26 156
5 225
35 183
70 180
134 176
104 244
87 161
234 16
232 233
223 201
44 156
112 138
228 236
2 123
199 74
50 215
46 209
178 166
142 248
220 245
11 50
60 19
65 14
55 231
6 71
233 97
181 115
50 155
245 158
52 136
96 55
129 73
127 145
225 209
136 91
200 157
143 26
121 143
57 219
111 26
203 48
129 189
107 168
197 132
225 220
133 173
64 149
17 251
197 122
157 189
91 92
178 115
191 50
246 83
55 168
228 159
218 49
128 93
112 59
87 141
209 18
219 168
44 202
5 203
7 31
132 78
146 49
105 71
117 52
116 157
183 52
169 29
162 6
226 168
107 60
124 43
72 131
18 74
178 88
252 177
32 114
107 70
26 196
239 201
48 29
197 94
122 167
220 233
86 23
206 150
248 8
101 27
121 183
55 154
107 234
121 115
9 168
93 247
216 127
218 121
159 49
168 106
166 26
16 89
131 87
121 46
41 18
71 9
248 111
194 164
176 81
228 94
120 181
206 168
223 40
104 199
50 18
84 54
50 159
20 199
44 96
191 248
197 88
129 142
139 27
18 140
70 15
145 215
145 218
11 163
2 121
188 243
245 133
25 164
122 231
15 160
11 243
123 76
141 192
234 155
245 152
197 231
77 25
22 137
52 166
134 54
244 7
4 246
127 243
194 181
130 107
147 233
58 135
162 67
182 232
113 75
252 43
102 118
5 36
169 254
155 166
121 42
194 36
106 133
143 155
97 27
76 119
149 225
22 121
18 15
206 220
121 125
136 134
154 146
86 72
174 180
96 35
159 119
32 35
96 123
229 150
178 52
15 166
205 137
152 6
213 19
133 85
23 14
54 208
89 77
95 90
183 113
15 242
131 116
130 42
97 218
18 178
129 30
100 205
15 255
232 39
73 173
55 138
251 48
46 72
32 227
15 121
77 133
147 208
193 83
83 43
229 193
176 23
164 30
132 187
72 232
73 133
208 109
215 173
63 126
3 185
5 214
206 163
182 251
210 205
131 92
233 45
78 247
111 220
131 50
18 150
244 66
35 14
225 67
194 154
122 151
52 159
203 226
110 152
3 23
254 28
187 177
89 237
26 155
188 215
78 228
107 115
78 128
103 25
76 200
125 73
153 43
232 58
236 111
211 203
147 19
225 121
97 127
137 80
24 18
4 88
120 167
10 99
46 239
196 54
114 203
115 42
96 225
144 22
213 51
97 45
53 11
50 109
50 62
160 241
223 19
239 66
40 193
154 82
76 88
94 187
96 39
69 121
109 244
198 61
210 173
202 58
42 106
81 239
244 57
5 83
64 49
188 107
7 140
191 79
22 13
112 73
106 81
247 173
116 126
230 201
255 219
186 235
217 17
192 11
150 154
226 225
238 181
172 238
117 38
86 97
17 129
140 26
166 226
18 221
251 254
190 88
138 134
1 24
103 54
231 241
189 128
243 103
17 73
182 75
221 228
218 106
174 146
228 86
38 10
85 132
136 109
242 42
118 49
144 84
72 31
169 9
181 199
188 254
163 44
164 189
10 143
231 246
46 200
169 176
102 181
139 149
19 245
120 161
86 45
116 231
121 97
27 201
203 154
46 49
100 194
66 202
227 239
77 124
34 154
245 42
41 116
101 55
55 119
49 251
62 12
20 229
106 145
247 170
144 46
222 46
225 213
27 185
25 58
239 242
159 132
158 67
86 173
180 177
205 82
190 74
109 177
181 105
157 45
48 71
107 225
183 96
163 203
213 209
156 75
149 164
106 112
112 49
72 25
88 181
63 138
254 207
112 201
254 223
214 106
91 172
71 60
89 214
112 166
31 18
8 64
230 86
30 142
212 53
140 27
241 10
220 44
252 141
62 176
116 93
46 11
239 40
215 103
167 16
4 112
3 78
120 93
56 54
102 132
160 68
129 181
191 72
245 92
99 39
127 46
90 227
195 214
69 234
248 16
90 101
195 103
199 72
102 157
74 22
118 250
205 166
243 68
146 17
189 75
120 80
6 168
45 182
17 224
107 174
137 34
213 177
48 247
167 52
20 203
250 139
174 171
117 222
233 204
139 42
75 100
70 189
132 24
29 23
38 210
64 158
203 50
205 83
248 218
201 197
21 220
67 155
110 161
217 139
163 136
154 3
208 198
160 138
45 142
143 168
214 73
202 232
46 115
206 231
135 32
10 154
210 64
133 193
163 87
109 132
246 88
77 206
68 72
114 116
106 20
249 154
18 154
140 183
234 171
82 217
208 209
106 194
248 120
20 227
242 46
137 41
216 57
210 97
223 47
7 233
226 114
73 149
146 243
67 217
97 251
138 60
159 213
86 197
246 159
174 245
71 115
174 26
246 102
236 95
113 42
64 90
167 31
42 236
83 170
25 48
5 39
92 232
174 181
196 194
63 105
32 223
235 6
110 203
194 240
158 3
46 166
172 93
19 105
32 79
144 35
141 86
220 91
223 219
118 219
252 231
199 118
55 177
238 114
245 242
249 252
79 102
43 113
220 128
64 162
126 221
175 148
231 183
60 62
221 138
99 143
148 100
224 129
227 169
15 172
11 40
215 155
48 11
85 223
4 157
165 128
59 212
153 204
194 144
154 76
95 127
10 179
80 87
167 237
69 174
158 104
164 152
220 110
66 228
73 101
28 183
174 158
179 150
241 75
24 106
3 235
41 159
69 239
177 201
134 111
37 95
73 254
73 204
78 230
92 211
115 149
188 133
19 133
169 228
174 36
251 2
146 208
149 231
23 112
4 132
5 22
143 249
191 194
26 240
128 80
129 101
62 248
130 239
191 192
116 172
252 112
58 79
201 109
236 7
255 50
86 144
219 44
219 109
186 225
100 198
42 193
191 223
134 93
246 186
204 150
86 13
177 179
24 83
96 63
70 175
143 110
163 172
210 125
226 88
49 72
36 84
221 147
128 117
60 227
26 175
118 226
193 78
208 136
231 253
116 30
229 178
221 129
52 168
133 142
46 69
141 189
73 200
31 214
186 35
42 216
178 201
38 88
52 224
134 12
163 31
245 197
61 33
169 229
79 229
21 171
116 209
4 182
198 75
157 118
36 69
5 82
245 207
42 186
110 198
176 109
246 192
120 182
10 72
118 197
87 52
127 120
73 193
224 8
90 247
216 40
186 240
145 139
172 244
108 61
221 152
21 167
33 114
205 206
232 228
15 205
127 41
142 35
11 246
239 255
249 10
108 35
107 205
72 254
243 197
9 172
63 36
224 102
134 94
113 150
175 129
202 109
66 57
123 254
99 171
31 51
173 64
16 206
129 31
74 254
162 219
1 220
62 220
172 175
189 218
29 44
176 95
231 96
206 179
197 230
17 41
116 203
86 211
111 162
97 66
73 9
156 143
168 177
164 202
251 167
25 207
235 176
46 75
71 201
42 48
104 19
175 240
235 19
103 154
66 74
159 144
12 173
40 68
220 27
105 49
172 42
160 20
63 173
37 96
70 163
83 155
46 213
164 206
107 97
57 158
70 48
248 32
40 65
99 225
92 142
112 66
41 14
61 112
207 47
212 48
59 10
214 35
166 24
15 123
51 53
242 158
140 147
254 185
2 103
39 42
28 232
68 93
227 63
140 226
105 93
77 145
245 223
116 141
34 9
180 72
2 234
156 3
210 122
255 130
93 250
189 1
162 112
11 21
161 38
72 140
130 184
31 200
131 223
132 208
186 143
254 225
5 121
152 14
128 56
80 190
212 110
221 44
93 63
3 11
235 85
251 145
172 164
117 157
241 172
89 239
4 210
11 126
209 199
204 35
218 87
208 126
78 4
169 105
120 67
9 5
175 181
159 135
115 123
57 11
241 232
53 22
17 120
33 175
229 230
134 120
45 10
73 122
11 134
93 111
59 28
231 100
246 42
156 231
17 167
239 205
197 236
148 1
94 202
62 185
52 155
220 6
99 167
177 175
167 180
120 20
203 14
90 12
4 26
227 105
128 84
131 41
87 128
254 35
147 116
120 110
144 9
192 10
178 159
255 193
121 17
14 85
140 131
136 251
56 159
154 226
248 177
49 115
99 34
103 133
206 178
69 110
92 244
162 134
18 189
92 230
122 96
170 19
194 108
50 139
213 67
216 169
180 59
189 184
74 106
91 94
42 176
54 112
196 86
49 25
233 151
156 36
172 87
230 14
63 199
65 254
186 201
224 192
141 100
211 154
122 86
53 113
161 82
218 148
163 51
132 101
207 120
168 246
200 128
50 221
229 213
83 41
213 152
62 35
193 58
42 62
25 83
153 226
248 232
48 164
89 246
90 185
31 150
237 191
25 223
228 19
22 93
67 71
125 172
197 116
111 97
131 64
196 165
63 69
25 137
171 237
83 194
75 39
203 238
248 165
74 87
213 142
19 95
251 156
249 142
182 193
160 65
34 243
189 54
101 122
89 8
210 187
76 111
8 53
30 168
16 141
144 204
192 120
219 122
68 238
135 158
117 118
55 142
127 88
19 221
40 129
122 35
128 22
226 98
87 39
159 53
228 111
121 155
15 182
119 90
197 76
6 67
187 109
26 181
254 248
85 7
158 42
85 40
143 179
169 94
225 9
209 51
215 15
14 50
207 244
234 110
76 130
167 64
159 29
145 61
168 117
105 207
48 238
251 38
28 56
74 186
238 179
255 118
132 188
33 182
38 144
77 55
111 154
196 160
93 239
160 203
70 36
220 114
183 99
135 106
109 169
35 250
56 24
223 92
62 71
208 235
4 114
133 239
134 175
233 170
31 193
41 107
72 102
210 251
52 198
218 153
7 138
235 92
80 200
57 247
159 163
176 245
146 97
52 55
120 41
41 248
234 46
172 95
163 177
7 57
167 205
114 82
77 52
50 125
44 92
121 25
216 112
52 93
208 216
12 25
111 207
252 218
66 121
232 197
57 40
21 238
168 189
157 121
134 147
241 70
102 82
20 55
175 251
124 2
72 251
36 113
209 190
57 64
217 251
241 132
118 115
200 152
147 92
15 76
25 222
66 114
254 143
60 131
19 135
242 185
231 73
129 128
116 97
181 61
204 39
159 125
116 7
82 165
135 94
53 118
38 84
216 6
130 84
55 103
29 97
34 132
138 185
86 2
65 187
93 136
51 182
21 38
47 105
105 141
172 232
178 244
146 48
6 229
233 105
54 242
34 193
167 175
75 191
150 249
185 227
217 73
178 101
31 108
18 30
105 192
60 22
17 239
156 252
145 137
164 63
139 208
80 61
159 130
232 2
121 149
224 209
248 83
62 186
247 15
149 242
217 213
47 116
204 5
168 74
101 232
183 31
37 85
71 31
255 37
64 31
4 36
155 197
193 205
164 35
181 159
106 143
189 150
210 61
128 244
234 154
59 1
133 105
12 244
248 129
209 194
82 179
174 160
155 209
58 175
67 2
35 167
204 88
184 118
35 239
193 243
255 103
8 18
127 83
120 107
209 149
110 251
188 33
88 24
178 31
134 65
83 133
19 142
129 234
5 160
154 5
7 245
177 129
97 191
150 205
103 156
242 60
137 154
194 179
89 224
69 172
134 228
200 130
35 119
164 246
139 142
37 152
159 190
185 133
186 6
197 103
203 165
67 250
186 232
161 214
143 205
41 112
120 50
225 10
167 134
190 41
200 74
243 159
11 153
94 71
177 114
76 217
183 100
49 150
223 229
170 202
135 255
188 118
226 77
110 96
114 151
214 130
207 156
63 226
42 228
128 127
139 5
189 55
254 189
120 83
252 198
211 140
144 214
226 31
129 75
52 255
60 178
100 189
102 110
57 163
194 226
21 34
132 36
218 142
166 78
224 233
249 33
117 195
251 157
182 196
31 186
126 174
169 58
145 217
82 233
106 97
5 193
188 110
202 95
9 184
18 252
248 231
143 139
194 107
221 87
197 172
150 159
159 106
128 105
19 248
252 64
100 168
134 96
145 72
28 195
218 171
114 112
223 79
217 175
44 142
51 108
186 145
50 233
36 139
23 158
107 121
86 74
218 110
93 207
168 126
189 180
171 75
7 141
123 39
105 152
78 19
189 190
24 195
186 94
15 55
128 16
140 93
226 206
65 50
129 132
35 86
217 205
129 216
208 218
17 191
139 87
255 76
86 46
41 194
229 142
78 115
125 251
2 164
21 240
193 245
73 228
165 99
125 246
155 199
128 47
68 234
55 213
26 132
191 197
175 188
32 42
221 92
32 185
54 11
93 191
29 60
73 128
222 198
122 139
128 193
220 133
147 112
95 62
234 215
16 193
116 130
133 67
255 221
241 141
237 121
190 56
167 247
106 33
154 73
53 252
12 40
85 55
164 47
46 116
78 172
180 4
244 223
70 143
220 236
86 4
71 221
94 74
143 33
136 104
78 191
120 69
153 182
207 235
139 245
220 93
203 147
224 174
219 242
191 228
214 99
42 15
86 92
37 172
245 81
233 110
131 203
215 163
112 158
78 156
106 129
20 221
3 81
211 158
191 136
233 244
255 242
105 163
192 113
174 203
158 223
145 69
142 114
114 120
121 220
105 20
76 140
3 119
11 181
220 36
222 220
161 163
77 204
60 95
247 154
158 250
208 60
91 26
82 115
200 180
41 13
62 81
158 111
80 11
245 136
97 125
245 32
132 224
95 73
142 48
158 201
159 169
42 196
215 102
5 105
162 131
94 23
228 7
168 96
247 207
175 247
171 80
140 96
56 123
65 136
156 249
77 185
242 221
162 133
150 203
187 31
87 11
20 78
134 86
186 93
114 216
167 208
18 84
94 11
185 223
13 34
181 2
69 6
201 164
97 134
133 48
31 136
197 135
15 86
148 48
240 174
12 193
153 165
17 60
230 90
27 11
190 42
91 40
211 74
250 202
137 72
238 165
122 114
167 116
209 38
83 132
200 220
104 119
68 69
160 63
152 12
6 176
90 223
117 80
215 36
196 215
120 19
205 130
135 138
216 73
2 68
117 125
216 245
57 129
29 15
72 215
255 207
245 37
127 112
174 236
2 175
193 158
77 188
248 197
97 72
160 216
79 236
174 91
74 164
15 54
184 194
146 151
35 197
242 103
245 27
179 172
255 68
172 180
225 232
170 242
175 220
233 10
50 142
106 161
251 14
110 175
159 64
93 5
119 23
163 34
178 32
89 64
154 140
221 68
123 129
35 33
233 102
122 194
72 8
229 71
224 55
26 34
112 26
35 79
151 165
105 245
25 150
254 4
219 247
21 124
73 18
123 240
110 30
216 147
186 224
239 58
140 31
162 121
124 122
218 9
199 184
71 134
174 4
166 106
60 116
129 59
244 169
31 142
208 37
215 82
199 67
225 80
238 178
73 63
123 156
129 125
160 197
233 168
113 199
166 125
9 132
94 15
15 65
103 214
33 5
69 114
157 76
98 209
41 153
164 238
145 211
160 208
236 216
66 62
235 76
233 87
119 224
55 104
237 193
192 197
57 119
45 243
105 177
221 177
37 216
158 247
203 180
37 176
87 149
249 195
123 206
120 77
135 79
177 120
156 220
126 32
225 128
49 2
81 244
174 55
167 183
237 124
66 26
41 26
191 254
113 2
137 208
163 40
149 188
19 158
250 230
78 177
180 21
220 230
209 242
226 197
104 69
228 92
90 44
102 125
170 174
48 27
23 250
66 71
143 13
199 31
102 198
69 5
207 210
11 135
78 72
11 248
104 172
122 60
195 124
69 173
67 210
83 164
54 142
91 97
206 67
121 108
29 66
219 248
217 75
127 116
79 230
211 95
15 254
165 122
86 130
219 160
224 83
18 52
238 84
137 114
71 32
193 48
172 4
122 181
64 60
67 117
63 116
60 177
211 50
14 12
103 182
76 43
239 185
151 149
125 195
203 86
52 82
6 250
76 107
9 207
56 179
12 131
71 122
177 23
133 131
208 63
98 198
247 63
131 150
87 189
11 17
125 120
174 233
60 101
45 18
19 66
190 89
60 121
100 238
193 119
84 113
75 137
114 152
43 203
69 142
232 48
173 112
224 200
120 210
208 129
132 253
218 96
184 127
147 14
171 28
159 147
42 11
41 82
89 76
233 185
89 234
15 41
50 245
225 48
248 139
120 136
22 246
92 202
136 147
248 224
187 12
93 110
204 196
224 241
42 148
131 243
93 203
96 189
197 69
61 182
171 146
242 220
251 80
214 24
114 52
95 200
112 121
250 111
80 39
181 42
213 127
146 98
174 57
204 180
137 197
254 25
155 29
117 167
9 205
254 194
236 57
69 45
22 191
27 79
74 90
213 50
214 252
13 168
163 58
231 15
30 70
128 114
237 215
175 143
233 194
201 65
164 130
46 190
151 51
182 123
226 120
18 254
63 162
31 213
66 193
61 249
137 33
133 139
138 188
178 113
225 115
171 139
128 161
107 232
177 131
83 192
78 104
110 167
191 82
52 67
105 213
247 220
156 189
109 173
195 84
106 18
96 46
14 109
55 40
111 47
200 50
156 153
67 62
192 238
69 232
171 252
172 103
137 48
199 243
230 133
198 182
247 44
70 64
180 51
33 89
249 199
16 251
245 97
83 234
208 73
133 132
77 199
214 163
140 111
215 46
108 146
254 111
23 77
186 132
75 70
156 41
165 159
43 210
38 70
141 43
143 164
60 67
13 156
155 191
232 54
91 71
172 194
199 126
212 24
188 226
15 138
81 67
2 231
8 97
191 27
189 36
241 248
143 46
209 232
124 8
102 146
67 254
221 155
105 78
178 38
213 174
68 179
227 27
43 132
234 194
162 27
31 48
84 43
128 63
230 155
171 42
177 182
87 98
156 121
192 251
3 247
128 182
22 243
215 80
100 195
142 47
77 170
48 237
86 112
229 185
10 205
221 26
131 221
169 35
175 186
66 223
129 45
250 71
143 242
147 62
18 139
241 83
223 162
8 63
140 132
206 156
90 216
231 191
25 94
197 50
105 115
140 117
147 95
29 6
135 66
153 224
234 252
48 9
118 89
219 120
161 218
243 113
34 87
106 69
229 40
200 139
120 97
197 102
244 250
39 48
106 78
38 115
151 120
136 174
10 149
71 29
165 192
203 145
11 241
160 234
76 72
11 242
111 118
84 4
21 123
239 83
68 74
84 208
211 242
8 190
159 102
66 116
135 169
116 233
119 242
22 150
63 20
93 81
47 64
190 193
241 118
105 110
63 3
73 78
98 39
142 199
7 122
69 57
12 200
247 202
164 140
119 239
53 114
93 7
45 215
210 47
16 246
13 157
213 248
206 5
63 209
252 225
202 77
17 199
118 41
255 82
203 109
83 119
191 203
7 10
59 238
193 33
192 240
127 25
84 200
247 96
171 144
199 129
70 69
194 77
144 13
52 68
27 188
154 117
171 73
91 76
44 197
112 111
168 102
99 234
104 230
209 77
216 101
110 80
120 86
102 129
14 40
108 179
179 96
91 15
219 158
103 14
214 189
110 55
86 49
83 85
254 200
172 248
120 225
184 18
70 220
214 145
227 78
181 59
99 184
210 221
4 139
255 175
77 83
13 243
107 226
113 172
156 99
215 26
26 200
86 83
179 125
197 92
139 137
132 219
246 13
50 41
95 224
8 210
186 50
235 254
56 206
202 129
206 204
97 78
156 226
204 191
148 4
41 22
127 207
147 232
136 200
48 195
191 128
63 211
215 233
250 129
44 169
232 132
186 220
9 47
54 60
217 86
163 175
141 84
241 135
145 96
224 245
66 81
192 139
183 80
9 65
239 116
255 46
99 9
138 57
63 193
120 15
166 152
230 12
229 187
146 125
175 48
128 157
136 172
210 232
163 61
91 57
177 165
236 55
49 128
253 125
55 204
83 27
104 236
147 193
185 176
136 92
110 150
223 58
16 25
156 178
236 44
249 86
85 201
232 55
206 157
7 163
234 87
177 214
249 164
112 227
220 205
186 184
120 186
36 146
7 55
169 236
124 209
112 150
104 29
197 82
43 52
106 209
77 54
85 210
112 202
120 70
238 157
39 174
185 19
4 154
19 173
127 22
138 215
147 131
208 74
229 91
219 86
49 11
1 11
242 138
67 89
85 95
141 103
170 147
90 121
93 78
43 77
133 102
37 91
27 121
4 196
78 89
125 149
109 239
227 155
137 189
174 127
167 137
51 77
245 211
177 126
205 179
99 186
84 159
190 18
241 120
150 86
217 209
234 61
95 229
222 209
139 65
35 234
48 120
154 31
177 186
116 107
47 156
27 200
254 160
70 209
248 242
138 69
248 221
58 31
106 199
244 203
163 76
179 124
253 59
55 129
146 130
134 197
86 186
18 132
239 191
222 180
150 53
248 14
203 112
112 40
7 90
66 140
19 215
161 46
96 199
229 122
107 59
53 180
179 214
143 188
236 78
19 159
204 222
49 45
80 168
212 161
92 69
166 237
149 175
199 255
140 64
225 52
186 208
160 131
18 87
243 8
198 21
45 174
160 42
179 167
229 73
17 30
60 207
109 247
134 224
152 122
69 164
206 75
225 108
175 147
200 47
55 41
242 251
5 112
162 175
42 30
140 130
67 19
99 157
149 183
71 40
167 166
83 53
71 46
103 220
39 22
203 166
234 141
77 130
183 16
199 172
141 171
186 254
140 237
227 255
38 53
102 240
187 136
73 155
230 132
91 163
44 65
221 139
179 128
239 219
63 234
246 112
39 83
214 249
194 26
3 69
172 81
44 158
112 199
158 97
106 186
233 135
76 196
207 12
55 61
147 79
111 244
200 144
192 168
83 60
187 174
200 210
239 79
211 106
185 131
248 167
68 220
199 19
96 158
133 91
231 254
188 20
251 249
158 176
221 122
89 143
15 197
200 54
77 161
82 178
193 113
197 140
128 61
107 8
213 42
133 174
224 9
170 96
96 107
155 131
96 79
197 237
242 116
172 6
52 209
163 47
30 239
199 76
19 79
175 200
130 129
12 147
89 192
161 186
118 191
83 229
105 178
39 166
105 196
9 51
73 227
19 50
187 26
178 44
248 173
215 142
17 171
79 40
239 150
26 129
31 66
185 26
75 231
206 68
132 143
131 187
238 212
83 112
91 239
89 55
34 41
199 5
97 34
168 199
242 125
115 200
177 94
127 252
81 57
73 181
140 39
186 4
66 95
116 72
16 243
230 95
149 224
99 115
49 191
13 36
137 196
45 166
46 110
26 145
66 58
151 28
142 122
129 35
172 167
46 129
67 208
14 244
92 177
199 164
75 240
127 122
241 90
21 108
147 81
47 241
136 255
86 240
220 77
9 179
71 136
223 15
249 106
188 224
15 186
10 155
152 210
110 166
24 115
107 151
185 160
83 17
83 188
41 195
87 36
143 183
161 252
103 110
19 27
66 162
78 187
157 26
89 171
107 30
221 172
190 117
149 124
152 15
117 77
93 34
77 165
177 26
39 153
54 96
19 236
247 60
153 181
118 31
44 76
78 63
216 242
133 96
153 15
103 18
122 8
9 248
77 2
245 48
59 56
78 7
252 233
136 227
149 177
95 67
74 9
220 117
156 42
64 15
8 156
205 118
7 218
41 191
97 47
114 102
186 22
9 233
42 22
193 250
237 56
219 50
17 8
77 42
201 229
221 96
217 18
52 144
28 226
50 94
94 58
74 25
24 53
145 134
79 120
93 107
180 157
20 14
93 242
57 242
39 21
164 85
221 35
213 48
211 62
57 173
120 159
255 187
210 95
74 77
174 139
30 199
31 169
43 234
128 104
32 133
60 40
22 52
246 110
43 7
129 205
232 130
164 10
131 109
244 173
108 204
235 169
155 4
26 218
174 172
203 127
164 177
209 107
147 67
242 110
103 213
7 215
107 157
33 51
78 90
112 17
40 230
31 124
76 251
215 132
121 142
73 86
80 140
254 145
121 34
152 97
192 63
38 224
190 59
63 250
196 110
91 81
122 200
215 158
189 243
194 117
234 45
194 25
27 229
189 163
96 127
69 91
34 43
146 150
58 187
213 166
112 137
78 125
197 156
53 43
73 31
69 11
89 56
76 103
11 254
191 127
88 46
93 26
151 22
129 239
42 73
33 174
66 216
184 225
69 71
149 15
167 225
1 243
193 199
182 171
229 245
232 247
240 107
190 215
253 52
40 121
59 125
97 242
118 80
63 232
254 250
97 96
64 20
204 195
192 34
225 73
9 189
217 9
103 241
235 119
227 229
200 2
103 98
108 112
54 249
176 19
9 145
166 249
59 226
9 32
107 220
154 25
218 179
91 35
31 177
141 196
194 42
249 181
163 168
130 55
198 189
22 183
133 54
21 49
123 215
94 95
3 163
35 131
121 116
191 48
234 124
155 110
19 210
207 90
145 171
77 231
132 238
200 96
140 250
35 193
82 80
69 17
105 244
215 153
125 118
167 121
7 67
118 27
175 79
17 144
251 25
112 126
120 162
55 31
98 217
159 108
109 126
23 220
97 227
23 135
238 31
21 253
51 71
206 118
65 169
8 52
76 226
231 7
96 28
104 37
88 121
214 203
81 114
25 8
241 200
42 72
199 27
31 208
191 112
108 192
168 214
231 184
162 147
243 106
171 248
229 186
165 25
223 63
191 95
179 248
15 146
80 182
145 85
37 67
154 231
211 118
197 87
58 111
162 156
47 131
181 145
194 224
188 43
105 38
106 140
96 175
175 36
139 216
231 70
82 48
254 21
116 73
91 42
122 160
116 129
207 176
157 74
139 1
118 129
139 57
187 207
124 196
233 156
122 32
161 34
112 231
48 35
136 169
127 140
150 210
8 174
210 233
122 118
87 159
21 212
158 202
234 168
107 237
188 144
39 214
189 161
160 232
144 80
128 186
84 252
48 163
213 25
55 68
218 70
20 58
53 46
159 71
61 213
68 9
84 166
78 31
30 206
22 140
72 246
6 94
213 151
68 122
28 253
182 16
165 45
205 122
168 22
244 162
188 203
244 32
255 145
191 37
208 27
87 179
174 110
199 15
25 110
112 186
100 253
192 77
248 195
46 241
110 137
196 99
235 199
221 7
166 149
35 248
203 105
174 70
105 182
88 117
9 25
112 152
64 115
139 183
33 36
50 40
82 232
13 61
242 31
154 83
191 88
125 177
26 161
71 102
76 242
254 205
72 223
113 205
29 224
154 118
131 135
64 245
122 220
70 45
116 160
9 16
58 69
43 220
252 45
170 101
188 99
219 94
61 106
169 186
120 201
130 120
172 58
175 15
138 145
198 200
220 173
190 61
122 83
150 137
68 163
32 95
214 80
236 247
81 6
96 138
63 92
239 45
216 220
139 49
215 86
65 92
98 28
29 94
214 208
149 222
199 232
243 210
84 73
115 144
220 178
241 156
166 129
185 31
233 118
17 61
74 143
208 217
243 178
250 159
232 175
243 122
153 113
213 218
112 210
172 59
60 27
63 147
173 25
109 119
177 111
42 223
23 102
154 134
99 117
3 27
151 186
155 172
162 48
208 6
34 198
255 44
5 89
46 146
47 224
71 19
80 206
66 133
177 104
96 106
118 87
64 29
211 73
180 67
3 47
78 136
106 175
106 45
82 16
178 141
178 116
107 182
80 146
31 241
169 60
40 221
232 57
206 242
40 76
97 69
88 124
139 219
50 42
37 15
253 24
16 67
114 90
150 84
26 77
196 237
116 139
95 102
94 174
78 25
10 80
188 24
38 25
100 39
132 194
18 11
199 54
79 221
118 9
63 244
25 200
29 244
49 210
206 71
63 238
85 245
159 248
144 182
184 161
3 219
30 140
223 104
7 220
137 238
149 186
106 35
200 188
74 119
117 11
176 94
186 183
174 251
58 235
239 32
168 48
99 122
167 200
91 109
131 51
156 161
143 4
115 215
246 218
96 116
168 156
121 132
207 242
158 133
211 131
232 86
129 63
79 78
206 46
2 252
45 175
86 227
130 38
23 154
104 25
251 241
71 109
173 32
243 124
11 234
162 118
10 35
177 150
248 217
59 144
199 48
147 20
14 247
145 87
241 101
63 115
137 17
67 142
173 106
1 80
97 179
6 174
163 146
1 16
21 218
145 143
90 221
205 134
83 233
247 139
188 182
227 44
79 139
205 181
81 109
84 225
132 52
81 191
83 149
68 116
210 250
233 96
118 13
209 60
240 31
49 67
119 197
88 217
59 33
118 40
248 74
210 70
115 203
52 34
119 27
187 233
181 151
89 197
172 145
249 127
194 22
104 64
53 137
92 27
191 15
60 149
54 157
186 191
31 86
47 67
250 134
175 120
201 188
63 71
9 146
220 140
14 138
76 243
52 125
246 77
118 153
247 229
227 210
20 31
96 8
196 157
100 129
188 4
174 140
174 135
186 89
98 18
157 226
6 35
91 95
110 125
253 137
35 77
116 185
190 165
112 206
105 7
78 46
124 190
122 177
129 29
114 140
242 169
157 237
17 143
162 202
245 31
244 112
60 130
80 240
129 255
19 244
174 41
250 221
60 77
8 118
112 209
202 185
110 118
11 158
143 172
54 125
96 109
213 7
46 251
137 38
235 127
199 120
26 193
239 41
17 82
112 233
181 132
122 2
106 86
213 74
30 125
245 95
11 116
106 210
155 31
28 217
1 180
126 244
3 86
18 149
127 236
114 242
159 66
10 184
73 52
173 121
168 109
35 172
76 210
217 107
144 180
42 159
68 27
7 203
87 51
234 190
133 136
122 27
58 126
178 109
116 206
149 21
88 17
222 205
26 70
244 64
173 163
174 75
136 164
29 25
33 39
212 121
55 114
21 252
177 87
191 69
173 131
203 22
65 111
199 141
139 196
115 251
69 20
82 8
211 229
120 155
70 145
67 9
150 166
44 78
63 47
46 154
168 36
248 199
112 31
251 45
120 65
205 192
208 238
91 85
182 8
25 234
229 152
205 144
160 155
60 120
45 54
233 249
41 179
235 105
161 238
217 114
78 133
225 183
104 63
62 97
177 79
106 213
206 145
229 12
145 207
11 177
100 121
113 156
216 133
195 38
82 206
79 14
196 144
48 8
179 25
244 58
172 77
71 131
228 116
114 218
153 38
102 122
74 136
145 185
134 242
175 170
187 116
54 192
176 85
108 184
105 216
178 231
89 30
76 132
174 206
178 59
231 130
55 62
113 188
157 166
123 80
196 254
19 118
46 50
145 200
169 168
225 56
210 139
73 187
14 162
178 241
89 141
92 96
58 191
5 212
64 68
15 239
5 43
107 124
32 215
132 103
245 134
128 19
220 102
51 117
1 144
250 92
79 67
239 142
124 100
34 54
150 157
103 140
209 80
226 133
23 203
241 105
50 52
13 52
92 64
188 115
15 243
8 4
158 147
139 159
51 84
250 216
183 249
175 139
20 175
188 34
131 175
168 224
78 42
114 255
238 93
178 130
237 86
78 58
239 9
51 97
29 207
106 220
175 126
100 139
63 35
121 245
191 222
210 119
208 79
144 34
180 249
51 13
229 250
121 246
120 133
193 126
51 100
52 252
123 181
199 173
248 33
15 71
232 90
36 200
128 75
87 73
44 159
126 228
109 111
155 76
64 34
125 16
185 23
193 18
137 122
218 88
255 201
37 223
187 170
141 18
118 244
32 207
210 133
8 49
53 9
89 49
122 31
42 27
209 56
164 39
9 45
232 71
50 177
137 199
145 103
174 96
255 169
101 185
72 109
76 29
83 59
192 67
137 194
97 18
127 215
164 122
65 172
49 238
140 137
188 122
13 200
12 227
153 139
47 185
213 113
139 75
234 246
67 75
240 30
106 13
50 6
151 83
150 114
232 15
54 152
213 87
118 220
164 78
130 217
225 26
202 175
109 235
191 132
32 158
177 216
144 179
147 228
25 1
180 224
39 74
106 184
223 116
135 60
86 138
114 127
223 119
31 158
136 202
210 158
198 42
130 150
191 165
136 12
39 215
201 102
176 147
71 126
72 245
214 240
88 100
139 53
73 150
152 58
46 131
133 18
238 159
19 229
203 240
99 110
233 49
194 54
66 42
94 247
104 6
67 159
158 122
202 220
9 160
156 112
207 128
128 234
242 25
68 78
179 80
60 106
84 168
83 242
93 91
179 226
209 137
16 233
107 208
2 186
210 83
211 136
220 3
41 206
153 121
105 91
46 97
16 21
219 230
220 25
221 220
106 153
164 55
133 110
174 73
220 207
33 76
141 218
158 40
238 213
45 139
131 52
51 54
203 16
37 134
139 234
184 96
42 209
190 172
188 15
143 231
140 14
153 251
140 12
100 164
141 194
8 28
59 164
46 74
154 199
166 55
31 14
249 133
104 7
19 211
187 42
97 105
43 130
160 188
213 129
141 248
233 163
54 254
95 29
80 30
57 140
139 155
180 151
94 57
82 237
111 66
49 217
90 229
177 188
15 245
154 157
109 188
136 111
242 29
83 143
133 8
71 158
54 2
255 216
197 42
135 242
106 197
172 60
53 21
66 35
113 103
188 69
26 49
108 164
19 136
95 31
87 53
59 191
66 69
86 118
14 135
64 241
31 248
61 21
95 169
152 116
67 182
196 68
209 157
168 186
52 107
79 81
202 69
120 196
110 192
174 239
88 56
26 242
54 118
133 165
165 144
31 239
134 156
49 174
13 220
30 49
52 143
77 189
114 93
197 150
78 51
142 180
251 74
222 59
123 184
27 15
72 52
205 237
62 168
131 207
89 15
222 128
118 67
3 221
93 126
119 71
226 121
166 172
244 224
166 87
146 252
142 214
213 115
234 42
139 32
9 197
206 105
195 153
227 241
203 208
157 2
39 128
48 16
168 136
149 67
237 213
26 210
173 241
52 247
68 154
158 154
133 123
99 203
2 226
200 231
151 197
174 201
212 72
32 90
77 148
132 27
177 85
55 58
240 249
112 239
33 210
83 168
52 78
114 233
116 12
252 212
100 128
17 153
255 163
215 212
194 130
218 249
208 173
174 63
30 52
74 210
131 58
217 167
175 203
186 83
203 37
244 44
120 8
207 65
239 163
104 239
181 178
83 69
249 137
113 80
145 75
175 116
7 186
174 87
167 163
150 72
127 133
154 27
73 226
89 198
233 66
30 234
118 151
15 140
231 217
164 102
102 86
88 214
89 181
250 255
95 47
166 159
101 215
160 175
201 160
3 102
148 115
179 137
101 152
97 119
215 189
241 238
