*Vertices 152
48 "#60"
21 "#140"
101 "#147"
51 "#21"
35 "#150"
46 "#114"
53 "#54"
5 "#23"
47 "#87"
85 "#118"
29 "#45"
4 "#89"
32 "#48"
89 "#93"
100 "#144"
41 "#81"
96 "#105"
143 "#7"
33 "#86"
17 "#151"
108 "#127"
57 "#99"
59 "#57"
26 "#82"
114 "#107"
95 "#2"
86 "#26"
22 "#39"
64 "#137"
7 "#116"
31 "#31"
14 "#1"
74 "#135"
148 "#122"
122 "#88"
55 "#34"
91 "#132"
109 "#119"
18 "#40"
149 "#16"
20 "#76"
97 "#133"
88 "#68"
16 "#145"
67 "#50"
60 "#149"
6 "#33"
123 "#61"
77 "#143"
36 "#36"
58 "#121"
133 "#139"
107 "#77"
30 "#22"
137 "#59"
118 "#130"
56 "#67"
37 "#83"
120 "#111"
127 "#3"
128 "#19"
115 "#58"
112 "#15"
92 "#79"
8 "#4"
105 "#73"
39 "#141"
90 "#146"
99 "#148"
87 "#51"
125 "#46"
136 "#53"
146 "#32"
68 "#108"
25 "#80"
66 "#110"
12 "#134"
144 "#11"
73 "#113"
129 "#18"
141 "#0"
121 "#13"
10 "#25"
79 "#49"
126 "#6"
152 "#69"
65 "#112"
34 "#62"
45 "#28"
62 "#129"
103 "#128"
102 "#100"
27 "#72"
131 "#42"
142 "#41"
124 "#96"
28 "#44"
140 "#17"
113 "#98"
75 "#92"
145 "#106"
134 "#95"
93 "#102"
50 "#20"
44 "#47"
38 "#126"
76 "#37"
24 "#131"
106 "#12"
42 "#94"
70 "#78"
15 "#10"
52 "#27"
3 "#142"
69 "#8"
2 "#90"
19 "#91"
40 "#123"
150 "#136"
49 "#56"
82 "#120"
81 "#55"
43 "#70"
135 "#124"
61 "#75"
80 "#66"
78 "#35"
151 "#109"
139 "#117"
116 "#115"
98 "#63"
83 "#101"
117 "#30"
72 "#38"
119 "#104"
132 "#24"
104 "#84"
9 "#14"
1 "#52"
71 "#43"
54 "#64"
84 "#5"
111 "#29"
110 "#74"
13 "#71"
63 "#65"
94 "#103"
11 "#85"
138 "#138"
147 "#97"
23 "#9"
130 "#125"
*Edges
144 98
97 108
146 104
36 46
91 62
79 124
26 76
142 2
57 15
151 3
101 39
34 40
87 150
140 40
110 119
141 66
21 80
124 30
6 52
11 43
35 101
67 42
66 88
122 124
113 150
100 77
24 65
147 75
151 21
34 132
150 145
2 92
36 89
78 127
152 133
24 32
119 123
152 129
70 125
10 130
66 21
2 42
24 23
124 140
84 24
59 145
139 7
30 112
127 143
133 82
24 33
18 96
48 47
51 129
73 147
81 34
119 127
121 25
25 101
98 8
61 25
113 46
88 145
24 88
79 40
70 37
95 75
100 90
52 20
32 130
113 76
27 95
137 152
87 152
115 111
17 85
21 43
119 49
31 119
107 124
101 124
29 75
149 144
7 120
128 136
132 42
145 8
109 96
31 129
145 14
92 41
111 144
24 48
57 52
61 20
108 10
11 76
46 10
64 63
20 86
145 142
91 12
118 130
5 136
101 75
17 24
141 2
46 98
34 70
46 37
4 73
92 42
93 133
150 129
57 96
128 53
145 106
124 28
36 130
141 98
3 7
135 17
42 88
46 141
52 61
149 27
148 67
106 24
65 98
52 73
85 21
47 86
66 44
133 145
2 115
125 66
3 58
92 145
58 78
12 132
109 98
96 69
63 124
85 135
78 12
46 14
96 129
130 15
111 47
94 151
18 137
44 27
71 132
125 115
136 119
36 2
3 103
31 130
42 145
79 111
95 129
63 32
142 44
57 32
36 70
4 122
134 108
95 47
65 93
133 74
119 27
114 101
98 28
150 132
137 119
122 13
12 21
136 108
137 124
78 137
70 50
19 107
12 38
57 53
63 70
114 109
56 75
47 40
124 98
63 27
129 105
10 119
42 137
104 4
150 50
149 11
108 49
34 117
146 70
11 13
28 34
62 74
144 29
95 15
115 84
144 124
37 130
22 121
63 66
75 140
25 37
96 130
125 9
85 3
121 124
29 57
18 24
119 41
41 14
52 126
21 118
31 75
133 75
131 79
49 98
20 15
55 105
75 149
42 76
46 140
20 144
68 80
6 105
139 12
5 2
37 4
61 130
47 78
119 152
10 6
70 150
109 79
101 54
3 138
63 133
46 65
141 34
120 114
41 24
5 124
148 130
149 26
25 66
40 31
114 24
4 101
21 108
150 115
28 46
65 119
31 105
114 93
96 79
40 57
124 106
112 109
30 75
108 125
106 144
119 145
144 121
21 83
93 17
126 22
87 104
3 21
1 89
109 78
91 97
104 51
105 128
136 36
85 73
16 99
81 58
18 87
36 26
27 46
7 135
133 66
49 115
95 81
56 108
11 66
109 30
72 130
20 42
24 9
85 82
19 66
117 42
133 151
144 119
28 10
96 13
26 111
67 2
99 101
92 61
14 58
73 102
141 67
34 31
46 78
24 72
86 52
59 27
120 68
26 48
129 55
73 89
86 146
27 5
20 41
61 57
22 96
8 70
96 117
30 67
17 59
70 47
8 115
136 76
124 31
20 123
21 11
20 133
148 116
55 119
12 44
57 9
140 53
85 75
14 40
63 71
24 141
70 149
2 87
7 21
83 70
27 124
98 27
90 77
20 101
73 78
87 106
24 43
83 6
46 111
16 39
67 53
3 27
1 115
82 12
82 7
34 75
24 101
63 52
96 36
30 70
52 75
17 38
98 31
13 57
128 72
141 8
96 5
7 150
17 124
139 116
98 6
55 140
139 58
148 135
150 21
120 3
12 115
112 2
46 13
96 41
20 146
20 92
98 15
81 133
1 96
90 17
44 84
97 101
9 40
34 105
130 81
11 5
147 133
130 139
71 145
80 51
64 12
10 25
53 105
137 9
70 67
20 10
87 137
130 27
59 81
132 149
64 101
149 20
34 32
5 105
142 40
144 79
147 83
85 70
126 51
129 11
60 3
29 42
30 145
83 89
68 94
81 3
96 72
46 148
97 12
110 11
17 110
11 54
89 17
106 80
9 27
137 69
40 89
84 73
133 59
2 14
49 70
56 47
140 98
130 9
36 34
24 38
46 128
77 3
108 91
72 124
103 64
40 147
15 119
18 12
34 79
3 24
47 146
139 17
28 142
132 124
27 133
113 119
76 115
34 67
47 102
152 63
14 56
138 17
73 92
108 135
102 66
70 80
112 111
103 150
6 73
22 19
53 46
65 151
145 37
66 55
150 59
108 6
21 33
54 141
71 31
24 81
107 17
14 73
104 19
116 85
66 29
42 112
119 18
149 2
143 98
79 2
110 105
68 101
47 32
48 123
133 77
124 67
108 38
129 27
87 71
114 46
34 126
12 6
109 141
27 42
130 87
72 146
46 129
31 87
53 152
79 87
133 83
9 79
23 75
39 133
57 33
61 41
18 20
101 57
16 101
149 42
11 59
119 22
54 46
69 50
122 119
145 31
133 122
69 136
119 108
31 70
8 57
111 109
134 113
108 85
4 24
98 70
43 2
148 21
149 44
137 67
7 116
150 109
133 100
140 129
20 112
57 11
40 114
1 124
136 28
6 4
11 92
64 24
103 38
22 6
28 145
118 74
37 42
49 73
97 58
116 12
140 115
96 9
57 147
57 126
142 12
73 15
57 150
26 2
14 109
150 124
9 26
115 50
72 15
129 132
55 73
46 95
145 111
3 57
141 96
27 101
6 11
69 11
126 115
23 47
84 96
40 37
124 37
17 97
3 107
65 21
12 83
127 47
129 130
96 47
142 123
109 36
17 151
150 74
119 102
81 147
22 57
114 119
101 90
133 62
150 56
12 29
124 134
101 81
96 44
152 86
51 115
24 68
152 124
118 139
85 12
22 34
85 14
44 2
3 16
146 84
90 16
24 79
107 108
126 12
1 27
121 136
30 46
31 24
20 40
49 47
108 74
88 92
40 145
118 24
137 17
125 63
36 145
127 8
108 12
81 12
81 96
130 142
65 130
88 109
98 36
136 107
148 12
130 58
96 88
87 117
30 20
12 110
141 57
87 115
97 118
3 150
34 17
39 17
37 66
137 144
47 36
3 119
125 11
97 133
75 121
27 53
124 46
93 151
23 86
150 28
124 112
1 47
75 106
53 26
105 45
23 145
152 142
133 90
11 55
55 29
147 89
98 101
32 140
107 91
73 126
146 66
109 147
22 50
57 95
26 75
40 110
57 36
65 79
117 152
73 124
2 110
104 40
20 5
108 76
70 57
41 150
151 28
106 109
119 81
106 137
108 62
11 119
108 68
142 150
150 144
140 96
10 96
71 119
42 79
40 85
17 150
53 137
40 45
90 3
8 152
46 107
48 11
98 55
114 66
143 119
2 80
86 34
78 44
9 147
57 56
137 111
108 61
78 55
96 101
120 102
136 144
68 66
150 104
145 115
133 102
58 85
96 43
11 79
17 102
136 129
116 143
60 21
18 48
97 21
131 126
130 20
31 14
124 145
52 27
4 145
19 21
104 58
41 107
84 36
24 130
115 86
65 68
70 81
121 145
49 20
134 133
18 63
127 113
52 26
18 149
57 86
13 133
131 47
129 137
70 40
109 75
101 82
15 45
34 30
28 105
11 106
70 24
62 12
32 40
119 56
29 98
24 78
60 133
11 130
118 64
85 150
69 115
124 55
17 96
17 48
5 26
133 41
124 143
133 40
96 113
1 57
61 101
117 63
123 26
145 114
6 47
137 30
4 75
108 82
62 70
28 63
102 145
46 21
146 115
61 66
42 106
63 12
57 83
27 2
108 18
93 107
55 26
73 142
78 40
144 34
86 40
18 34
17 16
80 145
98 57
49 101
98 117
70 1
45 70
98 81
47 119
21 27
66 147
22 20
2 50
2 53
34 42
1 67
18 44
63 55
106 98
127 45
100 16
24 30
45 75
149 126
41 11
34 150
9 87
23 143
40 5
133 123
14 128
139 135
73 11
3 148
21 139
5 130
146 46
150 88
149 125
100 60
130 12
6 78
142 47
34 15
97 38
47 71
51 47
152 80
52 115
139 73
54 2
129 141
76 109
129 59
34 142
71 11
14 11
145 17
87 84
47 63
12 7
140 69
43 145
150 36
120 66
31 78
21 47
12 107
25 1
24 89
115 20
70 42
63 101
34 45
105 70
130 85
70 15
136 63
105 71
21 130
127 28
140 26
15 55
117 82
124 24
70 54
8 26
46 75
70 78
104 92
79 78
86 87
25 17
15 108
122 42
145 131
63 89
139 26
112 11
12 1
124 146
75 141
144 40
6 44
136 86
122 109
26 88
7 24
95 40
17 60
2 45
30 115
109 3
92 133
124 114
107 61
126 2
112 108
78 96
56 20
103 118
93 101
123 109
121 98
3 39
146 12
17 64
66 28
131 50
20 129
45 98
145 9
124 109
137 51
52 106
27 79
117 112
29 115
100 39
150 4
10 13
24 111
129 119
96 126
13 88
69 40
24 107
34 115
109 63
68 93
130 114
46 81
86 130
70 3
112 132
125 2
21 34
132 40
80 123
36 66
108 149
133 80
38 133
96 21
59 66
116 82
69 152
54 17
62 3
140 42
34 69
49 3
117 73
145 53
150 93
128 42
98 137
116 135
45 137
3 66
124 10
133 139
136 47
22 66
133 116
47 141
109 27
21 120
63 50
26 63
84 63
74 101
105 2
50 20
150 126
133 118
53 130
59 34
96 142
21 13
96 152
131 15
145 76
20 121
76 119
107 141
14 49
26 146
84 27
87 132
11 61
134 115
42 24
142 102
66 45
27 137
149 46
17 12
19 3
15 26
40 18
121 146
88 21
130 113
28 88
8 27
112 95
71 136
110 104
7 17
47 117
2 107
34 24
42 8
40 108
90 60
133 108
21 64
73 45
43 88
40 44
11 67
40 125
152 127
74 97
123 106
50 27
51 73
130 143
130 135
27 72
94 126
108 131
130 41
133 91
3 33
127 136
20 32
32 84
20 55
55 75
70 79
2 63
73 110
37 104
117 128
40 15
115 14
150 134
124 32
43 46
151 66
127 98
70 126
86 69
40 129
66 137
61 32
151 145
61 13
40 52
75 126
103 74
130 19
144 63
113 75
119 52
151 114
30 150
113 107
140 119
97 24
1 8
18 75
65 109
119 45
73 12
109 18
77 16
13 108
105 143
115 66
97 62
139 101
145 109
152 132
73 27
80 102
119 109
141 152
24 133
109 57
124 83
109 71
63 111
2 28
115 117
126 29
2 56
2 46
108 64
149 131
1 2
8 2
148 73
26 121
41 75
17 35
99 90
51 53
12 49
57 143
130 62
124 110
23 12
150 139
71 150
108 4
55 92
147 120
87 141
117 119
27 17
152 78
39 99
27 45
73 87
108 78
7 130
104 21
9 75
92 127
11 115
40 115
92 96
73 119
7 85
24 102
105 22
56 131
133 42
24 49
18 46
144 145
24 135
101 138
136 75
3 99
134 13
71 96
135 58
20 137
19 33
124 69
24 14
149 117
75 59
123 27
115 17
112 63
21 74
21 147
39 77
53 1
130 28
4 49
49 124
150 75
93 66
109 126
20 140
24 54
47 46
96 34
28 42
36 59
133 124
21 68
19 101
107 47
152 81
96 3
41 71
63 45
72 115
34 44
58 116
11 20
66 150
42 6
2 9
3 42
6 70
3 13
105 18
78 26
4 33
96 102
20 6
103 101
101 134
70 123
40 131
20 66
12 125
104 73
109 67
109 143
83 119
73 115
126 72
133 105
40 2
20 111
89 102
78 81
55 145
27 6
66 119
67 29
136 96
140 70
59 12
130 76
42 61
145 61
5 145
54 22
27 96
40 67
33 42
71 1
137 12
5 75
138 100
101 56
130 42
93 91
66 129
5 119
120 17
59 63
59 98
18 114
47 110
127 34
49 23
130 25
136 125
98 40
46 84
14 111
12 128
64 74
148 40
147 152
143 14
40 33
95 136
91 96
93 145
2 68
9 55
108 75
113 89
77 35
144 73
73 79
131 105
131 130
57 107
64 38
2 117
75 49
21 20
128 69
137 101
32 66
3 59
59 123
1 46
132 56
14 76
57 134
43 13
9 47
45 145
12 150
133 99
17 65
25 42
110 13
5 63
9 115
115 109
28 137
2 18
12 8
27 47
92 75
94 127
34 131
66 142
137 105
136 73
43 133
40 121
83 73
54 145
131 70
73 7
125 105
94 46
73 80
108 81
104 145
128 63
112 26
99 35
149 47
130 124
21 98
39 138
3 40
96 23
9 111
30 119
107 72
14 150
121 115
83 75
152 136
31 72
5 140
146 34
5 34
34 6
39 35
113 59
108 57
8 30
145 110
130 46
112 40
107 25
145 140
75 70
101 17
92 17
134 17
24 75
28 27
3 135
101 105
128 96
34 130
70 145
144 76
101 46
13 75
106 126
125 72
127 42
32 87
34 57
109 102
114 17
124 105
130 56
141 150
69 27
121 32
133 113
11 10
73 53
51 20
88 85
144 109
110 101
11 1
6 26
127 46
144 57
50 125
134 75
105 66
64 150
56 54
150 106
20 14
63 72
17 33
85 139
136 20
42 59
109 131
57 89
150 151
109 44
50 96
31 128
19 96
46 50
115 149
106 129
12 3
109 23
12 111
146 109
96 94
53 20
129 98
89 21
149 150
64 62
63 142
28 56
40 136
12 74
10 2
13 150
121 54
70 12
84 75
22 108
65 40
86 137
37 133
69 73
152 128
62 38
150 67
96 15
25 13
120 123
151 40
71 73
34 108
152 131
118 38
95 63
65 120
5 69
130 54
27 36
75 96
53 31
68 40
94 10
58 73
65 108
98 102
122 87
57 136
3 43
108 139
79 57
31 42
124 20
53 14
83 134
57 145
65 3
141 102
128 56
146 69
26 130
47 125
34 12
76 47
66 79
17 56
50 73
57 106
152 28
87 36
17 82
105 15
21 123
73 129
83 150
106 10
127 108
56 109
110 43
69 20
11 128
20 57
42 55
9 150
60 16
92 107
110 54
145 127
28 53
124 57
26 46
96 110
124 9
117 124
57 142
91 103
87 22
67 27
83 102
53 98
40 128
113 101
109 94
40 111
33 87
88 70
130 120
49 120
95 125
148 58
22 124
129 24
63 96
93 24
99 17
24 71
111 140
28 40
100 3
59 128
101 151
151 108
108 142
77 60
12 48
21 122
21 133
132 63
50 105
81 23
86 63
43 29
66 94
24 55
6 40
47 75
24 116
151 120
146 136
61 47
114 68
130 57
48 2
13 130
93 130
46 96
20 54
75 73
61 105
81 110
3 38
24 91
152 71
3 56
109 85
47 84
42 147
73 86
139 82
95 137
129 70
130 50
22 130
149 51
96 83
115 3
127 40
20 117
135 73
33 150
152 56
19 42
21 77
124 92
57 51
6 131
152 12
23 124
75 1
31 152
147 134
133 54
119 50
40 66
11 12
22 2
17 152
93 94
130 97
15 124
42 14
43 40
47 17
138 133
23 131
32 149
101 3
24 45
49 59
72 42
26 18
81 105
79 46
109 55
29 150
51 34
150 119
133 48
126 26
20 13
152 15
94 17
62 24
12 120
94 120
15 24
82 135
14 27
130 110
137 44
75 74
118 150
130 88
97 150
145 32
56 70
119 46
11 42
55 40
15 149
101 83
24 57
45 110
101 107
76 9
119 19
107 40
98 66
74 130
14 10
120 133
49 1
24 140
54 119
62 21
15 63
84 109
42 53
137 15
62 118
111 105
128 75
116 101
34 72
17 98
108 1
126 66
85 148
27 111
41 73
137 112
30 96
71 18
26 119
143 110
34 111
129 87
6 152
98 125
47 150
105 20
73 131
18 140
29 110
17 20
33 122
86 149
31 76
22 73
35 100
37 33
66 112
8 63
112 128
68 73
24 94
26 29
12 13
33 54
70 109
87 45
121 44
102 144
46 89
55 36
12 86
115 47
3 35
109 19
21 107
95 98
101 104
2 31
11 101
49 48
70 2
62 103
111 42
58 30
46 76
117 55
114 133
131 150
103 108
66 134
69 6
137 57
96 108
24 85
40 80
21 39
105 79
8 125
84 10
47 29
3 4
63 17
119 34
93 102
105 32
146 52
142 136
46 117
47 82
45 26
70 23
25 46
102 134
133 57
115 96
108 102
107 98
57 104
22 149
109 22
54 21
138 77
80 75
21 82
24 11
96 86
117 29
117 24
90 39
87 50
150 15
89 134
70 46
15 46
57 140
113 108
10 26
119 9
18 98
63 131
35 133
88 73
91 118
144 70
55 87
36 42
123 54
111 1
34 106
24 21
108 41
96 37
150 43
6 18
76 75
137 75
40 130
78 57
66 101
136 109
21 92
140 130
46 9
34 53
48 59
10 9
152 10
108 128
104 124
140 66
132 5
73 111
150 108
47 79
22 61
99 21
92 12
48 81
40 143
41 25
142 46
152 49
134 24
17 148
29 13
81 2
73 120
26 71
54 80
148 101
150 95
98 145
130 80
89 150
12 101
124 3
131 146
66 50
7 46
111 95
136 83
88 146
115 130
2 111
54 42
53 115
27 115
119 59
152 70
96 143
86 41
26 66
3 139
130 126
70 72
114 94
86 108
71 27
46 45
65 150
71 66
102 130
11 8
87 111
46 61
95 96
107 144
17 81
36 119
130 6
24 13
72 152
136 26
32 136
46 80
27 51
88 12
57 76
47 144
149 96
57 121
104 22
17 91
127 75
3 98
70 53
75 71
82 119
31 150
46 86
150 54
63 127
24 82
152 149
21 70
71 86
137 14
11 109
115 82
65 59
7 148
92 22
127 11
41 2
26 17
22 47
23 79
120 40
46 44
26 43
96 51
19 37
103 24
101 145
137 109
50 24
70 51
31 108
30 84
73 42
119 106
87 10
152 144
92 119
62 17
47 81
119 8
93 21
16 133
40 27
53 109
148 108
10 98
59 101
119 88
101 62
3 137
80 101
150 91
54 66
82 58
126 105
137 10
101 100
14 70
17 70
109 8
12 105
33 66
23 115
42 49
48 101
86 95
78 105
42 101
46 82
46 24
65 145
1 24
27 29
59 46
24 37
130 116
30 40
33 43
138 35
88 17
75 107
70 73
20 79
150 38
25 122
133 150
151 109
27 112
16 35
145 44
75 50
79 130
98 44
32 11
104 33
9 98
150 52
80 115
151 68
151 8
101 119
57 73
29 130
23 132
141 145
115 129
4 21
89 145
2 71
71 110
99 138
127 12
93 40
75 89
133 17
142 42
14 5
19 122
142 76
97 64
61 121
144 42
96 146
27 131
2 24
23 137
50 26
145 25
21 49
115 57
61 133
40 72
75 105
9 66
37 109
63 108
83 40
20 106
61 123
148 82
98 48
113 83
122 104
22 29
64 49
110 88
26 80
81 27
105 136
114 102
152 2
23 119
7 123
28 75
49 17
40 11
60 35
64 130
66 1
119 17
140 73
80 93
74 91
145 75
18 136
136 11
125 52
150 146
105 72
44 75
14 141
21 35
115 32
100 99
46 32
136 22
5 98
82 3
10 109
73 1
105 73
75 21
110 3
44 152
144 105
61 2
77 101
124 81
84 45
50 72
73 137
116 46
33 124
26 107
84 26
144 8
23 57
98 151
139 46
43 20
129 56
69 87
42 32
111 136
30 47
149 52
26 133
42 47
130 17
53 126
115 28
133 7
1 125
104 116
83 142
20 63
4 17
12 102
87 27
105 3
124 95
104 66
130 3
27 66
117 18
21 152
96 93
50 128
137 140
137 71
119 12
2 147
120 98
150 44
27 49
124 45
2 30
12 143
4 19
11 45
108 73
57 21
75 11
66 81
11 86
96 76
152 130
56 123
28 143
105 1
57 105
32 26
75 115
146 24
103 97
31 112
119 29
129 128
49 81
149 72
63 11
72 26
108 129
113 147
13 101
46 122
70 127
27 75
63 14
106 26
113 109
56 133
63 44
24 87
92 150
142 20
11 70
8 137
92 40
47 122
115 46
147 102
124 71
54 26
17 2
95 123
8 124
40 26
122 37
98 23
29 124
47 101
102 40
106 136
22 45
6 5
145 152
29 23
14 37
137 84
101 152
96 105
131 12
67 145
17 73
122 53
152 11
79 98
115 63
119 61
132 109
145 81
48 70
26 109
57 37
7 58
46 20
130 101
3 123
65 66
149 73
59 24
60 101
14 130
21 2
24 40
126 23
94 133
38 74
109 121
130 91
115 21
66 48
5 123
109 31
52 42
119 1
110 92
23 108
2 88
94 3
126 124
58 51
148 139
119 33
12 47
31 142
126 42
101 150
46 85
1 41
44 11
86 109
100 17
115 6
17 77
88 108
123 57
104 109
108 146
60 138
26 117
73 40
113 12
136 110
24 120
152 123
21 94
92 25
46 108
145 41
87 34
34 10
46 5
96 137
138 16
96 67
1 34
101 73
100 21
40 152
4 46
137 24
147 145
152 79
114 96
123 30
131 137
91 38
17 19
17 43
26 86
95 105
102 150
18 152
98 42
26 128
88 124
52 137
80 108
92 101
40 101
69 67
47 8
152 76
76 28
130 106
118 108
25 124
28 20
73 3
145 34
23 63
75 119
106 46
4 12
137 11
54 109
105 63
50 30
42 141
26 152
26 67
102 57
146 11
126 46
12 124
21 101
109 140
120 93
108 24
119 105
133 148
132 20
3 116
150 107
129 122
73 123
89 47
11 27
138 21
30 10
24 12
2 133
133 3
20 109
128 145
114 65
109 83
84 142
31 136
106 108
33 68
112 24
149 105
56 80
71 59
47 121
51 42
3 113
150 62
22 28
73 31
60 39
99 60
41 72
116 73
2 15
50 145
31 126
130 122
111 96
117 137
3 75
150 112
105 98
124 84
10 47
94 65
25 44
70 95
132 52
45 152
113 102
12 87
101 94
43 101
87 57
