*Vertices 332
192 "#207"
21 "#326"
42 "#101"
20 "#213"
277 "#322"
136 "#59"
203 "#36"
314 "#292"
239 "#192"
171 "#323"
78 "#100"
211 "#328"
132 "#80"
56 "#96"
252 "#152"
72 "#127"
173 "#94"
324 "#12"
83 "#263"
222 "#142"
185 "#293"
151 "#115"
260 "#92"
131 "#0"
296 "#227"
330 "#256"
327 "#175"
307 "#194"
63 "#206"
33 "#261"
231 "#4"
309 "#31"
158 "#170"
141 "#269"
88 "#157"
41 "#129"
102 "#34"
233 "#234"
310 "#303"
22 "#46"
246 "#5"
315 "#268"
35 "#296"
272 "#51"
25 "#330"
263 "#329"
43 "#174"
288 "#55"
103 "#205"
325 "#1"
292 "#311"
319 "#161"
125 "#90"
300 "#2"
241 "#108"
168 "#289"
44 "#212"
59 "#229"
126 "#173"
251 "#252"
204 "#120"
225 "#277"
65 "#312"
177 "#160"
247 "#304"
115 "#228"
58 "#37"
303 "#135"
220 "#81"
214 "#239"
127 "#250"
62 "#216"
138 "#19"
37 "#276"
174 "#214"
209 "#185"
184 "#310"
5 "#163"
122 "#148"
289 "#197"
155 "#294"
4 "#17"
311 "#39"
164 "#211"
10 "#95"
68 "#200"
287 "#235"
178 "#156"
187 "#318"
24 "#204"
40 "#169"
175 "#259"
182 "#221"
53 "#271"
159 "#32"
188 "#168"
12 "#184"
245 "#103"
244 "#209"
51 "#248"
332 "#202"
48 "#16"
112 "#183"
1 "#320"
57 "#319"
14 "#150"
133 "#236"
197 "#62"
107 "#9"
111 "#74"
268 "#308"
46 "#42"
27 "#8"
18 "#273"
282 "#243"
250 "#75"
114 "#159"
108 "#76"
180 "#181"
147 "#143"
109 "#61"
99 "#179"
8 "#291"
255 "#265"
257 "#282"
86 "#86"
201 "#57"
166 "#196"
149 "#307"
243 "#267"
32 "#287"
16 "#89"
264 "#116"
76 "#242"
19 "#83"
205 "#121"
30 "#79"
77 "#195"
73 "#246"
208 "#27"
137 "#30"
69 "#210"
221 "#26"
293 "#153"
154 "#258"
38 "#114"
11 "#88"
94 "#25"
50 "#283"
215 "#315"
142 "#71"
181 "#128"
120 "#43"
318 "#230"
74 "#93"
110 "#245"
106 "#11"
216 "#107"
305 "#257"
54 "#284"
143 "#166"
66 "#137"
67 "#118"
271 "#178"
249 "#306"
100 "#136"
198 "#87"
274 "#78"
280 "#154"
23 "#222"
210 "#102"
316 "#73"
254 "#91"
2 "#49"
313 "#10"
262 "#233"
172 "#126"
179 "#226"
28 "#198"
329 "#99"
79 "#72"
31 "#316"
130 "#52"
294 "#130"
223 "#186"
124 "#201"
148 "#47"
193 "#217"
145 "#266"
87 "#193"
259 "#123"
6 "#270"
232 "#155"
281 "#23"
165 "#264"
80 "#112"
297 "#278"
275 "#63"
29 "#238"
267 "#131"
191 "#50"
295 "#13"
237 "#54"
240 "#119"
98 "#29"
161 "#187"
176 "#149"
194 "#223"
167 "#199"
236 "#20"
95 "#162"
45 "#110"
116 "#6"
183 "#241"
70 "#68"
331 "#105"
152 "#177"
199 "#69"
290 "#18"
85 "#247"
273 "#14"
64 "#139"
248 "#38"
323 "#254"
320 "#133"
227 "#302"
261 "#279"
162 "#253"
91 "#182"
36 "#111"
26 "#33"
139 "#124"
312 "#82"
238 "#275"
82 "#98"
96 "#144"
302 "#327"
93 "#249"
121 "#171"
212 "#281"
17 "#309"
278 "#158"
92 "#297"
150 "#104"
283 "#45"
266 "#164"
226 "#208"
213 "#262"
242 "#140"
256 "#240"
253 "#191"
190 "#58"
117 "#165"
308 "#274"
326 "#255"
301 "#113"
123 "#203"
129 "#260"
269 "#272"
286 "#317"
113 "#28"
153 "#85"
15 "#117"
265 "#145"
230 "#190"
55 "#244"
89 "#97"
97 "#84"
105 "#324"
196 "#295"
328 "#218"
218 "#15"
47 "#224"
84 "#321"
146 "#237"
228 "#325"
61 "#219"
207 "#189"
128 "#138"
322 "#122"
235 "#21"
169 "#299"
75 "#24"
118 "#65"
299 "#56"
101 "#134"
186 "#231"
160 "#60"
90 "#314"
229 "#44"
224 "#280"
81 "#66"
156 "#146"
119 "#232"
144 "#70"
206 "#180"
34 "#53"
39 "#172"
317 "#220"
304 "#3"
291 "#167"
306 "#305"
195 "#109"
3 "#313"
200 "#225"
163 "#132"
217 "#288"
7 "#35"
279 "#188"
298 "#290"
189 "#141"
13 "#67"
202 "#106"
60 "#40"
285 "#285"
258 "#215"
140 "#77"
71 "#147"
49 "#64"
276 "#41"
9 "#151"
52 "#176"
104 "#48"
234 "#298"
157 "#331"
284 "#251"
170 "#22"
134 "#286"
135 "#125"
270 "#7"
219 "#301"
321 "#300"
*Edges
203 150
193 249
76 251
296 56
41 123
176 173
136 137
77 143
302 319
157 277
226 93
157 145
300 274
183 127
183 73
252 274
290 13
166 226
30 327
325 220
147 127
255 318
147 222
81 71
141 315
327 199
322 253
173 71
225 278
125 170
176 9
222 232
280 302
225 155
129 225
264 222
72 29
259 303
301 137
149 211
267 61
135 151
41 207
139 257
121 52
1 157
307 224
179 47
7 267
209 42
145 178
23 282
332 74
90 219
95 177
125 178
259 74
303 278
306 62
245 124
55 59
99 68
221 108
47 206
214 67
23 62
172 40
96 181
9 267
298 168
51 145
275 283
323 164
313 135
124 331
183 194
256 93
294 183
199 48
73 318
65 73
46 236
61 67
329 87
113 45
184 135
175 269
299 242
321 285
251 249
14 69
297 169
115 23
253 259
203 198
282 251
259 170
227 228
180 257
102 30
9 199
87 307
63 9
224 289
109 276
318 306
171 219
126 103
30 220
104 246
67 115
302 172
157 268
224 280
140 9
269 307
128 242
61 127
138 309
124 132
301 178
201 267
150 49
322 115
176 189
180 158
286 200
47 178
106 58
163 303
72 181
44 6
166 261
207 308
283 101
278 13
265 127
6 53
14 103
272 137
180 167
69 62
61 207
61 167
188 111
267 320
69 99
329 300
140 34
172 286
214 233
332 158
127 150
265 119
322 242
278 87
15 303
172 9
280 217
42 158
112 119
126 271
292 171
18 321
45 276
115 306
309 100
49 38
162 326
173 214
72 207
173 138
37 261
320 9
37 47
52 86
250 125
232 173
302 296
195 158
123 12
33 162
306 171
204 151
301 101
48 235
155 134
87 6
280 51
200 263
186 224
326 213
176 37
240 252
131 49
43 40
63 56
127 62
155 196
221 208
23 73
206 178
212 286
119 228
277 163
51 217
291 117
43 39
143 29
73 204
262 318
220 95
37 263
249 99
29 239
267 142
292 21
150 304
267 245
332 32
100 277
194 258
82 280
6 124
12 180
240 49
240 148
135 220
260 102
322 293
61 78
21 239
236 272
326 174
240 170
68 77
61 216
286 65
257 133
71 207
253 184
301 106
199 331
9 139
271 240
65 315
193 214
11 206
308 256
21 282
44 164
86 9
48 331
14 87
331 23
117 277
183 296
161 68
280 251
69 182
79 319
319 49
209 78
224 240
257 175
183 174
226 192
261 23
5 232
9 127
240 260
39 242
173 106
210 43
129 315
18 196
326 196
96 265
103 150
236 100
332 323
153 114
196 24
287 110
151 270
256 233
220 188
164 193
279 253
64 322
156 115
158 178
134 263
289 65
254 45
109 301
189 257
55 87
48 46
307 296
265 52
144 242
241 63
230 239
83 315
60 38
161 249
103 332
289 196
319 37
187 149
184 169
53 255
176 47
73 265
210 45
103 21
249 23
101 157
150 158
249 135
201 9
56 232
132 45
277 172
118 229
69 319
13 135
105 277
296 177
64 201
196 253
240 14
28 127
44 193
263 28
315 6
217 298
198 137
228 85
183 65
214 36
72 140
178 119
329 311
312 48
29 179
274 67
326 76
251 119
108 38
91 326
296 42
59 289
32 126
73 173
93 249
100 144
112 263
61 205
273 136
282 166
295 312
177 29
255 37
80 319
19 135
190 290
54 217
252 145
181 277
331 178
312 113
29 328
99 87
286 243
190 45
260 246
103 51
134 166
118 71
29 280
147 95
267 319
222 278
216 64
302 84
153 278
48 311
5 293
123 76
43 153
64 259
15 214
40 145
42 282
57 277
95 156
262 326
147 302
32 277
327 142
253 38
198 10
264 322
244 174
282 180
23 37
73 122
32 161
26 275
71 97
170 38
153 79
93 158
70 267
13 325
38 150
328 37
205 95
96 115
224 117
122 66
214 119
306 226
301 71
79 2
301 327
248 309
296 85
64 184
269 23
332 140
41 294
242 89
168 21
203 173
150 323
134 91
20 164
285 185
118 79
215 21
329 95
178 117
29 91
103 265
222 252
261 8
226 20
228 168
134 262
209 327
214 76
47 124
100 290
228 328
328 205
81 312
78 210
290 11
135 312
28 45
146 37
12 306
116 173
259 87
58 229
175 21
20 61
217 88
147 39
135 264
27 190
38 151
113 275
318 228
101 150
152 196
67 301
280 28
71 323
277 253
83 64
216 241
33 261
231 131
112 249
61 6
323 291
146 217
190 260
29 43
332 71
139 63
214 66
78 232
189 145
217 207
37 286
49 278
206 65
261 183
61 282
229 13
119 232
240 37
43 255
145 139
101 22
114 266
71 249
36 101
297 234
257 76
127 282
43 6
239 263
225 319
60 137
261 258
291 267
280 332
106 118
251 36
225 6
126 91
42 254
125 294
57 249
286 307
71 11
277 178
79 109
274 199
291 293
296 112
244 251
327 112
145 196
181 182
115 24
192 77
79 231
298 37
330 129
226 42
255 261
209 271
151 217
306 99
73 12
267 284
240 331
97 311
123 5
225 243
9 205
274 235
273 98
306 47
152 183
225 291
174 251
95 134
95 19
114 263
134 206
146 261
147 69
45 153
66 51
320 114
235 205
142 101
163 331
207 112
239 249
153 135
274 202
157 141
235 237
133 286
226 183
199 27
73 143
260 130
23 267
43 30
88 151
202 150
209 306
125 111
93 135
30 100
249 266
275 178
71 254
38 319
79 273
45 312
143 323
267 288
255 61
51 91
326 330
255 166
282 135
58 190
174 194
70 158
47 296
71 21
207 167
115 328
93 195
64 329
89 23
301 236
3 157
201 38
221 38
133 87
249 20
3 171
87 139
103 258
178 100
177 266
223 28
125 89
78 240
244 184
188 11
199 252
44 182
96 323
267 120
157 278
293 280
133 233
216 56
287 184
29 318
56 226
265 255
265 45
63 73
22 130
297 314
210 267
182 183
282 82
161 119
195 222
303 122
94 125
119 279
138 331
126 207
225 8
20 47
29 320
224 62
198 311
118 231
197 242
79 283
267 19
157 17
271 255
142 38
267 43
73 152
94 108
244 286
309 275
115 266
124 71
81 49
222 331
149 90
122 119
324 275
159 208
113 246
203 102
311 135
135 207
226 329
261 164
73 209
267 172
127 41
52 158
260 23
278 6
292 277
4 135
73 71
62 41
54 302
21 185
120 34
153 101
129 269
260 267
113 79
47 255
290 135
163 54
204 119
224 192
129 21
190 125
93 326
52 198
12 124
265 332
41 331
76 186
118 60
128 119
43 301
282 320
133 119
132 111
9 189
52 97
170 100
32 88
301 278
248 138
183 77
146 200
52 278
223 253
73 96
83 217
69 174
36 319
228 50
169 234
241 73
262 282
289 253
11 114
271 127
185 302
259 98
79 272
214 45
225 184
286 25
101 168
316 138
275 240
71 232
308 52
206 127
18 238
78 95
209 289
265 147
86 207
146 134
65 52
244 99
16 278
87 286
178 204
152 23
202 144
331 248
34 300
6 152
139 222
15 87
157 96
49 9
253 56
80 36
307 93
32 298
323 326
6 15
100 273
315 305
72 46
108 34
329 13
271 257
72 184
287 233
265 252
24 103
108 124
249 54
122 172
37 244
39 308
29 20
285 121
282 206
53 196
97 253
71 201
9 156
176 249
73 193
45 104
64 99
61 9
127 204
134 119
120 331
19 151
259 148
101 190
232 293
331 242
206 216
99 180
105 65
209 122
117 184
302 184
205 15
283 56
277 184
154 83
206 316
275 231
161 95
217 251
201 288
302 101
145 307
42 301
128 302
119 260
108 13
128 123
9 252
166 294
10 42
278 128
276 108
29 55
72 318
38 322
135 85
259 7
76 65
49 111
115 61
42 178
124 320
277 257
69 194
135 70
74 282
21 310
124 156
260 71
286 306
61 156
43 93
217 40
198 11
158 280
134 32
72 100
303 151
303 260
216 95
200 323
193 217
188 306
205 51
127 156
173 58
189 251
245 319
145 192
78 319
146 73
129 251
52 303
257 265
305 249
256 228
257 314
306 100
100 283
308 15
255 256
15 139
173 108
20 51
178 72
36 93
251 95
96 21
73 6
331 71
308 87
184 157
168 277
36 64
115 110
118 138
209 241
43 181
139 323
168 315
214 69
111 153
51 319
280 184
207 14
103 38
304 259
312 206
37 307
134 163
274 130
47 128
263 176
328 24
288 38
260 241
177 319
48 153
12 43
231 173
23 167
176 329
280 305
110 146
94 135
68 65
77 279
319 52
143 319
254 19
303 183
71 296
279 209
32 204
287 115
77 185
270 259
97 16
123 112
303 178
228 255
9 274
263 157
113 311
191 283
320 119
119 266
72 159
147 91
307 103
192 164
32 177
64 195
253 255
65 244
116 107
200 51
76 255
277 282
250 64
40 259
128 261
251 233
129 141
299 198
257 141
223 323
277 61
27 331
221 136
277 35
232 242
44 62
159 46
134 8
60 259
72 183
237 4
124 252
198 103
134 238
278 216
310 1
159 45
162 315
160 267
69 80
65 297
206 251
253 123
88 323
123 224
21 286
302 230
27 108
286 225
253 122
158 19
133 146
29 135
273 275
162 154
147 251
253 19
124 16
296 145
89 100
293 286
271 261
313 312
88 126
332 45
14 226
163 127
317 134
53 51
29 214
321 314
303 157
156 189
103 62
258 228
256 164
150 61
271 223
187 302
117 226
21 149
12 132
260 316
50 185
286 214
297 321
206 280
153 253
291 157
20 192
26 312
332 178
55 214
95 196
287 256
240 295
70 240
285 54
115 88
100 159
78 252
93 53
196 55
69 29
65 57
194 226
44 146
83 305
144 142
56 248
108 229
327 14
107 46
173 30
186 59
183 96
251 204
306 96
114 308
232 329
127 117
20 261
107 118
267 248
275 252
59 286
66 5
169 18
166 80
298 184
217 47
127 65
74 89
206 222
119 91
222 96
286 255
216 331
302 149
178 14
266 291
23 254
319 279
249 255
184 306
207 143
67 38
163 228
258 323
193 184
274 38
312 98
23 21
198 159
330 165
228 149
138 101
207 73
161 63
37 9
189 51
63 39
178 88
23 16
127 68
263 228
124 97
39 277
332 121
176 326
219 57
302 51
109 199
43 204
232 74
211 90
101 54
260 181
217 67
274 118
126 14
15 63
32 167
29 267
103 15
329 319
115 143
91 294
15 251
264 100
56 158
204 93
150 309
249 55
242 125
93 286
103 223
103 124
84 228
210 202
222 45
162 225
195 73
112 183
30 202
158 63
205 170
93 242
177 65
19 259
54 196
56 73
206 240
29 286
3 215
218 98
40 277
269 249
308 157
275 131
179 302
114 5
322 206
232 147
231 22
101 151
261 321
142 278
32 169
38 300
190 38
36 332
158 147
225 269
153 26
231 130
239 296
214 114
103 260
96 14
52 74
72 288
278 331
6 5
302 31
88 143
293 207
175 129
290 275
127 322
214 204
208 22
223 47
255 224
327 91
306 69
91 323
133 287
52 280
94 197
213 95
267 101
80 275
305 141
326 289
14 242
265 327
222 91
9 71
332 82
184 217
43 135
329 202
220 301
327 280
218 75
61 32
118 178
12 39
38 159
247 302
87 177
30 153
100 206
183 180
14 43
158 77
165 269
124 38
21 64
108 220
319 144
187 228
284 182
185 212
15 294
110 196
44 103
19 329
23 77
216 145
19 112
228 128
103 163
87 96
32 244
316 64
332 206
228 267
33 141
63 204
214 266
214 296
149 31
230 161
220 130
16 128
282 12
166 279
195 119
69 178
240 323
62 145
177 264
91 124
323 165
290 272
134 65
157 296
199 46
135 178
9 225
323 146
82 232
115 151
264 103
120 309
59 233
44 73
293 9
323 99
242 100
121 23
278 280
264 158
19 206
252 303
279 263
332 29
156 307
73 172
124 184
264 282
78 43
100 196
182 317
124 257
212 228
43 240
29 158
233 249
135 41
69 206
69 61
264 124
106 100
161 6
306 261
309 202
77 93
135 306
228 100
161 23
194 182
214 40
244 252
282 32
23 156
39 71
101 52
217 223
178 43
205 232
87 143
325 118
118 312
141 261
100 263
39 196
239 24
135 52
66 184
50 35
210 103
135 11
34 276
71 204
73 67
319 124
251 167
108 71
112 152
167 282
50 297
306 17
217 167
175 154
261 196
186 37
323 176
222 135
253 139
326 278
90 215
206 91
252 163
327 11
127 286
251 179
152 40
223 77
184 211
207 280
157 282
262 76
317 209
225 39
182 51
308 226
89 73
167 103
93 123
73 178
117 123
121 145
241 210
43 89
75 48
275 2
92 285
42 61
278 302
264 93
29 99
126 206
331 273
305 145
222 242
252 277
226 277
21 269
331 203
93 112
138 312
165 21
204 64
139 23
192 249
95 14
61 232
87 73
119 174
21 100
232 140
47 294
58 150
261 92
207 96
101 107
250 109
68 239
136 199
199 43
228 296
242 33
220 331
214 112
253 80
82 72
251 181
47 157
37 257
242 188
135 214
95 209
315 161
245 94
242 294
29 176
149 286
136 108
100 64
28 323
330 65
261 238
306 95
203 272
253 77
279 223
328 6
326 53
164 282
166 161
279 230
244 232
208 26
9 101
34 311
121 228
207 332
147 43
56 95
178 240
196 267
292 310
21 105
200 257
312 116
52 127
283 190
41 189
143 5
134 265
296 216
253 294
21 3
226 232
14 51
329 71
228 277
310 57
69 11
273 267
222 144
100 46
224 88
23 255
220 207
12 271
216 63
110 282
65 176
259 313
191 56
91 251
11 173
309 237
51 38
203 201
176 150
331 70
300 313
308 253
284 83
231 106
13 100
8 50
295 132
258 174
328 182
87 274
282 41
249 262
278 195
166 239
226 320
74 29
89 199
41 147
214 87
307 100
286 314
100 203
262 127
88 15
20 115
209 112
224 184
323 277
81 135
279 124
256 318
332 133
207 134
88 114
198 242
56 130
34 290
135 111
200 282
100 97
56 313
58 276
269 65
214 80
240 60
134 234
196 37
119 163
261 112
261 256
122 115
42 327
326 178
222 21
198 9
128 145
56 94
301 16
182 164
320 301
161 115
51 262
277 310
277 47
255 278
113 56
323 121
141 175
76 249
270 275
249 50
20 293
198 107
164 52
165 33
83 224
169 157
157 23
42 150
101 42
217 282
101 61
227 310
128 222
56 147
113 202
105 187
310 17
97 159
173 64
28 63
257 303
47 258
224 134
157 234
65 182
317 73
147 245
266 178
165 326
308 43
281 75
306 219
277 314
228 105
59 263
218 79
309 135
307 51
276 197
170 150
141 243
323 188
178 163
178 61
56 135
319 163
255 279
214 260
200 251
155 68
253 271
293 327
200 6
326 189
286 92
286 157
209 28
214 65
183 99
312 120
299 107
263 18
162 255
178 10
181 327
29 277
192 194
52 134
173 253
63 252
181 232
19 11
257 115
32 59
64 206
303 93
251 40
45 218
115 204
55 182
240 2
87 249
177 257
294 134
89 329
115 263
171 249
299 301
95 195
217 189
26 101
125 158
318 179
259 218
100 181
95 143
183 251
265 135
268 90
64 312
115 128
10 204
157 12
211 292
5 249
32 157
166 77
253 21
23 194
37 85
51 194
87 80
63 96
273 259
278 264
214 216
14 188
184 263
56 220
201 100
157 222
132 135
6 129
260 72
223 224
57 25
294 96
317 282
243 239
106 274
106 240
222 142
51 88
64 82
190 22
274 237
168 92
251 224
230 29
325 131
23 265
120 130
327 143
101 232
226 265
253 176
261 44
302 286
311 240
282 278
106 48
214 317
327 132
199 135
71 63
6 319
125 148
185 228
158 316
10 278
295 259
323 177
182 24
1 249
327 217
6 174
43 196
64 11
117 121
266 323
101 222
25 157
210 259
102 202
308 167
294 228
271 152
119 156
39 326
110 91
101 67
301 98
66 308
52 172
38 250
278 73
222 122
73 166
256 76
153 220
283 111
45 43
103 77
308 5
127 264
277 171
224 285
167 286
32 223
78 275
271 51
14 122
178 78
73 38
195 241
326 43
103 257
52 124
277 291
134 67
309 197
260 136
135 325
308 228
67 119
42 240
30 52
151 252
56 123
197 100
69 289
242 176
253 167
277 182
221 220
323 157
47 56
43 28
217 233
190 198
319 326
51 284
32 209
37 297
45 152
157 287
266 251
269 145
291 207
203 329
74 42
150 251
269 77
301 332
95 320
240 109
53 127
183 36
34 329
92 228
317 308
253 99
264 261
68 307
156 287
126 127
226 239
41 124
279 177
305 65
147 249
124 23
134 257
308 278
61 119
219 215
97 151
240 118
323 331
221 301
230 207
134 282
100 208
119 88
296 150
61 122
241 188
98 316
263 194
159 295
135 82
135 36
124 135
295 275
28 279
306 292
252 197
14 23
62 178
115 278
105 3
201 120
251 241
315 225
183 318
155 8
255 163
29 289
132 206
209 150
135 270
38 80
282 205
222 254
327 121
317 29
146 55
79 43
158 157
144 178
111 270
249 285
43 152
232 259
261 35
124 307
152 294
329 106
260 81
9 275
165 314
320 263
296 258
224 65
32 302
36 222
327 189
288 202
82 56
195 100
55 224
224 189
71 51
264 71
242 147
32 28
236 190
279 214
267 131
23 101
139 178
183 166
269 141
265 222
297 308
8 217
206 263
286 230
70 9
134 253
260 115
277 3
116 248
11 124
89 332
176 87
303 253
177 253
183 67
274 101
69 296
274 206
258 328
32 135
198 170
241 117
192 174
294 279
126 37
184 63
87 198
291 249
198 13
294 73
181 252
164 184
119 95
52 242
158 61
94 229
306 242
26 197
21 57
113 150
230 263
161 88
331 52
52 224
165 263
142 70
255 320
82 240
260 10
251 23
323 33
271 263
15 222
91 145
37 226
45 288
160 274
312 253
61 147
98 38
34 229
173 19
103 119
63 308
80 240
223 289
277 207
226 99
194 261
296 53
213 217
36 275
306 169
48 125
276 125
304 198
253 230
111 327
18 92
181 267
142 94
100 48
158 210
53 251
189 265
41 193
202 97
161 194
117 101
328 119
318 263
291 173
47 61
317 63
285 155
194 134
86 272
29 63
230 119
242 210
126 252
271 73
293 72
95 226
41 278
110 55
286 320
61 326
293 332
239 177
15 199
88 253
32 156
257 278
243 83
168 314
115 127
64 145
6 252
286 187
61 112
96 88
134 244
51 114
274 301
257 269
319 32
175 83
188 72
24 306
198 221
222 259
195 178
311 316
198 254
302 310
66 172
32 54
157 37
296 205
76 318
80 15
223 166
14 93
169 261
95 322
188 263
122 207
164 77
282 207
278 306
331 311
236 108
285 314
187 31
68 134
156 87
165 83
90 3
211 286
43 296
311 301
278 69
183 145
281 27
206 228
125 120
327 263
157 193
249 307
306 90
271 188
212 217
183 192
282 123
56 329
71 160
274 278
307 217
231 198
193 182
279 87
89 115
115 77
306 5
206 266
10 64
74 91
41 242
124 42
296 51
251 193
181 52
229 100
46 316
320 207
93 184
196 239
253 147
224 174
6 40
144 9
329 52
163 167
161 226
111 331
136 27
257 209
280 291
313 199
174 44
140 124
225 29
201 138
263 314
316 331
72 60
145 239
18 286
265 167
156 96
308 328
42 89
70 178
225 257
108 265
127 143
293 225
202 122
72 322
326 114
191 240
196 200
128 93
317 69
44 63
162 141
52 207
71 140
168 65
157 54
241 282
176 64
232 286
143 124
103 327
332 167
214 174
52 202
154 263
100 190
326 38
222 63
183 59
101 95
206 42
212 134
106 140
77 286
99 51
261 143
304 101
256 146
215 157
260 301
142 260
157 239
77 29
139 225
135 294
78 100
97 254
128 189
189 158
224 129
223 222
5 271
12 323
154 21
56 106
103 317
65 166
217 29
17 171
43 140
107 331
21 135
79 135
63 64
118 98
316 116
226 51
238 297
39 73
277 196
96 261
207 89
226 253
299 160
41 306
243 162
145 175
56 115
306 121
277 302
167 257
327 266
167 182
302 234
313 46
145 210
257 18
326 307
43 123
99 271
21 249
168 225
302 217
326 267
6 195
209 280
224 35
293 261
302 317
163 14
242 79
306 66
128 152
263 145
147 51
284 141
64 306
6 285
202 273
134 50
93 289
99 279
206 286
239 124
275 107
27 26
212 314
331 63
253 96
326 180
224 207
132 79
161 251
54 257
71 316
179 32
10 142
134 261
259 138
301 252
103 55
208 150
328 289
317 47
15 278
28 166
40 52
9 288
306 83
145 134
323 178
247 57
326 87
264 62
185 92
176 157
121 195
171 228
301 322
82 222
217 100
93 124
154 287
205 67
62 317
225 126
39 51
170 267
125 9
283 135
291 252
28 9
255 154
294 265
180 119
114 232
68 214
101 69
138 34
295 108
61 145
79 95
65 296
30 301
99 157
275 195
155 54
197 324
64 224
157 31
66 40
294 99
150 178
157 206
214 180
325 202
260 82
207 65
38 19
329 109
4 150
204 196
124 323
275 45
32 119
143 249
209 189
118 66
251 255
134 258
282 150
167 183
202 124
255 83
245 68
183 29
72 16
257 169
48 190
278 202
37 69
63 289
73 121
186 115
263 96
307 196
36 123
21 128
300 331
131 329
135 87
296 261
240 13
210 64
188 125
193 126
218 309
9 36
329 108
93 47
248 140
199 319
154 243
184 232
188 163
64 151
107 72
261 165
42 183
263 171
209 301
174 61
37 62
174 62
242 67
267 246
51 150
249 223
205 261
100 32
250 45
127 251
2 316
226 125
125 236
332 126
188 89
225 261
57 263
189 263
136 45
197 150
306 122
226 61
127 266
17 228
250 52
45 251
108 102
69 6
188 51
9 207
6 243
104 198
228 165
313 301
52 260
9 204
208 116
274 299
255 245
303 332
121 37
29 161
251 262
153 150
308 41
290 274
45 130
320 135
95 100
145 182
172 209
259 45
294 306
223 68
188 152
140 198
168 37
71 320
32 200
87 121
279 167
71 299
211 3
178 263
62 188
74 260
115 265
116 45
66 183
134 183
213 175
301 34
34 58
249 61
242 267
278 144
306 189
223 214
158 72
172 124
173 137
33 53
67 63
261 228
115 103
224 15
239 37
128 134
123 251
240 127
117 143
80 267
163 135
282 103
189 277
255 68
324 81
185 188
226 172
59 93
73 267
162 157
188 176
46 301
86 267
217 249
138 199
172 282
261 172
217 214
265 225
103 266
232 323
23 181
324 56
63 196
87 153
188 121
34 106
53 284
122 282
222 190
93 45
222 124
194 286
124 87
38 71
251 44
31 21
165 308
192 196
237 275
145 326
293 277
301 26
151 224
46 274
188 38
123 51
260 148
52 320
196 321
45 52
126 158
52 114
259 301
261 269
51 12
15 52
327 93
237 108
32 65
68 29
52 111
163 267
28 73
298 285
84 187
41 222
56 103
302 92
214 123
100 214
232 256
247 90
283 116
101 163
226 158
14 9
6 320
129 326
70 278
37 99
327 232
207 331
169 285
218 118
9 123
265 202
63 61
91 193
176 327
103 301
100 165
325 108
250 311
192 193
238 54
28 251
51 127
105 292
23 302
227 263
260 193
278 51
164 139
41 209
182 157
285 184
147 64
40 119
145 85
100 67
86 320
252 196
309 260
301 205
4 38
178 319
326 121
124 51
24 194
76 263
108 178
327 126
302 255
255 289
169 185
82 87
37 141
202 4
91 112
332 43
105 84
303 123
77 332
27 259
189 178
249 271
49 86
301 284
102 267
153 274
68 63
327 242
217 68
168 134
136 191
174 24
152 32
173 2
172 72
124 217
258 317
250 207
310 268
95 210
286 294
81 178
37 266
9 100
224 193
2 56
150 82
178 196
168 185
161 214
128 71
100 172
250 140
38 325
240 325
150 324
128 129
293 52
306 185
52 252
143 21
193 20
224 92
257 83
165 141
136 153
329 272
135 332
29 47
216 13
289 308
250 178
233 209
276 202
327 117
250 329
32 293
180 43
47 195
71 267
23 258
183 242
23 322
97 86
135 134
24 277
286 145
298 155
100 226
259 144
209 183
147 266
101 197
204 312
72 13
93 243
184 242
167 127
66 123
192 178
109 274
294 161
87 151
177 51
202 148
114 85
222 71
324 94
157 294
236 331
232 306
195 210
241 11
91 52
220 250
142 64
306 266
62 134
329 61
327 158
280 73
19 240
43 142
198 22
47 14
69 264
217 244
114 183
168 263
104 202
287 200
32 62
203 197
180 217
228 279
103 20
51 326
76 308
305 224
69 117
128 76
327 96
209 61
188 293
14 183
139 37
34 260
136 300
61 62
153 52
330 141
99 6
84 277
202 64
4 275
259 224
133 76
255 240
39 322
145 301
147 42
320 99
242 163
73 282
181 184
327 141
118 72
6 277
230 73
55 73
86 254
157 35
3 306
214 43
51 263
286 262
312 95
145 12
332 15
100 42
205 214
277 145
93 52
326 287
78 124
204 145
111 222
157 223
174 85
134 55
7 205
66 41
8 212
206 51
238 196
260 278
315 164
122 242
320 327
325 173
310 184
71 144
293 226
101 188
222 329
320 205
172 206
103 88
9 153
269 284
164 166
133 186
259 206
37 172
274 329
125 278
24 244
305 269
124 125
155 168
61 296
267 4
314 134
37 5
15 72
30 95
278 181
61 239
183 55
78 66
237 202
32 20
152 99
18 298
301 136
9 66
81 235
294 23
232 52
33 228
101 320
268 105
56 218
199 120
301 208
259 267
290 235
296 59
202 294
243 323
287 67
5 103
196 223
212 285
289 77
143 72
253 23
206 37
252 74
233 257
289 277
153 290
209 239
198 235
156 319
217 73
263 41
202 106
163 181
207 10
88 86
219 302
122 302
255 193
45 131
227 187
42 64
178 181
79 120
54 134
87 319
20 243
326 37
125 274
102 316
222 80
329 276
286 224
278 103
257 267
249 182
87 161
181 294
175 166
217 32
277 25
299 173
209 222
61 97
125 273
147 9
16 38
239 308
263 53
131 272
128 161
30 304
50 224
34 309
265 128
299 267
332 312
6 266
309 72
236 79
23 135
50 92
16 19
242 157
54 169
68 196
43 260
318 217
257 67
139 72
210 81
67 294
4 281
229 197
42 329
143 242
232 29
205 158
84 3
217 269
228 71
73 41
47 112
150 136
267 159
317 244
9 128
52 12
172 123
156 64
224 238
67 72
12 179
271 332
62 101
67 251
319 95
235 331
276 72
202 183
71 119
317 61
323 15
29 73
199 290
210 303
4 331
279 145
118 153
98 136
180 196
65 63
2 80
296 133
325 138
76 225
82 47
86 150
125 313
278 93
253 161
250 132
214 242
133 55
150 117
139 226
293 302
228 31
122 63
132 232
69 9
266 315
2 45
184 65
112 180
289 28
188 207
207 198
323 226
306 172
200 119
12 226
142 52
30 56
5 302
82 58
263 33
12 251
296 143
251 24
291 93
120 221
249 282
316 45
332 189
297 54
6 32
134 233
23 11
119 257
97 45
316 237
119 287
201 290
135 116
99 217
43 143
88 124
61 328
302 162
195 71
108 36
127 71
255 141
205 288
226 78
280 42
85 5
213 277
254 242
91 214
73 244
150 270
140 56
113 267
28 326
199 64
136 101
217 308
47 150
136 9
84 263
170 108
283 260
156 152
266 88
304 173
224 5
177 5
284 263
205 6
233 68
76 306
151 264
68 278
207 64
225 303
78 329
21 61
47 126
322 139
23 127
243 228
291 296
261 259
209 40
56 299
308 14
214 14
145 222
145 158
32 249
260 152
44 222
232 37
44 224
230 69
312 150
214 88
313 197
217 259
37 77
196 29
9 299
51 32
209 307
237 136
330 91
224 141
296 186
188 140
12 122
6 175
242 101
45 160
332 263
176 111
65 126
319 119
196 52
287 179
65 172
252 140
300 118
23 183
127 188
319 206
190 325
4 260
248 274
308 100
145 59
93 51
255 225
241 293
312 259
93 213
42 156
320 245
188 174
289 167
63 301
23 82
259 322
134 143
77 167
41 52
327 249
217 194
158 122
127 145
41 47
103 158
259 32
52 316
99 39
265 63
277 65
302 77
226 210
253 9
158 252
48 316
207 241
304 231
206 198
253 327
239 28
77 124
192 85
184 9
308 154
155 238
275 281
149 215
39 121
257 77
117 206
61 173
195 80
29 52
294 32
134 6
110 261
9 282
106 136
61 331
61 278
248 313
50 306
69 43
243 213
140 158
150 273
237 240
78 193
240 124
94 272
286 252
172 293
233 115
140 132
292 17
249 166
234 224
53 261
173 278
327 188
316 303
210 251
200 127
316 236
221 197
92 194
125 173
137 312
317 23
89 209
243 255
266 134
222 301
9 150
146 326
197 9
261 18
103 193
252 127
323 41
91 225
83 277
180 110
332 153
106 150
68 51
255 63
53 286
119 216
37 233
282 230
298 166
41 255
218 300
139 167
122 271
224 321
133 184
123 95
327 114
287 73
217 52
286 171
172 278
63 202
202 73
52 78
308 315
46 116
41 252
80 119
324 38
183 257
213 320
100 191
4 27
69 240
50 321
252 267
190 26
71 216
120 150
323 23
228 101
89 69
56 71
93 189
198 173
56 222
90 302
193 21
303 47
195 242
302 209
155 37
98 125
225 128
125 220
279 51
252 88
317 249
78 64
323 252
225 135
126 69
205 253
252 182
209 52
285 284
178 302
110 224
100 260
188 135
72 302
291 29
200 134
69 10
204 72
278 323
115 28
56 137
150 69
250 142
100 276
126 204
191 197
174 150
93 121
129 243
277 332
316 22
38 275
306 61
239 207
145 129
168 8
249 88
112 115
157 93
255 21
234 50
224 256
242 80
23 125
209 267
62 20
211 171
15 127
306 327
55 179
274 203
118 201
32 143
134 59
87 205
158 152
124 158
36 145
175 323
207 302
103 10
206 214
72 323
119 223
282 65
216 96
210 63
202 120
9 260
306 228
243 175
215 310
67 9
45 108
329 273
326 249
275 242
327 71
21 152
97 96
71 30
188 294
149 310
124 261
127 24
42 34
177 143
9 111
47 44
37 133
289 123
270 331
63 24
267 130
332 99
160 288
207 87
127 6
151 214
314 234
45 100
319 56
277 158
2 153
91 181
67 124
195 9
203 79
273 272
232 280
79 52
253 143
238 285
38 72
5 61
242 95
123 11
111 232
11 16
260 107
108 313
240 217
227 306
199 118
261 284
214 95
127 330
240 136
278 123
155 184
120 118
259 108
62 302
63 291
70 56
214 139
134 110
326 122
29 257
95 124
249 310
11 240
225 154
46 136
45 64
190 137
216 80
262 233
64 37
278 124
151 139
85 69
326 206
206 21
56 293
255 45
303 181
228 1
256 29
293 115
155 32
202 199
10 78
113 199
103 61
308 77
261 126
229 270
200 255
298 257
263 3
234 225
229 173
214 278
93 95
302 171
132 322
85 214
332 63
23 279
66 144
251 172
58 202
119 63
206 152
207 158
197 130
21 302
72 70
173 158
145 186
87 47
224 323
103 280
230 63
65 59
216 103
79 248
293 184
177 226
135 206
251 228
114 332
100 294
43 329
52 156
331 221
117 307
108 4
9 286
269 302
217 9
165 196
166 115
104 108
291 332
322 124
206 66
112 77
82 207
26 72
29 204
214 210
184 95
108 118
240 312
23 143
197 116
38 242
30 70
316 270
58 240
196 168
209 332
286 233
38 320
209 176
9 210
225 285
37 252
291 319
315 175
173 86
82 241
310 211
76 217
187 57
259 103
146 228
153 260
43 254
251 331
89 5
111 71
139 61
158 266
198 120
41 8
9 145
135 324
128 5
60 101
176 196
184 226
245 93
246 170
265 214
296 224
288 56
261 243
68 261
163 126
66 43
112 145
64 38
115 183
125 38
192 323
254 311
323 145
234 37
222 109
201 160
267 153
40 134
274 100
257 168
71 13
124 63
332 228
242 261
71 147
37 306
268 286
135 108
315 326
266 257
7 38
206 255
79 158
255 39
103 240
64 163
286 238
274 81
267 74
121 112
327 254
53 66
226 40
148 197
252 119
10 95
31 90
153 259
92 32
123 28
250 95
61 161
277 68
249 65
321 302
265 156
13 260
249 222
303 286
287 224
244 258
21 332
222 13
21 166
21 291
228 196
66 228
275 222
255 217
159 331
78 47
249 59
253 252
39 226
150 242
37 330
32 124
306 196
42 69
52 47
224 233
245 216
207 222
47 193
45 36
243 65
60 267
314 298
119 37
281 316
111 16
47 204
207 93
40 249
178 293
103 174
119 59
286 222
202 281
280 252
330 224
96 108
247 219
302 152
70 301
136 324
261 193
178 214
22 273
138 153
244 169
127 209
326 210
282 279
234 261
150 299
153 34
15 264
94 312
311 125
150 70
47 328
274 260
206 250
118 190
122 9
108 153
44 225
144 331
282 36
214 192
292 3
130 299
123 296
271 103
329 63
272 136
47 198
95 225
48 198
257 8
85 115
157 84
123 195
159 312
205 36
74 9
308 224
197 267
175 286
28 6
329 100
223 209
95 150
127 189
194 214
2 267
61 233
69 263
125 79
47 239
139 259
263 217
301 115
74 153
278 232
225 122
28 226
61 89
95 153
65 320
283 311
244 123
163 87
219 157
56 202
298 306
86 241
280 47
304 260
332 266
100 12
319 135
245 209
76 110
122 29
220 96
118 75
32 238
318 194
19 56
97 87
328 249
36 109
312 144
86 63
162 323
251 143
323 61
166 253
223 65
40 132
216 45
240 100
255 91
259 251
91 249
129 53
115 173
232 49
25 249
61 66
43 99
199 26
10 63
196 193
284 251
261 286
152 44
180 103
214 41
266 232
111 101
251 88
64 251
224 126
71 122
319 251
127 214
181 308
206 32
69 151
157 253
9 331
235 301
47 166
66 151
27 197
261 278
260 29
261 9
196 255
199 131
240 296
184 62
78 115
121 69
214 196
172 127
121 43
184 6
249 247
193 228
253 156
130 153
204 293
329 313
100 198
221 135
158 209
45 123
56 61
225 188
91 157
53 258
30 125
157 57
226 244
232 305
201 80
69 86
225 112
259 111
165 95
23 69
114 278
119 52
226 282
254 139
183 241
267 241
177 225
258 61
118 46
316 313
23 222
175 277
205 226
36 245
123 96
323 172
114 103
193 306
332 257
51 180
136 94
197 104
310 84
28 230
302 320
112 217
245 332
12 183
81 202
329 67
234 321
24 224
274 26
52 56
139 128
208 136
35 185
23 126
152 186
70 202
93 151
164 189
259 22
332 95
261 127
118 34
325 125
15 38
122 177
235 136
155 321
65 6
96 178
64 43
101 93
135 190
253 264
44 286
329 331
78 42
202 89
111 56
282 328
231 170
207 274
186 134
50 298
282 99
240 108
211 228
217 91
277 155
329 116
155 18
110 257
252 117
145 150
301 61
63 99
145 331
154 323
96 9
35 54
36 195
93 76
9 65
29 266
153 281
79 26
8 18
174 261
225 164
244 103
251 134
225 50
86 222
78 183
150 144
32 87
287 55
240 246
285 307
96 232
120 260
14 181
151 301
72 47
181 302
209 230
23 20
275 136
6 294
169 302
57 105
21 211
68 124
232 115
127 301
225 124
301 97
285 134
253 15
274 231
6 154
162 213
307 223
205 322
30 150
225 297
259 300
78 9
56 104
123 312
67 43
282 139
87 239
236 45
319 117
45 80
255 77
45 290
240 218
308 319
296 5
47 216
21 156
197 113
103 303
44 226
331 38
217 253
33 21
266 95
223 87
297 127
93 177
135 67
124 230
247 149
181 51
87 204
326 175
74 87
83 261
153 158
26 281
308 209
69 96
47 244
319 214
115 40
243 127
238 306
87 260
67 139
304 82
78 332
150 36
143 308
222 327
301 14
82 252
59 73
253 36
185 184
18 217
16 319
133 179
61 39
115 326
135 80
128 252
20 145
51 241
93 114
177 252
36 259
280 5
312 58
251 269
284 308
312 236
23 278
209 265
331 137
150 214
216 150
275 60
184 149
263 233
29 301
107 190
188 234
6 213
223 51
267 329
72 138
47 253
62 63
17 277
108 49
95 45
33 225
217 178
16 117
286 278
70 242
8 185
222 204
45 148
93 232
296 64
119 278
232 103
264 172
243 315
225 307
38 52
196 285
215 17
72 311
101 32
253 150
224 175
269 330
197 281
162 51
214 318
21 243
124 332
215 228
233 228
188 214
145 287
178 207
33 154
227 90
21 65
214 32
319 11
294 319
109 264
38 267
266 41
278 240
157 306
147 33
125 49
302 244
278 24
145 123
322 214
303 226
327 69
162 129
257 282
264 51
190 204
259 4
143 61
87 184
282 78
305 6
260 116
42 26
273 89
195 209
216 282
323 179
101 100
71 189
32 23
147 52
211 105
206 70
40 206
275 173
259 61
270 101
4 301
280 143
329 207
239 152
294 259
301 74
110 29
52 222
326 216
149 57
236 118
95 142
127 308
207 306
207 121
96 242
99 228
152 180
257 259
29 54
43 251
302 114
206 217
182 269
108 278
299 288
118 64
12 112
35 263
123 143
263 95
67 158
275 102
255 178
241 204
80 71
170 218
93 251
323 294
18 225
180 126
86 103
310 31
232 9
178 291
158 319
313 100
32 147
301 158
63 239
118 56
22 153
37 262
286 164
206 38
125 116
196 112
240 52
317 263
43 38
73 279
327 23
89 173
206 144
173 202
199 150
301 27
164 61
222 251
250 316
51 141
277 72
153 325
146 196
72 66
315 21
202 250
210 282
50 168
153 221
282 158
225 67
189 123
217 286
71 176
155 224
323 216
224 166
264 99
178 67
156 158
150 303
89 78
308 244
316 56
69 242
86 43
117 196
297 196
319 172
204 319
282 43
297 157
47 135
102 273
264 205
143 263
296 326
84 219
150 79
322 225
11 264
184 76
24 164
80 255
71 101
72 329
127 279
40 126
220 132
65 103
225 200
115 286
319 195
6 145
200 217
188 78
114 293
288 89
56 86
127 332
324 312
224 146
274 316
216 202
280 157
251 225
77 277
183 47
89 103
161 307
208 75
91 271
124 166
9 277
302 226
232 177
96 302
184 146
101 73
9 16
293 124
61 308
189 226
179 184
246 148
65 227
166 61
126 296
143 174
15 282
281 34
321 32
68 167
21 232
39 80
69 261
101 41
307 252
6 93
323 29
135 257
57 227
7 26
51 83
93 83
242 61
11 43
327 316
146 285
213 305
209 161
155 261
119 10
214 245
282 51
209 181
16 100
178 252
56 75
263 71
56 204
277 71
108 158
319 72
119 182
119 307
199 299
34 198
200 55
289 261
265 254
41 64
129 154
96 226
305 286
207 115
13 81
69 139
41 204
196 291
100 142
157 307
148 101
92 217
124 267
177 327
191 131
296 29
198 38
51 291
91 207
2 7
267 218
303 206
23 166
242 97
319 132
138 202
135 250
153 173
332 86
76 73
326 293
102 313
115 241
206 108
255 213
135 46
134 64
171 184
125 253
327 6
303 37
248 22
214 239
327 115
28 47
114 239
38 260
101 78
210 331
237 197
49 45
31 268
332 223
76 296
240 79
156 145
15 64
183 146
121 124
260 207
172 294
199 288
242 190
27 79
37 35
181 319
204 322
127 328
112 126
252 73
296 263
52 76
300 22
57 31
255 117
37 156
249 323
127 93
176 100
286 178
43 42
140 329
1 21
12 47
320 242
113 38
5 51
240 308
226 245
192 261
302 287
252 122
164 255
73 64
29 233
331 209
127 225
89 327
56 120
95 63
6 162
213 286
292 90
190 98
12 99
139 296
145 209
280 101
115 242
115 182
245 172
303 302
42 319
308 128
83 286
329 316
21 164
51 214
7 136
192 251
312 60
143 156
332 181
103 47
224 172
45 87
10 332
207 267
73 174
29 192
218 312
101 278
127 96
64 267
193 119
91 308
81 278
41 163
258 182
93 129
139 195
276 148
136 79
181 263
41 178
207 266
138 137
10 74
66 277
223 308
125 264
91 12
206 207
77 28
93 223
96 93
125 103
263 215
40 180
252 67
34 199
160 125
47 86
227 247
19 103
86 144
176 43
122 157
132 253
183 117
202 95
52 66
301 15
135 242
302 330
57 228
319 125
316 278
87 297
136 56
112 289
114 143
123 223
253 30
327 163
100 56
192 93
289 47
145 73
161 279
249 188
143 228
260 126
130 237
173 29
31 184
308 69
72 142
232 302
121 206
29 62
211 187
15 73
89 232
272 98
292 302
263 269
172 210
331 58
23 195
307 63
239 306
135 126
204 15
47 180
126 61
241 252
283 312
150 255
147 14
188 65
66 71
83 196
157 271
226 261
274 52
144 95
152 39
233 119
134 133
41 181
23 223
173 283
88 308
199 242
105 219
95 64
20 244
292 228
207 240
278 209
197 67
151 36
225 321
173 123
145 322
99 126
301 76
87 63
85 277
162 223
272 190
202 111
234 35
98 173
227 25
43 209
265 65
255 174
117 257
99 61
252 96
294 257
65 24
186 282
32 162
156 181
48 274
209 294
262 182
322 15
256 200
79 201
191 259
249 253
278 294
87 12
202 74
147 176
60 331
240 131
51 63
255 66
38 203
97 327
253 117
259 197
209 88
6 332
240 329
257 5
264 226
179 110
125 60
87 123
296 141
253 69
323 182
63 282
217 317
52 80
251 207
286 90
128 204
319 86
132 148
199 125
329 231
125 131
161 252
286 55
47 101
67 240
196 134
225 212
87 222
87 91
117 32
117 37
188 100
206 180
23 64
61 303
263 105
119 173
222 188
255 14
123 101
322 93
60 148
225 12
297 185
153 71
230 115
16 252
295 106
161 93
9 10
199 56
93 183
255 327
71 47
15 209
39 103
98 300
147 103
255 294
328 277
74 61
252 319
271 180
257 151
268 211
232 245
140 131
254 319
206 225
235 116
6 239
89 271
198 300
104 250
101 293
266 63
4 98
32 14
204 209
236 267
74 118
33 83
44 145
66 232
157 21
168 35
80 153
251 194
197 131
66 101
277 244
125 281
47 117
178 65
93 244
146 303
196 206
199 60
207 150
267 309
72 10
52 301
190 208
158 331
207 245
308 99
161 255
80 6
326 40
176 66
232 282
52 42
135 288
70 327
190 79
31 219
78 276
294 72
326 331
265 308
117 172
254 240
259 89
30 108
249 156
321 54
302 268
251 9
266 282
272 27
246 118
240 94
239 167
183 44
214 157
207 117
267 139
257 172
263 99
121 277
277 271
262 55
70 125
195 240
213 115
123 217
273 190
204 282
6 226
253 16
261 32
306 162
210 216
24 258
257 123
240 222
323 318
14 128
278 166
43 245
234 228
308 53
309 240
158 97
178 184
39 306
310 65
223 184
328 80
105 171
77 123
191 170
140 210
96 217
28 21
183 323
61 257
6 96
329 7
66 331
134 35
130 190
228 182
319 88
184 85
137 125
322 6
103 9
224 122
142 331
222 323
177 43
87 224
66 145
112 161
239 253
327 88
226 150
164 196
96 225
134 147
195 145
66 242
184 297
189 122
34 22
127 129
312 109
72 87
196 327
127 141
263 193
271 123
255 259
300 288
264 178
178 63
87 280
147 82
289 76
188 228
250 208
301 120
138 237
108 311
127 39
71 23
271 226
119 14
32 67
150 130
115 76
326 200
286 1
177 135
152 286
72 228
159 56
217 185
224 269
140 123
111 301
317 226
103 184
260 208
43 16
319 210
224 179
181 175
144 38
15 71
158 82
241 327
117 67
200 157
301 173
261 59
164 174
274 123
28 206
296 103
23 291
264 36
252 226
181 103
188 261
66 29
313 48
276 199
303 319
59 255
57 302
52 253
141 152
258 37
165 264
45 327
316 104
93 323
53 243
261 267
184 122
259 26
188 252
100 70
164 63
224 145
66 157
302 174
27 191
3 268
207 157
261 14
51 36
107 240
206 111
150 172
37 243
259 290
184 53
329 327
152 172
114 280
314 157
6 29
201 101
251 182
213 251
316 300
43 80
262 257
78 73
150 78
318 200
326 266
20 306
204 67
124 183
119 294
226 202
233 157
217 166
131 331
192 65
275 71
305 277
192 228
276 229
87 41
178 29
122 255
323 83
203 135
198 15
32 305
103 245
95 43
273 198
159 190
225 306
175 186
193 24
169 179
158 242
142 132
161 69
217 21
122 103
128 147
209 101
136 148
302 233
209 266
5 87
82 115
56 246
296 23
139 117
121 291
147 129
47 196
45 51
256 73
144 153
174 29
22 275
259 80
227 149
291 143
122 323
323 282
34 72
249 92
51 33
318 302
117 29
23 286
108 9
92 297
71 156
305 251
249 121
173 136
8 302
25 187
134 269
261 50
316 7
3 247
195 72
9 79
209 312
216 38
312 38
63 174
14 52
70 322
306 43
316 118
179 134
51 134
136 218
62 51
284 162
38 204
272 301
207 40
62 234
133 327
267 249
99 73
97 205
237 135
282 119
145 15
248 259
302 158
151 124
230 261
132 95
325 301
199 81
115 249
78 72
72 299
257 253
260 30
140 319
69 258
206 329
283 329
10 45
125 191
225 14
56 116
268 17
307 183
163 63
215 227
224 212
38 327
62 226
240 196
164 145
2 107
241 61
282 252
242 302
80 241
179 233
273 260
331 94
289 296
312 178
92 277
125 232
19 63
185 134
110 206
186 184
157 124
130 301
148 100
222 296
261 181
31 171
265 150
73 82
31 292
63 153
199 71
112 282
56 132
156 286
289 166
69 302
202 46
23 163
156 206
282 128
97 72
110 119
158 127
177 63
75 199
161 263
264 156
128 122
87 254
108 26
257 163
123 74
55 37
37 110
217 37
217 41
326 279
206 139
104 38
109 281
177 200
274 325
12 152
247 157
189 210
261 263
202 204
193 145
183 110
228 269
142 153
52 96
267 127
134 189
47 23
151 112
123 176
226 249
47 174
84 184
255 267
316 120
30 311
242 30
188 95
234 263
164 37
89 206
296 88
5 93
110 251
175 192
157 266
152 209
51 65
298 92
69 74
274 259
257 146
196 92
229 199
114 224
322 308
135 228
315 330
188 177
265 9
176 206
48 38
145 162
296 331
294 206
213 141
244 194
309 173
236 22
8 298
56 97
91 282
23 134
217 279
29 251
64 326
40 121
288 222
20 214
225 92
296 242
271 112
181 71
267 183
250 332
146 179
115 150
216 78
283 45
239 77
54 18
38 56
253 263
200 115
173 267
207 32
305 326
88 183
89 278
184 18
108 324
314 88
238 298
302 271
96 194
244 255
172 24
36 291
330 284
71 16
48 148
197 135
73 224
278 88
202 206
326 195
260 64
125 231
133 110
115 307
227 1
39 47
108 109
21 306
280 189
267 66
118 304
190 301
32 285
178 30
261 163
269 37
117 114
225 214
265 87
272 102
61 37
150 311
224 66
206 30
260 222
159 153
71 183
125 332
244 157
332 69
7 304
145 163
192 63
301 87
274 159
295 329
178 38
166 37
197 190
207 330
49 64
195 63
189 286
133 308
128 319
265 319
15 95
206 99
103 96
63 327
103 205
101 206
243 251
57 211
2 106
259 140
154 127
47 161
65 258
264 252
65 193
245 240
95 282
21 308
134 205
259 29
123 39
286 266
79 260
188 43
195 260
103 40
19 86
101 135
15 61
56 4
155 302
175 53
101 133
14 64
9 257
83 62
148 275
67 319
95 135
32 265
52 259
21 54
309 125
222 282
70 144
228 268
282 308
241 72
321 228
67 23
36 267
202 61
72 52
223 207
52 5
111 210
249 149
117 95
275 95
320 93
216 60
308 185
43 88
166 68
307 77
72 21
6 121
327 139
265 93
267 87
275 137
10 87
40 158
108 250
332 39
206 112
70 293
131 78
67 93
167 263
48 260
74 178
86 259
240 123
80 9
41 267
326 99
179 255
302 161
184 318
267 151
225 152
294 303
209 38
71 319
51 308
220 327
323 194
16 86
26 311
233 282
284 127
64 303
47 5
257 164
224 96
135 251
289 164
53 303
280 225
130 38
181 226
261 327
214 262
238 217
29 244
52 180
136 222
197 46
65 41
285 35
51 186
173 191
295 56
214 10
332 173
152 115
198 288
42 207
66 93
61 45
69 303
63 157
308 267
9 202
132 130
260 140
307 207
185 18
232 41
280 140
73 233
212 261
180 63
71 210
98 101
168 184
242 291
36 210
165 157
322 78
308 200
62 196
202 275
279 42
128 286
64 294
275 140
18 212
323 330
80 115
9 190
210 80
187 277
196 184
257 65
157 105
15 141
164 147
119 147
202 15
32 189
206 72
216 51
209 264
15 260
260 170
45 203
108 60
72 249
138 13
23 24
53 249
320 66
257 234
16 202
212 277
301 134
228 320
17 211
103 66
71 32
74 95
133 95
74 198
305 52
223 261
178 109
322 5
322 71
301 183
158 294
212 157
158 10
89 82
63 125
108 106
282 10
45 232
282 176
174 134
283 150
133 326
73 258
26 60
27 236
243 330
35 8
222 241
85 127
265 123
112 63
134 161
66 226
39 271
172 222
172 101
229 275
196 308
249 64
8 321
174 145
161 289
65 306
145 161
326 240
184 230
93 205
303 263
135 217
230 255
179 286
228 297
80 73
318 282
6 21
52 139
282 62
240 253
133 217
157 171
143 286
93 119
129 257
291 172
276 246
206 95
38 135
330 213
184 154
326 5
178 86
72 224
32 327
25 292
118 221
242 36
106 78
254 16
322 14
71 202
100 69
64 178
226 240
230 308
202 109
249 319
304 72
319 286
82 100
94 132
118 331
326 59
52 245
214 166
127 259
156 76
63 277
278 266
50 180
191 79
196 298
78 267
128 59
112 224
14 303
43 150
23 99
281 38
290 138
149 17
29 21
222 201
193 302
100 63
153 61
9 178
320 181
261 297
56 273
94 325
220 332
264 115
38 313
268 215
39 323
72 242
41 274
206 323
272 120
144 111
49 178
242 11
158 86
173 88
196 212
173 47
327 267
216 9
123 302
186 200
11 209
2 46
183 195
113 313
277 188
198 331
273 2
41 253
87 114
326 9
238 65
2 38
331 136
150 94
115 146
218 138
81 125
173 197
167 157
253 87
282 115
64 125
52 206
267 325
178 225
152 217
13 319
39 23
5 251
242 64
78 74
303 63
189 103
225 263
154 228
295 250
59 262
176 226
157 69
89 240
9 188
133 59
259 190
261 147
194 317
219 187
244 282
75 120
191 331
39 40
215 1
182 88
128 103
329 237
173 252
10 206
319 266
199 181
61 251
69 44
308 332
59 51
206 188
241 226
135 267
193 69
69 164
37 169
51 330
142 111
199 272
225 61
119 318
221 312
296 206
182 21
23 193
271 206
308 101
330 15
254 135
1 247
224 298
37 212
79 71
12 61
255 258
252 293
198 259
100 207
250 78
259 202
113 118
69 15
119 38
178 296
69 226
123 19
37 238
320 188
317 93
332 249
291 286
319 332
328 194
274 313
244 62
206 114
329 136
190 4
223 230
108 299
174 21
160 312
52 145
49 274
274 107
85 133
256 196
296 110
326 103
220 150
241 181
197 316
225 115
205 124
29 294
224 222
196 188
277 14
329 275
166 145
114 178
50 21
151 232
253 307
157 110
22 274
332 28
104 312
159 221
252 142
195 252
123 73
324 109
174 294
319 66
101 303
239 162
242 153
20 296
111 34
6 291
259 102
99 188
181 66
193 93
257 184
228 169
10 226
145 243
163 306
196 222
82 101
97 103
204 51
157 143
84 286
135 78
21 242
150 80
55 318
140 254
183 5
112 127
65 225
28 103
80 158
158 163
82 95
277 51
65 149
134 61
177 277
202 49
45 86
184 327
6 143
119 262
64 189
226 74
51 143
115 37
263 101
87 226
49 100
224 76
26 316
192 61
223 228
16 47
244 145
100 218
234 282
225 327
69 67
16 209
228 183
9 183
307 226
207 132
252 81
47 88
294 263
308 50
134 154
101 118
62 161
195 140
184 282
288 331
107 267
312 4
156 69
161 217
194 224
253 86
330 154
275 288
157 55
145 232
95 103
268 57
12 188
281 331
123 164
206 153
232 206
39 285
296 68
89 253
110 65
1 90
56 42
308 301
103 322
129 302
282 14
73 188
53 114
88 228
298 65
125 218
21 294
260 112
126 184
252 23
319 70
228 286
210 74
125 241
65 211
187 215
308 85
15 37
284 93
332 42
257 128
73 286
12 204
308 306
183 133
15 123
9 87
87 158
248 236
306 59
23 44
8 238
56 11
54 234
253 224
274 242
158 139
143 145
101 159
278 151
280 23
257 287
233 183
179 157
68 291
296 119
6 306
196 69
71 43
69 184
286 227
32 257
262 133
259 34
71 6
65 156
288 107
216 207
93 308
51 289
123 115
14 253
222 308
108 142
87 251
37 6
100 29
32 224
95 316
305 243
251 162
59 282
238 50
61 23
190 331
321 168
249 211
221 329
255 44
322 188
146 6
231 190
279 289
159 246
158 291
286 71
101 299
124 301
266 226
54 224
13 150
256 59
32 145
187 17
69 192
174 95
278 40
221 199
109 216
30 207
45 296
325 136
28 293
179 262
47 51
173 26
194 296
193 257
135 331
262 308
93 318
180 255
108 252
224 320
134 278
260 209
173 201
115 63
59 112
34 316
319 274
178 278
264 145
232 197
125 22
287 143
264 257
243 134
87 125
105 149
27 138
282 253
271 224
34 159
214 264
10 188
266 36
264 308
88 291
145 176
112 302
73 262
59 287
64 87
252 135
92 37
329 58
302 17
29 145
205 52
226 327
158 329
19 325
226 88
188 329
241 103
186 261
278 36
192 244
319 96
157 261
197 98
32 243
56 311
265 124
196 303
80 103
89 45
235 329
134 66
26 16
251 114
228 62
56 270
147 332
242 277
320 163
91 103
196 33
137 267
127 161
323 64
262 29
196 169
315 301
85 54
115 55
66 296
134 318
87 37
326 194
9 135
293 319
140 38
318 133
25 310
178 274
304 199
198 276
106 198
39 117
332 326
232 122
278 67
71 52
127 205
30 319
150 231
164 115
165 267
286 110
37 151
261 117
176 23
263 315
267 272
175 93
119 23
224 278
23 6
153 218
128 110
43 172
252 251
213 224
249 63
271 32
24 47
85 183
246 203
157 213
127 44
256 145
253 93
291 327
261 298
147 206
122 87
185 261
6 76
271 280
246 272
305 255
127 157
177 71
167 112
253 332
111 70
110 277
254 232
98 34
264 301
172 69
113 274
69 119
188 119
102 153
192 21
327 80
67 5
68 69
100 225
127 258
114 6
69 249
48 108
217 301
125 237
52 112
253 254
187 171
329 153
184 99
55 257
184 8
60 260
161 28
284 326
6 110
145 319
214 331
31 306
109 201
257 232
47 181
251 6
325 281
101 200
273 135
245 123
175 228
214 152
304 270
259 216
124 253
245 6
266 69
252 245
14 285
25 65
232 161
134 264
269 53
320 232
178 261
179 214
214 54
78 327
323 62
35 314
64 108
127 177
302 20
331 130
149 219
146 296
79 325
176 151
101 316
255 315
65 181
94 26
268 65
51 255
66 16
219 211
286 17
189 14
251 117
7 101
47 242
294 43
5 12
282 77
301 73
10 296
217 101
170 190
28 196
185 321
253 101
95 67
101 83
51 44
282 260
108 327
133 214
88 232
109 300
17 84
295 190
51 117
133 200
88 206
122 123
183 80
73 32
43 96
224 326
25 3
253 12
315 269
135 259
101 255
93 71
217 188
141 326
151 128
189 195
299 201
188 255
200 37
232 118
209 329
317 164
189 12
302 25
63 188
112 69
71 103
30 101
293 69
266 293
223 63
247 310
188 199
204 242
173 250
314 185
332 183
107 329
67 325
108 316
257 91
182 225
316 96
119 172
200 59
47 307
294 226
254 11
184 54
188 67
79 130
297 257
108 137
136 71
165 213
278 29
233 112
178 253
136 229
211 302
19 319
286 209
145 179
153 327
255 183
290 4
95 291
140 30
69 177
109 64
69 97
59 147
182 114
143 172
331 313
253 319
274 327
251 205
82 78
51 287
81 109
95 252
286 165
197 329
222 158
39 180
304 197
251 202
173 75
326 100
166 69
79 235
154 186
111 120
328 256
291 255
291 123
173 49
6 83
280 306
172 41
244 39
64 79
212 263
222 150
222 192
195 229
171 57
133 29
308 168
261 62
188 147
123 254
317 323
116 240
14 101
152 327
251 77
322 251
302 76
21 25
265 14
56 275
133 256
255 24
327 205
188 41
57 90
21 85
126 41
240 158
293 88
255 36
100 210
20 37
308 161
282 173
194 44
194 249
263 182
214 294
272 311
290 108
70 173
239 228
9 21
278 117
231 101
146 255
71 328
292 187
79 246
308 298
95 6
70 274
232 16
38 236
244 23
319 45
230 77
88 280
260 299
58 325
290 324
56 27
60 48
205 325
188 93
82 69
38 276
95 280
219 310
66 100
10 41
62 328
222 37
135 326
115 91
209 198
173 254
1 211
148 7
203 74
254 9
248 118
57 215
174 23
176 93
12 327
309 301
37 188
75 197
68 209
39 327
146 233
199 237
167 145
150 288
252 143
135 322
70 312
20 127
115 323
183 259
189 91
332 166
52 39
266 151
12 217
85 253
95 181
289 124
207 16
302 266
205 189
240 327
78 202
278 72
96 89
149 84
323 126
259 6
157 326
67 260
263 257
226 188
209 67
189 23
214 117
31 263
331 30
44 163
232 291
214 257
45 118
233 76
195 128
276 259
101 72
267 313
41 251
205 178
196 278
196 151
64 93
194 63
209 6
158 43
302 103
79 198
40 240
142 242
278 39
72 58
305 306
129 73
110 96
19 278
267 274
275 106
67 220
183 306
210 135
318 326
196 91
64 261
33 243
12 209
103 45
103 152
171 65
196 14
294 163
209 153
252 100
131 202
133 282
303 240
281 135
79 45
115 205
326 251
259 309
28 278
267 136
52 126
263 163
61 125
28 308
257 143
116 245
137 48
124 294
63 123
64 122
47 21
119 139
9 134
164 73
220 253
319 259
77 296
242 74
166 87
12 196
25 31
38 123
71 49
157 152
40 21
320 294
222 299
265 263
267 49
323 76
268 171
157 251
45 201
134 100
50 302
228 129
13 49
68 123
78 122
174 225
267 266
21 317
184 134
45 282
197 170
24 20
179 326
47 63
209 140
63 296
103 64
122 226
274 288
178 51
205 280
153 226
71 184
327 119
172 23
280 172
259 275
331 116
282 129
73 255
95 13
100 272
149 1
241 36
173 296
242 329
186 214
192 103
315 217
320 264
278 241
277 90
140 207
72 205
240 75
45 207
87 36
255 127
68 230
253 72
112 39
180 209
99 91
93 37
107 75
308 255
123 52
329 332
214 267
255 87
103 139
296 151
52 163
225 328
115 93
288 64
259 115
184 29
69 134
37 177
134 83
37 293
249 6
154 315
277 266
16 260
101 158
308 174
52 327
85 51
241 119
30 250
5 225
249 268
71 123
156 122
287 183
28 96
33 143
227 105
184 145
217 155
292 57
160 275
103 133
47 125
79 288
6 257
327 61
282 47
13 75
225 183
44 263
160 60
134 156
319 114
331 290
155 212
261 85
263 175
69 209
101 322
93 32
110 262
43 144
102 283
188 39
331 260
286 119
324 240
157 178
263 286
308 141
176 166
110 145
126 42
195 45
282 145
327 224
261 176
59 228
308 64
205 151
315 53
12 126
71 142
244 224
42 260
194 184
282 6
158 128
100 131
95 158
145 83
329 324
91 254
103 225
214 241
225 69
72 48
169 225
43 19
276 173
277 318
31 247
273 58
319 242
84 21
207 225
44 242
139 51
101 306
262 115
106 199
259 104
214 328
145 122
107 221
323 68
68 308
320 108
85 110
279 323
208 118
42 73
72 313
213 37
86 100
23 332
205 119
74 188
278 63
179 127
61 193
274 191
15 206
6 133
85 286
39 134
116 311
204 101
9 241
119 85
87 67
323 293
124 180
227 277
247 306
101 46
206 220
267 332
184 158
15 9
60 120
150 34
61 260
233 85
279 296
36 47
94 199
24 44
101 307
315 306
13 46
330 83
200 261
198 2
153 120
317 119
213 302
253 32
293 145
267 224
79 278
176 14
154 196
38 116
286 247
23 207
99 123
173 237
53 302
330 53
165 127
20 65
60 150
260 138
183 326
154 217
308 40
230 189
88 134
78 15
98 240
124 223
207 80
72 324
214 209
175 251
113 304
150 260
103 135
332 161
100 300
296 204
301 7
209 326
134 127
121 224
6 165
117 63
121 271
169 321
143 226
137 38
255 96
326 101
184 52
206 278
178 71
1 57
306 57
14 291
45 19
286 285
102 118
23 319
173 135
44 244
177 123
202 324
45 311
249 33
64 69
93 178
176 96
11 272
97 30
312 260
117 217
225 314
55 282
10 89
329 97
56 79
135 329
306 214
19 132
224 205
66 147
68 6
65 96
224 8
250 43
61 206
323 129
54 212
26 198
176 184
228 114
166 225
291 260
43 52
118 198
312 252
199 309
161 123
304 38
329 47
261 99
188 45
322 43
232 150
143 266
128 87
28 252
79 206
145 88
59 127
184 271
260 232
110 214
251 323
37 127
162 249
133 73
73 45
236 135
47 123
27 34
124 178
101 226
229 202
170 202
131 260
88 177
248 312
312 9
59 129
64 245
40 124
32 230
21 99
151 15
239 332
286 196
9 30
286 126
36 207
232 198
326 134
100 319
182 296
275 274
135 58
174 277
33 255
267 134
16 118
176 265
240 190
185 225
232 42
32 91
306 84
73 77
21 121
124 112
79 300
190 237
159 108
145 55
20 44
169 263
289 302
326 45
73 251
134 213
14 158
121 44
24 323
257 308
214 226
165 53
236 202
304 34
126 119
241 71
281 56
60 316
162 194
332 202
167 87
274 173
40 65
231 56
302 71
156 74
280 308
232 43
37 103
129 284
285 261
88 140
66 119
255 145
38 68
323 166
280 135
12 115
261 15
47 225
263 174
141 53
207 151
115 42
47 245
161 239
23 225
52 271
231 240
186 262
239 271
80 202
59 157
296 293
72 41
38 132
329 303
119 209
33 129
241 178
128 226
117 134
242 43
91 265
182 61
299 190
209 45
323 73
209 255
99 52
65 267
5 196
94 72
218 137
259 93
89 64
110 238
67 151
301 79
257 63
124 266
226 326
92 212
69 65
145 289
122 139
329 38
199 7
23 224
64 332
48 22
35 321
183 177
327 43
124 216
158 5
72 197
87 52
183 196
101 116
151 119
147 19
323 242
284 37
229 190
263 319
199 148
205 252
309 290
47 279
150 281
71 100
259 221
67 177
5 266
93 39
326 291
222 140
112 45
202 260
160 153
152 37
289 282
248 199
183 63
157 146
287 262
4 60
309 7
183 163
117 232
209 285
277 192
65 303
266 183
198 69
68 306
220 248
268 306
263 302
219 184
17 219
150 290
100 115
282 322
183 214
181 249
251 318
184 247
267 69
41 302
301 9
119 123
301 78
245 206
274 220
108 56
193 29
316 125
67 47
230 196
90 310
139 123
267 140
326 245
119 301
278 210
154 326
23 40
318 145
104 118
20 228
306 155
230 127
80 70
308 180
256 38
80 100
323 32
263 8
289 230
262 146
50 196
198 58
235 190
79 48
91 286
65 92
84 90
209 80
251 145
115 177
224 328
301 102
74 100
9 160
287 214
249 219
327 147
316 130
305 41
93 186
87 28
153 199
293 255
267 16
183 328
314 169
151 43
332 132
88 23
199 58
258 263
150 137
202 158
167 21
290 316
110 59
137 283
37 41
327 180
82 331
153 240
305 330
265 122
236 138
184 207
115 239
78 103
43 278
109 56
78 39
124 74
19 23
269 51
324 100
39 282
206 254
172 320
101 199
331 226
96 245
61 14
234 212
209 71
41 225
165 134
31 249
224 164
257 296
205 278
289 239
163 172
173 132
42 123
249 277
128 73
240 102
262 194
67 271
240 183
252 64
102 4
156 126
129 217
17 227
147 286
55 93
252 150
147 37
251 163
220 120
129 308
269 127
207 66
69 77
209 206
267 216
125 272
50 147
65 77
73 296
259 307
272 324
89 301
177 282
257 162
259 73
161 296
60 136
287 186
202 203
32 178
146 59
21 123
61 189
87 152
332 80
72 125
121 51
41 9
23 206
245 45
294 115
85 256
83 263
198 7
38 74
256 32
296 28
196 249
196 139
127 128
282 255
127 162
178 143
216 158
65 314
328 317
207 312
152 91
184 55
332 41
49 242
226 23
206 260
131 173
248 135
265 109
267 37
224 180
21 115
225 143
85 179
94 198
103 100
65 278
207 278
320 47
47 188
99 251
117 145
9 64
32 164
184 101
294 302
257 12
246 38
317 51
125 140
184 57
56 240
5 178
113 316
74 253
37 182
226 286
312 208
153 178
184 123
198 283
259 63
321 308
278 14
241 259
288 197
95 122
188 114
8 308
182 127
262 296
167 124
224 257
68 114
66 323
67 264
165 224
60 272
109 13
301 150
252 306
222 322
87 100
196 8
220 260
302 154
35 212
109 232
278 140
95 81
260 229
214 158
174 228
258 184
249 90
232 69
87 277
48 116
77 209
74 115
87 196
7 331
233 55
135 15
65 90
312 15
177 119
308 212
329 183
64 72
96 30
240 274
217 114
239 277
158 199
9 124
265 206
206 204
210 296
253 242
253 286
234 213
224 217
255 216
61 121
101 140
29 12
127 146
100 145
261 51
189 117
64 183
249 287
324 153
218 72
296 41
12 158
174 226
220 72
251 242
295 311
286 284
167 225
194 6
172 317
29 127
246 198
245 241
47 189
222 119
263 289
103 207
266 280
2 135
87 202
224 263
7 288
323 195
272 197
181 59
282 223
129 305
217 121
323 305
29 134
189 278
248 197
127 305
252 123
228 298
182 47
11 38
6 241
49 153
290 267
172 214
201 260
270 107
332 97
14 222
264 64
261 232
313 150
182 174
156 222
28 183
64 127
225 230
253 28
266 11
328 164
330 76
252 198
188 82
327 210
282 258
267 125
233 186
259 106
103 173
245 222
76 145
127 323
63 182
198 160
137 204
261 39
251 327
124 198
128 326
117 119
174 317
255 100
127 73
248 173
306 277
250 71
150 45
109 160
28 257
257 39
249 297
226 103
167 161
128 23
88 184
258 183
251 51
66 150
21 328
56 309
59 85
210 207
170 136
280 177
302 164
67 332
155 92
313 118
112 158
309 316
119 73
124 282
150 240
112 40
297 18
115 226
88 78
308 115
192 62
286 14
285 50
95 87
36 326
293 196
305 165
95 173
133 269
246 331
135 66
73 115
23 91
206 195
6 217
174 115
260 124
267 147
167 226
260 89
329 10
166 307
319 103
114 95
47 240
193 244
214 42
308 320
21 314
173 327
115 202
82 201
113 272
147 151
123 65
45 273
132 71
30 111
45 22
261 277
181 222
259 71
319 15
180 303
290 102
226 112
263 158
187 263
57 286
223 134
242 86
305 308
58 260
126 6
134 38
203 34
151 127
251 257
46 26
133 157
291 64
108 122
319 108
103 145
267 323
95 80
291 261
39 41
323 87
69 16
172 95
296 245
44 29
184 292
235 108
326 67
23 114
284 117
329 301
232 322
36 323
216 135
230 307
233 306
126 87
235 173
258 164
161 207
71 251
274 304
51 156
202 100
257 321
231 195
119 259
93 280
89 122
64 265
263 91
38 82
51 133
181 78
81 301
318 110
43 320
327 140
103 217
88 65
216 266
282 303
44 53
210 163
313 275
265 71
157 279
32 188
217 66
24 317
158 312
20 224
158 64
114 271
139 73
15 207
43 195
112 103
127 43
119 99
52 70
157 174
316 150
45 4
42 16
239 123
318 239
242 108
303 72
98 202
296 200
94 38
96 296
321 238
73 179
208 173
41 303
28 167
204 327
124 114
71 252
239 128
123 241
172 196
198 316
176 156
253 68
64 160
183 322
17 31
32 39
228 184
159 70
39 126
210 232
182 301
73 264
188 216
228 126
252 97
175 330
298 157
257 327
196 302
184 25
158 271
306 291
41 320
307 62
90 21
145 303
189 21
34 221
332 115
303 80
294 332
104 272
188 296
147 156
189 66
63 40
205 23
119 192
290 131
71 226
324 34
7 102
122 196
188 96
328 69
228 124
319 224
79 232
259 195
251 230
215 184
276 135
125 95
101 332
307 167
183 282
240 203
217 23
266 192
118 125
14 271
6 307
196 232
228 303
129 51
293 282
73 150
99 296
77 127
130 329
296 14
15 252
108 75
183 45
250 320
276 331
52 188
4 240
129 255
198 150
327 9
228 302
241 47
198 61
70 252
326 147
210 115
184 214
257 43
36 61
332 16
156 228
213 53
327 172
2 272
308 269
314 50
205 188
280 119
291 167
144 64
243 308
64 220
117 266
72 163
278 66
145 217
32 52
130 72
193 115
198 71
205 204
42 259
319 232
301 48
308 32
278 259
47 214
180 32
314 8
249 284
193 286
212 184
202 304
119 242
169 8
332 117
315 284
45 120
104 135
4 136
44 258
32 242
194 91
181 257
73 332
301 241
315 33
56 300
21 258
331 42
164 226
153 58
102 312
165 277
230 306
103 134
135 278
261 145
295 202
225 157
125 229
69 76
29 163
77 263
332 134
68 226
23 164
188 124
41 157
157 302
154 306
234 269
64 222
100 15
11 132
254 124
226 38
109 170
210 253
267 98
331 148
308 234
206 16
301 226
297 35
196 44
228 289
129 83
326 181
36 78
188 117
214 77
32 154
250 147
228 219
251 302
288 111
150 11
40 61
79 42
43 56
180 29
308 18
184 14
90 184
32 251
139 205
36 178
73 192
37 296
204 139
176 183
150 327
101 260
275 304
222 93
239 251
183 151
56 9
150 109
190 248
9 291
319 260
254 331
157 114
233 9
274 158
191 202
227 211
162 305
188 123
30 124
202 326
142 11
274 198
282 256
263 277
25 228
76 146
332 196
163 176
224 127
65 101
253 241
51 323
259 325
95 331
68 28
282 214
207 68
279 207
202 293
287 21
28 207
253 128
255 110
271 251
188 257
203 125
73 88
56 267
208 108
319 64
255 143
48 173
308 24
320 72
198 260
251 139
69 167
164 47
99 112
69 143
259 97
163 123
86 206
316 111
304 229
57 17
154 277
39 184
32 18
98 79
196 314
207 319
263 63
29 282
14 6
207 21
145 278
224 196
332 152
305 192
281 312
63 20
69 39
9 132
267 103
21 244
217 181
332 230
6 302
282 114
73 134
131 198
129 249
306 187
306 128
158 260
254 209
260 324
45 176
264 242
3 149
261 119
240 188
79 229
97 226
301 265
249 215
281 79
127 291
147 183
310 286
168 306
197 201
143 206
257 322
38 278
9 222
29 95
207 303
117 5
150 111
124 43
301 198
52 152
21 265
249 177
326 228
302 166
292 215
163 61
174 328
329 2
101 15
43 217
108 312
42 87
308 146
275 299
181 158
121 177
224 154
107 150
251 55
85 73
128 200
172 181
67 86
67 259
234 286
63 166
92 308
266 145
294 145
73 21
234 298
98 2
257 47
18 234
321 217
14 71
69 329
159 240
40 37
50 169
119 51
318 296
130 98
184 5
157 68
244 69
114 63
259 124
316 248
111 113
297 285
100 51
68 289
312 49
242 16
274 13
186 29
79 299
165 243
127 307
56 178
57 3
189 242
124 153
284 65
130 191
329 104
19 331
258 20
85 326
157 149
71 42
249 101
59 179
255 269
127 194
178 198
134 43
326 253
16 294
63 302
263 207
115 59
323 103
125 312
308 330
242 245
129 165
139 232
332 176
226 198
305 12
272 309
261 175
186 323
123 152
292 84
27 221
332 96
251 315
6 193
18 168
72 221
312 237
222 65
112 320
51 69
86 327
326 33
21 194
123 16
201 153
119 186
43 87
252 32
251 293
59 214
40 327
32 255
35 196
316 222
9 118
6 265
72 252
122 96
190 221
23 63
263 266
134 151
196 185
72 80
288 101
93 91
81 38
21 252
145 14
141 323
181 207
242 217
157 262
71 61
304 153
203 275
224 291
245 183
115 36
282 188
306 167
225 284
190 116
116 237
216 93
158 144
82 10
232 95
63 11
124 255
188 264
99 255
103 293
127 257
298 185
303 56
202 190
256 186
134 115
259 225
82 74
199 2
98 198
156 178
63 69
87 40
263 156
317 44
209 166
239 93
284 154
38 266
296 179
263 268
183 289
307 28
163 140
135 139
255 72
282 76
20 69
11 52
78 214
262 145
79 259
158 121
1 31
246 94
176 115
228 68
301 72
252 42
146 85
147 112
176 103
75 290
259 2
255 257
320 291
277 307
25 105
251 286
129 277
90 25
178 123
32 225
274 170
188 316
319 197
123 132
278 249
128 69
308 314
100 323
280 61
38 264
232 189
219 263
51 77
47 69
10 190
186 157
127 303
45 178
51 175
122 127
55 85
123 86
124 61
184 162
319 77
255 158
308 123
56 99
9 264
69 271
64 257
165 302
284 33
8 92
152 30
206 78
6 244
198 130
37 251
74 307
127 193
232 214
80 188
21 76
73 240
119 41
95 86
32 258
240 7
214 240
249 9
233 296
45 78
136 246
249 232
100 140
121 126
64 228
85 76
65 317
35 302
19 178
139 209
210 101
324 106
240 34
304 245
267 301
32 306
228 110
9 196
290 38
249 174
277 200
311 229
188 112
301 262
52 73
232 326
115 180
287 37
318 308
263 85
124 101
183 286
326 252
110 184
179 115
135 308
223 296
296 91
153 121
54 308
51 146
144 125
320 178
301 261
221 240
265 99
147 96
242 6
180 302
177 52
225 71
261 318
261 61
119 152
328 20
292 65
135 69
184 115
218 173
123 124
329 4
158 32
119 36
113 301
125 252
277 326
259 229
108 281
253 266
266 224
241 242
66 294
124 86
269 93
229 45
112 32
99 40
287 85
65 72
62 286
121 301
136 290
158 71
251 177
124 82
255 303
311 49
123 280
226 195
51 29
271 115
238 314
206 63
19 97
261 326
123 167
323 53
227 3
228 282
250 198
226 29
322 151
6 228
314 155
317 192
158 15
64 32
306 302
259 281
209 291
29 87
252 250
274 19
156 63
122 257
186 110
134 321
216 240
153 301
330 93
207 205
122 291
93 162
69 91
124 69
85 29
286 103
260 47
265 178
224 185
195 177
332 30
206 327
205 142
242 73
155 308
257 249
255 135
222 205
275 300
88 127
148 26
83 21
47 249
178 202
29 59
106 98
73 329
128 146
63 176
183 179
143 151
1 3
306 265
195 202
257 23
202 282
43 117
296 52
21 8
318 51
118 281
186 217
230 87
308 164
164 62
240 46
137 118
82 52
331 72
124 207
210 70
115 29
133 277
251 196
100 261
301 38
258 157
267 67
229 237
325 100
194 308
207 127
296 172
65 66
95 127
128 209
100 75
242 109
280 37
183 139
39 74
192 258
257 185
91 158
99 207
251 68
87 332
71 150
216 144
225 239
5 95
155 35
81 190
153 27
186 85
83 53
111 252
310 171
216 189
267 10
332 224
279 62
95 151
6 45
87 181
105 286
129 263
141 259
67 296
21 256
190 246
249 214
78 280
309 116
216 220
63 258
316 136
277 279
222 16
301 276
104 153
319 74
69 188
186 263
65 83
145 271
98 325
136 120
276 101
323 112
326 62
47 15
119 89
309 58
81 78
289 61
215 211
152 61
296 121
226 82
88 257
324 267
232 255
100 320
157 135
286 180
7 312
320 303
91 121
30 132
277 258
132 158
312 250
267 157
127 296
126 43
24 286
323 6
301 316
196 194
224 38
180 226
50 212
202 231
188 88
114 253
217 196
21 298
101 221
209 259
40 12
184 32
266 32
196 124
232 10
202 319
147 296
213 65
276 118
65 280
56 101
12 121
9 323
293 61
197 106
306 222
167 214
129 65
14 251
257 101
225 73
29 194
23 204
157 227
23 15
221 272
87 51
181 282
154 53
71 188
241 255
38 245
302 279
297 217
313 136
70 67
69 210
72 103
75 101
15 43
198 204
272 101
299 325
269 33
238 185
182 196
187 1
99 257
236 260
217 119
294 327
282 319
224 12
247 21
195 115
39 65
90 157
97 11
279 68
153 250
332 327
247 105
169 214
56 102
94 170
24 62
207 254
302 200
36 103
103 261
31 84
300 260
173 4
166 119
196 257
327 128
117 282
215 25
282 179
286 69
61 230
225 53
151 328
21 95
44 37
14 252
42 103
229 316
156 327
81 72
67 222
282 194
184 252
307 69
156 139
45 204
93 126
28 225
79 320
308 326
228 314
331 170
134 217
108 190
29 209
319 142
7 274
303 135
172 157
296 266
228 179
123 179
37 228
173 63
61 68
126 320
317 193
263 297
113 136
15 183
206 252
228 3
117 87
163 207
69 88
111 198
274 236
100 41
306 213
274 116
42 242
196 133
172 303
291 5
123 264
190 329
163 51
23 165
150 236
327 326
47 263
23 95
71 134
119 329
61 264
89 124
188 332
200 179
286 28
329 86
322 158
206 199
263 282
65 228
252 11
95 254
177 267
95 178
37 73
196 263
252 114
135 26
213 33
64 96
135 226
332 88
19 202
323 5
102 45
43 241
152 127
88 95
125 288
296 78
115 135
308 37
289 307
323 257
64 13
103 99
308 35
32 297
32 168
250 123
332 177
263 40
220 140
62 225
263 87
103 251
101 16
170 236
200 85
66 299
222 176
48 248
267 85
94 153
292 1
137 102
224 18
23 158
322 196
44 175
176 36
178 280
9 245
100 249
168 285
71 261
64 320
237 38
148 295
323 204
193 226
164 214
91 188
207 166
151 52
263 211
317 99
317 6
100 37
103 209
117 293
65 54
64 19
49 295
13 125
225 232
228 262
126 124
237 325
223 251
266 28
47 184
323 119
23 9
127 100
29 76
105 249
38 79
209 51
260 178
74 130
42 274
79 173
173 102
241 45
234 217
318 32
277 186
67 15
202 201
312 191
93 139
267 278
81 259
36 158
128 64
158 38
139 252
172 178
101 207
148 118
222 100
158 326
197 2
28 69
65 128
97 235
253 64
228 189
240 29
12 206
256 115
241 95
122 176
87 209
246 312
255 175
124 73
220 202
294 252
49 135
160 101
17 105
232 240
188 16
286 282
282 161
29 39
230 51
245 62
82 214
260 139
3 286
276 42
36 216
135 76
261 314
1 184
252 38
108 332
213 269
217 262
233 200
38 229
222 151
110 43
322 67
270 325
226 328
259 113
265 207
301 2
181 127
204 226
42 91
34 331
56 229
162 83
277 54
270 240
180 121
56 301
296 164
43 103
176 73
249 145
113 260
308 178
93 80
167 184
172 207
317 225
93 68
117 23
143 278
173 188
301 251
4 104
224 168
100 61
303 66
271 43
74 209
115 253
159 27
263 310
259 69
278 319
318 287
158 89
64 196
319 275
182 192
35 228
234 196
14 111
206 122
134 96
224 206
331 78
253 151
257 174
36 299
67 123
253 135
237 79
154 93
96 128
118 22
236 311
275 79
201 275
2 274
263 20
15 178
240 120
264 267
163 9
98 108
100 116
93 100
293 306
43 32
225 217
133 228
209 64
303 71
22 72
142 329
129 192
305 261
332 264
158 224
121 225
123 166
217 64
157 123
69 19
25 247
68 47
152 126
232 134
101 70
79 46
72 267
6 177
119 127
278 118
183 232
285 37
228 90
173 324
112 132
253 189
119 115
289 318
296 332
83 213
11 86
115 240
298 321
100 251
253 126
326 127
89 36
296 251
6 286
164 29
93 88
183 319
14 217
316 43
6 224
327 66
125 130
249 238
128 63
205 225
79 222
202 232
245 195
29 10
91 167
15 326
82 253
15 232
282 209
32 8
127 263
115 69
286 88
306 287
126 73
257 35
153 231
314 54
64 119
69 87
43 174
195 87
45 71
280 228
79 148
172 225
266 52
108 218
242 326
114 261
82 206
4 274
147 189
61 24
291 177
5 134
196 32
6 326
157 20
47 121
82 140
186 179
301 116
307 29
157 226
29 28
268 277
117 41
208 79
249 187
119 76
65 33
296 176
185 234
277 95
259 30
267 222
242 140
259 252
183 204
306 279
205 135
23 245
119 78
295 34
10 182
83 141
41 257
158 259
228 232
184 17
102 150
34 104
280 319
5 29
214 244
217 35
7 72
76 59
312 231
309 325
283 144
312 34
207 253
193 282
41 71
54 286
39 296
12 63
199 312
278 111
134 214
48 221
45 206
189 95
278 245
91 180
47 43
175 165
237 191
71 288
29 326
47 267
135 14
259 78
43 253
63 103
141 282
207 209
249 8
213 51
323 95
124 28
15 97
209 123
37 314
244 326
193 110
100 220
114 257
61 82
206 317
65 174
213 145
154 269
306 319
228 247
1 84
303 209
24 100
66 251
29 121
93 172
327 264
192 44
227 84
143 47
316 275
224 204
161 37
11 237
286 135
151 254
225 158
224 243
142 135
327 82
206 320
32 284
243 232
278 291
107 56
101 87
274 309
202 103
125 259
315 93
268 219
127 327
171 90
275 232
122 52
82 42
306 323
277 143
52 226
2 108
93 202
283 106
184 239
237 301
202 107
225 145
93 20
204 267
107 136
104 173
303 242
194 164
307 21
249 206
153 191
121 15
209 37
198 295
176 128
100 10
124 241
226 152
228 9
232 252
214 93
184 156
93 40
9 13
295 104
139 301
82 202
112 308
197 274
296 152
38 58
302 65
323 284
264 101
286 257
44 308
322 9
103 33
242 178
93 262
196 305
98 331
91 289
3 17
290 301
74 207
81 241
287 101
279 239
135 229
269 286
299 16
249 124
232 331
245 87
68 282
202 132
284 243
81 319
332 252
23 192
69 158
226 36
145 265
226 289
186 255
150 87
55 256
296 192
188 134
259 327
257 44
296 241
72 127
189 282
224 264
206 103
252 36
157 65
184 100
202 43
228 305
135 272
211 31
103 101
72 259
259 199
65 263
37 291
184 323
303 306
242 260
228 55
324 116
305 51
208 48
242 45
72 150
43 101
308 258
255 85
64 117
87 21
216 183
88 277
267 220
266 65
308 59
235 197
293 36
64 52
197 202
145 39
215 302
158 39
309 276
97 188
184 92
101 130
6 51
77 196
260 197
114 184
213 315
23 240
196 282
263 39
196 158
222 126
144 181
64 172
263 247
251 164
208 329
62 193
206 293
173 207
200 184
91 226
167 114
183 253
285 8
289 332
222 32
246 301
124 36
62 114
73 223
256 251
64 81
166 196
99 134
305 33
234 65
278 158
15 242
245 71
240 97
196 233
61 52
56 64
261 244
85 318
275 278
225 223
197 278
37 39
180 61
249 126
11 47
255 330
201 150
312 140
214 23
114 177
216 101
250 72
178 232
78 198
166 121
71 82
221 300
306 55
138 38
326 328
95 249
6 293
317 251
306 249
245 331
65 287
32 95
88 223
173 23
308 261
88 164
270 329
18 157
212 289
121 119
165 251
197 311
257 50
312 203
35 249
157 305
183 119
44 249
253 232
208 259
163 100
29 119
38 273
32 228
323 196
157 64
272 97
252 176
232 135
6 67
202 140
40 271
85 196
81 242
263 249
126 51
82 319
231 136
33 217
239 32
230 145
73 222
220 123
209 253
233 145
139 264
181 296
209 143
204 150
89 178
16 52
70 229
253 45
326 41
13 199
275 94
165 51
71 10
154 213
332 68
46 259
150 166
79 290
228 152
49 109
320 158
297 182
32 133
38 131
195 199
44 302
259 329
183 74
95 51
194 193
207 47
207 147
197 60
154 157
154 251
306 310
301 36
284 6
6 222
322 191
184 209
327 41
167 134
3 184
53 305
72 290
34 60
264 204
209 287
312 273
6 172
327 207
15 257
202 240
144 267
253 214
127 66
168 169
214 71
206 56
274 209
145 177
261 262
233 318
263 305
281 260
184 321
177 263
56 170
224 314
93 209
24 226
85 139
96 259
305 175
76 55
267 294
228 95
207 63
123 110
48 104
127 36
134 124
194 225
113 153
293 127
217 323
278 95
148 38
177 103
61 110
150 250
93 255
52 294
264 296
197 159
225 93
253 301
287 323
308 9
63 306
46 198
222 274
65 5
72 151
120 100
66 282
166 127
327 100
282 28
143 232
157 332
248 159
242 332
267 104
1 25
174 51
297 224
303 188
97 111
150 100
196 114
145 181
195 103
196 319
109 95
30 158
288 316
146 318
75 272
222 189
69 204
83 228
35 21
252 118
214 146
204 134
127 123
217 169
115 223
283 107
157 77
70 45
67 88
124 150
115 47
303 100
268 25
261 265
96 78
187 310
282 174
104 190
197 331
259 75
50 206
286 117
239 307
141 6
86 61
145 93
209 135
319 228
145 202
71 242
323 213
91 156
319 5
189 96
269 243
328 192
32 330
125 113
298 297
69 52
331 2
25 219
245 80
298 225
200 80
209 320
153 190
251 80
44 147
260 295
327 99
43 115
282 96
223 239
178 128
41 61
251 226
95 111
9 62
216 319
135 71
10 56
329 74
114 286
41 206
73 331
198 101
87 242
273 94
308 285
226 124
255 114
145 165
296 167
189 65
316 106
25 211
87 257
73 151
52 204
208 324
296 115
61 88
225 110
255 115
96 71
147 178
63 32
127 239
195 332
300 290
144 108
65 196
37 68
174 286
222 173
11 61
245 210
126 134
21 41
150 254
137 199
121 103
232 301
168 238
156 209
278 150
164 103
180 207
172 36
158 251
163 296
183 230
283 142
278 156
241 161
121 164
115 251
220 87
197 137
2 125
278 199
5 252
79 331
71 151
73 194
64 30
47 192
169 298
148 153
52 257
51 158
256 183
133 115
306 182
47 264
147 226
61 320
195 216
147 47
231 199
188 259
123 64
277 135
286 154
207 37
