*Vertices 185
25 "#95"
85 "#179"
152 "#146"
76 "#83"
15 "#97"
58 "#151"
160 "#117"
75 "#114"
141 "#158"
156 "#15"
108 "#118"
139 "#80"
35 "#5"
150 "#82"
159 "#160"
134 "#49"
121 "#29"
27 "#59"
166 "#74"
138 "#112"
144 "#115"
28 "#7"
158 "#47"
115 "#43"
184 "#153"
39 "#127"
5 "#177"
162 "#148"
36 "#66"
70 "#128"
163 "#30"
169 "#107"
29 "#23"
82 "#175"
24 "#56"
84 "#17"
98 "#64"
97 "#21"
183 "#103"
104 "#138"
92 "#61"
173 "#173"
140 "#52"
3 "#69"
79 "#119"
96 "#110"
117 "#96"
103 "#136"
87 "#121"
93 "#1"
147 "#79"
133 "#101"
180 "#182"
16 "#78"
132 "#124"
73 "#105"
128 "#42"
171 "#141"
161 "#165"
175 "#46"
19 "#92"
78 "#16"
149 "#12"
118 "#68"
110 "#63"
14 "#10"
111 "#9"
181 "#67"
26 "#76"
185 "#126"
107 "#164"
20 "#180"
157 "#71"
18 "#18"
113 "#139"
45 "#171"
63 "#130"
100 "#162"
148 "#100"
49 "#140"
21 "#73"
91 "#8"
135 "#58"
46 "#161"
60 "#116"
178 "#144"
95 "#31"
2 "#39"
88 "#131"
31 "#6"
53 "#113"
105 "#102"
176 "#88"
125 "#19"
8 "#60"
170 "#3"
165 "#34"
61 "#28"
68 "#152"
32 "#149"
182 "#137"
146 "#111"
43 "#143"
130 "#178"
167 "#157"
126 "#142"
52 "#172"
71 "#87"
94 "#44"
120 "#33"
143 "#77"
51 "#133"
168 "#37"
101 "#104"
33 "#62"
102 "#176"
119 "#120"
179 "#98"
6 "#156"
57 "#109"
109 "#35"
12 "#169"
89 "#155"
56 "#25"
177 "#54"
142 "#13"
116 "#94"
81 "#26"
42 "#91"
72 "#125"
74 "#53"
13 "#81"
122 "#50"
41 "#2"
136 "#51"
155 "#40"
38 "#57"
11 "#41"
22 "#108"
86 "#14"
17 "#72"
30 "#168"
54 "#122"
154 "#75"
77 "#166"
172 "#99"
66 "#159"
90 "#32"
64 "#154"
7 "#90"
131 "#106"
99 "#129"
59 "#181"
124 "#70"
112 "#36"
10 "#150"
48 "#86"
50 "#174"
65 "#55"
55 "#4"
145 "#132"
129 "#167"
37 "#27"
153 "#163"
80 "#170"
106 "#134"
164 "#48"
1 "#65"
127 "#147"
62 "#89"
34 "#93"
47 "#123"
23 "#183"
151 "#184"
40 "#45"
114 "#24"
174 "#22"
4 "#20"
137 "#38"
67 "#84"
69 "#11"
83 "#145"
9 "#85"
123 "#135"
44 "#0"
*Edges
101 106
39 74
176 71
180 130
16 175
165 9
139 72
119 71
34 75
88 109
165 84
64 100
139 154
172 84
42 58
127 104
26 56
123 51
47 120
89 133
79 44
53 2
110 149
16 98
102 184
178 10
136 165
83 68
131 50
98 141
113 100
174 79
26 96
17 115
177 72
9 49
61 7
147 113
153 68
3 120
183 126
102 17
152 80
122 150
150 78
89 42
27 73
172 117
6 129
108 48
38 113
33 90
117 25
6 49
30 100
89 166
68 20
127 103
160 100
84 135
147 139
178 30
167 66
139 140
119 135
131 44
38 126
6 133
96 101
102 66
63 50
7 115
3 72
46 17
169 155
91 136
32 127
137 3
132 68
85 5
85 23
119 60
50 119
96 89
176 30
153 102
72 89
50 9
185 102
27 156
145 105
9 88
16 137
157 50
15 89
105 169
157 154
72 154
182 123
79 28
99 63
115 95
98 7
46 64
70 80
58 60
155 73
103 113
80 101
66 161
54 139
6 141
74 41
110 127
176 46
105 100
18 38
14 33
81 75
120 33
72 73
103 57
117 17
19 31
51 70
91 125
166 68
27 121
182 49
34 112
155 106
151 130
94 57
20 17
143 167
26 150
10 80
124 126
106 119
3 44
10 50
8 113
150 143
141 131
52 12
89 178
110 18
141 19
2 31
20 16
183 146
50 77
18 101
96 67
104 80
138 58
28 101
28 172
116 82
72 81
140 19
17 89
128 78
25 80
135 17
3 177
172 46
30 60
16 24
72 33
141 116
135 71
49 113
160 63
29 7
157 40
140 53
31 7
19 24
50 185
117 41
15 86
27 79
17 140
75 112
53 144
39 128
64 82
136 3
94 177
106 71
101 141
19 16
171 104
102 160
169 75
131 124
29 9
58 185
28 110
78 135
74 166
69 103
172 47
47 94
148 89
106 99
130 52
79 169
155 47
172 34
56 149
126 96
116 38
97 71
35 75
47 110
67 30
33 31
122 177
93 13
82 185
36 39
21 78
9 81
37 27
56 117
89 92
110 75
21 109
116 156
171 113
70 123
53 84
73 183
27 158
126 181
13 30
64 20
49 162
156 174
75 16
115 81
145 39
131 94
140 172
68 77
38 125
7 16
140 88
7 58
10 102
164 131
89 1
88 49
113 58
32 162
100 70
106 144
19 21
106 1
20 30
131 61
6 70
63 39
50 3
68 118
29 21
168 95
88 149
179 73
163 165
30 180
116 33
150 115
6 92
96 44
173 80
13 131
100 34
152 127
58 98
139 100
181 103
24 182
119 88
20 99
2 96
70 50
50 154
47 57
39 140
147 6
101 33
33 121
47 138
47 81
19 73
103 68
109 106
17 133
149 75
52 173
53 27
126 92
15 172
67 76
183 49
168 39
154 75
150 74
50 30
172 131
136 86
19 41
88 86
111 134
73 4
73 125
98 9
89 117
68 1
172 74
144 102
68 179
140 13
38 101
171 182
54 49
182 106
73 182
103 30
7 36
75 31
26 117
116 40
111 28
33 122
46 36
86 131
182 88
89 160
93 9
53 78
184 30
48 116
95 109
4 96
24 58
27 19
135 49
78 37
144 119
131 80
30 145
50 172
142 2
146 126
93 24
53 126
116 127
175 137
83 104
16 111
180 45
125 150
123 6
58 145
106 143
40 69
176 102
127 60
54 60
151 20
159 167
38 17
57 68
88 44
31 73
79 16
49 100
36 131
39 6
71 65
171 82
133 80
150 47
113 26
131 6
46 49
22 179
10 32
118 157
79 168
118 20
44 33
79 109
58 38
106 121
166 126
185 70
161 46
43 30
33 137
173 85
37 47
168 19
173 102
125 3
57 127
116 113
101 84
155 101
38 19
36 135
109 27
67 136
29 19
163 53
87 100
133 103
72 136
82 22
148 178
79 31
142 79
89 50
73 141
164 21
105 22
106 185
81 1
90 103
116 72
160 49
20 100
15 148
93 53
126 178
170 19
3 27
6 167
9 91
124 88
31 117
150 100
116 26
38 112
2 21
11 106
49 50
185 46
157 26
65 33
177 7
48 172
183 43
127 162
166 139
141 87
184 64
72 105
166 10
84 75
7 15
82 119
27 91
33 16
113 148
41 27
94 19
44 172
101 3
123 19
134 128
118 72
72 146
14 41
67 102
67 176
33 114
87 109
123 145
109 75
27 61
127 70
16 122
183 22
4 26
172 149
39 54
155 19
85 52
99 68
94 170
46 48
53 132
17 18
11 74
158 142
133 15
33 128
126 88
44 7
172 11
17 27
144 28
136 48
62 126
76 96
27 26
39 88
146 105
132 88
179 19
92 3
31 111
14 117
166 100
135 75
53 148
100 6
183 88
16 92
127 27
22 49
148 30
38 115
59 82
28 72
134 3
12 20
127 179
141 89
106 60
58 33
79 89
46 148
18 75
56 120
45 102
75 46
72 127
6 117
24 49
59 52
130 12
58 118
130 30
13 147
72 166
3 158
114 3
89 82
83 113
62 120
71 120
132 42
103 185
146 57
83 10
79 19
128 106
170 147
15 131
110 29
117 80
123 106
105 96
174 26
20 32
47 109
37 135
8 92
99 123
95 79
122 27
117 149
98 88
24 53
63 80
31 96
101 53
79 17
3 80
27 55
19 143
65 126
55 135
164 84
79 131
175 37
35 17
96 25
119 127
116 16
9 149
79 138
129 88
19 37
106 118
106 117
12 59
172 168
94 74
49 48
26 14
1 155
42 116
127 24
40 72
20 139
75 7
103 108
84 26
79 102
30 85
175 86
100 42
39 119
10 30
134 109
184 6
60 68
121 156
96 9
78 2
112 16
69 21
80 15
161 107
122 131
60 113
134 79
33 21
147 73
83 92
103 70
58 171
22 48
184 118
93 108
3 30
31 135
72 132
80 147
103 41
127 21
157 49
74 170
68 16
162 113
2 172
6 119
170 101
62 19
171 178
155 26
36 150
58 150
117 21
101 98
117 94
74 155
53 9
66 100
116 177
131 3
49 146
36 53
39 160
90 88
30 58
47 86
97 17
135 4
112 73
75 119
39 24
116 11
126 24
131 177
106 133
148 34
125 1
49 32
92 53
5 173
47 158
144 132
1 128
48 102
166 62
28 94
53 34
155 75
100 68
55 175
56 110
74 81
102 46
96 100
177 16
1 141
102 50
150 1
105 73
7 65
73 49
42 143
75 172
6 25
25 148
67 90
123 113
76 62
8 150
119 54
57 58
71 49
106 28
143 47
173 130
100 13
9 101
102 80
108 13
47 69
87 89
161 184
125 19
160 46
136 44
114 181
63 88
19 88
58 181
20 184
117 53
34 1
33 38
48 6
116 122
128 111
30 167
95 93
53 19
20 119
160 106
104 126
68 144
82 166
62 53
101 169
143 131
7 78
79 1
18 74
22 126
73 140
51 60
110 24
60 108
19 181
116 120
103 78
89 132
58 68
100 159
49 19
86 110
89 20
7 175
117 75
101 69
117 79
131 16
121 1
82 26
155 7
125 156
172 33
137 117
138 80
68 7
125 18
21 74
94 27
126 171
82 85
112 74
168 3
138 38
115 131
153 159
127 9
39 138
72 95
141 167
6 16
140 7
110 148
99 58
26 46
9 164
72 179
89 64
77 20
123 49
115 136
68 79
111 40
6 19
151 45
172 72
3 82
41 21
103 19
78 26
150 163
100 108
150 68
102 49
138 57
88 38
20 161
1 96
72 93
110 111
88 163
89 110
166 118
76 113
96 42
110 46
134 72
102 179
166 141
6 107
58 169
2 33
164 78
54 100
96 21
101 19
155 158
134 7
131 84
17 127
113 152
80 39
58 132
50 88
126 20
52 80
81 41
158 120
90 26
75 177
113 32
118 49
159 102
21 134
68 178
58 108
71 20
82 145
158 96
15 141
71 109
78 158
118 39
25 100
46 6
124 58
103 172
110 61
23 82
108 119
133 53
103 16
96 165
7 2
135 58
59 80
68 67
151 102
98 2
79 121
155 8
176 139
84 29
158 139
135 18
148 169
14 72
134 121
111 135
179 100
73 74
68 32
79 30
33 131
35 136
103 100
1 163
117 164
103 51
80 9
49 51
118 80
68 167
108 16
31 106
184 107
103 79
137 17
75 49
145 51
131 46
102 68
32 101
69 55
26 162
134 96
185 146
134 75
41 17
101 115
166 101
19 75
17 73
39 154
133 113
79 172
25 34
79 101
70 46
85 180
124 101
86 103
115 117
103 20
143 71
74 164
88 145
96 140
126 160
149 19
102 172
96 90
59 151
79 148
172 112
37 149
58 32
17 158
25 20
156 26
74 121
9 122
96 110
110 172
5 23
157 172
68 129
53 4
169 100
62 102
102 82
135 121
72 6
38 110
26 74
76 20
135 94
6 15
160 108
164 72
48 126
17 61
31 95
162 80
135 97
17 7
72 84
113 43
126 82
36 49
80 48
39 81
78 71
127 131
30 106
6 103
33 19
183 75
113 160
145 68
42 126
116 131
6 34
104 141
78 14
118 117
96 8
136 2
172 69
150 164
141 57
94 2
7 136
46 98
83 171
91 122
27 110
82 152
53 17
18 41
69 1
58 101
48 42
176 117
26 72
44 71
126 108
103 25
20 173
157 56
90 71
29 26
50 48
27 111
53 177
116 44
117 67
78 81
110 112
53 115
61 166
16 8
75 36
154 172
92 26
150 19
53 50
181 36
150 29
37 114
149 150
89 144
7 13
126 17
101 40
2 40
46 143
27 117
21 128
116 118
115 114
166 73
108 50
145 185
102 154
79 35
106 179
116 100
88 108
27 116
82 53
150 98
82 99
105 36
113 131
9 26
82 176
1 6
92 169
82 32
72 108
176 75
164 172
1 165
10 171
110 117
63 82
46 178
21 120
135 91
141 126
127 143
82 48
49 39
81 79
142 172
46 47
76 46
60 160
111 106
122 44
127 3
3 141
41 110
87 160
64 143
61 16
62 131
91 26
53 127
11 35
116 95
33 47
150 20
116 88
88 148
81 27
39 30
117 166
170 116
96 103
63 185
75 80
172 133
88 174
159 89
33 46
169 113
89 58
82 105
151 173
75 62
2 72
150 92
80 169
146 47
29 101
163 135
93 121
53 97
19 36
55 57
56 33
174 4
113 3
102 157
58 131
49 92
142 90
136 56
48 20
103 122
102 9
178 58
119 117
88 22
87 119
111 65
153 15
144 108
101 112
100 129
157 141
68 126
50 80
36 127
140 75
21 16
121 73
88 121
135 175
82 87
131 65
68 39
154 100
95 3
26 68
55 17
117 134
113 117
131 168
14 150
133 102
53 80
172 108
9 125
89 167
105 57
20 152
127 19
96 82
127 183
173 82
74 19
117 61
80 46
102 5
172 80
164 154
114 1
169 171
67 97
146 46
89 105
61 150
83 127
102 16
68 62
147 7
68 87
81 3
102 119
129 167
64 107
3 117
126 172
88 62
103 46
131 67
16 99
69 26
149 27
38 9
177 33
68 183
140 175
145 143
49 89
18 73
29 120
90 91
9 74
7 122
129 159
113 36
20 132
74 69
139 131
84 116
46 7
150 84
166 157
49 138
106 108
126 16
89 34
37 1
93 125
165 147
55 170
39 22
103 126
89 19
20 131
174 87
64 80
26 127
158 79
53 10
47 67
123 138
111 1
72 94
50 59
126 30
9 13
33 68
137 1
2 74
38 1
84 155
47 91
60 53
75 150
48 176
103 39
21 101
150 6
141 143
46 129
7 22
117 2
52 30
72 168
16 170
110 120
82 49
142 110
10 162
164 88
52 82
43 102
70 145
80 106
80 76
6 79
103 160
166 127
73 91
89 153
135 47
14 47
68 133
86 73
102 23
29 114
27 18
141 146
139 142
96 156
19 86
22 50
71 1
152 126
124 127
102 106
72 88
115 88
65 21
3 55
114 103
54 75
150 7
174 19
21 166
61 53
50 167
150 120
112 103
137 116
169 46
52 45
177 95
164 71
175 39
159 68
43 82
120 128
156 114
10 100
19 113
7 156
96 113
40 163
175 110
14 39
183 79
46 3
104 49
72 68
93 181
149 69
22 96
120 91
89 73
72 63
147 9
75 157
180 102
140 117
30 169
75 6
167 116
40 122
177 93
18 88
98 26
68 36
103 13
11 73
30 102
103 118
137 47
169 127
58 166
110 58
123 127
73 124
96 135
53 172
170 179
184 82
111 79
112 96
117 55
101 55
158 103
126 138
130 20
16 71
6 73
30 87
12 80
172 89
33 103
128 3
125 75
47 96
106 49
103 99
122 47
172 113
71 116
148 68
104 113
157 124
117 100
154 6
76 139
101 176
9 106
68 160
1 14
90 150
48 103
58 10
141 22
141 75
17 128
26 13
135 72
62 42
159 46
102 141
184 66
82 157
137 88
146 15
14 75
87 157
104 178
67 79
68 146
58 183
46 183
80 124
1 7
60 72
13 101
61 21
58 53
126 57
103 44
175 4
53 165
141 106
147 118
27 88
65 87
96 65
153 129
75 93
101 39
174 55
127 89
131 29
127 51
1 93
54 122
131 148
96 40
115 3
132 60
92 149
106 170
96 138
9 72
26 97
103 62
71 154
88 51
113 126
49 10
182 51
49 16
127 68
181 127
172 37
80 132
69 168
107 141
110 55
18 165
36 141
19 165
113 46
75 164
15 50
34 131
39 157
106 90
15 19
96 49
50 113
80 17
93 29
50 105
119 101
43 127
17 136
27 126
33 95
21 126
113 98
158 9
72 144
51 185
46 16
104 58
20 82
88 84
50 51
54 113
33 39
114 136
17 96
71 17
162 104
72 98
126 185
74 149
3 16
28 47
165 131
4 91
140 101
17 139
21 100
131 128
142 150
71 75
16 88
134 86
27 128
53 120
12 50
126 43
47 22
56 7
49 15
6 57
149 101
78 97
20 154
105 113
105 80
154 2
101 179
4 88
13 154
182 20
63 68
75 50
53 141
150 112
135 164
14 128
182 103
71 89
119 132
82 179
89 54
64 129
9 16
86 17
41 47
5 50
56 86
73 80
2 71
117 24
126 32
80 143
54 47
160 50
167 107
82 147
2 101
39 51
169 131
136 33
75 65
72 182
39 143
174 56
26 154
25 179
13 20
21 71
80 68
40 165
37 17
21 4
48 58
86 27
9 79
154 37
101 138
115 73
90 128
33 170
19 102
59 130
133 73
39 90
127 99
120 39
15 116
158 110
19 61
87 67
129 89
127 8
102 71
76 131
19 4
81 26
87 97
120 17
5 59
47 36
79 114
36 149
185 183
133 20
40 166
162 58
94 168
95 117
160 72
80 180
142 69
126 70
181 128
114 117
75 163
52 23
113 99
93 116
6 64
151 180
121 41
110 44
60 176
71 58
37 150
22 127
76 141
146 24
179 79
102 123
20 183
30 63
63 103
21 175
66 6
122 140
85 102
11 1
80 126
38 8
110 146
162 152
37 31
7 89
185 88
17 92
91 53
81 53
3 74
67 103
159 82
150 55
178 26
181 16
135 131
160 80
184 89
68 47
9 141
70 88
162 20
175 106
132 54
142 131
154 143
148 105
47 39
142 117
53 160
65 39
184 167
19 135
72 49
135 24
27 69
54 144
6 98
61 14
106 125
21 95
146 6
82 182
26 134
162 89
15 79
163 71
146 106
109 3
19 126
68 10
11 158
135 177
161 141
116 147
67 127
53 11
137 13
81 136
79 69
39 113
135 81
41 73
9 61
183 96
154 51
21 28
145 102
127 144
141 144
100 17
101 103
96 50
117 76
50 138
88 61
49 119
20 117
118 16
73 134
110 170
131 158
17 122
166 147
163 27
82 151
88 46
72 51
37 53
147 47
168 179
91 33
14 7
148 50
95 74
71 101
141 70
157 68
128 53
35 150
103 94
135 35
129 107
127 88
169 141
68 184
113 10
155 79
77 161
48 101
117 90
64 179
149 116
51 30
156 17
141 7
135 93
26 79
134 16
7 118
9 1
98 75
72 169
136 135
124 100
19 20
9 166
72 10
140 115
136 134
136 172
18 149
133 120
80 107
30 62
113 17
179 34
53 87
164 33
70 89
144 113
54 87
116 168
75 61
72 50
75 73
9 17
79 76
44 93
140 55
147 154
73 35
118 105
127 172
89 126
144 50
50 57
116 53
2 147
92 11
125 47
36 100
131 125
69 3
127 154
150 155
182 127
33 81
98 36
127 160
30 123
14 103
3 106
113 181
17 121
28 166
47 141
144 88
20 176
164 47
85 20
143 50
133 25
90 16
51 99
133 62
59 20
105 166
160 75
71 68
137 125
26 142
107 43
172 109
4 128
125 181
124 7
169 96
90 35
113 13
29 47
179 103
153 77
90 73
56 139
46 124
87 51
80 23
73 2
76 72
18 21
108 54
113 154
108 75
163 26
152 141
110 138
58 103
145 106
117 88
18 176
88 82
80 49
105 141
127 65
81 150
54 58
112 17
41 65
130 5
82 15
53 35
59 173
122 174
155 21
39 78
67 82
7 8
57 100
88 165
159 30
53 69
20 54
75 102
177 31
95 53
118 150
108 68
54 106
40 103
101 126
113 80
30 21
45 59
117 1
114 111
46 167
154 68
79 181
143 58
90 75
15 65
158 33
94 181
100 48
36 3
124 6
149 79
151 12
21 1
4 150
37 120
20 147
79 57
49 124
123 63
16 58
150 113
50 79
52 102
144 160
99 72
42 46
36 72
77 107
20 113
46 118
47 30
133 127
17 1
20 6
67 53
10 104
124 141
107 89
100 50
103 123
88 111
75 4
183 170
172 39
150 79
44 143
181 46
124 40
9 90
133 148
101 174
51 20
154 21
127 126
19 147
179 113
8 106
147 67
140 106
99 126
58 8
102 59
72 13
78 75
154 92
71 140
145 80
129 82
16 106
54 30
97 116
143 172
114 78
180 5
82 148
75 76
23 30
168 75
103 148
106 103
172 135
134 110
112 72
19 13
150 165
80 129
5 80
30 143
160 150
105 127
20 26
151 5
109 170
116 9
123 162
97 36
26 18
20 141
121 21
79 73
35 61
24 62
6 118
77 167
28 117
81 91
29 33
77 129
95 103
161 68
109 16
50 19
175 96
103 4
7 174
82 30
46 63
182 1
117 35
70 3
83 178
39 25
97 177
116 126
21 50
89 25
114 47
102 63
156 117
139 80
9 168
113 65
115 19
172 40
71 148
93 87
72 87
119 58
136 164
89 62
23 130
74 125
143 103
127 30
176 113
80 16
64 171
39 170
161 30
155 163
76 176
174 131
136 163
143 139
150 96
88 34
60 82
106 72
121 131
163 7
47 84
110 126
75 124
175 71
66 89
74 71
9 172
75 88
131 102
12 85
118 101
72 141
125 177
174 73
25 113
20 57
58 27
103 131
19 17
46 127
181 169
146 53
119 160
92 79
15 179
98 116
131 101
163 119
174 33
62 176
80 150
31 97
168 74
116 69
40 19
20 167
53 166
50 85
95 11
94 110
35 27
84 19
33 94
163 117
62 49
72 128
176 66
55 1
56 39
126 10
113 88
20 46
6 51
121 69
47 82
58 146
50 32
2 67
9 56
27 106
178 49
100 92
84 18
51 58
56 35
53 68
100 131
168 150
96 38
117 143
163 156
172 26
13 73
22 53
12 102
72 58
134 88
24 101
44 75
1 115
101 150
135 7
56 72
147 102
146 148
66 9
108 33
72 120
17 50
33 61
23 151
92 113
127 139
78 19
82 132
179 20
79 20
7 112
9 20
58 25
87 80
102 132
94 56
1 73
34 49
166 71
32 145
69 143
153 64
49 17
37 90
55 79
58 62
133 11
17 29
15 96
73 3
100 161
94 17
76 47
127 101
82 66
102 183
25 127
99 89
141 25
163 3
55 44
9 100
46 108
18 44
78 17
39 141
114 106
147 53
17 40
86 117
100 46
101 42
163 33
144 67
185 182
95 125
89 33
110 163
131 55
112 136
180 20
39 73
53 108
154 7
84 121
58 105
116 68
50 52
66 153
51 89
88 157
172 88
71 160
25 172
101 86
82 133
19 142
101 65
80 82
181 39
147 131
103 124
43 49
82 51
103 147
48 67
168 11
35 164
116 121
54 10
143 88
47 170
71 41
24 65
117 184
176 136
49 129
141 123
44 73
3 9
43 6
3 160
20 45
13 139
32 43
73 84
26 147
101 146
51 100
100 73
117 102
86 7
94 118
172 14
113 157
117 50
81 71
102 20
172 76
14 3
2 120
128 31
127 62
71 56
101 89
7 11
116 31
47 71
83 152
18 16
103 115
14 53
60 6
168 71
39 155
177 79
3 47
133 16
135 73
109 65
3 68
173 12
31 21
42 79
89 182
170 9
79 122
56 27
58 17
92 131
185 113
49 171
126 106
82 50
26 121
120 135
113 63
113 15
153 6
140 34
67 62
80 60
39 70
182 70
132 39
103 145
57 113
135 1
67 49
84 177
117 174
129 19
27 93
53 135
132 160
20 185
117 84
138 131
93 26
116 163
108 30
127 102
20 66
65 72
67 80
103 135
89 143
172 148
42 73
111 172
50 130
50 62
16 47
117 147
88 7
174 71
96 94
33 106
39 123
82 58
53 88
95 131
125 21
168 135
181 72
95 137
123 20
89 171
63 141
102 113
183 105
143 49
165 116
127 157
74 143
137 78
134 69
106 147
172 134
58 117
42 176
92 38
171 80
127 73
127 82
138 105
32 30
67 42
116 110
150 124
55 9
141 21
89 47
135 137
58 88
148 20
131 111
96 154
96 86
149 31
26 1
96 11
75 179
47 74
13 82
117 126
42 20
101 75
47 133
131 170
71 40
149 131
1 61
33 97
51 63
180 59
147 143
60 144
157 25
16 14
6 58
174 92
5 12
3 11
141 182
141 17
157 126
96 146
70 63
110 165
72 138
118 88
47 134
84 91
21 14
106 136
75 39
1 175
154 116
53 39
57 183
42 144
93 17
71 69
118 131
6 26
131 154
52 5
58 152
46 39
133 46
37 26
107 144
185 123
6 53
154 101
7 158
139 58
4 17
62 141
113 7
39 62
137 14
73 21
46 119
89 98
3 56
32 83
33 112
82 118
130 102
68 64
102 126
141 33
141 79
6 127
56 93
85 130
31 72
74 101
10 6
176 177
124 48
4 131
111 73
21 165
96 6
66 159
58 106
163 101
100 106
49 26
47 34
9 134
118 138
17 65
172 49
43 80
148 101
145 72
89 131
141 50
30 179
148 100
88 65
40 110
103 34
39 109
147 58
119 150
110 141
137 21
76 88
98 48
144 123
62 46
7 55
82 83
47 9
124 9
18 97
130 45
73 158
178 32
55 172
120 26
96 46
75 139
7 60
106 88
131 38
24 116
68 110
33 134
100 162
5 20
162 83
177 140
16 1
89 102
47 166
7 47
172 177
169 183
141 171
46 145
103 156
97 73
108 80
47 80
137 150
64 167
149 103
83 58
77 66
138 127
79 82
39 13
131 19
80 26
4 16
116 94
6 113
17 75
103 128
17 24
137 72
57 131
183 31
124 47
75 127
76 73
75 86
11 26
106 20
20 83
33 149
47 20
60 49
148 11
139 82
146 113
95 88
172 73
94 1
183 50
80 153
71 121
150 40
26 135
116 176
48 62
41 16
131 105
127 38
136 61
102 21
137 31
181 26
101 95
69 131
4 1
150 86
124 169
44 19
171 127
169 73
3 181
135 25
27 136
38 106
75 94
56 101
133 117
136 155
6 87
160 6
75 56
148 47
71 53
151 85
146 169
106 81
121 140
147 101
6 171
83 43
22 169
122 117
110 79
143 179
80 179
146 60
24 88
39 156
15 30
34 30
20 3
157 106
7 3
116 80
62 20
71 73
53 136
146 138
131 179
74 79
152 6
46 107
126 72
50 43
16 141
7 4
69 33
82 12
101 50
75 170
116 134
78 16
185 99
47 72
22 6
124 26
182 58
82 10
41 156
172 181
61 47
7 30
49 133
174 35
161 153
88 155
141 185
15 20
69 16
71 35
103 31
147 50
38 24
78 69
18 96
40 106
91 3
15 3
110 65
166 115
31 78
79 84
50 45
135 174
100 107
105 88
81 37
162 178
50 151
30 96
148 36
84 96
68 89
7 100
127 58
64 102
79 115
96 20
130 80
117 29
57 96
182 99
81 111
99 6
84 16
79 2
79 93
120 16
116 17
7 143
139 89
46 72
53 47
101 165
183 89
66 46
46 141
100 172
50 76
80 79
19 71
90 81
61 101
21 106
51 106
7 121
144 104
152 171
88 8
174 27
135 106
80 7
106 158
66 64
106 148
7 93
79 128
88 13
127 71
117 69
138 100
71 34
113 178
171 43
56 150
172 32
158 19
78 73
17 51
95 39
14 73
31 150
17 110
185 100
71 103
80 127
47 48
54 80
47 156
20 172
135 140
172 30
175 9
19 46
99 102
96 115
75 72
148 73
119 113
9 78
96 148
157 9
106 120
95 16
20 72
151 30
17 91
110 6
182 50
181 71
71 142
89 43
80 146
144 87
102 182
94 7
103 38
72 157
57 110
116 139
92 98
109 53
172 97
103 157
99 145
112 131
120 109
182 46
18 3
50 178
5 30
178 82
9 27
6 80
6 185
68 113
98 79
159 64
138 103
126 119
183 141
82 16
21 26
100 153
86 71
44 98
1 113
4 136
67 166
76 48
41 1
161 50
57 39
10 127
117 169
49 126
162 102
136 95
138 75
42 49
47 15
71 170
127 178
9 154
49 108
82 104
35 1
48 117
99 39
8 110
88 93
163 73
13 115
177 110
4 125
40 135
63 49
94 26
63 182
82 172
21 172
166 131
154 150
166 124
95 156
30 66
177 150
19 9
45 23
69 110
50 106
74 91
3 49
18 47
155 27
166 7
104 6
79 156
85 59
46 152
43 104
88 156
160 141
62 1
164 1
23 173
99 30
79 126
73 28
138 134
149 26
183 138
65 3
98 142
34 58
117 40
103 60
106 62
128 16
88 48
78 175
32 152
70 102
30 75
58 160
65 58
13 143
158 35
49 110
165 47
24 3
30 22
141 66
108 79
24 106
173 180
67 172
95 47
3 94
47 108
116 125
126 73
123 21
57 46
39 144
102 73
168 101
138 82
87 108
47 105
39 1
72 149
22 68
118 90
138 88
47 174
50 42
146 22
57 169
150 3
43 179
60 159
111 24
152 178
115 71
29 92
117 111
84 27
138 22
61 3
39 18
168 93
56 73
101 17
38 75
148 39
103 98
166 106
98 49
82 75
87 132
32 171
180 82
16 174
131 110
169 20
157 73
176 68
80 51
75 29
81 13
164 26
39 19
142 154
30 68
28 170
19 111
31 40
44 148
20 63
166 98
51 113
169 47
167 178
95 18
172 86
33 140
39 185
170 61
168 86
100 43
88 43
83 6
89 161
60 87
127 42
160 54
34 46
33 73
102 148
65 38
64 141
53 21
33 11
92 181
45 80
184 129
6 76
79 56
88 136
11 39
166 20
132 108
54 127
136 149
34 102
57 159
68 88
86 121
18 72
121 47
45 30
115 9
157 100
6 7
25 19
14 165
147 100
101 27
103 93
105 143
88 146
79 90
176 72
171 57
103 82
134 71
53 134
101 68
6 101
27 177
117 131
184 153
117 139
21 110
98 127
47 126
55 16
60 185
78 155
103 136
26 47
140 21
34 19
177 21
138 169
116 89
50 54
19 157
161 6
106 53
105 49
182 101
101 133
33 155
110 16
170 3
58 148
83 126
148 6
95 110
47 142
50 159
76 16
21 7
141 99
102 178
100 72
27 97
108 63
105 34
77 89
115 155
58 73
160 131
109 158
181 101
73 109
9 8
65 8
24 140
117 165
110 100
117 46
31 172
113 21
172 27
133 50
138 30
43 20
71 112
100 77
88 99
101 14
102 152
39 149
54 118
39 125
16 31
18 9
179 133
16 140
145 63
96 27
147 178
53 13
41 92
160 138
96 164
68 6
22 57
46 153
68 104
178 21
47 102
166 65
27 14
70 124
165 109
92 146
142 74
9 135
42 2
89 46
107 102
135 79
4 137
72 17
97 16
94 21
18 53
128 47
6 36
88 14
9 58
166 32
103 18
24 8
38 179
29 1
99 49
107 66
65 73
184 46
93 16
107 82
47 127
165 26
174 103
133 152
45 82
75 11
33 135
21 20
45 173
73 81
23 12
96 127
135 126
112 116
74 53
118 53
118 96
126 144
46 179
137 73
84 110
116 114
166 102
72 86
30 72
68 123
142 135
181 18
23 180
72 117
135 86
11 94
137 143
83 46
69 148
102 39
112 79
16 65
76 116
7 181
157 176
116 7
136 121
165 79
109 150
68 143
3 57
102 51
126 87
145 73
68 70
73 168
141 118
39 111
111 101
102 118
19 80
116 37
110 155
49 57
35 88
42 72
31 53
134 17
118 124
104 32
73 29
6 178
9 82
135 90
72 148
78 3
59 23
79 176
112 165
36 22
102 83
165 86
77 159
43 178
9 140
93 28
74 1
13 169
79 118
74 175
47 17
62 104
19 95
80 141
46 147
47 113
11 72
170 1
114 18
162 126
75 60
156 9
131 93
117 103
183 56
126 60
26 141
92 172
121 150
37 103
67 39
123 46
111 71
66 68
42 76
39 108
117 65
26 114
175 41
80 151
102 87
71 6
181 141
82 21
162 171
23 20
113 183
101 100
45 12
82 42
126 143
182 124
36 92
53 15
16 53
88 25
139 96
155 120
7 95
157 46
141 77
74 90
101 123
113 145
76 93
177 26
172 41
143 110
118 108
77 64
46 68
27 21
173 50
72 123
108 6
20 107
179 148
46 77
11 103
50 124
71 42
82 5
46 138
122 73
176 49
96 48
106 65
61 96
11 71
46 105
174 75
55 116
143 75
30 49
26 75
58 1
25 30
88 141
92 117
43 58
99 70
89 179
181 98
54 126
72 102
115 74
172 16
163 125
34 133
19 133
119 22
34 15
1 3
129 161
103 105
117 91
156 150
124 113
35 19
110 14
13 16
37 101
21 115
10 43
92 60
161 185
81 172
169 88
100 144
158 75
139 157
156 1
98 96
39 2
11 47
127 117
53 102
33 88
71 55
112 35
132 126
72 29
177 17
162 68
100 141
22 100
116 78
78 163
107 159
72 54
91 29
152 43
4 101
53 54
19 108
93 47
79 133
127 1
182 39
115 27
6 9
127 49
4 2
127 50
141 10
179 126
128 71
106 39
20 160
58 26
21 80
36 16
26 24
101 92
120 9
51 183
26 2
106 55
107 153
181 100
25 15
83 101
121 75
100 80
121 53
90 137
131 98
118 73
49 7
89 106
2 61
72 4
8 71
11 131
70 82
71 24
46 104
103 49
74 29
58 3
3 155
147 49
88 60
30 166
101 82
124 20
160 123
47 88
6 132
74 133
129 141
142 164
131 47
39 179
75 144
116 164
72 150
6 77
6 145
20 75
76 100
136 18
127 147
127 106
167 100
50 6
41 75
33 49
1 158
47 175
