Vertices 170
121 "#133"
59 "#155"
74 "#106"
39 "#121"
47 "#131"
168 "#73"
72 "#38"
60 "#85"
88 "#158"
144 "#136"
53 "#50"
135 "#59"
162 "#34"
163 "#163"
83 "#22"
16 "#76"
95 "#167"
43 "#61"
125 "#145"
79 "#81"
141 "#15"
78 "#132"
120 "#87"
65 "#140"
165 "#10"
166 "#148"
14 "#128"
86 "#5"
138 "#51"
1 "#120"
154 "#39"
126 "#157"
93 "#47"
3 "#69"
23 "#97"
106 "#54"
68 "#82"
48 "#108"
170 "#104"
151 "#21"
118 "#72"
116 "#127"
137 "#150"
64 "#160"
12 "#112"
10 "#144"
167 "#94"
130 "#56"
156 "#66"
36 "#125"
113 "#152"
145 "#20"
4 "#71"
136 "#31"
149 "#29"
8 "#6"
96 "#43"
132 "#95"
62 "#37"
119 "#45"
34 "#161"
129 "#58"
67 "#27"
140 "#13"
108 "#138"
110 "#52"
50 "#41"
54 "#102"
35 "#159"
152 "#166"
81 "#169"
114 "#154"
80 "#64"
27 "#100"
5 "#115"
69 "#57"
164 "#165"
21 "#17"
127 "#1"
142 "#65"
157 "#118"
15 "#111"
9 "#137"
71 "#8"
123 "#89"
46 "#99"
111 "#46"
101 "#70"
161 "#14"
18 "#86"
107 "#105"
159 "#68"
31 "#126"
29 "#123"
115 "#11"
33 "#32"
20 "#107"
124 "#84"
109 "#3"
56 "#156"
90 "#92"
42 "#162"
97 "#12"
99 "#48"
32 "#153"
94 "#0"
44 "#103"
155 "#4"
147 "#141"
112 "#75"
51 "#36"
52 "#55"
26 "#117"
49 "#60"
76 "#80"
37 "#79"
148 "#139"
84 "#23"
82 "#33"
134 "#164"
22 "#109"
70 "#9"
105 "#16"
98 "#19"
128 "#110"
6 "#98"
92 "#113"
2 "#90"
103 "#53"
153 "#83"
25 "#116"
160 "#149"
104 "#101"
28 "#88"
75 "#143"
7 "#35"
61 "#42"
100 "#44"
63 "#24"
143 "#130"
89 "#91"
57 "#25"
55 "#119"
77 "#124"
41 "#28"
40 "#26"
13 "#7"
169 "#146"
131 "#74"
30 "#96"
87 "#67"
45 "#2"
133 "#129"
91 "#63"
139 "#147"
150 "#93"
158 "#142"
146 "#77"
24 "#168"
66 "#134"
102 "#78"
19 "#18"
17 "#30"
117 "#49"
38 "#62"
11 "#114"
58 "#151"
85 "#122"
122 "#40"
73 "#135"
Edges
85 3
84 54
153 26
13 19
60 107
168 134
105 71
80 115
8 141
94 19
119 68
44 130
161 99
53 16
23 71
159 23
49 70
5 45
91 4
48 140
159 144
98 12
53 72
84 106
79 153
44 27
28 16
19 21
40 123
151 23
91 160
15 74
149 21
90 138
147 36
83 93
146 11
99 73
98 79
100 41
123 150
4 117
78 13
153 33
133 108
114 95
142 87
166 11
56 90
162 135
157 17
165 13
80 170
127 105
155 32
30 44
149 84
72 2
50 120
129 45
33 57
117 27
110 8
17 163
27 94
37 138
45 157
6 78
112 122
168 98
77 5
3 82
10 166
140 87
84 135
96 140
140 76
169 46
97 63
27 143
69 82
137 133
102 105
26 106
89 96
119 82
19 11
151 38
167 83
62 162
50 103
40 124
98 43
164 73
101 152
112 159
20 44
84 103
37 141
140 141
33 52
151 156
47 133
29 1
40 140
80 17
61 118
105 2
151 4
154 40
6 66
38 111
1 107
50 22
158 88
22 64
67 58
12 46
46 23
112 14
77 157
95 142
51 94
148 143
165 83
47 23
138 167
146 119
27 19
103 52
152 31
3 117
45 83
136 1
103 140
16 122
31 42
82 168
101 57
86 81
67 117
35 164
30 167
51 19
110 82
143 165
9 130
52 118
97 20
16 44
157 144
91 53
3 148
19 165
127 86
98 94
72 48
7 9
127 13
98 131
52 112
112 99
16 130
73 142
147 158
141 31
62 54
155 105
151 117
150 75
14 148
94 82
25 153
73 118
117 100
27 104
117 62
149 50
77 40
57 74
19 23
119 135
122 140
13 136
22 67
84 56
165 52
29 28
82 51
156 46
38 59
69 24
9 95
122 116
103 138
102 159
55 1
14 144
149 71
70 130
121 164
128 12
29 91
128 93
76 92
149 72
49 69
136 60
58 148
101 115
4 114
138 161
106 154
116 27
140 145
147 112
99 41
123 146
114 35
79 104
123 61
17 84
69 73
100 94
162 85
50 2
7 36
128 140
96 161
127 45
53 167
156 167
59 164
99 51
22 96
169 65
122 70
90 68
65 82
54 19
29 72
115 43
30 68
167 41
33 43
70 45
133 33
26 25
91 51
3 57
93 117
136 117
63 83
162 115
3 42
14 50
44 8
106 50
13 58
101 169
89 8
16 168
84 80
19 36
145 130
28 43
135 79
16 81
55 27
67 110
60 108
33 111
110 109
27 147
16 36
123 14
5 152
103 162
61 83
108 113
50 29
99 45
115 67
17 109
81 95
131 99
147 9
89 71
13 162
8 170
43 3
29 84
131 118
78 54
61 157
68 13
71 50
135 52
115 126
49 127
50 105
151 96
146 107
86 153
71 156
98 1
8 17
157 40
146 142
113 32
84 51
84 161
140 47
5 26
37 7
169 75
10 153
156 51
118 129
167 2
165 23
113 139
156 79
148 21
138 140
38 67
18 107
136 6
161 94
109 5
130 40
58 10
130 119
6 120
91 68
105 28
37 76
51 141
117 99
159 97
120 158
19 110
81 122
40 22
102 111
60 79
40 66
96 70
138 135
53 156
128 68
101 123
31 105
45 91
60 159
51 116
159 76
28 90
71 3
112 167
161 168
100 122
87 107
21 132
101 136
87 154
101 114
132 107
33 50
99 127
137 8
165 63
131 135
166 132
1 5
16 19
44 22
68 66
97 6
140 17
75 65
125 4
117 89
41 124
155 130
117 108
51 112
128 77
118 49
65 134
44 97
107 59
108 68
5 54
105 101
14 7
138 49
140 93
120 82
97 154
108 147
38 168
28 149
160 161
95 126
135 110
69 7
85 117
61 54
145 15
133 40
144 116
16 145
109 103
147 48
99 3
66 105
163 77
142 131
155 131
144 55
14 96
134 24
19 85
22 26
153 119
33 119
101 165
39 159
115 68
89 83
106 86
63 39
103 136
141 154
114 152
129 79
121 86
131 53
46 123
145 160
82 46
124 7
43 83
111 79
8 96
62 100
1 92
100 1
58 146
131 158
129 107
125 143
162 2
50 136
24 34
65 125
62 33
106 123
19 9
74 59
152 120
109 124
133 73
157 101
55 77
156 96
107 37
8 53
156 97
18 131
87 168
6 46
109 79
47 70
3 89
130 57
136 76
71 131
116 134
149 165
26 10
89 110
16 62
105 23
34 50
60 150
97 50
2 137
3 4
82 114
130 3
85 15
129 5
4 46
151 29
121 31
44 11
138 23
135 155
147 84
16 33
149 68
124 37
156 89
142 106
132 155
68 54
70 145
39 162
71 88
94 8
82 40
91 87
143 170
51 138
114 21
105 166
156 136
13 21
142 33
20 38
21 3
80 83
74 170
3 18
98 20
145 31
131 54
107 71
52 140
21 67
95 64
106 83
77 155
104 113
151 50
134 59
71 94
4 168
165 38
96 136
106 131
23 12
155 69
91 139
10 49
97 76
50 19
17 98
115 154
49 51
7 115
142 67
93 149
125 51
7 150
19 14
142 43
2 9
80 129
140 101
34 95
150 94
127 54
121 9
107 3
39 94
119 69
117 74
54 12
153 22
38 76
58 62
168 45
91 136
167 63
9 99
22 119
44 6
104 6
75 141
118 121
115 137
146 16
49 82
87 45
61 111
120 8
118 4
3 100
72 139
160 118
115 110
36 87
90 16
86 76
52 79
36 153
79 40
12 21
21 72
64 147
127 27
123 65
2 61
96 115
145 75
26 100
51 86
96 110
84 21
47 116
28 60
40 122
14 121
69 115
33 89
64 59
44 122
93 116
90 130
35 1
149 52
155 99
107 20
99 154
3 79
115 151
8 55
168 156
3 62
128 116
151 17
64 146
53 119
143 9
156 69
131 4
89 167
131 65
71 80
18 67
162 49
10 137
13 159
138 123
131 30
139 13
27 68
51 106
87 74
91 98
51 74
25 121
120 28
134 114
75 130
109 115
143 142
138 122
89 97
56 24
94 127
110 99
52 25
120 149
4 63
16 48
55 36
130 36
154 44
50 165
127 47
20 48
111 155
68 37
53 115
7 119
17 62
93 39
67 78
145 151
20 15
169 32
129 2
140 51
117 95
103 22
36 74
39 11
4 23
125 169
80 135
107 82
37 62
106 161
71 110
5 36
48 27
56 93
130 117
41 96
3 6
77 66
12 4
72 138
98 129
135 28
8 80
61 141
36 83
36 151
102 39
83 87
45 2
140 30
141 94
110 113
68 61
56 97
88 60
39 50
83 155
135 66
109 135
160 61
69 107
47 96
101 99
139 32
124 98
145 40
147 58
111 76
117 82
150 66
62 165
69 104
133 129
106 120
43 9
19 64
25 143
40 69
39 113
71 49
52 41
58 32
47 113
61 7
145 127
140 57
123 109
156 43
78 14
28 167
86 118
94 86
102 139
79 41
147 97
42 113
4 145
82 72
26 71
129 78
5 14
51 35
64 88
136 80
6 96
51 44
132 104
8 118
27 125
75 147
86 154
129 100
61 136
128 74
96 100
64 140
129 36
93 89
117 63
113 65
69 31
141 130
142 151
55 28
3 32
170 93
57 80
35 122
135 17
83 67
128 153
21 112
109 128
90 21
154 35
165 142
129 124
155 154
63 49
159 107
133 119
123 108
16 87
106 38
87 6
13 39
82 57
31 29
41 51
14 116
162 45
33 121
98 87
79 46
95 111
109 49
126 1
123 90
160 67
143 47
89 141
129 99
15 157
54 157
145 67
158 23
101 49
48 25
52 7
44 145
19 4
101 156
126 16
52 57
69 168
151 66
91 82
138 80
9 48
143 61
107 96
111 92
2 38
119 38
151 67
60 91
36 133
11 100
7 87
72 69
81 152
81 60
80 45
165 166
94 57
5 69
96 125
130 146
75 66
1 122
68 124
118 168
93 55
68 111
159 61
140 21
87 84
102 103
7 136
99 97
142 17
161 166
83 53
106 165
111 82
155 125
130 13
129 19
70 162
155 141
109 33
93 79
105 168
94 158
136 83
90 60
76 84
152 144
51 15
148 123
81 88
37 116
123 122
57 76
142 5
98 83
14 56
14 6
90 27
132 32
170 152
26 162
36 146
159 133
70 159
115 87
106 49
138 86
2 170
127 26
11 26
87 20
40 100
64 137
129 38
166 3
90 99
43 149
141 107
24 16
96 155
63 114
92 121
59 52
169 144
4 102
66 22
142 26
134 81
5 37
165 70
151 163
16 2
89 18
153 69
126 151
147 33
123 53
107 2
122 105
16 104
161 18
3 40
165 21
141 112
162 89
108 17
117 25
128 170
138 21
68 98
115 91
142 105
150 112
162 57
124 89
2 82
9 76
29 118
71 42
44 90
83 24
148 63
40 118
57 122
52 30
128 25
30 124
150 52
57 124
114 151
43 41
109 120
69 68
121 144
69 99
115 5
68 150
142 25
33 93
30 142
53 51
160 76
61 130
102 150
90 157
110 72
141 128
91 59
153 117
99 46
127 146
3 104
164 120
70 100
145 72
13 52
11 84
19 69
147 12
145 10
67 141
45 86
117 161
69 46
39 1
49 98
109 168
51 13
53 22
52 122
133 105
82 67
86 71
51 149
19 63
155 15
51 109
58 15
8 67
34 39
94 60
170 20
57 63
90 71
97 49
52 91
79 37
136 159
