Vertices 303
176 "#145"
46 "#115"
283 "#17"
210 "#139"
287 "#233"
42 "#152"
44 "#269"
261 "#23"
26 "#175"
197 "#203"
88 "#127"
123 "#224"
209 "#154"
260 "#244"
227 "#109"
253 "#88"
148 "#6"
80 "#261"
247 "#72"
145 "#8"
250 "#136"
231 "#298"
221 "#190"
300 "#97"
278 "#41"
162 "#156"
36 "#239"
12 "#120"
275 "#79"
240 "#263"
232 "#285"
245 "#234"
164 "#172"
218 "#144"
257 "#161"
273 "#294"
149 "#231"
144 "#170"
51 "#264"
216 "#56"
1 "#205"
208 "#101"
225 "#167"
205 "#168"
90 "#32"
56 "#176"
274 "#296"
84 "#219"
268 "#14"
200 "#151"
255 "#250"
276 "#259"
234 "#89"
73 "#235"
107 "#98"
165 "#197"
41 "#192"
198 "#92"
23 "#290"
71 "#55"
9 "#265"
267 "#217"
47 "#237"
34 "#275"
33 "#181"
108 "#106"
61 "#119"
282 "#211"
154 "#225"
102 "#189"
15 "#103"
230 "#50"
60 "#245"
297 "#299"
288 "#240"
87 "#246"
214 "#140"
264 "#247"
258 "#47"
40 "#132"
29 "#54"
67 "#70"
281 "#218"
30 "#253"
254 "#53"
95 "#149"
173 "#82"
299 "#278"
59 "#238"
133 "#131"
52 "#272"
184 "#254"
270 "#100"
17 "#133"
293 "#199"
111 "#242"
58 "#19"
204 "#93"
171 "#291"
290 "#257"
5 "#260"
101 "#1"
187 "#209"
49 "#266"
188 "#60"
62 "#76"
117 "#268"
43 "#51"
303 "#75"
81 "#68"
159 "#83"
213 "#57"
116 "#107"
147 "#196"
150 "#36"
236 "#114"
16 "#159"
13 "#94"
122 "#69"
8 "#249"
233 "#288"
21 "#270"
6 "#58"
298 "#65"
106 "#40"
246 "#287"
195 "#110"
251 "#111"
104 "#52"
19 "#45"
115 "#193"
186 "#74"
105 "#105"
86 "#222"
70 "#81"
79 "#26"
74 "#25"
179 "#208"
172 "#293"
22 "#116"
177 "#9"
98 "#248"
217 "#204"
54 "#251"
235 "#223"
39 "#123"
146 "#169"
129 "#158"
28 "#173"
128 "#112"
110 "#228"
109 "#215"
168 "#281"
272 "#141"
10 "#232"
130 "#77"
158 "#273"
292 "#10"
153 "#276"
68 "#95"
191 "#143"
121 "#12"
96 "#24"
135 "#31"
152 "#194"
113 "#96"
138 "#129"
85 "#236"
291 "#174"
32 "#220"
82 "#20"
222 "#243"
63 "#108"
262 "#43"
252 "#213"
199 "#188"
136 "#104"
50 "#16"
75 "#177"
256 "#99"
302 "#163"
141 "#165"
134 "#30"
183 "#102"
169 "#90"
269 "#46"
38 "#284"
242 "#85"
124 "#200"
143 "#146"
266 "#198"
203 "#66"
193 "#84"
301 "#171"
4 "#164"
248 "#34"
237 "#80"
190 "#153"
201 "#4"
157 "#179"
229 "#62"
265 "#33"
220 "#138"
131 "#157"
212 "#216"
77 "#64"
194 "#282"
219 "#256"
259 "#186"
27 "#18"
3 "#191"
284 "#182"
35 "#229"
55 "#166"
118 "#29"
57 "#67"
25 "#147"
2 "#207"
280 "#28"
160 "#274"
132 "#15"
83 "#48"
249 "#286"
238 "#230"
64 "#22"
170 "#277"
180 "#267"
72 "#184"
78 "#226"
97 "#71"
37 "#122"
263 "#180"
125 "#271"
185 "#118"
206 "#148"
296 "#42"
181 "#128"
202 "#135"
24 "#160"
228 "#121"
93 "#38"
7 "#126"
178 "#44"
239 "#195"
112 "#5"
226 "#302"
14 "#37"
192 "#2"
211 "#137"
126 "#214"
224 "#35"
31 "#241"
120 "#292"
65 "#63"
196 "#49"
215 "#255"
140 "#283"
142 "#155"
286 "#73"
163 "#117"
289 "#201"
277 "#134"
11 "#113"
103 "#0"
53 "#289"
279 "#130"
119 "#27"
48 "#297"
156 "#61"
155 "#91"
66 "#300"
174 "#212"
114 "#3"
167 "#279"
207 "#142"
244 "#124"
271 "#301"
18 "#87"
45 "#295"
137 "#221"
223 "#13"
166 "#59"
243 "#202"
92 "#210"
285 "#280"
182 "#162"
100 "#262"
94 "#258"
99 "#86"
89 "#183"
76 "#7"
20 "#125"
189 "#187"
151 "#78"
294 "#11"
139 "#21"
69 "#178"
127 "#150"
91 "#227"
161 "#185"
241 "#206"
295 "#39"
175 "#252"
Edges
20 158
79 193
155 174
302 291
64 296
22 188
123 212
173 269
189 300
292 27
93 25
293 151
252 109
46 164
106 303
83 125
53 297
283 50
249 145
187 172
121 237
127 270
290 107
27 272
50 65
25 80
270 243
146 81
44 9
178 96
218 123
255 161
133 276
47 288
173 108
202 13
38 285
225 38
222 19
119 62
46 113
91 94
50 67
264 148
211 272
110 212
101 82
62 169
153 110
237 16
254 278
242 263
23 140
76 228
110 102
258 36
19 224
233 249
89 18
196 269
13 141
240 32
275 75
7 139
264 85
270 108
278 302
48 267
78 150
120 219
37 139
159 83
55 250
8 245
102 89
156 113
198 270
228 3
50 127
279 44
280 202
277 259
279 136
93 77
261 50
66 111
103 50
24 127
265 18
91 290
70 114
86 84
161 188
31 282
213 86
259 158
31 284
46 163
23 243
221 189
135 186
135 131
300 207
201 269
264 223
62 36
115 243
91 85
173 195
54 94
254 7
89 78
83 42
257 298
162 244
71 22
300 126
186 41
15 183
201 213
22 74
212 49
276 80
242 105
277 193
79 82
83 150
151 291
42 108
258 7
229 119
57 65
25 151
218 151
300 256
223 258
90 303
248 103
201 45
192 112
139 46
25 252
92 210
252 253
275 19
142 275
46 302
138 133
230 248
197 163
59 195
209 16
190 143
200 49
103 178
296 62
137 279
150 114
220 134
265 105
253 195
258 18
163 236
103 132
209 252
81 274
83 250
77 82
178 17
152 114
55 98
143 154
89 187
47 276
178 157
243 50
27 186
150 253
103 287
188 114
286 292
251 264
127 198
110 16
126 97
195 92
77 103
8 88
61 300
200 287
238 287
266 46
251 43
67 234
271 273
18 29
136 55
97 283
208 122
34 18
188 67
301 166
31 119
261 183
64 123
135 170
124 147
177 264
115 139
230 62
250 143
147 162
283 211
191 233
216 12
61 270
224 135
204 303
38 274
282 179
182 129
147 285
235 137
201 251
294 58
142 71
101 76
3 53
163 218
16 295
159 7
14 278
109 300
79 223
9 291
210 224
56 159
197 170
242 107
101 83
260 91
161 17
159 19
25 19
168 6
55 278
149 35
68 28
40 183
81 217
25 40
40 181
90 115
122 105
202 65
97 151
87 73
303 81
207 216
242 300
35 97
232 271
143 176
30 264
68 176
167 85
302 58
144 56
302 133
89 183
276 51
118 93
15 303
62 63
258 129
23 223
150 118
142 5
299 281
118 71
156 107
196 115
185 193
166 43
288 181
134 139
254 261
291 266
111 287
56 142
90 147
261 166
164 214
227 101
183 101
229 64
81 300
198 234
154 29
166 77
139 259
171 256
116 105
137 39
175 38
82 119
56 229
250 60
6 193
76 2
89 79
140 36
197 268
79 70
82 223
188 16
288 83
118 278
281 192
205 147
237 116
153 257
24 133
173 275
76 248
13 96
35 56
57 223
298 295
17 11
295 243
80 189
138 79
222 278
227 122
11 302
238 35
234 296
108 196
136 69
43 56
296 216
282 123
17 223
279 46
164 154
104 265
65 25
184 277
115 293
59 121
96 188
83 303
74 122
78 207
264 194
203 139
17 141
155 196
157 242
25 206
21 221
157 145
62 41
106 197
40 133
78 290
77 64
188 180
71 113
39 146
170 34
176 150
106 270
109 83
108 157
14 46
177 200
57 294
277 6
20 33
146 229
66 246
32 84
33 110
220 179
294 196
257 205
94 185
266 19
165 252
23 249
193 74
195 258
150 27
65 105
100 230
179 189
135 65
296 130
283 99
150 303
89 133
129 242
299 66
124 243
206 236
145 209
234 79
19 138
56 75
137 123
199 106
298 15
224 20
157 216
5 126
139 268
176 280
146 112
81 156
243 261
28 221
294 278
228 81
2 214
67 55
2 70
115 183
127 99
162 54
169 184
294 48
80 5
239 243
17 7
207 36
54 284
182 141
207 49
79 26
237 230
258 262
298 69
253 235
8 17
223 150
227 46
87 189
135 20
74 102
3 193
209 238
266 244
292 28
190 177
15 72
39 99
119 196
75 276
147 62
284 278
237 178
81 26
83 173
262 135
268 295
244 32
179 127
79 185
20 223
14 287
295 164
132 275
172 243
299 76
135 107
275 88
221 212
237 112
76 71
296 81
205 124
140 45
40 253
299 20
15 143
296 90
201 136
159 80
112 247
36 145
163 159
37 196
230 162
72 148
20 5
119 57
198 15
199 75
262 142
10 238
168 161
56 93
218 206
19 282
18 114
103 258
268 277
294 168
51 156
169 159
295 198
208 79
122 97
138 152
301 268
157 258
139 294
204 7
76 216
249 225
204 35
288 95
277 141
129 111
60 81
50 277
96 211
294 114
249 273
170 256
214 269
272 222
198 76
94 119
199 41
183 292
283 179
128 148
288 213
86 172
150 188
11 278
224 33
87 186
211 169
44 117
247 39
188 58
167 67
265 196
190 71
90 196
298 140
303 201
230 77
189 265
181 224
232 287
31 232
221 208
280 260
70 89
5 174
149 220
62 131
301 70
101 178
22 55
203 225
72 49
218 203
218 217
164 15
14 40
222 101
133 301
241 25
201 173
288 19
127 291
239 123
188 211
34 23
204 151
39 145
124 239
234 276
211 83
179 78
112 275
103 150
76 109
33 62
20 266
275 224
181 162
95 174
12 237
97 209
150 132
272 37
30 160
124 191
36 214
230 103
22 275
181 210
225 82
265 103
255 151
217 201
141 18
55 270
100 103
46 275
132 155
82 218
20 139
156 195
298 163
116 300
225 124
123 209
136 256
221 132
104 8
58 286
198 283
148 134
71 224
17 268
195 261
46 99
223 6
147 145
274 37
14 53
31 173
97 85
16 41
66 38
247 178
140 278
7 73
288 205
235 198
258 69
196 77
56 286
229 134
160 94
159 26
242 36
255 267
157 30
82 191
31 225
120 171
191 277
55 99
229 201
137 29
55 146
205 62
294 262
169 147
78 56
262 223
64 21
294 157
295 121
265 93
110 111
20 10
67 269
13 64
234 230
18 154
206 157
50 269
96 148
233 297
182 145
36 190
166 253
197 154
219 49
177 81
223 67
229 19
272 128
268 261
198 162
203 288
196 158
133 192
254 101
99 291
168 82
42 214
283 119
280 49
256 234
212 74
182 267
36 260
283 223
221 223
18 200
178 33
114 37
155 262
158 79
301 33
128 263
184 240
263 279
48 172
97 247
203 230
254 220
15 282
192 190
239 102
31 47
268 7
70 71
201 216
99 105
234 220
279 67
79 277
15 216
24 286
209 265
234 43
188 218
279 160
76 150
155 44
101 188
181 234
256 265
104 294
230 186
302 134
156 298
227 7
232 111
30 255
249 236
207 303
108 20
207 272
28 86
247 99
217 134
29 226
200 17
163 70
78 258
129 187
58 116
95 268
222 159
149 278
10 136
277 204
47 112
103 16
4 79
250 195
77 31
171 273
77 191
125 106
205 40
296 237
71 247
125 219
149 236
268 185
203 67
217 293
196 83
39 272
207 9
13 123
116 302
275 176
36 211
109 191
203 62
214 180
98 279
160 37
193 245
32 67
29 64
32 282
56 187
19 213
187 201
249 120
211 17
80 52
22 196
80 152
79 161
22 108
302 244
135 269
65 151
136 63
79 295
7 257
219 121
42 74
85 228
244 29
212 57
120 23
201 68
292 64
259 42
17 18
88 133
265 79
64 230
268 103
57 108
119 114
22 17
43 268
99 91
268 72
301 275
251 254
38 23
14 87
25 244
23 271
173 86
65 209
227 49
103 240
216 79
97 115
134 185
122 70
121 303
161 131
61 166
46 105
175 300
204 257
143 243
2 301
72 179
61 3
122 201
272 276
84 179
293 118
108 239
70 174
227 230
262 227
237 265
56 85
81 252
286 122
95 82
56 172
63 248
273 53
87 6
223 220
8 286
183 165
163 88
251 82
13 169
261 51
175 204
145 163
164 115
77 198
54 137
71 292
186 284
303 272
211 279
237 223
94 122
68 169
63 172
247 188
227 95
31 222
75 215
127 218
181 73
267 126
118 15
40 250
106 109
239 77
208 62
213 205
295 83
258 40
52 112
137 71
63 221
268 205
119 129
99 261
289 151
230 19
242 294
232 82
272 20
213 203
301 222
190 279
263 136
134 14
133 270
236 55
6 95
187 86
254 227
269 191
261 169
203 269
247 88
182 159
49 250
84 182
300 73
117 171
175 302
188 214
27 62
198 57
224 294
185 179
57 141
264 157
160 219
19 277
298 210
223 4
239 192
8 228
162 102
271 133
43 93
103 124
135 196
90 230
151 50
29 185
238 129
129 186
109 40
31 245
116 83
270 234
183 76
204 102
282 200
101 130
28 204
242 183
269 91
208 42
223 178
179 200
296 143
135 218
132 4
126 109
211 114
61 144
4 109
86 171
196 268
27 24
180 259
290 228
115 180
120 298
278 27
222 245
257 81
185 197
230 60
295 112
103 255
206 50
6 134
189 61
156 79
189 63
272 72
43 285
188 248
176 201
177 192
48 84
118 145
236 170
218 265
214 301
269 83
250 288
183 14
19 265
90 114
27 36
62 198
214 296
230 65
220 275
119 139
253 19
85 111
279 207
162 258
246 50
286 192
81 250
181 124
244 64
28 60
137 208
197 43
241 274
203 8
246 297
265 286
302 12
134 214
17 112
173 113
128 153
144 63
291 78
184 71
128 300
71 106
280 262
131 16
139 149
169 97
255 243
83 122
234 49
189 32
234 106
2 176
18 209
295 111
280 41
76 243
71 88
91 255
107 78
31 83
154 255
215 276
53 38
230 188
60 57
151 219
131 97
184 290
222 73
278 90
75 238
99 207
246 271
186 192
220 81
80 244
50 153
270 63
261 237
227 79
195 272
283 128
110 222
90 135
3 56
77 74
215 237
93 55
256 128
105 68
50 159
81 237
66 197
198 68
58 156
204 103
50 253
174 223
145 103
253 74
300 50
266 236
90 14
119 40
76 36
46 298
182 58
241 17
66 40
76 58
245 110
187 88
174 138
292 181
177 133
52 137
54 244
17 135
98 281
159 196
33 107
302 150
252 77
20 43
258 211
31 217
78 86
270 95
261 57
5 71
43 77
212 244
15 37
299 47
196 122
18 252
74 248
287 133
163 227
273 122
141 250
230 205
263 28
291 185
190 92
264 87
11 151
238 222
143 256
31 296
109 121
65 39
221 234
24 142
159 112
145 77
191 143
232 293
51 56
57 86
181 241
239 264
44 285
141 239
171 38
18 107
184 241
219 157
7 301
46 181
134 58
217 289
209 281
188 19
197 14
230 175
29 165
295 1
225 216
137 181
146 106
228 62
77 283
252 36
256 3
262 105
276 95
281 185
292 177
236 178
214 50
206 122
301 155
125 158
283 27
42 141
177 248
53 239
241 295
174 236
32 275
268 57
92 252
157 261
136 77
152 169
196 270
25 42
59 276
124 299
196 178
220 84
273 55
23 31
142 144
59 10
194 120
79 270
179 288
181 274
213 46
17 237
97 136
104 262
17 287
26 151
99 267
76 292
233 67
303 71
135 228
286 255
145 140
263 11
230 204
109 155
177 82
287 3
216 103
211 21
209 35
270 103
195 132
110 71
20 261
61 167
280 191
95 136
121 162
104 174
271 63
34 234
217 200
269 99
116 121
260 96
225 112
29 139
159 151
95 166
39 291
232 47
176 93
35 36
87 98
253 170
33 64
139 302
220 272
57 105
289 243
86 2
59 127
195 169
177 214
296 224
143 181
162 215
80 27
146 154
160 88
37 31
189 161
6 169
66 249
166 186
216 82
83 79
136 258
262 115
150 203
190 109
208 213
18 253
76 139
285 191
75 89
3 248
188 89
291 227
186 195
113 13
146 285
112 15
216 146
72 58
133 298
10 253
181 27
108 201
159 260
259 73
5 178
46 12
155 67
144 49
4 229
162 210
163 101
268 287
23 62
34 292
46 239
148 44
289 161
178 18
165 189
131 121
218 49
138 179
65 142
244 61
259 80
146 296
19 83
177 188
275 193
145 278
177 65
150 108
222 32
247 267
17 181
162 223
42 116
71 20
29 60
103 104
154 150
16 12
156 142
226 138
184 149
120 136
261 193
222 29
216 124
127 138
5 129
112 64
128 201
205 100
125 49
261 39
272 111
252 272
18 278
259 165
146 221
136 276
115 124
133 300
8 237
106 263
192 57
41 193
25 84
121 46
194 203
289 153
97 256
251 276
243 94
89 11
214 186
202 138
286 229
7 151
57 58
25 45
94 16
193 254
214 223
198 256
286 57
65 157
240 129
249 69
268 145
265 239
196 50
50 204
291 22
294 251
24 227
101 270
248 99
97 56
87 250
104 145
56 291
118 72
201 285
284 181
56 239
192 88
106 239
72 50
28 51
55 7
104 155
222 148
115 87
210 96
223 74
223 24
258 196
218 200
222 145
215 79
280 52
53 171
282 133
20 163
286 214
223 71
303 1
37 164
163 181
50 106
212 303
40 219
123 132
85 218
153 142
229 142
262 133
218 159
90 98
80 185
134 168
84 18
60 32
112 265
41 104
48 272
104 114
294 83
291 156
180 138
248 275
255 212
155 244
163 22
283 76
280 83
278 135
258 186
172 140
215 184
216 43
186 145
70 217
130 77
6 77
265 267
41 19
65 207
149 292
144 93
196 249
280 17
267 43
292 278
74 194
196 173
118 210
220 42
40 18
226 212
31 243
28 201
181 183
9 278
283 295
190 55
294 248
83 104
295 68
70 267
145 20
287 262
212 56
126 213
29 292
254 151
120 241
139 300
149 234
142 146
275 14
130 117
189 250
33 124
213 79
129 145
39 12
41 68
193 291
254 114
143 183
186 196
89 276
78 105
77 188
119 64
46 234
164 173
168 23
247 233
139 209
93 98
3 250
114 195
139 131
102 39
256 20
67 132
198 59
286 256
230 13
15 239
141 170
170 172
248 246
161 139
168 59
167 62
25 7
107 164
106 11
227 131
263 22
13 276
139 206
229 65
253 62
88 4
243 62
157 28
248 53
262 148
24 146
130 200
217 138
101 29
79 106
225 286
209 215
160 59
205 227
180 100
248 228
73 31
116 25
218 4
203 210
126 11
70 242
261 130
267 25
228 298
147 47
173 213
113 54
7 39
298 225
39 253
243 296
5 248
86 149
79 122
31 103
197 102
19 209
228 160
128 58
53 137
176 291
107 181
144 65
3 157
200 190
132 213
172 207
303 132
82 277
279 151
143 121
90 228
148 77
238 188
205 26
72 7
158 151
278 228
260 164
76 40
79 178
159 195
218 231
198 56
154 67
15 102
85 150
199 74
20 221
94 117
7 50
167 238
93 293
38 45
279 224
287 48
24 35
100 246
257 1
79 14
1 283
229 29
170 273
181 31
87 257
114 46
281 179
69 94
201 262
159 88
291 84
99 72
231 112
4 291
13 167
65 258
209 118
227 134
191 1
105 130
277 173
211 128
303 154
165 82
225 17
144 196
176 250
267 122
161 124
19 108
95 294
73 24
241 60
195 135
121 146
74 90
166 235
173 183
228 236
58 6
72 10
20 62
168 42
167 271
197 291
269 82
250 209
265 122
14 263
162 6
193 272
186 21
216 51
131 66
70 280
241 244
166 221
24 45
177 134
178 150
125 254
144 24
19 250
276 186
153 231
186 247
30 292
99 228
190 69
40 244
234 37
47 176
5 297
292 225
264 67
62 68
91 199
23 153
211 225
222 60
40 291
202 83
169 93
83 186
211 40
64 148
55 35
216 92
52 44
173 299
198 173
22 110
151 250
262 282
130 257
27 293
82 93
160 8
44 129
74 237
61 176
194 256
277 137
248 123
11 251
218 204
275 93
112 302
297 14
65 58
130 259
47 178
237 30
282 75
185 66
197 247
37 140
25 190
202 98
240 119
11 79
163 187
226 140
58 166
201 71
300 89
183 69
95 47
21 72
169 265
69 164
121 26
189 8
270 247
15 96
79 68
132 46
242 253
136 288
208 226
130 20
26 204
196 193
153 243
218 186
155 193
15 253
65 294
219 276
193 173
42 31
216 126
166 295
140 153
258 92
213 95
223 9
147 20
108 73
102 86
279 134
130 179
261 47
91 188
69 33
294 151
146 166
110 145
258 247
144 230
55 108
101 55
48 161
22 14
197 72
35 137
229 269
47 90
240 150
192 1
63 208
247 291
96 217
97 139
220 208
50 298
103 196
14 174
30 227
230 71
155 145
93 63
169 111
280 43
218 161
107 277
39 206
292 14
216 192
78 2
41 281
177 50
274 233
101 192
155 258
141 160
122 287
121 99
212 86
173 270
95 234
60 35
150 112
139 85
165 174
234 148
29 255
57 290
271 48
30 4
29 134
41 115
303 64
79 214
119 227
61 258
43 242
27 59
248 186
19 195
269 225
206 150
24 266
261 236
130 19
13 253
74 71
241 101
155 213
66 297
98 61
132 216
230 123
93 202
192 77
215 86
120 178
197 60
74 265
258 128
175 277
88 150
135 41
200 43
165 157
253 191
237 35
39 93
37 27
99 239
128 62
138 130
186 136
131 39
49 298
197 85
298 237
135 296
161 93
13 151
203 262
217 127
90 241
60 8
258 165
217 3
178 38
90 272
137 266
284 89
157 286
58 12
22 11
143 104
278 280
150 169
256 107
93 104
270 177
130 298
19 208
185 111
124 280
263 300
224 165
22 140
189 279
204 71
298 29
207 186
227 277
270 260
253 147
210 279
303 265
282 203
81 135
230 294
283 118
250 17
103 299
278 181
217 24
270 151
204 220
181 303
178 12
284 190
100 28
213 25
57 252
298 240
290 168
263 1
74 106
195 236
113 33
251 248
198 164
75 72
159 227
155 156
302 38
207 254
115 298
185 244
248 301
185 269
62 270
66 243
185 259
173 92
132 133
95 73
40 96
284 4
185 220
292 41
231 86
298 57
103 285
120 80
117 140
67 224
170 71
134 28
88 270
162 278
230 150
48 134
298 91
19 90
189 203
135 12
255 146
216 19
6 27
8 110
96 137
238 116
130 144
147 130
218 76
223 88
150 257
282 228
85 222
266 256
251 108
29 163
75 284
156 131
108 23
168 172
250 200
152 243
267 157
156 90
244 53
251 116
241 299
109 236
47 185
157 235
178 280
33 200
67 48
211 214
292 178
126 185
106 12
250 12
301 99
186 239
159 28
268 300
300 228
165 282
253 198
65 71
7 69
280 71
33 161
32 179
123 175
205 302
302 266
108 136
233 171
293 21
178 174
119 265
252 230
198 212
74 108
227 236
234 130
16 164
51 290
105 5
292 298
270 78
16 47
270 27
229 169
34 38
79 247
49 80
85 76
245 22
72 265
114 234
232 69
81 47
257 278
67 74
16 50
119 255
137 166
174 154
4 204
289 288
118 108
108 141
272 191
127 32
204 82
216 198
33 116
144 28
194 38
12 179
55 46
166 71
21 299
178 6
43 283
185 250
61 218
265 262
135 234
263 6
206 203
282 160
229 206
173 76
202 247
32 129
224 104
124 142
297 208
280 272
198 145
292 146
155 26
139 57
85 110
95 247
190 43
62 223
139 39
67 293
132 5
142 218
204 240
141 85
60 78
13 115
200 76
12 105
258 160
64 192
91 49
237 191
296 173
291 54
51 238
300 137
24 210
146 4
234 124
210 295
126 15
239 296
9 120
46 208
119 95
150 159
252 180
181 151
223 63
62 152
94 8
208 77
292 156
52 5
66 55
292 206
46 82
270 205
198 44
2 212
184 9
15 113
65 95
97 286
163 248
265 65
5 197
36 50
122 37
216 211
206 68
278 210
42 104
177 216
107 15
242 21
269 187
195 104
35 129
64 185
134 235
190 250
20 61
8 268
254 259
72 129
285 274
276 49
213 265
241 72
43 112
147 293
199 271
241 296
133 223
91 138
190 218
214 287
287 229
220 242
7 132
272 176
240 199
185 296
279 102
4 205
258 37
37 303
22 75
184 38
224 213
212 85
178 177
117 255
179 256
208 70
298 32
298 113
212 33
24 68
265 40
108 123
67 83
89 69
230 85
103 207
218 77
73 245
272 18
28 66
267 26
77 289
4 244
8 291
254 26
225 141
127 148
127 49
136 294
173 220
118 258
41 171
152 261
229 139
289 295
255 222
201 19
74 203
20 64
173 19
14 130
106 76
83 198
1 272
107 122
239 189
290 52
71 245
1 138
103 112
203 92
220 303
22 298
235 211
298 41
248 169
156 4
200 191
27 211
223 192
260 165
62 242
98 26
155 99
138 200
260 192
22 236
86 12
235 35
220 197
257 3
269 20
27 82
69 293
191 204
121 71
93 284
26 288
164 177
147 135
103 46
29 268
223 290
15 202
300 298
242 81
94 107
20 180
244 46
176 290
71 254
275 190
163 89
285 45
149 79
203 83
286 160
58 183
127 26
132 105
157 259
256 24
227 151
182 157
164 184
261 77
243 58
169 282
223 15
42 190
68 203
69 88
121 79
261 150
256 70
296 27
115 189
87 300
20 293
116 6
130 97
184 17
220 138
169 127
64 96
202 195
112 241
40 107
47 230
75 73
111 108
292 5
261 76
9 150
141 126
294 77
118 193
43 42
252 149
126 122
169 43
283 37
211 35
5 182
132 201
247 41
45 233
199 24
248 166
173 58
250 88
27 183
138 88
258 83
46 68
253 80
199 213
23 233
14 62
116 130
279 266
39 11
15 270
119 223
67 76
232 11
76 41
300 173
102 161
149 279
98 60
243 3
43 163
121 155
270 208
188 265
278 227
282 64
43 150
213 159
127 289
107 74
202 277
24 74
169 192
150 278
126 92
185 192
27 103
291 121
150 29
148 285
167 171
134 200
2 235
113 145
156 253
82 258
296 279
207 196
81 138
58 70
282 271
294 46
124 241
198 43
145 300
86 249
218 42
261 27
11 270
156 71
260 119
23 231
223 292
139 204
244 280
268 192
16 152
134 64
191 17
282 65
4 55
119 148
237 195
145 203
34 215
115 88
160 275
291 134
119 54
257 234
210 149
234 132
298 123
291 89
267 179
169 278
86 210
211 237
41 155
46 6
118 151
296 67
171 15
93 124
276 99
194 283
228 151
16 33
55 209
197 169
74 96
201 300
283 122
16 82
191 259
89 24
58 98
212 209
223 156
5 189
46 135
23 82
248 14
14 224
96 3
253 284
270 90
213 256
181 262
187 108
214 55
217 204
133 290
121 147
24 198
70 203
263 64
150 280
245 235
60 264
129 146
159 115
176 162
296 132
129 24
244 201
197 293
294 119
229 118
195 179
108 235
172 246
46 192
31 87
128 91
298 134
142 108
173 294
131 277
99 186
28 216
287 178
287 245
103 281
61 175
105 81
75 263
65 259
250 78
32 99
6 190
43 189
262 268
261 219
136 195
272 261
298 193
178 179
39 10
198 179
253 69
139 237
43 224
97 186
121 107
18 130
224 293
48 232
146 225
257 228
243 183
33 256
244 7
286 4
174 296
248 144
149 193
53 285
135 6
89 143
149 43
54 100
134 75
207 209
17 293
195 108
93 184
57 221
57 116
57 224
136 231
117 291
214 143
142 281
64 9
163 33
303 205
113 218
290 44
59 152
26 21
293 187
75 43
270 267
210 114
101 262
83 6
259 219
7 213
227 199
150 15
121 105
302 69
211 156
216 196
249 168
246 133
187 148
60 180
173 281
133 101
112 161
83 46
12 20
200 148
237 135
70 269
101 103
130 216
289 173
140 180
15 148
286 213
240 54
207 146
40 106
210 84
193 224
248 11
18 224
21 151
62 82
279 169
300 43
158 166
37 224
174 163
89 156
27 96
295 201
2 291
163 62
197 33
78 120
149 246
164 217
260 252
145 241
248 40
91 27
294 247
164 11
286 125
63 92
27 104
183 2
207 18
136 67
113 79
199 281
244 125
148 155
139 121
48 256
13 138
26 118
65 242
210 283
242 198
19 289
178 65
46 245
116 63
210 55
7 178
136 14
46 154
265 91
133 100
268 188
233 219
152 239
89 275
209 67
13 214
37 270
13 203
232 10
228 136
279 176
295 80
143 8
93 230
116 156
221 88
266 230
37 163
243 108
26 290
227 172
17 247
178 162
112 248
146 77
31 75
189 302
19 291
133 253
199 211
8 128
106 43
92 61
139 196
40 275
97 128
183 296
12 107
19 82
46 134
118 292
236 252
288 36
298 14
203 3
96 246
8 301
31 172
283 209
196 225
30 49
187 106
247 289
164 301
283 236
36 112
262 291
288 242
242 146
204 11
286 62
63 20
21 4
104 119
168 46
115 99
114 134
29 278
262 77
259 147
153 80
43 254
199 189
207 95
29 170
123 15
137 248
281 84
273 243
29 295
69 72
91 227
68 190
51 54
301 225
207 137
178 134
265 150
206 14
212 103
272 24
120 155
175 44
93 244
120 95
279 179
58 193
97 65
22 159
250 4
207 202
89 40
280 156
42 182
39 175
11 210
6 229
48 285
211 63
16 107
296 95
140 167
29 261
11 49
201 186
96 256
155 64
6 138
1 265
298 4
83 54
113 193
82 97
123 19
201 83
160 158
37 252
62 130
212 186
281 166
106 62
203 286
303 30
30 240
75 159
91 254
268 3
12 131
278 50
112 205
116 283
81 112
134 77
237 229
233 241
161 11
204 67
258 228
70 166
210 133
193 294
297 168
14 200
57 20
145 188
36 302
246 140
180 17
151 123
39 151
155 296
101 149
255 239
56 300
146 47
295 45
114 235
62 57
42 133
111 159
34 271
163 274
272 121
79 142
68 293
45 9
263 72
136 28
90 17
176 270
64 156
213 83
272 196
70 17
277 244
207 129
104 141
43 192
303 19
67 143
284 213
19 152
152 115
16 106
185 183
258 88
267 259
121 159
221 87
185 133
121 188
184 244
99 173
128 206
5 300
50 114
18 118
120 165
258 89
176 50
138 90
115 155
91 191
251 49
259 284
151 81
256 83
150 30
246 48
132 191
189 1
96 209
63 303
165 16
8 141
178 106
166 188
97 96
185 67
63 284
119 257
276 169
242 126
151 141
214 166
56 190
301 104
27 236
199 197
132 222
163 264
69 75
281 277
179 20
92 154
115 247
33 131
155 90
80 291
50 138
184 59
242 66
106 282
78 32
43 102
241 75
90 269
156 148
199 82
287 239
42 286
9 94
266 269
132 148
28 90
222 270
264 141
15 106
108 79
187 200
270 268
121 203
254 37
11 269
202 205
196 96
169 136
53 198
26 37
264 10
14 112
288 286
302 157
10 287
90 71
146 138
68 283
227 15
130 24
93 283
300 45
289 56
145 50
48 295
197 239
178 166
97 196
296 51
189 274
214 176
94 219
174 126
56 301
95 80
165 127
255 241
201 250
66 251
214 292
190 152
135 33
135 67
23 17
1 18
227 216
40 134
59 279
296 247
59 100
201 166
199 104
88 216
230 276
223 134
150 65
244 188
178 163
6 44
139 41
261 283
279 175
223 289
290 3
173 118
283 282
80 239
175 215
60 238
178 231
242 204
185 253
100 165
241 179
16 65
211 103
26 178
207 11
263 105
170 13
48 19
224 223
152 184
62 90
159 20
269 27
112 101
292 83
228 103
93 205
56 161
263 178
201 190
139 187
64 201
110 272
122 155
114 169
74 27
81 189
247 6
126 102
237 143
277 166
240 9
199 4
123 301
295 294
63 272
97 300
250 218
224 164
242 135
61 253
43 32
28 175
180 24
223 65
145 259
63 22
46 187
103 2
146 201
130 278
73 112
25 180
240 67
198 248
65 192
228 295
199 294
284 122
99 122
28 298
158 36
72 115
18 63
33 176
301 35
129 195
99 108
247 286
270 272
120 215
118 261
70 209
69 165
38 3
134 166
301 208
124 12
171 290
157 225
68 157
66 298
206 268
176 262
73 282
177 41
213 93
296 115
186 29
273 239
104 80
298 103
193 280
44 77
89 270
50 260
7 133
17 84
96 234
295 287
254 183
254 284
248 254
177 199
238 113
143 290
61 262
285 168
97 27
236 265
95 49
278 39
261 134
203 138
296 99
227 242
275 237
114 166
112 145
105 7
111 217
88 116
3 123
212 127
158 104
268 83
216 191
8 149
32 1
176 97
303 116
262 107
269 265
3 55
28 64
4 147
284 217
124 14
60 287
98 265
64 135
255 80
6 40
122 156
84 115
181 250
144 155
251 37
203 135
108 32
85 189
197 300
113 230
297 104
188 213
68 191
162 261
51 4
34 287
250 244
262 245
104 166
237 11
248 100
225 257
219 227
90 126
155 76
110 268
294 67
34 294
62 212
192 171
90 258
171 172
166 148
217 191
203 211
228 96
113 186
76 81
183 128
156 118
57 28
99 62
292 279
85 234
222 36
220 12
242 127
128 218
286 178
60 243
115 273
43 13
107 208
228 15
105 300
59 12
193 282
166 65
96 292
185 251
198 230
29 181
70 115
104 204
135 227
190 135
121 278
89 171
266 199
292 229
89 263
82 7
204 173
237 220
236 130
240 180
231 146
274 301
222 164
263 165
117 158
129 234
122 198
32 169
287 45
5 253
185 114
43 223
96 227
100 228
128 79
11 69
148 104
302 93
204 121
254 135
270 279
220 92
65 18
101 50
288 247
14 178
114 216
121 138
262 195
81 213
53 235
195 278
244 195
209 4
177 106
275 70
202 298
272 200
234 89
186 76
154 212
83 279
117 100
39 237
75 116
67 278
294 101
76 63
74 289
139 262
182 244
250 5
296 161
143 90
107 239
167 299
159 31
135 244
39 105
295 15
277 280
56 148
230 116
130 209
271 12
159 162
164 29
245 244
278 183
234 262
210 122
18 248
216 20
20 109
201 248
204 228
35 93
208 235
61 79
238 108
14 231
146 139
247 208
107 57
61 24
159 134
76 253
13 260
208 35
23 299
294 30
223 195
25 76
125 160
20 27
65 262
71 237
148 230
35 227
214 174
121 15
85 36
200 119
96 170
141 16
14 276
202 108
105 6
270 183
22 137
203 156
73 36
190 122
150 251
148 61
50 286
25 141
41 279
2 250
55 18
150 141
116 101
118 9
80 114
77 248
298 90
262 59
37 194
46 54
122 14
242 286
277 298
177 137
195 22
104 205
125 245
173 65
142 4
292 283
34 171
117 271
14 196
99 268
64 37
214 4
213 162
204 243
27 76
221 127
169 105
161 62
106 5
238 201
250 240
199 108
18 131
82 15
1 282
12 61
168 289
135 268
94 30
262 178
236 81
195 78
68 193
263 157
244 258
250 122
230 212
210 207
7 198
234 29
215 281
111 224
232 51
200 251
213 105
254 47
98 163
12 11
147 167
117 192
207 257
116 136
72 288
148 18
180 117
222 211
21 52
282 2
127 57
237 269
298 119
200 210
122 145
164 40
34 297
225 24
134 9
296 269
43 161
54 296
120 244
295 152
82 285
278 93
70 258
144 72
201 50
89 277
197 64
139 82
221 147
236 78
211 13
91 302
51 155
44 221
50 169
132 225
163 99
200 199
216 74
146 294
203 155
24 194
135 76
186 58
64 205
76 99
237 147
245 116
14 184
260 105
119 190
189 243
76 279
133 279
297 231
179 13
159 70
116 166
119 53
217 15
229 14
214 94
146 63
217 118
122 46
166 220
189 133
223 132
73 117
29 112
173 114
234 204
62 196
5 255
234 20
290 296
86 239
168 298
58 139
50 150
139 282
71 257
224 204
290 117
134 124
6 20
71 157
117 184
187 254
174 118
58 64
19 136
275 105
139 27
192 6
223 254
176 72
129 61
43 188
242 291
238 110
35 110
207 199
154 55
167 266
225 183
81 244
117 42
182 7
139 277
65 114
248 37
162 205
33 1
18 177
213 202
236 196
213 294
33 299
150 8
5 298
179 154
62 146
18 175
237 86
83 121
241 54
258 64
254 199
131 225
152 137
242 103
301 90
110 59
193 119
291 250
188 29
156 213
230 260
197 226
223 113
3 105
152 146
164 152
182 102
261 244
176 257
245 253
114 2
227 141
25 294
266 152
250 152
84 126
151 143
274 104
236 199
217 186
289 202
301 286
170 53
237 247
241 243
82 255
141 202
103 74
184 160
94 175
178 122
136 148
230 192
15 62
115 33
106 223
278 139
122 216
120 235
4 161
226 175
256 203
293 227
301 20
6 258
129 90
114 286
93 17
5 160
15 16
146 9
133 252
1 301
243 163
228 12
204 39
29 213
116 229
95 237
220 196
193 114
272 19
290 62
42 242
186 213
91 10
247 159
88 181
132 295
154 282
97 141
226 172
174 244
55 20
141 91
278 91
104 22
87 53
51 160
105 145
129 228
33 140
118 253
108 120
28 7
296 169
186 183
115 94
155 298
298 279
212 235
292 233
185 226
223 129
6 70
13 78
157 166
259 232
151 269
143 201
74 181
125 180
195 88
198 291
83 192
163 201
176 217
177 267
249 68
224 220
243 212
260 73
293 210
82 98
130 46
34 137
272 4
295 57
223 207
6 272
103 148
232 226
78 26
285 140
228 42
300 27
148 247
37 21
209 44
90 159
208 68
54 170
262 177
209 113
209 205
164 287
205 216
204 213
57 214
223 19
20 138
176 228
210 234
208 242
152 102
55 191
215 255
121 156
19 166
263 118
209 156
18 176
182 122
74 4
164 256
195 128
236 15
184 211
288 92
194 295
2 84
191 147
181 76
88 106
236 217
43 275
126 124
55 37
61 233
69 286
155 248
177 118
164 84
234 214
119 132
156 294
128 72
214 237
250 61
3 197
3 289
89 114
135 77
28 195
194 66
101 282
48 22
199 126
13 303
248 192
159 288
119 204
209 225
210 182
280 99
73 111
110 147
174 217
79 191
224 211
279 282
111 122
17 85
58 290
283 303
105 142
280 13
243 72
55 76
121 57
58 103
245 30
200 12
292 67
278 213
143 102
224 25
131 284
129 103
243 146
183 46
21 114
223 217
249 219
109 253
208 258
190 29
31 249
79 244
127 275
265 199
265 214
218 102
138 28
121 81
300 292
170 149
294 131
262 194
279 284
7 124
2 226
15 119
179 276
197 227
47 98
163 224
107 89
256 248
279 131
86 263
69 109
9 33
113 212
162 164
294 127
186 298
150 16
109 180
35 264
142 141
123 135
272 77
239 254
56 99
200 46
56 20
197 41
82 109
232 254
211 281
222 188
148 68
227 19
280 75
179 90
169 234
92 271
228 273
69 151
286 268
272 204
185 198
62 216
242 289
96 121
20 46
97 197
147 261
83 114
13 297
228 116
224 84
71 14
108 75
143 189
175 60
134 221
73 194
131 170
208 176
119 99
10 56
301 27
171 131
90 96
206 242
57 64
17 92
162 82
213 27
139 298
41 253
59 111
189 105
116 15
192 214
106 57
260 84
199 167
220 37
13 155
190 244
39 211
3 70
303 275
279 22
132 72
72 163
13 34
29 85
191 214
