*Vertices 273
172 "#250"
17 "#97"
221 "#71"
152 "#229"
27 "#146"
141 "#171"
259 "#203"
77 "#31"
171 "#258"
153 "#122"
198 "#19"
87 "#158"
24 "#42"
115 "#192"
108 "#37"
217 "#180"
212 "#130"
194 "#265"
1 "#246"
270 "#30"
90 "#103"
118 "#212"
57 "#55"
94 "#150"
54 "#47"
34 "#96"
63 "#39"
91 "#238"
162 "#149"
179 "#92"
88 "#159"
195 "#69"
84 "#138"
117 "#272"
73 "#10"
227 "#197"
209 "#211"
146 "#156"
252 "#207"
3 "#255"
208 "#60"
37 "#257"
5 "#20"
71 "#268"
205 "#114"
67 "#113"
216 "#91"
97 "#51"
154 "#68"
215 "#186"
192 "#131"
39 "#59"
119 "#263"
53 "#84"
240 "#209"
64 "#216"
4 "#125"
207 "#44"
158 "#172"
223 "#117"
133 "#120"
20 "#93"
202 "#28"
186 "#251"
188 "#95"
181 "#63"
124 "#135"
231 "#13"
31 "#260"
36 "#208"
13 "#81"
98 "#199"
83 "#165"
7 "#224"
26 "#184"
184 "#234"
111 "#8"
95 "#213"
246 "#106"
226 "#72"
169 "#56"
239 "#40"
261 "#1"
242 "#210"
165 "#177"
61 "#89"
75 "#140"
253 "#62"
131 "#6"
190 "#27"
44 "#88"
79 "#22"
58 "#14"
258 "#247"
99 "#66"
193 "#243"
167 "#38"
126 "#0"
225 "#78"
148 "#94"
42 "#161"
122 "#144"
85 "#262"
76 "#237"
96 "#245"
135 "#166"
177 "#241"
100 "#75"
138 "#41"
93 "#45"
40 "#139"
244 "#155"
106 "#127"
123 "#233"
213 "#52"
191 "#77"
102 "#191"
218 "#147"
257 "#206"
163 "#90"
8 "#226"
65 "#252"
121 "#141"
174 "#108"
49 "#49"
140 "#182"
260 "#240"
145 "#217"
92 "#219"
256 "#98"
2 "#194"
19 "#221"
267 "#248"
175 "#101"
224 "#223"
263 "#214"
247 "#104"
38 "#269"
114 "#23"
250 "#99"
235 "#202"
103 "#230"
116 "#3"
28 "#242"
33 "#2"
29 "#43"
160 "#181"
60 "#239"
265 "#266"
113 "#29"
11 "#119"
14 "#249"
241 "#24"
18 "#173"
15 "#46"
74 "#34"
45 "#87"
147 "#160"
189 "#231"
143 "#264"
255 "#79"
271 "#175"
51 "#154"
70 "#188"
89 "#82"
55 "#21"
129 "#85"
9 "#271"
134 "#162"
251 "#232"
150 "#83"
16 "#118"
232 "#67"
22 "#143"
101 "#195"
125 "#58"
62 "#228"
156 "#164"
266 "#74"
25 "#196"
176 "#176"
10 "#50"
204 "#205"
47 "#218"
196 "#107"
248 "#148"
144 "#201"
139 "#76"
211 "#17"
228 "#54"
159 "#53"
110 "#183"
80 "#11"
183 "#220"
161 "#33"
50 "#123"
236 "#253"
222 "#270"
66 "#151"
107 "#129"
48 "#15"
243 "#167"
35 "#48"
128 "#222"
273 "#65"
120 "#259"
187 "#152"
178 "#178"
68 "#110"
166 "#26"
168 "#64"
220 "#142"
86 "#112"
203 "#109"
52 "#187"
82 "#115"
112 "#137"
262 "#61"
238 "#7"
132 "#198"
268 "#236"
199 "#32"
180 "#36"
32 "#121"
46 "#134"
78 "#136"
170 "#174"
69 "#16"
149 "#261"
254 "#256"
201 "#25"
23 "#227"
72 "#215"
130 "#235"
164 "#102"
137 "#70"
234 "#189"
182 "#190"
197 "#111"
200 "#267"
109 "#35"
272 "#80"
229 "#73"
214 "#105"
127 "#153"
155 "#179"
59 "#9"
41 "#124"
249 "#185"
233 "#116"
43 "#204"
245 "#163"
56 "#4"
105 "#100"
237 "#5"
185 "#132"
151 "#169"
21 "#225"
136 "#86"
157 "#168"
6 "#145"
81 "#254"
206 "#128"
210 "#200"
230 "#170"
173 "#244"
30 "#57"
264 "#18"
219 "#157"
142 "#126"
269 "#193"
12 "#133"
104 "#12"
*Edges
45 247
135 67
219 51
174 145
167 73
63 17
18 136
89 129
53 156
129 191
146 92
212 233
133 124
67 118
235 177
188 141
98 235
153 207
234 130
53 153
103 36
150 239
238 221
33 77
142 174
262 113
198 131
122 62
33 188
219 178
129 206
27 107
107 51
27 215
36 145
18 86
235 123
96 95
237 225
119 117
47 153
32 26
16 217
117 65
155 122
209 256
12 121
18 185
78 41
164 218
121 90
177 218
149 81
95 7
179 214
272 89
196 156
140 70
127 124
168 179
196 256
87 53
32 249
107 1
30 10
17 162
150 174
177 230
157 45
101 269
86 269
125 161
273 211
204 91
214 205
248 210
264 33
27 244
270 30
191 160
246 42
62 28
180 61
2 244
91 252
233 174
141 87
131 44
144 84
226 229
130 21
213 20
48 80
260 96
49 109
13 178
100 207
151 271
271 16
175 244
137 78
67 210
261 181
126 86
181 218
170 188
67 133
226 223
218 265
18 246
44 231
262 100
163 34
188 36
59 211
5 108
214 177
50 61
29 33
18 141
191 161
157 89
142 231
92 88
137 272
176 127
242 103
138 221
164 217
11 2
130 257
32 45
273 90
206 223
94 22
239 241
87 136
259 117
216 88
216 202
152 107
215 7
43 22
35 69
167 137
144 133
124 145
61 89
234 196
19 75
46 45
85 157
211 208
66 140
105 256
77 104
41 99
108 226
131 161
85 46
13 77
50 150
227 214
235 25
249 86
22 265
89 214
178 92
14 178
17 19
151 230
240 184
125 159
256 131
196 214
19 92
272 74
105 204
32 6
165 235
126 79
102 25
82 43
27 18
84 259
174 246
84 120
249 176
127 187
11 178
238 108
6 52
117 141
228 80
69 237
198 99
169 39
223 100
203 150
125 169
219 26
247 55
216 5
43 40
116 169
29 89
217 85
273 63
170 186
151 216
26 176
107 139
86 100
256 142
254 200
91 26
12 112
82 195
26 87
30 150
242 141
184 40
204 43
192 155
125 55
22 128
224 256
20 188
141 255
214 212
16 184
162 117
156 121
41 94
117 236
220 2
256 151
232 174
231 24
130 117
232 89
152 123
169 164
44 271
107 228
148 157
27 205
164 19
201 69
15 12
244 222
226 10
18 204
103 145
12 88
64 194
27 137
160 246
133 2
205 139
245 271
26 218
21 127
170 191
165 229
222 135
5 59
174 198
187 50
67 157
171 143
197 26
241 89
44 54
148 19
53 147
11 147
248 170
120 37
100 273
46 16
169 191
90 91
91 242
29 5
137 116
170 165
128 95
101 212
195 156
215 216
179 103
90 100
12 125
117 94
14 71
77 99
84 115
43 18
270 48
9 177
41 193
223 88
89 244
122 4
26 6
240 204
222 235
142 77
222 42
165 220
216 82
25 70
262 272
182 263
92 118
78 26
99 148
135 203
136 32
215 245
235 233
87 139
243 44
11 120
125 58
44 89
67 86
206 9
108 79
184 21
248 220
112 83
90 205
122 218
183 186
164 101
248 20
115 82
29 138
212 174
219 243
112 90
61 230
91 122
140 192
166 129
6 92
124 67
117 88
186 156
94 157
217 88
212 124
166 216
112 177
42 196
14 185
126 238
127 178
62 36
69 48
23 205
264 136
79 161
250 90
11 76
141 103
243 215
159 57
55 270
175 273
116 221
40 66
33 74
90 113
195 179
248 87
177 62
87 220
88 103
245 47
156 179
46 269
150 206
54 228
160 204
156 203
232 107
263 43
62 42
34 157
170 210
132 67
63 148
208 181
70 224
63 169
21 94
251 62
66 128
194 87
8 173
225 109
145 117
22 26
32 101
263 158
160 147
78 4
106 14
129 220
245 188
207 53
204 141
59 104
262 99
249 19
75 67
227 155
250 174
66 151
156 229
67 163
94 224
173 227
79 111
83 259
207 253
197 220
155 105
196 175
114 49
155 64
204 187
197 40
148 166
135 156
142 216
221 59
117 27
123 32
56 202
157 117
201 93
103 203
18 66
61 219
178 146
34 234
246 1
34 221
219 82
72 224
68 194
112 252
95 120
229 129
116 45
247 41
157 230
22 255
11 87
203 269
212 107
61 12
164 5
34 243
148 6
258 1
270 107
73 179
84 142
104 202
27 87
165 192
237 74
17 224
88 84
130 265
187 62
107 61
256 238
20 210
84 193
78 246
240 257
2 88
208 74
91 183
92 45
164 266
27 72
8 68
132 127
179 207
22 51
12 94
153 164
214 113
61 221
1 251
1 156
103 244
27 9
169 262
195 229
68 4
256 160
91 11
137 185
46 257
211 5
53 155
134 203
97 228
246 205
227 178
69 163
148 139
89 26
112 48
25 234
54 24
32 63
78 253
244 170
196 116
90 1
30 59
29 104
260 265
170 40
192 144
114 261
18 271
84 32
218 139
53 165
134 206
225 11
50 132
235 139
2 68
78 188
111 241
58 179
124 262
155 224
235 101
159 262
249 174
246 139
63 59
137 255
11 162
185 243
203 212
154 181
124 269
191 196
30 228
83 187
123 23
6 271
40 34
221 231
26 9
176 19
262 107
254 236
153 74
67 233
63 266
161 164
117 268
266 206
196 270
273 262
269 61
269 215
5 196
235 256
142 225
73 111
205 181
165 133
151 220
261 207
160 106
176 145
89 27
77 61
215 163
135 87
141 21
162 210
73 59
107 195
155 32
206 193
50 230
46 106
11 90
4 216
41 175
18 243
140 36
14 223
147 178
161 237
26 146
175 121
122 134
253 181
237 167
242 224
214 30
11 201
60 1
72 269
260 103
196 248
24 16
4 42
197 82
33 228
250 233
41 250
14 4
20 78
174 181
250 70
111 138
131 150
73 174
27 165
13 197
203 108
116 35
36 2
148 127
44 178
93 262
184 256
179 43
116 239
200 37
98 34
138 270
52 242
216 20
53 111
16 228
110 67
70 230
17 271
158 265
5 272
114 148
21 68
92 205
167 97
108 264
54 5
15 138
117 170
35 24
186 119
141 153
162 203
79 203
57 196
94 67
26 160
122 13
203 41
50 11
156 82
185 45
167 201
115 259
250 108
177 14
232 169
135 61
26 129
163 124
235 118
117 246
91 132
60 47
127 206
16 227
247 62
16 160
163 84
216 100
113 180
56 131
53 20
221 148
52 210
179 17
266 129
94 168
74 45
214 216
179 208
103 12
25 230
256 207
79 221
207 228
150 16
47 117
226 255
57 125
237 125
41 125
203 206
214 243
90 144
214 128
103 193
77 180
183 260
57 208
229 29
135 188
166 191
93 13
77 202
49 161
228 74
101 16
203 174
224 187
253 50
132 64
111 154
173 103
257 133
43 256
224 189
238 10
165 13
158 20
164 151
44 168
147 132
139 133
20 1
222 120
244 204
133 272
198 74
69 232
162 188
178 90
103 118
159 107
244 227
135 86
150 153
152 36
264 125
216 196
153 145
107 227
222 227
48 93
124 100
117 146
265 210
27 263
125 89
100 30
255 69
85 11
130 242
163 207
181 214
230 115
4 2
105 20
94 85
247 97
205 252
246 9
186 153
101 45
251 135
247 51
206 145
78 50
55 163
185 89
217 183
70 92
1 36
212 112
156 91
115 160
214 174
232 109
169 218
45 18
126 148
138 164
247 6
147 28
43 42
72 52
167 261
211 201
20 121
241 238
196 35
244 247
216 141
83 36
196 137
62 271
235 89
67 206
91 269
18 156
230 162
22 179
170 34
13 167
255 99
98 249
223 66
85 81
209 194
26 226
115 217
164 211
85 220
84 170
120 98
61 196
159 73
273 253
210 70
247 264
97 169
268 76
45 67
102 150
132 218
233 64
113 58
84 216
160 1
40 17
205 4
244 135
48 5
225 111
66 85
59 100
66 112
178 158
18 68
24 221
29 237
225 262
147 216
59 191
231 272
192 90
184 258
125 226
156 144
213 154
62 192
116 264
223 160
11 271
154 59
103 249
93 190
41 226
231 188
211 58
59 199
58 80
163 88
198 15
167 107
150 238
47 136
33 136
90 166
23 14
132 122
174 160
68 70
272 57
107 70
105 271
225 89
222 268
4 158
61 129
82 94
161 15
133 47
64 19
205 270
2 50
233 170
176 230
149 194
61 133
95 102
103 22
181 199
100 82
75 135
25 118
248 269
83 122
98 11
232 35
54 208
41 100
215 82
248 127
133 22
16 87
205 169
5 74
20 246
59 137
4 43
69 247
179 93
240 64
63 211
154 136
240 72
250 144
132 165
118 164
43 162
89 33
41 95
168 214
215 158
119 120
53 86
16 233
139 216
186 8
210 27
85 70
265 7
46 220
27 122
242 64
118 257
52 20
190 30
221 22
24 108
16 44
100 44
145 212
93 30
196 68
230 88
248 142
208 247
221 82
74 79
256 158
237 226
203 197
220 40
247 158
209 233
164 189
155 219
213 241
186 47
82 175
66 220
39 213
210 136
94 177
84 178
21 246
196 4
111 166
197 223
180 35
241 125
245 163
167 54
99 181
130 215
248 165
85 143
166 97
62 209
146 214
174 7
32 67
30 104
63 39
267 172
105 148
201 273
227 187
225 6
234 257
250 88
264 223
124 94
112 239
233 11
241 272
212 263
141 155
77 129
6 129
148 26
6 87
224 249
118 215
164 168
193 135
255 208
155 158
80 139
148 192
201 226
42 115
114 74
67 6
129 179
178 106
34 217
25 257
196 242
5 232
91 224
237 39
105 220
253 198
158 92
6 204
146 157
270 161
185 66
145 234
221 264
139 272
113 74
45 218
22 153
72 258
210 21
165 210
204 134
180 154
182 248
187 203
260 141
130 42
111 137
115 85
129 208
225 219
246 199
187 120
196 36
182 164
165 20
68 91
148 154
255 216
135 196
52 224
168 59
154 239
67 156
206 75
224 164
76 212
51 255
214 210
198 167
40 78
166 232
83 218
115 26
88 249
191 244
12 40
66 46
271 100
169 190
195 66
13 188
140 153
210 164
112 197
146 265
78 39
140 177
82 164
13 111
111 264
28 189
188 70
112 185
101 40
239 261
270 104
175 84
14 164
257 95
233 245
155 86
4 85
164 247
25 194
220 6
148 182
179 218
215 102
34 126
205 179
175 34
67 11
164 18
223 101
259 70
36 75
197 192
126 190
231 80
178 136
56 59
88 185
94 139
100 67
111 86
13 4
178 103
218 89
201 108
106 156
84 136
34 95
116 261
6 34
160 4
145 47
17 148
215 41
44 115
178 206
162 145
19 110
92 179
201 53
55 34
158 40
134 140
132 98
117 128
255 239
39 190
230 185
154 129
45 34
14 120
259 155
20 142
133 1
9 16
230 18
175 174
140 220
150 57
117 234
83 148
90 211
203 272
231 201
224 27
199 195
178 218
160 46
42 163
220 89
13 55
48 73
176 135
116 138
201 221
208 125
185 212
265 110
43 164
33 79
256 163
98 105
192 133
122 157
255 100
39 113
152 117
92 68
191 195
177 162
259 9
84 13
120 143
122 41
136 244
28 217
113 89
46 222
22 168
133 98
218 156
84 162
115 17
120 151
42 34
200 14
260 62
154 108
262 168
269 234
166 169
43 78
147 188
225 73
107 22
205 185
82 67
16 134
202 79
272 202
248 174
202 253
144 219
169 223
6 232
207 58
89 212
247 122
252 47
197 240
83 25
267 254
140 135
67 107
199 73
187 162
273 153
139 166
218 184
173 265
243 83
25 215
264 74
90 22
205 26
26 75
234 140
157 100
207 213
252 7
231 154
221 226
199 270
233 153
205 202
20 220
160 177
185 173
256 272
69 63
197 142
105 245
196 222
216 61
50 44
97 208
164 92
122 133
110 158
186 87
56 264
112 106
175 133
166 179
42 265
239 77
207 126
4 107
86 203
152 82
57 30
233 107
57 111
140 110
255 163
41 268
118 244
244 174
62 11
117 75
10 61
107 187
226 122
118 47
247 128
192 66
192 52
85 254
241 63
182 214
175 216
191 165
87 1
14 82
142 74
205 44
188 163
93 138
250 148
137 163
42 72
140 178
19 87
269 12
225 86
100 205
18 106
185 52
35 191
92 163
245 66
158 121
264 79
261 253
6 112
223 210
150 212
22 1
262 175
14 219
250 135
221 63
250 245
231 202
263 7
26 194
84 121
130 156
176 67
168 127
87 196
241 73
262 39
153 84
142 9
92 98
223 185
23 247
23 217
238 253
107 196
53 221
27 4
53 22
179 266
92 12
113 15
13 247
94 90
272 27
101 150
34 131
138 188
219 224
157 210
210 51
122 44
63 20
104 142
263 64
121 271
107 101
205 85
190 63
44 176
195 86
125 34
16 166
190 180
141 16
245 135
122 18
151 20
211 131
136 20
121 218
198 239
268 260
223 26
249 28
25 192
156 243
63 239
106 192
98 70
156 16
90 89
256 97
17 88
174 22
106 12
182 252
48 261
169 54
126 198
196 220
226 196
30 15
220 12
149 222
199 12
16 205
261 201
20 231
188 90
157 115
206 183
177 52
226 97
247 203
16 246
133 132
165 246
238 80
160 210
247 226
156 19
75 218
208 216
44 161
229 192
205 102
181 73
191 148
49 73
242 101
125 229
136 153
52 205
44 22
78 102
174 247
237 34
246 219
204 4
25 66
55 261
43 107
174 72
17 129
4 17
98 148
237 137
233 82
83 184
182 178
133 78
180 181
47 6
9 158
178 154
155 230
177 64
205 12
189 177
249 140
85 37
12 142
246 43
175 89
272 39
109 213
196 246
184 217
56 153
214 107
219 204
243 163
165 106
216 63
248 84
54 99
229 233
197 102
174 137
195 137
209 204
46 94
40 136
116 142
136 11
244 156
216 47
50 224
110 90
165 84
86 167
109 67
86 55
93 154
224 258
247 80
40 248
223 34
2 165
104 111
62 217
167 12
246 17
25 157
178 36
187 223
196 111
127 128
215 246
136 188
233 83
95 242
232 33
105 219
226 216
25 163
41 262
215 176
135 170
255 250
220 194
120 12
220 106
26 255
163 11
203 154
101 189
163 107
238 190
42 83
222 91
214 127
126 195
186 127
67 177
12 16
204 230
253 163
93 107
248 110
250 259
260 174
48 131
239 97
214 233
192 150
116 111
98 1
153 87
44 187
11 191
269 127
137 69
6 153
16 215
273 250
264 61
23 186
128 157
232 113
176 155
271 251
122 76
273 29
66 14
247 84
212 133
192 153
34 244
153 16
116 205
11 221
184 215
76 62
178 132
208 239
79 34
216 273
45 61
30 58
205 133
185 110
116 30
203 140
26 41
159 133
226 34
205 188
113 191
12 100
41 219
192 188
268 11
94 125
217 203
86 95
11 177
53 266
32 170
139 181
100 57
124 21
163 20
142 88
213 104
213 67
21 91
125 266
17 164
25 40
11 196
94 156
156 234
167 109
24 196
224 250
234 91
146 156
89 104
126 114
42 194
99 34
192 78
42 249
244 26
68 62
272 90
157 32
259 153
16 244
63 191
255 24
15 114
233 62
212 82
178 82
139 22
1 6
12 101
234 205
206 18
4 105
36 11
185 41
33 56
95 78
120 50
164 75
104 180
44 121
208 161
161 45
47 40
174 68
30 207
240 11
168 237
60 117
49 53
141 13
259 87
4 246
199 131
167 111
84 94
158 182
163 50
6 84
160 165
70 196
242 245
193 152
11 186
166 228
47 2
150 243
226 109
43 215
17 16
218 135
68 140
245 130
63 58
43 194
222 197
61 88
186 244
82 179
75 220
267 200
47 4
52 150
205 225
171 85
114 99
78 36
244 95
159 201
33 44
205 256
108 113
124 164
21 160
234 142
57 54
135 152
198 181
144 61
138 199
55 69
256 127
76 162
124 18
1 96
121 220
139 127
136 53
137 94
270 239
144 151
181 112
256 168
67 40
84 240
163 195
266 153
2 61
146 245
66 248
110 88
265 71
42 156
177 252
127 259
167 69
120 94
52 204
125 253
53 225
72 128
132 2
272 197
160 88
52 134
184 174
182 144
225 4
55 181
245 75
163 18
169 168
138 168
2 140
242 120
50 134
250 196
230 246
26 147
43 177
39 253
63 80
40 147
93 208
39 239
221 4
263 257
110 43
107 202
48 161
58 97
48 78
204 95
68 112
179 121
259 112
149 236
181 59
47 265
34 63
248 62
218 235
23 28
250 129
162 47
92 196
269 115
89 144
12 190
147 257
149 186
126 138
239 126
148 142
84 28
17 195
223 127
153 89
72 19
259 245
85 84
175 20
21 98
83 92
248 43
188 168
165 212
100 112
148 188
188 24
210 123
159 168
182 21
129 5
269 170
185 196
86 154
112 30
110 103
160 6
94 151
229 54
132 188
17 2
174 197
208 205
214 135
214 218
232 114
41 102
77 69
21 177
118 194
255 212
244 216
75 229
82 105
12 210
107 168
146 1
199 63
216 18
215 157
150 176
51 87
72 115
48 74
175 22
188 158
189 152
235 90
99 273
80 229
204 151
56 99
156 217
250 11
89 58
124 27
212 78
116 104
111 30
17 165
201 181
146 197
75 158
127 220
92 176
5 159
2 86
174 66
27 121
68 53
192 102
221 13
86 180
78 160
18 16
61 84
54 199
105 142
54 104
1 62
136 135
137 93
246 82
155 249
252 194
246 11
175 142
135 107
101 259
256 218
224 146
249 115
63 108
143 3
7 43
142 168
265 66
160 243
178 155
40 223
217 240
44 134
57 213
248 187
148 175
199 137
243 192
237 195
88 184
177 28
125 142
86 239
9 101
1 127
272 82
159 197
210 192
220 265
203 177
209 251
212 44
220 245
59 97
244 215
170 53
242 11
139 99
256 62
187 117
150 195
255 225
181 262
227 7
138 211
82 196
46 122
135 50
9 212
166 180
12 255
50 110
66 214
154 255
199 116
199 74
256 204
150 41
160 110
217 18
236 38
100 77
224 170
16 94
106 1
86 87
35 228
227 144
28 144
70 61
232 57
259 19
224 127
170 82
68 136
229 201
227 98
110 246
221 74
16 136
53 199
167 239
79 237
171 222
195 175
89 160
153 142
237 131
24 30
17 223
1 78
235 217
210 245
206 20
83 165
116 108
179 109
14 156
225 146
120 164
133 43
196 199
202 69
185 106
50 130
68 35
232 229
44 126
144 215
112 273
41 27
3 172
177 193
271 12
145 120
197 189
167 116
205 273
164 63
235 178
131 232
247 88
140 87
230 121
112 160
103 215
2 234
255 247
18 218
46 11
92 153
111 82
58 12
180 45
147 78
160 61
4 174
124 92
172 71
157 11
51 66
186 65
4 40
264 99
50 148
46 158
14 151
244 22
22 86
253 237
248 139
34 150
146 84
196 86
175 103
18 17
163 223
148 213
256 67
11 32
20 225
233 222
246 136
262 125
173 269
191 22
86 45
217 124
101 103
219 263
164 68
129 230
163 121
197 259
103 51
50 26
155 1
12 107
144 17
130 78
106 4
226 89
206 204
175 12
243 13
255 174
197 17
203 124
90 247
112 231
34 270
208 107
177 4
82 40
90 136
53 163
22 151
232 99
97 49
144 105
197 43
122 66
205 146
104 129
247 246
192 179
86 216
205 192
219 235
101 11
179 257
102 196
186 230
128 145
16 179
101 187
89 45
61 150
75 85
225 147
209 4
16 105
175 125
90 184
216 13
6 248
188 218
58 169
105 13
244 42
183 192
35 223
96 227
21 64
232 262
4 206
192 12
223 170
122 47
28 87
13 225
94 222
161 59
188 175
40 84
125 273
78 140
175 248
148 36
121 51
197 210
187 225
149 31
205 148
12 33
245 272
247 116
127 121
235 155
129 27
214 232
91 152
17 92
159 116
207 34
4 144
137 26
220 205
46 255
254 222
267 222
146 101
93 55
52 223
135 53
242 84
36 117
91 247
87 18
36 120
210 188
205 140
175 21
28 91
17 147
49 79
127 203
186 27
129 124
147 148
35 264
140 103
53 208
1 218
61 213
208 266
161 142
155 151
246 116
229 108
204 50
51 233
79 163
12 219
73 190
130 66
153 88
217 91
184 60
7 204
111 270
222 205
204 192
15 181
32 2
245 12
41 59
167 190
43 176
86 78
150 77
101 117
241 108
25 6
69 221
175 94
153 175
236 120
66 41
171 267
14 7
211 166
147 137
196 95
213 255
255 18
65 172
94 42
256 61
253 106
20 191
185 11
187 232
33 179
160 217
261 89
114 195
237 63
62 32
197 160
233 177
184 122
41 91
183 170
190 181
219 27
235 1
92 84
191 105
114 211
221 6
262 180
148 255
67 227
210 247
230 210
114 131
148 15
193 1
195 226
252 197
233 187
12 178
25 248
233 129
217 51
11 256
95 101
223 181
44 237
50 244
67 160
174 130
127 129
25 269
5 30
66 187
154 196
219 175
41 163
11 142
55 104
43 193
130 96
42 219
45 144
204 128
222 204
223 231
241 54
18 178
183 176
42 183
97 35
175 74
195 24
270 49
7 47
234 186
239 205
133 177
40 209
123 62
15 232
224 243
66 188
158 26
165 153
209 271
272 247
24 228
256 175
109 238
20 99
198 39
136 105
107 100
103 32
20 192
33 262
227 197
82 192
163 139
13 86
210 4
192 230
153 82
156 50
46 173
12 116
82 157
36 7
263 247
216 122
80 207
97 80
43 217
124 88
129 10
120 90
174 46
177 75
129 164
246 91
86 139
225 100
259 98
206 85
40 16
212 192
219 121
86 237
252 204
122 92
196 90
13 253
122 36
90 257
205 211
102 165
172 254
155 43
11 226
206 34
174 210
80 44
206 51
219 215
209 118
266 191
86 191
261 74
218 13
184 102
88 150
187 17
205 261
72 70
133 180
8 23
32 142
107 90
253 58
19 223
32 197
44 73
13 205
79 180
155 248
129 231
268 60
16 237
22 233
27 154
176 68
225 126
262 126
90 160
56 228
185 127
209 134
262 4
225 79
264 228
79 69
82 146
6 144
219 68
46 12
270 241
79 148
109 63
109 108
206 168
267 85
47 92
67 139
107 40
20 43
233 262
262 15
188 273
147 101
145 72
220 148
92 43
2 103
14 102
141 174
40 196
128 64
131 16
225 16
19 209
136 163
97 181
21 244
158 19
12 256
210 101
67 186
272 273
203 192
127 233
106 26
137 188
123 88
25 9
9 6
265 52
80 30
252 257
147 256
272 16
160 192
67 250
73 129
139 20
146 124
124 165
23 234
76 60
107 272
197 7
130 224
244 182
204 157
219 134
146 98
198 238
20 61
35 104
170 134
67 164
5 79
187 89
26 263
185 140
184 141
238 159
136 29
112 77
244 18
249 170
154 208
225 165
73 63
79 270
134 46
159 211
199 99
20 211
217 83
265 143
192 129
175 179
21 178
88 99
36 156
47 45
15 97
103 47
133 214
137 18
169 270
223 153
14 91
78 106
207 29
262 213
269 182
154 169
40 263
94 123
267 194
179 21
135 197
26 124
45 90
215 75
113 205
219 47
214 84
244 46
101 67
86 124
187 134
234 47
224 67
151 84
177 244
101 215
82 120
158 27
175 217
112 221
226 105
18 40
4 86
39 218
225 58
216 101
13 51
16 32
12 41
67 188
197 90
105 165
263 184
58 232
72 176
166 247
127 18
197 22
113 239
50 41
82 60
237 17
18 26
110 44
252 196
197 228
245 265
82 28
8 28
82 20
28 96
25 204
225 220
125 181
104 90
33 195
79 93
220 255
220 150
162 50
250 73
237 169
94 233
211 213
272 255
12 209
125 68
18 110
34 88
36 50
205 130
174 70
253 57
228 159
12 66
207 69
188 184
22 272
70 82
22 227
178 185
213 199
191 154
244 9
57 266
221 218
116 148
103 127
186 212
220 124
175 167
233 196
73 253
142 188
204 269
68 45
163 12
34 135
211 198
29 114
144 259
202 131
139 106
175 246
43 19
208 73
121 92
203 44
2 20
53 45
187 215
244 75
255 168
120 103
188 2
27 75
271 223
222 52
30 231
106 235
58 73
122 12
106 107
92 101
179 139
223 167
224 98
153 245
155 269
148 210
249 82
84 19
144 78
186 178
114 221
196 201
75 11
257 206
160 233
158 197
28 268
89 20
218 16
199 148
95 268
14 123
20 167
248 47
54 168
2 122
61 212
247 48
178 88
218 105
94 234
9 269
152 142
106 260
118 157
94 106
49 207
271 160
223 7
259 227
29 15
94 232
27 50
137 107
174 115
99 261
86 42
136 233
94 112
94 223
224 21
82 106
127 147
57 179
89 148
167 104
112 132
106 162
248 233
141 162
150 40
233 19
16 61
46 178
245 197
174 27
92 120
117 183
231 207
112 85
36 184
20 215
150 133
225 167
221 5
5 39
108 190
133 14
91 243
153 79
79 199
46 206
188 256
202 181
190 163
85 106
107 250
68 26
64 91
181 67
186 115
140 132
249 187
32 191
82 187
74 125
158 84
78 194
2 14
130 75
68 264
75 219
121 17
160 170
27 120
153 36
100 168
191 139
144 11
50 42
137 241
63 90
122 6
22 176
250 146
15 56
94 220
153 262
227 252
225 24
127 205
121 122
127 90
182 32
192 88
250 34
253 174
101 118
129 57
89 198
178 272
219 87
141 147
212 90
229 160
36 127
18 6
34 168
266 232
244 245
237 163
78 175
243 187
50 216
258 91
139 18
59 45
81 267
41 205
61 153
241 261
9 122
20 12
129 47
206 192
114 5
162 51
209 174
42 95
126 154
246 170
177 83
70 121
191 10
246 265
138 49
195 112
247 153
20 153
157 46
258 21
262 163
64 176
253 53
255 44
223 234
214 163
142 17
84 122
67 50
179 201
211 10
89 93
106 164
106 216
16 84
32 22
1 164
124 42
130 4
10 213
223 1
83 70
79 169
66 224
92 173
1 14
203 188
82 182
165 50
235 243
217 103
85 133
134 103
112 57
172 38
141 26
78 164
153 138
59 228
111 97
218 185
137 221
229 82
168 181
216 247
19 235
16 121
140 22
5 80
165 150
169 56
67 41
78 146
10 159
239 45
26 136
256 64
238 226
158 60
29 56
196 8
262 116
250 115
110 130
137 159
117 156
43 27
43 219
251 103
152 47
94 183
88 66
40 68
17 84
193 101
233 29
184 46
28 244
165 194
270 29
247 49
19 212
6 94
22 137
57 198
106 21
127 91
26 217
54 109
239 201
205 80
149 254
220 11
174 89
63 129
220 162
180 179
204 2
180 205
162 184
152 210
130 64
66 22
176 144
53 247
85 52
53 192
197 234
87 84
244 197
158 187
239 16
256 34
78 112
153 26
210 103
212 271
103 67
270 45
94 11
125 196
40 273
129 109
84 257
21 85
248 150
165 179
146 61
72 252
128 243
99 179
137 89
91 66
223 142
142 146
272 32
26 43
135 45
32 176
53 84
90 124
17 175
261 54
116 190
247 117
92 134
157 145
105 192
163 233
30 239
74 159
44 99
161 20
135 22
142 106
164 162
104 199
99 188
158 223
239 166
125 223
138 44
91 144
252 118
105 53
86 202
96 120
136 166
45 210
220 70
6 178
129 153
187 32
86 166
40 204
196 255
135 98
116 129
234 8
90 226
116 93
179 40
107 66
138 154
195 58
167 100
19 224
150 125
55 109
246 125
228 112
37 194
69 53
97 63
88 95
264 39
83 133
164 117
196 39
195 180
163 197
191 185
196 18
5 161
148 136
194 9
204 32
117 214
111 168
177 155
136 237
190 34
272 68
187 250
109 273
75 121
247 160
17 192
114 198
249 7
185 40
70 155
16 49
204 205
218 229
98 9
115 40
209 21
185 86
182 101
94 14
99 127
178 188
186 26
154 199
157 151
226 57
170 72
217 4
27 135
252 246
256 90
272 61
103 263
48 264
243 154
103 194
157 234
29 20
22 183
233 168
110 25
127 94
47 217
269 117
240 134
86 125
259 269
68 175
193 23
200 71
261 20
85 247
235 164
6 135
58 68
163 202
134 245
179 62
103 8
153 228
86 57
265 14
196 69
215 240
94 196
68 94
131 190
178 183
116 201
206 220
227 215
204 106
167 10
133 68
109 56
207 114
107 201
25 146
211 237
204 183
196 210
215 106
245 118
139 88
49 232
234 165
158 245
101 179
94 34
219 205
63 188
262 208
142 109
272 86
190 188
126 196
89 77
112 210
49 99
203 137
92 50
139 53
225 214
51 156
262 79
134 127
179 220
229 69
160 51
151 17
129 68
97 108
188 93
211 86
235 12
147 68
127 163
13 229
75 106
189 240
150 235
211 54
123 144
163 94
35 188
229 179
146 249
218 25
147 185
36 46
221 237
193 144
15 211
62 158
157 112
250 44
12 181
180 125
227 132
115 144
237 73
217 224
5 86
32 268
70 178
220 133
1 269
25 115
163 133
29 139
105 175
120 160
169 181
96 176
238 161
181 131
169 74
256 106
101 252
245 164
54 93
26 235
93 112
165 154
41 182
177 175
231 195
56 246
117 37
246 244
135 78
265 222
13 191
33 211
233 41
160 178
5 113
34 233
239 90
245 187
203 57
165 148
260 220
220 141
169 253
233 100
224 203
85 118
135 134
134 265
214 103
273 232
127 88
210 176
101 230
13 125
18 146
181 220
166 100
11 269
136 4
184 204
226 168
112 36
78 216
168 228
4 157
86 58
215 34
161 226
84 225
225 235
160 215
20 91
196 26
16 259
86 68
179 34
55 126
190 231
10 107
77 49
174 229
194 40
228 261
179 191
126 35
243 178
30 97
257 184
177 7
28 66
175 214
173 16
137 63
9 117
246 256
6 88
170 66
194 233
271 157
111 211
159 261
135 120
95 46
54 53
235 76
117 14
253 55
235 83
80 237
51 129
28 32
148 80
226 20
203 6
245 83
16 232
33 126
18 140
94 193
42 178
8 21
13 208
263 205
74 116
103 16
148 158
108 54
135 232
215 156
266 169
100 26
188 255
6 20
164 219
223 72
272 79
78 125
88 86
105 178
234 182
134 9
51 164
258 60
103 60
113 159
160 70
91 107
133 84
79 97
266 45
10 180
58 205
27 106
22 136
202 229
144 50
247 231
153 39
221 10
245 160
51 62
163 148
271 233
54 232
76 141
155 42
166 196
163 56
153 107
76 43
241 33
45 107
121 206
10 166
135 175
145 90
75 227
269 252
272 185
269 28
44 98
12 53
219 112
54 231
188 44
214 252
41 32
17 34
250 2
95 21
156 112
142 4
166 57
92 16
272 114
119 171
186 220
169 228
92 117
245 101
182 70
1 19
49 63
60 14
89 213
55 114
136 255
68 17
188 34
32 153
102 219
212 121
75 178
187 51
104 253
27 141
2 94
142 89
248 226
22 64
237 55
194 249
191 180
66 194
212 36
140 155
18 165
206 135
184 87
35 137
51 214
233 45
195 188
59 225
16 148
156 160
151 186
127 20
224 271
250 45
45 174
47 222
213 264
229 207
91 260
139 34
97 56
80 164
57 114
177 60
110 72
196 266
22 208
90 51
83 135
183 145
129 80
247 261
66 133
20 50
59 131
233 139
258 177
160 250
39 109
113 272
156 88
212 94
55 107
184 11
80 150
99 94
233 50
144 177
14 64
59 179
202 10
153 94
182 141
44 232
12 160
164 157
162 248
21 245
199 272
15 221
174 187
245 51
29 10
127 110
134 78
70 1
261 80
203 14
139 41
218 144
18 174
141 115
45 272
270 126
129 202
208 109
247 56
247 207
67 33
35 250
78 19
42 16
1 263
156 250
187 53
184 64
4 36
13 26
187 192
30 125
19 117
122 94
20 184
246 88
236 194
209 206
173 117
27 188
129 234
232 138
133 203
62 118
203 78
134 12
155 110
234 259
215 86
205 66
224 144
142 205
245 185
81 9
164 85
2 51
183 197
178 230
238 270
100 256
122 250
179 26
90 261
250 99
22 194
148 62
251 8
136 247
13 179
40 6
44 136
258 152
195 39
170 206
215 147
246 7
90 266
90 176
188 68
56 30
180 53
244 83
189 60
5 24
169 202
265 78
205 105
24 169
90 148
107 184
29 54
219 252
215 222
80 69
266 246
19 160
178 271
199 33
235 75
53 58
264 169
187 206
73 89
239 169
11 146
205 89
90 213
30 40
20 250
89 79
156 246
272 211
44 12
28 14
31 171
137 113
91 209
70 162
266 89
105 223
166 150
25 224
163 43
262 114
140 14
233 112
218 174
105 25
64 36
196 139
55 221
1 176
100 40
103 26
3 38
170 179
86 112
43 245
266 218
46 175
5 264
233 146
32 226
244 25
273 202
224 53
182 184
146 2
137 213
250 203
226 39
208 108
188 207
88 105
97 255
194 144
157 162
89 139
197 86
15 109
105 124
270 261
113 241
193 173
231 232
219 123
46 165
22 162
111 39
44 167
40 106
273 179
106 265
272 97
67 155
150 53
233 90
246 46
55 97
195 232
45 79
100 147
256 88
264 153
243 21
114 238
105 18
86 150
246 202
109 30
9 95
182 88
44 221
43 62
79 13
218 34
92 233
68 170
46 185
22 75
111 33
72 92
255 125
92 185
112 73
188 185
11 22
241 116
256 15
48 163
141 150
57 15
160 107
163 157
248 144
235 127
144 94
160 203
223 68
245 206
109 35
226 197
115 28
159 167
170 187
26 210
45 139
168 67
49 10
86 41
49 228
195 196
32 233
52 2
140 83
47 64
206 173
135 13
214 94
107 215
108 225
224 26
108 270
134 156
135 164
44 241
247 185
133 194
224 92
133 105
149 37
261 190
70 212
22 122
208 168
255 187
223 164
272 150
19 245
16 106
225 94
224 206
202 196
248 154
216 75
42 26
197 99
74 137
112 42
88 16
224 88
203 168
241 90
124 191
185 220
110 184
28 155
43 36
270 137
101 163
16 99
160 13
22 210
89 54
256 144
72 14
259 103
20 219
86 30
29 190
197 212
212 139
255 147
128 85
195 41
221 156
40 83
238 231
164 160
18 245
235 151
84 255
220 214
6 147
153 187
98 269
263 204
187 86
199 34
34 124
54 154
24 53
88 206
100 20
32 100
33 90
62 133
103 206
96 251
36 220
199 188
124 250
56 241
266 187
176 91
137 6
204 158
138 238
250 105
134 66
11 216
49 253
66 186
169 211
177 206
129 255
21 162
71 254
255 61
233 208
244 205
199 169
176 263
135 101
52 144
165 94
56 238
102 84
136 187
239 59
205 51
240 147
213 133
157 155
140 194
230 67
105 247
213 238
154 229
253 45
17 155
244 98
89 56
198 201
148 190
113 201
43 145
29 107
92 94
186 101
95 177
195 78
22 223
238 211
112 265
39 93
87 61
126 169
19 141
192 11
217 158
165 265
128 242
188 261
52 101
40 2
134 178
23 165
58 59
35 168
202 148
183 128
206 210
233 133
245 27
40 122
14 85
7 224
39 159
65 71
234 251
133 16
106 127
21 217
261 142
104 109
42 25
247 243
34 247
52 218
91 170
44 46
102 70
244 194
19 120
168 191
146 141
50 235
32 205
95 64
20 168
218 82
1 64
22 229
90 195
262 57
156 235
205 232
90 141
92 145
239 213
214 47
178 256
6 255
13 261
146 12
253 41
160 32
20 195
40 9
184 8
188 198
101 139
19 25
102 210
102 1
178 197
87 2
105 188
249 210
142 92
21 247
159 213
99 74
90 30
184 246
101 50
198 205
182 265
161 190
79 229
63 15
262 261
224 157
94 57
45 216
162 266
32 89
27 101
43 91
9 165
98 103
127 92
205 212
164 204
229 266
130 269
90 158
146 155
242 269
58 226
10 188
128 265
78 88
137 218
210 163
205 98
115 197
239 250
177 47
148 151
18 192
112 26
12 17
223 18
140 41
248 205
110 92
104 261
163 235
175 270
67 27
156 124
221 153
165 78
86 11
61 262
208 49
165 86
191 90
107 191
74 253
264 34
210 62
273 241
153 191
266 74
204 156
220 45
155 196
179 11
253 77
80 107
64 219
22 50
48 181
175 221
218 125
164 86
18 191
41 232
2 160
127 11
132 121
125 239
225 67
101 151
77 264
16 219
156 206
216 163
197 246
127 105
210 120
251 173
206 256
54 148
36 233
56 138
56 35
271 42
245 256
209 242
220 170
124 271
58 109
18 193
78 53
130 25
91 36
262 253
222 117
178 153
93 24
53 2
130 51
51 196
128 26
259 43
159 63
195 138
185 160
140 47
170 185
138 241
78 217
170 158
177 66
133 135
18 19
105 101
24 20
133 256
188 59
15 270
112 79
117 7
109 137
255 16
33 169
97 86
171 117
187 45
78 90
85 103
129 55
148 229
1 68
1 91
7 64
261 105
216 164
104 166
216 203
42 193
49 129
154 121
235 252
121 22
43 142
252 94
68 187
269 132
30 55
231 89
42 61
213 253
45 188
205 159
210 110
50 93
27 36
36 155
162 75
105 203
44 266
74 108
41 214
139 164
197 153
42 158
259 151
235 271
209 224
112 16
136 156
76 164
90 216
211 195
50 246
14 112
50 174
45 160
13 180
234 40
59 229
214 204
111 150
174 129
245 36
273 167
148 230
201 253
219 11
89 69
253 154
121 78
53 216
215 193
185 26
86 273
73 20
34 90
242 203
187 160
101 206
223 41
204 132
146 194
136 12
226 178
179 196
178 68
177 146
140 21
141 66
53 107
6 12
32 246
3 194
269 249
121 91
273 22
136 129
220 191
52 110
238 74
22 204
13 272
73 104
174 219
246 192
66 120
162 66
112 51
141 135
264 196
219 89
153 199
247 270
248 158
41 222
12 139
65 37
169 55
90 270
33 205
94 226
226 17
255 230
125 107
142 112
222 176
16 178
134 243
6 11
133 90
36 209
82 269
268 130
50 68
79 107
220 25
229 124
10 169
68 210
127 146
222 178
46 22
52 102
72 156
224 182
86 226
90 221
203 165
210 122
122 70
29 77
107 175
253 135
205 156
250 16
233 246
34 273
168 137
70 47
62 34
233 135
206 225
190 79
154 53
89 246
170 226
18 212
162 62
98 222
97 48
246 144
115 130
100 247
165 218
156 90
94 50
53 67
27 140
15 82
134 68
270 63
88 187
134 269
156 127
127 83
105 40
121 36
128 240
148 140
188 6
273 129
154 272
24 180
147 46
113 48
224 145
192 216
75 91
225 151
225 231
180 5
153 67
40 41
30 241
241 154
106 144
86 82
74 188
165 82
203 271
90 88
17 250
233 197
234 32
35 79
51 18
183 14
249 17
50 215
101 141
198 79
91 101
219 148
208 223
197 196
147 84
11 53
185 27
242 36
48 238
191 121
209 183
210 107
19 147
42 128
78 230
120 233
36 6
137 73
79 80
184 269
61 164
95 224
190 54
41 191
162 44
53 164
59 93
265 164
46 162
171 186
36 147
213 191
203 256
100 178
120 265
89 10
164 246
206 32
132 6
156 153
188 129
163 192
173 62
263 218
60 251
117 218
230 218
192 256
128 184
142 22
161 104
269 247
233 101
153 66
60 156
95 91
207 63
86 137
53 61
214 255
16 169
165 6
1 118
106 17
215 139
179 162
105 139
163 225
229 185
209 132
156 248
17 111
77 195
142 214
178 163
163 45
50 66
130 235
16 210
235 186
175 181
241 104
161 78
266 49
40 14
39 131
112 174
146 86
122 235
228 191
142 129
229 106
153 185
90 252
219 157
163 272
181 266
170 21
101 144
184 249
240 233
62 2
203 87
56 211
55 190
127 17
214 22
30 238
222 173
6 156
46 221
91 153
169 238
215 182
138 247
112 163
11 194
13 220
92 87
102 101
182 98
115 98
53 228
153 174
247 188
134 217
238 35
32 83
76 243
36 224
207 168
106 150
67 147
49 30
181 79
247 197
153 270
107 34
181 153
228 190
238 180
84 12
58 10
18 84
206 217
247 265
123 91
103 40
13 142
82 142
177 98
246 61
109 48
187 272
78 24
12 188
11 43
243 61
90 129
212 45
193 21
207 99
223 49
88 148
47 183
44 61
100 188
157 141
224 176
207 205
201 150
97 270
154 226
204 47
32 70
33 137
272 11
160 219
215 197
104 159
161 137
258 42
57 191
133 11
13 104
178 26
58 201
100 13
185 21
42 75
196 43
10 142
144 19
8 140
221 211
22 185
90 271
153 201
73 142
127 12
188 127
232 86
150 63
217 269
134 42
151 122
133 179
198 225
68 182
11 165
145 259
53 30
104 74
165 176
6 212
266 87
35 90
43 185
15 205
47 269
223 175
112 23
218 140
13 127
204 178
57 79
198 44
240 43
68 216
255 215
197 57
127 212
127 19
129 20
142 133
170 272
243 94
266 127
245 162
51 204
144 186
201 137
92 90
146 195
247 32
101 249
90 147
92 265
231 69
250 27
41 19
217 230
217 101
261 213
234 235
21 235
11 124
169 213
34 59
233 142
240 47
86 16
211 109
184 47
192 233
185 148
21 203
148 266
206 42
41 18
17 221
110 70
66 222
188 204
257 94
37 265
20 57
190 114
207 44
201 241
190 59
213 266
107 219
247 195
264 191
257 160
112 99
122 34
119 9
230 68
250 110
106 89
36 248
259 11
230 170
144 13
40 75
240 50
129 218
31 222
131 80
15 13
76 84
110 235
32 18
100 246
265 75
144 247
153 169
10 114
263 110
70 91
220 16
75 12
36 34
11 252
187 214
25 85
164 222
210 250
72 247
177 82
145 242
218 223
221 67
193 117
238 58
156 220
191 49
226 266
89 126
27 40
133 248
101 204
250 197
129 133
86 1
159 199
84 220
80 56
67 84
174 165
58 129
90 174
137 136
48 159
180 56
139 188
108 247
218 232
237 49
69 10
57 169
47 209
137 179
250 235
120 176
139 97
253 232
214 111
168 61
194 112
45 48
34 41
216 17
64 87
185 162
235 107
58 161
181 39
80 272
105 195
265 132
51 64
86 160
187 78
212 42
134 133
88 210
87 156
74 136
16 25
83 174
194 121
17 99
20 262
209 151
4 192
105 34
1 173
101 220
112 165
32 88
118 43
248 122
239 253
44 225
163 129
14 193
262 201
63 30
220 177
203 225
78 115
142 266
133 4
2 170
46 70
147 144
115 142
22 17
61 127
203 193
53 124
189 123
140 248
106 249
225 179
1 82
230 110
235 105
105 135
87 151
5 53
154 139
207 131
120 173
202 12
160 91
1 121
124 216
62 66
256 116
129 155
176 272
179 132
243 123
84 203
112 61
43 210
86 25
40 212
157 158
45 19
160 135
174 144
34 46
78 44
195 73
132 130
253 166
223 225
227 83
133 92
221 154
194 240
102 47
89 201
58 181
2 219
56 232
199 113
175 250
161 77
4 70
74 93
2 227
112 107
100 261
131 229
74 69
258 130
233 220
190 129
107 133
107 185
4 234
15 129
159 181
222 184
39 180
216 107
250 40
206 140
206 87
126 73
257 242
18 260
216 135
187 9
137 169
210 115
95 174
174 32
137 68
165 62
153 133
139 192
69 113
153 134
255 153
245 26
27 148
202 59
153 90
142 46
209 66
21 220
31 120
228 239
156 84
197 214
17 32
77 169
208 137
79 139
111 201
85 27
90 12
16 137
196 12
237 99
206 112
247 5
66 70
191 97
194 31
69 266
16 138
146 22
10 90
240 263
135 235
53 34
166 174
223 89
73 180
156 184
164 41
189 173
168 192
117 68
217 127
206 43
252 107
191 135
151 158
25 90
206 50
130 176
117 151
242 263
121 224
174 164
271 170
2 78
207 104
42 87
75 53
238 188
141 22
251 130
39 206
40 252
166 137
88 82
221 255
104 33
227 20
12 4
68 39
199 97
17 255
142 187
56 108
199 136
156 147
170 107
112 92
191 273
256 114
220 136
140 85
138 112
154 195
269 122
6 158
157 70
239 161
1 23
179 46
153 272
113 50
106 13
41 83
56 198
170 146
142 80
95 110
26 121
13 44
62 96
196 272
96 177
241 190
9 205
217 112
51 127
79 239
40 255
260 123
243 107
257 196
3 236
82 234
237 126
225 160
229 34
211 231
231 137
104 191
153 168
55 5
235 251
99 220
111 179
12 32
11 4
157 160
16 181
203 153
67 193
229 41
86 156
10 5
66 176
17 95
47 257
53 125
16 35
33 207
124 151
235 2
242 265
235 11
187 61
246 191
217 196
6 27
180 49
192 1
77 199
87 147
250 26
169 208
204 64
154 39
2 246
158 203
260 23
67 19
40 50
169 241
176 140
3 37
114 111
180 16
184 227
146 46
11 204
151 4
148 261
124 32
185 225
121 197
32 175
54 59
48 30
34 77
165 139
252 218
163 150
106 194
115 47
223 122
145 22
27 91
134 32
87 204
214 106
222 252
242 197
157 206
256 2
220 187
82 252
48 137
115 189
213 166
151 146
246 86
136 34
197 179
88 91
138 166
107 165
47 22
117 143
45 24
214 151
206 196
17 245
162 263
62 46
72 122
68 75
87 160
202 53
144 146
208 195
183 19
94 105
178 89
166 237
108 80
192 21
66 6
114 80
46 133
229 163
173 19
213 73
165 151
34 253
90 137
122 78
203 191
24 97
215 223
181 231
119 85
175 204
212 256
100 165
271 230
129 108
159 55
146 153
89 190
241 166
49 89
44 163
153 238
51 101
230 248
265 65
262 32
40 62
69 239
87 222
234 9
219 18
131 138
142 135
84 188
29 126
70 164
260 240
256 233
127 218
187 122
104 262
51 266
69 159
160 72
58 239
271 250
42 101
259 78
112 175
101 127
160 176
94 248
72 66
108 223
20 196
161 73
214 246
91 133
65 14
189 8
167 180
34 112
135 115
50 16
161 211
51 135
13 124
60 6
10 48
127 162
45 224
4 22
16 226
189 62
89 88
212 217
218 50
130 76
86 115
174 114
221 232
206 17
92 62
28 178
4 191
218 53
134 112
36 256
260 145
47 16
89 255
176 106
93 73
194 246
179 188
75 184
206 179
91 51
243 244
185 246
137 142
146 150
112 235
112 135
103 245
154 18
246 234
268 141
44 48
248 19
36 60
175 18
148 232
250 229
216 144
137 229
235 132
248 249
160 216
113 221
205 175
59 226
12 57
132 249
203 219
167 221
106 51
129 147
219 83
35 74
49 153
265 12
216 129
231 191
168 201
9 92
266 114
61 163
112 262
51 146
159 33
231 169
191 137
134 141
266 113
24 166
167 169
235 92
29 221
222 172
247 192
218 154
224 156
188 196
247 27
269 20
209 240
55 207
105 100
177 103
229 86
156 45
199 180
220 223
220 91
107 157
174 196
40 191
77 198
256 121
182 175
32 144
59 129
263 19
140 12
143 38
135 185
192 220
235 60
214 98
98 153
145 185
152 230
52 184
174 122
175 100
195 197
249 204
183 115
112 121
112 13
121 240
253 129
203 16
246 121
254 186
180 55
225 178
268 96
223 177
157 196
165 42
127 174
132 47
88 41
106 140
245 165
19 153
250 220
89 30
125 40
26 17
125 69
43 158
12 208
173 121
120 7
195 136
14 187
26 1
192 249
12 115
24 125
256 262
179 115
159 273
147 88
197 87
177 240
189 196
131 113
153 229
55 166
109 272
107 129
88 144
151 68
272 34
194 271
55 33
94 118
199 100
253 161
45 13
7 94
185 17
130 164
34 148
268 23
247 74
66 235
270 44
163 63
223 50
48 54
50 242
124 12
104 17
170 205
22 246
123 60
63 179
26 20
245 247
155 246
178 53
112 82
115 70
241 198
78 16
163 159
25 197
62 50
182 217
26 151
149 265
221 208
112 256
178 141
272 205
158 70
15 202
129 126
273 78
57 201
90 135
126 113
80 54
99 185
148 273
45 165
273 69
201 232
73 125
62 82
34 142
152 164
271 219
250 22
243 67
273 208
187 42
50 90
221 207
38 71
156 188
14 115
61 253
193 91
101 140
114 24
55 131
266 12
39 45
237 232
114 241
67 46
74 56
161 129
187 219
134 175
86 108
235 18
142 130
46 229
210 44
140 170
80 136
247 256
165 186
192 22
163 196
261 5
69 168
44 112
221 168
41 135
243 92
214 185
174 86
253 231
227 70
120 128
6 2
77 73
270 253
138 264
206 174
127 42
231 93
102 16
130 52
39 114
53 80
20 235
226 44
122 135
17 256
67 88
180 129
96 184
252 183
43 243
51 212
235 187
215 85
68 13
165 269
191 226
148 69
103 240
214 68
18 209
264 10
16 91
1 206
44 15
8 87
201 55
19 250
107 7
206 40
198 112
4 243
135 262
196 73
69 86
20 83
151 170
144 157
141 110
55 208
109 201
78 211
244 154
21 173
220 134
40 245
8 85
146 47
246 122
260 83
255 88
76 258
243 220
139 100
273 181
126 77
44 35
70 36
112 223
223 85
116 80
246 142
250 219
272 228
206 66
253 29
83 146
107 25
233 124
162 170
209 140
258 189
134 142
218 41
30 34
52 217
47 144
225 27
220 4
170 22
272 238
195 44
4 255
250 253
225 80
270 272
40 215
11 151
186 146
272 181
22 220
148 43
76 265
133 216
43 64
84 135
19 34
168 154
106 45
261 24
31 71
130 67
246 162
104 195
223 162
208 124
255 67
138 55
68 135
203 178
262 211
182 249
188 77
216 168
12 243
33 167
124 192
269 227
129 198
184 160
106 96
19 124
20 148
168 74
2 90
206 271
30 68
116 99
71 120
30 273
227 91
28 103
261 78
79 142
173 26
112 154
250 141
211 29
85 120
199 207
195 48
248 216
139 39
205 39
217 6
204 34
112 240
233 4
213 208
45 44
235 220
134 120
44 132
177 132
224 46
77 116
118 90
129 122
191 15
80 10
244 36
204 185
169 34
157 66
123 76
19 244
189 184
117 103
13 20
238 137
26 242
35 53
84 128
271 155
205 82
25 92
138 113
191 26
265 233
154 78
50 14
107 218
229 63
246 132
174 272
269 220
159 108
180 246
84 105
146 147
185 203
146 42
13 154
263 120
67 212
100 232
22 243
97 10
26 86
53 138
135 117
150 46
92 21
126 213
24 198
257 249
199 239
106 271
222 3
199 261
185 144
233 243
59 89
47 128
19 210
95 118
10 266
134 148
166 74
63 5
13 181
88 229
130 68
93 49
240 250
52 230
89 215
66 175
95 209
247 2
5 205
196 144
115 132
165 89
148 95
226 241
197 88
208 63
166 89
251 91
112 5
223 45
217 121
97 207
165 19
225 221
271 158
47 18
76 50
9 18
225 137
20 205
86 17
155 247
207 50
252 128
243 137
138 273
45 20
142 185
235 197
89 208
39 57
69 44
177 187
218 21
6 22
120 110
162 129
246 183
77 97
28 263
192 271
191 2
61 124
39 208
212 235
168 253
44 129
246 263
191 78
53 104
108 73
190 24
83 134
135 99
246 90
10 273
90 220
163 131
99 201
19 121
197 271
255 199
21 128
39 17
122 112
118 204
74 167
166 79
75 256
46 203
229 228
109 261
169 61
239 232
237 56
262 198
266 247
222 234
75 136
129 93
196 52
18 91
148 256
120 193
98 19
136 92
216 235
235 196
46 4
88 134
246 250
89 253
74 58
57 211
139 223
171 265
75 86
132 256
212 156
44 245
47 233
215 165
178 61
39 13
220 117
11 72
208 116
9 247
148 179
182 87
83 88
217 36
78 67
262 199
10 77
68 103
232 77
249 234
248 225
187 12
81 3
245 214
216 16
169 29
55 139
42 117
40 208
100 137
90 68
168 190
179 223
106 66
137 146
233 27
76 145
111 207
121 162
210 78
112 214
50 205
98 219
239 190
118 112
86 244
33 138
193 130
100 195
245 177
224 85
115 177
53 212
216 19
8 242
46 156
203 122
24 116
237 150
252 146
135 40
88 136
2 150
107 39
229 99
136 174
18 177
102 92
16 62
12 151
135 121
109 168
98 18
21 75
129 167
245 91
217 204
178 40
44 88
47 61
188 160
29 238
148 41
253 208
130 249
242 140
258 271
19 204
16 95
202 211
1 224
6 170
103 17
151 140
134 214
233 203
74 129
122 102
129 138
124 209
85 135
210 140
44 150
129 181
247 114
17 213
129 22
34 87
38 81
227 235
34 113
21 265
218 250
200 117
246 206
190 216
39 199
21 133
51 250
142 69
144 163
224 244
26 156
118 269
45 162
243 148
226 133
44 170
50 142
80 241
250 164
175 211
264 211
174 61
198 63
45 129
269 187
22 61
179 169
144 36
98 206
75 153
201 199
245 226
147 246
73 166
130 212
124 40
5 116
138 99
40 205
108 30
205 67
110 165
85 244
124 148
184 178
107 174
104 237
155 22
173 85
142 260
154 80
45 248
57 238
57 273
187 168
267 14
261 30
184 132
207 167
48 232
94 121
139 160
19 70
160 146
163 75
264 54
226 272
272 165
33 100
265 189
225 272
1 142
257 209
50 32
102 186
107 13
51 191
112 213
105 190
212 146
67 235
122 124
210 17
220 68
188 69
226 239
214 164
129 195
53 176
219 40
126 111
210 144
29 266
116 79
195 89
110 256
154 135
174 87
93 207
207 180
167 272
232 126
133 45
83 205
264 270
6 19
269 92
145 98
20 135
229 221
129 148
135 46
71 143
75 174
24 69
47 268
27 2
40 22
196 22
250 205
260 178
186 233
272 56
130 34
218 94
61 11
256 137
250 208
70 129
83 197
47 135
55 174
134 215
51 78
2 225
142 57
135 88
222 78
146 40
63 136
138 266
127 154
242 118
78 226
78 150
32 61
185 197
59 241
146 162
46 101
196 192
105 112
262 35
187 256
101 76
247 175
165 187
105 17
22 88
181 270
177 222
147 204
119 194
26 248
234 194
196 211
154 40
262 69
194 70
95 6
96 64
126 104
50 13
175 184
195 205
221 100
244 105
259 26
168 205
138 63
226 153
162 192
170 203
10 24
235 158
70 26
129 66
248 176
263 4
155 18
1 8
50 133
68 206
217 17
16 175
115 258
221 88
12 229
202 180
228 273
105 97
249 223
162 218
259 110
273 16
156 197
249 124
54 213
230 165
191 210
235 41
46 127
269 157
204 82
49 139
203 266
67 259
183 224
58 138
55 161
245 117
222 14
133 25
271 140
214 184
127 164
58 104
14 218
238 191
188 86
242 252
269 216
203 210
5 109
120 223
227 94
43 53
216 162
255 94
202 24
41 53
26 249
220 230
24 59
190 35
131 86
133 121
89 17
166 167
67 185
130 106
181 135
115 4
212 34
80 89
247 221
186 85
220 100
223 241
191 187
191 174
18 225
6 121
190 74
199 231
122 42
237 53
253 146
90 36
8 76
19 242
78 62
52 12
151 184
124 206
84 154
122 170
67 34
273 221
4 110
68 157
257 144
255 11
205 173
145 19
126 15
215 148
187 94
53 181
222 118
244 187
88 43
220 137
201 166
89 127
50 178
58 264
131 238
86 20
78 45
206 163
17 196
4 195
214 221
12 241
181 93
151 47
272 48
33 208
147 210
221 266
39 97
118 249
195 94
264 126
124 168
195 74
235 210
150 43
234 212
29 264
5 153
216 213
175 255
223 63
19 118
239 34
58 180
74 57
49 35
25 148
104 148
21 152
162 244
6 17
18 61
214 160
137 55
239 29
26 220
155 26
64 245
5 237
178 129
110 107
158 144
41 178
184 101
253 153
148 61
181 68
179 161
84 91
248 135
230 222
214 120
73 138
246 178
253 266
97 190
43 2
51 88
203 205
167 93
142 226
177 246
70 248
67 105
226 250
121 245
179 256
121 244
260 9
85 130
19 85
185 115
219 210
174 40
235 247
224 147
265 204
40 94
263 233
63 232
167 199
100 22
51 244
12 195
221 163
68 99
136 70
87 155
233 175
120 47
146 244
223 255
178 259
50 139
151 272
43 134
89 136
116 86
34 57
40 99
40 266
247 107
245 216
34 106
26 135
238 247
89 57
249 177
68 118
1 112
88 227
101 70
50 106
144 110
12 133
89 74
203 55
120 177
248 82
3 71
67 154
223 10
45 30
66 84
82 101
232 84
150 247
47 34
191 73
116 188
165 147
114 54
91 78
4 271
27 92
247 165
32 243
238 207
127 175
27 220
184 252
70 75
75 259
16 52
2 223
46 177
230 256
57 126
196 78
90 231
164 39
40 218
232 27
118 82
80 35
148 150
22 127
141 192
53 100
66 86
61 247
250 42
218 163
84 14
228 10
148 216
208 270
4 6
133 230
177 85
69 250
110 117
261 35
45 214
184 14
98 8
194 162
41 155
144 82
86 178
265 248
9 22
144 67
37 31
161 30
266 135
190 253
97 150
255 106
216 104
44 34
34 61
218 12
17 90
13 156
225 139
4 185
253 256
264 202
22 57
180 97
240 206
271 101
162 16
110 40
128 257
259 148
155 20
35 237
264 231
134 85
126 24
174 11
156 162
160 100
68 233
140 51
179 153
75 243
53 226
10 56
91 259
153 12
237 190
141 164
160 134
107 14
214 118
115 153
50 185
270 41
160 47
250 137
262 88
230 75
90 99
85 1
110 20
98 12
104 44
212 184
225 191
46 192
78 201
108 211
87 187
252 52
155 170
23 184
109 116
94 185
253 223
248 223
103 205
261 53
170 18
75 203
39 136
206 265
164 26
1 75
80 113
33 48
154 24
148 264
68 76
153 27
137 15
58 154
62 240
185 101
1 32
136 17
105 215
107 192
151 258
214 62
172 200
140 102
155 204
55 228
238 216
124 62
158 16
99 226
174 82
21 189
103 83
45 51
69 195
268 258
69 73
223 237
2 269
13 223
102 177
106 133
83 51
132 144
62 135
12 197
89 55
140 196
129 2
272 261
45 12
192 235
121 42
104 239
167 205
84 45
231 97
58 54
261 29
101 34
147 1
92 246
249 92
246 101
239 10
85 71
50 98
12 227
44 67
147 18
39 126
77 181
145 26
94 191
255 5
176 217
239 35
161 228
54 137
247 52
78 29
2 64
54 166
223 129
206 185
117 78
196 159
224 174
228 154
222 243
264 237
214 153
8 193
216 170
223 12
167 253
169 69
44 146
155 46
151 32
44 56
191 100
262 239
2 45
174 222
15 201
238 201
57 97
235 215
27 144
41 170
264 15
223 203
267 3
232 241
47 26
211 35
19 68
129 247
124 185
117 144
231 175
195 34
255 59
19 40
191 55
150 218
106 87
147 98
217 2
134 18
42 245
218 215
137 202
272 20
43 66
227 176
16 64
76 245
215 112
35 213
159 54
223 174
154 197
11 34
100 75
26 46
186 176
184 144
99 175
235 17
163 217
6 163
225 113
52 117
210 233
272 41
34 58
83 188
69 90
191 66
206 139
89 13
210 220
24 131
12 206
218 205
42 150
244 158
102 67
146 90
13 266
220 130
92 85
134 150
182 147
175 164
212 160
205 94
140 118
156 240
153 43
196 45
164 20
53 116
36 158
94 160
22 99
247 223
106 188
140 40
167 138
126 180
124 230
66 75
140 235
1 43
61 250
197 61
247 225
154 246
196 269
154 190
199 237
123 178
97 195
98 250
209 146
155 160
216 24
164 233
262 202
261 79
94 95
84 148
52 19
233 40
14 143
57 73
141 205
170 193
188 124
69 109
70 52
10 199
147 244
93 139
41 11
142 113
173 178
23 258
34 191
144 244
135 256
163 146
196 89
19 218
164 87
15 237
136 273
14 197
205 19
25 132
128 224
130 203
115 106
154 114
123 75
272 129
132 86
78 61
4 148
106 8
137 239
243 110
24 137
9 219
142 101
135 18
142 86
202 58
131 61
98 43
244 210
120 8
178 2
121 214
182 122
216 92
26 95
206 182
132 62
180 168
235 174
112 41
78 46
246 39
168 167
168 223
6 150
261 44
214 248
48 55
14 26
130 112
70 42
18 85
244 133
166 229
213 16
105 229
202 138
131 261
178 192
210 227
140 174
180 153
61 33
138 180
147 70
24 223
178 174
207 237
42 18
94 174
125 48
21 196
1 249
41 147
98 184
166 34
82 163
21 156
13 46
272 24
188 108
255 142
219 233
259 18
106 141
184 12
16 185
214 24
66 155
18 133
62 243
178 179
257 183
109 78
272 221
169 139
270 190
5 154
230 43
246 44
15 153
238 15
16 191
19 44
30 113
86 72
85 65
225 106
122 20
220 147
196 79
196 247
88 20
124 103
189 193
250 266
6 250
190 196
230 42
169 180
124 187
184 194
93 17
74 181
162 36
271 139
101 122
99 164
250 30
78 163
124 227
41 75
83 18
214 206
167 255
45 164
195 221
18 88
5 226
53 148
25 249
222 27
141 70
186 130
237 138
187 105
147 62
238 181
18 144
257 92
162 256
13 94
101 196
29 35
111 20
44 139
153 40
63 74
205 174
15 111
155 51
233 98
109 73
228 125
129 156
178 83
59 109
226 40
181 237
99 89
125 221
146 50
203 142
82 150
184 67
215 121
226 256
20 90
196 231
231 166
128 203
32 168
185 151
47 256
185 263
105 44
17 42
68 127
35 159
205 233
110 42
135 259
215 191
51 220
227 130
41 68
61 132
141 230
178 162
36 67
142 26
174 217
192 86
254 81
23 117
9 64
75 4
197 101
113 246
68 227
192 34
150 234
85 101
32 250
3 120
261 237
213 111
215 271
88 4
137 121
253 40
112 246
21 260
70 90
88 219
136 107
142 192
70 133
205 197
148 111
170 157
187 247
219 62
196 91
186 203
44 180
87 130
239 207
148 228
218 208
52 227
27 61
214 27
136 250
86 235
56 179
247 218
185 164
158 272
101 156
264 49
94 162
131 201
20 197
17 191
141 120
88 75
69 56
212 88
196 260
192 185
43 6
53 129
34 127
221 89
243 16
196 62
168 218
162 174
83 176
88 170
83 147
125 272
219 234
20 112
241 55
203 88
43 121
31 143
272 63
57 99
223 148
129 34
160 144
263 248
178 248
168 99
271 94
153 11
9 11
16 41
16 11
78 17
238 262
169 273
182 43
155 234
34 216
273 246
107 217
199 191
187 121
176 214
56 159
56 133
230 146
82 253
103 4
9 271
85 23
128 144
105 240
167 270
221 57
196 142
187 100
212 92
100 164
224 106
159 198
153 41
174 146
242 218
199 228
215 94
237 213
245 106
41 196
235 248
13 203
53 231
162 206
61 203
262 154
221 127
25 26
226 174
44 272
66 67
113 44
226 137
241 58
220 34
136 140
197 34
136 216
204 92
44 154
229 197
43 252
125 188
188 243
239 196
227 120
70 243
24 73
97 198
24 55
239 153
49 238
7 84
248 112
246 130
212 248
91 135
1 25
66 226
32 220
261 211
86 221
48 15
144 62
55 108
196 147
255 178
90 125
126 131
247 239
49 58
256 215
155 165
197 45
207 232
53 57
37 254
130 92
269 214
174 2
142 124
84 4
90 142
251 204
206 218
164 220
148 94
32 78
194 117
4 178
168 212
175 122
20 204
257 230
46 20
36 88
61 202
185 157
226 68
218 220
12 82
98 258
107 75
226 225
223 233
106 187
10 104
202 126
264 159
139 208
140 62
174 41
165 209
16 77
18 115
201 97
146 136
47 235
2 176
214 2
157 150
211 104
129 106
262 5
210 11
191 256
270 17
36 132
13 139
140 46
6 162
32 235
44 133
105 198
136 161
250 36
154 97
4 153
206 107
24 238
229 272
158 141
17 139
105 52
78 158
61 223
158 196
204 66
78 205
117 217
178 145
238 41
46 91
94 142
42 147
72 222
154 56
30 180
9 128
62 223
13 12
12 129
265 95
237 202
48 107
221 49
19 251
84 22
188 122
186 81
266 30
154 175
77 154
51 47
223 245
247 133
90 139
158 140
269 21
219 32
76 1
213 129
223 90
44 216
220 122
124 144
22 195
142 25
212 27
246 146
222 90
86 223
273 199
9 251
228 233
221 40
12 234
187 91
141 140
271 153
157 203
46 153
66 165
228 270
29 163
11 218
89 199
164 196
41 133
188 17
59 48
151 153
150 19
22 219
48 89
186 43
261 231
170 17
227 82
115 233
125 79
189 251
70 176
43 214
109 191
102 43
217 12
188 228
74 24
203 97
119 14
103 34
24 111
182 115
36 86
46 216
202 199
134 147
130 28
124 46
27 53
20 114
261 202
33 59
112 191
205 22
34 138
194 214
28 173
191 218
137 61
176 41
78 94
116 97
16 4
89 50
139 11
43 84
214 86
162 78
63 201
224 34
174 193
181 212
260 85
110 170
105 56
247 205
18 233
156 70
269 41
233 266
56 166
244 43
114 109
43 115
93 261
13 174
205 11
72 263
169 90
57 247
94 154
33 131
64 118
14 51
110 36
64 68
22 82
62 230
245 70
136 112
219 36
97 253
50 82
167 148
241 97
133 108
253 192
94 197
164 58
55 211
203 22
255 32
160 151
232 180
197 93
231 208
13 48
242 177
244 151
36 179
44 179
164 72
11 44
90 185
36 243
153 86
29 195
90 41
146 256
41 248
181 11
150 135
58 15
150 170
135 247
67 215
11 193
243 153
168 148
88 268
105 106
53 241
216 6
241 168
212 46
270 33
160 36
131 49
148 153
86 117
137 223
106 61
82 96
228 57
116 232
170 221
67 244
233 242
65 267
78 11
226 107
210 150
34 12
182 258
6 146
98 212
123 269
136 94
20 15
138 253
272 126
14 210
22 164
26 139
245 219
82 188
165 216
13 153
112 102
6 70
130 184
230 216
53 270
24 99
199 142
202 201
137 29
248 164
133 246
256 18
135 178
127 229
246 137
160 52
196 204
244 32
133 184
37 119
53 238
90 253
91 118
148 108
142 212
246 25
58 262
241 167
156 115
82 127
250 192
68 256
53 255
138 10
265 258
248 12
32 248
215 92
11 26
204 203
80 109
243 47
212 4
11 223
232 73
140 26
137 232
98 25
231 167
176 124
73 169
25 174
258 102
68 47
185 62
7 92
233 43
271 26
272 100
224 20
150 10
2 98
135 16
212 178
271 53
165 197
92 44
13 109
99 80
162 27
54 174
53 29
51 68
12 89
156 223
185 122
249 107
1 66
51 41
131 30
203 80
253 99
237 77
104 61
52 269
18 75
122 88
245 68
170 265
145 1
211 99
21 223
165 163
59 153
61 232
120 83
78 199
204 68
186 172
210 142
178 34
90 203
142 154
239 202
88 272
186 189
256 93
41 154
97 125
82 2
210 100
162 142
239 138
187 164
114 226
180 208
69 13
265 9
244 62
191 235
163 156
101 175
142 117
215 87
223 150
111 90
202 226
265 140
34 133
146 248
9 130
243 196
129 207
220 18
121 195
173 23
75 233
53 188
21 263
214 219
126 216
203 144
69 54
139 213
217 194
215 110
233 110
8 60
245 94
54 35
268 91
230 184
223 107
87 245
169 109
41 141
105 11
246 212
185 150
91 102
240 230
204 83
103 146
211 232
259 140
94 66
101 87
27 22
40 247
10 161
237 58
175 40
169 20
46 50
72 184
41 20
62 184
244 256
44 164
52 103
66 20
58 208
190 33
222 147
215 224
176 151
98 51
105 32
212 154
246 189
243 218
69 181
197 4
62 212
54 207
124 41
269 177
250 257
111 159
18 194
150 226
129 185
253 156
184 192
163 179
86 12
89 191
135 1
159 50
196 228
241 221
19 194
77 54
84 217
186 269
180 241
220 253
114 139
112 70
117 121
41 255
162 222
68 105
213 228
148 68
205 79
130 6
53 48
199 58
230 224
188 114
148 178
215 259
221 216
16 36
156 78
147 14
2 175
144 16
8 147
136 61
104 24
224 247
107 132
5 169
93 63
29 131
191 247
191 68
183 263
137 126
112 180
148 18
227 1
66 32
94 146
226 63
246 53
86 255
102 152
223 141
161 116
36 173
153 177
164 12
2 22
13 176
270 262
243 206
136 197
105 170
37 143
75 84
66 247
39 129
174 192
129 203
32 146
107 74
249 84
22 16
263 128
229 273
234 43
18 160
86 148
237 97
236 200
106 11
92 28
137 228
177 256
58 108
221 199
174 26
222 146
47 67
81 194
180 239
229 109
138 208
160 163
237 111
102 135
89 206
234 28
103 184
85 3
235 223
82 133
163 261
186 218
90 219
114 199
262 137
100 243
205 163
42 89
139 116
216 223
218 6
18 112
40 88
176 88
112 166
148 138
170 42
52 155
33 54
179 61
17 44
104 125
220 82
177 204
67 178
121 50
146 179
138 255
247 47
140 121
188 19
117 70
145 88
225 68
272 232
131 196
16 54
118 263
207 196
86 9
172 85
150 262
153 50
223 47
177 164
211 239
251 260
132 21
12 22
111 74
95 222
75 6
53 88
203 151
152 132
272 201
127 255
4 146
116 56
15 159
153 80
168 53
35 166
262 190
264 207
72 141
198 33
32 196
16 89
272 78
91 82
198 270
232 80
11 1
216 197
159 148
62 103
246 245
9 143
153 100
196 241
177 122
140 17
9 87
216 225
234 67
125 108
69 30
112 111
53 26
123 103
252 164
249 117
245 92
97 131
88 140
188 110
40 177
51 215
219 147
86 21
127 4
34 89
192 157
103 243
261 58
202 214
174 266
191 6
80 273
255 139
16 15
110 115
17 67
55 154
164 208
185 32
164 163
78 63
229 40
74 55
72 36
229 212
44 74
44 181
32 85
150 232
40 235
204 86
161 181
228 15
112 127
26 110
50 86
86 248
157 91
34 147
139 129
134 129
156 165
243 249
52 178
20 243
214 226
237 116
163 175
134 250
83 269
129 41
157 217
181 162
31 119
72 233
7 91
170 26
113 261
66 19
41 168
97 264
230 122
43 50
148 58
214 247
227 206
156 247
169 138
248 247
248 89
121 227
79 17
228 13
107 83
215 135
142 243
190 207
188 233
273 168
70 255
203 53
90 210
243 133
187 146
98 86
100 61
208 100
231 159
19 112
83 9
187 246
42 106
5 181
97 211
56 168
4 229
197 176
214 158
36 118
162 191
14 88
198 5
156 99
102 6
82 250
90 86
147 52
247 217
21 87
124 132
90 164
214 6
169 161
35 207
87 127
88 162
109 105
84 229
112 75
84 204
230 265
92 252
53 51
268 78
21 112
244 11
92 11
19 240
205 216
161 29
256 84
158 25
212 22
160 75
214 67
8 222
84 164
6 186
41 146
196 212
67 22
20 256
205 147
176 164
231 111
146 165
40 129
121 86
109 12
183 36
11 68
195 256
105 179
266 156
20 108
1 128
133 227
148 66
94 216
153 246
87 122
198 166
87 107
19 170
240 235
113 73
165 223
237 270
87 67
21 25
252 103
34 162
82 16
135 265
123 265
114 108
164 122
157 165
231 241
253 180
179 203
219 150
62 193
163 246
23 21
197 193
75 122
177 227
142 163
88 47
30 169
102 170
161 196
163 86
165 244
213 77
189 244
241 159
224 40
216 232
98 52
154 247
166 202
124 218
165 101
195 99
136 164
226 48
83 44
67 251
85 98
2 13
53 273
153 17
16 146
30 211
266 216
20 55
35 12
150 12
103 9
212 191
29 24
89 18
169 261
36 165
165 68
195 53
117 1
44 196
266 146
271 141
124 75
162 154
120 60
115 242
176 192
125 49
198 34
214 203
247 262
84 89
16 208
134 249
151 218
46 144
166 256
203 175
188 89
86 190
220 155
129 56
30 29
255 229
205 97
33 191
11 82
15 61
164 96
46 204
42 91
203 199
118 146
127 16
124 89
183 230
255 197
214 124
150 187
27 251
148 112
206 78
40 203
250 272
153 135
78 247
213 5
7 50
156 122
34 1
256 22
266 255
248 34
240 36
137 205
186 41
134 146
154 88
192 191
158 67
208 94
196 104
140 32
24 79
205 268
160 196
86 109
126 30
114 216
90 21
36 45
19 192
132 205
12 180
201 188
16 198
79 73
231 250
88 121
191 175
127 6
6 68
100 97
162 107
194 135
141 215
45 41
232 185
218 175
263 95
68 246
78 83
94 188
228 167
22 106
68 139
44 247
39 15
133 160
232 106
11 20
164 32
148 227
28 193
176 235
129 165
68 203
114 59
87 17
105 181
54 180
198 30
126 166
5 93
18 44
220 112
271 46
30 237
4 66
90 199
211 270
15 93
11 141
131 221
106 146
243 45
107 188
148 247
240 91
54 223
226 73
5 104
155 244
67 134
109 74
269 135
196 223
39 167
219 19
181 255
238 79
264 188
221 146
245 144
248 130
50 179
39 16
39 207
261 63
221 56
194 177
122 252
105 46
190 80
83 87
17 141
244 40
185 70
240 141
231 109
117 11
17 203
115 194
253 233
4 184
7 240
49 159
32 82
2 152
212 39
271 92
27 83
206 219
61 208
113 33
168 125
216 188
232 108
178 91
71 186
111 216
206 160
268 152
109 57
268 247
245 178
196 93
163 201
13 34
174 139
101 4
14 25
85 209
192 40
181 29
195 216
247 18
101 94
194 120
133 141
210 204
87 192
77 113
47 83
82 251
11 156
126 49
102 32
178 165
169 49
40 46
105 26
10 270
263 214
82 110
136 101
174 220
196 187
195 190
60 173
133 40
141 177
43 17
145 102
122 158
201 77
169 78
120 88
127 50
106 148
95 106
15 246
89 133
271 21
231 57
157 40
153 205
262 59
203 246
211 17
124 141
99 137
146 43
224 112
270 114
221 73
103 91
177 86
192 135
80 61
264 112
117 271
34 231
73 272
114 231
46 247
194 263
233 144
19 16
156 225
5 253
84 51
140 42
211 241
20 217
32 86
203 136
68 253
215 196
105 197
243 174
148 2
218 226
214 15
246 135
92 150
94 246
115 223
238 5
212 50
99 86
243 147
176 112
86 39
102 42
191 80
215 4
179 261
48 90
146 226
129 235
22 271
14 132
141 197
85 268
19 88
212 87
16 20
235 115
122 43
89 97
246 13
36 227
210 2
137 125
84 185
216 191
214 91
89 138
82 222
82 223
30 73
223 214
90 157
78 105
187 188
127 247
269 197
266 207
136 229
187 210
49 241
20 40
144 51
116 213
125 39
143 119
39 228
159 79
4 26
198 154
150 89
204 112
103 170
36 20
202 159
21 251
223 140
50 145
153 29
198 137
192 32
99 104
104 56
223 205
270 159
177 251
22 225
147 162
83 86
53 47
93 97
259 132
254 31
232 39
35 169
207 262
12 262
135 243
142 99
86 44
1 88
68 266
133 255
125 129
211 137
61 114
99 153
17 234
68 122
20 34
160 272
27 86
19 14
272 223
227 92
205 68
68 247
248 266
94 164
214 272
72 249
272 53
218 248
158 83
253 221
25 2
47 170
180 213
109 150
131 73
174 121
171 3
27 197
146 62
259 204
153 101
226 246
214 13
78 235
40 44
153 106
247 113
234 230
73 53
215 129
264 190
17 83
74 225
146 135
134 246
187 140
174 88
39 266
189 85
6 140
4 112
101 176
160 50
28 192
225 201
159 225
245 174
201 180
199 205
78 179
250 188
23 60
189 42
88 94
14 171
5 17
53 92
49 167
56 205
113 231
250 100
68 61
82 19
102 227
35 270
56 150
261 238
32 20
132 103
179 53
269 219
163 174
210 132
174 101
5 191
26 134
235 27
39 30
78 124
249 215
162 225
204 235
50 272
247 163
191 53
21 67
107 78
112 43
194 242
104 93
196 121
124 154
228 86
20 221
248 260
93 80
136 228
6 187
216 150
218 142
218 43
17 94
21 16
16 161
223 133
99 218
150 255
141 214
111 78
133 156
159 99
33 10
28 243
195 266
213 181
196 46
66 210
93 58
219 142
11 88
72 41
12 27
83 160
22 39
146 45
101 100
18 52
197 92
15 131
272 12
176 170
224 257
147 133
229 121
26 127
89 94
35 198
265 103
263 224
255 185
55 45
43 141
16 125
177 32
67 2
185 136
184 28
109 111
88 175
42 19
66 47
250 183
216 15
6 86
165 221
246 55
122 139
12 221
66 27
17 154
247 124
148 24
39 99
102 4
154 45
102 62
252 21
4 150
130 187
76 75
61 158
89 163
142 40
249 47
256 266
225 77
77 108
122 259
13 42
86 205
272 159
156 142
144 112
41 144
40 70
34 48
192 147
121 235
245 184
156 157
148 39
69 126
110 271
21 41
69 166
214 78
205 177
22 144
188 220
40 148
48 198
221 48
232 97
160 244
48 29
223 84
205 91
84 250
42 210
214 11
244 265
44 43
41 82
90 181
39 255
170 36
100 142
118 186
114 201
232 238
231 63
