*Vertices 168
145 "#106"
52 "#123"
76 "#63"
10 "#121"
67 "#0"
8 "#110"
143 "#117"
168 "#65"
95 "#148"
23 "#22"
70 "#97"
1 "#57"
58 "#53"
79 "#133"
77 "#62"
43 "#42"
18 "#9"
15 "#16"
88 "#19"
147 "#13"
66 "#129"
78 "#46"
139 "#112"
85 "#39"
60 "#100"
101 "#137"
160 "#113"
28 "#48"
98 "#165"
41 "#71"
47 "#49"
115 "#98"
100 "#124"
13 "#3"
29 "#128"
17 "#96"
165 "#82"
2 "#77"
103 "#115"
146 "#135"
54 "#155"
84 "#76"
151 "#11"
127 "#147"
105 "#44"
141 "#36"
83 "#68"
36 "#69"
40 "#50"
91 "#142"
94 "#89"
14 "#26"
106 "#37"
61 "#17"
89 "#18"
163 "#157"
104 "#73"
122 "#92"
133 "#15"
48 "#51"
12 "#64"
108 "#43"
5 "#70"
65 "#152"
136 "#80"
4 "#107"
167 "#105"
6 "#90"
72 "#33"
19 "#151"
20 "#79"
3 "#87"
22 "#146"
113 "#134"
166 "#136"
120 "#109"
142 "#4"
161 "#6"
7 "#120"
130 "#144"
123 "#99"
81 "#145"
71 "#140"
102 "#162"
138 "#61"
107 "#56"
45 "#163"
162 "#54"
153 "#149"
75 "#24"
158 "#104"
25 "#122"
49 "#139"
157 "#160"
135 "#60"
111 "#103"
26 "#1"
50 "#83"
9 "#14"
30 "#12"
31 "#111"
140 "#91"
39 "#52"
16 "#38"
129 "#130"
119 "#159"
44 "#66"
128 "#32"
73 "#40"
74 "#164"
51 "#102"
82 "#47"
112 "#2"
110 "#93"
27 "#132"
144 "#10"
55 "#25"
114 "#45"
37 "#131"
149 "#27"
93 "#21"
62 "#158"
80 "#31"
68 "#5"
164 "#167"
38 "#86"
87 "#35"
156 "#114"
96 "#30"
57 "#161"
159 "#58"
155 "#8"
92 "#59"
126 "#108"
90 "#154"
35 "#127"
53 "#125"
97 "#88"
124 "#34"
148 "#150"
34 "#156"
132 "#75"
56 "#29"
11 "#138"
42 "#118"
86 "#23"
64 "#101"
154 "#85"
125 "#55"
63 "#28"
134 "#41"
116 "#141"
32 "#94"
118 "#67"
121 "#153"
117 "#7"
46 "#116"
150 "#74"
99 "#72"
69 "#84"
131 "#78"
109 "#95"
24 "#126"
137 "#166"
152 "#119"
21 "#143"
59 "#20"
33 "#81"
*Edges
6 105
159 136
100 123
43 42
107 67
152 121
47 44
38 72
15 123
5 41
137 101
23 120
149 140
23 28
145 159
5 39
143 50
24 131
156 107
132 48
41 101
78 58
92 128
48 84
136 16
77 3
3 94
107 59
86 106
73 55
87 118
94 129
69 132
147 87
30 44
37 137
68 67
47 48
49 1
16 131
154 100
156 79
82 61
9 61
133 66
107 125
114 138
27 5
133 76
50 94
13 135
62 137
123 136
87 9
149 154
125 17
50 100
130 97
111 28
105 138
8 65
20 91
32 118
97 119
39 58
81 71
93 75
103 74
49 120
113 110
36 44
166 10
156 26
141 97
48 128
165 26
107 73
120 140
35 19
26 105
168 12
70 109
16 112
10 52
75 82
104 20
26 96
124 68
39 82
138 15
96 78
116 153
63 104
21 34
140 59
168 136
143 76
14 61
69 83
70 21
149 73
161 142
53 79
152 24
35 66
152 148
127 123
96 86
108 104
68 26
149 13
147 143
4 115
79 91
11 116
36 132
135 20
44 127
141 23
134 61
17 84
16 105
30 13
133 96
83 95
8 28
77 118
64 76
89 96
28 43
82 86
12 20
159 154
127 92
73 156
27 120
167 131
77 26
57 74
51 150
79 37
25 77
7 141
107 117
3 96
154 18
9 76
109 38
16 87
126 111
81 158
122 60
96 134
16 79
121 57
161 1
52 6
150 3
136 125
83 2
67 73
51 61
153 154
87 78
61 112
88 92
4 94
84 145
14 63
81 5
123 20
135 5
167 65
25 79
58 61
168 156
32 25
142 61
55 155
7 91
5 72
153 19
117 41
46 152
139 69
159 133
47 16
43 83
114 85
18 1
60 69
3 165
143 20
121 95
33 84
77 52
30 1
41 104
78 145
21 136
85 68
155 125
24 165
39 154
42 100
77 125
75 112
109 20
104 74
1 8
50 87
159 166
114 18
128 38
96 111
77 55
8 154
82 44
81 11
68 47
56 26
154 150
79 149
104 116
150 77
160 132
94 77
79 94
162 128
159 43
73 141
8 29
118 106
46 71
106 131
96 61
104 44
109 168
72 96
156 141
22 19
140 166
107 134
26 28
141 94
136 7
46 10
47 23
43 20
50 6
70 155
82 106
106 89
87 93
135 93
137 50
66 101
30 14
136 17
107 141
96 67
107 166
94 143
100 167
70 139
33 140
22 126
165 114
133 18
132 14
156 60
124 59
88 101
129 120
24 15
84 121
140 99
156 88
58 31
23 15
47 89
93 112
108 84
165 133
137 24
107 111
24 64
5 104
167 11
79 29
91 22
72 59
136 5
4 73
20 16
91 122
24 103
16 40
153 21
129 113
118 27
20 41
117 149
158 22
133 89
86 149
117 78
18 30
161 48
135 114
89 38
101 79
51 126
4 145
145 38
41 111
1 133
20 32
17 44
18 165
122 64
55 78
65 90
1 85
38 165
140 81
86 158
140 103
58 92
123 110
165 75
76 68
72 13
124 158
41 59
105 25
129 49
10 152
108 112
89 23
158 60
44 125
30 108
103 41
26 23
154 127
151 168
22 137
106 23
33 146
139 93
28 162
109 124
1 48
5 127
73 80
80 47
168 145
118 78
67 15
158 59
42 80
128 132
6 85
159 50
145 128
97 52
11 95
165 135
119 123
85 47
30 28
124 56
106 85
27 111
154 147
67 30
156 151
127 167
50 155
73 135
46 34
54 137
36 156
150 79
21 145
129 21
153 109
124 58
120 158
149 18
166 109
101 64
32 128
8 120
162 83
118 81
69 2
32 86
28 73
60 48
119 69
43 59
117 141
113 17
22 27
94 118
139 14
71 130
6 142
34 45
14 122
156 145
87 155
16 55
75 107
118 125
33 143
49 35
12 58
69 160
59 117
47 143
74 36
63 15
86 94
85 154
85 50
28 12
10 31
92 162
88 165
13 58
137 66
99 86
51 130
104 129
88 55
43 136
127 153
128 107
74 130
112 155
26 162
63 128
68 36
67 118
107 40
140 85
135 122
107 23
110 42
97 17
154 84
148 109
154 67
71 19
111 8
154 134
162 149
2 64
117 125
24 115
114 16
23 112
81 53
59 108
36 83
88 59
103 143
124 12
161 94
139 126
6 63
122 94
61 86
151 56
107 39
111 37
107 142
86 140
70 39
6 38
55 80
150 121
86 88
117 118
129 12
117 58
67 161
119 74
10 20
165 5
4 14
49 60
104 25
95 99
67 56
118 9
91 74
6 156
69 63
29 154
69 162
137 119
73 85
39 150
151 118
127 148
162 25
87 92
79 38
34 150
47 1
101 155
73 42
13 134
61 106
143 82
27 119
133 97
97 50
134 32
72 4
25 132
138 131
60 65
17 23
14 101
41 79
10 51
75 85
33 41
140 94
92 145
67 134
41 13
131 65
146 29
65 66
40 58
92 8
125 69
156 91
18 61
165 77
145 52
149 72
60 121
128 24
8 126
136 84
50 140
8 4
74 157
144 126
82 18
156 9
124 133
16 134
51 139
133 114
44 42
93 158
97 150
156 92
32 104
89 39
159 168
2 144
140 109
151 51
6 167
72 162
156 110
112 165
51 167
42 118
66 138
15 43
9 83
122 12
97 144
4 49
97 139
93 133
165 143
109 15
144 161
142 117
42 64
149 43
11 19
124 136
99 5
41 55
64 145
65 3
46 77
78 25
102 119
123 135
115 21
137 77
142 14
15 1
137 158
142 1
142 63
103 52
27 121
2 18
143 43
43 41
132 2
107 118
120 65
83 129
70 122
72 2
128 96
48 80
113 53
100 25
17 147
155 89
85 61
42 70
20 73
30 68
147 41
43 4
79 104
120 122
12 44
3 13
48 9
148 17
24 30
43 3
109 106
78 154
139 149
75 73
55 141
115 110
166 129
68 134
110 44
8 76
136 147
25 74
7 8
160 115
14 75
32 150
16 41
102 74
143 159
42 139
111 39
48 89
165 149
53 27
86 150
13 39
144 134
17 36
133 158
138 6
66 19
39 42
126 84
108 82
76 126
116 130
148 146
131 132
149 76
118 92
7 46
43 147
58 4
31 114
77 73
1 132
14 111
28 14
113 121
161 92
30 144
29 92
126 66
117 151
107 112
64 115
67 36
99 148
39 7
5 107
27 146
1 151
126 3
70 68
131 97
4 24
17 56
3 79
74 164
159 135
99 68
40 151
126 20
103 50
140 3
140 168
21 131
55 125
159 141
106 124
7 52
139 13
1 73
100 160
154 14
129 115
91 146
72 80
138 119
105 85
17 41
23 58
149 108
85 122
141 128
50 55
69 84
26 59
6 74
36 53
134 36
76 55
36 80
67 83
5 2
151 44
108 26
154 49
56 138
127 100
122 9
7 103
50 49
154 46
92 125
92 89
118 85
24 37
160 51
144 114
130 19
59 77
41 140
27 50
13 124
139 33
156 166
166 110
22 118
41 132
36 158
3 100
65 79
45 54
90 34
13 73
82 15
73 105
111 36
139 67
136 97
68 44
41 121
158 121
162 16
89 159
125 1
35 27
135 61
36 101
1 159
21 125
48 18
143 64
27 129
25 139
72 61
95 34
53 129
55 136
27 3
63 134
165 150
132 79
18 25
122 131
99 165
76 161
101 115
66 58
99 12
112 79
94 78
121 103
23 165
3 129
122 17
34 153
138 100
149 16
44 99
15 56
51 100
55 86
154 110
63 99
127 24
5 85
41 127
56 55
127 165
27 148
7 79
29 50
93 67
138 58
86 43
114 109
4 74
1 92
2 99
15 55
6 23
76 101
60 76
73 123
97 151
10 158
87 47
32 110
55 69
72 154
159 127
107 47
20 59
65 46
64 119
97 28
62 90
107 9
28 151
42 52
33 132
58 168
36 61
118 50
126 25
165 39
3 158
147 56
15 4
154 142
158 145
108 41
139 110
92 159
142 60
168 134
105 89
43 32
69 133
67 89
44 101
25 33
126 93
35 53
1 108
154 144
107 147
34 137
159 124
133 17
1 141
1 150
39 14
155 39
17 32
32 49
25 96
40 141
158 167
6 119
106 151
97 44
118 144
36 122
87 5
111 56
94 107
94 7
82 135
129 145
131 155
21 81
48 106
98 90
99 25
27 19
123 31
111 115
40 168
83 33
72 135
143 106
136 126
59 138
55 85
115 132
42 72
60 99
16 96
110 72
150 65
44 49
149 36
68 96
49 41
46 148
97 161
94 89
143 11
16 82
34 52
135 46
144 131
117 86
95 110
156 126
12 25
5 124
162 124
100 20
40 109
60 38
142 7
148 83
34 131
42 76
41 83
58 44
135 140
25 49
48 36
76 79
72 77
73 9
103 79
128 26
53 119
7 99
76 72
116 74
144 47
4 20
153 11
70 41
167 21
109 66
25 150
104 87
60 123
83 22
139 104
127 42
96 69
31 38
36 148
97 84
78 133
6 3
66 114
56 1
162 48
111 17
96 135
129 2
67 141
108 134
65 94
79 116
99 36
9 75
26 147
3 18
44 105
97 96
150 85
80 13
58 82
13 55
15 142
160 25
95 46
61 139
136 67
77 124
2 93
167 156
68 89
83 134
108 133
126 143
7 165
85 87
142 124
136 118
108 73
78 161
3 23
43 141
84 151
77 12
69 79
13 75
4 99
118 156
86 128
156 111
105 162
151 66
140 111
144 76
85 143
85 48
97 72
5 78
159 24
97 49
14 140
5 131
101 130
110 36
3 72
115 34
99 159
51 72
146 12
2 78
152 81
3 92
3 167
31 25
97 165
119 49
149 124
135 106
93 3
122 105
83 146
6 143
166 85
125 2
123 147
137 150
40 165
85 10
66 94
99 133
126 145
49 24
8 64
117 109
27 139
77 48
165 136
152 126
38 158
76 138
133 26
147 114
6 36
141 25
99 145
18 86
88 112
31 122
39 101
29 120
132 80
40 117
16 154
145 65
7 116
48 28
52 139
50 120
26 1
145 5
3 111
158 96
115 86
100 95
116 22
120 121
49 130
44 43
56 112
140 118
4 158
2 12
120 83
107 82
71 6
147 101
131 29
96 48
50 126
124 9
17 96
19 99
106 139
58 26
133 40
105 48
25 70
133 88
58 125
107 127
156 25
83 142
72 73
32 123
23 151
79 128
38 119
5 24
33 76
165 80
88 42
85 88
109 6
23 144
76 83
74 44
41 125
68 80
86 84
12 65
144 5
15 87
20 48
11 130
120 12
141 144
151 162
85 147
91 29
125 88
31 27
24 83
28 105
158 73
160 46
89 112
160 66
138 168
77 138
106 56
84 93
100 83
89 40
14 125
138 5
63 154
85 32
117 161
32 168
15 107
128 124
1 147
161 104
54 65
32 84
20 70
33 158
5 16
110 131
42 32
66 17
108 161
111 32
6 110
7 156
55 117
86 124
147 89
97 123
84 127
84 66
139 32
105 117
75 117
137 2
70 2
33 156
146 65
42 91
36 147
131 124
159 41
63 161
99 166
111 25
61 44
66 154
122 155
122 150
141 39
69 66
107 122
69 99
156 42
151 9
59 89
16 88
119 165
34 167
129 116
8 3
6 97
87 125
94 138
23 72
64 6
100 36
161 55
56 58
138 55
61 107
12 143
51 166
73 39
77 96
77 144
112 124
33 150
112 118
168 128
23 84
4 125
100 99
79 148
152 119
27 101
117 108
76 141
148 21
124 16
58 147
61 1
81 139
120 97
141 154
83 151
166 69
4 128
93 120
77 49
137 115
150 20
66 36
8 136
144 106
67 23
56 131
161 93
12 100
49 123
20 154
129 148
10 132
158 131
110 138
94 42
20 158
37 32
43 13
140 36
168 17
8 137
128 58
88 58
21 52
156 135
79 130
29 166
134 75
85 78
36 69
78 63
103 78
29 145
139 74
85 104
107 162
30 73
109 5
13 32
73 61
85 92
23 59
79 78
117 87
84 135
14 162
111 112
97 145
138 86
28 124
26 97
112 5
154 59
82 30
27 160
109 112
104 17
93 110
1 88
10 123
27 127
12 156
83 135
154 88
141 69
107 43
84 47
67 117
66 29
150 36
136 33
47 96
107 110
147 76
46 162
108 89
70 84
47 150
7 11
48 75
131 55
78 56
93 61
160 10
79 87
135 79
38 162
148 24
100 96
74 160
12 105
140 148
107 83
41 124
143 79
133 58
5 44
110 29
120 100
25 52
148 126
33 8
7 66
82 69
167 165
80 82
148 4
91 116
166 116
110 109
8 5
5 18
80 107
1 117
21 27
122 127
68 41
104 105
97 3
140 63
109 97
79 10
99 73
156 61
96 1
36 97
96 108
117 26
69 28
87 2
124 14
64 138
124 155
142 48
130 65
99 97
24 132
23 131
8 156
1 59
138 61
79 136
117 25
154 93
36 116
5 68
66 12
104 15
94 69
83 73
25 110
25 120
134 112
96 73
133 3
13 151
149 109
152 167
65 119
132 135
149 161
12 46
97 70
108 6
43 131
106 43
3 83
30 87
76 97
156 121
12 167
155 14
82 59
62 65
165 55
88 142
38 71
32 82
123 4
8 84
123 109
149 85
76 58
37 113
17 3
77 63
2 42
150 104
51 70
166 155
91 19
113 21
3 7
142 165
2 84
124 89
132 123
17 79
7 154
24 60
41 142
62 163
158 6
90 54
83 147
15 36
111 5
136 92
50 158
147 63
113 35
137 44
60 36
108 69
49 22
43 30
96 30
118 147
138 26
51 9
101 2
103 155
65 136
8 115
99 8
38 124
147 149
166 37
100 84
4 155
66 166
72 18
49 150
9 134
101 126
165 121
168 135
76 77
85 18
135 92
87 39
140 110
121 35
36 141
81 110
118 141
83 38
24 124
83 48
161 50
154 151
18 131
68 23
16 14
108 5
20 25
144 4
26 107
112 38
27 70
159 104
68 144
165 32
131 88
7 60
112 82
73 118
4 137
127 74
139 63
150 24
91 8
4 105
162 168
153 27
142 156
5 63
30 59
13 114
157 34
92 67
124 150
149 68
32 12
58 7
118 59
83 99
2 107
165 33
13 26
149 12
77 14
25 42
51 111
75 55
28 143
149 48
36 108
45 98
7 74
135 76
44 119
122 74
6 37
52 152
92 56
164 98
96 156
46 91
18 12
26 109
42 47
16 75
127 99
41 18
128 147
135 77
41 86
32 70
117 61
47 158
97 60
44 13
5 143
120 24
108 142
73 128
77 108
17 159
120 42
122 152
6 133
40 14
77 41
151 94
18 122
6 152
69 43
4 100
50 48
109 4
40 150
135 9
123 37
1 106
93 59
17 80
121 102
18 43
137 140
114 101
31 83
142 12
36 43
12 94
25 59
94 97
137 74
2 147
87 142
154 22
25 92
63 68
82 43
168 15
136 75
91 3
103 60
161 61
13 24
4 136
5 42
31 91
168 44
53 156
17 24
20 165
34 99
109 128
95 84
144 1
136 117
60 119
73 138
105 9
26 43
17 165
50 113
87 106
32 140
85 15
104 21
87 144
65 25
4 6
5 13
124 154
77 47
83 20
80 76
30 40
73 56
91 81
160 17
31 104
154 111
103 129
144 67
18 104
17 130
13 59
165 35
9 139
66 2
111 70
80 33
100 143
85 144
130 22
131 2
31 4
24 27
121 126
40 142
31 145
168 118
33 113
53 60
118 104
46 104
41 133
96 28
73 134
49 29
89 82
133 112
110 85
105 154
106 7
42 121
59 18
59 86
138 79
126 52
41 158
69 26
78 1
69 122
94 6
128 5
136 59
168 41
49 158
101 133
9 82
69 131
151 48
60 70
53 66
41 6
114 105
56 97
144 69
87 168
66 23
6 84
147 15
79 125
35 118
119 110
5 116
148 131
133 117
25 103
76 25
166 83
20 94
19 167
123 17
136 86
167 76
107 42
41 23
79 42
44 70
5 12
68 143
1 101
132 21
13 109
36 135
4 159
128 83
23 101
25 134
72 40
165 91
89 149
96 70
108 168
71 140
77 100
165 82
109 159
133 166
99 72
44 109
126 99
34 10
137 118
16 58
166 61
60 143
1 155
124 64
46 137
34 25
77 91
101 144
34 54
26 110
118 97
16 155
99 17
124 88
26 161
83 141
85 107
151 85
109 88
5 126
148 160
20 84
69 154
105 52
107 93
26 166
162 32
103 126
97 142
41 69
92 66
128 36
50 36
2 115
10 25
17 161
14 88
107 92
87 107
121 116
25 2
55 12
133 118
68 28
131 42
105 112
85 17
102 137
122 49
63 55
156 128
98 62
124 44
131 160
23 104
108 165
130 95
107 96
105 155
70 8
67 14
91 44
5 55
156 5
46 132
41 118
31 70
124 85
146 104
30 155
98 65
39 80
94 120
131 67
77 168
94 115
116 6
1 3
121 148
132 105
148 165
119 98
110 111
18 83
106 13
158 105
161 133
69 158
126 120
88 23
121 153
99 115
34 145
28 138
107 68
162 78
149 1
59 40
120 5
134 93
50 53
48 147
93 124
112 135
138 50
117 72
17 95
100 104
138 96
68 78
168 21
24 44
80 112
78 9
99 152
63 73
39 110
75 99
69 109
139 15
118 82
137 76
49 83
49 99
92 42
112 160
26 16
167 25
134 47
43 117
67 1
117 69
42 10
30 114
140 30
14 68
92 105
82 12
156 152
69 71
20 119
99 136
18 142
44 100
87 124
115 60
53 104
154 91
34 49
46 108
106 104
28 149
6 122
139 65
59 139
51 103
88 73
80 50
16 139
25 94
132 91
84 156
25 142
69 3
64 168
42 20
123 103
154 136
126 77
138 92
125 159
85 99
156 158
142 68
41 152
2 17
77 35
145 148
136 94
145 7
40 66
47 41
53 33
127 79
85 51
165 94
49 31
120 145
105 82
17 115
94 30
53 38
105 108
125 67
128 17
122 168
16 77
125 48
43 166
66 5
116 148
136 27
105 147
94 41
165 129
79 50
101 73
11 118
118 44
13 89
105 128
134 12
85 59
152 4
92 166
87 139
136 31
114 78
3 46
140 2
66 118
125 147
118 13
118 55
143 130
10 119
106 159
65 153
48 118
30 111
89 58
129 119
77 39
153 81
93 165
110 94
78 67
166 113
49 37
73 25
95 150
87 160
134 20
157 57
48 88
53 24
154 17
146 109
140 38
81 50
105 86
63 141
10 100
112 156
70 59
23 13
158 13
147 14
143 136
1 13
129 76
145 74
16 15
143 156
80 88
145 2
111 150
131 20
118 127
17 35
42 145
17 67
88 161
51 91
27 145
35 101
97 112
91 152
132 111
5 28
35 3
132 97
58 85
24 147
145 94
85 136
166 158
126 150
9 144
15 58
78 115
165 41
12 138
99 150
64 96
10 103
117 99
122 34
2 53
6 5
77 74
142 122
73 16
26 82
139 103
69 129
42 68
28 79
6 7
70 143
55 128
20 53
136 120
72 93
33 66
99 41
49 104
32 155
46 146
156 148
139 2
157 163
111 147
50 166
167 43
65 20
3 73
30 63
97 65
117 23
147 86
16 141
153 74
79 51
139 79
70 115
81 137
165 1
96 136
148 6
74 33
61 70
4 165
51 158
34 11
44 76
75 41
146 100
76 26
155 147
146 154
131 33
136 10
88 5
156 78
44 84
4 147
156 136
47 9
17 143
111 77
75 69
5 36
108 43
92 73
18 128
73 162
154 94
27 109
4 103
2 117
138 46
126 113
17 89
3 34
34 113
151 158
136 142
94 5
144 75
117 147
122 84
75 5
150 15
9 17
92 154
42 34
61 136
63 168
153 3
42 162
91 60
114 122
63 80
20 159
144 159
71 116
133 136
126 6
48 139
55 4
166 42
41 160
87 154
41 36
7 152
121 64
76 93
65 102
131 87
115 117
39 28
124 97
152 166
80 108
150 125
24 144
20 44
5 118
1 17
5 114
25 11
139 84
33 148
23 125
26 33
76 152
143 158
154 123
4 96
31 6
76 96
112 132
136 151
158 111
143 107
126 86
109 80
127 150
156 56
83 136
38 137
35 104
70 123
12 127
83 86
80 40
98 102
111 85
26 136
160 103
81 34
136 48
27 143
139 8
16 156
39 26
119 103
154 126
92 77
160 76
150 134
155 69
52 50
109 134
147 82
112 30
28 47
118 61
119 166
43 63
33 15
100 136
51 134
32 60
131 84
50 142
151 120
48 99
42 103
160 52
39 128
14 32
13 145
64 110
39 92
154 76
105 97
43 5
147 109
89 78
77 159
67 4
168 101
161 86
49 95
129 84
12 141
107 144
4 75
23 155
101 143
97 75
104 113
128 40
61 63
117 124
15 144
92 36
44 148
9 32
9 128
145 101
12 148
144 72
32 149
133 33
115 121
13 84
69 13
151 147
15 97
154 140
149 23
152 160
122 55
108 68
110 147
17 94
162 18
120 2
161 42
63 107
74 121
7 167
159 66
32 91
33 60
80 94
59 141
6 34
24 72
10 138
13 155
162 109
2 47
110 121
162 93
104 126
161 72
155 83
154 106
110 78
58 5
30 142
49 126
115 7
20 132
96 155
66 16
51 38
76 69
134 128
85 135
70 30
88 97
87 59
23 24
21 12
166 72
110 4
132 140
53 21
55 14
148 49
36 154
152 20
71 119
120 128
1 167
166 148
36 34
93 86
84 60
92 21
3 33
68 1
121 33
31 20
91 110
70 85
109 154
139 155
157 102
43 110
72 30
110 144
102 164
9 72
141 80
153 91
58 112
147 69
152 25
17 119
144 18
151 25
61 4
159 111
83 101
138 159
8 150
111 44
77 143
14 23
99 130
64 61
42 136
137 60
168 49
39 61
89 44
108 67
96 75
58 93
136 111
31 126
9 26
124 107
139 6
101 97
71 25
143 131
37 35
83 149
42 35
75 47
149 105
144 39
24 87
136 115
42 46
131 165
138 44
3 166
15 41
141 30
21 11
149 144
35 115
68 38
4 36
165 147
17 33
34 50
26 75
1 87
6 77
162 40
144 58
142 162
139 119
111 31
136 131
47 161
4 28
16 144
112 162
75 88
59 133
95 3
130 91
106 58
56 133
158 26
79 75
84 14
66 93
28 87
109 18
129 101
33 135
154 83
168 125
93 68
21 94
146 113
86 40
155 111
2 154
28 61
122 104
58 162
129 17
42 168
143 32
10 24
5 93
138 53
82 126
99 143
18 75
5 20
78 97
125 162
46 31
14 144
12 29
132 156
8 38
15 40
80 44
24 126
5 162
135 42
59 106
164 137
107 108
121 12
93 14
111 61
127 103
61 108
2 158
70 121
20 18
41 12
78 92
83 106
21 130
154 35
83 138
163 102
100 46
63 167
67 97
66 3
143 84
47 72
76 150
133 111
165 36
129 4
39 162
110 60
4 89
151 24
60 26
40 39
159 69
6 146
5 139
66 162
132 26
63 26
144 56
35 91
79 70
8 148
119 50
159 9
139 118
9 165
21 37
69 37
99 66
68 17
26 61
106 123
21 143
24 35
74 129
148 118
78 108
21 120
141 2
126 71
156 24
156 160
101 148
75 111
167 137
84 140
154 121
15 6
138 146
112 67
108 76
75 159
15 73
109 122
118 80
120 106
78 76
1 105
69 17
159 93
85 128
117 106
145 25
140 67
118 56
67 138
160 49
91 65
131 120
34 35
93 6
111 128
3 11
59 51
26 85
79 13
9 68
31 21
99 158
12 135
7 19
17 152
155 43
154 79
93 149
24 99
158 14
64 123
63 9
145 10
151 2
129 92
48 135
160 12
25 128
65 143
52 46
52 156
79 20
115 127
74 111
16 32
134 14
70 10
108 28
153 22
69 9
27 32
144 43
83 119
58 32
137 25
2 111
40 24
87 86
166 77
15 32
25 136
149 17
109 12
168 69
90 45
30 154
60 17
68 105
20 76
83 97
36 38
119 163
32 156
118 86
139 143
67 88
25 124
78 134
121 94
120 137
82 149
59 101
151 68
76 136
44 123
49 81
43 67
83 12
106 9
134 114
136 66
41 78
132 168
49 46
161 43
28 118
5 4
154 32
85 9
74 11
93 114
131 99
123 3
70 92
56 136
5 14
166 87
83 127
136 158
120 60
143 49
61 87
76 156
168 166
92 68
103 109
31 162
109 89
44 27
34 121
148 34
115 156
12 110
119 31
109 3
94 40
143 135
155 67
114 92
104 33
91 127
106 55
57 98
144 133
144 41
39 20
28 82
77 88
105 77
17 121
137 3
22 21
114 59
17 18
121 62
168 154
138 88
19 126
58 30
153 126
42 50
79 100
51 94
137 29
1 9
139 141
9 56
39 94
165 125
141 92
20 7
33 31
80 106
2 112
32 19
152 97
63 94
22 69
136 166
31 17
74 150
124 66
111 73
26 122
85 2
59 2
50 40
101 8
151 142
119 100
166 53
150 108
82 5
48 159
73 5
69 68
63 32
24 25
133 15
83 104
68 128
159 150
132 138
104 38
126 94
50 68
168 25
47 117
77 33
75 58
56 161
41 128
61 110
129 34
62 157
103 21
148 60
15 159
37 77
48 165
49 17
154 47
165 56
65 19
86 110
24 12
8 89
16 128
25 122
97 21
135 94
38 168
122 115
44 92
15 124
44 64
120 150
139 161
2 168
147 131
167 120
71 29
9 18
92 139
19 95
69 151
68 155
35 65
69 105
134 101
6 145
10 146
68 131
159 73
4 114
61 5
55 66
41 81
23 32
79 21
112 40
28 117
103 65
47 141
113 24
16 13
48 73
50 125
69 15
114 48
118 15
114 52
124 135
99 70
133 72
13 48
105 115
16 48
144 36
26 73
74 54
100 32
139 3
36 9
166 70
101 116
130 148
15 68
82 14
47 25
75 141
104 37
84 111
33 79
89 9
39 30
146 167
132 145
148 95
118 100
27 165
50 35
134 142
124 36
167 46
32 38
140 97
6 149
30 16
92 59
148 38
67 165
32 6
48 76
165 10
67 39
29 52
82 162
94 101
100 34
38 27
137 42
63 89
69 32
156 105
76 12
162 139
42 60
47 114
15 158
4 143
64 158
107 138
136 138
61 41
93 1
19 158
67 149
103 145
87 55
61 89
125 138
55 109
50 1
77 134
84 76
17 12
119 143
50 117
5 67
76 59
26 114
126 34
101 162
128 144
135 144
109 24
41 110
4 63
30 33
122 44
136 162
30 69
89 143
65 10
139 10
151 26
107 84
165 84
114 154
92 32
57 102
64 166
109 43
109 28
140 143
24 65
77 154
56 52
16 132
154 122
74 154
118 126
24 101
158 89
141 134
115 14
20 21
165 25
161 134
165 128
86 26
161 115
84 46
118 150
100 132
30 77
142 89
63 138
149 112
106 32
128 20
72 1
91 5
121 101
30 75
38 97
11 83
118 68
84 52
37 156
33 2
116 81
42 141
21 84
2 49
79 34
12 16
97 20
21 44
127 135
119 90
4 53
72 159
149 77
109 36
39 105
136 119
76 114
17 88
68 159
106 142
70 148
60 10
44 55
144 123
88 117
165 134
46 66
9 99
141 33
43 40
141 82
154 70
6 17
44 139
153 95
143 152
137 145
6 68
140 158
66 111
75 83
65 118
21 69
30 97
155 92
122 32
149 96
151 82
123 28
148 31
123 51
84 119
86 155
101 80
156 131
141 142
94 112
78 88
143 132
161 112
129 7
53 131
150 56
93 145
76 18
120 33
80 77
11 27
131 35
141 3
123 150
78 155
12 155
35 166
75 12
89 101
60 104
49 27
58 155
88 96
25 89
122 33
97 122
9 117
9 154
32 26
75 106
67 32
61 68
95 74
4 59
130 8
154 80
151 15
167 91
117 96
44 134
110 31
46 8
80 131
139 156
17 50
135 87
4 92
83 116
85 168
67 86
25 138
80 24
31 167
165 65
69 20
76 111
97 68
41 85
53 41
4 23
72 107
63 23
166 36
64 46
38 110
13 156
156 48
43 48
165 124
83 4
8 158
15 165
43 140
1 123
21 71
24 52
132 158
106 110
91 76
163 45
33 162
59 99
144 99
20 15
68 72
104 14
86 92
125 132
80 128
125 110
29 27
149 92
13 107
36 118
108 66
28 15
75 142
154 125
149 107
93 26
114 1
134 56
38 14
136 6
47 162
6 140
80 144
66 143
22 160
159 49
127 49
118 138
93 15
118 165
108 110
128 13
59 56
46 24
159 100
32 119
47 40
151 50
76 124
38 66
69 47
160 167
50 139
147 64
34 97
127 17
40 154
108 72
44 51
25 44
22 123
16 92
87 13
73 40
5 159
18 132
64 165
44 32
2 21
8 140
33 52
112 18
73 139
77 34
136 23
53 126
65 132
33 114
6 165
25 107
38 65
24 21
88 61
151 131
36 31
73 23
11 42
87 122
42 123
6 29
81 74
4 111
42 134
137 7
93 55
110 16
79 24
38 85
140 117
38 5
78 142
138 117
95 24
4 161
51 140
75 168
125 31
64 36
40 96
99 125
6 55
37 146
25 108
158 117
151 32
3 51
132 109
16 33
111 145
6 69
42 14
42 165
13 115
38 151
135 39
44 128
105 150
161 128
131 9
114 151
30 128
18 138
30 9
126 88
2 32
156 97
128 166
103 6
135 47
32 78
114 115
135 69
110 17
119 140
143 154
159 33
157 54
147 77
40 61
114 55
120 70
11 53
24 6
141 9
75 118
17 91
76 39
132 103
14 141
162 159
143 75
64 167
67 63
74 131
168 107
36 30
55 99
109 85
12 97
9 8
128 23
113 29
99 104
43 162
61 147
64 21
47 165
110 2
66 140
64 60
83 70
160 119
105 41
87 12
43 14
14 2
48 158
156 23
96 93
148 135
155 140
141 145
7 160
87 151
18 73
16 64
129 50
155 110
75 56
83 93
89 2
58 142
42 159
5 155
91 50
80 89
128 76
111 165
71 104
69 59
141 56
137 110
23 96
2 36
114 83
68 12
12 15
96 85
70 65
10 12
84 148
125 101
162 96
37 122
112 36
46 111
145 51
83 88
51 107
31 44
142 13
101 138
111 99
144 136
136 3
162 1
164 157
15 105
55 26
124 125
161 118
74 156
63 136
125 158
46 4
10 3
61 48
38 123
20 24
167 56
139 120
20 139
139 168
107 28
24 125
48 68
12 162
84 114
34 5
105 141
158 138
41 56
111 15
117 5
132 66
11 49
35 103
138 149
135 49
21 36
6 101
12 159
151 133
49 100
126 167
38 94
64 156
8 145
151 86
168 76
159 64
9 114
28 141
117 76
74 90
24 129
154 130
143 120
76 88
83 92
6 46
35 21
5 56
6 104
26 24
75 151
109 79
16 168
94 35
88 43
39 75
2 60
46 143
119 29
149 60
40 143
17 77
77 93
145 142
93 43
82 83
119 21
100 69
25 55
28 67
49 42
69 77
64 116
6 161
115 153
66 37
14 15
151 104
30 159
126 129
77 115
124 43
9 77
125 86
9 79
92 84
35 33
77 44
4 30
148 74
160 123
129 66
76 159
39 32
48 78
84 110
139 41
105 93
77 123
131 22
2 165
79 35
30 80
123 168
8 44
9 40
55 9
49 132
154 165
47 67
13 4
131 139
27 4
138 135
49 91
112 96
38 108
121 83
121 44
115 12
48 23
36 104
152 55
91 38
133 87
17 14
148 159
155 33
64 11
103 77
108 40
86 47
25 35
154 135
68 161
127 109
4 162
96 58
4 126
4 84
83 59
33 126
153 76
57 62
99 50
83 77
74 34
88 28
14 107
76 23
156 103
135 66
112 128
12 107
22 109
29 84
80 56
39 84
80 15
134 41
56 2
122 42
160 11
54 98
138 13
125 61
158 147
20 148
10 27
114 23
44 86
97 82
76 127
55 104
138 141
30 32
135 147
156 59
61 55
127 116
112 122
30 124
143 25
42 82
135 21
33 92
33 93
107 77
115 138
96 5
26 149
155 134
114 124
123 5
154 13
143 52
58 28
130 127
127 104
6 58
70 114
114 82
29 70
106 158
63 66
158 97
78 125
6 66
165 151
41 40
86 109
8 159
75 147
117 134
97 147
68 13
93 106
132 60
63 76
133 36
34 98
60 87
135 41
132 94
166 52
4 37
150 135
85 134
105 30
48 40
120 153
1 40
69 136
17 70
125 122
141 79
107 135
3 127
150 4
63 156
156 58
26 30
104 121
23 138
78 72
145 139
166 55
40 111
41 25
87 26
156 120
78 138
21 116
65 81
148 51
48 14
3 84
81 148
150 140
77 8
75 86
118 14
2 162
1 107
65 2
30 165
51 92
17 107
92 48
155 48
135 51
141 149
105 17
52 111
167 118
2 39
71 91
48 55
87 33
55 147
58 63
139 140
103 46
138 9
47 159
167 101
3 154
115 158
139 68
149 4
72 122
165 44
139 4
80 83
68 16
111 24
140 69
128 2
140 78
99 106
67 80
134 17
21 5
48 141
12 140
150 115
158 11
161 105
100 117
68 77
147 16
89 41
48 2
75 149
87 136
155 167
16 97
93 141
76 15
50 136
58 136
68 39
158 109
150 41
58 52
160 81
159 79
61 78
41 167
82 125
139 1
134 97
168 61
125 139
131 58
78 86
139 36
132 12
142 44
18 161
92 99
148 143
125 144
139 159
2 27
21 111
4 167
117 77
82 128
120 48
18 99
26 124
22 81
86 36
144 155
116 70
166 2
125 135
32 146
122 2
149 106
158 56
166 49
93 30
158 134
39 140
39 117
32 121
150 92
152 60
125 148
58 55
152 38
151 105
159 23
148 11
47 118
33 91
5 132
95 65
23 124
18 87
149 151
152 100
159 165
148 19
148 103
141 77
165 144
141 122
52 136
32 52
37 12
79 84
138 128
143 31
106 96
128 69
158 25
61 59
132 118
97 79
14 165
17 93
89 32
147 5
63 40
56 128
24 154
47 105
136 167
27 37
69 134
168 1
94 8
136 110
58 47
93 41
133 48
76 107
137 45
33 23
142 112
93 48
78 167
44 26
87 82
38 92
23 43
1 111
107 150
158 146
31 137
5 148
4 64
138 137
38 21
12 69
73 17
101 53
168 55
51 12
52 100
139 19
89 134
108 166
158 94
139 109
121 79
138 39
168 104
64 25
84 51
63 18
107 16
48 107
2 100
8 109
161 151
2 28
65 52
114 149
49 64
151 59
134 118
36 70
144 122
25 148
13 28
122 103
120 125
3 124
39 160
44 88
109 17
26 6
104 154
40 99
64 109
40 2
33 78
115 48
152 113
26 111
39 59
42 148
136 128
134 135
103 37
101 141
58 59
46 150
28 42
23 70
15 5
137 109
111 168
63 145
30 2
41 119
136 132
142 158
34 166
104 82
56 145
162 89
99 87
27 104
16 143
43 114
166 101
73 50
91 10
39 83
135 146
155 61
39 125
138 112
121 146
111 120
155 75
40 134
60 88
79 63
141 135
126 14
65 126
143 167
150 153
86 108
75 1
100 18
142 118
41 32
1 43
17 101
116 119
69 120
73 14
142 28
71 120
161 41
1 69
109 105
158 127
58 159
34 152
107 159
14 50
167 8
160 6
50 69
96 66
83 145
61 75
5 133
127 71
82 133
92 76
92 20
30 138
20 136
126 158
23 25
148 64
28 89
61 30
19 36
104 162
68 59
89 107
42 78
24 56
99 110
66 167
105 118
67 105
158 135
