*Vertices 55
35 "#0"
23 "#25"
10 "#4"
31 "#6"
8 "#2"
18 "#49"
42 "#44"
7 "#24"
39 "#34"
37 "#36"
49 "#11"
53 "#17"
30 "#26"
27 "#31"
41 "#40"
29 "#48"
36 "#22"
6 "#21"
21 "#13"
38 "#28"
26 "#35"
13 "#50"
40 "#9"
43 "#45"
5 "#8"
32 "#12"
33 "#33"
11 "#19"
34 "#43"
45 "#39"
24 "#16"
19 "#37"
22 "#53"
4 "#14"
2 "#27"
20 "#54"
15 "#51"
9 "#38"
47 "#42"
16 "#1"
14 "#7"
1 "#20"
12 "#46"
54 "#30"
55 "#47"
50 "#23"
51 "#15"
46 "#10"
3 "#32"
48 "#52"
52 "#5"
44 "#18"
17 "#3"
25 "#29"
28 "#41"
*Edges
9 28
36 8
55 22
48 20
21 55
35 42
38 32
13 48
23 53
5 54
55 24
42 44
23 37
39 3
26 16
51 24
27 52
7 11
9 55
27 18
15 27
46 45
10 8
29 18
24 42
32 53
22 54
43 49
23 9
52 24
7 21
23 38
42 34
22 5
46 33
46 47
28 45
7 23
25 46
5 15
4 23
28 8
1 33
35 44
37 32
35 54
55 49
54 53
31 12
46 28
6 22
17 5
26 10
15 29
22 10
14 18
22 32
15 42
3 27
15 13
38 40
30 55
2 7
11 15
53 5
17 19
18 36
38 22
29 52
38 36
12 51
7 5
45 54
24 21
15 52
3 28
23 22
41 35
15 40
55 47
22 8
5 50
14 50
15 17
6 47
29 42
15 31
52 33
22 45
23 26
43 28
4 14
15 36
39 9
37 27
29 36
4 53
54 6
52 53
5 32
27 33
9 54
34 52
42 5
44 28
11 22
34 27
53 8
26 45
11 41
9 7
5 12
2 31
37 36
41 37
22 13
10 15
30 11
18 42
10 30
2 15
12 22
51 6
21 15
39 14
6 52
25 22
14 29
31 35
29 16
32 4
29 22
49 36
40 41
12 26
53 29
20 15
28 14
23 15
16 22
15 3
22 18
23 17
31 23
21 9
15 44
15 49
7 46
22 17
15 6
49 25
31 47
48 22
16 38
38 30
38 52
44 36
12 34
29 37
14 47
36 43
1 26
24 6
35 27
49 45
1 22
15 53
36 24
55 1
14 51
49 29
53 50
30 7
43 40
13 20
39 22
34 55
55 26
20 22
30 32
