*Vertices 284
260 "#76"
268 "#114"
38 "#138"
24 "#66"
219 "#225"
123 "#123"
256 "#70"
110 "#93"
154 "#141"
96 "#109"
99 "#242"
132 "#96"
211 "#165"
179 "#43"
158 "#131"
104 "#49"
176 "#173"
73 "#183"
273 "#94"
129 "#58"
60 "#3"
201 "#0"
117 "#193"
180 "#199"
271 "#228"
239 "#206"
189 "#90"
127 "#100"
168 "#59"
59 "#137"
18 "#77"
223 "#35"
12 "#264"
40 "#238"
140 "#107"
197 "#188"
130 "#83"
199 "#111"
58 "#45"
236 "#146"
246 "#118"
27 "#72"
81 "#108"
135 "#125"
120 "#142"
29 "#156"
217 "#227"
92 "#9"
253 "#229"
15 "#104"
65 "#71"
142 "#52"
198 "#75"
88 "#190"
100 "#126"
9 "#19"
61 "#200"
11 "#62"
160 "#216"
204 "#21"
196 "#124"
234 "#269"
275 "#170"
279 "#28"
114 "#161"
216 "#265"
139 "#140"
121 "#262"
118 "#85"
178 "#31"
156 "#122"
47 "#46"
238 "#195"
22 "#22"
23 "#34"
210 "#248"
70 "#210"
125 "#192"
50 "#273"
119 "#208"
167 "#149"
6 "#263"
241 "#201"
213 "#278"
282 "#217"
188 "#196"
276 "#250"
137 "#129"
193 "#143"
200 "#271"
63 "#37"
76 "#281"
34 "#14"
106 "#163"
66 "#101"
257 "#89"
94 "#186"
31 "#259"
202 "#92"
89 "#82"
242 "#249"
109 "#147"
8 "#54"
77 "#185"
229 "#103"
261 "#222"
39 "#159"
224 "#23"
247 "#253"
13 "#181"
68 "#42"
35 "#241"
86 "#112"
280 "#98"
265 "#117"
181 "#153"
49 "#29"
41 "#243"
233 "#220"
203 "#221"
101 "#40"
1 "#145"
194 "#73"
103 "#256"
228 "#257"
78 "#209"
248 "#102"
51 "#17"
136 "#204"
80 "#50"
124 "#179"
148 "#213"
225 "#144"
30 "#47"
91 "#53"
221 "#230"
218 "#276"
151 "#148"
212 "#65"
240 "#30"
266 "#26"
3 "#166"
259 "#237"
53 "#64"
267 "#95"
108 "#99"
126 "#48"
172 "#214"
52 "#205"
162 "#106"
113 "#274"
44 "#8"
16 "#110"
185 "#38"
153 "#116"
32 "#197"
272 "#128"
145 "#260"
206 "#60"
281 "#235"
270 "#215"
163 "#1"
64 "#219"
71 "#81"
277 "#119"
122 "#261"
222 "#187"
112 "#177"
98 "#198"
2 "#25"
45 "#44"
90 "#231"
269 "#79"
182 "#174"
84 "#91"
195 "#121"
169 "#191"
177 "#168"
170 "#32"
183 "#10"
102 "#234"
26 "#178"
190 "#245"
243 "#132"
184 "#211"
72 "#74"
67 "#175"
186 "#16"
115 "#4"
46 "#252"
264 "#160"
245 "#277"
62 "#68"
192 "#194"
79 "#87"
191 "#27"
165 "#247"
57 "#63"
56 "#212"
171 "#272"
175 "#176"
262 "#158"
131 "#84"
227 "#80"
19 "#155"
33 "#164"
208 "#78"
231 "#203"
161 "#2"
128 "#171"
93 "#223"
205 "#12"
134 "#180"
74 "#224"
116 "#15"
10 "#61"
237 "#11"
250 "#169"
69 "#86"
48 "#33"
133 "#255"
220 "#13"
152 "#279"
82 "#127"
174 "#97"
146 "#258"
166 "#167"
274 "#5"
75 "#270"
55 "#154"
37 "#24"
209 "#69"
258 "#113"
230 "#239"
283 "#133"
157 "#150"
252 "#135"
5 "#236"
159 "#134"
17 "#55"
20 "#51"
249 "#20"
164 "#105"
143 "#57"
138 "#151"
97 "#182"
149 "#244"
28 "#254"
111 "#67"
4 "#18"
235 "#251"
144 "#232"
215 "#162"
43 "#152"
254 "#282"
251 "#202"
85 "#283"
36 "#41"
207 "#172"
107 "#88"
278 "#56"
155 "#268"
21 "#120"
105 "#136"
232 "#246"
255 "#130"
244 "#189"
54 "#266"
14 "#7"
173 "#36"
284 "#157"
187 "#6"
263 "#207"
25 "#267"
7 "#226"
95 "#240"
150 "#280"
214 "#233"
87 "#39"
83 "#115"
226 "#139"
147 "#184"
42 "#275"
141 "#218"
*Edges
143 249
260 159
55 248
127 255
236 80
107 22
63 87
96 249
283 222
59 35
252 191
169 25
270 192
248 24
88 119
208 129
226 198
283 258
219 54
21 189
272 152
104 260
201 274
66 100
121 82
174 50
217 149
69 269
217 151
72 258
48 1
68 58
67 21
276 272
87 280
197 227
14 37
123 201
242 250
179 194
165 145
174 154
46 39
97 140
24 191
66 253
66 85
71 209
89 236
57 215
69 180
127 202
215 29
205 69
206 268
151 161
267 68
100 223
189 66
138 65
53 62
77 135
220 199
199 186
126 34
109 132
54 136
190 150
55 111
176 234
239 61
139 202
21 13
239 56
198 72
17 279
57 2
77 131
43 84
273 111
29 106
15 239
106 231
137 135
74 103
80 194
47 24
267 190
282 86
62 86
138 181
233 66
222 176
156 33
227 60
144 61
48 79
98 121
198 205
27 123
269 115
277 136
91 137
126 4
262 219
156 200
258 264
20 127
19 235
263 78
239 254
96 73
110 123
264 138
253 149
225 17
106 154
238 276
15 258
96 179
202 18
219 215
192 72
21 81
135 177
198 170
165 235
109 280
67 228
193 197
257 258
28 105
97 131
76 141
220 14
93 12
20 23
124 175
211 155
72 197
206 33
165 192
152 1
141 50
236 226
215 145
213 97
201 36
79 127
32 184
268 83
141 55
141 149
106 159
16 220
80 187
72 224
5 246
190 33
34 272
282 261
112 67
34 24
266 236
167 254
217 127
134 3
55 272
48 17
59 218
21 196
63 168
99 96
13 138
257 225
223 71
81 136
186 159
20 266
61 174
228 108
131 186
280 247
18 168
173 107
97 211
235 81
199 277
158 128
145 171
64 112
59 174
139 272
49 82
160 140
131 44
280 3
217 75
172 261
246 219
215 18
71 8
280 55
19 43
63 269
82 191
157 184
161 156
32 141
170 142
9 248
96 181
211 214
209 118
202 251
131 92
188 257
42 52
27 15
100 283
50 102
52 46
106 103
68 18
236 141
280 148
202 182
10 205
170 101
154 117
277 117
273 79
53 84
256 123
165 41
96 202
10 81
79 20
176 120
15 243
2 71
68 198
24 194
196 264
250 100
251 29
231 247
65 24
115 36
283 121
256 267
100 15
197 120
181 27
188 108
18 201
195 156
136 148
42 235
182 281
127 236
184 73
26 111
15 257
241 182
271 13
270 217
28 96
264 272
161 194
159 132
15 271
112 73
222 225
44 202
241 232
31 6
125 77
45 51
208 97
57 195
222 226
38 81
234 145
125 109
262 269
62 183
33 211
247 172
166 236
84 210
68 140
27 9
80 256
90 213
163 80
32 106
251 195
280 106
212 139
30 48
138 94
160 77
69 195
7 214
206 62
66 172
105 152
76 97
80 143
123 199
97 150
254 207
115 14
150 114
236 15
255 275
163 280
114 43
96 157
112 127
231 94
279 101
171 261
28 197
184 284
5 283
92 170
82 21
77 119
212 161
120 109
275 243
64 244
110 149
168 1
164 174
175 225
165 184
132 202
255 109
119 82
135 252
222 141
147 16
174 137
11 44
86 137
247 46
6 261
106 24
265 120
156 15
16 115
269 193
71 160
211 168
220 129
8 92
236 158
161 14
257 196
59 162
5 257
223 14
14 120
56 208
81 161
43 42
214 3
125 64
98 268
155 226
29 119
218 247
172 81
117 112
81 268
147 144
98 117
232 125
208 51
6 134
247 147
64 151
277 38
60 154
255 215
159 211
108 29
225 139
61 66
2 229
202 21
51 142
208 182
157 215
11 178
139 97
176 39
124 192
125 157
97 176
248 59
125 231
62 105
16 36
174 66
146 102
82 157
134 146
40 222
151 128
191 16
199 239
193 219
205 187
164 89
79 183
44 280
138 158
59 172
117 90
111 65
178 10
10 39
217 272
114 228
26 105
189 207
226 74
159 5
15 192
15 70
106 165
105 153
21 239
202 222
144 110
114 270
62 30
135 4
184 71
151 193
108 1
130 279
120 240
265 268
264 180
141 188
59 96
216 281
232 81
225 32
187 129
22 185
254 19
265 79
70 272
7 254
54 251
61 229
127 193
273 190
94 25
147 78
181 55
79 260
227 139
105 222
118 231
278 114
272 73
230 137
7 250
82 277
226 18
137 51
37 209
3 78
83 130
180 226
6 180
168 264
66 263
267 30
6 281
273 125
50 7
277 13
215 46
220 142
177 86
70 117
15 78
277 153
222 259
214 176
68 36
229 282
221 95
234 268
95 82
126 137
2 72
235 15
130 207
180 267
202 195
134 16
232 263
133 98
108 223
284 27
212 223
247 127
86 135
83 174
113 86
105 225
69 127
222 117
280 161
263 258
259 230
110 205
79 277
269 202
127 135
73 114
74 33
239 269
62 33
269 217
125 139
218 50
26 230
174 244
229 280
135 136
172 177
278 258
46 95
109 41
9 17
114 19
97 238
46 197
226 30
51 162
26 167
119 150
257 272
130 8
263 109
96 208
174 15
127 162
258 14
23 16
266 115
195 281
146 165
209 257
28 226
113 124
227 91
280 214
164 52
73 156
146 213
255 106
67 102
138 265
275 55
41 3
193 251
195 284
195 85
141 107
185 4
195 118
272 52
116 278
211 77
114 110
260 3
179 83
216 145
145 61
71 193
260 129
165 78
104 240
211 24
217 119
119 268
112 232
73 282
189 161
106 59
126 59
229 111
4 257
223 204
166 153
26 33
274 14
92 44
61 39
47 86
160 3
148 263
157 283
44 80
157 139
16 248
169 193
102 245
160 86
23 194
192 6
162 4
262 135
11 45
132 38
21 135
133 248
159 123
271 244
214 88
265 201
54 153
129 224
153 239
17 205
102 139
157 93
195 96
43 128
204 2
156 243
192 227
52 136
147 88
224 260
30 23
141 70
230 149
234 75
243 142
259 243
270 64
73 153
104 223
250 83
273 136
87 47
2 249
280 81
270 52
102 189
270 93
68 278
51 72
124 147
59 258
110 79
209 151
202 131
130 100
211 238
101 187
26 263
69 111
38 196
229 44
154 283
163 189
96 27
166 264
12 148
192 282
283 223
72 83
121 46
19 255
73 95
71 261
77 273
217 56
15 147
39 41
140 18
123 226
81 156
129 66
188 238
141 247
63 268
38 167
246 18
163 279
79 170
140 95
122 241
222 158
267 274
217 175
76 43
107 267
205 142
155 255
108 163
183 27
24 36
21 222
169 217
108 173
197 86
190 117
249 186
115 79
211 29
186 209
18 127
152 234
172 108
232 108
193 123
247 271
174 34
118 172
39 182
42 127
275 74
9 193
251 131
119 255
254 99
162 265
135 96
18 194
39 236
48 47
281 120
210 109
76 283
204 246
155 229
265 192
236 192
197 242
162 243
33 258
57 58
161 72
192 275
193 107
226 231
173 139
38 117
264 157
183 80
241 121
110 274
33 284
277 116
158 59
75 26
17 143
170 260
120 28
155 73
277 70
281 40
154 73
9 131
4 273
255 23
262 52
89 72
101 162
107 161
222 255
48 69
47 9
266 14
256 201
83 156
91 220
100 170
159 201
91 101
33 250
250 146
65 161
7 233
206 278
249 51
160 270
85 177
67 225
7 119
257 22
74 251
195 38
162 222
169 158
111 10
18 278
7 32
84 38
185 66
84 99
31 74
196 139
222 184
122 121
262 200
75 147
147 238
227 195
90 232
220 27
22 199
147 211
227 196
237 139
233 93
238 133
209 183
162 157
232 31
35 253
10 137
211 280
225 113
85 263
61 231
87 170
33 283
12 64
191 202
201 27
170 258
269 1
27 137
7 259
79 44
233 81
15 9
203 74
98 251
169 128
189 246
279 60
47 37
203 90
81 182
259 128
198 174
45 96
217 216
258 250
112 269
157 174
16 88
209 207
202 56
180 31
190 43
153 284
110 268
66 139
136 18
197 41
35 280
163 258
140 203
199 268
108 46
264 107
154 194
47 111
109 70
84 166
190 93
26 196
284 26
92 108
150 245
69 20
271 270
48 189
139 39
211 236
37 21
257 153
113 250
72 264
140 119
193 240
181 222
232 55
142 96
89 22
254 180
114 222
195 238
221 174
231 150
201 154
127 188
54 246
45 208
172 153
60 240
96 34
159 22
234 139
248 174
248 172
227 183
144 193
255 70
138 215
129 18
278 224
74 202
202 10
65 71
73 15
245 43
17 24
38 52
174 283
185 223
251 67
167 258
189 126
248 52
215 193
240 81
156 9
153 128
256 264
96 64
245 103
114 67
52 79
236 98
7 69
52 1
129 248
144 181
158 90
38 160
186 223
209 206
133 117
10 267
232 61
73 66
262 247
258 40
243 282
264 137
173 101
200 232
221 102
196 156
28 144
180 169
72 94
274 72
183 116
232 103
145 228
114 246
109 2
167 147
256 18
119 180
120 67
83 3
198 44
259 105
59 139
53 220
229 161
160 46
102 83
233 271
236 199
32 210
136 59
48 126
235 122
34 14
244 144
70 96
137 173
81 152
96 241
17 135
218 103
269 180
144 197
201 204
50 197
85 50
141 75
85 146
62 269
81 110
136 109
157 219
91 206
190 41
29 11
233 258
213 172
179 23
158 95
153 154
109 24
17 37
86 69
108 73
281 110
209 24
92 132
198 223
51 256
174 134
214 197
76 102
243 272
27 256
172 141
220 69
253 152
38 257
250 28
120 136
33 272
225 227
66 280
187 266
253 120
95 78
232 261
102 158
142 87
81 57
202 79
25 162
42 88
210 253
231 41
168 131
170 104
66 202
193 33
82 127
86 235
182 84
225 83
239 74
25 222
86 201
18 224
1 66
256 173
232 190
84 79
75 103
271 32
13 241
226 196
260 183
107 244
11 199
112 39
81 189
98 250
7 159
49 110
91 96
156 96
137 161
47 17
175 166
267 84
121 195
166 141
116 243
89 18
72 283
61 222
164 231
18 240
251 97
70 125
6 121
33 144
228 73
56 128
131 197
132 118
254 147
148 164
207 29
111 126
112 82
1 82
281 251
90 138
89 34
168 280
141 67
151 129
137 17
258 98
98 227
258 69
42 197
65 212
284 273
8 278
255 252
265 252
7 199
125 66
200 193
84 66
92 34
131 255
70 181
140 154
29 265
203 5
241 43
16 25
277 201
212 89
149 46
46 33
8 179
185 63
120 132
153 15
81 101
98 128
17 109
213 177
212 57
277 243
280 279
136 152
137 211
109 133
227 240
222 18
49 186
151 35
33 214
82 114
96 141
86 127
272 238
54 258
157 211
248 127
3 169
184 154
185 79
15 86
8 199
224 191
246 202
61 42
113 42
127 215
153 247
204 153
49 266
79 64
62 129
47 18
53 107
243 101
139 110
66 243
110 198
206 139
158 255
199 37
38 264
275 79
253 153
220 267
107 269
196 23
147 241
164 280
251 211
115 265
275 158
248 205
151 133
130 7
91 79
176 138
202 255
50 145
17 30
241 151
20 186
167 136
72 154
77 169
8 2
277 138
150 42
249 16
178 278
62 142
5 238
217 3
209 212
175 84
112 131
207 15
33 175
82 217
81 178
239 19
272 4
265 30
9 187
63 183
7 182
188 65
262 277
59 52
261 244
5 214
136 98
5 248
11 135
277 58
160 215
110 156
177 138
8 256
248 13
211 26
220 274
284 149
62 65
64 258
100 46
165 160
163 131
217 38
82 62
218 216
84 116
217 273
219 189
196 99
229 12
16 158
252 123
47 278
48 168
209 159
207 222
179 279
194 170
10 208
137 232
99 214
251 230
209 39
128 112
102 66
227 215
175 118
227 205
236 222
41 75
147 246
114 250
103 46
143 114
165 108
275 100
125 167
31 276
3 253
72 268
167 153
104 24
94 219
171 235
44 59
278 143
130 26
14 62
131 67
73 193
249 53
183 280
113 85
123 137
59 81
147 258
106 198
64 86
169 74
150 246
111 284
83 15
34 27
222 256
190 74
66 107
98 18
102 127
215 267
13 75
272 22
262 88
199 47
19 129
256 143
83 280
201 135
102 277
262 109
161 4
70 250
49 118
156 93
229 173
73 19
68 277
143 51
139 84
280 77
259 281
26 199
73 245
247 152
265 213
248 53
252 167
70 196
223 132
201 229
68 220
260 206
238 256
108 89
147 253
190 192
255 44
13 155
250 73
190 120
78 50
185 174
177 174
136 96
206 104
271 269
266 283
213 167
83 209
140 29
54 228
233 171
38 139
23 265
163 9
41 90
237 163
74 108
248 154
272 151
81 47
236 242
10 38
104 198
27 94
73 160
209 223
98 67
71 107
273 208
154 261
77 222
86 17
130 212
278 277
132 243
52 95
277 24
143 45
230 270
211 82
258 65
240 91
104 49
259 251
157 275
83 193
29 79
225 53
172 164
140 90
255 282
98 39
86 16
199 69
215 243
15 1
101 51
199 282
26 79
231 82
266 47
219 46
103 33
126 274
269 243
89 196
263 124
20 280
80 186
167 172
166 273
90 106
243 23
106 89
114 193
111 59
47 92
248 86
53 257
162 203
78 66
158 46
152 213
15 162
157 198
111 17
223 277
256 83
225 21
248 202
278 273
167 70
72 77
216 193
144 175
27 18
277 250
73 207
280 162
55 103
207 98
72 275
159 95
190 84
33 21
70 253
18 67
257 192
138 245
25 192
139 284
186 174
111 209
71 277
283 255
261 159
89 160
67 27
211 79
128 196
67 231
118 183
139 220
197 251
154 139
257 148
226 270
142 268
270 94
103 270
255 259
230 253
192 233
97 70
215 196
268 68
267 243
193 208
186 101
273 242
172 184
265 261
145 255
122 270
75 197
262 71
264 262
242 139
126 209
118 79
270 151
232 242
249 208
208 167
27 23
17 173
196 9
51 130
229 268
102 73
154 151
145 16
179 66
148 177
65 136
180 134
201 186
244 262
137 1
107 255
154 3
201 191
176 257
193 128
267 168
282 219
115 111
72 27
225 63
75 152
98 216
244 239
42 121
236 264
244 197
7 203
154 158
181 255
73 97
225 219
199 35
184 107
14 2
273 15
254 121
51 187
224 100
110 202
223 48
41 74
225 114
206 229
185 45
5 43
243 222
86 96
106 112
67 276
257 68
186 66
132 266
256 243
135 180
133 232
5 276
124 151
59 120
18 130
239 246
269 58
42 119
30 195
79 14
43 200
187 91
239 93
73 177
123 282
11 272
43 46
148 264
101 240
7 172
226 205
159 124
283 115
147 100
82 174
177 93
1 77
12 1
35 160
150 171
89 151
137 108
109 93
230 217
92 130
248 284
233 75
275 200
8 143
238 193
179 38
135 81
248 275
135 130
73 283
71 11
283 219
249 212
20 89
265 199
167 158
186 116
131 182
145 96
255 78
227 71
114 52
177 259
190 172
45 80
247 230
72 86
272 140
112 222
24 39
133 272
71 134
112 214
27 63
153 267
162 115
62 198
65 267
11 100
204 116
111 250
143 69
267 36
166 219
104 156
47 59
239 95
81 177
146 137
269 116
232 219
43 62
7 210
122 238
92 237
223 82
269 252
42 145
59 123
46 90
216 164
147 102
57 23
3 210
44 38
41 107
118 194
190 76
267 273
248 201
245 146
140 73
257 141
71 198
59 17
199 211
251 225
8 135
120 142
121 73
167 40
259 122
280 85
56 32
174 191
210 176
176 263
49 48
64 234
153 222
222 113
271 119
96 280
104 22
270 40
82 199
67 239
207 243
198 262
267 41
88 282
178 135
67 155
267 2
100 122
23 143
164 176
16 102
175 100
59 69
175 90
53 173
231 27
109 72
250 153
36 1
130 79
160 239
164 229
108 217
86 131
63 256
199 107
156 265
277 274
4 21
277 96
117 136
183 153
166 15
256 273
78 54
201 240
142 123
193 96
58 24
8 120
148 172
103 50
142 179
211 140
108 155
196 176
95 264
33 81
165 273
17 118
196 59
204 8
262 156
174 268
247 264
123 272
120 33
127 216
74 61
21 86
226 243
91 20
243 211
189 74
129 114
241 144
277 237
110 117
75 94
129 63
41 176
258 2
266 280
86 120
276 164
203 259
255 100
136 262
271 261
55 66
140 248
111 81
207 272
277 36
223 66
125 38
59 19
4 183
131 108
219 38
276 32
140 220
185 1
147 203
116 72
70 93
181 188
41 157
104 151
162 173
123 82
130 275
221 193
24 72
15 52
125 107
270 225
15 36
274 194
196 138
17 110
176 207
81 150
186 229
60 47
162 232
130 125
265 279
265 83
131 63
80 223
188 197
62 170
142 161
277 179
95 175
25 229
207 62
177 153
238 190
150 199
53 59
162 282
142 72
160 164
33 196
193 157
140 20
251 128
188 162
220 87
188 164
124 265
190 221
277 198
24 159
257 181
87 273
79 34
153 106
120 220
112 176
19 6
251 164
279 23
62 278
37 71
120 275
69 44
59 188
244 198
279 257
124 248
159 120
218 64
66 274
277 272
39 255
62 130
62 215
81 65
186 71
27 193
198 180
132 138
91 107
5 177
100 210
241 110
182 243
90 259
142 107
241 231
181 29
122 177
207 160
109 246
176 78
117 71
180 39
276 190
117 215
181 71
225 159
174 74
46 28
279 57
149 182
55 177
1 140
217 148
50 59
23 267
212 284
62 51
37 129
219 125
267 110
47 198
207 16
24 173
84 18
204 20
96 147
69 88
146 238
208 135
235 175
110 96
227 260
284 100
272 105
174 75
8 183
57 62
172 182
88 137
244 88
265 7
261 197
52 227
139 47
27 47
82 71
110 189
281 221
235 282
163 240
30 162
191 65
108 231
164 207
3 59
48 191
135 141
65 244
133 252
140 96
95 28
87 204
135 225
276 261
159 233
181 148
120 181
202 236
113 145
108 154
100 232
156 126
273 115
172 150
191 126
149 281
114 259
181 85
102 61
43 107
134 124
258 220
197 167
278 27
284 166
16 202
260 205
198 240
202 151
21 250
232 180
205 100
157 118
215 134
29 262
11 69
6 117
130 217
236 144
189 46
16 258
278 4
163 37
232 189
180 154
11 196
152 175
125 123
246 95
283 135
113 264
240 223
40 192
177 175
108 263
167 262
202 1
151 53
226 56
53 36
32 98
160 54
241 153
181 3
120 27
38 59
273 112
130 109
59 167
264 33
280 192
74 164
84 265
164 72
131 284
182 59
247 135
187 48
177 256
171 121
154 191
189 57
147 215
148 180
60 24
202 267
192 3
55 3
161 246
189 67
86 252
51 22
114 83
163 186
21 104
35 180
26 113
94 203
259 207
267 71
263 167
58 158
73 83
102 88
162 13
153 269
162 269
199 83
184 235
277 246
198 179
211 261
74 43
155 284
209 20
198 136
237 273
113 155
69 265
236 153
125 5
213 174
228 195
186 47
8 38
160 148
153 147
40 275
19 26
170 162
205 224
53 209
142 104
15 274
14 58
51 178
247 125
142 280
198 105
135 170
71 268
131 132
235 97
56 13
25 46
196 17
98 162
226 152
174 72
227 169
7 215
80 156
206 279
101 189
200 114
40 190
140 102
19 176
13 110
231 222
177 221
113 127
80 49
228 239
15 155
24 26
30 143
269 208
202 84
284 262
81 138
226 12
33 86
138 106
221 203
51 81
157 265
117 233
66 184
218 213
32 195
187 108
237 16
203 122
230 97
209 280
214 21
182 229
188 172
124 188
265 131
188 13
241 88
212 226
9 92
221 64
268 109
264 118
63 143
154 21
266 59
19 88
258 145
225 59
226 21
198 100
40 99
168 80
90 267
130 19
269 39
83 67
266 8
283 134
234 154
117 93
240 24
11 258
16 212
144 16
209 170
56 70
9 65
250 235
143 132
95 190
20 8
83 236
41 145
243 199
218 141
239 270
182 18
113 164
197 84
109 159
158 22
174 96
95 225
161 58
143 183
97 175
247 107
151 181
146 76
278 236
96 215
27 265
132 189
204 178
177 226
283 177
272 196
243 24
158 159
59 71
263 86
273 32
232 102
157 108
255 11
102 156
188 182
175 19
26 180
157 250
173 18
5 262
222 265
38 192
91 17
283 246
71 52
239 43
118 240
21 62
250 18
189 249
64 29
164 241
182 56
100 158
265 111
129 49
164 35
117 114
267 91
244 78
228 59
7 190
259 146
158 202
224 24
229 177
255 34
200 59
277 157
53 284
108 57
271 5
33 197
14 96
234 96
129 209
53 18
181 106
110 141
248 51
130 132
57 4
144 93
171 180
86 196
198 65
258 200
144 12
231 121
284 83
7 139
60 185
181 105
124 42
123 163
202 136
36 130
198 123
230 82
143 18
139 82
192 166
80 212
3 54
75 138
167 33
156 11
154 51
215 251
17 274
219 141
100 43
248 137
189 241
88 77
197 81
91 179
272 149
80 199
229 17
210 146
167 55
192 135
277 140
225 5
255 198
175 135
208 198
170 278
112 213
265 166
266 277
240 243
16 269
153 100
170 27
231 255
171 25
21 268
182 282
106 100
273 263
95 124
193 262
236 273
113 66
243 105
146 40
228 174
239 100
114 119
132 137
212 129
270 89
54 103
3 176
143 273
192 108
90 137
209 36
6 108
184 135
4 111
16 103
274 140
85 148
256 194
92 30
100 135
224 164
227 39
16 277
251 39
31 61
76 137
264 164
163 91
119 90
29 62
156 27
161 185
251 138
83 86
278 120
109 37
13 264
187 173
282 275
33 162
80 91
273 99
67 29
95 234
206 156
13 38
190 113
110 208
21 243
149 210
147 222
239 208
119 276
268 254
55 140
71 62
148 250
258 255
265 16
268 204
267 11
55 69
60 256
32 16
11 92
126 186
68 131
192 154
261 236
80 249
43 111
33 230
138 241
155 254
239 189
170 17
15 256
167 134
130 196
247 132
82 77
179 49
10 48
158 77
216 148
199 164
114 18
193 76
131 59
144 283
223 11
137 82
79 137
134 118
135 38
132 9
45 1
155 38
215 16
273 110
37 82
173 280
162 246
164 8
108 126
45 84
80 185
240 11
71 44
134 172
37 104
65 183
168 109
139 246
281 246
151 130
111 135
229 239
73 190
262 127
179 17
268 118
167 281
153 188
166 67
213 239
27 124
65 280
151 24
196 113
132 265
96 255
213 199
94 244
23 34
129 53
128 103
222 284
214 270
45 199
86 139
87 24
93 55
204 206
32 77
156 226
262 21
259 154
128 113
100 196
233 71
280 227
278 257
271 243
67 195
1 120
169 88
257 139
239 105
20 255
269 91
156 123
138 180
138 243
124 275
9 257
256 161
233 113
41 262
207 182
94 264
261 167
19 89
89 170
150 122
15 187
243 46
261 79
283 195
13 141
175 13
188 167
263 82
273 138
212 243
43 269
210 258
138 271
231 98
244 28
282 148
79 108
62 240
17 22
284 261
26 133
178 38
86 225
187 36
277 75
133 193
19 98
179 204
167 138
38 242
66 6
156 16
247 219
24 73
100 32
41 7
176 24
236 162
139 168
143 9
246 128
101 10
52 138
215 106
70 77
1 277
248 47
47 227
246 255
156 264
1 268
170 204
137 207
146 222
44 27
175 256
162 61
102 188
29 210
208 120
7 284
148 133
282 128
2 260
264 159
251 147
212 191
63 186
46 261
272 236
151 111
207 107
227 81
25 152
166 117
65 179
31 78
226 99
69 270
225 167
69 159
267 241
129 57
216 182
243 41
200 28
16 105
14 131
164 220
111 196
15 81
255 184
1 207
26 258
59 209
158 223
33 150
162 131
80 198
274 257
174 16
196 116
164 268
132 17
113 203
215 139
209 11
208 43
82 22
158 75
132 157
105 157
213 6
114 157
192 250
22 15
49 20
184 86
69 131
238 102
91 196
232 145
83 100
125 61
117 151
139 1
41 38
238 85
131 72
255 257
198 169
273 46
36 168
195 39
16 138
245 177
44 63
215 189
98 69
264 139
192 231
282 112
37 60
86 150
106 260
154 107
182 107
13 213
262 248
265 170
79 53
14 279
141 100
248 164
45 126
239 26
252 256
283 248
272 64
85 3
96 194
206 257
258 253
131 179
180 110
100 52
109 277
78 221
125 78
250 196
135 112
245 247
245 254
134 216
117 74
158 97
1 181
78 29
216 228
13 156
261 262
253 182
264 117
1 261
277 93
138 238
62 173
84 273
210 123
95 39
273 56
217 255
199 129
281 230
169 162
203 98
80 84
283 193
219 203
265 71
116 27
170 58
78 174
224 84
199 108
13 267
81 24
151 260
79 16
234 77
191 79
112 132
36 20
24 22
176 5
167 156
245 77
37 44
90 55
248 280
139 270
160 253
204 225
211 132
10 16
254 258
78 16
274 223
154 136
265 11
196 81
84 72
226 82
73 46
188 235
95 281
240 127
161 110
264 222
119 135
109 228
241 261
229 198
124 212
54 203
212 101
59 211
84 199
207 42
40 239
240 57
32 43
87 80
272 135
137 131
215 276
161 283
55 198
138 109
202 88
79 139
226 168
272 259
198 195
138 114
108 33
205 240
153 82
93 276
239 172
118 80
225 11
80 240
261 138
81 174
252 178
240 162
56 64
94 135
81 193
41 169
204 27
35 73
128 150
262 50
242 32
177 102
191 87
29 182
245 164
140 149
94 136
168 24
251 255
127 198
142 223
9 49
130 159
11 143
102 70
35 26
244 19
92 195
274 202
237 249
33 203
269 248
260 69
216 156
271 79
65 30
108 123
180 105
151 186
114 71
146 86
153 135
254 230
64 253
262 236
225 248
65 120
2 194
256 193
155 121
15 237
152 283
59 61
156 143
101 62
157 141
77 100
47 71
29 27
134 65
107 251
156 231
21 178
261 64
102 99
191 38
245 7
232 165
22 226
244 202
207 199
194 191
270 112
55 54
106 98
124 21
18 166
240 65
100 208
164 126
158 15
78 239
81 78
166 241
127 227
127 169
89 69
212 206
25 160
132 269
227 2
202 183
269 89
86 101
216 100
166 275
192 242
98 56
44 209
244 280
124 256
211 39
220 168
217 152
104 89
32 41
235 128
167 148
177 1
167 182
85 241
221 125
176 177
53 201
7 90
149 231
46 88
108 148
20 81
239 157
8 249
156 239
219 207
65 60
38 67
79 105
55 196
176 35
75 258
35 106
208 77
279 246
181 145
74 188
273 43
191 37
96 128
186 237
231 138
110 15
257 277
39 125
28 146
212 181
62 123
113 105
189 158
11 183
198 107
139 226
130 206
238 121
125 71
268 8
8 60
95 218
115 209
238 90
70 52
7 241
154 270
68 170
276 281
66 246
222 149
15 229
13 250
151 174
56 222
277 220
243 134
132 162
32 59
273 229
69 244
51 10
61 109
160 12
122 207
214 284
238 267
189 181
171 38
55 114
50 154
156 100
262 177
26 55
114 238
257 178
188 64
194 94
20 16
35 95
128 86
7 148
156 59
113 61
33 39
210 43
105 160
93 230
176 66
132 212
159 139
106 156
283 56
71 57
224 14
202 201
45 37
122 105
115 183
8 224
107 10
196 154
33 55
72 212
59 112
242 146
280 182
208 194
53 275
56 262
168 101
273 274
231 83
280 33
255 227
257 269
29 130
216 214
46 246
81 27
219 109
26 88
268 51
266 173
194 15
94 197
242 109
120 102
178 110
209 189
256 208
280 73
209 60
124 56
55 59
71 1
114 97
125 283
189 240
280 283
39 74
19 18
260 126
252 202
258 100
155 215
165 169
263 222
254 219
204 118
143 209
84 48
270 149
33 208
96 84
26 94
246 176
101 68
81 62
239 258
229 194
83 246
265 82
2 16
208 130
172 192
97 3
238 26
148 271
279 1
51 59
239 29
195 63
159 278
277 176
98 131
134 133
74 121
215 188
5 135
98 15
243 112
66 156
255 45
22 53
268 38
243 283
183 278
209 199
157 212
159 176
140 58
282 100
205 129
94 13
135 73
117 253
84 270
128 118
141 210
159 105
237 174
266 71
71 16
193 86
133 12
51 80
236 103
106 132
276 102
202 130
219 160
252 216
21 100
248 241
125 267
212 47
91 248
149 64
52 108
187 198
88 122
212 173
195 186
109 174
269 263
127 17
155 262
281 100
17 126
174 260
259 42
208 131
134 252
145 146
96 114
184 106
209 58
266 257
16 27
157 159
145 247
126 243
284 129
14 11
148 153
141 251
62 187
177 197
268 165
55 107
11 187
150 133
179 272
39 19
264 218
36 220
283 271
250 194
47 116
239 164
225 1
178 100
218 77
64 213
111 256
55 145
255 196
193 113
136 280
40 255
55 230
199 249
206 178
164 154
278 104
273 193
158 156
175 157
173 156
169 125
21 120
257 90
185 69
145 56
267 226
96 154
109 274
66 143
193 248
262 213
275 182
114 252
244 180
168 278
82 239
201 91
29 236
184 138
125 158
120 124
26 175
53 191
232 35
112 272
27 223
241 176
219 263
158 183
241 252
8 83
165 177
171 196
211 78
102 261
60 135
191 139
13 181
80 47
174 95
76 85
23 116
208 16
26 54
35 13
192 5
77 197
250 159
283 268
135 57
173 23
28 284
67 19
17 224
194 84
271 64
115 202
13 127
281 85
182 165
64 174
7 33
271 221
226 172
173 154
11 237
131 106
258 140
56 38
166 105
15 190
36 269
76 19
96 191
202 212
236 179
51 229
196 229
193 152
68 91
14 91
222 182
121 43
182 258
139 64
272 282
211 100
261 264
127 151
242 77
250 164
115 69
43 21
96 16
178 62
197 166
29 81
194 9
192 215
230 156
201 137
218 217
137 26
277 213
84 36
158 124
237 36
7 154
93 222
4 279
89 30
94 125
149 225
207 109
191 185
189 173
243 121
226 239
147 18
249 127
178 57
134 25
204 185
190 52
259 35
132 186
18 16
280 169
152 216
255 183
205 15
269 178
150 140
158 153
35 214
58 278
127 146
20 48
127 272
31 172
83 165
134 189
226 189
166 16
122 50
67 267
79 238
119 181
280 130
137 246
228 16
178 183
225 60
81 229
64 184
277 69
86 44
110 11
72 227
30 53
204 265
20 51
33 106
276 33
38 197
100 76
42 272
203 243
246 21
159 55
153 83
203 252
137 265
26 69
21 277
238 257
84 277
97 135
139 162
19 15
96 1
196 54
144 226
39 192
16 87
87 237
175 190
108 22
243 273
88 98
74 130
7 122
124 184
169 21
149 166
181 88
21 137
251 140
195 109
201 84
26 97
5 174
38 250
147 268
235 99
256 49
131 24
59 74
21 60
79 158
117 270
232 28
83 158
169 282
180 5
283 260
138 199
65 209
118 34
206 17
172 277
197 273
30 34
116 57
108 38
176 215
27 13
114 137
241 263
233 74
212 199
132 191
4 23
253 39
247 70
122 272
191 205
103 98
216 113
162 24
253 150
158 176
12 46
99 165
162 274
252 189
62 196
196 165
162 199
271 263
166 165
87 10
277 94
120 195
169 265
251 243
269 68
116 91
217 200
115 179
62 255
28 219
110 181
212 105
239 247
197 267
201 153
49 240
182 69
277 279
236 147
120 269
174 132
245 239
128 229
3 123
120 88
98 166
73 192
157 176
131 184
11 72
167 114
261 7
104 202
35 244
29 229
192 213
278 23
38 26
107 132
42 74
11 104
103 145
257 99
284 259
78 85
109 108
273 9
146 140
127 282
33 255
215 120
91 8
3 182
53 255
158 233
127 94
36 82
180 71
242 78
211 207
199 175
225 244
189 186
115 18
65 147
87 18
142 17
118 106
177 71
145 75
278 110
124 97
246 132
162 268
73 175
229 37
252 108
8 11
182 164
264 153
2 68
61 211
137 140
118 265
65 104
254 253
106 75
46 283
281 78
257 226
61 108
54 171
235 152
184 216
108 255
156 53
74 67
221 229
150 176
80 140
214 28
246 73
126 123
80 86
108 100
74 93
218 46
239 86
21 15
281 99
32 1
257 130
221 273
53 27
202 260
9 23
247 31
140 10
151 70
198 116
142 47
177 64
51 220
182 109
260 26
167 277
144 231
25 218
65 284
182 250
75 12
82 39
153 18
117 263
255 166
226 72
9 164
252 139
274 283
194 37
195 184
132 177
29 268
109 193
175 211
227 151
78 94
156 197
67 282
124 272
252 237
176 275
218 226
105 22
134 26
123 57
275 28
87 179
100 189
185 57
98 232
252 112
271 282
269 47
128 202
134 29
35 242
282 227
138 250
119 264
70 112
36 21
18 167
19 162
259 195
130 140
269 143
269 134
244 136
265 55
220 8
226 26
270 236
89 224
58 27
84 217
29 71
96 217
59 281
262 151
273 191
4 143
39 280
88 218
26 219
81 139
262 24
118 272
246 265
163 226
175 41
96 39
114 130
24 179
111 179
27 153
117 78
164 15
112 194
230 108
240 237
254 222
97 219
98 210
82 261
98 43
46 1
112 62
118 3
69 154
157 10
66 163
196 252
206 143
235 157
56 277
260 238
135 226
192 127
99 242
112 3
146 216
227 199
107 94
71 212
258 80
158 200
199 159
194 26
97 181
255 151
283 24
284 189
208 140
117 238
261 130
203 244
186 115
232 138
185 84
181 65
256 166
156 208
117 66
15 33
255 262
166 251
280 64
66 16
252 119
202 177
35 54
109 19
33 105
29 162
89 206
265 60
81 205
183 206
108 42
92 178
236 176
3 33
243 166
197 19
257 84
75 15
58 280
278 91
193 111
225 153
118 179
7 123
199 284
211 1
155 156
10 49
28 166
229 66
151 269
1 103
225 109
137 105
167 284
242 123
279 30
49 156
56 95
73 118
277 249
199 117
132 80
55 239
79 264
92 209
41 33
35 141
21 3
73 257
44 130
24 66
223 163
64 275
182 158
70 107
123 172
258 112
282 265
10 268
84 280
263 121
193 137
3 257
268 112
136 229
153 113
283 77
260 182
176 70
233 98
96 139
71 206
188 283
157 241
63 47
173 246
164 138
190 100
208 266
277 208
62 118
202 73
222 272
184 119
26 71
252 67
247 210
267 79
52 117
274 191
217 182
96 100
8 127
67 217
103 253
110 106
53 39
50 147
208 169
252 217
260 55
278 153
284 114
91 83
116 274
31 200
151 1
181 28
166 230
278 45
156 135
224 132
32 107
110 18
250 1
161 83
102 254
123 274
145 253
260 207
109 161
91 111
135 44
218 238
247 76
38 95
244 59
126 53
93 128
159 218
262 69
278 187
74 184
190 153
110 104
30 116
99 247
32 175
73 7
195 258
83 27
189 201
140 48
200 119
116 202
64 252
246 61
190 137
207 28
45 48
273 172
153 57
57 22
73 50
248 263
253 246
66 241
202 143
204 15
55 6
173 44
268 103
94 188
15 180
3 232
215 97
176 271
39 232
243 90
52 184
56 156
158 239
114 162
231 59
71 255
194 86
234 13
223 4
206 10
237 257
134 177
197 157
91 92
38 255
147 138
139 70
283 10
202 101
4 225
241 273
189 177
14 105
105 55
32 125
56 221
42 226
65 13
244 98
210 174
34 68
97 108
33 99
283 19
196 96
205 277
52 109
255 61
271 156
38 163
168 49
108 269
239 7
97 270
55 284
182 19
110 118
142 156
239 112
178 161
275 262
120 105
17 2
1 13
32 199
23 257
89 15
35 254
142 183
23 205
256 204
120 151
181 211
207 281
98 13
186 156
188 267
98 21
101 140
258 199
256 187
207 156
166 24
79 120
156 153
83 151
162 103
250 218
122 250
172 26
12 78
142 174
248 206
250 263
194 223
117 26
255 49
33 73
194 127
194 32
141 90
218 184
33 184
161 240
149 219
183 195
283 210
4 226
240 109
36 34
252 38
113 40
122 15
273 198
23 66
186 265
141 83
66 275
37 189
49 153
260 181
162 211
283 214
220 108
192 96
91 226
191 179
202 51
112 119
204 269
35 32
228 19
269 4
72 178
167 54
275 245
117 197
89 71
36 161
76 5
3 272
47 143
273 65
229 168
209 132
135 23
244 3
226 233
28 134
124 86
53 10
72 205
65 194
148 215
187 195
189 182
245 219
41 164
38 40
8 65
164 88
87 96
284 253
189 13
281 125
246 125
117 239
44 18
81 67
280 237
181 215
259 40
248 60
182 271
189 156
138 131
159 252
112 267
284 208
16 108
24 53
166 215
243 178
200 151
225 157
265 173
246 79
146 119
10 199
204 162
203 261
70 135
10 186
48 27
263 138
124 228
11 51
133 25
243 196
198 201
189 159
118 65
136 247
71 139
84 130
9 142
128 138
224 47
284 109
138 270
241 200
141 3
272 239
25 13
104 196
214 247
111 71
245 184
247 139
238 94
250 214
242 215
16 131
224 107
129 48
135 37
171 41
284 21
136 234
111 243
256 2
215 81
266 212
248 184
123 266
190 259
125 97
175 272
127 183
235 133
25 221
21 71
48 183
91 71
126 47
20 27
159 155
39 242
263 81
238 131
113 197
206 19
131 140
163 111
55 281
103 254
128 108
202 187
175 85
28 273
102 85
162 119
272 229
56 267
114 254
109 213
268 258
143 89
61 52
212 195
42 78
267 116
135 82
283 81
185 268
214 106
65 265
35 270
112 203
200 76
40 1
143 201
81 8
125 250
162 78
23 82
268 173
34 280
59 275
193 232
13 192
129 2
67 3
210 107
177 112
206 193
175 121
205 162
43 226
199 240
50 29
278 196
177 164
278 268
273 88
11 16
260 27
278 14
146 150
195 70
268 151
51 65
131 139
112 15
89 129
160 102
16 176
237 51
257 46
197 67
166 257
148 127
71 39
71 120
203 86
85 128
244 153
144 55
253 109
235 190
156 46
93 25
16 175
283 85
99 125
194 255
167 175
259 50
181 175
248 149
260 273
75 85
114 235
257 260
27 194
54 270
252 174
149 77
77 174
27 187
144 188
224 126
282 146
68 51
195 185
55 32
149 136
55 264
118 184
135 52
68 111
1 257
191 51
156 21
89 123
140 39
26 164
106 227
26 192
15 215
81 89
196 181
161 101
176 261
258 215
279 47
255 248
203 270
250 281
87 4
151 264
148 33
210 41
158 212
152 215
97 196
168 66
272 138
235 144
69 110
55 7
278 201
243 55
107 89
85 284
112 99
283 31
177 82
229 197
164 227
134 277
220 240
168 262
134 84
151 103
212 163
100 162
35 16
260 33
91 104
134 214
81 208
169 229
207 275
15 172
268 70
180 140
11 249
206 191
120 50
255 123
208 206
174 197
131 240
114 31
108 19
210 97
272 13
65 80
41 247
176 184
174 148
126 212
54 102
135 197
225 89
107 90
184 203
140 255
237 80
113 137
18 220
58 205
38 9
283 130
178 189
177 253
227 30
9 170
29 284
151 226
48 91
41 277
89 262
132 129
186 179
149 190
258 161
126 80
81 258
47 194
204 111
59 269
83 138
218 99
20 237
153 205
214 195
236 6
24 83
27 91
69 224
261 125
7 5
227 87
152 146
121 54
273 114
196 137
277 92
14 17
195 261
68 187
104 204
231 159
252 277
95 216
118 163
199 225
98 135
106 166
82 251
256 142
267 21
240 229
167 180
3 106
277 212
248 194
185 59
211 25
71 72
30 91
83 267
160 29
69 22
132 127
90 78
238 71
180 132
97 112
282 181
252 127
166 132
43 77
132 205
227 20
238 84
53 92
108 196
284 124
118 262
142 267
129 69
57 248
172 250
128 182
194 280
12 81
229 123
36 252
239 5
105 257
46 146
6 29
18 131
184 219
243 242
202 264
30 260
283 34
77 214
244 282
235 174
277 203
245 176
28 133
157 271
204 252
139 263
244 194
190 243
114 69
198 248
235 258
232 207
184 267
252 250
151 203
158 281
249 201
192 151
271 123
48 18
111 128
3 99
197 137
185 252
57 118
270 131
68 10
170 195
143 10
166 261
256 134
72 199
269 130
161 17
272 164
179 225
140 21
171 152
196 208
38 159
67 136
19 1
231 117
246 29
5 233
235 253
196 258
189 9
29 56
245 147
173 2
223 267
98 270
271 277
213 54
80 257
210 245
79 174
65 101
253 125
29 175
65 236
284 140
83 16
201 269
124 214
153 9
69 116
76 99
2 201
71 189
63 9
262 96
123 139
135 118
259 16
21 79
116 199
24 260
30 278
126 278
103 122
241 84
268 269
83 242
89 141
86 52
264 160
257 199
136 284
21 274
207 117
44 20
162 166
125 3
269 128
112 77
251 118
192 211
72 129
241 141
146 200
141 258
69 34
65 140
271 229
280 1
174 1
1 33
59 239
197 110
15 93
257 227
9 278
154 181
268 208
118 189
157 75
127 111
172 113
61 65
264 123
94 280
25 248
34 53
262 211
248 189
149 83
90 177
39 263
162 91
65 166
20 107
89 182
201 142
142 173
71 183
36 111
23 142
256 174
199 153
77 31
252 7
83 63
99 263
275 172
45 178
211 169
66 157
67 255
98 132
80 2
240 108
9 87
33 233
268 73
68 260
230 122
208 22
185 2
27 89
243 31
277 27
141 215
54 151
249 187
28 78
147 25
198 8
11 195
130 93
166 127
105 214
228 199
159 254
175 254
147 7
138 69
209 13
106 56
100 117
158 276
10 33
252 71
137 229
80 201
163 120
242 26
235 59
156 151
283 196
269 10
112 180
114 247
106 99
89 280
140 127
153 72
28 99
143 14
104 38
85 133
180 152
32 76
264 257
241 180
107 240
269 17
26 188
129 262
241 181
146 148
114 241
12 182
174 176
255 79
123 140
133 259
68 20
52 253
218 276
107 277
84 91
263 128
174 86
64 114
139 53
119 56
229 180
207 77
66 132
204 72
15 151
10 187
15 11
226 187
256 274
199 219
74 85
243 40
172 243
265 122
263 83
80 8
185 143
236 139
93 35
144 222
160 169
128 147
101 20
239 64
75 215
131 206
158 187
250 283
175 114
193 117
56 148
131 258
222 82
6 26
212 143
186 142
199 154
162 254
148 261
164 116
199 201
243 169
123 227
265 176
175 54
156 284
36 236
176 135
277 52
93 243
74 244
162 189
169 174
57 161
55 73
37 15
280 261
169 85
283 120
90 264
206 240
8 58
18 198
199 110
258 260
179 278
263 164
180 153
147 157
226 64
108 189
80 15
146 153
124 106
229 46
107 272
257 265
167 238
267 185
253 281
114 81
188 75
2 11
139 174
5 195
178 168
273 97
8 48
214 222
109 256
203 231
259 245
168 135
125 257
106 261
196 231
246 62
249 272
160 172
171 232
218 94
183 22
63 116
177 128
202 188
56 112
231 66
151 87
248 94
45 108
114 125
162 252
65 34
164 66
231 251
279 84
154 241
256 179
108 258
229 192
2 168
24 208
258 175
16 137
94 86
92 116
282 211
249 268
142 143
236 33
269 21
281 157
283 79
197 29
110 195
20 142
141 95
175 226
262 73
214 188
203 144
113 50
201 62
4 140
1 190
264 144
215 262
257 70
204 278
1 235
182 251
54 127
25 244
9 277
236 168
273 11
137 234
1 232
107 189
78 88
140 115
128 67
224 37
197 259
57 51
80 9
139 207
157 67
20 83
188 177
265 161
32 262
224 273
185 14
225 215
55 157
248 111
179 22
90 263
2 223
36 11
92 224
22 4
243 179
243 137
35 28
264 246
238 230
43 282
228 232
279 66
68 89
118 44
255 239
34 10
155 133
86 208
1 148
222 245
265 96
248 27
151 204
176 98
151 195
63 158
228 121
70 258
136 243
207 66
102 33
12 238
54 232
39 158
166 138
235 199
86 240
174 138
17 80
227 237
156 138
259 43
109 124
129 131
168 260
242 16
274 163
119 15
159 28
29 26
113 265
196 65
184 112
157 276
207 268
193 146
147 94
154 193
71 217
1 159
265 147
159 96
86 25
73 229
197 26
170 130
217 238
90 193
159 140
130 14
277 119
168 202
201 8
264 108
37 279
126 63
33 94
206 11
212 11
143 205
34 100
240 92
192 284
69 71
217 157
96 81
208 117
158 104
226 246
56 265
157 107
141 93
25 77
199 105
149 113
94 199
211 98
124 57
84 196
161 69
215 194
143 110
229 215
272 161
134 59
250 188
72 262
152 203
45 127
248 192
197 66
30 44
169 90
14 191
259 109
72 98
150 117
153 175
32 159
126 256
101 246
156 214
93 262
182 108
111 9
195 201
131 272
19 207
114 59
244 76
171 255
140 105
241 162
217 184
24 11
195 236
273 107
223 206
177 26
148 166
280 86
84 127
131 73
108 17
22 258
11 17
160 28
99 160
206 14
15 87
174 263
93 284
186 86
61 100
196 64
78 188
257 126
202 70
87 140
86 82
246 30
17 81
181 168
255 159
196 217
127 228
265 194
164 49
243 225
82 156
168 108
43 193
213 210
18 237
272 201
138 193
177 97
195 140
267 187
251 252
192 271
104 258
267 240
266 164
74 13
206 108
209 105
246 107
277 159
136 75
237 173
216 32
83 84
63 65
262 94
220 283
13 53
70 263
160 75
195 282
243 33
211 139
51 132
93 217
176 114
217 122
274 91
9 130
256 92
176 259
210 19
155 135
248 242
154 19
134 248
46 253
181 150
231 208
46 184
276 181
8 142
226 44
278 202
48 118
97 90
127 71
156 128
142 45
89 278
126 115
187 89
275 229
116 62
82 195
221 265
94 89
105 246
77 41
282 42
233 122
61 263
223 57
89 239
21 182
3 146
267 198
263 225
5 86
206 9
261 136
253 245
234 102
142 178
202 33
273 69
186 57
176 31
118 15
176 140
280 174
257 189
194 20
217 261
115 80
183 267
238 27
227 112
6 145
110 193
131 29
117 167
46 120
134 188
110 204
221 108
244 96
114 217
42 5
164 156
102 262
52 283
50 247
73 231
93 119
43 267
242 88
268 219
268 6
71 106
140 125
200 125
66 68
109 147
269 158
137 154
225 69
137 283
229 248
142 187
106 52
35 255
214 31
23 209
216 196
3 273
71 162
88 256
252 264
162 26
132 251
191 130
126 174
159 51
211 222
162 17
199 30
223 59
140 107
181 272
182 94
148 99
58 220
277 178
120 110
180 120
271 154
112 250
125 213
203 56
137 151
118 92
32 110
63 123
141 253
48 34
273 127
146 172
58 37
67 258
211 120
136 238
158 9
122 148
253 190
59 104
100 10
220 243
55 273
169 100
2 84
88 157
98 190
63 258
88 145
125 180
191 8
176 229
282 102
174 277
119 21
34 268
82 208
175 197
132 58
107 127
154 236
96 252
256 72
268 267
53 267
246 55
241 238
176 171
71 153
281 139
23 202
194 136
211 241
124 176
218 86
6 164
268 11
144 174
261 277
106 41
268 256
270 262
257 124
93 21
266 178
264 74
1 234
272 163
227 208
16 243
211 284
32 246
260 81
14 163
226 253
151 242
260 280
79 257
277 91
158 272
246 93
216 1
140 209
272 230
157 109
270 86
159 78
17 256
55 215
24 275
235 155
86 29
48 201
180 29
224 20
40 242
236 205
140 233
145 25
73 98
72 108
105 173
232 253
227 143
224 59
153 149
16 199
10 168
262 238
241 100
123 49
238 222
174 19
248 110
53 57
128 74
138 29
80 204
190 125
48 206
24 111
248 100
198 120
21 123
212 62
36 164
282 120
258 265
29 278
165 162
175 79
268 36
1 105
41 121
280 63
163 101
265 15
276 147
107 26
120 259
14 1
192 195
123 241
251 7
206 53
127 158
255 15
136 176
268 277
50 228
114 6
141 164
103 73
111 87
88 105
114 89
8 132
87 17
270 227
232 93
131 266
267 264
227 209
172 121
105 109
161 49
195 150
120 168
132 204
272 126
25 125
127 281
225 189
221 3
150 74
127 266
129 186
140 151
62 277
128 280
250 211
164 105
192 167
276 273
270 121
181 43
150 75
266 34
278 248
22 224
158 226
107 68
17 115
114 277
57 191
76 147
12 275
23 8
240 68
222 180
190 99
268 175
284 157
211 74
278 161
124 282
131 220
209 237
148 159
153 274
176 75
280 13
206 37
254 218
233 216
262 12
264 241
221 276
66 240
34 8
219 114
24 84
284 225
262 280
212 123
193 255
220 248
284 72
57 187
88 144
17 260
121 213
59 261
248 179
27 10
15 238
49 260
3 269
265 108
13 83
276 231
103 152
106 207
277 226
116 268
158 152
217 1
22 198
137 186
173 116
98 140
26 42
53 104
272 280
248 125
74 3
76 7
193 19
155 50
220 209
252 193
212 267
267 115
88 1
167 105
274 81
28 66
106 254
166 33
252 253
284 270
96 57
248 39
266 58
118 141
84 71
10 223
202 148
184 25
177 133
61 164
271 76
177 117
267 270
120 245
277 28
238 258
193 93
232 120
63 21
196 151
262 260
54 192
216 35
44 110
8 236
32 238
7 28
101 22
127 48
96 197
197 160
93 228
120 147
182 106
255 102
128 166
123 107
171 213
273 257
6 113
174 182
20 277
184 40
229 279
73 212
92 65
23 206
120 246
49 72
38 262
76 73
16 251
275 235
199 176
190 216
115 142
109 90
257 100
207 43
57 128
2 140
168 68
125 244
158 106
270 148
271 105
256 136
73 130
255 83
245 128
251 21
135 196
105 4
43 103
130 215
118 203
261 196
209 86
276 73
116 80
196 52
46 124
268 130
244 277
105 178
153 96
43 124
168 91
111 89
72 248
1 43
9 37
237 206
96 117
214 122
5 127
1 62
221 165
278 79
188 93
158 4
268 105
5 90
190 108
257 262
283 66
132 273
96 246
196 235
197 250
214 146
21 150
235 233
88 210
227 79
66 119
52 73
51 63
147 213
192 241
278 115
258 119
4 186
114 280
170 111
76 103
166 227
249 227
38 3
214 257
120 69
172 211
265 92
66 244
280 23
16 53
232 154
110 53
84 52
62 224
109 112
229 127
4 69
11 84
28 265
179 168
3 259
272 246
102 75
84 33
264 215
72 65
208 44
131 269
108 60
255 139
213 219
153 265
208 69
284 154
86 56
21 187
165 40
163 249
167 157
165 225
19 231
124 26
79 78
209 266
69 141
101 159
148 269
127 19
99 25
79 87
270 136
105 262
246 155
151 23
223 18
146 246
164 117
118 130
78 258
98 219
202 154
59 249
65 174
111 167
203 197
80 58
29 97
127 190
41 42
180 260
241 33
158 120
68 164
86 129
117 280
154 156
181 114
211 138
208 157
57 174
109 276
120 45
174 38
184 193
202 257
31 195
194 107
197 122
170 15
127 175
25 113
21 244
166 96
151 143
224 154
36 257
209 182
277 248
64 251
21 179
245 26
246 56
272 143
279 69
232 127
223 258
164 23
215 239
242 162
149 277
12 228
13 172
221 259
159 239
2 178
164 150
166 245
258 134
91 58
278 111
5 259
17 240
212 128
265 17
56 193
136 233
20 53
248 218
208 183
201 179
73 157
251 229
283 104
238 140
177 228
189 243
104 243
105 226
231 32
3 284
271 106
215 259
54 268
109 27
206 127
174 101
93 148
24 223
181 248
16 8
234 155
237 22
248 153
267 137
42 122
65 27
176 13
4 187
12 42
57 101
112 248
15 44
132 196
56 207
144 166
45 63
227 69
23 11
82 224
30 201
131 53
231 89
173 21
151 136
194 130
245 52
225 238
251 137
265 210
246 269
264 265
29 272
159 39
208 201
53 66
125 284
19 280
67 175
177 156
109 33
70 83
64 199
135 231
100 26
267 81
118 156
189 88
147 69
150 125
118 81
79 268
223 86
57 111
76 167
209 187
98 151
267 46
38 224
58 107
212 33
26 122
189 260
250 39
230 221
262 3
45 72
21 241
82 128
133 78
104 212
108 215
208 4
233 132
260 39
206 255
123 100
229 269
260 10
88 95
184 257
105 132
173 71
268 56
176 244
132 163
268 156
130 63
123 196
84 109
123 68
270 39
11 27
208 55
137 96
239 252
92 105
28 102
237 10
101 154
210 272
50 136
29 117
123 115
74 281
64 246
129 84
197 70
142 10
136 105
238 141
166 79
280 236
133 149
25 199
41 222
257 39
8 174
79 81
129 252
174 90
162 184
260 274
128 214
79 212
232 146
50 222
89 193
89 131
177 88
268 182
96 204
94 83
208 275
66 110
27 106
39 114
136 193
284 138
132 169
15 53
201 187
243 84
273 38
21 131
231 70
73 137
89 184
255 271
264 150
180 243
106 278
28 122
256 128
68 265
102 229
86 20
236 231
50 152
222 197
255 153
29 132
241 171
26 139
111 272
39 138
106 19
12 222
199 241
284 42
273 230
109 91
36 205
254 46
56 137
153 20
265 102
37 185
257 256
111 236
128 231
184 160
171 251
263 88
89 157
7 258
170 60
241 70
284 207
199 262
67 89
174 103
154 226
55 251
43 255
61 260
83 43
1 233
197 241
272 56
135 78
50 192
19 38
255 48
182 166
64 94
124 135
251 139
8 173
230 128
82 242
61 64
224 142
280 256
77 154
189 263
124 262
281 1
264 140
247 16
28 119
78 71
127 63
46 141
151 198
197 169
80 22
8 49
147 112
16 273
258 55
2 23
143 72
251 245
137 38
53 60
273 252
217 12
13 135
54 155
280 72
12 38
119 110
241 280
165 159
144 284
33 188
130 108
110 107
65 1
101 256
146 175
146 78
152 98
253 169
255 211
140 43
68 162
105 15
266 278
206 264
69 237
74 158
176 190
123 83
257 191
237 162
234 56
134 67
110 74
56 215
13 66
144 21
228 271
177 200
36 63
181 166
180 245
29 226
100 256
164 230
127 11
235 32
169 140
232 13
157 24
230 263
167 146
248 182
230 98
162 150
187 127
149 1
62 191
193 95
26 158
284 108
266 65
173 278
222 136
44 58
244 162
107 192
283 211
280 75
236 110
15 66
20 274
120 24
103 263
66 38
130 11
210 150
240 156
74 141
168 187
84 107
163 24
183 57
186 257
209 123
27 2
39 229
54 150
60 198
248 196
185 20
108 225
110 112
61 84
11 62
78 252
88 128
123 114
35 268
137 100
42 73
207 118
265 146
169 59
277 110
14 205
242 84
154 145
30 20
54 139
202 193
229 9
269 27
280 153
257 147
9 51
62 138
193 175
258 115
176 160
164 101
91 21
214 119
61 5
73 258
44 256
132 141
107 79
257 205
267 158
227 86
164 2
153 93
161 111
157 238
180 265
15 267
229 140
268 97
56 180
168 255
194 260
32 61
119 233
88 231
42 277
148 230
153 144
75 241
65 19
51 116
113 75
97 267
122 218
206 202
67 138
248 231
131 124
259 160
277 37
188 66
66 105
226 140
191 101
141 203
105 149
179 51
277 103
37 81
166 267
159 265
182 65
136 83
210 90
55 83
121 109
142 116
246 214
159 91
18 120
148 52
138 107
160 128
227 80
114 227
38 214
89 135
69 282
126 187
111 223
213 280
40 61
264 25
39 66
112 66
140 266
58 139
177 198
133 261
235 3
92 68
79 147
235 82
138 162
258 202
199 53
250 79
174 150
13 72
124 177
277 155
34 80
214 43
58 189
121 5
272 79
156 174
119 259
167 174
165 39
19 250
259 162
190 121
220 118
233 13
97 128
191 34
142 58
240 87
89 243
159 251
236 28
231 211
168 252
238 221
115 135
164 33
60 34
52 153
122 77
30 109
195 157
233 252
20 129
64 158
56 19
136 235
76 213
192 174
176 175
100 94
70 94
276 90
79 266
149 180
94 61
270 7
129 10
166 155
11 132
179 44
106 199
172 140
177 84
271 239
35 123
99 207
101 198
110 261
58 86
265 81
272 81
283 236
64 156
249 129
15 8
251 149
21 128
234 39
168 57
156 229
279 135
179 34
159 48
51 277
102 230
169 242
274 159
100 188
82 55
227 33
243 158
76 232
219 64
282 12
164 202
140 216
53 168
38 243
31 56
262 146
134 272
105 213
40 150
7 67
42 258
2 266
164 183
196 129
158 133
182 110
76 38
248 221
68 159
77 38
191 80
137 121
119 39
24 187
248 79
61 180
147 27
172 283
218 222
13 202
23 108
73 29
103 238
123 34
70 162
20 96
256 260
270 207
83 192
92 80
275 140
127 164
281 135
71 80
237 34
110 159
148 219
251 239
275 268
73 195
3 162
133 1
173 129
128 207
134 90
97 264
72 260
114 148
11 157
219 272
125 239
141 88
74 69
79 9
226 276
229 70
51 278
82 219
100 238
201 49
13 273
277 14
177 193
256 162
43 236
47 10
244 217
156 228
222 169
59 161
188 72
91 130
215 238
153 101
221 100
243 184
14 227
34 223
38 170
158 225
127 15
91 189
169 192
252 131
21 78
80 20
73 81
233 56
182 77
265 207
252 30
189 39
134 107
277 232
245 172
194 153
111 164
62 128
263 46
111 62
33 263
208 65
166 1
11 266
194 209
126 161
183 198
207 159
77 98
123 116
95 70
162 2
255 157
241 42
67 154
257 187
270 253
250 127
55 71
136 1
85 12
78 83
15 193
180 256
154 198
67 243
136 108
269 182
188 55
99 139
236 93
151 145
41 28
229 184
177 66
86 173
84 246
186 118
105 156
151 273
223 170
184 210
214 234
277 40
8 62
88 243
132 193
234 117
84 272
215 77
50 125
26 72
229 244
217 64
269 61
260 157
168 126
86 61
229 152
36 154
207 140
99 219
27 224
269 110
202 32
43 154
265 86
130 189
275 6
168 163
225 221
273 219
35 29
158 135
86 277
110 256
224 118
100 280
15 275
61 190
143 65
99 41
199 51
181 26
93 29
69 9
200 154
204 240
49 202
173 115
139 241
34 91
48 71
199 135
43 81
215 226
238 242
194 33
201 205
255 260
134 176
280 175
165 144
267 204
113 15
77 83
206 22
163 183
191 116
35 144
135 257
101 227
59 130
207 114
273 53
282 213
46 21
122 33
56 165
164 82
52 214
132 27
117 81
114 46
151 277
88 106
183 191
102 59
171 15
12 112
34 154
158 66
124 182
273 207
82 28
66 161
182 195
41 242
89 78
132 73
57 49
107 67
130 69
190 83
23 38
146 50
125 199
115 2
246 271
38 198
193 49
74 219
134 82
66 226
265 62
100 193
216 141
251 73
80 179
34 227
232 77
283 156
58 162
157 117
208 87
199 43
245 193
81 34
142 37
238 194
65 17
278 2
239 148
273 268
157 69
168 205
3 167
255 59
4 83
96 257
184 1
281 5
227 107
198 87
280 124
58 137
14 132
218 241
181 42
117 244
11 189
116 154
35 248
159 81
217 88
192 193
166 246
6 245
174 272
272 114
157 79
157 166
80 274
137 3
109 171
118 197
105 202
19 27
112 196
205 86
13 147
96 229
115 34
138 257
232 238
248 37
192 16
19 242
217 16
124 82
89 84
229 120
166 277
192 276
107 166
159 47
269 203
221 128
204 257
265 73
109 81
146 25
137 138
175 117
71 278
211 153
83 277
142 60
25 254
31 94
128 167
144 213
94 16
55 39
66 182
105 282
237 143
178 4
212 109
86 102
162 67
59 236
11 34
233 124
79 205
81 195
21 204
224 187
201 110
255 81
83 181
65 49
106 72
273 272
194 178
264 147
264 228
109 35
157 57
248 236
71 269
209 108
81 210
70 238
143 164
79 123
89 233
19 168
233 59
242 66
249 72
111 266
114 158
273 86
224 23
19 33
241 165
204 186
92 268
208 23
84 259
151 57
256 167
282 251
69 107
22 248
188 136
181 167
137 35
72 138
138 86
192 89
170 65
125 95
125 81
209 62
105 193
151 114
244 55
253 155
227 229
93 5
275 151
106 233
215 86
59 140
48 265
184 7
197 13
189 55
135 125
240 142
75 221
185 187
258 56
151 116
269 126
260 58
105 205
205 131
54 98
2 240
26 283
63 206
13 5
33 53
25 167
137 163
182 226
213 42
97 226
219 248
56 3
125 89
10 4
141 282
139 60
65 153
160 112
32 94
167 74
250 167
252 84
128 188
251 218
5 107
54 265
18 20
53 23
141 56
24 45
265 215
267 70
255 111
235 90
35 82
186 120
226 192
174 211
42 233
7 78
61 215
91 51
197 238
73 6
68 223
27 73
211 239
148 188
106 265
27 154
251 6
34 249
157 131
93 149
256 236
29 259
274 272
226 157
246 65
65 79
38 145
218 151
169 216
105 111
26 213
57 206
231 136
158 33
54 133
123 61
86 167
168 60
36 83
112 200
8 111
14 111
170 59
118 275
5 193
268 177
76 153
103 284
34 185
54 86
54 225
166 82
105 211
85 140
176 46
223 220
167 199
222 257
243 260
201 267
205 274
124 215
217 133
2 252
78 122
202 170
211 31
142 278
185 212
22 1
60 30
213 77
183 135
203 242
96 29
127 256
136 46
221 38
95 247
21 92
43 189
91 186
235 200
181 132
55 236
199 224
100 48
199 156
189 247
32 79
280 252
158 277
188 260
29 217
246 212
59 262
8 168
268 203
73 145
151 201
109 99
102 3
157 207
160 43
97 85
267 143
255 9
28 86
238 158
41 70
174 196
242 119
226 128
262 27
12 207
248 203
138 82
119 83
226 237
177 233
256 206
55 158
189 63
137 141
5 273
165 207
177 250
238 99
223 178
229 174
275 164
15 79
150 248
260 191
248 74
256 250
38 284
262 138
159 244
199 127
231 112
137 22
108 162
18 161
199 67
94 73
233 160
43 64
35 66
70 119
36 129
123 174
265 24
166 176
219 119
243 110
189 62
194 53
236 135
16 9
160 124
221 172
120 202
255 241
81 275
173 30
62 284
164 149
75 97
212 115
195 53
36 240
265 2
83 235
15 278
37 2
160 146
265 171
272 212
265 216
70 110
43 13
182 97
43 166
254 55
16 252
258 153
38 33
18 262
99 103
80 129
176 26
130 274
61 110
246 247
147 93
158 195
138 157
162 10
46 264
284 10
164 242
241 175
202 37
167 69
211 134
253 172
222 230
112 246
229 106
84 114
225 13
47 206
249 63
273 181
82 26
118 248
169 105
21 168
8 18
19 29
273 80
208 92
148 193
1 35
246 270
97 151
147 3
8 158
110 135
66 282
21 127
109 208
169 79
132 43
61 159
208 262
161 260
226 170
89 246
13 85
252 72
224 79
138 136
26 265
257 37
77 271
246 257
155 43
130 209
94 251
202 138
47 62
67 95
54 85
32 284
208 20
231 230
71 279
268 148
204 107
265 53
107 159
69 256
77 231
197 190
178 96
234 76
154 15
62 20
199 49
48 80
172 189
9 269
41 6
128 131
247 90
143 87
53 83
165 154
106 105
273 232
252 260
117 172
37 18
175 57
246 15
172 165
95 235
57 60
278 44
107 220
216 133
249 209
128 134
283 15
110 242
105 194
94 236
211 244
85 5
225 116
109 216
193 205
154 242
241 193
144 114
246 266
242 159
158 32
267 164
248 101
131 70
73 234
272 16
37 256
219 102
100 270
103 109
220 9
135 84
120 58
258 236
266 15
190 77
58 100
241 226
72 124
131 33
81 186
24 205
42 25
229 118
243 56
199 90
156 181
182 55
236 245
204 137
139 140
204 195
95 151
283 94
267 9
140 100
162 167
222 38
175 219
132 256
257 115
74 242
147 83
211 131
247 61
112 226
145 176
131 43
66 162
109 18
115 164
146 219
20 191
134 166
159 270
15 82
139 269
237 23
161 153
39 57
30 274
22 209
89 208
178 84
257 251
248 62
180 52
79 172
120 96
20 201
210 85
35 213
103 210
191 178
197 64
2 212
280 210
157 262
173 10
278 34
195 48
138 71
139 243
162 48
71 220
263 217
38 129
3 250
13 258
260 71
183 137
127 74
39 226
83 233
227 136
75 100
151 248
211 158
246 135
201 81
172 263
279 49
222 43
270 77
180 175
65 275
61 132
167 118
145 95
204 18
214 66
265 80
53 189
40 226
148 19
283 136
2 159
234 174
122 25
97 159
142 277
76 165
44 36
156 124
237 8
225 144
100 151
24 27
196 268
243 99
244 169
127 57
146 16
167 19
8 4
110 126
248 8
264 5
18 251
148 154
16 160
162 207
225 206
148 79
209 9
124 252
73 117
173 79
100 138
145 120
108 262
194 196
225 136
24 284
202 256
251 113
43 69
66 81
185 115
188 241
96 274
55 197
126 279
36 183
203 77
153 89
15 212
156 67
187 118
136 269
224 66
18 22
9 66
274 249
88 238
135 193
226 84
19 164
143 115
42 105
144 230
124 149
88 131
277 133
110 237
280 60
283 82
208 237
269 279
89 10
246 199
257 58
125 195
107 130
164 65
108 256
82 257
129 278
227 189
262 162
62 96
199 283
69 72
180 233
100 176
245 98
70 182
208 138
114 212
214 241
271 108
5 139
62 49
230 239
214 61
169 277
218 171
243 191
198 178
103 146
121 146
162 239
73 208
273 117
80 69
57 137
21 29
225 93
43 174
60 9
272 231
77 99
195 224
19 248
4 37
23 130
7 61
39 108
157 148
262 202
111 116
241 18
143 43
263 196
55 29
167 212
280 49
59 85
258 124
265 52
192 268
159 221
47 183
250 41
242 98
38 126
119 94
205 116
76 152
203 250
227 162
205 118
4 104
50 182
96 83
171 76
146 270
279 256
80 57
19 267
257 233
258 273
264 217
165 46
109 173
59 221
273 169
203 97
225 107
194 257
275 210
24 257
135 39
215 233
117 61
74 273
260 192
149 246
64 121
21 85
226 16
164 11
56 7
243 75
60 18
19 77
66 56
177 269
14 168
129 14
142 80
198 189
109 66
35 3
178 202
88 39
70 64
192 159
47 1
118 170
83 81
186 9
192 254
119 109
24 212
183 84
116 38
252 73
163 110
144 189
53 212
209 268
111 154
228 96
96 24
274 111
203 139
53 111
130 223
251 222
68 27
103 85
5 258
231 81
99 158
86 105
81 105
265 200
219 132
219 140
184 13
236 224
88 226
25 26
263 75
120 272
63 260
205 8
40 169
135 83
178 34
27 162
284 86
34 20
157 84
272 186
97 88
143 258
200 236
136 123
208 260
165 121
116 209
91 22
115 205
251 188
210 153
19 24
229 162
248 251
27 161
82 7
41 151
26 156
31 40
270 242
37 107
260 67
233 227
114 164
128 162
186 130
244 40
150 59
284 215
31 32
188 166
157 234
37 208
46 164
254 96
246 215
142 86
52 260
49 142
49 11
5 75
48 249
89 194
5 32
23 123
205 30
259 157
26 257
195 127
147 283
31 103
159 83
246 108
174 63
199 198
197 192
34 142
3 219
259 134
142 163
198 196
97 255
88 109
111 138
68 69
27 92
87 27
111 18
207 32
221 176
192 251
88 52
82 84
85 276
224 131
235 244
223 51
127 270
258 135
260 134
274 209
15 140
143 225
236 120
275 153
88 236
166 158
138 118
102 258
102 149
130 160
130 255
20 110
15 101
166 72
13 270
143 15
85 216
221 241
172 219
146 192
68 143
77 272
96 268
5 153
233 26
284 61
88 76
193 247
24 82
216 229
119 250
157 258
98 113
98 5
122 95
176 96
265 209
249 269
274 101
156 258
119 75
94 174
284 242
209 176
187 22
193 275
220 205
234 226
22 92
8 161
231 79
82 41
120 125
77 202
160 162
255 228
84 189
81 245
119 238
43 106
248 21
111 201
12 103
247 162
199 120
64 160
130 251
180 109
72 47
71 167
268 154
269 164
120 100
192 258
65 167
11 10
273 134
169 159
107 106
141 167
269 135
97 154
120 256
28 276
182 67
122 64
204 205
231 215
96 138
55 56
45 162
57 11
67 139
123 120
175 128
63 118
84 169
167 10
97 130
115 129
129 206
145 155
48 22
37 101
239 152
267 280
202 250
158 70
124 269
10 278
260 84
83 126
184 109
241 243
229 69
261 145
128 132
200 86
198 10
181 174
69 191
53 51
216 276
133 275
219 84
134 102
218 195
221 127
109 15
31 171
38 96
283 3
112 123
68 8
92 69
184 147
221 144
117 12
95 99
81 103
268 33
208 258
102 100
204 280
184 105
241 253
89 83
70 69
202 64
262 39
144 31
162 140
161 209
207 261
161 11
7 118
21 170
81 249
205 137
171 245
79 236
218 54
246 67
265 3
123 277
81 107
244 243
189 123
212 205
128 124
108 280
281 82
236 38
197 150
134 244
204 62
119 59
1 231
40 25
26 89
13 229
242 29
252 284
249 168
117 13
243 72
130 163
67 113
280 127
36 243
173 205
106 117
22 34
198 212
274 265
189 83
143 173
172 119
7 125
207 35
1 176
128 33
33 207
260 186
158 140
198 138
264 172
208 48
247 74
8 140
166 114
229 267
73 238
97 127
256 151
251 200
130 89
159 162
174 271
185 58
83 230
56 120
137 33
135 265
198 194
217 97
132 197
142 48
120 160
120 196
215 171
91 126
82 100
229 270
235 166
270 153
243 62
214 221
140 72
176 84
179 105
158 51
71 158
30 272
151 236
58 227
79 39
195 98
132 126
107 111
64 84
73 1
146 276
23 47
252 156
6 153
151 139
22 66
15 51
29 77
9 243
257 117
160 251
13 29
174 152
258 82
279 68
202 147
163 185
93 124
219 78
45 53
204 273
265 239
151 123
23 91
235 272
239 282
161 23
87 118
16 253
38 199
143 62
33 85
134 64
199 131
280 146
225 232
168 71
248 95
270 32
92 10
4 170
79 134
60 59
194 137
1 90
109 151
265 21
126 96
198 256
38 212
195 242
52 6
82 204
226 127
133 66
269 49
40 193
25 263
134 137
66 151
204 23
253 257
169 106
15 248
102 284
87 236
267 189
209 196
11 168
60 283
151 266
64 265
256 34
212 91
216 180
249 21
225 119
181 190
198 209
133 86
123 246
226 207
82 32
38 62
143 111
36 198
186 168
16 260
172 270
36 81
14 8
17 186
256 11
134 33
120 167
23 36
229 20
203 3
46 251
16 28
257 132
279 21
132 88
72 62
29 184
192 82
283 190
262 55
79 162
248 142
282 189
247 276
78 217
149 128
189 94
67 55
187 18
24 156
185 15
83 62
48 257
5 100
263 228
70 40
255 264
196 63
81 151
167 275
259 233
144 86
15 61
284 229
65 117
162 18
283 107
210 271
203 136
137 32
86 241
105 61
243 255
210 35
15 220
225 39
203 174
196 192
140 215
93 82
112 29
45 206
7 136
65 206
225 77
148 275
145 66
251 162
49 189
258 246
114 154
239 103
103 135
9 224
125 245
1 59
236 140
178 212
4 266
251 233
130 278
188 219
74 207
39 25
174 161
134 112
227 272
138 159
93 219
124 16
270 108
88 32
225 154
156 162
19 57
245 85
127 260
50 133
69 36
33 95
84 215
283 88
87 11
53 175
170 143
125 98
13 256
235 112
38 131
72 60
190 151
250 255
158 82
72 255
130 87
160 180
124 162
86 32
94 146
36 126
7 98
199 132
283 108
175 147
63 204
281 214
92 278
222 119
156 259
30 57
159 70
120 108
202 15
255 274
79 62
271 252
115 65
117 99
278 205
213 261
74 157
72 201
152 236
24 30
162 277
77 107
141 148
17 277
38 281
103 59
23 72
247 238
115 49
257 19
95 93
87 163
255 13
93 248
115 87
15 108
48 83
130 58
182 33
120 188
28 257
256 118
182 212
160 76
119 113
218 123
94 15
111 22
120 52
247 149
209 79
188 131
52 134
147 84
102 5
236 275
9 59
10 185
229 189
160 182
244 221
91 279
268 125
164 67
271 121
156 19
13 97
198 96
44 9
99 177
119 141
282 97
129 104
194 72
57 69
68 161
195 146
241 268
162 218
249 91
232 134
93 214
125 106
225 66
142 189
194 278
228 122
194 140
71 229
170 53
8 24
284 264
69 30
105 123
262 210
173 170
202 263
244 215
246 244
143 204
39 265
19 135
222 271
284 18
27 104
48 179
118 227
100 129
190 242
84 29
214 82
89 16
238 56
40 162
190 230
13 125
100 13
142 15
137 157
16 153
20 87
19 265
12 177
117 76
3 46
11 129
63 229
191 186
159 197
2 272
52 192
243 209
140 56
255 244
107 109
276 99
230 112
256 94
126 89
2 246
229 175
263 74
180 231
154 281
90 270
91 115
140 157
240 83
151 105
17 131
112 25
128 236
270 105
227 89
208 246
169 98
138 192
83 21
137 15
82 159
21 256
131 158
223 81
256 87
131 215
116 8
248 226
173 153
86 157
270 155
202 28
207 136
49 265
55 138
71 248
164 132
273 83
266 201
257 267
169 52
212 186
247 100
235 12
201 131
265 148
254 133
96 97
280 231
70 200
259 103
64 254
151 243
153 131
207 55
44 168
112 209
272 258
198 59
277 275
198 162
38 73
194 97
284 141
59 284
98 182
81 130
85 46
47 174
227 18
216 64
180 18
190 6
129 30
202 219
153 230
129 178
178 80
231 225
208 158
238 81
108 77
116 34
73 275
59 177
66 248
252 8
83 211
28 31
86 258
154 220
36 265
278 267
134 66
159 241
273 148
202 65
192 7
230 19
127 224
109 9
174 255
244 151
208 143
145 265
272 202
61 43
280 107
2 131
56 84
100 254
90 275
89 215
265 247
138 21
237 91
6 127
136 250
249 278
109 127
82 168
62 223
189 86
210 148
278 246
14 92
210 221
212 81
69 252
120 9
174 36
26 1
14 47
157 252
195 155
41 135
16 142
79 126
113 244
33 172
129 9
44 246
119 261
248 243
243 206
163 27
182 137
108 127
120 252
259 141
131 246
273 68
18 100
202 69
123 129
113 280
207 181
160 90
81 86
123 1
86 34
57 44
47 201
168 111
74 88
247 273
220 173
96 15
188 67
218 255
269 205
284 203
49 66
111 178
244 86
109 42
98 79
182 246
205 80
4 229
236 163
172 106
188 140
26 62
250 265
17 164
97 41
206 123
235 149
82 284
238 41
186 224
43 26
260 140
76 155
149 137
181 40
55 129
193 16
154 33
208 91
211 119
145 262
222 188
116 17
242 103
76 174
202 124
210 42
109 46
89 273
162 255
130 187
66 216
212 225
77 251
1 97
120 233
81 277
259 97
205 9
43 156
81 44
66 86
61 151
164 244
155 120
107 27
139 18
54 252
258 116
231 52
18 59
16 109
101 34
120 82
153 134
62 124
137 284
33 31
153 197
170 140
160 236
155 29
53 205
192 1
108 122
183 92
130 65
193 179
156 219
26 217
250 67
224 256
193 277
120 64
16 151
188 176
270 251
257 156
193 195
269 19
69 58
104 17
265 129
255 188
105 18
264 81
54 254
110 52
131 114
3 127
105 76
225 81
124 3
79 198
205 243
97 207
162 192
137 222
211 42
246 211
123 257
21 209
2 205
155 236
43 56
242 15
139 108
271 225
159 193
240 111
251 242
252 225
61 172
43 146
71 211
40 171
70 239
68 248
31 193
264 181
56 169
241 242
