*Vertices 166
137 "#60"
54 "#153"
83 "#111"
84 "#86"
2 "#155"
152 "#162"
99 "#70"
154 "#58"
25 "#18"
42 "#0"
71 "#3"
21 "#11"
36 "#149"
9 "#96"
132 "#128"
133 "#152"
161 "#66"
157 "#34"
26 "#52"
46 "#151"
150 "#136"
140 "#154"
73 "#133"
52 "#159"
163 "#145"
40 "#14"
59 "#12"
50 "#20"
16 "#26"
66 "#105"
27 "#72"
20 "#98"
146 "#6"
75 "#31"
127 "#142"
141 "#163"
149 "#82"
41 "#10"
151 "#137"
12 "#107"
87 "#35"
3 "#164"
10 "#95"
129 "#40"
39 "#77"
47 "#21"
156 "#55"
135 "#25"
106 "#126"
116 "#33"
32 "#165"
19 "#32"
60 "#80"
89 "#67"
112 "#71"
80 "#119"
104 "#17"
121 "#118"
125 "#5"
5 "#150"
86 "#63"
96 "#100"
101 "#94"
164 "#129"
107 "#120"
162 "#76"
124 "#112"
43 "#1"
18 "#47"
118 "#104"
98 "#113"
82 "#110"
100 "#84"
79 "#44"
144 "#114"
53 "#2"
103 "#15"
110 "#101"
90 "#13"
120 "#74"
30 "#161"
97 "#148"
49 "#8"
91 "#36"
113 "#46"
13 "#57"
62 "#121"
166 "#87"
31 "#124"
15 "#75"
148 "#139"
37 "#56"
119 "#68"
1 "#134"
147 "#81"
145 "#23"
64 "#116"
92 "#108"
61 "#109"
11 "#99"
139 "#127"
77 "#92"
51 "#61"
55 "#123"
65 "#69"
67 "#65"
158 "#140"
72 "#19"
56 "#85"
34 "#50"
23 "#54"
58 "#64"
74 "#135"
85 "#22"
24 "#39"
153 "#45"
94 "#160"
136 "#89"
7 "#24"
134 "#88"
155 "#91"
78 "#158"
35 "#115"
38 "#73"
159 "#138"
57 "#41"
95 "#4"
117 "#42"
102 "#9"
138 "#62"
108 "#102"
111 "#103"
88 "#83"
29 "#97"
44 "#16"
76 "#93"
14 "#27"
165 "#49"
115 "#122"
70 "#79"
142 "#143"
93 "#156"
8 "#125"
69 "#141"
63 "#78"
123 "#29"
143 "#157"
28 "#131"
33 "#144"
122 "#37"
131 "#117"
160 "#51"
4 "#90"
68 "#30"
109 "#48"
130 "#106"
17 "#38"
126 "#28"
6 "#147"
114 "#7"
22 "#43"
105 "#146"
81 "#59"
48 "#53"
45 "#130"
128 "#132"
*Edges
59 150
98 92
90 73
32 81
37 117
77 69
161 22
136 44
65 109
48 43
106 12
10 37
20 160
62 76
58 89
10 125
83 96
49 27
51 130
123 34
95 131
32 3
22 123
54 32
19 87
119 70
115 138
10 15
44 109
153 48
75 104
136 2
60 160
119 147
47 119
135 23
55 119
39 89
43 17
109 70
96 139
38 58
117 39
59 105
56 78
131 83
114 81
12 125
132 94
114 60
26 61
100 32
164 38
79 11
100 72
65 160
10 17
128 110
144 91
44 156
160 61
147 34
23 147
149 89
122 98
77 136
80 108
19 77
16 97
121 158
150 121
136 75
91 51
50 146
118 64
91 115
13 138
122 113
20 52
117 51
60 83
4 147
71 15
20 99
25 37
55 74
97 127
162 137
145 149
78 8
17 62
26 118
53 109
76 39
104 48
114 102
23 9
29 53
39 96
95 98
111 92
43 127
51 26
149 100
60 129
161 143
109 125
94 78
99 74
121 6
39 81
29 40
34 113
65 88
132 97
16 123
17 51
92 149
130 96
124 65
166 77
28 72
75 154
120 71
33 22
81 147
3 20
137 47
146 104
91 129
54 61
113 158
84 151
146 27
44 103
160 129
119 4
41 122
7 14
74 154
144 92
64 47
99 47
166 108
61 69
8 148
41 166
46 136
70 128
86 119
50 21
124 44
94 140
103 86
67 54
113 114
29 108
162 140
53 4
86 41
40 26
138 45
9 56
77 112
108 58
139 155
165 112
92 53
27 122
102 65
80 37
159 15
142 27
50 120
26 10
24 25
163 136
94 158
92 110
154 149
146 42
160 157
58 134
54 108
132 25
30 61
161 130
68 111
136 14
9 110
138 106
25 107
108 90
138 41
24 51
13 70
21 82
154 86
99 137
160 82
157 110
86 89
50 34
118 150
67 77
63 76
31 38
70 149
159 75
4 35
16 121
111 84
157 18
110 121
28 77
157 72
11 73
58 27
42 13
129 7
21 65
157 88
118 96
72 43
113 7
153 70
98 162
129 117
131 74
44 123
60 152
18 119
156 85
154 123
41 15
59 90
89 19
135 17
28 82
98 103
2 115
93 61
85 1
76 75
81 37
130 32
109 76
138 68
16 105
146 149
104 37
127 1
129 12
105 149
2 8
147 91
105 69
62 145
99 144
100 90
49 151
20 157
14 116
16 20
88 149
129 48
129 119
5 32
71 17
67 59
102 41
105 130
124 164
142 106
123 116
75 53
134 155
15 63
102 9
37 145
115 29
121 77
158 128
47 70
24 82
50 43
55 136
73 71
57 154
135 59
123 165
125 1
30 147
3 94
48 50
100 135
38 56
41 43
157 59
88 35
51 144
143 33
122 33
86 129
108 161
64 80
166 19
103 122
138 132
110 158
67 50
45 125
29 21
89 69
51 77
139 73
22 116
67 55
112 98
68 24
78 80
143 164
138 40
58 76
2 96
122 107
48 116
89 99
80 144
90 104
69 30
35 92
23 157
82 51
107 50
95 59
58 14
149 60
38 64
128 28
150 140
154 137
150 12
14 159
9 65
86 58
106 46
26 23
7 92
67 154
58 160
43 20
97 86
61 163
65 154
83 11
140 4
153 114
48 42
114 138
103 37
87 65
33 92
122 57
109 40
143 120
86 147
21 101
47 44
93 12
146 77
51 113
65 138
143 11
4 58
84 53
32 93
71 8
145 146
156 124
129 92
59 166
93 132
166 116
26 127
143 139
110 77
132 53
98 13
66 118
69 27
1 33
70 126
86 126
128 152
156 109
26 41
149 11
165 76
8 96
44 42
91 4
50 4
72 118
22 100
19 162
128 90
26 99
151 159
104 111
111 93
39 154
141 20
68 86
91 39
19 119
153 20
129 121
70 144
61 111
59 34
65 147
143 5
39 145
6 2
100 44
104 21
153 34
155 79
25 19
126 43
91 19
15 96
37 16
16 23
137 149
68 6
49 37
24 56
61 14
74 18
23 108
90 24
155 159
58 119
162 120
2 93
70 64
66 112
33 128
108 104
65 128
84 14
62 159
90 58
154 135
104 87
155 103
11 52
65 15
150 127
151 33
117 144
85 108
6 80
63 84
139 136
161 141
62 105
44 67
146 62
4 134
147 158
88 56
59 108
45 49
14 22
140 28
114 125
71 60
85 58
85 11
150 115
112 68
46 119
144 147
154 165
118 58
99 136
138 76
12 94
7 8
23 123
31 72
74 143
62 97
9 47
75 106
105 83
131 135
150 75
17 95
11 102
138 83
69 133
105 20
130 79
20 32
6 62
155 154
50 125
50 40
72 89
101 117
70 84
4 7
80 42
44 22
105 159
59 120
15 34
116 23
66 117
55 142
161 5
15 80
101 112
143 152
121 53
63 101
29 109
98 3
141 46
136 88
121 94
78 39
154 78
28 147
119 26
22 157
59 161
66 120
67 87
165 19
157 137
136 25
154 146
67 48
29 120
130 144
68 135
45 97
159 154
118 17
89 150
136 60
148 115
71 112
87 28
128 164
88 24
47 19
35 65
138 144
67 3
9 99
134 160
22 24
47 23
40 92
103 120
45 158
87 90
139 147
26 157
138 21
117 108
130 121
137 33
165 162
56 145
32 161
11 71
15 69
153 17
129 43
137 65
88 49
137 158
7 79
101 9
110 76
68 115
15 147
112 14
8 25
13 30
123 142
50 60
87 9
110 13
103 31
117 1
87 98
130 135
90 27
95 101
55 107
125 18
62 98
19 117
112 38
38 155
146 15
47 122
133 148
146 109
11 99
137 138
100 70
111 49
90 84
50 144
59 42
99 55
141 134
122 4
76 134
145 26
62 84
74 23
26 120
41 147
34 84
139 52
109 113
46 28
120 104
18 86
109 66
145 102
60 97
14 162
65 12
13 41
156 19
3 58
39 68
28 8
120 135
31 55
157 97
55 12
39 58
127 114
83 33
103 48
74 147
28 122
132 60
105 158
93 144
14 40
4 65
132 13
21 137
120 100
77 94
43 44
81 123
7 136
16 91
114 9
139 83
144 101
95 48
60 59
17 144
165 48
111 135
155 58
147 111
103 34
85 110
53 39
146 117
98 82
130 110
115 83
82 148
31 156
81 116
66 96
88 87
161 165
129 66
37 113
164 51
7 43
113 39
152 111
46 80
128 26
144 37
130 39
135 67
72 6
34 160
111 10
103 47
130 27
56 40
109 151
23 161
95 55
72 104
48 27
115 109
66 157
115 139
53 37
132 30
67 43
142 63
84 49
10 20
109 14
64 147
142 22
138 51
62 138
134 51
107 126
130 104
91 135
121 140
36 63
134 12
146 118
18 132
166 105
164 46
77 3
138 154
63 16
69 73
137 11
49 76
17 122
15 68
130 158
124 93
54 147
63 79
66 3
109 48
7 80
31 132
142 118
67 86
91 26
116 87
59 162
55 166
120 64
75 37
156 56
56 68
45 89
129 68
25 53
40 16
43 21
97 53
52 58
7 26
37 59
43 98
138 8
136 45
48 134
159 61
108 27
166 88
155 41
114 17
50 61
17 79
158 152
42 22
13 149
46 5
66 123
16 75
70 127
74 135
24 89
43 68
37 108
131 125
48 102
8 86
147 16
138 24
95 166
9 34
166 10
92 156
17 163
160 45
26 113
23 25
7 154
6 81
87 161
161 52
92 112
95 57
83 44
157 65
139 119
117 68
94 159
108 72
99 120
39 71
67 83
107 22
123 51
8 81
106 97
15 97
77 61
2 112
5 134
58 131
74 33
32 147
124 153
20 65
85 149
21 60
153 90
99 145
27 9
50 122
135 155
35 23
131 127
48 125
19 106
9 96
40 37
63 161
114 88
124 26
34 75
94 120
165 68
76 47
136 162
10 128
160 26
108 154
159 2
121 126
122 154
46 112
44 9
109 132
62 28
67 109
144 122
140 3
111 126
80 104
8 75
158 155
63 82
71 113
10 28
58 71
135 157
120 15
139 66
161 136
81 148
150 110
52 33
3 162
92 88
9 159
37 154
99 77
54 30
109 162
81 129
83 58
80 36
91 90
13 37
53 23
26 82
1 161
25 150
70 48
102 117
73 106
59 156
45 137
48 1
67 149
136 61
70 76
4 54
51 87
105 77
48 31
92 62
147 36
79 34
50 65
9 72
12 153
12 116
124 34
104 138
158 60
86 164
116 56
97 54
105 96
134 73
8 35
52 32
147 10
38 61
73 40
12 105
108 89
40 116
84 69
107 93
161 61
90 11
99 39
146 59
67 16
86 75
58 100
35 160
13 91
80 160
89 103
45 92
101 58
99 109
64 33
82 90
90 72
155 136
7 63
42 125
48 90
35 99
81 11
124 35
139 30
115 161
103 128
159 145
117 81
45 118
35 144
35 46
89 142
47 164
125 14
59 23
139 32
49 8
119 123
17 13
42 23
15 106
13 89
29 9
16 42
127 15
44 29
47 144
40 144
15 23
155 96
76 53
31 155
77 88
125 160
82 35
50 70
143 27
113 124
9 109
46 132
16 80
1 142
120 154
38 27
80 159
40 75
37 93
160 119
80 132
147 138
107 4
164 104
132 135
86 17
53 35
88 19
29 17
104 9
114 150
107 81
119 145
80 27
147 67
13 133
4 72
87 147
115 110
150 85
137 63
50 138
116 35
134 85
75 74
51 12
74 11
63 92
51 5
105 22
142 133
142 134
61 35
112 41
17 40
67 165
61 75
87 11
113 163
102 68
110 53
104 103
66 132
33 138
101 37
37 51
47 118
67 129
158 12
49 166
134 94
43 34
43 76
70 63
81 20
45 141
147 162
131 42
2 108
133 29
90 127
32 143
34 26
15 119
31 128
59 136
42 47
26 4
85 28
164 97
89 101
124 4
64 115
56 49
145 84
156 11
107 133
27 145
100 117
77 98
145 101
158 58
66 70
83 141
108 22
8 105
122 29
161 120
64 20
21 157
13 76
118 13
137 165
18 37
21 48
51 40
15 103
67 5
102 103
126 99
118 77
76 10
12 88
36 51
143 78
47 56
162 154
113 119
50 132
40 124
109 35
96 84
69 42
12 95
112 88
134 68
161 91
34 83
111 20
104 85
156 131
148 105
131 126
70 113
63 162
108 48
40 71
60 48
131 19
68 4
88 23
9 138
100 159
27 153
22 56
69 14
34 105
11 100
69 104
4 11
75 80
156 8
91 164
125 59
130 129
72 123
75 4
48 164
96 147
93 88
44 115
129 118
39 85
139 85
130 19
163 112
158 153
61 144
49 138
73 53
21 13
125 55
62 116
14 129
102 58
46 77
30 80
23 37
57 160
48 61
147 90
118 24
58 81
20 49
26 156
26 103
80 119
99 23
79 127
124 82
42 63
30 155
34 14
154 50
2 141
30 149
76 166
20 66
18 84
98 31
96 142
5 98
71 126
147 52
156 96
60 84
100 28
40 58
132 155
25 165
135 99
133 134
27 160
130 118
127 23
13 34
137 94
68 71
10 87
96 162
34 146
160 111
119 89
65 153
65 19
61 63
78 150
48 88
24 14
120 145
131 140
35 133
90 57
85 163
3 132
120 20
159 67
87 114
48 37
26 146
38 45
165 15
9 31
125 132
38 96
36 64
36 30
81 138
21 40
123 99
77 104
97 94
59 26
44 81
83 121
131 64
37 105
156 113
7 111
25 86
42 76
43 100
116 4
130 21
38 135
113 15
96 86
58 50
87 73
129 19
50 83
31 106
87 139
65 131
4 148
65 150
30 35
5 36
14 101
102 100
99 122
129 29
127 151
142 30
57 89
121 67
154 34
120 78
70 72
119 91
11 45
18 91
65 52
163 150
35 33
23 118
10 155
44 129
9 6
1 140
48 147
101 138
4 123
70 2
136 150
10 157
161 27
99 76
109 79
153 49
20 6
99 53
158 91
60 24
58 154
45 116
52 136
57 15
53 156
6 88
126 109
110 73
40 103
2 30
47 59
124 160
161 89
147 130
97 77
99 7
10 101
81 34
13 95
14 77
6 1
130 30
61 115
131 112
100 114
136 153
40 129
160 12
99 107
51 129
151 65
4 86
115 35
57 42
12 111
21 39
133 92
20 126
101 34
162 135
132 128
132 134
53 131
45 3
69 12
105 93
142 9
48 18
78 81
84 116
60 41
30 55
110 117
90 118
113 67
50 80
8 73
109 55
10 35
63 5
2 137
166 101
146 88
41 25
146 57
21 158
78 149
55 127
31 138
157 45
84 126
80 114
53 157
73 127
27 87
162 123
61 158
8 126
40 114
100 39
136 166
26 104
113 157
113 44
160 116
17 146
72 127
158 136
39 23
147 134
41 27
128 165
118 110
54 101
37 166
37 72
89 109
151 12
70 136
39 38
90 117
16 95
154 114
85 17
101 72
107 80
65 71
110 72
39 146
78 70
145 113
126 22
68 26
58 104
18 121
86 108
127 107
69 54
102 75
67 82
89 37
4 155
94 105
139 145
64 35
108 148
45 88
99 130
69 103
19 27
123 139
76 125
79 122
138 123
35 119
79 163
133 155
39 158
2 3
119 93
24 34
152 10
16 9
134 101
115 123
20 92
44 26
134 26
100 122
73 95
61 125
130 48
61 24
155 161
83 8
65 90
138 16
107 77
29 55
40 57
45 40
130 166
98 37
47 134
121 164
7 65
92 50
120 149
88 126
76 118
135 138
26 115
87 119
147 45
40 61
36 54
139 1
147 135
10 58
97 24
118 21
31 165
7 114
23 28
41 137
60 40
147 37
118 124
70 107
60 34
154 9
75 119
123 131
22 89
61 47
84 117
26 72
41 62
99 15
86 123
80 22
151 113
89 151
34 40
8 52
71 131
165 37
4 130
7 39
118 35
51 58
98 101
122 111
155 83
71 69
75 15
4 76
157 37
106 8
128 140
44 14
25 148
53 153
59 106
134 96
8 149
69 3
145 66
92 159
125 118
12 162
117 13
6 67
37 135
137 128
99 128
66 95
38 3
88 104
3 36
112 105
118 27
14 166
112 137
127 6
12 135
58 109
38 111
3 119
37 153
98 138
118 2
120 35
155 120
18 62
14 17
59 76
60 13
78 20
34 22
136 80
64 53
136 21
75 87
94 55
16 118
79 137
83 7
62 15
133 163
156 89
60 113
44 88
122 137
108 66
69 141
119 61
151 16
157 48
153 28
137 48
26 42
67 14
91 99
5 84
121 4
153 26
163 55
153 127
82 57
72 19
111 101
62 58
42 83
43 159
139 124
33 108
90 83
146 11
138 4
84 17
22 128
33 110
122 81
124 107
37 121
24 160
77 137
36 78
37 77
25 70
100 46
78 96
83 134
13 137
137 114
37 79
14 114
74 80
51 89
162 101
37 1
18 160
77 66
92 27
166 40
134 145
59 68
159 78
97 65
37 91
140 139
143 119
26 95
44 160
100 5
151 87
142 46
158 31
63 104
132 158
64 83
43 87
158 33
96 132
56 141
157 11
26 53
121 91
146 161
147 127
61 109
15 38
143 30
81 22
157 55
152 33
157 145
96 122
100 77
117 70
116 106
1 129
111 60
8 155
115 28
138 118
126 147
155 138
75 120
16 114
56 36
27 47
77 108
29 2
13 79
82 14
4 9
88 43
81 45
165 87
112 161
67 88
161 43
79 120
88 153
117 126
143 106
104 28
27 43
95 34
117 57
8 139
137 96
42 92
107 71
166 91
145 44
130 115
134 10
154 95
72 154
144 120
28 146
91 157
156 130
73 142
99 104
57 10
101 84
115 69
65 85
13 66
102 112
82 39
86 11
70 9
88 1
8 89
119 112
80 161
37 149
159 72
20 110
83 127
84 134
153 7
60 124
150 124
162 18
29 23
8 115
164 100
155 162
72 151
75 92
152 31
48 34
163 126
61 118
115 76
66 110
147 44
159 136
136 109
14 160
146 51
13 18
81 146
68 130
107 96
127 37
80 125
71 86
7 134
87 39
70 52
121 63
158 14
150 164
78 130
66 90
57 65
156 18
121 152
123 55
120 53
88 30
47 39
158 71
137 87
43 110
138 84
100 12
140 54
95 41
60 153
124 38
159 164
143 51
95 84
94 10
155 116
24 63
50 13
50 44
112 122
110 4
92 59
74 30
166 160
52 111
6 48
18 42
70 103
92 46
102 34
113 103
29 99
13 120
27 162
56 123
22 85
129 69
138 120
38 150
30 121
44 132
60 66
159 51
64 141
48 63
124 74
149 64
2 45
131 115
92 67
94 74
91 103
10 2
128 161
100 107
88 9
58 19
10 138
11 130
151 105
43 9
64 72
4 136
88 8
118 105
18 131
42 37
15 83
152 142
92 49
33 103
66 111
44 56
14 59
57 53
120 38
124 120
92 115
144 98
114 89
82 162
71 99
39 2
127 112
98 106
112 20
112 156
105 127
41 56
85 63
75 79
24 95
80 139
115 4
121 148
76 108
29 35
24 21
72 156
63 115
23 153
114 13
122 20
99 13
118 107
128 68
57 131
18 59
6 53
48 80
51 13
88 122
83 104
84 1
101 155
30 100
76 83
129 126
15 39
154 2
23 96
117 40
19 102
57 128
49 34
148 12
58 65
67 120
63 102
161 58
91 131
13 97
88 4
40 106
155 34
114 163
137 55
6 120
59 15
27 99
42 89
72 112
25 28
107 128
84 131
41 113
79 58
99 38
14 139
129 4
113 13
85 164
101 97
51 81
151 36
48 156
123 64
38 149
151 19
97 44
149 51
92 80
43 125
84 98
103 59
160 23
78 142
34 21
92 61
35 32
20 162
6 142
63 41
131 138
90 114
163 1
146 72
13 63
20 163
103 119
64 39
152 124
106 139
144 31
1 150
113 92
152 92
106 164
12 120
146 136
37 22
136 54
111 141
104 22
155 48
27 115
51 75
110 148
107 48
63 100
125 107
12 24
160 17
157 25
140 93
61 86
100 83
96 116
112 23
151 163
19 12
63 149
5 33
14 161
156 80
1 9
39 37
89 105
125 129
70 95
68 161
77 142
68 142
160 39
80 147
90 154
111 44
37 119
109 34
124 129
46 52
25 51
21 102
79 104
67 15
135 6
91 59
110 154
136 16
32 166
124 143
166 17
51 70
25 85
46 54
102 113
149 84
13 24
136 78
15 51
65 56
34 68
113 72
150 141
19 149
3 73
78 151
116 137
165 85
40 95
51 102
9 5
154 106
58 82
151 158
157 120
132 85
48 114
150 33
66 41
23 114
160 49
129 108
19 56
148 18
95 8
25 126
123 76
44 51
154 119
37 38
49 148
33 25
57 81
149 109
145 96
34 104
132 20
128 150
95 130
27 93
28 35
136 9
158 29
84 100
155 20
101 13
122 109
153 117
20 38
89 31
16 25
20 123
124 87
147 60
1 162
98 85
46 31
29 80
82 6
97 82
44 62
12 23
70 42
138 96
144 3
82 115
10 41
27 78
110 140
16 96
156 125
57 69
134 90
138 23
96 20
36 130
61 79
68 11
13 104
89 23
56 5
39 36
65 41
146 138
105 43
40 99
135 50
58 165
88 37
64 100
114 145
153 162
164 5
161 35
47 101
67 137
127 36
44 131
117 136
138 82
140 147
79 26
9 14
131 92
67 17
23 66
25 13
143 58
120 119
107 115
165 26
48 10
77 127
13 122
115 94
114 95
140 30
82 27
14 88
97 149
47 75
42 8
70 11
33 36
53 89
100 154
42 34
67 34
81 139
144 102
131 166
155 131
136 58
163 33
9 59
73 83
100 74
76 77
8 92
120 42
119 14
27 37
26 87
52 108
82 95
82 108
107 143
51 27
53 151
63 144
25 130
159 119
10 148
156 162
81 49
92 118
1 141
151 71
69 108
157 58
69 33
148 48
76 21
78 45
99 146
45 142
110 124
62 139
59 84
83 79
35 58
114 119
132 111
157 138
98 139
148 107
109 159
23 105
153 161
15 108
32 73
118 121
68 10
157 13
11 127
56 60
152 119
142 99
14 75
103 84
47 136
157 77
93 152
77 7
145 151
8 164
157 103
96 101
126 48
14 41
6 125
10 77
120 45
54 35
158 143
125 77
117 12
55 40
157 86
124 31
58 166
2 151
37 137
142 59
126 156
80 83
142 124
5 11
22 99
82 135
109 4
51 59
63 60
7 25
39 106
56 99
115 111
32 106
27 24
27 120
162 44
55 106
22 40
67 58
120 148
34 99
85 34
42 10
26 29
161 79
98 114
23 34
156 99
162 117
155 126
84 127
58 115
81 158
2 131
61 131
132 101
89 133
38 87
62 47
39 88
21 80
24 113
41 57
113 120
53 65
7 147
26 55
151 50
129 15
6 29
15 24
118 56
109 37
114 37
124 100
47 120
78 63
130 46
60 65
59 153
83 18
80 82
27 117
111 156
25 17
87 106
66 2
72 102
160 63
143 64
124 131
136 95
107 165
137 7
100 49
13 33
154 84
151 92
101 133
61 152
14 104
17 7
153 9
154 91
110 126
81 2
72 80
150 5
76 144
128 59
85 21
166 82
147 142
11 109
128 75
96 152
42 4
96 12
90 158
81 161
48 44
121 9
47 107
151 104
44 92
155 39
130 18
12 118
142 82
146 10
110 123
161 71
35 131
70 82
129 77
108 137
108 110
113 27
49 7
48 4
145 72
99 106
57 144
35 143
77 13
21 68
72 27
47 33
65 119
58 151
114 156
56 102
20 130
67 166
70 130
130 151
73 62
73 92
102 37
67 143
34 118
108 119
143 89
3 92
113 16
43 114
49 63
48 160
64 41
64 98
22 156
102 99
108 20
129 99
7 6
42 97
133 106
137 144
147 120
106 130
53 111
65 161
102 62
76 128
121 155
116 63
43 132
24 101
84 147
17 53
124 49
32 105
16 65
94 54
131 144
59 56
65 31
103 18
93 100
45 134
56 46
21 63
165 47
130 47
150 9
46 63
16 166
75 107
104 122
140 5
56 144
110 87
42 99
25 111
74 17
26 123
12 130
100 131
126 123
150 54
65 1
115 3
5 124
51 162
76 142
61 22
7 145
11 43
53 112
69 31
89 46
114 61
166 155
34 131
74 120
48 146
31 154
113 126
123 120
46 115
15 130
17 87
89 131
113 89
62 115
54 162
60 39
84 86
96 68
60 120
69 142
16 160
61 82
99 125
21 74
55 35
107 8
145 23
160 123
67 91
159 29
81 127
37 26
7 108
42 111
15 150
103 65
133 100
8 132
56 8
83 23
85 161
125 65
160 149
95 112
85 148
20 53
13 112
89 66
162 84
64 136
108 151
19 153
35 68
156 9
64 37
20 71
62 142
55 149
54 45
23 103
67 13
72 122
47 10
98 45
133 84
57 84
135 114
82 50
156 100
149 2
145 83
166 164
115 165
11 159
157 40
138 165
5 110
141 147
109 81
154 51
158 92
98 165
24 26
60 130
16 73
29 15
116 130
156 6
80 67
104 117
100 16
156 95
84 153
160 104
83 143
105 24
107 119
42 58
103 55
59 72
107 3
154 124
25 35
126 157
101 25
64 27
132 56
155 6
86 34
76 55
133 119
133 30
47 68
66 46
84 72
150 102
14 128
81 94
121 61
20 47
126 137
29 111
119 163
89 147
37 47
67 132
91 6
164 44
27 141
120 69
134 55
6 46
158 163
151 55
64 112
112 40
29 20
57 88
87 68
154 140
74 36
69 144
85 84
162 161
19 13
116 34
37 76
25 44
34 56
35 22
159 128
138 66
69 143
95 10
144 88
82 131
44 95
166 134
23 90
85 40
162 74
166 45
113 38
140 152
71 108
18 10
161 145
29 162
138 86
31 122
78 161
111 137
89 84
136 72
161 67
31 119
3 128
62 122
11 6
45 72
143 112
70 133
25 87
23 119
20 11
83 32
24 47
107 131
46 83
57 107
147 137
34 44
65 83
82 147
153 16
123 112
48 23
164 111
157 8
110 82
155 75
68 92
89 117
109 145
99 84
86 44
82 72
156 161
136 85
112 67
107 121
13 26
19 24
63 31
148 39
80 134
118 28
115 13
86 49
56 4
77 42
133 45
7 126
84 88
12 80
144 163
27 53
38 136
100 137
18 71
67 30
40 48
153 106
69 90
11 163
131 11
2 133
99 63
5 86
63 25
63 154
166 73
8 76
32 9
68 48
64 86
88 137
57 29
90 12
97 148
23 40
18 6
135 47
84 120
73 165
116 18
62 19
112 19
99 49
54 81
121 39
75 135
44 154
161 100
15 140
105 98
66 135
56 112
108 107
89 81
121 149
55 80
29 151
70 97
47 139
2 161
48 35
72 38
46 78
98 83
8 19
63 112
111 91
17 47
80 5
84 21
81 135
9 66
107 106
7 135
127 106
97 154
95 89
135 10
10 144
164 59
42 116
116 85
141 151
40 69
81 75
36 67
89 16
37 31
103 14
160 145
77 70
13 156
7 38
145 162
77 103
39 116
148 80
34 87
93 46
143 3
91 21
65 49
24 166
14 74
30 101
77 62
156 137
141 106
118 19
4 33
109 95
41 34
111 15
28 132
111 70
37 118
47 131
123 83
150 64
131 116
44 110
51 116
44 122
85 146
83 85
5 62
130 59
150 32
89 85
115 53
34 135
114 126
58 18
69 164
121 134
83 113
101 124
97 92
166 119
49 122
23 91
99 162
117 48
5 6
119 104
150 66
63 88
6 144
64 82
4 15
78 140
79 138
92 56
157 27
135 86
122 24
107 7
57 155
65 166
151 32
45 74
53 129
90 56
110 125
43 24
48 81
158 159
163 70
157 139
17 110
117 131
64 61
38 34
91 130
125 120
119 137
107 31
136 137
10 118
93 138
134 91
16 12
164 32
142 137
160 38
29 97
161 113
45 55
49 39
15 46
154 143
159 1
104 1
117 135
57 163
81 111
55 154
19 159
89 75
70 158
10 51
60 62
161 138
41 119
88 155
26 20
56 119
5 61
18 102
122 162
93 131
61 62
26 19
118 152
148 21
29 118
46 94
154 131
105 52
94 98
91 156
85 137
59 154
53 86
114 166
122 55
90 10
29 74
41 28
23 13
87 15
39 27
92 57
64 125
99 6
82 46
149 118
68 156
68 90
6 97
10 72
127 27
34 136
164 108
147 149
86 146
5 15
99 138
43 4
81 90
87 40
78 83
107 102
136 116
49 91
46 36
3 105
108 26
41 75
130 153
116 79
133 12
93 78
45 123
6 33
57 139
52 131
117 87
81 162
23 81
4 28
75 26
125 101
74 127
18 126
156 103
18 60
14 29
24 156
149 40
116 154
136 101
15 49
113 116
109 164
23 21
108 118
149 117
42 15
7 156
68 83
147 113
156 145
130 1
91 69
46 139
142 97
97 69
43 164
51 83
72 115
96 74
128 97
44 65
13 10
74 130
47 22
72 111
94 92
35 83
133 54
25 84
96 60
27 138
121 49
124 119
20 41
9 134
5 74
45 64
75 70
80 103
13 84
53 67
161 73
1 44
1 32
154 145
88 138
125 87
21 160
93 130
15 78
112 54
164 156
104 51
137 3
23 159
78 52
40 18
97 78
56 122
125 34
135 1
141 149
128 129
60 162
163 12
108 4
27 40
44 87
35 97
127 44
108 120
145 155
34 98
132 55
81 71
23 50
10 103
22 48
33 28
27 165
89 111
64 42
49 118
118 111
57 70
123 68
46 134
59 100
76 156
159 165
107 91
84 76
117 23
68 119
106 20
160 64
41 37
59 13
123 77
89 134
9 93
22 150
14 86
91 20
82 157
94 136
85 129
67 119
50 42
80 26
34 12
57 74
96 89
41 77
53 138
81 100
8 23
61 155
156 66
159 31
87 86
128 32
112 65
63 157
18 112
45 5
100 42
81 50
101 99
40 20
135 156
65 13
58 59
86 104
50 63
90 98
146 65
17 151
104 144
15 76
37 95
26 144
146 107
120 11
77 95
122 70
116 147
145 106
46 1
25 89
161 18
31 111
118 67
27 135
57 68
20 24
71 26
52 1
116 146
91 150
64 8
15 101
89 112
116 27
58 33
146 96
7 71
41 103
26 90
71 23
26 116
86 29
76 80
166 109
49 57
114 53
23 92
53 38
107 65
72 13
125 136
166 56
128 73
24 72
47 87
116 156
88 134
157 31
144 97
82 100
84 124
81 77
50 104
112 15
41 85
20 140
15 85
142 150
38 63
156 70
83 144
125 90
157 136
118 57
61 45
60 52
109 25
123 42
67 28
6 150
118 85
95 22
92 51
113 29
134 117
135 87
131 1
145 9
159 83
37 19
124 92
70 108
28 12
115 118
95 39
20 73
111 4
19 98
42 1
72 66
112 104
91 146
66 10
150 148
69 148
117 160
33 60
39 77
58 137
8 98
125 89
160 76
66 57
119 150
108 147
143 111
72 71
100 158
40 132
47 89
100 9
68 42
125 92
67 9
86 85
101 159
135 98
13 119
75 38
42 108
72 166
142 2
83 66
148 19
85 145
125 88
146 25
12 108
58 91
128 109
95 135
84 160
53 162
86 2
137 51
138 57
3 142
118 6
22 110
82 23
34 115
19 71
146 119
18 154
158 1
150 144
53 68
84 102
83 103
123 95
48 85
64 59
133 105
144 103
110 68
37 30
108 111
156 165
87 80
3 130
99 96
92 76
18 149
35 101
72 44
137 14
156 138
7 139
79 96
86 81
75 67
113 108
68 137
160 42
45 106
67 95
96 41
3 124
112 22
80 130
22 15
16 112
5 138
77 78
121 11
38 125
136 65
131 157
68 100
55 117
91 95
104 118
143 39
149 39
142 72
92 160
99 105
43 148
51 52
162 125
73 51
157 47
121 35
19 15
70 88
13 47
149 27
36 140
87 89
148 146
154 30
163 127
37 146
108 106
146 16
88 97
41 23
53 123
154 83
45 41
159 22
52 12
112 10
116 41
57 21
31 11
124 59
60 135
68 60
164 153
43 81
98 120
166 145
9 46
60 4
5 30
36 29
128 155
151 70
18 49
132 22
47 160
139 131
158 69
105 35
5 94
88 72
36 112
17 34
77 165
142 164
145 69
21 20
29 110
15 117
118 59
8 31
14 145
140 89
124 96
107 139
137 86
151 165
146 56
14 38
79 45
5 166
124 42
28 69
83 9
26 22
139 161
75 25
67 158
100 141
121 166
141 37
38 152
70 121
98 53
113 1
97 89
144 159
1 74
47 34
72 34
110 52
78 162
89 68
114 59
140 143
80 97
105 57
120 128
28 139
156 151
138 102
152 155
104 92
161 40
166 158
12 45
38 88
72 65
7 165
58 57
43 26
74 47
134 38
12 107
152 11
16 55
42 113
73 120
55 42
3 163
80 126
90 39
6 27
22 38
102 27
93 166
31 45
21 44
30 164
97 103
8 63
24 39
9 13
164 42
138 119
153 86
157 38
162 166
155 17
161 6
124 68
14 42
100 121
109 57
12 25
6 45
164 41
134 53
84 40
136 37
60 134
55 43
63 6
93 148
127 139
59 145
137 115
23 14
44 4
141 54
92 161
77 132
161 110
152 82
102 88
88 20
121 47
143 100
145 100
66 103
156 34
134 149
62 42
1 134
24 99
102 23
155 5
97 55
110 81
136 126
21 51
101 143
102 49
42 135
56 43
45 52
77 75
147 49
90 80
130 117
73 88
34 112
98 115
35 122
70 123
137 113
31 115
162 41
65 67
116 163
138 67
143 62
81 10
76 101
64 129
31 149
135 121
119 128
105 81
23 144
33 71
57 161
88 106
141 152
6 134
139 55
130 125
91 11
89 65
128 80
28 165
32 127
153 134
92 86
52 2
128 157
119 131
57 59
4 92
57 136
42 119
116 109
96 50
16 66
140 52
160 96
22 49
145 105
54 152
128 82
164 53
1 61
80 153
128 45
139 148
139 164
75 137
120 112
112 31
35 57
155 42
80 121
70 59
36 98
142 80
104 129
32 45
159 157
60 45
107 19
15 166
72 137
39 13
87 138
161 97
47 97
165 97
119 45
38 19
80 117
37 50
10 117
89 48
86 62
52 158
149 165
51 3
166 60
51 63
136 10
107 144
124 36
82 11
135 16
142 74
86 52
159 103
102 80
54 127
43 89
33 156
86 56
125 103
138 75
8 41
166 52
128 46
129 146
28 110
85 102
134 92
91 124
42 39
162 38
159 3
148 59
59 81
160 154
65 95
93 147
12 112
23 22
50 116
127 68
159 143
106 51
9 77
70 147
48 166
128 72
116 1
160 40
27 61
115 73
11 55
101 46
161 24
110 145
131 102
6 110
112 27
31 148
55 164
102 40
49 72
7 118
139 63
77 155
157 57
140 108
72 7
57 80
153 4
159 49
163 81
132 42
103 27
80 59
54 31
89 92
96 111
125 73
9 130
91 64
81 74
163 97
28 70
112 129
77 49
117 53
87 92
42 27
