*Vertices 78
57 "#7"
56 "#64"
14 "#30"
39 "#60"
30 "#57"
17 "#70"
46 "#5"
76 "#14"
10 "#51"
75 "#33"
59 "#39"
28 "#37"
34 "#55"
66 "#52"
71 "#32"
78 "#58"
53 "#50"
38 "#74"
49 "#23"
9 "#56"
19 "#13"
41 "#44"
23 "#45"
69 "#66"
43 "#1"
65 "#25"
40 "#42"
74 "#22"
1 "#43"
50 "#4"
42 "#29"
12 "#46"
29 "#3"
47 "#67"
45 "#12"
37 "#59"
35 "#54"
32 "#75"
60 "#19"
21 "#27"
18 "#17"
67 "#73"
63 "#40"
70 "#53"
77 "#65"
7 "#6"
44 "#28"
31 "#49"
52 "#76"
24 "#38"
48 "#41"
55 "#34"
11 "#11"
6 "#48"
54 "#26"
27 "#68"
13 "#72"
73 "#8"
33 "#15"
26 "#24"
20 "#63"
2 "#71"
4 "#36"
62 "#62"
58 "#69"
72 "#9"
51 "#20"
5 "#47"
15 "#10"
36 "#35"
25 "#0"
3 "#16"
64 "#61"
68 "#77"
22 "#2"
8 "#21"
61 "#31"
16 "#18"
*Edges
7 68
59 47
15 21
60 53
3 66
57 37
61 78
27 39
4 27
21 6
50 30
22 68
20 33
64 78
9 47
13 67
37 62
23 9
8 53
17 68
17 4
14 25
61 64
78 4
60 18
70 74
39 70
53 34
51 65
31 62
58 27
25 13
39 41
57 49
24 53
25 53
38 65
9 49
20 39
3 36
43 77
24 28
61 21
36 65
10 67
52 17
53 10
2 22
1 35
31 26
23 35
48 6
25 1
6 70
49 78
74 20
6 47
12 77
69 7
35 53
51 43
58 72
72 11
10 18
52 15
21 25
43 63
68 26
36 31
73 10
39 31
54 7
36 76
12 32
66 55
47 36
2 30
56 25
77 45
37 3
27 42
28 17
10 48
9 30
17 67
9 7
21 56
41 38
8 39
13 75
56 13
77 20
33 28
76 1
6 37
47 43
36 71
22 62
62 55
58 7
24 23
38 77
41 69
11 62
41 53
11 70
34 26
49 35
9 57
71 63
35 25
37 45
70 1
53 66
69 58
24 77
63 70
60 59
49 13
64 24
59 32
53 32
43 3
69 59
25 30
72 15
20 47
11 68
66 26
39 15
47 68
69 23
30 45
60 26
56 18
35 21
11 18
76 57
60 45
56 68
53 51
34 22
34 2
58 22
45 23
7 24
66 60
63 37
62 14
36 58
29 60
71 67
75 36
20 61
37 35
52 67
12 75
25 66
77 4
65 61
78 53
38 27
51 35
71 29
7 17
23 53
66 38
18 9
18 36
11 53
45 32
65 55
23 20
22 17
31 77
34 66
25 75
17 47
77 2
63 77
21 59
22 57
72 74
6 17
56 45
1 73
30 64
32 35
23 66
58 51
12 67
49 6
61 72
59 12
27 61
40 32
53 67
5 44
12 54
10 49
22 48
19 37
30 34
16 64
66 14
35 19
76 13
22 61
38 55
51 25
5 33
6 9
5 20
32 2
35 76
71 16
68 74
50 78
36 69
13 17
48 58
12 66
58 39
63 26
23 52
48 7
4 63
68 10
66 22
47 33
57 72
58 54
18 66
46 10
14 42
38 2
38 78
62 61
13 28
1 2
36 68
75 51
36 20
10 78
56 77
50 34
53 77
7 18
17 35
47 69
35 40
75 37
26 58
33 13
78 5
53 12
39 60
38 45
69 45
22 16
61 77
41 66
67 38
34 49
13 2
9 64
9 39
17 59
53 15
37 40
2 27
49 68
2 72
29 44
64 66
68 8
55 13
14 29
78 68
1 67
71 31
33 21
9 68
36 32
36 27
30 12
75 70
9 65
64 37
47 70
7 60
47 37
55 58
34 60
62 39
50 53
4 71
76 51
53 76
57 34
40 52
39 28
28 37
23 40
66 43
56 41
29 2
18 74
50 2
3 8
13 73
21 27
76 64
68 13
77 62
12 38
3 20
52 6
67 21
35 47
67 65
14 22
64 36
44 1
74 39
26 49
5 25
45 46
22 63
4 69
53 18
77 36
78 56
53 2
5 70
7 25
13 19
31 42
14 48
30 18
40 47
3 60
2 54
30 24
10 63
21 69
35 45
72 53
35 70
56 39
70 72
62 58
41 26
33 32
12 6
34 65
1 74
20 16
9 33
65 53
10 55
14 45
28 30
48 32
55 35
77 58
21 24
48 73
13 38
70 7
7 13
13 40
69 12
5 69
52 65
3 78
73 23
16 36
43 70
21 26
32 25
14 63
24 74
14 69
72 64
68 19
14 53
27 15
59 30
39 2
9 41
60 19
49 60
25 70
7 63
57 24
5 45
76 66
6 50
30 66
10 13
65 45
35 42
74 32
29 35
29 56
34 31
25 12
27 14
15 33
18 70
42 25
37 42
71 66
17 65
56 58
47 27
73 53
75 53
34 62
70 53
53 45
71 32
14 20
18 17
8 24
19 59
68 25
20 18
71 30
52 38
5 73
15 62
16 7
64 13
9 25
47 34
71 9
10 58
7 37
14 36
57 30
19 4
27 20
35 4
72 62
78 31
72 13
1 18
36 67
73 32
30 60
30 58
76 24
62 59
34 12
27 66
62 57
21 53
78 58
42 17
13 52
26 43
6 77
33 35
37 68
58 47
56 74
62 36
51 37
32 77
34 45
35 15
16 30
20 63
21 77
2 76
38 30
50 54
70 50
8 61
72 14
10 21
1 37
55 12
40 72
39 34
20 44
41 18
67 32
64 56
62 20
3 10
29 66
78 60
18 51
17 25
14 8
7 64
17 32
20 37
26 57
58 11
45 19
64 12
47 8
73 68
40 68
11 3
31 66
34 14
48 37
49 45
23 26
42 52
46 52
41 24
70 9
37 56
10 42
40 30
36 19
75 68
21 20
44 39
35 69
40 18
57 27
29 69
1 8
35 57
19 70
77 3
37 70
69 74
16 47
78 75
67 22
17 30
13 23
20 78
51 38
74 34
67 55
1 50
38 18
52 71
43 11
59 66
24 29
5 34
13 15
42 78
60 2
75 39
61 41
1 32
74 49
74 15
24 50
11 59
65 25
47 57
35 66
9 22
22 77
54 9
67 2
38 32
63 27
71 13
8 59
52 64
40 36
25 10
9 1
9 60
6 56
17 26
30 4
29 68
25 45
64 42
61 53
69 48
75 35
70 55
27 7
61 37
66 15
23 58
2 21
22 42
26 16
77 78
56 69
24 20
70 34
23 71
47 14
70 57
6 76
42 54
16 35
12 39
70 33
43 60
75 7
52 39
46 25
43 37
52 22
33 45
59 16
47 46
7 32
39 61
3 6
20 15
38 8
59 28
27 77
74 47
4 54
17 38
14 11
66 45
57 65
44 70
10 76
53 17
12 60
69 1
38 33
14 19
62 42
66 9
18 27
56 5
55 9
12 33
30 41
21 18
45 57
61 47
65 35
44 17
27 32
25 27
25 47
10 66
39 64
31 56
19 66
78 51
5 52
38 42
62 64
76 75
60 42
76 63
68 67
37 9
8 10
13 59
47 1
40 19
55 5
10 24
71 59
75 34
42 20
16 15
73 9
69 76
37 73
34 44
66 36
48 62
40 10
10 54
68 4
48 25
48 40
9 76
74 7
46 38
25 38
25 8
4 56
32 64
48 78
78 39
45 64
31 32
40 22
44 6
51 46
58 15
63 40
17 72
53 59
77 69
56 48
50 15
56 27
10 70
33 58
69 52
3 16
74 11
19 48
19 78
30 39
56 51
68 14
70 51
3 1
66 75
72 9
75 6
62 13
62 38
57 54
78 9
27 10
54 65
33 4
51 77
47 56
28 8
55 20
29 32
63 2
20 7
54 61
8 30
57 78
56 71
48 55
3 21
71 72
46 67
66 61
1 21
73 26
49 69
39 36
36 53
9 50
61 76
54 62
11 39
43 24
37 69
73 20
61 38
75 15
1 53
50 77
76 29
12 72
32 14
9 31
58 19
65 77
56 72
55 1
50 42
53 33
28 52
75 64
62 27
63 64
51 7
4 66
77 39
10 35
3 12
7 45
46 58
64 4
9 61
15 30
60 71
31 69
8 71
49 27
43 53
12 68
