Vertices 115
33 "#94"
60 "#5"
61 "#66"
22 "#29"
27 "#7"
75 "#41"
14 "#0"
49 "#1"
2 "#19"
6 "#114"
92 "#113"
91 "#75"
98 "#15"
46 "#62"
15 "#79"
44 "#95"
68 "#104"
52 "#100"
63 "#33"
74 "#85"
5 "#6"
21 "#69"
78 "#4"
81 "#72"
106 "#105"
51 "#107"
13 "#81"
90 "#26"
8 "#112"
72 "#13"
4 "#46"
77 "#67"
69 "#76"
64 "#64"
62 "#102"
83 "#9"
87 "#92"
36 "#111"
50 "#48"
111 "#110"
23 "#17"
95 "#93"
16 "#8"
94 "#65"
10 "#57"
105 "#108"
28 "#10"
20 "#84"
71 "#22"
76 "#71"
96 "#70"
24 "#35"
97 "#54"
80 "#27"
48 "#73"
89 "#40"
31 "#45"
67 "#77"
25 "#49"
29 "#53"
38 "#24"
109 "#3"
112 "#101"
40 "#90"
93 "#42"
82 "#82"
104 "#96"
57 "#99"
79 "#109"
85 "#34"
43 "#23"
37 "#21"
110 "#63"
17 "#97"
41 "#56"
11 "#50"
42 "#80"
47 "#59"
26 "#37"
30 "#20"
7 "#91"
1 "#25"
39 "#12"
32 "#47"
88 "#32"
58 "#39"
54 "#14"
12 "#60"
73 "#18"
113 "#103"
66 "#74"
18 "#16"
65 "#36"
59 "#55"
102 "#11"
103 "#28"
35 "#89"
107 "#87"
55 "#106"
70 "#88"
84 "#51"
3 "#83"
115 "#30"
9 "#31"
45 "#98"
108 "#38"
56 "#61"
114 "#78"
101 "#52"
100 "#2"
19 "#58"
34 "#43"
99 "#86"
53 "#44"
86 "#68"
Edges
105 6
89 83
96 76
100 24
81 63
23 90
94 109
87 40
36 54
44 34
60 71
114 13
29 41
47 14
101 77
112 17
46 53
56 34
70 87
88 2
60 93
9 1
81 95
28 24
103 20
83 53
76 48
105 64
77 61
110 100
67 70
48 54
71 12
7 35
49 54
105 106
17 18
81 76
59 77
31 30
17 62
101 83
46 18
37 46
55 111
38 46
87 28
20 33
56 25
93 23
10 25
47 22
71 75
111 44
11 65
61 58
102 71
19 12
104 52
94 50
72 45
37 71
62 113
79 55
102 115
35 95
19 30
5 31
112 52
27 94
42 93
47 43
112 45
112 33
1 2
34 78
49 32
36 51
43 9
62 52
86 89
18 53
61 49
51 18
106 55
22 109
103 5
37 72
43 53
16 86
98 10
59 108
4 84
94 19
76 91
32 61
32 58
60 9
67 100
69 48
52 17
111 6
59 85
92 106
56 49
72 89
91 46
28 84
7 70
92 68
101 30
87 35
15 67
11 9
41 109
68 79
29 34
51 106
19 46
96 91
89 29
34 37
43 19
115 57
42 20
72 115
60 110
73 103
92 36
76 80
90 24
62 46
109 102
33 113
98 14
40 95
63 43
94 85
48 96
83 25
51 92
82 114
15 42
1 108
79 6
43 30
13 20
22 94
49 9
35 109
8 79
106 8
31 73
34 1
3 48
72 83
113 57
38 93
74 40
32 103
1 39
114 3
82 64
4 28
65 56
53 64
86 32
51 105
5 51
97 82
99 87
83 11
40 70
14 39
108 13
85 75
24 49
23 109
106 36
113 104
25 31
1 84
2 64
59 50
79 51
35 74
7 107
104 57
53 84
33 47
16 98
87 95
98 1
111 8
89 53
99 40
80 37
2 75
78 50
62 44
31 18
44 94
17 104
72 85
12 4
39 90
98 28
44 23
85 46
52 57
91 12
19 34
46 26
111 68
103 23
15 20
69 59
66 69
113 112
27 24
111 106
20 85
41 89
72 71
112 57
72 12
106 68
80 47
67 68
44 112
50 93
34 49
82 67
73 14
57 44
1 24
43 26
3 20
100 85
38 84
10 99
70 99
43 73
89 19
79 106
74 95
80 85
55 82
50 26
86 28
39 59
20 82
87 7
3 15
42 82
99 60
68 105
99 35
78 77
18 85
90 83
47 75
30 39
69 43
58 29
88 23
5 93
90 82
26 100
113 52
3 82
91 66
92 1
9 32
8 11
76 49
19 98
79 105
67 42
93 94
108 56
11 14
21 102
47 100
25 32
44 45
56 54
84 78
66 56
36 55
80 63
81 96
74 99
7 26
105 8
12 62
37 5
103 31
41 78
56 71
15 114
12 24
10 30
17 44
94 1
98 21
1 13
32 28
2 12
57 110
92 79
33 37
30 49
99 107
47 71
78 66
95 7
53 37
40 35
111 92
14 16
34 72
75 5
94 84
69 56
50 49
66 76
17 33
2 9
60 77
14 23
34 110
46 61
22 78
103 43
64 88
40 107
41 70
72 3
66 81
33 45
104 33
36 111
26 4
74 70
57 17
39 26
95 66
31 53
76 69
97 9
89 109
89 5
86 50
86 97
6 36
115 87
92 8
55 6
56 27
34 23
92 6
11 87
69 81
23 21
99 95
76 14
67 20
87 84
68 51
40 96
20 114
19 49
49 4
40 49
25 97
7 74
23 12
115 23
2 5
