Vertices 206
146 "#88"
33 "#182"
201 "#195"
87 "#136"
32 "#83"
85 "#200"
124 "#181"
77 "#188"
136 "#75"
19 "#201"
105 "#162"
118 "#27"
153 "#90"
38 "#36"
139 "#166"
177 "#2"
98 "#117"
106 "#100"
180 "#63"
31 "#191"
45 "#62"
112 "#64"
187 "#121"
7 "#145"
60 "#3"
141 "#186"
129 "#203"
73 "#76"
132 "#43"
61 "#122"
67 "#1"
51 "#19"
4 "#34"
165 "#69"
154 "#5"
184 "#86"
162 "#107"
58 "#170"
68 "#72"
108 "#142"
5 "#37"
199 "#101"
55 "#172"
194 "#114"
166 "#183"
192 "#74"
123 "#13"
71 "#51"
173 "#123"
203 "#134"
39 "#177"
89 "#126"
16 "#193"
21 "#6"
78 "#60"
65 "#106"
126 "#199"
56 "#45"
130 "#141"
104 "#87"
92 "#149"
193 "#84"
2 "#143"
100 "#55"
114 "#171"
28 "#185"
144 "#9"
103 "#124"
3 "#65"
10 "#71"
174 "#163"
25 "#178"
149 "#30"
30 "#44"
182 "#61"
74 "#205"
50 "#133"
72 "#115"
54 "#89"
17 "#128"
156 "#167"
178 "#112"
23 "#109"
80 "#73"
81 "#173"
111 "#169"
62 "#187"
14 "#127"
24 "#78"
52 "#12"
143 "#99"
195 "#95"
160 "#155"
97 "#131"
181 "#16"
172 "#110"
1 "#157"
163 "#158"
164 "#96"
179 "#48"
70 "#25"
168 "#204"
115 "#154"
169 "#20"
48 "#8"
110 "#92"
148 "#139"
133 "#4"
119 "#198"
8 "#196"
57 "#153"
12 "#179"
138 "#98"
204 "#168"
116 "#42"
76 "#104"
63 "#94"
86 "#18"
95 "#160"
26 "#180"
134 "#184"
34 "#111"
22 "#116"
120 "#197"
82 "#41"
128 "#152"
35 "#175"
175 "#35"
197 "#146"
196 "#151"
44 "#22"
99 "#79"
121 "#97"
107 "#119"
64 "#47"
161 "#176"
75 "#174"
198 "#77"
167 "#165"
159 "#192"
176 "#39"
79 "#137"
127 "#38"
137 "#135"
113 "#202"
36 "#132"
93 "#7"
157 "#102"
152 "#144"
155 "#81"
11 "#140"
40 "#125"
101 "#113"
205 "#156"
183 "#68"
122 "#93"
90 "#40"
15 "#91"
9 "#23"
140 "#29"
151 "#21"
29 "#189"
96 "#103"
186 "#161"
42 "#108"
66 "#31"
171 "#130"
185 "#59"
91 "#32"
142 "#138"
131 "#80"
18 "#53"
102 "#105"
188 "#54"
117 "#67"
49 "#129"
190 "#50"
27 "#56"
109 "#10"
83 "#164"
13 "#82"
125 "#190"
202 "#52"
145 "#17"
170 "#14"
37 "#194"
20 "#26"
84 "#58"
88 "#120"
150 "#28"
43 "#66"
135 "#118"
206 "#159"
59 "#147"
200 "#85"
158 "#15"
94 "#0"
6 "#70"
47 "#46"
69 "#33"
191 "#150"
53 "#24"
46 "#49"
41 "#11"
147 "#57"
189 "#148"
Edges
3 61
87 65
154 66
143 79
94 123
118 82
194 90
3 83
137 46
175 150
172 169
183 100
21 195
171 11
103 185
55 197
103 11
155 176
8 19
153 110
16 168
144 48
193 91
36 50
124 89
193 15
187 10
86 93
82 36
159 15
191 114
193 17
28 197
6 32
17 42
6 132
159 103
112 3
103 21
111 26
76 41
180 82
165 143
104 30
161 198
103 93
165 158
150 100
135 131
153 152
81 114
54 128
104 41
76 31
99 136
70 179
45 145
151 100
84 153
92 171
148 76
97 26
149 147
67 106
73 10
65 199
22 71
21 99
193 93
180 90
181 47
135 80
52 91
63 173
38 133
102 104
194 101
100 186
162 173
80 188
24 49
43 66
147 171
110 102
82 88
156 95
178 16
188 22
146 30
152 59
200 157
104 199
131 149
99 192
200 61
61 194
129 125
193 194
119 186
47 132
3 133
93 177
186 9
85 98
124 113
160 9
70 63
100 23
20 78
39 205
47 140
118 170
138 186
121 45
143 84
151 94
170 206
28 87
3 194
102 101
153 133
116 181
171 105
199 198
183 153
39 138
135 198
135 36
192 68
149 136
98 205
106 111
67 18
106 102
163 102
182 145
40 135
180 84
87 148
78 21
186 95
130 11
62 110
43 52
171 142
52 144
156 78
40 108
140 84
163 23
175 82
16 166
87 10
16 8
6 60
194 31
88 83
60 144
84 5
50 13
17 113
134 2
86 63
32 124
174 160
2 91
130 102
3 135
112 188
115 32
160 111
17 49
100 12
132 15
149 176
45 144
118 123
116 70
152 196
91 70
95 53
151 59
151 85
183 154
74 29
170 116
159 8
79 145
135 173
24 6
68 110
41 181
69 122
93 91
106 48
15 183
91 172
53 18
153 123
191 93
190 68
118 136
135 42
106 92
160 26
85 92
48 199
15 74
190 144
192 180
86 151
118 34
13 24
162 11
68 27
71 154
46 128
183 145
94 96
76 157
83 194
49 186
161 108
5 202
77 29
137 35
146 42
185 78
121 21
196 124
196 94
110 188
175 206
188 68
183 51
77 196
82 142
96 185
146 137
152 194
44 99
192 178
49 171
9 89
95 199
178 41
67 103
60 7
84 61
172 85
81 111
111 102
64 104
49 14
186 41
194 110
187 22
122 5
87 41
41 146
185 66
94 23
187 85
61 98
42 102
95 111
24 110
111 189
94 153
150 42
162 3
170 164
22 174
81 2
63 197
87 14
54 200
50 76
49 35
180 18
2 145
13 132
35 174
117 180
11 152
164 63
76 112
138 22
121 149
195 9
160 194
185 195
154 41
117 151
63 116
153 102
67 175
115 158
23 40
28 114
193 44
92 124
127 183
107 144
9 141
110 104
155 14
128 3
192 50
148 43
49 97
38 21
8 114
19 98
90 82
173 96
82 170
123 50
76 186
71 118
127 143
184 16
198 139
87 86
12 166
37 205
199 195
63 79
100 181
103 98
45 147
145 153
97 113
186 108
173 130
95 39
154 195
50 113
33 50
76 199
133 81
102 172
99 69
41 86
180 172
48 41
24 131
146 49
50 108
201 100
57 97
40 69
25 39
145 151
109 157
37 129
175 185
203 193
175 153
144 95
91 191
197 152
173 72
185 52
42 177
17 14
4 82
115 83
176 48
166 144
71 30
51 145
102 173
90 122
65 151
199 103
30 191
121 53
199 84
200 104
138 123
194 112
107 167
146 5
63 128
27 50
87 88
17 163
67 178
94 121
146 84
100 46
102 21
73 27
143 184
36 11
33 29
69 59
6 170
167 53
24 171
35 172
60 186
204 128
41 34
177 64
180 181
151 155
151 10
41 67
88 2
150 34
173 15
129 194
193 127
152 141
84 56
205 160
98 42
17 148
102 76
169 86
151 202
61 88
96 128
29 159
187 46
18 177
152 57
161 103
21 172
40 100
13 107
106 133
155 137
91 206
56 51
176 198
2 59
133 162
168 29
142 92
147 185
91 183
26 16
75 141
96 156
106 30
91 62
9 132
40 187
9 123
89 200
152 49
102 30
193 87
180 118
102 34
171 100
50 138
87 171
189 12
164 148
43 178
68 194
86 43
194 37
142 27
65 59
173 186
105 96
15 102
159 31
146 121
200 71
84 78
38 64
179 2
20 91
34 31
95 106
143 94
99 3
66 90
54 64
28 119
81 161
71 78
36 48
33 167
39 204
25 141
68 99
155 78
50 79
15 145
156 53
107 205
98 55
49 68
34 196
146 123
5 53
187 197
104 54
18 121
171 173
14 172
84 194
171 158
35 102
84 155
116 100
88 52
177 56
100 4
59 50
62 171
169 27
24 11
186 130
55 184
34 101
185 154
57 140
144 103
84 36
17 184
110 83
67 68
40 114
3 15
48 64
30 76
90 44
185 164
82 103
185 100
44 118
146 188
182 151
88 102
194 62
20 127
84 52
186 143
60 173
200 84
24 195
124 206
34 100
99 49
73 40
123 30
22 53
79 158
178 106
160 128
134 75
41 25
97 135
87 160
103 187
170 91
111 156
12 49
53 76
43 47
153 32
162 106
133 172
105 88
204 111
53 65
116 147
177 176
152 60
66 100
88 89
81 171
166 94
182 103
76 84
34 92
204 74
133 94
48 96
32 205
189 135
23 162
145 172
31 8
79 111
100 173
60 82
127 54
190 182
28 113
79 138
82 147
60 198
61 43
166 34
153 146
165 173
108 201
42 34
72 160
137 60
141 105
173 49
31 60
199 9
53 45
68 22
176 60
68 63
172 192
183 158
86 183
112 192
103 155
156 116
3 205
191 192
98 173
41 147
81 77
36 193
78 117
11 21
128 135
109 4
42 53
155 195
84 158
153 104
116 54
10 102
12 194
12 96
204 106
102 193
135 22
205 192
70 202
65 1
15 79
66 71
16 100
175 158
20 171
1 197
87 167
100 104
28 33
179 175
61 155
156 170
185 48
91 33
3 21
108 155
151 146
170 152
183 202
127 13
60 171
171 139
98 190
113 126
100 193
140 110
43 67
97 10
96 121
44 182
123 129
23 158
190 154
16 65
66 188
87 9
142 172
41 204
68 107
127 17
121 67
23 117
140 71
18 165
53 66
68 6
175 176
198 32
13 131
38 45
103 42
164 66
138 15
53 41
32 178
14 142
81 139
177 47
145 112
21 47
81 33
36 86
20 137
50 75
63 89
148 170
206 130
67 179
72 20
122 154
94 100
18 170
49 39
160 98
41 68
78 42
60 8
80 54
15 88
193 78
173 76
1 160
158 116
147 132
123 151
10 128
20 152
85 126
153 17
40 52
141 193
159 74
172 153
80 141
32 33
9 198
108 46
26 55
117 41
123 90
153 54
176 188
82 3
130 142
26 166
164 145
36 136
99 78
122 127
92 11
163 44
172 1
135 25
7 109
28 25
133 59
131 198
86 42
188 191
39 144
75 60
6 97
164 193
59 63
172 53
201 119
152 61
174 153
5 123
81 86
33 55
46 38
6 118
205 122
48 162
68 150
87 42
54 199
152 160
117 190
110 111
70 199
95 174
158 177
156 103
156 206
26 206
1 91
167 8
172 137
21 72
84 193
104 107
79 163
55 84
112 177
43 21
33 134
68 52
150 134
153 79
46 105
171 40
11 104
68 59
115 84
195 188
87 97
200 19
188 200
94 49
7 11
81 91
3 106
161 134
38 6
139 57
138 122
117 90
104 3
103 36
123 48
82 41
150 80
62 32
127 110
145 87
170 41
12 83
24 90
144 205
111 7
129 89
185 13
97 18
41 137
18 64
142 206
179 140
134 61
131 170
96 146
194 159
13 106
118 86
86 205
200 202
42 122
66 78
133 130
8 105
174 150
131 140
164 121
179 17
66 45
149 32
17 151
54 96
126 159
108 119
42 134
103 122
57 119
109 27
73 149
163 149
178 102
180 132
72 77
84 87
94 149
152 14
160 100
132 5
131 32
123 180
31 89
183 46
121 43
199 60
35 7
50 111
200 60
153 190
19 33
79 184
36 99
87 204
5 71
183 185
25 195
152 2
206 19
182 133
111 35
26 186
148 98
55 156
109 112
50 49
98 206
195 156
193 37
46 164
111 72
108 122
58 151
12 9
173 31
70 195
130 100
15 160
89 107
28 89
121 132
67 107
60 193
40 71
161 171
95 76
193 197
59 57
158 92
141 10
91 65
146 112
17 107
175 10
32 165
151 110
9 36
24 46
157 171
11 100
194 168
134 86
116 132
194 134
156 24
22 99
111 24
177 52
99 155
49 203
116 99
57 164
123 27
196 72
84 15
96 4
146 59
71 187
168 201
70 149
168 37
1 75
54 167
122 29
23 22
148 42
78 54
119 138
162 103
143 112
32 49
138 201
72 80
129 63
111 206
83 111
13 6
185 170
198 128
157 118
199 157
9 100
90 127
165 191
84 72
135 166
164 172
80 33
93 46
127 199
53 199
132 68
51 180
103 198
193 55
106 142
89 187
34 35
67 144
206 204
78 177
155 172
109 177
143 158
145 41
202 38
165 69
171 71
61 93
59 34
57 171
42 55
129 87
61 53
155 73
188 49
20 96
171 140
27 4
27 185
103 44
71 131
24 52
149 101
199 101
188 7
21 67
84 22
102 78
171 79
138 98
173 22
178 3
1 115
156 83
72 163
100 168
187 204
98 12
160 78
124 39
102 189
121 157
96 140
72 53
98 126
60 155
178 191
76 101
188 189
171 36
200 155
82 135
130 33
1 144
202 147
10 144
165 80
32 164
78 136
89 49
106 72
26 35
196 160
195 103
170 167
17 152
183 98
130 9
157 164
193 26
65 196
173 180
191 139
56 23
68 3
37 88
173 191
140 112
130 30
26 114
100 7
139 98
160 84
178 143
101 162
59 40
178 29
140 15
65 200
60 96
71 2
147 46
15 164
53 118
117 67
206 162
107 31
94 127
165 103
87 26
122 86
131 106
11 57
115 139
154 109
29 200
161 35
87 44
63 20
153 20
184 191
73 196
55 17
175 86
102 188
203 20
9 86
88 11
173 203
44 206
104 73
128 93
155 92
22 162
194 76
25 163
63 194
41 109
128 98
63 146
163 141
20 177
34 91
157 49
203 36
202 117
86 24
33 203
100 177
33 133
40 28
204 159
133 20
104 166
140 91
23 69
27 144
45 140
175 204
122 92
153 200
41 59
57 50
193 186
26 33
153 187
195 96
205 167
46 198
131 193
37 156
134 81
189 68
100 82
17 124
65 194
104 105
63 156
104 122
143 155
194 34
160 135
3 156
23 79
175 177
128 133
7 10
177 90
101 84
103 15
200 15
102 206
98 187
158 90
79 49
87 24
39 32
68 53
203 128
23 113
193 104
161 150
137 101
28 141
79 16
188 181
3 23
200 111
104 34
76 62
6 51
186 178
196 86
121 174
180 4
92 32
87 82
200 69
122 60
23 82
146 2
198 17
174 14
86 80
199 140
48 32
51 112
157 18
40 94
70 136
157 30
14 148
153 98
41 17
202 146
60 104
190 84
1 204
127 140
150 135
112 180
30 122
61 167
99 50
21 18
108 171
177 131
124 97
77 96
15 127
191 142
110 10
98 91
184 153
156 167
202 116
88 84
72 134
165 84
178 100
32 188
12 92
82 49
49 110
35 25
82 20
23 65
108 92
144 98
42 38
144 177
41 166
48 50
7 93
177 54
177 66
81 191
167 151
2 184
6 123
53 153
103 163
67 6
206 110
60 112
7 152
18 51
125 107
88 36
167 29
163 41
79 193
195 206
48 21
156 203
42 10
105 152
159 81
15 76
126 37
43 84
171 137
196 162
10 51
171 91
196 39
125 124
178 205
145 30
29 113
194 141
85 130
131 3
90 136
137 63
14 175
140 200
173 178
23 159
180 75
45 94
35 128
106 172
115 59
179 184
194 95
32 7
16 29
173 201
129 120
194 156
150 71
117 68
13 103
142 39
72 101
144 175
194 98
49 88
160 32
205 168
49 175
190 158
139 63
1 199
71 157
177 164
22 199
87 79
34 39
17 172
108 93
82 14
82 199
79 76
110 61
125 31
73 158
89 40
171 15
177 80
36 121
122 78
109 128
32 50
97 179
125 77
186 1
76 63
73 69
163 95
9 106
92 57
6 172
86 158
86 112
158 144
97 171
177 165
128 103
135 140
104 197
79 165
196 135
22 69
15 110
160 83
60 91
32 60
69 151
35 15
144 88
22 107
88 104
152 171
156 184
193 95
14 90
12 200
72 133
191 23
73 128
100 187
69 192
201 16
27 127
61 40
103 126
124 25
130 121
95 84
34 6
192 169
128 164
206 37
147 73
129 173
10 157
156 173
73 132
128 59
84 156
198 167
179 152
32 199
25 87
94 26
186 16
178 170
40 22
97 153
175 46
27 94
148 107
61 107
88 167
72 93
20 27
188 131
69 84
122 183
184 30
97 128
102 194
98 14
39 28
197 67
128 171
107 131
189 119
181 71
69 32
3 78
135 188
118 10
104 131
85 184
73 183
28 128
107 98
199 96
71 177
72 150
38 140
153 77
185 122
202 170
180 45
66 47
175 51
91 72
140 52
45 67
168 113
201 31
40 87
93 100
108 65
30 70
98 79
140 10
140 155
33 161
145 22
67 131
171 69
117 79
32 171
106 96
179 128
60 132
175 45
144 51
32 68
181 145
191 199
117 133
188 17
151 144
174 186
188 35
100 204
177 94
44 15
138 162
96 28
48 60
121 104
39 166
177 3
196 206
70 169
108 71
23 84
201 184
133 89
159 94
66 67
98 37
61 30
107 3
81 41
167 173
76 178
32 77
75 186
63 65
113 193
97 8
53 170
138 157
44 10
104 2
193 32
199 64
100 189
35 58
206 167
145 65
141 12
64 21
68 135
32 156
62 26
91 196
184 104
66 44
20 195
153 150
99 131
43 173
65 191
68 31
127 69
87 125
158 5
38 67
94 195
164 41
148 49
36 102
194 88
63 60
151 180
44 54
33 8
69 147
153 193
189 113
32 145
10 68
3 63
32 173
92 159
100 24
21 30
151 80
122 168
187 96
121 195
41 47
198 72
152 188
3 45
21 198
52 69
180 35
93 65
72 123
153 143
128 40
24 140
189 164
106 50
151 114
149 116
44 93
41 101
122 121
95 72
79 118
80 35
93 117
176 174
98 114
81 75
82 10
29 138
19 96
61 187
101 31
36 68
188 54
96 66
153 132
131 133
2 57
156 86
16 88
19 114
17 204
82 72
96 118
32 27
186 142
127 135
9 48
128 50
203 9
131 195
163 8
171 31
59 95
15 97
15 154
76 188
152 200
22 203
118 87
133 137
9 127
152 82
186 102
49 136
64 76
32 63
84 57
107 65
2 11
102 170
98 188
23 32
107 96
49 58
85 29
100 45
159 102
123 71
54 155
143 171
85 125
73 138
188 151
147 123
200 78
160 103
80 172
130 59
171 14
181 144
157 88
86 4
160 156
54 140
199 118
73 131
184 74
72 50
54 191
192 199
108 7
33 152
193 167
83 1
60 50
170 123
195 8
191 82
192 96
205 65
156 107
72 114
152 104
94 21
74 85
80 11
53 78
92 143
106 128
174 72
186 11
103 193
63 150
164 107
97 42
34 140
57 70
77 2
94 117
188 67
34 32
17 110
82 148
9 187
111 203
91 88
80 171
206 205
181 177
49 92
188 53
95 1
90 41
39 11
54 90
161 68
157 79
35 160
29 53
38 18
182 153
133 18
87 197
148 94
40 36
179 101
66 123
191 96
100 126
89 61
84 192
151 23
39 206
140 13
81 206
45 22
171 117
19 76
183 56
136 21
26 156
132 66
101 123
175 87
95 167
68 92
172 188
172 110
63 100
104 86
53 155
70 95
49 20
168 173
195 177
153 44
32 189
145 154
102 7
12 36
11 144
203 135
13 99
76 193
108 128
3 43
81 178
75 172
22 3
34 178
24 116
95 204
146 66
6 27
32 194
44 181
191 60
114 206
53 102
131 158
131 27
11 49
20 6
174 55
171 145
46 42
34 8
26 150
135 57
47 145
52 165
40 63
69 10
106 184
135 70
45 18
195 62
14 160
178 115
98 1
130 177
177 10
26 39
66 153
94 95
195 200
136 76
14 69
40 173
140 150
123 122
127 44
32 91
41 32
70 53
11 91
116 154
153 164
99 144
40 150
104 20
76 78
57 166
136 193
64 154
152 156
5 23
63 140
180 102
5 109
170 95
181 118
35 88
74 130
198 92
39 100
156 186
57 148
139 178
147 48
141 164
11 81
98 171
106 115
107 152
63 57
41 94
116 144
184 168
201 79
35 187
163 46
95 83
86 147
178 148
50 153
119 113
186 57
155 171
103 61
21 187
159 37
146 200
184 18
147 44
49 98
42 29
167 102
183 60
195 118
20 142
201 114
128 193
173 141
117 109
143 86
86 69
124 168
186 106
172 19
187 44
22 79
12 164
99 198
98 88
191 76
194 200
50 28
150 10
4 118
192 165
143 60
176 182
157 44
184 107
152 126
107 192
145 133
95 22
120 126
206 3
196 167
199 136
142 63
179 54
44 180
87 13
133 23
133 101
17 60
184 76
94 141
155 21
78 73
69 80
73 136
133 144
165 40
17 46
82 32
160 171
57 7
100 79
199 166
156 171
63 31
50 17
198 150
186 166
52 132
172 42
69 107
88 24
103 40
148 97
86 90
17 87
196 197
170 193
107 110
149 141
13 84
78 112
2 84
72 180
93 60
5 70
19 194
144 94
42 175
61 203
180 135
156 29
82 18
181 56
188 170
96 51
102 171
125 37
195 186
140 41
191 106
133 199
73 53
118 67
199 193
176 181
17 195
84 150
164 96
160 99
175 133
3 13
26 161
146 131
187 93
48 181
27 146
161 87
131 91
80 179
71 53
17 11
5 117
54 101
143 7
90 147
196 3
194 49
189 107
195 11
44 94
24 98
104 49
12 121
175 56
33 11
14 16
135 200
110 21
190 69
47 13
41 123
67 13
67 46
44 61
143 166
44 160
202 145
94 175
109 48
46 64
143 128
134 171
156 187
33 170
91 147
143 50
2 36
3 46
3 84
198 13
127 82
190 103
78 82
152 54
41 39
72 158
32 136
168 119
84 100
155 46
7 15
135 143
201 76
196 172
160 178
116 20
98 84
41 15
34 72
85 19
57 26
16 62
187 79
84 198
18 102
94 69
29 125
137 111
100 166
193 13
108 76
173 170
71 43
102 55
127 60
69 72
160 143
33 141
91 146
154 133
90 73
196 88
186 29
72 22
17 74
23 42
203 113
50 92
34 192
82 173
40 21
198 116
121 71
88 26
6 18
160 36
70 170
188 48
88 99
106 138
27 164
9 204
98 63
67 27
80 160
103 58
77 94
27 175
15 190
86 88
142 49
46 201
94 204
49 60
138 121
77 34
163 110
97 46
6 140
39 12
39 84
100 32
176 158
148 128
94 203
158 60
102 109
84 152
104 6
108 2
38 96
49 144
155 193
184 202
30 18
73 3
108 137
153 5
138 164
22 50
48 142
49 41
63 17
130 1
131 69
164 76
65 29
98 40
91 75
199 4
179 133
32 152
187 52
43 202
118 169
136 169
95 65
203 147
109 169
189 81
127 79
34 198
103 22
18 175
85 37
103 39
35 42
150 173
148 152
167 70
195 98
21 175
149 45
69 104
17 98
205 163
110 19
52 13
17 8
115 162
53 84
136 144
167 98
84 49
148 184
23 109
181 179
206 53
6 17
172 59
182 149
20 117
191 152
177 21
60 2
185 112
111 86
47 198
203 99
110 90
86 44
193 43
119 50
192 80
76 42
143 175
91 100
80 127
198 155
11 53
186 201
206 33
70 171
46 87
95 150
96 22
184 159
188 186
80 102
44 38
104 72
100 184
96 139
76 44
36 188
44 27
14 168
188 194
184 69
172 34
202 123
81 194
12 107
203 108
15 93
49 86
26 173
166 65
7 130
28 180
96 88
93 151
188 90
76 170
81 156
166 87
25 134
25 23
60 34
147 151
137 153
108 176
202 182
50 40
191 138
65 118
79 3
92 186
171 72
175 38
189 46
11 59
102 135
91 203
142 124
84 73
196 187
101 42
195 18
172 187
98 9
71 109
35 148
87 206
63 96
193 173
101 166
143 106
1 46
88 53
22 194
22 190
111 133
71 117
30 202
40 44
49 34
72 46
82 92
132 149
200 203
68 95
183 107
43 70
43 144
92 164
165 190
91 27
123 92
143 58
103 194
200 30
134 35
188 158
128 102
205 87
9 103
99 32
39 172
148 135
45 70
97 2
122 151
146 133
144 199
69 15
60 84
155 27
100 111
206 83
151 15
170 32
108 189
86 66
7 92
1 76
76 104
123 49
120 37
5 48
54 70
135 27
99 150
183 66
102 140
195 63
28 161
168 162
45 64
18 182
68 17
63 148
101 64
24 203
37 62
44 70
53 185
198 136
25 174
43 176
170 45
75 161
200 22
63 189
45 61
63 134
18 93
46 98
206 20
163 167
82 13
17 144
137 189
72 103
22 198
70 140
180 50
60 164
27 49
65 3
129 148
37 22
84 144
96 76
51 150
175 117
29 126
125 16
189 92
88 128
165 187
179 188
187 162
32 155
41 188
187 11
150 194
186 116
179 6
31 72
1 26
17 104
94 68
146 145
160 86
67 153
69 117
147 165
38 68
193 49
49 42
78 95
25 95
146 140
41 195
135 84
14 84
124 63
151 40
112 183
36 128
198 169
44 100
91 13
187 99
138 151
118 185
98 72
78 57
152 53
146 170
49 155
7 189
42 82
75 84
192 32
5 112
70 163
22 191
144 32
53 69
155 187
52 116
103 74
205 68
40 34
15 34
196 103
15 100
200 18
191 2
115 40
130 109
89 127
53 174
125 166
170 66
72 2
20 118
60 128
204 83
5 183
102 40
200 17
22 41
83 61
17 142
61 12
195 194
175 167
34 160
166 46
40 67
41 174
110 39
21 127
55 134
8 120
57 89
60 77
105 58
144 100
172 63
52 147
44 149
201 134
149 110
82 131
199 20
132 86
117 150
109 30
116 192
71 41
10 188
171 107
69 25
175 43
186 104
125 19
203 103
12 149
168 42
202 18
153 107
135 72
103 106
69 152
127 3
128 57
150 98
143 68
36 94
173 75
123 84
148 171
195 53
78 70
188 42
44 67
99 42
121 19
150 91
7 171
51 202
144 176
93 45
120 85
188 65
53 55
174 108
147 153
15 122
89 110
128 7
104 177
178 42
163 106
78 187
51 27
82 94
121 136
173 9
80 10
206 133
169 9
4 123
34 159
164 174
82 171
116 95
197 115
122 10
87 3
150 169
172 10
107 177
21 80
84 131
197 205
203 6
143 123
85 63
94 51
86 179
122 110
98 59
192 60
75 33
100 158
179 191
92 152
121 131
50 86
30 97
152 192
95 205
26 50
151 143
125 63
32 83
17 105
70 193
96 178
36 49
153 85
129 94
54 23
168 189
121 110
139 167
204 139
12 87
109 96
150 87
49 6
189 206
43 188
194 39
194 17
128 158
52 154
54 13
140 32
167 50
63 28
51 121
192 104
94 20
205 69
28 103
103 206
101 67
48 46
10 197
171 17
84 178
200 13
74 124
184 3
145 53
172 98
61 173
93 155
125 104
133 173
123 98
112 147
190 44
132 4
14 6
39 35
196 111
94 67
103 83
59 92
130 111
97 203
133 32
53 10
83 167
96 138
41 4
68 69
4 127
78 199
48 38
14 70
188 180
5 181
206 88
31 46
135 49
27 179
2 39
95 36
155 30
171 76
1 111
8 188
51 48
88 62
33 156
92 78
173 59
167 105
183 47
17 3
50 84
42 164
102 95
143 52
141 41
127 179
57 129
12 128
142 96
146 82
89 115
163 83
183 71
15 123
88 136
89 12
204 160
37 42
116 50
186 22
98 115
42 107
10 152
44 132
184 170
143 66
102 118
188 11
43 158
195 28
121 200
184 6
159 158
180 100
114 172
35 89
123 18
53 200
173 144
44 140
151 5
24 122
100 190
203 26
206 194
46 13
23 150
123 200
193 97
155 50
65 135
161 3
37 113
150 24
42 79
44 107
194 144
38 3
21 82
159 85
70 182
80 82
18 10
121 5
150 20
107 106
154 94
11 65
49 100
184 84
204 49
1 166
72 153
28 134
52 60
47 202
143 188
136 196
148 44
17 79
88 48
195 162
124 69
40 8
75 174
123 28
95 20
7 34
123 51
8 191
125 68
63 38
127 10
177 86
68 8
98 22
18 71
80 148
88 42
196 104
66 112
189 79
114 3
150 39
195 16
57 189
49 198
82 183
25 161
59 15
73 46
5 185
44 122
194 189
102 115
203 141
44 63
116 94
76 195
51 164
166 97
152 99
69 105
155 13
165 21
113 8
143 164
86 98
185 146
139 22
72 143
149 139
14 22
146 23
188 175
6 180
94 164
156 28
153 155
77 8
80 6
73 68
161 125
46 8
53 99
104 188
71 185
179 117
30 96
60 9
206 121
147 3
128 11
10 71
108 103
142 1
104 63
103 86
199 30
178 28
90 98
193 183
44 155
123 185
75 166
16 11
102 32
22 148
32 137
66 109
24 73
23 141
22 113
30 193
102 134
146 39
112 69
184 123
7 187
62 31
203 60
59 158
148 141
104 145
103 167
102 119
162 152
46 63
30 150
35 146
79 46
40 148
72 102
68 140
186 32
54 189
175 66
33 184
175 184
188 19
47 5
186 204
142 152
133 9
147 183
188 16
146 98
164 105
76 180
72 152
20 106
195 43
149 86
81 36
150 55
191 171
145 18
198 140
102 23
41 131
143 177
144 188
159 120
80 46
150 136
81 187
129 159
177 60
90 45
6 192
146 172
67 122
19 88
197 130
191 104
205 11
62 8
142 98
197 65
139 105
14 163
115 12
61 22
144 183
151 105
171 104
123 68
140 86
132 67
11 197
195 173
124 35
116 38
48 99
198 68
178 206
178 107
133 180
167 65
20 176
109 69
187 193
24 91
60 62
32 13
88 170
15 13
142 173
54 11
69 134
20 23
133 123
93 64
37 53
141 200
163 113
196 14
176 78
82 184
72 17
151 72
194 41
11 179
50 158
159 168
189 49
20 48
159 2
116 2
125 204
64 66
72 206
110 8
157 87
91 6
78 36
81 39
150 121
96 197
205 83
91 129
85 204
104 183
204 124
160 69
154 180
90 149
151 112
10 15
2 94
116 206
65 171
195 146
97 196
135 199
178 174
168 92
129 85
80 144
32 36
54 31
135 44
141 26
53 117
110 12
160 88
194 7
11 9
105 204
94 168
173 148
152 22
7 177
184 14
104 150
203 32
132 154
160 76
109 133
79 168
178 140
144 44
131 18
45 165
8 101
84 174
165 78
14 97
108 106
26 28
6 131
200 156
39 42
25 105
167 15
108 173
151 187
88 125
48 180
53 98
124 105
68 193
46 21
191 31
53 36
118 178
104 156
46 167
62 96
121 70
196 110
184 96
194 154
202 149
78 108
202 181
17 121
156 141
78 96
132 137
78 28
167 35
204 82
194 11
108 60
110 44
99 193
147 20
162 194
151 91
172 198
94 194
115 186
133 67
133 27
64 47
160 186
114 134
150 195
64 23
41 40
79 97
49 137
200 122
95 98
41 63
126 77
150 22
23 165
3 69
20 162
35 196
107 190
166 49
36 115
186 34
112 48
84 42
7 155
104 15
66 27
155 174
130 32
170 20
52 64
83 178
38 54
44 116
79 178
23 46
135 184
146 32
70 181
143 147
28 160
180 96
97 157
66 147
87 106
118 18
152 15
136 45
165 10
11 193
176 5
205 152
198 123
172 46
75 151
86 84
180 110
190 41
70 17
83 144
96 67
42 171
98 11
114 23
46 185
162 159
97 76
190 183
149 18
35 72
63 155
2 150
61 176
43 183
75 22
152 184
151 51
117 158
76 22
59 205
60 159
21 193
95 135
195 87
56 48
199 130
151 200
153 180
53 205
46 52
114 75
84 46
189 146
66 40
172 22
3 175
172 134
98 197
181 45
48 165
48 136
114 46
41 23
18 194
37 151
41 169
85 148
146 78
4 20
148 177
52 66
144 178
191 151
176 93
53 182
13 110
49 87
55 206
8 168
54 110
23 119
144 182
177 23
175 68
81 144
11 79
182 30
34 50
82 158
79 10
51 185
104 35
171 193
193 198
15 54
19 105
98 141
88 72
167 92
126 125
17 97
135 94
150 165
151 204
10 180
