Vertices 187
111 "#121"
12 "#173"
96 "#29"
168 "#94"
27 "#155"
183 "#130"
122 "#93"
102 "#114"
80 "#11"
187 "#178"
56 "#48"
121 "#54"
151 "#52"
22 "#17"
171 "#30"
71 "#1"
109 "#71"
82 "#154"
120 "#118"
110 "#148"
106 "#116"
74 "#41"
95 "#124"
75 "#115"
115 "#63"
119 "#50"
174 "#34"
60 "#125"
99 "#141"
146 "#149"
153 "#10"
10 "#36"
24 "#99"
126 "#39"
165 "#97"
132 "#167"
52 "#164"
112 "#134"
33 "#53"
77 "#44"
105 "#98"
98 "#62"
92 "#159"
135 "#65"
68 "#186"
70 "#7"
40 "#14"
125 "#9"
64 "#58"
65 "#102"
1 "#185"
48 "#28"
83 "#22"
18 "#156"
139 "#136"
79 "#92"
149 "#21"
130 "#151"
103 "#61"
179 "#57"
143 "#170"
62 "#18"
9 "#25"
41 "#128"
147 "#146"
116 "#74"
93 "#133"
85 "#110"
42 "#67"
133 "#37"
182 "#171"
108 "#90"
35 "#81"
26 "#135"
152 "#96"
175 "#104"
7 "#103"
31 "#12"
150 "#100"
67 "#152"
4 "#76"
155 "#169"
169 "#165"
178 "#35"
177 "#140"
91 "#69"
45 "#56"
167 "#180"
86 "#111"
23 "#182"
134 "#13"
37 "#142"
14 "#73"
59 "#16"
114 "#51"
81 "#66"
69 "#87"
87 "#113"
20 "#176"
63 "#120"
34 "#79"
6 "#85"
97 "#40"
154 "#131"
128 "#172"
88 "#109"
16 "#132"
162 "#45"
44 "#49"
57 "#147"
94 "#160"
160 "#75"
38 "#126"
163 "#33"
21 "#83"
78 "#139"
140 "#31"
72 "#105"
136 "#88"
131 "#15"
156 "#174"
25 "#184"
2 "#6"
161 "#177"
8 "#64"
5 "#153"
54 "#43"
36 "#106"
181 "#181"
137 "#46"
145 "#91"
28 "#129"
180 "#123"
164 "#150"
13 "#72"
43 "#157"
176 "#183"
166 "#77"
148 "#84"
172 "#163"
51 "#19"
123 "#23"
124 "#4"
101 "#59"
50 "#95"
47 "#70"
117 "#5"
73 "#168"
29 "#108"
104 "#161"
113 "#143"
76 "#138"
185 "#55"
3 "#0"
118 "#27"
49 "#3"
15 "#162"
17 "#24"
39 "#112"
186 "#60"
107 "#137"
66 "#82"
30 "#89"
55 "#175"
46 "#26"
89 "#2"
157 "#80"
173 "#144"
158 "#101"
100 "#117"
58 "#86"
127 "#166"
142 "#38"
141 "#8"
144 "#68"
19 "#78"
138 "#119"
184 "#127"
159 "#47"
11 "#20"
84 "#145"
61 "#107"
170 "#179"
32 "#42"
53 "#32"
90 "#158"
129 "#122"
Edges
153 77
141 153
96 80
136 8
135 34
151 58
114 118
27 120
102 33
78 83
117 115
87 102
39 180
125 52
142 122
21 183
74 46
141 49
125 39
94 18
89 126
95 123
116 164
34 16
165 17
122 105
56 9
6 64
84 86
91 95
186 16
24 39
158 95
186 2
64 148
84 21
7 51
96 10
135 88
137 54
31 49
91 180
80 13
24 179
92 178
165 2
85 35
160 186
89 31
46 126
4 163
160 175
136 149
85 79
100 75
68 109
37 126
152 49
186 140
80 161
9 168
161 28
74 3
175 94
85 152
2 89
141 134
76 173
161 187
144 49
178 135
167 180
27 67
160 11
91 33
98 3
168 41
3 89
7 105
144 145
9 40
130 92
124 135
20 25
124 158
158 87
9 50
165 51
79 129
6 77
101 40
121 173
38 168
124 10
63 17
77 129
4 171
5 64
185 183
136 55
24 108
132 64
17 121
96 86
168 1
34 63
21 13
169 15
146 169
50 33
109 142
70 83
65 77
163 34
52 21
92 132
59 98
51 48
88 48
116 7
96 79
60 149
49 158
46 50
35 24
46 89
131 62
123 142
10 168
184 106
46 61
144 122
88 42
3 102
159 141
56 67
4 17
98 97
86 145
148 142
156 25
131 88
108 22
30 89
132 95
115 54
41 183
111 177
115 180
148 185
50 19
134 105
175 145
124 157
147 71
184 47
65 175
8 175
163 184
4 157
135 36
12 127
15 152
49 183
126 49
26 124
180 120
114 89
100 134
84 183
138 89
95 66
23 25
102 129
160 125
13 10
79 97
124 56
169 40
74 184
51 101
135 120
81 126
98 33
148 53
72 39
36 88
149 70
117 101
13 106
27 184
118 72
107 168
10 2
17 35
186 136
102 132
44 64
58 175
103 22
186 17
83 71
159 158
177 183
34 13
85 22
101 144
41 128
183 19
28 41
132 52
81 148
13 45
26 46
173 145
24 143
60 82
106 34
114 133
55 121
55 14
108 172
66 166
169 138
66 157
186 146
32 59
170 185
93 86
132 40
33 171
106 64
169 52
108 48
69 49
41 154
96 168
112 37
93 62
29 152
72 14
29 63
25 29
64 75
13 120
64 39
36 43
2 72
16 82
106 111
28 80
48 178
33 77
140 108
67 73
60 57
100 50
166 157
57 173
44 19
130 160
131 32
158 125
109 89
29 183
119 91
186 132
113 25
100 129
17 158
16 183
73 28
173 113
123 100
124 108
156 176
94 48
170 123
7 132
64 17
59 141
138 163
185 131
39 27
104 69
150 146
109 79
161 21
80 17
125 71
161 55
49 168
1 115
90 52
59 9
10 178
28 177
150 75
157 138
93 5
139 63
49 112
181 38
50 180
19 112
162 59
24 31
120 94
149 109
8 115
16 123
27 155
156 12
95 50
39 116
125 64
27 173
53 21
111 31
18 173
90 18
185 104
125 83
164 113
73 185
21 148
27 43
101 66
9 148
94 102
185 149
130 147
92 135
151 32
139 187
154 167
7 46
41 139
50 132
96 8
72 60
69 147
124 153
100 95
177 173
46 45
73 161
158 7
30 177
72 175
31 159
13 134
97 140
135 138
175 104
28 180
21 110
140 101
142 97
168 26
136 53
134 24
124 71
101 118
79 130
179 151
135 182
178 126
187 55
92 181
77 103
91 98
119 125
131 91
81 114
125 138
7 30
89 14
141 123
50 177
80 86
146 93
46 142
69 79
104 156
65 154
7 115
14 91
149 36
62 132
49 180
144 117
116 91
121 125
22 113
27 14
155 73
28 139
158 77
157 71
19 47
177 5
32 104
164 105
136 7
26 49
7 111
61 177
82 38
103 95
25 55
149 24
56 96
19 155
158 65
135 179
160 16
139 176
163 109
94 106
34 21
32 94
17 72
68 156
3 142
32 132
6 163
42 178
175 158
100 68
29 41
102 12
37 122
178 2
33 157
125 31
62 19
68 88
131 146
170 171
30 159
40 32
165 7
153 7
74 118
134 166
145 57
101 17
156 20
136 157
90 184
13 41
74 186
28 55
98 70
11 118
37 67
120 154
140 134
22 137
23 20
23 173
135 4
45 53
60 4
53 156
80 68
157 45
35 84
142 79
88 74
95 67
27 175
95 92
17 103
107 91
132 128
147 99
180 145
126 172
36 176
167 182
97 80
172 187
163 91
151 22
21 39
83 185
80 153
124 45
58 173
109 74
1 67
88 80
1 25
32 171
24 178
118 47
164 158
80 104
165 98
64 28
144 44
139 20
83 168
7 106
75 95
99 104
34 141
139 74
99 177
156 23
50 136
11 48
49 54
155 6
185 101
83 10
40 46
137 59
51 33
180 81
86 21
6 36
158 148
148 144
85 44
22 107
53 92
54 83
16 27
166 158
165 99
98 171
95 62
102 95
159 98
126 121
51 47
163 58
48 106
78 68
6 149
110 72
72 121
57 136
88 46
99 153
17 98
24 150
85 2
140 45
150 95
14 116
164 30
148 145
173 46
122 97
184 28
148 83
96 137
185 86
183 154
8 102
168 5
140 144
29 34
19 28
157 19
152 22
97 179
185 98
37 60
46 186
49 113
36 121
75 2
10 135
61 135
132 21
52 27
148 167
13 3
135 157
140 54
63 72
19 66
145 107
66 6
84 5
56 59
89 29
125 32
50 157
136 6
120 64
77 2
77 72
27 34
7 150
136 140
106 129
21 125
70 84
51 125
90 9
148 28
170 82
148 69
99 72
76 43
24 104
96 5
149 103
166 64
95 122
27 185
85 11
26 35
134 40
34 173
100 144
153 84
58 164
119 144
81 71
39 92
24 64
141 121
139 36
31 117
178 62
85 26
34 2
95 111
16 21
175 106
135 44
125 81
139 62
6 122
136 113
84 145
179 32
118 39
168 180
124 33
152 110
183 42
72 16
154 67
20 135
82 57
13 116
60 2
158 116
51 152
20 1
22 106
103 9
16 12
125 144
19 100
175 39
64 175
108 35
106 163
74 180
119 42
161 125
93 45
64 16
60 80
83 138
136 21
118 36
165 41
85 47
44 185
13 109
92 76
52 39
67 166
34 48
86 85
115 93
128 23
131 81
183 36
99 158
109 115
44 75
63 177
184 35
67 44
166 120
90 171
46 92
89 186
120 83
39 78
125 3
137 133
165 136
69 4
78 28
138 18
125 41
102 161
175 69
74 185
7 77
116 8
161 48
45 76
160 9
97 83
33 72
7 76
99 123
93 34
168 85
59 80
60 180
145 117
102 72
3 120
116 34
149 111
171 151
80 90
125 124
153 163
160 148
144 108
180 169
154 181
43 176
130 4
21 96
183 96
18 116
106 93
3 165
95 83
1 95
65 183
26 110
69 89
56 178
67 124
123 158
115 175
34 28
162 178
156 85
3 60
67 5
54 26
135 89
46 108
173 116
23 68
22 144
68 14
21 80
91 60
34 111
102 86
23 177
118 7
111 91
186 42
169 9
98 40
64 108
88 21
28 38
178 51
17 94
33 151
111 123
69 145
182 1
57 131
11 153
17 132
82 52
24 152
107 42
172 106
80 39
151 6
147 148
75 70
3 78
183 114
133 131
150 155
134 47
163 119
11 166
95 52
35 129
186 114
96 19
133 151
35 34
74 2
174 115
161 76
106 107
46 53
14 121
71 122
138 29
63 125
183 127
154 77
187 25
59 115
157 131
104 49
121 164
136 108
95 71
65 152
37 44
5 127
144 4
142 74
73 94
96 157
88 90
108 3
48 185
136 88
134 64
50 6
83 60
152 3
23 40
120 96
112 68
124 88
110 30
28 93
73 104
132 23
50 35
94 186
45 56
8 163
138 173
170 28
65 83
44 70
154 47
94 3
80 187
80 137
176 170
17 22
121 41
28 112
174 153
77 151
113 5
134 133
163 21
31 54
126 141
131 4
78 180
106 166
45 142
109 29
99 43
64 62
177 123
27 86
3 51
2 91
64 163
136 80
112 123
154 112
2 79
89 88
37 36
111 148
144 53
40 136
84 67
148 157
83 140
98 71
33 6
185 64
78 55
107 65
1 60
37 35
106 127
2 50
44 41
49 74
177 102
185 70
154 184
46 76
140 31
7 3
71 121
138 39
163 13
109 84
12 125
116 85
7 71
117 54
95 74
41 166
177 95
8 141
169 132
80 22
68 148
125 45
21 27
58 138
93 66
96 114
153 65
42 153
175 102
139 118
91 24
135 18
81 2
94 161
7 175
97 184
114 106
1 132
67 4
151 40
18 52
133 9
108 178
90 94
117 3
56 87
14 30
89 62
116 93
109 72
137 151
180 156
71 108
172 64
102 121
166 96
49 173
154 130
78 175
106 75
45 152
79 41
164 69
1 161
100 64
28 69
160 2
114 153
157 114
166 44
48 114
87 80
142 107
106 6
144 179
183 78
166 32
112 3
9 183
159 88
74 158
19 63
88 64
162 64
129 173
158 21
41 9
21 47
98 178
155 72
21 49
14 75
28 166
124 117
95 130
60 86
65 114
7 127
10 47
106 17
62 174
141 61
140 114
155 130
135 132
71 54
146 57
77 22
93 107
40 39
13 148
137 66
163 15
66 53
179 83
49 28
87 71
124 75
56 121
153 140
142 41
27 130
87 30
74 75
179 44
150 85
102 80
173 106
88 153
175 159
83 92
178 45
96 158
174 45
33 178
13 16
98 10
44 29
30 186
57 13
95 2
62 8
93 175
170 6
96 48
165 171
129 135
100 57
75 90
40 180
171 97
47 46
30 10
83 9
51 109
109 154
170 68
88 91
48 46
150 72
73 178
14 177
36 120
60 182
152 78
53 49
93 108
139 65
28 176
141 179
162 89
21 112
38 123
8 149
73 52
96 142
154 33
61 150
44 66
17 9
70 148
40 17
106 121
179 54
139 170
78 106
113 48
131 125
2 148
29 128
62 83
163 142
108 85
100 62
17 6
149 134
22 124
70 37
6 96
49 6
71 60
47 56
169 178
102 117
105 107
117 114
125 185
146 177
2 137
31 81
114 60
139 123
119 185
21 40
129 169
80 119
107 135
165 152
115 74
168 62
14 74
112 129
34 66
138 150
96 72
89 91
83 96
29 10
26 28
158 69
68 6
99 77
30 169
7 168
145 105
156 49
102 6
120 74
46 75
15 181
32 10
144 137
65 63
74 157
160 97
152 168
30 158
115 85
25 85
72 67
87 171
163 31
186 101
169 94
18 139
160 34
180 21
150 93
53 70
7 141
104 27
183 148
29 62
53 12
108 21
101 133
43 156
141 16
174 7
26 21
183 107
44 10
164 149
86 87
114 109
117 32
166 35
37 114
140 159
70 67
150 104
132 12
69 22
165 79
111 132
184 139
44 31
7 152
142 38
14 56
118 59
100 97
115 64
13 146
165 157
136 151
171 126
89 59
48 128
22 139
73 3
73 80
31 66
134 75
64 58
20 183
95 29
87 61
148 104
120 115
121 30
56 58
109 17
144 151
151 134
179 4
74 21
132 58
142 158
69 144
181 163
3 45
131 178
178 58
113 16
17 118
141 91
124 46
122 79
142 135
140 8
92 79
166 49
135 98
179 91
106 104
4 13
185 168
119 103
19 32
33 103
171 127
115 79
88 149
125 94
43 104
36 53
106 102
53 177
79 155
150 37
151 149
144 185
93 41
75 87
140 24
161 12
80 139
165 71
28 47
95 129
130 61
80 174
41 49
186 111
46 118
18 125
129 83
116 86
130 181
129 17
75 72
19 122
185 3
17 33
30 145
136 26
64 31
44 169
125 49
80 114
19 4
150 157
25 129
46 150
142 120
27 172
15 143
79 90
28 35
43 155
120 6
94 36
137 81
134 124
63 64
4 35
27 123
75 120
28 46
155 92
17 163
41 50
60 95
96 9
49 70
35 44
1 50
66 74
93 156
76 141
58 24
62 27
185 174
54 145
40 78
11 9
125 102
179 101
120 158
27 75
81 140
30 79
145 96
96 136
108 115
160 63
130 55
109 111
183 22
50 80
124 3
121 100
180 104
7 10
50 81
172 152
139 169
45 35
134 136
157 69
98 96
145 83
62 69
155 132
134 33
150 135
185 88
186 29
133 136
122 109
142 144
179 183
64 49
131 107
47 40
69 122
53 23
135 67
104 177
2 44
80 40
182 92
128 64
104 132
40 94
3 149
178 29
42 13
164 77
28 143
98 160
70 62
118 158
167 48
22 36
108 83
69 116
33 159
53 96
125 149
48 77
184 9
68 152
128 148
92 40
144 131
130 135
41 78
169 95
71 178
159 89
86 118
140 89
177 113
124 136
148 40
162 141
33 2
122 83
129 180
108 111
20 167
39 7
141 160
123 150
166 13
34 83
31 63
2 159
31 96
30 97
183 26
150 105
56 62
75 173
1 7
141 101
78 184
64 35
37 113
115 75
67 150
22 136
9 171
63 145
74 73
125 177
85 166
86 29
175 152
140 178
43 94
149 179
143 55
157 171
94 158
183 146
139 50
14 78
136 168
72 94
25 12
6 30
115 185
77 175
80 176
154 113
21 22
163 145
109 125
32 46
6 145
72 120
26 87
184 41
84 146
3 2
68 180
170 67
140 40
64 173
40 121
68 123
169 36
69 55
121 149
161 113
122 146
183 145
92 165
39 172
91 164
139 44
144 81
107 41
32 93
4 97
133 108
176 44
134 51
83 171
23 1
63 28
166 34
53 179
16 67
28 121
82 131
50 117
85 72
125 100
67 112
186 135
64 129
108 103
28 107
140 185
58 69
183 37
141 51
136 77
157 47
175 164
151 103
152 140
113 64
19 48
6 41
140 7
17 85
45 11
72 108
173 84
159 69
45 71
158 43
145 142
125 28
74 178
88 162
182 156
51 162
4 54
96 30
187 68
173 146
150 90
50 165
125 98
151 42
16 74
175 80
74 28
6 108
47 66
176 185
179 112
163 18
112 53
62 118
69 6
176 125
115 149
177 67
183 74
44 178
123 166
3 50
37 93
62 96
125 180
50 118
45 4
16 3
80 117
28 100
77 9
29 154
99 92
163 173
80 62
47 33
58 108
168 21
64 102
8 133
102 41
53 31
48 13
24 183
112 34
62 163
64 161
33 40
83 59
109 4
29 136
175 121
74 179
151 81
58 23
17 140
136 161
49 116
144 162
59 185
164 70
6 35
57 94
39 96
16 95
144 74
50 187
185 21
88 29
32 185
38 63
100 102
18 39
81 135
22 149
30 66
125 103
160 28
64 96
100 108
46 94
21 152
70 145
78 154
166 75
149 105
106 164
64 87
31 179
64 131
22 59
156 115
66 35
117 22
83 139
99 89
121 69
141 10
160 4
87 134
17 16
45 83
89 131
8 144
135 64
14 47
63 129
123 180
137 166
115 134
71 33
61 106
141 125
17 13
153 8
178 109
62 54
120 9
179 163
114 77
51 22
141 133
71 118
93 35
74 80
45 120
124 180
89 50
96 13
27 95
80 172
131 121
110 136
35 146
133 122
63 40
144 114
16 170
180 75
165 170
57 93
172 156
32 168
94 155
84 111
187 1
149 53
36 70
93 167
134 118
24 89
142 49
7 96
116 21
151 59
48 42
66 54
123 54
114 113
145 149
17 169
64 157
101 178
51 45
90 187
130 120
133 88
13 24
8 89
63 16
109 147
60 129
5 78
64 82
138 7
43 125
128 147
20 55
177 107
169 100
145 66
41 47
123 11
30 142
28 183
145 109
28 154
106 156
26 80
51 115
25 102
171 3
93 134
93 16
106 100
123 104
69 77
84 99
121 177
44 15
111 70
54 47
148 175
60 100
168 102
102 50
4 186
134 108
124 115
33 22
133 144
147 111
97 121
102 36
61 88
35 83
173 30
21 157
2 71
72 40
59 125
88 187
38 1
31 60
6 186
137 159
120 121
6 132
135 74
114 17
57 18
158 160
146 76
138 71
163 135
126 59
141 93
13 119
174 54
21 160
168 46
43 175
20 48
151 9
106 85
148 166
153 117
164 36
5 57
24 62
16 120
102 27
138 36
132 112
148 35
105 93
178 125
144 138
81 78
115 98
42 70
66 79
21 28
40 157
88 3
165 9
178 28
165 16
3 83
12 111
173 56
60 183
57 124
51 144
62 25
14 142
171 160
187 15
114 6
103 83
85 109
178 124
84 72
113 57
138 129
102 97
9 5
141 150
43 44
164 88
61 111
106 180
24 84
9 186
40 74
72 79
167 112
115 33
123 50
9 32
65 105
29 48
168 135
108 119
113 58
180 72
27 64
124 123
124 38
7 50
153 45
152 89
116 115
145 22
166 169
101 44
22 8
164 150
1 186
178 89
23 12
43 167
168 69
155 62
21 102
48 160
163 116
49 8
131 97
112 106
41 100
42 71
126 129
139 109
81 9
129 98
148 72
33 65
10 33
12 110
98 22
158 50
44 14
73 92
62 11
34 17
136 101
138 66
170 7
32 83
186 35
174 158
74 78
89 153
105 100
63 74
51 149
114 165
111 129
29 72
46 42
186 5
154 139
123 49
80 41
29 17
64 91
108 138
28 29
98 179
12 20
9 30
48 166
145 185
148 34
26 108
26 44
186 148
55 72
128 167
185 99
30 83
79 19
3 32
90 95
164 127
95 101
121 81
86 47
183 12
170 161
16 148
121 21
40 58
80 57
27 100
116 64
94 64
167 132
88 163
44 4
36 168
165 160
5 152
30 69
13 138
85 121
154 176
159 87
38 60
91 186
150 139
91 109
29 55
14 48
95 125
71 140
185 180
153 72
76 168
57 85
166 21
37 146
124 42
66 64
81 64
126 125
29 175
40 173
126 103
148 152
18 21
21 124
132 94
26 37
134 77
177 19
133 64
166 127
178 3
76 74
155 112
115 47
107 109
99 21
54 32
181 21
178 184
183 131
151 10
89 84
131 126
148 67
142 174
23 112
108 179
66 148
44 168
42 133
173 147
135 102
47 69
46 69
82 43
83 27
131 74
104 94
48 91
44 159
79 145
154 175
139 73
33 114
89 97
174 74
81 178
163 69
53 185
120 28
24 8
177 185
25 72
7 180
66 139
71 56
134 45
130 3
21 91
121 59
178 121
165 65
56 42
57 180
182 88
138 78
76 184
47 116
46 141
41 177
160 118
60 140
172 104
62 122
149 79
112 46
113 32
71 10
72 183
14 2
145 152
121 115
35 70
133 149
158 176
118 83
13 31
49 164
56 30
112 47
102 79
177 69
168 110
55 172
57 163
149 156
185 111
128 25
87 175
181 161
3 71
157 89
134 123
47 45
32 31
33 109
6 134
112 120
78 29
112 6
35 49
49 37
42 17
2 141
101 152
172 48
173 61
4 64
93 21
75 25
148 41
158 36
135 13
2 135
44 110
54 108
123 185
28 16
165 33
58 7
21 141
112 180
104 50
50 92
164 173
42 149
35 168
74 33
143 149
65 109
158 141
58 135
173 102
180 99
148 49
101 50
101 45
178 13
5 173
149 14
183 67
80 121
186 8
75 155
56 113
24 146
128 72
50 48
154 44
107 24
23 14
77 122
164 56
77 150
142 24
51 151
136 45
49 122
124 103
179 80
100 94
180 132
152 108
2 142
187 120
50 17
114 101
69 135
134 28
67 57
62 81
132 19
2 111
74 136
121 8
124 85
5 154
174 134
163 60
90 169
81 129
101 7
109 121
94 150
148 169
74 29
35 149
70 33
34 186
30 35
1 134
17 133
7 147
41 58
76 99
159 70
145 154
68 171
126 70
46 183
62 63
117 119
146 134
67 109
94 52
74 164
176 87
111 60
165 81
116 11
96 109
177 2
14 85
18 169
136 85
57 149
47 58
102 48
106 158
158 46
33 118
118 109
152 80
161 92
34 157
76 150
29 85
167 55
132 27
1 68
89 33
148 177
139 78
14 62
49 47
185 19
145 122
54 171
30 32
94 172
61 92
134 80
155 52
107 154
29 161
71 39
55 181
167 139
53 19
97 115
130 36
172 37
167 92
28 136
114 59
18 13
134 122
157 120
46 179
67 30
106 135
172 35
92 72
90 72
67 93
97 19
90 83
185 69
42 114
45 28
139 107
139 48
96 35
118 107
100 180
101 31
21 173
176 5
8 135
136 100
145 119
120 29
69 80
66 21
27 73
73 123
150 82
177 56
62 171
91 31
181 187
180 48
95 61
169 130
173 130
118 115
60 88
78 89
12 80
43 73
68 132
155 93
70 129
152 105
135 145
118 65
121 157
146 74
95 35
95 119
106 98
141 63
122 101
119 83
72 186
178 139
154 56
133 54
173 74
150 58
48 120
137 140
116 138
44 141
79 171
70 95
105 61
18 62
121 136
3 46
183 184
52 43
29 87
168 67
136 64
157 53
18 92
135 41
27 186
186 122
119 106
103 171
64 139
110 120
138 106
14 183
144 62
21 45
109 83
134 101
19 31
167 176
67 120
9 98
84 49
21 35
48 109
73 150
72 104
72 21
177 16
52 135
131 119
98 140
55 115
187 20
140 62
119 100
185 161
71 13
34 32
106 95
28 76
77 35
83 79
68 90
28 185
120 14
57 177
133 59
24 27
186 175
21 146
72 87
14 109
126 186
106 80
93 64
3 80
81 39
130 111
19 139
32 116
161 167
168 13
157 163
135 39
71 44
122 165
71 66
119 138
138 152
179 8
159 10
102 61
87 124
29 121
39 29
183 35
168 25
64 156
7 164
121 6
83 111
60 106
175 83
57 86
118 40
13 94
159 117
100 29
5 120
112 16
9 53
78 168
134 114
27 139
42 80
58 77
25 48
108 69
123 62
89 185
168 132
137 89
35 111
12 62
47 13
66 96
86 39
62 97
124 61
89 70
35 126
142 56
150 39
29 139
6 65
80 157
37 110
4 105
130 184
126 133
105 165
33 58
17 175
89 49
86 72
14 125
108 79
173 109
14 163
66 142
165 133
62 28
47 71
83 115
100 138
76 104
105 106
119 64
75 94
114 111
177 100
18 27
139 135
148 77
172 184
54 165
168 181
158 9
67 7
5 183
82 39
65 28
60 168
115 141
149 163
18 100
64 145
64 186
66 135
153 133
92 169
53 164
53 130
71 80
97 134
177 84
168 57
131 42
173 68
101 8
166 2
145 134
179 171
110 5
180 148
128 58
168 80
145 80
39 104
99 57
60 185
147 177
3 28
94 148
21 171
83 142
148 95
2 35
1 167
62 130
134 179
8 51
61 50
11 80
68 167
140 179
117 122
62 16
44 152
37 84
125 34
71 150
67 60
57 36
134 58
74 97
149 122
30 108
167 23
117 140
186 7
160 166
187 94
96 47
64 184
27 145
120 60
74 58
92 32
42 3
67 153
115 42
97 42
9 94
158 186
64 29
16 60
115 72
174 46
187 163
40 53
166 126
122 163
64 48
174 118
72 69
175 40
62 149
5 146
41 56
93 60
43 85
64 158
27 163
183 139
125 89
140 121
92 139
163 42
107 175
104 121
84 185
80 141
150 124
165 172
95 112
100 170
47 53
37 186
76 181
28 79
110 92
150 66
17 108
106 120
6 173
54 13
62 179
41 76
40 152
75 55
