*Vertices 206
34 "#14"
90 "#117"
181 "#200"
146 "#161"
162 "#43"
111 "#47"
127 "#88"
28 "#165"
124 "#104"
178 "#185"
165 "#84"
35 "#15"
108 "#199"
179 "#35"
60 "#126"
120 "#94"
42 "#39"
198 "#164"
57 "#204"
75 "#136"
62 "#167"
16 "#101"
172 "#8"
72 "#22"
121 "#134"
186 "#166"
103 "#9"
196 "#145"
93 "#132"
135 "#26"
152 "#147"
80 "#1"
7 "#83"
11 "#194"
78 "#20"
49 "#7"
118 "#178"
82 "#202"
170 "#118"
202 "#135"
38 "#114"
55 "#139"
160 "#61"
97 "#82"
110 "#148"
163 "#115"
65 "#106"
106 "#129"
58 "#195"
139 "#89"
18 "#91"
21 "#45"
105 "#99"
3 "#62"
68 "#23"
59 "#142"
149 "#68"
45 "#182"
22 "#86"
158 "#73"
31 "#191"
184 "#144"
112 "#103"
87 "#181"
76 "#70"
166 "#36"
168 "#141"
136 "#131"
134 "#187"
187 "#172"
155 "#159"
199 "#80"
102 "#87"
44 "#198"
183 "#152"
148 "#143"
171 "#122"
197 "#130"
182 "#0"
201 "#128"
132 "#41"
61 "#186"
203 "#53"
154 "#67"
177 "#116"
25 "#111"
204 "#162"
161 "#109"
188 "#203"
20 "#113"
147 "#98"
24 "#28"
113 "#71"
116 "#13"
1 "#25"
192 "#57"
6 "#175"
144 "#197"
100 "#155"
39 "#32"
94 "#107"
86 "#176"
56 "#44"
70 "#105"
200 "#137"
157 "#171"
67 "#180"
83 "#173"
169 "#64"
91 "#46"
27 "#102"
175 "#150"
143 "#93"
205 "#16"
145 "#201"
206 "#153"
122 "#100"
64 "#51"
29 "#112"
194 "#205"
131 "#29"
15 "#50"
32 "#169"
98 "#31"
140 "#40"
37 "#125"
101 "#65"
46 "#74"
141 "#133"
189 "#138"
52 "#196"
51 "#55"
5 "#30"
150 "#79"
153 "#42"
123 "#146"
41 "#154"
107 "#174"
159 "#119"
2 "#96"
84 "#10"
50 "#33"
40 "#6"
36 "#158"
88 "#3"
126 "#163"
13 "#78"
180 "#18"
138 "#66"
17 "#177"
156 "#108"
128 "#120"
19 "#151"
14 "#37"
117 "#21"
92 "#60"
48 "#54"
85 "#90"
89 "#5"
79 "#27"
77 "#95"
191 "#12"
104 "#72"
54 "#52"
164 "#24"
151 "#19"
195 "#156"
174 "#183"
129 "#140"
73 "#4"
125 "#59"
63 "#110"
23 "#193"
81 "#184"
109 "#97"
66 "#149"
53 "#124"
130 "#85"
137 "#168"
185 "#157"
4 "#58"
119 "#11"
96 "#49"
176 "#170"
12 "#92"
33 "#38"
114 "#2"
190 "#121"
71 "#179"
10 "#75"
8 "#48"
133 "#56"
142 "#69"
47 "#77"
30 "#190"
69 "#192"
9 "#63"
26 "#81"
173 "#188"
167 "#127"
99 "#189"
193 "#123"
95 "#34"
43 "#76"
74 "#17"
115 "#160"
*Edges
42 68
116 51
120 127
7 3
85 59
100 139
130 32
125 88
55 136
25 149
204 38
100 146
138 169
161 156
8 182
104 168
101 161
125 22
195 112
94 101
159 95
199 185
78 162
131 73
8 166
192 9
201 124
150 9
1 96
80 38
180 150
150 26
201 200
205 68
47 36
100 127
102 37
136 121
193 126
176 83
70 110
17 86
40 34
13 58
13 47
171 169
154 192
48 74
202 71
6 11
81 2
114 12
96 113
141 196
83 108
149 197
199 132
68 138
86 201
84 13
90 204
153 33
142 47
28 206
191 103
148 76
25 147
180 101
26 53
143 102
110 75
33 78
196 65
27 152
158 105
43 101
98 3
16 65
154 147
6 176
113 180
124 116
56 95
117 79
128 101
112 122
8 142
200 204
79 94
85 113
170 121
74 21
190 128
3 15
153 114
1 191
69 173
7 13
69 145
180 68
76 47
89 164
36 126
157 107
100 199
38 5
2 40
117 91
104 165
51 63
141 185
55 130
20 143
90 105
174 186
94 85
190 60
41 70
146 190
93 171
204 122
156 87
143 27
71 113
146 38
183 146
41 190
96 111
177 138
185 198
201 108
74 124
48 72
122 16
46 90
39 7
170 104
20 32
13 22
103 179
13 37
111 43
18 12
51 12
143 19
9 33
126 204
107 17
149 26
137 71
53 200
54 150
2 48
112 159
160 16
80 139
24 49
70 46
145 173
44 28
1 54
169 97
46 1
138 60
171 55
113 110
11 145
119 189
148 17
44 52
168 196
102 123
126 70
13 12
72 79
73 203
128 53
203 48
128 133
179 112
150 163
149 33
118 81
128 20
8 160
203 114
55 129
114 88
22 191
6 115
175 130
121 141
75 134
30 110
34 154
162 182
27 75
77 204
8 165
114 121
169 185
132 1
49 72
162 91
145 99
171 43
151 79
142 149
129 198
68 40
169 7
74 91
164 64
46 43
171 126
201 159
8 97
192 50
148 19
54 43
156 170
25 124
123 75
160 116
21 8
171 28
197 121
53 70
15 162
114 34
172 203
189 159
145 186
97 105
139 127
109 60
149 9
158 112
126 163
159 170
51 5
147 4
199 48
162 5
36 2
94 197
159 53
62 81
110 41
77 16
86 157
15 68
42 96
131 79
42 88
96 169
154 38
88 85
177 38
154 65
160 48
37 196
7 151
32 18
63 25
160 132
2 195
56 132
90 128
104 182
12 29
153 169
64 84
185 183
3 43
6 146
171 53
200 196
75 201
92 101
12 129
46 34
143 122
14 125
53 13
11 99
143 71
4 68
3 42
22 171
143 84
25 12
145 23
111 20
173 44
35 113
30 11
140 117
10 170
131 119
71 176
128 149
124 65
127 179
196 28
89 8
120 76
22 182
85 156
130 47
128 148
4 56
169 166
133 43
196 6
25 57
96 49
1 25
92 158
20 125
51 103
154 193
50 101
81 198
117 165
13 32
115 190
66 146
21 133
45 107
37 65
82 30
96 166
146 45
185 30
136 128
204 150
2 77
196 110
158 76
132 98
196 20
9 112
117 151
128 169
94 39
105 94
168 171
172 80
149 140
138 79
206 82
124 28
182 151
48 124
77 167
130 21
170 96
114 151
198 126
97 135
173 194
20 139
75 143
161 90
1 80
97 196
28 41
14 15
177 163
160 72
111 114
151 68
72 150
76 168
42 142
142 72
177 159
184 28
56 156
182 38
4 59
135 147
36 18
3 16
187 76
108 188
129 46
56 133
51 133
124 114
79 130
163 114
191 130
158 42
43 195
14 21
48 35
7 106
165 190
202 152
73 127
67 71
104 177
185 145
37 161
16 25
130 66
17 190
192 1
41 198
127 173
15 21
171 200
145 30
77 124
151 111
25 19
25 92
160 27
147 10
8 7
192 33
131 12
144 121
193 53
113 159
49 164
43 160
80 24
123 47
12 8
132 78
9 39
40 10
205 74
179 4
5 135
174 144
74 119
47 100
167 148
66 37
8 20
133 34
124 120
21 205
160 10
42 54
162 18
75 189
10 153
187 148
41 155
202 76
116 7
168 59
65 110
151 191
202 9
12 136
168 161
133 3
179 48
35 141
190 184
59 28
29 38
93 109
100 45
73 9
61 145
152 20
27 32
126 41
86 67
54 49
90 70
48 8
16 94
183 123
136 46
43 205
127 143
57 44
7 80
40 98
139 125
187 83
133 113
42 154
105 19
107 97
128 152
13 63
200 202
102 12
26 140
113 174
143 169
79 111
165 3
141 167
59 189
187 157
126 202
9 117
65 202
104 80
122 161
133 48
70 97
48 116
140 48
172 54
126 195
23 55
206 19
92 59
148 110
34 127
14 111
72 56
167 127
132 79
129 150
9 53
131 95
98 26
31 30
15 34
76 182
205 8
123 46
164 162
106 167
101 199
153 128
21 111
95 72
49 104
67 159
140 56
128 29
174 82
75 90
40 97
27 115
56 8
66 17
107 137
151 3
132 72
88 4
50 166
197 130
203 51
101 28
138 10
71 157
159 18
3 160
3 35
10 46
17 186
91 90
2 30
170 25
4 151
18 105
204 60
53 40
156 29
76 77
78 88
143 18
22 117
171 159
191 26
143 41
104 176
192 150
9 179
205 1
66 165
62 121
18 102
60 13
57 178
200 7
150 55
87 86
46 138
26 143
18 85
70 109
149 192
203 9
190 170
158 111
156 39
130 1
182 153
97 59
143 46
59 127
29 53
43 104
125 101
16 150
127 175
74 51
21 95
26 159
121 137
76 141
199 33
134 57
79 70
185 115
105 120
62 7
56 205
151 73
124 139
178 108
197 93
197 154
42 98
170 138
34 39
13 96
80 73
81 201
27 187
22 38
63 76
55 165
169 40
12 43
154 165
132 135
146 115
109 189
109 161
32 69
70 166
191 192
156 32
196 159
177 198
120 151
51 182
71 184
114 46
49 84
59 137
202 130
77 73
114 117
10 163
147 2
141 16
60 175
100 167
113 15
23 52
132 164
167 14
76 150
198 46
18 153
189 168
203 158
2 21
1 21
95 132
136 85
140 50
37 128
171 122
116 88
10 103
21 56
26 183
2 148
174 87
132 143
95 162
77 141
5 140
56 50
128 63
136 193
40 42
81 193
86 6
138 161
14 47
169 124
98 84
66 77
187 45
80 138
133 130
152 170
40 132
165 63
112 128
27 53
62 6
9 197
103 54
7 171
54 3
142 7
47 113
131 1
81 186
128 197
130 22
41 38
156 131
95 35
181 134
6 184
7 190
162 122
36 12
19 36
137 136
56 202
199 39
39 91
1 152
84 46
65 131
50 3
7 203
141 190
88 179
96 116
60 200
31 144
163 82
51 95
201 71
131 117
78 116
97 63
70 148
17 32
103 151
192 127
86 187
140 68
4 127
3 192
13 130
48 88
85 42
129 17
5 199
117 51
150 133
113 48
83 81
164 76
106 197
151 34
73 74
176 206
148 86
142 111
189 144
168 128
98 179
50 182
138 9
87 137
120 25
54 35
198 130
133 80
203 133
151 13
12 122
101 138
90 18
125 199
61 194
141 206
43 11
157 62
168 110
139 150
5 158
91 191
179 133
39 114
177 156
52 82
197 53
202 189
138 103
109 37
199 175
86 83
124 104
151 50
15 203
158 79
12 3
19 144
24 39
102 142
148 28
146 155
199 189
177 10
7 197
13 143
47 111
54 8
62 152
143 170
182 43
86 128
160 34
169 189
146 156
158 164
138 5
116 3
32 175
122 172
182 64
46 158
205 50
126 146
29 50
65 183
172 150
50 105
35 14
64 140
172 102
77 5
154 70
171 167
36 198
101 65
47 206
190 185
88 34
155 28
45 62
96 130
205 7
115 18
121 148
35 24
64 79
76 8
70 29
143 133
199 74
157 174
9 168
94 53
76 206
25 67
133 139
159 110
166 5
20 22
43 196
202 63
46 39
189 6
150 196
115 168
78 128
155 97
113 187
170 199
127 60
41 36
156 24
95 40
196 102
95 182
66 100
193 179
50 149
62 32
140 105
85 25
101 168
175 81
153 8
153 162
199 56
131 34
29 2
3 199
115 100
139 5
83 155
15 170
115 130
141 106
43 15
93 53
6 67
201 79
112 78
147 124
28 183
112 90
133 16
107 165
150 154
172 101
35 169
160 97
128 97
174 187
165 182
119 96
29 104
124 183
10 182
19 109
167 20
62 53
144 30
22 136
113 158
138 195
163 20
162 114
37 171
68 56
16 112
68 111
162 119
40 105
125 74
56 203
173 178
102 59
59 154
140 192
129 135
147 175
108 31
29 5
144 178
66 190
12 2
41 152
122 176
169 192
139 82
124 31
82 147
26 165
85 43
19 63
134 190
60 168
125 4
138 136
26 201
151 101
94 22
155 53
120 32
47 121
149 116
109 25
54 15
162 35
79 13
89 111
189 113
196 55
189 138
53 28
74 96
110 195
149 70
170 20
93 141
175 183
167 70
200 79
97 7
136 104
99 57
11 82
40 51
27 82
12 70
9 105
3 179
112 65
58 134
24 165
130 26
78 140
121 102
101 4
78 9
25 140
170 101
180 5
86 45
131 120
201 45
9 120
189 16
125 201
14 135
107 186
103 49
65 66
137 163
88 138
135 149
81 108
95 64
140 2
160 78
165 113
146 53
48 21
100 141
203 85
178 188
47 128
199 165
49 182
198 28
180 160
202 199
182 190
22 73
107 146
78 179
92 10
16 53
169 9
130 138
158 1
33 164
33 89
172 53
136 93
61 120
196 127
24 116
155 126
154 78
90 117
76 177
106 60
164 77
205 89
88 164
121 168
21 160
3 96
149 166
35 111
131 89
67 81
179 172
153 46
133 160
124 115
118 120
162 172
13 189
158 43
120 5
79 65
186 159
142 9
85 102
89 162
13 20
26 40
61 173
58 47
190 197
68 158
126 118
163 206
84 73
63 6
120 170
195 202
55 123
74 56
89 130
92 9
2 153
103 64
19 16
115 160
132 201
10 112
101 80
105 156
193 148
101 40
164 14
110 138
192 88
33 54
129 121
34 84
50 14
13 26
95 153
117 33
48 182
124 24
7 150
189 200
78 54
25 180
100 123
159 185
37 29
82 60
102 20
129 176
83 19
109 122
46 113
194 57
192 24
85 122
46 199
50 136
63 161
100 201
25 189
123 119
109 143
70 104
189 55
108 55
25 139
94 112
205 96
147 64
137 67
29 13
134 27
67 184
131 38
167 87
2 16
15 10
172 116
126 67
103 125
85 21
113 151
188 52
113 184
7 6
195 77
190 83
109 65
70 63
40 24
123 129
14 95
189 76
186 137
38 21
106 90
33 35
116 193
125 124
56 33
71 32
57 69
18 125
57 23
56 1
129 148
154 131
53 127
114 149
60 139
116 165
136 190
192 15
75 105
90 38
12 16
172 24
63 163
122 59
201 153
195 159
141 63
95 151
7 22
164 172
27 70
141 156
34 161
206 36
130 7
114 96
112 124
101 75
53 105
8 50
130 123
151 84
124 160
171 175
147 72
109 187
93 167
15 9
138 183
193 152
12 143
152 109
90 184
116 127
27 194
98 5
85 97
31 82
67 97
172 4
163 171
149 201
69 181
12 128
19 185
119 117
84 4
125 70
37 43
175 198
105 51
191 203
22 169
76 140
63 47
16 32
65 50
178 30
183 195
153 131
15 154
100 204
165 202
143 9
104 158
104 100
176 18
120 66
189 154
162 34
125 53
128 150
25 105
85 115
126 158
198 37
110 155
126 28
162 160
126 128
104 60
186 118
114 125
98 111
58 17
115 170
111 150
154 113
133 103
113 197
25 163
106 152
105 70
93 199
42 102
154 40
68 165
41 47
87 32
181 10
140 162
131 152
90 20
52 173
121 200
143 168
10 116
122 28
74 65
200 75
71 167
43 117
185 28
184 27
182 42
98 70
187 112
26 132
198 138
7 159
107 204
134 107
140 92
59 128
88 47
193 197
179 40
177 178
166 153
193 40
69 30
23 11
70 163
10 183
85 167
201 141
8 72
105 32
10 180
149 76
118 83
39 48
177 199
85 120
16 49
14 150
201 21
161 177
20 59
134 82
191 7
48 122
122 96
160 80
54 34
50 27
76 134
165 196
197 143
35 131
133 9
137 32
143 136
130 168
46 55
125 167
111 117
187 26
77 111
154 138
96 140
150 152
165 122
125 2
76 138
75 6
2 102
84 54
205 5
43 94
42 139
181 57
137 81
11 57
146 201
162 8
117 92
92 180
79 162
12 91
150 138
128 193
66 118
16 62
63 152
9 103
165 129
127 24
9 7
159 100
176 167
172 91
13 138
79 12
72 131
156 68
76 146
72 113
16 169
70 78
181 188
190 193
35 84
98 131
89 51
18 76
58 148
79 46
45 186
29 94
198 66
16 89
104 24
80 131
117 95
49 1
127 7
81 130
127 106
142 120
80 162
4 192
48 119
124 137
179 79
60 53
128 76
204 190
9 38
80 150
112 153
183 148
111 40
121 196
195 28
85 15
115 175
201 93
106 128
47 180
51 179
147 70
199 159
107 81
41 122
151 133
152 110
12 166
83 186
139 10
71 87
13 49
45 101
162 47
119 164
64 51
119 80
203 18
100 126
13 59
64 48
90 47
190 199
177 93
86 137
173 188
202 93
199 7
48 91
37 141
142 56
72 26
167 7
55 53
80 167
10 162
151 49
195 65
12 54
26 24
95 88
201 123
107 46
165 28
116 77
19 59
13 156
85 150
156 90
78 56
194 108
201 105
180 191
79 88
13 89
47 51
92 149
164 151
139 104
4 122
193 106
127 14
186 86
139 106
38 34
154 149
37 16
125 21
55 152
102 70
142 18
190 14
49 47
205 33
156 122
184 92
149 105
184 196
104 128
113 76
68 49
4 117
137 62
173 57
2 14
82 178
61 11
122 35
41 168
19 150
151 119
73 20
136 112
135 119
4 199
53 126
114 14
105 184
151 37
83 157
27 78
126 199
27 193
205 42
14 122
35 15
124 141
91 3
91 179
76 185
169 139
149 73
94 156
79 43
125 142
122 142
185 105
129 29
166 103
97 150
59 121
75 196
94 61
189 66
91 102
169 149
12 115
140 180
132 139
66 18
153 189
202 38
68 101
24 191
10 30
144 134
41 22
53 64
151 18
124 17
171 73
139 13
180 111
139 18
43 9
140 164
156 179
21 192
8 113
166 162
188 130
130 10
90 60
50 103
176 94
84 5
36 202
116 68
35 51
159 75
177 90
206 194
118 86
155 115
146 19
155 195
10 43
43 176
85 106
34 135
9 95
160 205
165 142
170 98
126 156
42 136
199 22
47 21
199 18
200 168
109 129
132 54
26 51
110 55
104 56
72 89
31 194
48 101
73 150
139 77
29 77
135 184
120 112
199 27
96 93
114 120
87 118
45 189
92 60
158 101
172 120
84 127
70 10
195 206
108 52
149 167
42 22
142 138
111 50
136 141
19 87
113 14
25 7
115 81
200 123
110 94
129 175
10 47
119 40
27 182
93 2
101 15
101 25
51 42
131 165
128 87
15 51
87 97
128 68
35 22
205 113
4 92
76 16
168 199
177 40
95 164
65 12
28 36
101 3
114 165
115 53
190 201
38 190
176 186
151 21
202 13
190 33
150 130
123 189
9 206
140 103
193 60
131 166
65 201
149 182
180 151
169 95
46 119
3 130
129 65
91 42
158 47
159 20
136 60
125 80
74 92
130 88
24 1
120 132
49 132
204 146
92 2
87 186
78 10
139 102
163 159
4 203
165 156
111 65
161 25
205 27
59 55
4 51
69 11
94 186
124 12
4 133
171 190
75 165
112 57
86 174
26 60
53 202
14 89
184 123
45 93
3 191
149 158
163 182
197 83
15 151
100 106
21 84
22 34
149 16
176 67
125 34
3 122
149 38
97 54
92 26
169 101
171 100
30 134
8 117
22 150
121 206
53 107
102 156
102 46
50 133
26 8
14 161
98 64
131 135
16 41
199 114
116 131
97 138
163 160
202 113
157 75
79 102
16 66
112 29
184 16
112 150
54 203
191 79
195 47
60 24
118 62
192 47
10 149
58 30
5 80
92 21
188 99
193 52
167 190
135 153
4 7
9 70
181 44
107 115
76 142
4 116
40 166
76 55
84 39
156 159
16 151
197 10
125 140
134 69
91 199
139 84
59 123
196 147
163 156
202 148
3 34
111 24
1 9
39 18
44 129
154 9
60 88
169 142
89 49
49 3
37 106
129 104
95 166
46 157
202 138
4 128
72 180
112 81
34 159
53 46
94 121
84 38
206 122
9 10
105 109
190 29
170 59
48 138
192 92
61 57
202 123
198 123
73 89
50 153
198 195
94 141
159 16
95 8
8 39
143 199
85 155
65 104
133 111
131 39
189 126
195 101
31 23
183 41
10 201
9 35
17 176
45 81
173 30
112 169
135 179
163 158
199 121
189 152
123 196
15 172
29 165
34 9
20 141
125 150
136 167
164 182
153 139
158 2
202 196
24 138
26 160
171 197
53 194
84 153
172 51
138 143
11 44
2 200
43 169
79 192
176 32
192 89
13 25
113 92
161 84
15 143
110 123
3 9
153 140
66 206
40 180
137 55
204 115
90 29
2 137
87 176
77 12
25 177
119 95
51 91
170 200
49 51
195 175
110 139
29 65
24 125
117 94
131 13
82 61
141 191
20 65
169 50
47 25
12 138
170 63
115 198
55 200
38 200
97 122
53 7
130 161
130 98
14 117
104 79
106 56
122 105
181 58
41 195
163 170
41 171
25 43
97 1
176 118
80 205
22 4
37 38
139 41
120 13
185 36
124 202
202 47
189 43
4 103
64 125
164 48
25 94
180 29
85 143
15 48
125 1
165 46
144 202
76 53
205 40
62 12
77 136
31 61
98 8
18 27
78 34
155 124
43 49
55 169
27 156
116 103
193 29
85 168
161 159
120 158
194 144
154 21
19 183
26 9
56 35
47 205
7 129
51 97
123 121
202 101
123 113
109 47
204 110
165 185
167 139
63 29
49 50
9 64
7 149
55 148
66 19
121 36
121 108
13 15
65 41
158 199
152 16
143 49
22 128
201 129
45 55
133 19
80 33
43 191
165 7
75 53
13 147
25 159
38 140
199 115
83 137
82 108
175 41
201 47
59 75
165 33
78 8
198 120
164 15
26 105
101 72
126 169
130 183
21 191
47 16
119 149
160 79
30 23
190 12
152 165
50 39
63 26
154 121
129 200
55 168
121 110
12 177
181 194
67 107
155 206
114 98
191 133
117 1
9 24
73 117
186 163
47 96
177 63
16 147
153 72
43 90
159 152
26 43
79 84
132 18
132 92
169 131
198 147
8 114
196 9
20 63
101 135
46 63
49 180
189 141
142 20
1 85
75 18
135 54
168 148
140 124
173 31
99 120
46 47
60 124
154 48
70 138
156 193
101 97
156 123
70 75
45 123
192 113
149 54
200 59
60 201
79 33
62 199
102 161
5 88
46 56
29 20
13 179
32 186
88 50
22 26
74 164
24 120
42 50
168 35
96 89
151 139
161 38
63 131
204 85
49 64
72 40
186 123
104 112
125 43
23 134
38 10
193 69
123 18
2 7
131 68
84 138
37 121
187 185
181 61
112 156
112 127
152 124
91 138
72 182
35 203
125 147
87 83
177 26
113 27
73 13
2 159
150 202
156 149
88 101
60 141
98 162
142 15
101 162
50 119
72 162
199 81
179 199
174 45
169 158
156 3
106 198
14 63
135 18
177 129
94 146
161 19
168 123
70 159
141 3
139 160
102 127
35 142
37 55
176 76
53 57
53 59
149 72
39 117
93 59
204 199
77 180
143 162
63 41
47 150
110 126
138 47
104 12
14 103
42 104
167 53
67 32
22 156
185 75
29 170
133 159
101 90
118 194
106 113
105 147
104 54
66 137
112 105
123 70
46 203
171 174
23 173
95 78
72 199
63 12
5 8
175 190
178 61
165 51
110 151
147 122
113 75
35 166
119 121
95 15
12 40
38 76
65 132
91 54
99 69
38 163
16 124
197 25
191 154
185 109
119 88
78 39
152 148
192 48
75 148
147 162
120 39
164 113
68 78
134 38
62 174
168 29
98 24
29 159
27 109
192 104
180 48
149 191
172 5
163 202
51 1
77 132
117 10
49 76
150 10
137 85
180 21
92 104
178 69
146 169
110 143
197 59
37 47
40 50
14 46
104 50
153 21
74 160
112 32
50 139
195 199
4 113
53 141
135 21
141 151
105 113
114 68
142 116
99 194
111 160
81 187
59 167
21 119
80 117
192 147
171 160
160 112
132 21
7 87
84 149
145 108
116 89
162 203
74 112
152 23
198 183
47 80
117 101
122 55
38 63
46 141
42 199
17 112
84 117
135 78
107 130
99 152
151 140
101 86
104 39
98 158
67 115
141 193
145 144
53 185
114 24
138 25
202 112
38 66
94 185
60 17
94 51
91 97
43 126
118 67
98 149
173 144
180 24
96 128
8 164
192 148
206 41
124 26
175 196
160 119
57 30
20 47
94 147
156 81
11 108
3 148
154 158
77 189
47 55
118 137
142 4
33 191
48 98
104 15
206 126
106 123
84 26
160 125
52 99
132 151
112 5
117 76
182 201
179 14
115 106
146 63
135 95
119 55
2 171
55 147
138 160
131 203
75 106
14 8
149 151
20 97
111 10
154 12
93 204
68 149
12 10
67 87
20 60
145 31
31 198
125 120
66 75
21 72
106 203
8 96
12 197
197 2
95 42
205 84
121 152
160 117
140 24
205 192
13 78
115 123
5 56
149 190
200 63
152 184
193 165
70 122
64 72
174 71
125 3
9 48
97 41
104 203
139 161
158 117
56 192
46 168
201 156
33 96
48 56
7 37
18 130
85 178
96 80
147 88
23 181
173 97
39 35
149 153
110 102
205 169
138 1
147 133
179 20
14 205
179 164
56 91
95 92
132 133
26 1
74 35
24 73
152 59
136 185
25 90
112 2
2 20
96 103
175 65
164 98
180 143
197 160
23 99
171 141
201 150
72 102
32 53
103 16
33 169
97 205
135 111
133 192
159 158
114 21
134 31
114 22
14 33
68 14
105 16
170 28
73 113
142 195
92 160
11 188
170 146
46 3
159 90
84 125
171 60
16 115
160 128
42 34
202 55
188 194
146 28
24 154
12 160
122 159
163 45
116 1
126 85
133 172
203 122
149 28
187 186
40 151
181 52
169 63
98 94
160 121
38 121
102 94
15 147
122 73
46 23
142 131
73 172
163 43
163 92
100 61
1 10
163 198
137 187
104 88
26 7
110 161
113 10
201 85
160 143
124 109
130 74
133 125
72 63
46 73
129 141
139 112
92 80
120 19
85 147
89 54
67 148
132 172
102 159
105 12
6 81
161 81
65 105
73 106
154 25
43 143
44 99
185 66
128 62
12 135
165 65
154 26
6 157
120 193
81 174
102 191
4 138
125 47
95 203
102 26
109 127
18 65
115 126
127 70
100 28
77 110
53 165
81 41
179 21
84 92
115 150
75 136
61 93
140 199
24 162
18 29
20 104
19 167
37 103
15 12
64 169
19 204
111 8
2 141
176 86
188 44
94 154
99 134
12 5
175 66
68 92
29 198
112 168
150 13
192 34
149 112
19 126
60 25
95 168
154 190
206 2
204 206
46 148
192 43
22 101
125 13
29 61
104 156
143 165
122 27
86 62
162 169
5 74
77 27
147 123
78 74
183 32
202 158
78 131
92 3
66 204
203 154
176 81
72 161
77 169
46 103
14 39
59 115
5 203
163 46
179 125
76 129
10 158
1 16
68 46
164 34
103 170
122 5
195 204
47 133
109 42
54 21
102 169
162 192
162 97
171 106
1 78
88 89
158 155
43 65
7 138
27 138
65 46
9 163
47 169
84 140
51 53
155 156
156 135
179 205
2 110
192 16
46 147
167 104
124 123
94 60
205 123
185 100
85 127
188 145
97 177
31 44
84 25
22 97
43 197
120 139
41 77
161 119
199 2
158 192
86 165
3 38
9 140
121 113
118 71
164 196
56 149
30 108
46 170
91 164
26 138
131 50
68 43
101 49
139 36
96 135
52 144
32 81
35 138
89 156
116 54
57 127
144 69
92 202
151 165
194 171
89 15
47 112
27 150
51 14
10 127
180 3
25 102
89 182
96 85
98 34
154 7
197 141
111 15
176 170
203 47
103 177
75 92
194 23
38 26
162 96
10 142
155 183
163 35
140 22
165 61
66 159
139 165
189 112
91 35
141 128
91 79
165 150
49 117
182 84
127 12
131 125
122 77
37 46
46 201
36 115
71 83
143 47
203 111
159 119
21 24
13 85
192 159
150 96
123 38
92 90
120 156
111 140
11 58
156 53
153 165
69 82
176 45
44 23
77 135
92 189
58 61
109 123
170 193
191 35
45 58
164 127
146 199
199 142
27 105
100 175
48 205
2 85
162 16
156 5
42 24
65 70
46 22
145 82
10 2
27 13
184 148
151 2
77 127
162 163
97 60
181 99
197 151
94 167
125 116
87 45
52 69
42 84
64 34
155 167
70 114
191 72
132 73
4 39
156 37
105 37
180 16
179 117
63 101
43 98
200 184
168 61
174 107
106 101
7 139
146 198
113 131
30 194
5 132
141 120
137 17
140 39
121 192
179 140
23 188
11 118
98 80
154 46
185 197
9 125
65 120
82 57
89 120
51 80
184 124
59 202
18 160
36 100
165 70
114 140
146 43
125 51
186 193
20 7
152 206
120 53
153 105
32 37
90 88
186 71
110 129
38 70
180 54
186 62
125 54
176 141
56 98
191 27
199 65
147 142
94 36
17 199
190 198
54 166
14 203
98 191
130 78
27 180
2 56
184 75
195 32
15 50
46 175
3 60
93 63
63 7
10 104
6 187
65 26
156 190
109 74
36 204
39 179
40 135
52 58
51 54
205 162
56 65
172 39
165 12
132 97
152 138
27 125
23 144
104 94
47 127
29 130
7 192
85 116
68 90
152 12
59 147
143 96
65 122
161 174
100 41
76 86
117 172
83 104
89 24
140 170
119 132
30 86
6 190
7 1
84 131
191 200
50 21
95 158
174 201
161 16
18 106
130 104
91 1
94 203
30 99
179 54
151 42
54 26
108 69
35 119
193 101
58 57
122 182
139 72
21 25
148 53
196 152
184 110
111 199
111 164
24 18
39 64
169 179
185 59
54 143
18 198
7 110
43 33
91 151
187 171
29 146
133 79
8 40
51 78
102 113
12 17
80 84
72 73
122 53
12 120
91 131
43 154
89 92
39 205
110 85
81 17
94 125
110 200
202 75
179 162
120 43
91 89
7 60
114 180
30 181
91 182
91 177
89 46
16 87
161 47
77 143
49 119
139 89
75 85
138 162
51 72
45 75
18 77
16 85
34 177
191 77
122 81
20 161
2 120
34 103
111 205
197 136
2 187
2 46
158 4
50 80
170 67
191 46
195 193
18 2
6 174
166 114
140 8
16 8
26 120
37 93
206 175
128 102
165 89
191 111
179 163
74 141
68 79
50 78
198 19
27 197
154 77
105 182
13 90
60 37
37 190
53 106
146 113
203 39
95 48
100 157
185 206
200 147
33 51
64 7
10 19
152 107
20 177
185 118
122 92
115 183
33 154
169 13
25 38
139 204
14 169
62 67
192 125
130 142
124 196
104 46
160 68
102 61
108 99
117 135
160 193
35 205
150 142
109 94
107 176
13 185
162 50
92 47
102 77
80 203
19 115
80 91
24 106
129 184
153 116
4 96
85 159
18 164
35 103
133 154
67 193
132 47
53 97
156 66
120 205
94 56
88 9
139 48
116 21
53 184
43 93
184 154
155 55
18 131
38 18
71 107
104 172
26 142
189 105
42 166
153 78
199 78
100 168
35 139
74 95
67 186
48 163
15 117
92 8
189 196
201 197
111 88
159 38
5 95
154 101
65 39
149 86
89 56
39 169
76 70
90 167
51 102
47 103
108 181
153 164
38 187
67 157
10 165
47 12
16 101
164 40
76 9
84 12
192 135
76 10
39 142
78 161
4 165
80 153
87 60
64 132
172 112
54 114
55 104
118 45
129 75
110 59
113 143
206 196
39 96
192 26
41 112
21 203
60 66
96 160
166 78
114 133
151 25
7 73
60 67
29 4
25 190
87 62
114 92
10 159
144 29
26 141
11 134
92 150
189 135
129 202
17 108
184 121
130 195
91 5
113 134
197 20
199 201
206 12
151 64
12 202
127 22
152 19
84 56
164 114
132 39
164 73
127 18
201 22
70 182
113 182
177 196
15 94
121 28
70 124
91 46
86 71
27 7
115 75
132 205
5 10
141 10
103 135
67 85
151 125
200 152
42 167
156 55
26 2
204 184
64 138
96 72
25 178
21 150
202 110
105 15
101 9
147 184
139 198
54 2
109 150
200 76
65 27
85 54
39 10
94 133
184 29
25 123
47 179
24 8
102 164
187 71
192 202
70 193
76 6
53 173
30 27
47 184
139 3
171 139
59 165
104 47
92 125
10 33
172 165
60 197
158 73
175 36
46 132
146 25
40 149
115 121
164 149
7 172
59 184
22 165
150 32
144 137
101 149
46 17
149 161
114 18
159 76
101 83
172 160
122 25
148 200
36 195
193 117
17 6
194 145
74 42
25 76
2 127
51 29
70 158
183 126
177 32
10 124
99 144
46 156
87 157
89 142
48 10
166 120
191 34
68 3
89 133
127 137
65 28
162 40
151 166
99 67
51 135
158 59
136 148
110 101
179 2
143 171
43 4
121 75
151 199
80 76
49 63
18 95
116 79
44 112
9 91
27 94
91 33
166 101
113 59
5 85
190 2
68 153
36 170
121 177
104 126
60 33
206 118
10 88
167 189
162 56
180 203
199 13
170 127
123 143
8 79
120 168
59 109
108 23
112 141
126 124
43 148
24 29
94 113
159 63
102 64
116 102
63 156
25 77
112 76
22 54
64 148
9 93
99 90
96 2
104 98
5 68
109 90
137 18
161 127
97 136
29 151
41 185
102 184
196 126
165 198
64 203
97 18
154 97
64 54
122 164
18 78
162 111
13 113
111 92
163 49
86 65
166 133
111 130
202 121
76 173
84 116
120 129
175 143
43 124
120 101
77 131
177 16
90 22
12 21
166 92
59 60
177 150
179 116
83 107
31 11
34 50
20 149
40 191
55 75
130 193
5 113
154 112
156 4
3 131
151 80
144 11
37 185
167 168
57 108
22 2
104 109
43 96
38 180
68 102
193 201
48 7
155 108
120 64
136 201
117 143
167 185
106 161
128 60
136 70
130 139
51 151
105 38
112 109
131 60
70 116
140 139
54 95
25 20
192 117
20 150
90 74
158 177
48 161
110 189
48 125
46 85
50 120
51 3
149 133
198 2
138 133
190 97
165 204
197 158
187 93
130 85
122 184
72 76
172 135
72 179
136 171
4 26
77 159
67 59
76 46
127 129
185 123
98 119
39 73
32 187
85 12
38 112
99 77
155 141
28 204
141 150
118 158
101 191
19 45
96 91
27 34
139 111
185 146
117 47
84 166
3 13
133 13
190 75
79 40
66 155
38 97
138 179
5 164
179 35
202 10
140 79
86 107
167 60
140 119
70 87
153 15
49 171
197 37
91 68
101 182
92 129
149 18
97 3
178 99
183 100
16 75
159 148
21 98
91 95
69 23
120 22
2 32
67 202
155 19
16 168
19 28
135 98
162 39
95 37
90 142
49 102
24 151
53 10
88 77
138 20
91 21
68 166
4 97
149 2
144 61
11 178
8 64
98 50
83 45
107 93
203 89
135 73
170 18
14 102
191 49
159 106
79 96
131 9
130 199
163 90
166 53
163 121
95 138
41 83
76 43
21 26
57 145
91 47
5 50
155 199
10 105
141 104
2 98
78 79
95 24
10 174
72 172
37 136
149 138
10 26
66 46
87 43
108 58
172 40
12 34
205 112
91 154
85 139
143 146
3 53
199 156
98 88
204 142
98 160
91 50
199 150
130 165
10 4
201 38
128 167
143 33
75 204
172 34
64 80
197 167
109 147
43 73
13 165
135 80
108 44
139 63
7 92
96 153
49 131
3 4
91 169
136 53
3 21
20 172
135 68
128 7
191 12
66 183
38 139
134 194
78 21
201 177
125 109
125 41
43 29
104 22
161 29
183 206
3 10
49 7
92 72
116 33
163 109
68 147
7 118
168 22
84 154
47 149
6 118
97 102
37 168
101 109
9 130
198 55
172 78
90 170
122 200
60 157
25 18
93 193
76 13
183 113
91 119
149 35
56 77
98 4
62 176
20 118
105 117
88 68
64 101
27 147
10 21
169 122
2 88
153 154
138 122
5 76
127 159
59 43
89 26
195 100
45 147
206 198
104 41
169 85
26 97
201 32
47 34
73 8
43 95
82 194
61 108
105 124
79 21
133 5
150 155
75 29
49 114
165 168
33 132
86 36
61 52
52 31
55 185
50 35
92 162
61 30
102 120
29 27
44 82
84 78
184 189
111 101
141 43
65 115
142 79
94 124
57 146
170 2
4 143
109 58
143 104
64 68
38 94
1 166
123 139
149 117
84 96
135 84
205 91
25 165
40 113
103 48
163 18
12 89
43 105
129 196
194 178
55 176
152 85
156 20
64 192
180 192
176 47
34 104
63 158
70 94
157 127
120 56
122 185
110 71
126 102
138 115
180 133
63 83
202 29
38 104
190 159
119 89
3 200
42 153
60 83
2 139
180 15
51 77
43 198
177 46
106 103
113 153
193 147
50 89
193 37
172 93
143 203
115 189
46 182
103 154
29 10
16 181
92 94
41 146
37 201
76 119
139 83
202 190
132 166
26 73
3 129
47 43
155 63
123 94
143 120
29 139
98 182
153 34
154 130
10 49
186 148
125 25
26 170
66 197
167 124
182 13
160 142
39 43
34 132
199 97
10 87
104 110
184 43
19 90
154 35
27 16
153 88
48 54
185 204
108 18
85 9
93 106
193 16
18 13
112 165
166 74
77 128
3 105
31 57
96 51
7 206
13 190
60 133
26 164
180 39
92 165
100 174
127 189
94 89
115 149
88 40
37 90
97 104
156 25
151 143
126 123
64 70
83 6
140 116
200 130
97 142
70 171
185 129
92 5
74 192
141 65
101 156
103 180
50 116
114 40
199 169
98 74
163 190
56 40
178 58
76 143
153 56
104 199
104 84
179 46
154 135
80 111
135 15
124 122
137 45
157 134
97 161
42 117
176 137
184 55
1 139
68 150
14 109
111 78
186 102
95 133
24 90
144 44
114 142
52 194
104 138
185 155
5 96
8 34
74 79
104 179
91 132
171 201
166 182
16 64
43 36
159 43
116 34
152 7
206 113
133 170
132 162
74 27
103 102
89 169
39 191
191 54
75 170
67 38
42 90
52 190
138 65
95 79
2 47
7 104
43 38
51 142
105 114
112 70
200 92
124 143
40 153
196 115
79 153
180 166
60 102
48 47
91 98
95 7
16 109
127 124
108 144
104 113
134 178
73 156
76 4
124 100
145 44
7 155
77 24
172 142
173 11
162 7
27 177
8 133
51 21
51 18
117 103
48 135
94 122
115 118
97 165
40 73
34 48
199 149
104 76
139 170
104 198
127 9
190 123
28 115
6 175
111 73
142 191
131 43
84 43
128 125
53 206
64 160
140 49
3 132
75 86
172 114
81 202
95 143
63 90
40 182
56 80
70 68
166 64
54 124
2 177
111 5
204 155
94 87
47 165
193 94
157 202
124 195
4 110
161 141
192 51
110 127
28 152
12 139
177 55
156 119
160 88
110 93
42 161
140 165
66 36
41 66
23 58
142 77
32 124
82 144
173 82
139 26
73 42
32 19
50 143
165 183
103 119
150 135
169 48
103 111
92 18
36 148
121 189
18 70
152 75
84 179
43 140
67 13
1 98
132 15
16 42
131 53
40 9
106 130
38 136
72 54
175 193
113 198
19 195
126 71
77 85
34 193
13 97
171 127
158 28
158 56
72 140
65 94
149 137
157 81
33 12
128 171
95 177
72 111
176 187
124 13
63 80
161 115
39 74
77 113
170 171
46 131
196 12
126 94
163 16
35 96
45 157
76 171
142 101
136 106
97 55
206 25
177 29
125 85
84 180
30 206
78 35
13 48
47 101
91 103
135 138
144 188
119 169
65 107
167 193
91 92
156 65
79 166
12 158
113 43
166 34
39 72
22 160
93 94
175 101
53 140
47 9
191 199
77 47
13 141
78 46
143 193
119 8
176 189
191 179
21 165
179 151
134 52
159 28
163 129
60 93
153 205
104 16
168 122
46 88
132 111
24 205
97 180
60 76
174 137
201 128
27 124
205 133
171 185
164 154
92 151
20 109
98 116
85 72
53 43
62 85
125 7
146 202
163 29
36 32
13 128
68 119
150 123
154 166
148 196
179 149
22 187
90 97
41 204
158 140
6 87
118 174
35 88
33 5
9 75
91 77
113 163
165 105
33 7
19 129
15 64
143 147
75 77
70 160
107 122
38 20
147 65
130 186
54 151
177 35
123 15
4 16
65 116
98 127
40 142
47 120
128 93
2 175
126 170
146 149
29 25
98 205
138 128
4 42
28 175
85 84
183 189
177 101
130 43
205 149
133 90
139 33
128 74
150 126
167 201
134 130
43 135
202 25
197 85
18 47
118 57
80 42
53 190
179 95
180 43
22 18
146 36
89 80
176 157
139 76
92 63
101 155
143 121
124 101
167 199
202 22
154 169
206 170
187 46
113 116
39 20
100 206
140 21
160 4
166 72
26 136
128 200
162 103
169 151
205 72
89 40
16 165
122 158
191 116
104 4
18 42
127 121
192 138
116 199
129 168
1 102
131 48
74 162
196 100
206 146
130 97
189 2
54 98
192 160
37 70
100 130
95 73
189 137
59 76
53 199
133 196
189 148
131 205
66 115
130 8
22 29
44 58
67 104
156 138
153 103
190 177
124 73
91 16
27 112
142 154
135 46
50 79
2 70
4 35
166 48
59 129
78 64
48 142
9 147
79 27
149 97
198 112
54 88
143 73
138 22
108 70
143 2
148 177
62 94
24 135
18 120
168 202
43 35
170 80
64 4
132 14
114 103
38 170
202 139
136 165
95 101
23 177
20 26
