*Vertices 284
42 "#52"
160 "#157"
248 "#144"
55 "#271"
93 "#231"
15 "#74"
177 "#76"
53 "#71"
38 "#25"
78 "#6"
222 "#172"
194 "#139"
136 "#282"
30 "#36"
206 "#42"
213 "#134"
161 "#168"
267 "#38"
169 "#248"
168 "#208"
255 "#218"
117 "#104"
174 "#225"
103 "#92"
37 "#214"
44 "#20"
2 "#35"
178 "#116"
185 "#4"
79 "#53"
62 "#165"
257 "#200"
84 "#266"
282 "#142"
149 "#68"
164 "#146"
25 "#244"
76 "#195"
276 "#55"
81 "#47"
281 "#176"
31 "#234"
230 "#112"
129 "#97"
265 "#90"
189 "#75"
245 "#187"
95 "#210"
208 "#108"
190 "#153"
173 "#124"
3 "#117"
162 "#83"
176 "#247"
146 "#263"
175 "#26"
251 "#1"
88 "#184"
263 "#280"
110 "#228"
9 "#249"
155 "#223"
85 "#160"
86 "#202"
252 "#191"
202 "#29"
133 "#233"
153 "#241"
92 "#281"
108 "#217"
28 "#24"
71 "#15"
6 "#149"
228 "#69"
179 "#232"
205 "#197"
195 "#45"
147 "#207"
47 "#13"
215 "#135"
54 "#256"
231 "#240"
100 "#188"
39 "#46"
10 "#121"
217 "#57"
20 "#130"
141 "#272"
143 "#203"
211 "#138"
219 "#14"
70 "#156"
279 "#213"
154 "#159"
112 "#131"
63 "#279"
212 "#91"
186 "#81"
4 "#205"
122 "#261"
191 "#252"
140 "#85"
180 "#0"
130 "#34"
237 "#80"
115 "#96"
260 "#43"
49 "#2"
69 "#152"
259 "#235"
33 "#258"
21 "#18"
66 "#84"
127 "#72"
275 "#180"
262 "#276"
145 "#82"
138 "#11"
99 "#262"
210 "#220"
207 "#48"
193 "#204"
220 "#264"
159 "#198"
216 "#269"
106 "#137"
270 "#163"
234 "#8"
181 "#277"
183 "#110"
16 "#140"
142 "#216"
170 "#219"
125 "#275"
126 "#59"
198 "#166"
11 "#56"
223 "#253"
109 "#145"
225 "#242"
114 "#254"
244 "#49"
196 "#89"
14 "#246"
209 "#94"
172 "#190"
253 "#41"
272 "#5"
238 "#113"
151 "#174"
67 "#114"
235 "#63"
226 "#125"
250 "#224"
43 "#79"
111 "#65"
254 "#194"
137 "#54"
184 "#105"
123 "#33"
157 "#170"
58 "#226"
165 "#115"
72 "#211"
199 "#238"
204 "#99"
247 "#154"
232 "#260"
73 "#107"
166 "#250"
23 "#10"
91 "#177"
105 "#102"
56 "#273"
227 "#32"
249 "#151"
102 "#9"
75 "#173"
82 "#206"
97 "#196"
8 "#221"
48 "#19"
89 "#283"
156 "#64"
124 "#257"
118 "#129"
246 "#222"
148 "#98"
65 "#40"
61 "#268"
27 "#175"
104 "#147"
278 "#7"
101 "#106"
64 "#278"
74 "#119"
273 "#77"
26 "#126"
59 "#239"
269 "#44"
34 "#255"
60 "#127"
229 "#21"
32 "#133"
224 "#150"
94 "#28"
19 "#95"
52 "#227"
120 "#70"
17 "#274"
241 "#162"
277 "#209"
200 "#23"
236 "#158"
24 "#123"
40 "#236"
132 "#212"
182 "#185"
214 "#39"
163 "#243"
128 "#66"
83 "#183"
46 "#237"
7 "#181"
96 "#86"
274 "#78"
1 "#193"
12 "#230"
187 "#12"
29 "#88"
50 "#61"
57 "#37"
107 "#101"
51 "#167"
119 "#201"
35 "#189"
13 "#161"
98 "#22"
256 "#17"
264 "#265"
266 "#270"
258 "#58"
135 "#120"
167 "#50"
242 "#192"
192 "#136"
77 "#93"
158 "#51"
41 "#155"
284 "#229"
18 "#169"
201 "#251"
131 "#60"
283 "#27"
197 "#128"
261 "#143"
240 "#245"
221 "#171"
68 "#267"
5 "#87"
116 "#164"
80 "#122"
22 "#118"
233 "#100"
121 "#215"
90 "#30"
113 "#178"
45 "#103"
239 "#3"
152 "#67"
36 "#62"
134 "#141"
150 "#109"
144 "#186"
268 "#259"
87 "#182"
139 "#179"
271 "#199"
171 "#16"
218 "#31"
280 "#148"
243 "#132"
203 "#73"
188 "#111"
*Edges
153 59
43 234
2 258
172 106
189 15
238 222
254 73
65 120
127 26
44 239
157 183
20 24
218 47
58 155
213 53
26 145
233 25
21 65
32 150
84 141
258 36
203 81
9 59
281 85
204 248
149 175
37 151
100 32
281 3
90 19
35 108
187 278
180 276
249 116
230 274
186 22
134 15
39 267
113 83
211 184
98 276
7 100
27 221
271 279
254 236
81 207
250 161
198 1
158 218
29 211
116 165
94 218
205 254
237 224
87 222
160 255
122 220
179 26
222 105
210 85
120 74
124 122
38 145
188 21
170 231
149 115
96 32
154 148
94 21
232 268
209 117
106 104
60 226
190 197
83 222
160 144
10 32
276 273
103 187
192 211
130 44
6 66
157 62
14 12
193 86
269 127
117 121
253 30
101 1
29 20
274 196
213 74
65 102
3 159
142 168
216 89
2 208
229 48
173 216
236 188
271 22
236 212
159 282
16 86
121 147
20 32
107 165
6 205
282 106
77 66
160 69
267 189
83 209
50 80
22 100
102 189
162 7
214 42
190 53
54 89
51 162
138 150
73 173
72 236
82 246
29 193
96 134
172 255
211 128
276 195
80 74
115 93
120 134
102 57
226 6
33 124
190 6
133 240
176 20
270 173
14 240
137 219
106 280
212 101
85 107
241 160
173 65
189 38
69 280
67 191
148 158
223 161
226 174
228 235
198 211
48 131
202 272
54 84
12 93
193 257
183 238
212 45
255 169
66 273
162 149
78 173
137 39
222 143
267 272
152 203
181 220
23 77
35 249
106 13
100 55
267 44
148 40
215 4
193 107
198 8
7 198
85 140
38 218
2 218
44 42
173 154
258 189
261 255
253 50
146 232
270 156
134 233
145 228
272 11
261 197
55 262
238 205
236 215
242 271
248 16
238 96
91 231
83 129
123 48
193 188
271 9
156 194
221 153
66 96
48 280
144 12
265 42
70 249
24 262
260 253
24 275
212 8
90 260
282 245
74 69
220 56
197 206
2 239
163 240
135 67
112 194
11 50
98 150
271 154
115 112
273 15
45 115
127 131
95 208
246 174
211 69
83 87
182 254
280 265
137 217
27 255
189 227
170 108
167 71
122 55
165 135
177 171
1 275
198 83
28 207
121 108
139 51
84 6
202 200
129 154
218 187
157 22
248 139
2 283
215 231
53 83
119 173
2 39
101 7
196 186
103 184
88 161
209 12
45 215
268 99
135 282
23 244
148 173
18 113
178 1
281 32
44 140
74 237
47 228
274 2
66 1
192 212
185 117
38 30
284 101
6 13
200 44
278 229
231 169
228 212
98 234
261 213
90 79
213 9
153 248
52 10
70 87
157 27
208 236
189 239
154 212
107 111
18 233
118 211
119 22
154 265
88 113
203 90
79 73
149 189
198 6
261 135
105 192
75 247
86 129
148 11
243 262
212 271
174 24
2 260
197 117
96 247
165 159
89 181
42 218
218 137
234 227
30 149
4 116
187 106
278 77
139 113
124 220
88 150
230 116
109 66
94 65
198 222
253 186
192 144
111 70
197 14
229 23
282 26
153 179
101 69
203 113
213 91
247 280
83 85
107 101
128 69
33 24
118 41
169 114
223 169
275 198
113 238
259 82
115 244
221 157
21 79
226 62
229 57
251 218
191 252
210 170
1 270
69 68
28 185
83 139
67 46
36 66
200 278
243 151
144 172
210 86
270 280
273 135
245 192
241 116
155 277
190 148
107 134
90 265
3 200
276 267
52 37
160 85
210 147
179 46
225 35
36 162
135 44
259 27
161 83
83 35
217 65
255 184
53 73
83 114
104 38
264 261
164 87
20 245
51 154
252 37
219 74
8 51
196 52
236 279
78 239
79 265
238 127
183 243
280 169
45 247
162 187
58 147
205 80
215 104
117 45
251 39
104 22
29 196
81 171
222 215
209 32
80 241
241 6
29 47
118 116
174 110
80 198
208 116
109 177
240 174
260 162
227 98
81 28
87 67
45 29
119 176
229 276
26 3
183 257
249 119
240 225
155 246
231 223
250 20
95 121
28 138
33 188
154 69
80 275
143 192
108 215
278 138
247 250
15 101
213 172
150 170
37 255
35 119
3 35
249 204
266 136
127 234
194 279
3 221
234 276
95 161
151 145
174 100
180 23
136 125
65 188
21 49
135 26
201 233
80 184
96 80
280 241
42 21
53 167
60 134
279 147
220 12
243 173
133 26
60 135
88 252
116 194
40 284
258 228
236 140
168 154
37 277
231 208
283 140
104 129
235 162
72 277
83 205
13 108
27 257
162 280
148 204
155 261
86 52
174 144
270 236
278 189
160 37
26 5
279 106
160 32
258 66
111 22
82 58
101 197
209 142
260 130
118 172
223 92
22 65
192 145
230 280
127 32
224 74
109 103
201 40
151 83
216 55
227 127
110 16
155 209
213 271
192 104
248 241
265 47
278 28
6 271
113 27
159 121
73 233
265 148
36 48
234 167
137 71
208 105
212 164
144 154
272 251
228 241
188 37
1 77
169 12
117 143
43 107
87 7
40 243
197 67
237 105
107 281
265 167
71 233
261 15
221 5
19 196
76 165
200 175
90 120
221 245
14 143
192 255
129 249
16 91
183 247
185 43
10 274
109 135
238 142
269 260
269 19
256 171
250 58
43 200
187 11
190 248
204 276
195 103
249 190
116 224
275 282
19 152
90 251
79 212
51 192
205 174
88 18
124 147
10 1
94 187
232 17
91 261
153 41
30 11
118 109
178 230
248 177
162 20
6 91
224 115
87 261
268 64
85 43
198 194
220 89
153 40
186 157
206 98
122 54
117 106
3 230
11 90
175 137
202 19
158 180
29 161
251 50
227 209
173 208
24 140
28 137
68 89
103 10
88 112
87 208
90 267
13 53
225 12
233 241
182 170
22 223
159 119
177 204
116 160
238 188
235 102
93 163
81 196
243 241
69 148
165 238
58 142
51 136
243 178
47 101
150 140
53 206
30 206
243 222
170 250
207 145
97 6
10 105
249 101
203 200
105 87
143 245
174 68
99 146
123 214
74 67
249 241
206 66
137 128
134 211
70 273
279 112
238 13
80 22
30 131
117 226
227 39
70 45
32 72
197 253
230 10
208 154
65 229
132 143
29 103
208 1
284 133
219 214
122 63
137 102
113 209
184 238
135 45
264 17
127 79
77 172
233 282
60 211
73 19
70 228
238 128
73 272
149 217
84 51
199 12
127 218
67 18
103 5
134 1
156 145
43 217
252 97
15 128
54 141
43 129
222 75
3 184
177 235
103 42
181 268
15 253
279 261
43 117
147 82
3 135
30 49
231 31
183 202
233 184
196 233
41 22
154 183
58 18
16 15
26 147
155 266
193 70
200 111
121 173
73 112
245 215
151 75
251 67
190 162
224 148
189 204
35 135
118 184
245 153
210 82
43 104
197 237
247 277
167 206
14 204
28 120
250 192
15 96
152 167
21 11
31 191
76 144
56 63
242 1
281 155
45 257
195 175
9 129
210 8
35 104
9 25
68 181
269 71
178 198
79 11
115 254
120 45
126 162
261 16
178 120
177 187
19 188
169 193
118 102
208 204
214 23
246 188
212 105
250 245
134 8
186 112
208 230
119 86
193 101
186 128
146 266
52 279
41 160
122 17
221 40
153 13
10 247
197 32
115 65
182 70
58 255
145 111
221 46
94 208
51 135
149 131
219 187
190 88
78 269
15 53
246 142
158 42
32 19
103 23
67 280
96 145
81 189
96 187
135 226
166 24
67 212
245 96
250 282
178 51
180 137
127 275
91 15
115 110
257 37
226 102
28 212
233 172
182 188
18 121
150 69
162 48
197 18
34 89
41 186
162 131
164 26
21 23
276 212
130 203
233 116
263 97
7 192
101 66
275 88
222 80
275 249
110 132
66 162
116 213
35 224
47 149
63 232
219 178
29 194
154 117
238 100
87 247
65 244
170 242
106 178
176 46
243 24
9 12
46 125
209 247
163 135
101 230
55 125
243 41
241 19
99 124
7 157
133 86
233 279
59 211
60 129
69 247
49 228
80 162
149 150
248 282
150 74
188 230
36 67
37 221
111 149
7 159
178 159
18 37
140 186
152 15
134 77
52 246
130 206
102 49
263 243
78 2
230 150
128 175
145 100
212 115
260 180
226 129
177 265
248 274
13 208
115 151
182 4
12 106
184 24
280 72
140 273
58 76
118 110
214 112
247 77
7 113
252 40
66 282
73 11
227 237
188 150
99 271
135 162
90 196
188 126
120 173
18 275
7 183
232 92
217 152
186 209
270 139
34 124
111 30
75 110
171 45
103 19
157 88
259 247
161 5
214 78
82 72
236 141
145 280
215 164
126 247
20 177
86 254
194 178
279 32
41 151
219 36
236 82
5 19
18 112
152 140
265 52
51 184
16 95
167 219
64 52
186 117
281 111
119 109
180 10
26 241
139 204
33 125
152 53
190 115
225 231
135 112
133 182
173 74
61 199
242 119
121 160
154 172
252 73
196 80
210 224
128 127
114 16
95 159
250 51
281 135
183 164
118 13
184 161
179 168
145 50
282 161
151 85
61 264
16 58
127 117
212 196
38 47
132 188
213 67
184 280
28 158
157 250
152 11
109 43
224 101
229 2
59 7
46 9
110 8
64 1
164 284
177 185
204 10
208 160
89 92
108 240
36 50
45 203
76 182
33 181
2 29
13 84
258 126
17 220
267 28
45 204
110 210
226 274
177 101
177 283
23 30
219 78
37 190
162 228
82 142
34 92
94 260
50 234
152 148
5 102
172 190
140 177
267 42
255 96
200 47
265 98
171 217
37 76
261 215
6 281
114 104
211 206
163 62
211 233
165 43
183 74
50 81
222 115
134 117
42 38
162 278
26 267
104 128
171 227
12 201
183 186
101 133
267 244
122 262
44 47
271 86
222 43
16 43
42 102
220 136
83 208
281 172
45 88
213 192
132 226
162 234
52 80
241 67
59 139
192 112
22 244
218 269
212 107
274 188
192 107
6 45
282 22
100 3
24 32
105 283
250 112
267 196
96 261
34 161
43 194
45 13
235 189
237 211
77 258
282 188
243 32
266 163
13 241
27 284
80 118
156 196
221 182
235 192
219 103
188 174
70 24
103 183
214 200
212 95
127 258
247 101
241 88
67 121
37 259
257 198
248 275
71 187
134 255
265 230
200 30
178 263
104 74
90 218
116 259
260 207
281 252
77 130
45 97
86 241
19 35
107 36
155 45
161 211
42 130
234 185
149 273
243 237
74 86
244 243
253 212
165 275
244 98
70 128
77 50
32 135
138 244
257 3
156 203
203 270
48 2
22 10
230 257
114 93
249 270
157 87
127 129
277 52
77 115
77 229
31 201
256 71
275 67
43 21
126 276
135 106
126 48
95 176
45 96
94 3
135 11
105 204
39 235
203 154
221 20
207 98
16 160
182 74
257 151
267 57
75 26
233 28
141 232
66 276
196 98
25 243
258 162
268 122
127 15
139 132
47 244
135 200
150 237
235 173
194 62
118 8
126 196
167 79
205 117
183 203
282 243
83 245
123 127
104 107
189 257
178 238
94 207
26 34
255 164
101 281
134 235
238 227
210 3
84 61
11 53
207 138
23 149
211 213
135 7
179 144
146 141
5 47
239 273
94 48
167 42
160 192
267 235
281 196
30 71
222 255
244 265
237 66
240 201
133 69
254 27
126 209
172 100
88 75
13 173
273 236
231 25
130 156
283 47
198 190
10 213
230 95
253 218
234 11
139 91
98 78
212 88
73 7
272 239
26 117
281 106
231 176
147 110
152 73
36 233
168 32
20 210
169 135
66 16
160 6
207 78
69 22
196 48
16 204
190 236
156 183
183 221
245 53
273 251
204 211
129 41
273 81
222 109
220 34
102 276
148 83
276 11
145 154
88 215
76 19
152 137
79 272
54 125
9 179
200 50
104 213
227 228
26 181
194 87
258 111
266 181
256 101
150 3
77 185
14 245
103 274
191 275
233 19
121 168
143 208
8 242
254 144
194 106
172 6
50 228
190 150
261 280
3 256
31 143
222 15
174 70
57 253
131 233
228 149
261 4
73 32
248 169
151 165
201 22
200 49
221 93
67 204
11 102
10 237
246 213
172 252
1 257
122 14
22 189
184 183
177 278
113 150
173 189
191 221
16 109
20 60
100 86
143 164
222 120
26 255
140 222
26 243
126 135
107 214
103 36
192 76
113 143
147 100
159 45
279 132
156 45
22 281
254 59
59 118
78 218
93 25
259 208
284 113
24 211
29 258
104 194
229 73
100 120
165 104
40 32
77 27
117 113
180 120
255 125
53 118
46 169
26 221
251 131
87 97
23 227
67 150
208 185
247 257
80 4
140 145
112 103
165 117
224 67
60 10
21 78
224 166
66 196
259 179
67 3
83 3
266 84
170 184
75 221
135 50
100 242
168 4
109 4
113 247
245 10
160 236
270 164
79 71
247 230
4 69
234 260
185 274
36 131
128 283
118 32
248 194
271 13
131 248
13 87
255 246
228 269
138 149
25 101
199 93
152 45
57 150
269 253
81 229
85 266
72 7
129 101
183 205
272 39
60 26
100 252
23 128
242 172
90 189
121 250
248 261
239 49
194 243
58 9
165 208
279 250
12 97
24 26
150 4
191 83
41 270
51 91
32 36
73 236
59 191
118 26
151 162
187 237
275 161
253 42
120 194
158 253
116 247
44 276
153 259
269 272
223 191
71 239
4 105
119 129
217 29
143 37
128 152
137 273
184 204
45 116
70 74
247 19
9 176
43 52
49 28
115 51
75 6
129 243
178 197
282 5
277 248
204 73
51 265
247 85
76 199
30 48
11 48
95 199
137 130
156 152
187 15
203 62
65 81
200 21
237 49
45 230
214 228
208 111
274 18
67 145
193 236
50 239
130 57
164 192
244 278
174 255
232 99
139 85
177 273
129 211
128 280
140 41
154 35
212 44
170 25
119 160
275 85
149 10
235 215
241 196
267 10
219 42
148 119
10 160
152 101
246 72
103 30
241 112
56 84
160 114
112 161
82 282
75 109
222 254
47 184
85 249
162 27
200 206
226 160
273 228
282 51
179 93
63 146
180 184
150 8
54 266
239 26
105 245
210 255
44 45
69 116
215 29
20 80
177 117
178 176
110 245
51 157
65 66
18 284
148 200
225 201
235 20
269 15
107 11
217 258
216 63
186 274
279 246
188 208
9 240
107 151
219 218
238 154
114 69
102 206
65 138
155 242
149 11
108 46
78 171
93 26
164 16
265 188
242 86
273 195
88 19
251 111
272 276
15 66
22 62
19 120
81 90
258 276
167 272
184 203
202 103
219 126
119 62
75 154
15 39
169 176
23 44
237 145
24 209
271 254
14 105
255 7
165 10
141 262
276 71
134 9
273 76
6 184
134 66
215 282
74 203
80 160
277 250
120 149
119 265
80 60
169 59
19 6
163 14
103 272
65 48
113 162
118 79
186 43
200 167
70 69
71 23
166 121
165 86
116 240
60 160
39 253
147 19
70 41
127 140
258 23
192 134
42 77
157 12
12 231
277 161
70 115
89 264
186 69
184 164
131 115
36 145
53 180
262 125
10 97
276 278
13 27
277 222
202 47
124 223
80 173
6 74
247 127
188 38
91 45
255 108
35 24
142 46
173 18
142 261
244 175
166 154
61 141
148 106
26 186
117 196
83 7
60 224
43 105
16 209
178 67
97 91
13 201
260 71
186 5
41 74
106 36
235 243
139 221
157 164
77 101
221 29
267 206
117 16
204 275
180 127
204 70
214 96
213 20
250 147
235 185
15 184
233 210
254 87
86 205
13 177
194 273
88 106
128 251
105 171
38 140
273 79
273 188
229 66
244 36
254 100
15 180
62 66
258 96
53 244
213 49
112 20
265 282
212 202
276 244
223 46
22 236
67 215
72 250
217 272
109 255
173 40
251 48
192 66
66 51
157 139
240 179
273 235
127 135
18 271
147 155
207 131
73 126
149 267
166 201
228 272
110 72
60 241
211 27
260 272
226 107
96 13
33 106
123 65
157 127
108 89
101 110
282 112
43 237
140 43
88 242
284 179
255 194
278 36
240 255
254 224
189 20
222 160
184 270
174 210
230 20
6 15
115 43
186 149
74 261
238 37
203 177
183 131
126 102
39 202
262 20
176 222
257 212
176 223
131 66
98 278
62 213
87 161
210 4
111 129
107 247
134 16
110 82
10 26
70 19
270 275
270 22
280 160
211 7
162 233
208 90
52 73
60 101
241 155
135 104
273 248
233 208
150 265
22 209
184 165
108 110
82 32
49 207
249 51
180 204
273 157
280 101
67 226
36 2
75 190
65 237
190 105
218 149
164 248
71 165
238 161
201 59
103 51
242 205
7 173
162 130
209 171
242 211
215 183
215 120
197 37
73 60
189 45
60 127
196 162
58 132
111 183
87 165
267 237
280 144
183 273
162 16
73 148
132 8
246 168
274 272
7 119
16 215
77 79
115 273
73 280
282 131
83 249
182 280
5 183
191 114
223 275
2 149
233 190
251 206
85 134
176 73
283 187
83 74
7 52
148 118
195 81
257 18
117 50
156 272
167 235
186 131
128 150
109 11
276 19
235 219
10 242
255 82
140 117
141 266
9 100
274 110
116 146
31 25
58 144
84 99
20 108
91 26
34 262
45 150
129 91
23 158
84 268
177 130
59 161
174 87
269 171
268 146
151 173
267 269
103 204
41 127
183 178
178 109
225 223
43 66
205 245
171 207
14 166
11 3
51 284
106 261
211 107
99 68
196 161
171 39
104 118
274 278
107 233
145 162
46 159
188 177
68 136
15 203
100 1
178 116
105 73
37 27
156 158
65 131
74 186
121 22
184 112
43 197
26 73
160 107
211 19
69 270
135 250
126 237
244 283
196 115
248 184
95 174
198 261
10 224
144 224
8 95
251 185
209 48
241 237
85 101
156 237
262 216
98 81
45 211
174 170
4 83
35 245
105 5
75 63
119 112
206 28
74 249
73 87
62 70
126 274
194 160
173 190
18 22
97 41
148 116
144 182
202 44
107 204
188 128
232 242
185 203
126 148
67 10
208 140
134 101
175 167
85 149
32 26
16 120
104 247
245 182
8 41
63 55
83 210
243 20
130 2
115 218
189 167
205 119
64 10
118 62
261 134
74 19
95 37
236 205
199 166
66 127
148 198
113 51
26 36
171 94
261 178
10 197
87 198
5 144
154 13
170 255
127 2
47 23
265 134
233 90
117 103
248 118
259 240
252 46
238 149
137 165
78 204
239 140
187 195
105 104
120 190
211 101
173 215
79 233
45 261
131 90
73 107
275 157
10 241
78 189
239 127
252 193
202 66
256 227
4 172
133 199
2 28
128 116
224 151
69 88
277 70
122 26
252 116
24 247
247 176
107 18
172 115
94 235
53 265
37 174
276 103
164 254
123 149
48 78
237 203
271 193
7 129
273 197
199 284
88 87
29 77
283 195
177 32
227 235
101 128
57 227
265 243
53 21
88 264
98 137
187 48
231 104
5 28
217 74
196 265
106 22
241 66
239 137
115 2
204 203
152 30
106 198
245 257
2 11
277 178
113 4
54 198
268 63
213 215
40 262
190 113
134 205
38 107
48 115
197 226
217 156
114 55
129 3
250 142
195 66
130 235
258 214
41 82
120 274
64 61
261 103
88 166
174 178
32 80
93 259
135 95
85 88
9 182
209 18
174 56
98 186
49 218
174 230
103 148
268 264
112 204
252 29
102 158
165 235
102 260
80 83
91 22
224 209
243 109
184 149
182 58
183 120
39 260
1 16
267 217
271 110
147 72
17 45
91 151
205 108
59 46
149 98
77 148
69 277
210 116
279 121
261 93
23 29
229 204
267 103
276 183
46 144
120 209
112 128
281 75
202 278
247 13
229 131
244 273
51 176
50 103
45 165
119 172
148 217
15 224
128 239
27 26
19 39
145 24
233 88
239 42
107 37
210 22
143 238
197 60
85 115
104 151
91 157
150 5
275 183
13 160
3 183
228 148
147 174
230 106
269 79
224 43
90 253
135 243
105 233
230 189
250 270
265 270
107 115
74 212
111 180
177 229
128 228
223 117
233 258
105 107
97 113
275 265
219 30
23 42
107 117
117 29
283 11
26 196
251 162
202 185
238 74
134 193
204 72
256 44
170 194
119 151
1 15
81 167
129 142
255 279
182 178
148 150
77 186
136 92
227 207
245 86
238 77
255 52
134 148
47 65
149 28
4 193
194 134
215 66
247 188
161 188
222 45
20 48
230 172
280 258
129 282
239 47
186 101
130 39
159 143
230 215
113 32
45 67
38 15
260 77
233 143
274 224
189 53
164 194
231 164
239 90
273 190
40 12
86 83
12 59
71 244
183 135
39 200
105 126
179 201
172 184
157 173
103 139
111 81
242 245
44 253
140 151
225 255
71 2
97 4
130 207
124 215
66 48
65 96
254 116
74 10
218 22
149 71
171 164
237 1
135 256
67 166
259 191
196 238
175 44
65 260
261 117
209 202
72 97
163 199
20 135
275 22
280 139
73 154
105 77
192 280
171 149
153 166
144 178
127 112
77 242
89 64
44 269
164 222
138 256
270 35
223 129
224 70
90 103
254 252
242 193
118 27
28 78
217 175
133 166
72 22
17 263
181 141
52 280
275 139
33 246
142 230
202 152
105 223
235 11
18 194
103 97
86 5
178 203
185 15
230 132
155 132
85 128
156 77
274 48
217 203
275 281
24 77
22 76
204 238
189 172
209 6
19 21
111 167
215 62
185 19
165 215
202 71
70 183
53 164
152 67
219 123
252 144
47 137
149 60
74 151
26 29
190 86
74 188
141 216
208 258
175 276
112 208
258 203
171 162
134 41
46 117
53 28
14 259
21 102
31 14
215 111
173 107
117 101
233 97
90 39
265 23
236 116
254 1
248 280
6 247
7 26
7 280
108 37
198 27
106 129
85 155
178 252
236 77
106 118
42 117
184 200
37 250
253 131
252 75
153 62
111 117
217 260
115 162
204 205
95 255
134 190
146 61
208 255
260 49
222 18
139 242
210 132
199 29
87 221
32 109
60 92
64 63
184 261
251 276
148 247
145 178
204 209
4 35
155 279
204 65
50 44
117 248
73 106
16 175
222 281
146 263
200 149
208 16
221 275
212 204
223 135
208 135
214 171
111 187
86 252
144 62
238 67
233 244
226 243
215 6
61 54
247 105
185 175
101 45
259 223
284 73
190 165
171 38
162 238
27 75
197 110
184 30
24 229
250 172
239 283
162 38
14 55
96 127
138 102
222 53
155 16
80 135
17 136
142 150
134 215
265 161
65 200
124 63
249 76
217 273
180 105
233 6
19 275
84 68
3 39
186 94
265 274
241 76
81 49
4 31
103 249
249 43
45 2
186 276
156 206
210 265
247 88
183 119
196 67
270 85
195 188
105 148
221 222
5 39
242 134
266 34
188 10
224 69
274 53
186 32
6 108
213 138
106 162
174 121
175 102
104 62
78 30
258 128
4 154
203 115
209 45
250 22
272 15
34 125
96 50
232 34
46 100
169 208
24 152
77 80
97 199
133 169
7 275
235 148
70 237
84 136
61 99
219 44
225 166
265 104
27 142
186 272
61 55
169 16
283 267
33 141
247 190
116 174
73 97
159 100
50 229
139 208
195 130
88 104
146 122
208 227
184 218
76 277
46 264
282 16
237 51
196 60
60 143
277 148
126 49
161 51
61 89
6 211
14 182
237 36
235 158
109 261
269 217
197 41
22 128
238 126
194 157
95 110
52 122
244 140
206 219
254 242
262 220
167 164
85 190
81 48
256 195
96 49
174 104
164 280
10 13
31 221
56 262
161 27
178 208
5 1
97 160
19 228
129 163
37 210
250 154
157 29
276 79
128 71
111 154
175 212
283 44
19 72
248 165
26 6
90 45
202 235
151 121
176 193
86 97
111 128
233 66
52 147
48 158
148 107
217 53
96 237
53 105
77 267
261 222
223 266
138 123
49 278
33 264
152 39
281 31
267 156
159 247
192 209
15 183
152 149
85 224
104 147
269 215
194 3
276 256
201 224
170 236
175 253
175 145
36 204
13 69
174 168
105 165
65 235
228 283
283 217
127 203
107 74
164 75
255 277
212 176
219 11
159 147
172 157
253 219
26 131
112 123
35 121
239 217
107 156
125 181
86 172
162 47
69 85
121 238
71 96
21 137
129 57
1 76
238 252
69 279
129 271
209 173
135 244
226 20
126 115
270 281
13 270
4 144
203 214
135 182
162 140
91 117
224 242
62 155
235 126
207 120
227 137
141 34
167 57
202 98
77 5
64 34
53 137
148 117
25 14
150 83
190 157
227 244
283 158
47 195
121 277
81 187
6 223
159 193
145 78
207 269
60 265
216 34
273 102
116 109
87 192
162 43
214 152
153 14
164 273
263 8
148 109
277 103
236 281
266 122
143 67
111 228
189 117
137 126
111 62
158 65
27 88
204 233
158 130
174 277
220 92
236 88
153 163
52 76
226 91
167 123
192 241
98 130
222 184
126 60
36 208
203 38
17 125
131 81
255 110
150 103
212 85
235 67
230 226
73 208
232 22
71 81
135 111
274 32
255 281
4 119
151 157
245 80
64 264
18 26
116 261
238 75
135 118
180 30
123 217
2 165
177 230
42 79
135 178
81 177
115 280
215 83
92 18
93 86
238 60
165 189
61 155
57 15
13 72
95 160
199 41
174 242
175 57
103 104
25 165
123 111
81 94
123 196
186 28
189 67
250 155
238 101
7 176
139 247
211 131
258 107
77 11
251 22
100 222
153 46
15 22
235 77
271 164
202 171
270 241
77 252
46 259
127 219
199 114
199 150
134 130
254 113
54 264
44 123
251 81
112 13
209 116
61 248
226 10
150 119
69 16
242 270
111 229
176 179
129 160
23 218
144 163
211 120
175 130
80 13
167 148
272 57
203 103
185 94
112 24
207 30
172 13
133 40
66 116
50 213
166 40
107 3
177 120
276 145
221 13
115 57
129 204
247 273
105 58
218 50
212 242
104 72
188 209
94 78
228 3
201 284
269 137
225 31
37 3
25 257
13 1
5 283
235 265
121 262
157 60
69 178
67 23
150 261
281 113
271 172
107 271
72 143
86 85
121 222
117 231
59 40
137 158
26 172
192 147
32 60
205 147
58 109
38 276
242 226
207 195
192 215
214 251
270 177
61 63
197 106
243 118
156 235
93 59
93 169
184 109
261 76
69 87
177 116
188 131
106 67
219 202
226 116
221 150
107 102
109 74
126 2
93 9
235 128
135 149
24 107
12 168
177 23
255 151
273 3
273 150
107 217
217 38
267 47
108 82
222 96
173 4
135 274
178 62
24 230
127 103
4 1
123 57
197 112
77 139
35 97
172 193
21 227
104 97
222 226
97 257
28 152
52 14
133 163
28 218
188 211
117 77
86 26
271 19
261 60
77 265
73 111
251 234
173 126
191 245
75 246
164 208
5 238
55 17
155 35
142 254
75 182
162 83
144 52
177 226
219 15
208 128
195 140
19 28
19 53
35 209
25 176
116 157
127 23
201 88
10 178
86 135
165 242
283 274
265 19
171 11
77 212
271 190
199 201
213 280
194 80
144 114
237 98
40 14
204 3
279 174
24 118
51 20
170 110
209 111
238 282
195 44
113 249
230 103
107 188
75 139
185 78
244 207
189 195
65 44
23 48
205 76
43 11
23 171
13 116
145 128
229 3
88 118
277 135
33 263
103 152
174 84
160 73
181 61
221 192
51 100
75 249
80 10
269 98
37 194
188 190
280 172
243 169
209 77
38 253
80 243
94 47
200 158
49 131
64 266
144 230
65 278
270 154
225 14
143 257
188 249
180 197
127 107
29 60
258 234
177 80
212 165
215 107
206 123
140 245
274 43
86 45
173 10
260 111
281 240
69 261
26 188
168 58
81 200
251 11
41 148
74 29
194 145
155 110
104 109
80 120
103 85
141 17
146 215
23 274
60 45
8 32
142 197
19 10
66 186
7 177
131 215
199 231
88 92
67 107
51 27
20 252
251 127
33 136
187 140
42 71
247 248
10 85
173 62
22 160
218 138
73 230
116 115
222 183
3 14
168 147
20 150
209 203
249 271
88 198
250 249
236 45
217 187
3 148
197 204
278 158
257 242
151 221
174 194
143 153
208 226
208 237
105 277
173 20
113 66
248 211
249 69
3 145
282 160
118 113
87 104
126 228
274 183
59 231
172 245
140 69
114 223
128 90
141 124
12 259
22 5
75 184
131 43
116 220
95 22
259 280
76 213
23 186
197 220
173 15
151 67
177 15
139 173
170 100
79 158
237 88
60 251
175 19
130 138
161 149
204 53
193 139
175 103
223 201
183 27
191 46
217 229
106 182
137 189
190 257
254 245
282 173
281 192
150 118
59 91
70 270
259 105
179 10
211 10
140 189
53 248
121 62
161 198
192 111
242 182
103 147
252 205
243 280
194 154
200 283
255 121
184 148
225 59
49 184
144 106
190 235
184 66
283 206
52 113
193 76
212 22
34 84
91 281
271 12
32 173
8 172
269 206
67 127
15 164
157 174
45 74
10 115
76 35
44 207
213 222
19 105
263 68
109 133
197 139
259 176
94 117
249 230
148 231
140 81
104 280
197 192
6 85
53 165
117 204
204 173
158 5
71 32
55 204
3 118
234 175
65 227
213 273
90 209
196 215
244 256
91 237
59 29
171 57
253 267
195 123
115 32
151 197
62 13
106 283
242 144
171 267
161 241
247 220
158 217
167 158
222 186
261 120
18 117
94 278
24 199
118 237
156 202
231 213
14 284
238 2
256 237
93 223
117 32
80 185
53 171
216 68
268 270
76 274
29 115
269 11
51 173
187 78
173 230
68 141
106 211
97 96
281 190
37 100
281 24
130 180
149 13
251 79
143 193
238 81
186 67
247 80
97 76
173 67
212 274
160 74
140 6
242 85
119 215
75 183
123 278
171 273
164 140
173 191
235 184
226 5
66 173
66 274
169 225
118 213
47 237
142 174
29 96
210 236
128 39
45 221
144 24
280 77
133 179
21 177
149 42
238 3
72 113
85 238
32 41
150 157
249 13
233 165
24 148
278 183
121 144
86 192
136 146
211 280
135 145
204 193
212 112
29 5
151 76
148 129
76 172
218 214
277 192
184 120
115 22
60 3
52 221
94 214
198 91
6 67
121 242
283 202
113 75
269 73
212 148
260 123
119 1
190 109
209 273
48 53
138 175
234 44
158 219
99 55
210 95
97 46
48 28
93 183
188 233
140 237
57 10
274 238
199 9
94 71
142 99
177 267
72 93
103 188
43 45
89 51
37 19
88 143
176 163
83 183
47 102
199 35
33 122
65 126
189 66
28 272
70 247
274 208
90 53
86 4
20 104
272 98
147 35
253 283
265 38
71 258
170 32
129 73
17 84
26 94
275 25
31 93
186 162
238 104
218 29
189 50
159 35
51 281
210 161
35 201
245 119
183 162
258 230
115 42
20 270
55 117
81 260
213 51
187 38
134 109
101 86
208 121
76 87
13 250
28 253
260 219
40 225
209 162
220 281
86 91
172 46
29 280
210 208
59 179
235 43
105 129
132 135
208 202
84 125
222 129
230 223
177 218
244 30
90 123
211 156
209 253
145 274
224 41
265 29
110 279
145 247
115 20
39 123
243 139
62 190
62 249
8 221
224 190
24 250
95 191
213 236
191 17
117 252
237 214
214 3
66 107
116 134
131 126
233 180
215 20
161 14
117 49
43 228
271 75
227 219
108 250
236 265
48 195
184 247
164 103
111 156
220 55
236 75
51 197
244 50
60 145
114 262
196 41
274 148
131 203
179 231
51 248
230 16
112 67
255 250
183 86
283 260
177 211
241 277
195 67
101 4
67 20
73 58
271 88
257 35
166 252
160 52
196 261
129 116
137 171
16 224
122 99
112 173
178 115
165 260
236 103
4 242
201 93
170 85
281 66
67 198
205 161
136 54
165 74
60 212
217 261
52 250
85 41
36 187
209 272
233 157
213 32
8 147
101 184
196 272
112 160
126 96
237 149
126 265
168 241
139 281
106 233
89 63
65 283
140 215
61 262
69 139
277 58
23 206
27 100
223 133
75 196
174 41
153 93
236 224
80 134
180 28
155 19
204 232
187 32
234 94
281 213
105 128
63 84
16 101
149 204
248 67
149 180
123 207
109 29
202 104
151 66
46 25
13 226
186 235
226 101
49 204
67 51
248 83
242 150
265 239
7 145
147 277
283 123
165 177
101 227
237 15
211 95
154 197
99 54
137 42
10 221
50 177
189 47
205 159
224 140
97 1
19 85
240 114
39 145
213 165
235 131
251 43
276 2
20 140
24 66
5 275
197 16
98 260
208 197
62 109
69 164
43 188
187 2
173 160
8 83
234 253
22 77
129 126
5 121
8 72
160 237
80 1
24 197
18 118
51 222
69 18
25 191
111 175
115 18
73 218
16 129
127 22
22 188
15 36
126 50
214 39
172 238
256 32
103 49
165 16
234 219
219 96
131 195
234 90
246 170
96 67
80 115
178 128
2 156
10 112
118 192
49 234
173 135
162 185
106 120
204 62
95 247
178 16
78 234
9 40
111 177
184 271
107 273
222 27
48 42
12 1
101 233
77 151
74 22
233 103
21 90
127 230
162 188
26 176
273 212
31 284
172 66
182 205
33 63
281 104
108 26
106 183
208 7
89 193
153 114
194 15
27 159
243 69
235 111
183 66
192 131
208 15
282 257
25 59
10 75
196 127
215 205
168 279
43 98
60 57
182 265
239 123
3 143
1 188
11 126
146 216
74 115
62 101
277 22
213 226
253 19
122 197
138 194
17 33
238 236
196 23
211 82
151 281
252 113
85 282
130 226
152 43
29 150
71 102
129 35
118 224
175 206
270 5
211 201
211 113
208 238
147 31
257 250
151 249
120 26
6 261
265 156
3 237
147 215
78 276
152 10
160 35
196 116
198 75
233 179
282 148
26 69
93 80
47 42
75 31
114 25
193 31
206 196
105 221
170 132
31 118
152 162
161 117
54 92
135 24
280 150
60 249
223 59
191 231
244 272
225 243
176 135
104 68
74 130
66 140
94 49
227 94
75 7
59 246
9 284
249 104
221 134
144 100
197 20
213 1
261 186
41 212
111 152
20 205
279 82
21 50
11 274
159 116
110 29
175 42
160 113
72 168
151 241
5 15
42 278
129 109
276 5
2 65
261 83
149 145
47 36
150 107
71 171
27 83
11 258
238 230
214 36
255 168
236 148
186 228
269 203
174 249
20 154
183 145
74 75
111 273
109 204
116 270
66 207
265 153
219 23
248 3
10 281
110 20
225 284
137 195
152 228
2 57
129 77
280 53
115 237
246 147
45 193
65 203
247 41
132 163
39 107
96 128
226 261
24 22
45 127
63 181
237 16
262 68
15 116
80 29
74 208
184 44
117 62
203 28
148 164
77 127
186 218
39 36
252 157
195 11
58 246
55 141
96 156
129 107
181 124
109 27
16 103
88 93
167 127
182 34
15 200
253 237
251 229
217 235
281 226
271 97
138 200
238 170
125 141
134 150
74 53
39 237
215 184
28 65
128 120
137 196
15 77
23 283
249 236
10 162
77 120
202 130
276 214
151 192
224 7
282 164
157 75
69 117
160 154
282 211
83 112
19 60
194 208
247 154
251 38
118 204
3 192
278 111
186 189
249 77
51 1
42 186
77 178
151 139
230 96
123 180
154 237
147 176
150 111
261 77
3 131
124 190
85 112
238 145
278 102
270 215
177 243
77 177
188 196
109 224
211 215
60 173
151 161
148 98
275 87
128 200
69 245
225 114
49 57
173 158
233 70
156 57
114 139
7 161
215 70
224 29
273 57
183 271
247 160
185 79
80 197
95 132
224 247
276 158
191 14
142 20
11 196
265 208
213 16
6 212
226 183
202 206
278 272
50 24
195 49
81 101
198 19
98 120
233 113
178 186
86 103
93 41
18 101
234 47
160 156
139 240
196 46
156 228
215 221
277 95
217 215
5 212
18 91
123 272
43 189
184 45
3 188
72 174
1 27
126 273
205 143
118 119
175 152
219 152
280 242
47 272
270 208
159 115
226 18
187 228
170 70
249 6
170 77
9 76
109 105
37 74
208 24
178 111
126 251
37 192
179 14
192 77
17 68
32 162
49 42
195 43
105 7
82 174
155 41
102 2
213 184
117 6
257 132
8 168
33 72
75 18
144 119
143 69
65 186
96 186
8 69
27 85
210 280
61 51
68 232
214 30
103 215
196 3
257 107
236 247
129 103
152 66
76 117
261 148
120 258
145 21
135 156
258 269
278 180
216 54
164 110
83 32
19 135
18 139
70 191
177 11
232 216
88 224
13 22
60 184
119 52
198 160
197 149
70 113
120 13
236 172
206 45
76 129
87 224
124 165
103 77
90 30
88 83
158 126
90 276
5 74
41 6
274 44
147 154
273 53
112 77
106 16
273 128
274 140
177 74
131 98
101 111
284 172
68 125
74 197
168 139
197 13
114 59
116 83
114 179
112 261
185 48
157 281
107 75
190 22
142 210
188 168
108 282
80 165
117 60
54 247
200 269
153 16
164 109
104 243
274 173
8 121
53 202
244 260
215 139
190 116
174 86
143 119
200 131
144 243
13 103
44 150
220 261
229 130
145 236
118 29
151 198
29 173
147 95
103 107
43 135
176 250
127 217
206 15
277 118
39 234
41 178
227 44
45 73
86 284
38 269
12 154
249 10
283 127
10 91
237 48
103 91
216 220
203 165
33 89
163 166
125 99
275 173
254 240
246 121
129 164
191 153
76 91
276 73
209 134
13 183
97 222
138 78
138 195
74 11
236 261
44 235
212 50
264 18
218 81
41 87
15 115
79 49
143 182
22 85
124 266
19 192
189 177
209 49
228 71
33 92
152 195
261 173
105 162
70 280
82 193
104 18
166 161
155 210
27 52
32 238
169 233
11 207
166 284
72 279
205 29
205 176
36 202
31 46
126 256
253 98
214 180
239 111
74 172
85 105
172 160
168 37
13 233
198 119
97 58
275 215
45 213
184 129
43 96
48 167
116 62
237 101
7 9
107 158
21 105
137 79
30 21
29 100
277 32
235 239
219 150
273 189
164 67
260 256
42 2
243 234
78 149
27 224
83 221
280 254
91 240
237 164
115 195
100 282
127 42
139 60
155 142
204 160
61 263
233 26
197 69
163 210
145 112
112 5
177 127
259 85
210 1
197 186
39 156
63 264
227 177
177 42
155 37
190 129
91 27
96 229
256 105
135 5
156 177
122 216
271 1
204 182
239 258
202 218
99 136
165 131
154 151
188 155
172 265
12 277
210 178
151 26
165 5
167 228
80 116
154 274
65 195
77 53
101 202
159 114
53 66
195 218
214 48
128 38
189 120
140 96
41 69
127 270
107 143
249 261
73 270
181 216
194 16
5 234
212 19
132 19
45 246
201 178
164 106
86 154
237 265
130 28
249 3
95 163
243 66
120 282
157 32
134 282
25 153
21 36
42 39
157 210
118 245
57 28
39 283
270 43
177 36
238 163
162 100
230 74
197 83
58 170
261 252
284 176
209 29
15 44
105 31
195 57
216 268
8 52
249 150
212 161
180 207
57 29
284 223
192 6
38 202
176 14
38 5
67 165
205 144
178 165
121 132
3 174
282 104
110 261
251 120
65 196
274 209
115 19
52 58
18 178
194 107
97 242
177 65
234 45
101 123
18 261
129 26
117 104
246 86
1 205
179 86
238 107
185 23
20 118
147 108
215 191
237 205
90 244
187 227
20 10
273 29
198 140
169 26
26 275
2 171
7 60
36 274
116 88
190 32
198 112
244 39
98 171
180 206
273 77
13 147
102 123
108 72
239 3
12 242
66 188
55 268
68 112
107 50
104 162
193 248
56 125
106 241
269 130
176 87
52 51
177 71
237 41
163 9
107 22
26 85
142 213
14 114
73 86
207 219
214 196
122 84
143 178
167 195
171 50
134 26
37 147
77 157
16 36
207 53
164 138
209 212
45 275
121 103
208 10
274 211
106 192
101 242
241 64
59 259
45 129
16 116
6 69
172 121
14 46
29 189
44 189
88 9
252 119
253 81
209 96
107 45
196 173
204 261
60 24
13 41
174 52
258 50
248 62
118 60
105 20
101 32
204 186
21 167
273 156
123 71
208 88
66 80
183 112
157 177
205 172
246 9
237 258
113 242
207 140
162 226
135 258
92 242
166 169
267 162
125 146
29 184
15 102
109 194
162 156
241 178
115 189
232 136
13 230
250 7
80 112
148 262
266 125
189 83
33 55
179 25
215 10
188 67
15 120
67 184
196 36
48 219
209 85
275 250
18 7
103 189
215 117
234 111
78 115
47 187
9 225
231 284
79 187
149 188
234 209
135 197
57 233
154 85
75 87
72 52
72 134
233 173
134 127
254 281
58 226
36 123
240 191
201 9
117 156
101 6
277 108
174 208
11 217
24 78
237 213
170 86
279 113
26 112
248 97
264 55
221 15
69 204
268 224
201 262
1 252
190 168
184 117
227 260
258 227
167 260
243 215
194 91
152 213
63 34
160 77
107 278
41 80
4 271
206 65
215 204
6 165
115 103
67 21
282 203
51 107
126 47
237 188
190 104
60 270
248 109
249 211
70 101
113 198
3 208
60 125
236 70
138 208
130 131
98 65
181 84
223 199
99 76
25 45
70 161
38 195
29 27
209 103
143 221
252 183
270 117
76 194
5 228
33 100
184 158
244 251
249 209
131 16
281 197
184 236
201 148
142 8
254 55
175 94
172 254
53 78
261 139
194 1
3 226
175 2
6 116
249 16
247 1
116 127
86 196
209 165
19 62
222 139
117 19
108 223
101 257
148 193
195 186
139 176
22 29
77 244
279 6
167 274
208 222
278 21
44 260
236 115
4 112
211 194
151 101
228 81
109 215
274 282
192 248
274 244
96 212
148 114
256 129
120 245
50 184
157 212
78 152
255 155
62 143
9 259
272 207
236 62
127 178
143 1
87 250
138 229
148 16
91 7
209 101
149 128
246 277
254 194
50 165
278 48
39 229
89 232
77 20
191 199
48 200
86 280
45 66
145 260
215 249
2 47
141 199
67 13
233 145
252 132
250 82
24 226
164 68
37 69
237 26
167 77
207 158
259 184
244 258
254 18
18 198
7 106
6 248
33 232
145 104
146 34
11 49
140 194
42 195
132 82
213 161
272 208
283 256
115 238
107 178
242 163
238 150
137 115
212 131
239 219
170 176
9 245
154 43
189 215
282 280
188 279
117 41
206 189
94 130
61 17
128 156
94 66
274 275
265 73
100 97
123 11
27 73
206 195
56 34
219 24
157 113
5 115
168 43
258 177
34 136
140 228
177 209
212 145
188 48
31 240
207 103
118 74
92 84
118 112
82 93
265 105
203 111
144 134
15 151
234 173
159 252
282 60
41 221
10 24
42 30
257 271
73 167
193 173
156 233
212 118
118 111
278 127
135 76
108 174
262 60
167 130
235 29
76 100
86 182
85 116
174 143
170 155
212 106
158 128
211 183
24 231
235 204
209 178
211 104
197 271
134 247
260 128
192 74
204 5
250 174
13 215
51 201
227 229
106 248
53 282
207 42
113 193
170 230
159 201
78 123
134 91
19 81
131 111
241 143
94 195
4 82
44 158
234 66
34 68
143 271
156 19
29 70
42 272
233 117
86 132
242 220
142 114
238 22
159 254
109 230
221 115
282 213
16 255
39 138
241 105
115 106
26 106
59 240
228 209
265 241
226 150
148 101
60 214
235 79
211 32
224 257
71 134
73 279
184 173
50 98
74 155
66 208
224 80
194 127
207 206
124 262
249 63
87 211
240 223
133 183
101 83
54 34
71 39
1 159
215 160
171 253
104 51
153 192
229 185
123 230
226 26
165 49
8 169
115 248
104 25
212 120
252 245
22 224
236 6
281 198
213 205
245 212
208 147
30 256
236 243
90 256
158 111
231 259
20 144
100 119
271 93
46 133
184 105
182 104
44 206
38 235
181 64
229 202
39 102
233 77
171 206
156 80
32 226
36 173
136 194
259 201
230 248
20 76
96 5
229 283
56 61
257 91
106 134
241 247
69 82
91 204
77 13
29 248
8 144
241 190
283 184
209 5
30 137
100 18
2 273
65 49
75 100
196 45
143 247
80 51
183 196
202 23
55 232
29 183
9 153
259 26
148 87
47 117
194 161
56 54
52 148
10 27
20 103
188 165
50 128
284 25
150 23
211 74
35 226
22 45
114 201
112 45
13 164
15 178
105 187
74 198
263 45
276 230
131 23
37 170
178 3
173 237
6 76
10 192
158 50
128 77
230 19
200 78
267 71
154 249
153 176
20 53
143 100
181 232
38 229
13 136
197 195
5 200
109 28
32 22
177 186
114 118
260 171
80 142
190 170
40 212
186 217
140 11
22 102
196 150
99 220
139 161
206 78
192 282
196 174
263 64
192 22
271 157
171 156
233 80
279 160
238 129
275 188
265 233
132 261
9 31
96 208
237 2
121 75
12 240
226 134
49 78
46 93
18 51
236 18
164 33
53 211
75 161
43 82
225 41
211 164
195 269
126 212
47 219
251 94
145 173
18 140
159 26
58 72
10 41
267 229
269 23
121 82
141 264
176 114
205 55
259 225
262 54
128 94
162 74
87 110
32 107
32 48
230 140
209 139
70 100
36 71
133 93
111 96
222 161
62 282
190 80
23 65
73 24
152 20
62 135
41 107
67 177
16 147
8 170
248 148
155 82
249 189
115 139
268 266
248 107
197 243
234 238
29 162
197 113
175 90
260 189
263 84
123 171
282 194
118 91
103 246
249 18
192 150
96 73
128 189
31 190
183 104
239 218
247 233
157 18
149 107
157 222
21 273
56 89
112 60
152 177
119 248
154 6
260 79
39 131
43 81
155 87
105 29
164 10
8 250
140 134
244 206
113 231
253 196
253 145
271 76
220 68
86 221
152 211
241 166
77 123
146 54
130 78
203 120
145 5
179 221
137 202
97 74
85 237
215 101
111 36
24 111
222 25
106 277
269 101
29 19
215 190
237 22
54 64
172 257
7 270
6 141
85 32
154 60
244 102
172 208
101 144
130 185
252 4
106 213
197 230
59 166
159 97
183 249
46 201
161 73
176 271
39 103
157 198
257 281
139 198
2 235
269 149
136 264
109 145
214 265
20 117
183 98
265 20
30 202
148 132
214 130
47 53
191 104
114 259
16 172
90 200
116 197
248 152
31 243
35 242
101 178
216 266
270 223
102 178
58 32
229 203
49 206
37 82
80 274
150 183
45 273
101 253
267 152
161 155
161 245
80 242
258 53
208 18
12 166
218 39
86 148
154 165
226 176
56 6
91 178
150 18
164 210
5 280
265 103
226 109
165 180
221 22
236 3
254 3
50 207
195 21
188 148
67 222
138 50
127 273
82 7
145 10
272 180
275 112
233 203
15 32
260 233
73 247
195 98
274 237
22 3
124 232
201 14
211 247
187 42
6 52
182 271
176 161
7 68
110 1
9 14
150 233
177 126
278 253
160 82
120 53
188 259
98 228
151 271
225 199
251 196
124 61
198 221
1 249
202 175
79 258
81 237
105 24
131 189
283 50
218 256
163 70
138 253
209 123
227 185
73 198
150 85
47 66
76 254
60 237
33 26
45 235
163 59
212 184
112 213
127 162
191 166
74 184
73 213
128 103
252 271
132 249
153 95
177 167
40 69
106 184
250 280
191 40
69 161
7 114
261 115
135 41
253 195
145 127
62 224
118 173
87 243
157 93
154 119
91 8
254 107
29 185
275 113
94 118
156 149
127 280
210 250
189 127
164 118
271 222
215 100
103 135
55 124
66 144
45 208
90 67
67 120
212 140
245 232
208 32
27 196
4 148
97 194
93 16
195 217
187 19
235 120
228 234
282 75
163 40
194 226
27 248
153 275
174 172
167 276
132 168
188 263
74 139
183 251
251 260
52 245
227 212
276 217
48 230
36 235
167 137
273 229
213 29
188 111
92 62
114 46
73 101
31 174
231 40
180 96
217 50
263 99
55 263
4 164
126 117
7 139
113 101
41 83
162 227
227 2
16 29
118 140
200 171
31 40
29 41
53 98
36 189
259 67
71 156
193 245
185 149
241 211
253 78
277 82
167 204
200 258
81 283
129 115
3 177
14 133
37 172
121 101
191 169
87 197
143 197
127 120
159 86
128 130
271 144
140 143
226 113
20 282
156 244
69 132
194 271
260 212
269 118
203 20
238 18
130 212
94 217
165 174
249 160
67 66
38 39
22 67
172 35
122 7
274 202
165 270
150 145
140 256
97 205
270 113
176 59
14 135
277 73
116 205
187 21
103 190
196 230
130 253
256 130
20 157
60 210
246 105
37 246
164 116
184 5
242 24
70 241
276 173
207 162
195 23
15 227
19 273
239 200
77 237
182 196
50 196
227 253
210 25
44 105
272 107
171 195
15 175
269 256
218 123
80 174
122 68
247 270
180 39
238 109
133 103
161 183
115 148
177 200
43 175
129 37
145 42
85 192
160 104
44 2
107 207
253 167
67 245
230 66
70 117
52 95
28 234
195 36
105 45
95 170
240 184
112 236
49 229
76 29
153 10
178 78
173 99
7 163
11 249
259 133
207 228
180 48
150 214
241 142
212 230
30 156
254 177
126 202
151 88
64 55
213 178
264 220
279 37
75 233
248 76
271 101
185 98
124 268
209 208
233 16
212 237
74 138
224 24
274 128
226 15
106 215
265 221
22 245
190 160
63 266
197 262
62 205
58 210
110 215
176 242
175 81
81 185
26 128
169 163
97 192
131 217
208 5
164 95
14 93
183 67
76 212
125 248
80 226
272 140
217 167
62 241
158 251
85 118
104 1
173 105
245 246
183 113
162 173
212 91
43 265
120 107
147 170
283 98
189 197
259 252
276 42
11 81
284 240
152 79
45 134
163 223
189 21
41 76
108 161
67 205
122 70
259 35
271 159
159 16
96 115
20 26
192 173
3 74
114 40
94 127
7 249
111 21
154 104
8 255
261 158
16 157
42 43
29 129
120 43
206 149
205 96
164 62
117 85
241 43
26 173
115 243
105 178
244 38
129 214
59 31
5 95
218 36
214 185
123 47
244 214
97 168
19 109
176 240
157 193
178 237
32 189
280 215
77 224
114 113
6 113
258 282
215 237
237 134
248 225
47 19
107 260
213 164
180 274
265 140
170 168
148 258
204 123
152 71
114 12
97 204
3 104
96 265
13 88
85 243
176 31
1 72
40 249
273 11
256 28
227 158
117 7
180 66
280 134
259 40
281 27
234 79
16 7
158 258
188 129
66 10
23 278
55 143
104 248
149 229
271 27
225 26
245 151
168 250
87 281
115 193
237 111
177 261
247 97
109 25
112 172
154 143
139 53
18 68
162 60
65 149
41 190
80 24
32 284
277 129
138 137
63 198
202 177
162 77
212 29
177 180
280 35
44 30
257 103
185 207
260 273
126 197
226 204
211 205
67 247
5 156
188 70
44 71
55 84
28 167
9 114
30 283
195 2
215 188
42 98
99 266
71 130
257 73
284 116
132 52
160 20
74 85
109 101
184 126
65 269
45 72
144 209
141 220
193 182
36 167
262 99
33 99
165 243
79 81
5 248
197 6
182 241
249 205
277 132
157 161
161 6
153 58
61 33
186 182
93 215
150 60
13 236
195 50
20 50
148 233
139 238
6 230
170 188
211 261
261 67
72 210
145 275
210 277
270 80
230 183
188 13
150 12
149 203
116 140
75 160
119 106
109 106
263 216
104 66
192 184
56 92
215 53
186 152
253 77
62 192
131 53
160 58
137 2
202 138
2 234
81 123
272 94
5 53
219 175
199 176
136 64
254 119
162 128
189 228
90 207
85 211
74 257
103 178
35 193
104 134
118 16
61 125
159 150
112 104
255 45
68 225
196 5
151 73
103 66
60 243
111 224
239 130
273 219
17 124
242 116
229 258
164 230
77 48
21 98
62 69
149 62
196 236
56 68
243 37
194 66
154 233
147 163
173 247
192 53
229 167
257 161
22 252
260 148
120 27
26 202
22 213
22 167
226 51
252 33
218 175
97 106
135 238
221 230
187 186
190 69
25 10
43 196
175 78
221 116
161 113
13 144
71 178
208 149
265 115
82 8
84 220
118 97
133 25
87 209
43 32
149 235
20 6
186 173
242 106
171 272
196 247
265 101
3 165
251 267
190 275
146 84
211 142
187 98
142 264
239 138
196 22
153 182
256 39
264 181
96 3
204 18
18 237
150 129
207 283
57 183
218 260
45 3
153 240
83 279
219 102
193 1
80 208
140 88
179 40
56 136
216 61
173 30
261 62
238 91
160 274
162 237
89 17
193 26
113 169
123 269
216 124
263 89
165 183
71 235
265 85
33 75
168 118
138 272
83 238
228 66
87 270
199 188
282 277
30 158
13 193
29 28
144 69
97 245
175 251
111 78
155 168
82 159
154 236
5 98
282 145
42 96
7 10
218 258
273 215
198 51
50 105
24 2
28 39
278 38
162 67
118 254
165 15
128 140
237 44
268 141
76 245
53 71
145 184
120 278
99 261
122 92
281 95
271 91
113 85
43 178
39 48
117 274
186 185
164 117
130 276
232 122
250 151
211 270
281 7
227 49
39 178
81 78
132 87
248 150
205 4
211 168
21 230
165 278
103 283
264 122
211 115
107 213
5 109
130 30
148 108
39 187
74 189
171 251
45 35
250 95
138 260
104 132
92 262
87 113
23 152
95 14
2 128
59 199
186 50
209 265
144 41
18 252
111 87
193 119
95 105
8 277
102 30
190 154
42 126
208 144
149 49
253 11
77 282
100 224
121 83
124 84
178 151
165 198
281 248
165 261
194 148
156 137
127 208
219 67
11 128
237 127
48 156
18 265
240 166
147 282
221 88
135 230
121 72
212 7
186 207
63 92
198 164
118 252
208 6
236 59
4 190
14 59
238 29
224 6
144 97
173 85
159 4
73 177
116 87
15 2
238 186
257 76
103 196
40 8
195 79
182 100
78 235
119 83
281 83
161 18
193 144
197 160
63 117
187 152
43 273
264 99
51 221
197 283
166 259
130 90
73 164
157 178
243 73
175 23
85 241
208 150
116 52
212 49
110 280
36 42
149 20
160 213
20 148
188 5
3 274
205 230
246 160
66 69
139 26
173 100
53 127
241 3
270 190
76 173
190 45
155 72
142 10
239 148
138 156
224 18
82 170
177 282
80 106
207 65
53 116
177 70
170 41
120 160
188 226
82 208
135 206
241 51
123 202
48 111
7 221
50 256
138 15
232 84
53 203
78 156
3 111
117 109
14 113
206 204
24 198
121 52
182 103
279 245
137 111
145 43
27 132
230 134
140 196
189 196
197 212
11 22
70 116
197 118
217 213
128 233
73 283
150 178
132 194
81 57
284 270
271 35
47 50
73 184
250 25
273 238
196 280
239 214
29 282
99 63
280 26
117 257
150 144
59 133
154 211
150 281
13 156
13 73
270 162
67 149
170 143
280 111
168 82
4 245
57 126
257 4
14 198
7 109
147 255
171 145
6 109
237 90
127 214
171 90
271 250
134 222
105 123
40 7
9 191
27 275
145 204
210 67
87 119
231 14
218 140
36 217
173 177
178 280
93 168
204 108
15 112
152 206
3 259
45 7
201 153
164 43
165 132
256 117
67 132
132 18
155 108
78 283
132 246
199 259
130 79
213 100
70 226
213 134
72 170
146 89
109 235
240 100
86 144
16 127
20 238
211 275
123 227
212 18
257 147
96 113
24 97
115 186
153 178
170 279
148 175
16 280
102 258
274 96
115 113
244 81
43 18
31 259
174 155
260 156
49 48
224 225
3 70
32 112
107 265
238 26
51 83
143 4
229 189
117 73
203 215
242 62
240 37
23 15
100 178
277 254
52 274
62 247
96 112
108 45
77 19
217 128
67 73
66 145
85 62
188 120
154 280
84 89
145 265
125 220
78 260
133 231
1 255
178 188
240 93
241 236
34 99
195 126
230 115
271 245
248 4
265 257
275 261
204 101
254 270
64 220
159 62
30 123
163 231
66 272
202 227
279 243
173 144
22 143
179 31
83 109
27 18
138 251
245 1
117 65
175 248
32 16
217 177
5 198
193 100
172 164
212 94
87 51
138 48
85 13
27 7
280 221
135 134
130 48
213 85
142 51
78 103
244 177
140 70
13 199
271 205
18 105
218 207
173 202
230 184
238 228
164 224
191 133
166 25
58 254
120 281
108 194
178 189
164 77
129 46
103 167
40 169
90 230
7 51
219 29
276 228
23 2
46 163
43 238
253 48
225 179
271 280
43 57
183 208
202 79
31 199
88 197
45 142
15 148
160 164
197 96
38 196
136 141
27 119
32 45
88 115
10 143
248 213
22 183
176 191
194 215
249 282
91 252
132 222
224 26
235 229
227 156
159 190
41 62
109 41
111 130
256 185
80 62
173 150
239 28
209 226
230 105
138 120
69 189
152 44
242 197
269 208
115 184
137 11
29 18
227 79
192 27
45 121
5 57
140 106
133 8
233 151
127 101
15 79
152 145
160 210
213 193
35 85
157 211
159 265
48 107
258 145
245 7
19 280
113 91
3 154
10 135
67 230
249 142
196 120
202 251
143 35
85 109
273 41
98 111
207 238
180 67
120 273
94 230
154 196
233 228
43 128
96 185
169 9
163 114
14 110
45 50
275 51
17 262
229 214
196 221
277 77
226 108
154 241
15 197
276 36
67 202
210 246
190 19
260 206
162 217
101 103
111 134
233 62
86 104
229 175
197 75
233 234
218 180
196 209
249 97
200 208
157 213
154 82
266 33
119 174
209 115
270 24
18 63
226 279
101 20
20 281
64 22
14 4
19 112
37 280
232 56
149 48
66 267
36 126
60 114
137 235
203 79
22 165
121 155
170 68
277 142
73 196
224 252
95 4
243 174
171 244
141 56
48 283
211 109
87 233
102 152
134 4
253 273
107 249
132 37
50 137
117 105
112 117
225 133
269 39
226 273
124 170
110 142
21 107
205 100
212 3
60 201
74 24
172 168
166 46
57 79
275 74
188 152
233 86
238 55
221 159
222 150
151 13
110 246
32 120
108 168
45 18
239 206
107 7
94 29
217 21
47 258
162 26
194 173
196 71
139 213
24 47
54 63
192 265
21 77
137 150
116 212
97 143
115 161
28 90
95 155
105 172
126 239
5 164
41 236
229 120
161 280
165 230
144 73
77 85
98 180
139 58
234 42
18 242
179 183
39 276
159 37
223 12
240 69
215 128
36 200
6 107
254 193
131 106
20 188
160 233
215 274
236 271
68 55
252 41
173 248
32 154
44 81
224 134
118 185
225 46
196 108
7 259
151 274
8 279
15 49
209 94
15 202
223 170
130 178
30 260
279 70
78 272
174 204
165 161
117 37
184 189
7 184
35 205
5 213
272 185
152 282
88 24
115 269
140 36
263 100
199 179
135 270
14 170
32 205
206 47
131 50
66 204
28 219
83 172
192 204
9 101
1 172
178 7
121 51
202 228
45 280
162 158
57 53
248 10
158 209
142 122
235 152
226 112
206 214
49 219
236 85
88 51
177 236
101 105
22 208
185 253
50 219
60 236
186 145
109 192
15 239
206 212
112 108
26 197
257 159
218 171
213 190
30 209
203 273
257 211
168 75
265 74
261 281
163 12
242 209
261 24
165 129
251 269
48 102
265 45
131 256
181 122
228 137
194 32
101 208
164 134
43 244
94 19
15 3
214 256
35 223
59 243
121 114
172 33
181 136
244 49
126 38
233 223
209 74
126 23
62 221
99 181
112 66
283 203
91 75
252 257
69 53
215 162
91 161
35 275
62 270
194 280
221 161
131 73
50 85
191 225
186 258
184 128
182 29
48 212
209 269
96 188
28 260
80 26
101 283
274 162
230 22
173 106
100 88
116 246
100 93
185 233
127 75
168 277
62 160
233 137
215 43
273 39
224 174
245 169
188 212
69 184
35 192
129 69
193 233
177 103
184 127
74 193
154 162
45 149
7 189
9 231
269 237
67 65
71 138
109 170
18 70
64 262
4 100
275 178
157 73
173 143
53 177
243 112
256 217
201 279
62 74
239 115
115 206
55 259
105 183
182 8
152 94
94 126
125 92
154 62
248 105
194 233
23 251
164 197
77 274
120 135
186 38
138 211
272 81
65 137
107 19
212 265
162 79
248 233
183 182
241 41
180 189
54 263
111 126
52 82
69 172
228 78
226 184
188 164
280 24
26 274
131 260
200 57
44 38
233 45
77 213
60 82
75 20
227 73
176 4
46 284
98 30
15 265
213 109
90 269
217 126
67 129
233 3
179 100
164 85
123 156
276 57
199 40
265 195
188 183
234 229
21 131
140 235
152 184
19 239
261 104
144 257
275 32
142 121
188 117
212 149
43 126
57 207
74 233
182 172
103 212
85 162
261 192
118 265
193 230
185 238
136 122
203 189
276 47
118 196
8 80
174 113
103 273
235 209
233 129
108 210
264 262
135 96
137 274
144 31
254 143
274 273
73 188
5 265
11 36
281 149
261 194
82 77
183 85
107 201
180 78
277 209
36 253
45 256
112 265
49 66
113 196
254 35
91 247
230 112
209 88
95 154
67 154
237 270
212 248
157 120
228 237
239 81
94 38
227 71
117 137
131 272
187 149
75 133
201 26
118 226
102 128
148 26
102 187
137 207
164 41
105 219
96 215
45 82
120 228
144 37
243 27
255 33
178 74
140 113
90 23
187 267
263 122
67 31
113 205
23 188
24 104
85 75
274 105
188 80
41 257
26 101
105 122
282 184
1 35
18 201
13 148
107 35
70 107
270 106
78 186
41 60
73 51
71 57
162 96
190 13
40 25
74 280
5 214
73 59
15 283
258 48
6 35
109 280
21 48
198 60
229 207
87 151
142 37
220 146
270 88
130 283
70 190
208 60
4 264
147 1
73 5
86 105
258 131
212 214
204 188
1 86
190 209
77 144
92 268
254 4
19 67
20 73
81 102
261 36
10 6
160 110
137 162
281 161
102 229
129 117
116 10
137 237
157 240
278 80
53 185
48 226
237 13
281 221
75 111
130 11
165 252
265 197
66 160
187 5
230 192
249 257
211 175
151 275
280 83
273 129
273 278
137 256
195 39
52 170
81 21
90 65
48 276
92 141
177 175
133 115
76 226
68 27
218 203
119 271
148 189
222 88
243 86
26 11
118 162
1 20
169 201
251 123
247 140
144 194
113 151
208 175
24 62
12 226
108 52
50 260
127 73
163 172
156 274
164 196
132 169
135 128
98 158
131 273
259 107
270 68
85 230
270 151
76 159
192 16
5 279
73 110
105 155
192 194
270 109
278 5
97 25
2 98
12 241
70 154
183 32
24 173
182 35
72 142
249 87
89 282
59 170
219 217
66 200
161 9
75 143
216 264
250 284
226 284
241 75
91 88
