,temp,degree_centralization,betweenness_centralization,closeness_centralization,eigenvector_centralization,global_clustcoeff,assortativity,diameter,avg_degree,modularity,density,avg_path_length,vertices,edges
1,Graph00,0.1266233766,0.081306237,0.1895292422,0.5641000577,0.1223849372,-0.0673014678,4,6.0357142857,0.3152375617,0.1097402597,2.3850649351,56,169
2,Graph01,0.0947260625,0.024739702,0.1348533385,0.4441180554,0.1768115942,0.0423120569,3,10.126984127,0.2427894773,0.1633384537,2.0174091142,63,319
3,Graph02,0.0910973085,0.0192832303,0.1063768321,0.3878989696,0.2253740648,0.1547046869,3,13.7142857143,0.1841992188,0.198757764,1.884057971,70,480
4,Graph03,0.1545121545,0.0213189514,0.1487719414,0.4478585696,0.272155767,0.1808526982,3,17.1025641026,0.1234712479,0.2221112221,1.8504828505,78,667
5,Graph04,0.1395348837,0.0155394114,0.1218102827,0.4314708745,0.2903061513,0.2490002155,3,20,0.1200792707,0.2325581395,1.8262496659,87,870
6,Graph05,0.1559278351,0.0096852439,0.1425741653,0.442733303,0.3073677867,0.3102414808,3,23.0309278351,0.1175689615,0.2399054983,1.8167955326,97,1117
7,Graph06,0.1412253375,0.0089432104,0.1251546675,0.4204714218,0.3179386685,0.3203338314,3,25.8888888889,0.1413405314,0.2419522326,1.8042575286,108,1398
8,Graph07,0.1380952381,0.0103109938,0.1217423033,0.4083981733,0.3262519554,0.3396215858,3,28.5666666667,0.1277808262,0.2400560224,1.8057422969,120,1714
9,Graph08,0.1183929974,0.0124570101,0.1020010231,0.4177338031,0.3318673447,0.4137394561,3,31.2537313433,0.1384918387,0.2349904612,1.8133767254,134,2094
10,Graph09,0.1492835117,0.0097232552,0.122943422,0.443608973,0.3348494081,0.4491276559,3,33.9060402685,0.1540611841,0.2290948667,1.814982768,149,2526
11,Graph10,0.1483023001,0.0112272291,0.1361024508,0.4322248372,0.3268939458,0.4517186649,3,36.5301204819,0.2068858952,0.2213946696,1.840671778,166,3032
12,Graph11,0.1632491187,0.0180167849,0.1472098898,0.4625535453,0.3196906865,0.3541602246,3,38.9621621622,0.2375868208,0.2117508813,1.8527027027,185,3604
13,Graph12,0.1589391428,0.0126673599,0.1416646521,0.4761353731,0.317470058,0.3129179154,3,41.4174757282,0.2725133795,0.202036467,1.8673928487,206,4266
14,Graph13,0.1395847698,0.010706837,0.1276787089,0.4654337819,0.3157756156,0.3229875262,3,44.1746724891,0.3041287885,0.1937485635,1.8836665901,229,5058
15,Graph14,0.1263702331,0.0122074432,0.1282505687,0.4621627797,0.3156369411,0.3392415218,3,46.9019607843,0.3115831059,0.1846533889,1.9023622047,255,5980
16,Graph15,0.1222813915,0.013397736,0.1274315369,0.4751219438,0.3127727251,0.3851425644,3,49.3943661972,0.326211675,0.1745383965,1.9346289753,284,7014
17,Graph16,0.1226039783,0.0139996582,0.1402788682,0.4976092024,0.3108152287,0.4212989931,4,52.3797468354,0.3158876935,0.1662849106,1.9554952783,316,8276
18,Graph17,0.1273097273,0.0091690602,0.1411660117,0.5128602647,0.3060341529,0.4567299941,4,55.4415954416,0.3194811979,0.1584045584,1.9812942613,351,9730
19,Graph18,0.1215872388,0.0075442228,0.1495696421,0.5549661985,0.300404844,0.4859170584,4,58.7025641026,0.3293023444,0.1509063345,2.0043372223,390,11447
20,Graph19,0.1153451373,0.0063829345,0.1513578058,0.5599489425,0.2948837623,0.5038611003,4,62.1709006928,0.3176491542,0.143914122,2.0262060559,433,13460
21,Graph20,0.113539501,0.0077523589,0.1550533787,0.5742968711,0.2866445057,0.5245078705,4,65.501039501,0.3344881969,0.136460499,2.0495841996,481,15753
22,Graph21,0.0952280569,0.0055200814,0.1493010403,0.5536454578,0.278730586,0.5398244669,4,69.2434456929,0.3216041503,0.1299126561,2.0684557062,534,18488
23,Graph22,0.0930962581,0.0072316993,0.1374783386,0.5452244587,0.2706250349,0.5413658595,4,72.8870151771,0.3217181265,0.1231199581,2.0844765507,593,21611
24,Graph23,0.1024947996,0.0043668037,0.1359843893,0.5693368077,0.2621418165,0.5577120428,4,76.5584218513,0.3424404676,0.1163501852,2.1105063857,659,25226
25,Graph24,0.0866878967,0.0062134672,0.1363890275,0.564663497,0.2529326661,0.5695194223,4,80.631147541,0.333431452,0.1103025274,2.1279032391,732,29511
26,Graph25,0.0777513194,0.0042492678,0.1267503483,0.566324822,0.2433786673,0.5844756928,5,84.8659286593,0.3342968365,0.1045146905,2.1465926236,813,34498
27,Graph26,0.076473347,0.004126096,0.1214484924,0.5581710791,0.2339510217,0.5930250421,5,89.0210409745,0.3311418981,0.0986929501,2.1656267725,903,40193
28,Graph27,0.0762582512,0.0031614198,0.1215379873,0.5680609326,0.2238710492,0.6009504849,5,93.5892323031,0.3481429436,0.0934024274,2.1840367122,1003,46935
29,Graph28,0.06807422,0.0031151479,0.1201459834,0.5612023741,0.2143041188,0.6056797848,5,98.2333931777,0.3317824928,0.0882600118,2.1986721317,1114,54716
30,Graph29,0.0686937025,0.0027746574,0.1234186021,0.5623452687,0.2051646668,0.6063534708,5,103.0945836702,0.3561369285,0.0834098573,2.2128923981,1237,63764
31,Graph30,0.065564733,0.0031208266,0.1232943656,0.5726987742,0.1961897107,0.6084076507,5,107.9796215429,0.3602293748,0.0786450266,2.2274081872,1374,74182
32,Graph31,0.0609148529,0.0028109663,0.1189295472,0.5765954174,0.1875018787,0.6096254566,5,113.1048492792,0.3634047057,0.0741671143,2.238791655,1526,86299
33,Graph32,0.0593442964,0.0024055742,0.1181336963,0.5730955219,0.1792238467,0.6124105668,5,118.5301062574,0.3467943242,0.0700118761,2.2521145825,1694,100395
34,Graph33,0.0532028007,0.0024767216,0.1152948758,0.5728297523,0.1709075986,0.6182169617,6,123.9787347156,0.3620840976,0.0659461355,2.2633897768,1881,116602
35,Graph34,0.0523744876,0.002074838,0.1109317568,0.5680283592,0.1627675091,0.6241352183,5,129.6944444444,0.3605534115,0.06214396,2.2746531622,2088,135401
36,Graph35,0.050233801,0.0017764037,0.110602094,0.5862414059,0.1551372512,0.6292414082,6,135.6082830026,0.3574420842,0.0585275283,2.2866567886,2318,157170
37,Graph36,0.0502637148,0.0016528821,0.1066413247,0.6031418825,0.1474658282,0.6333600077,6,141.7217256121,0.3472735195,0.0551017596,2.2979121624,2573,182325
38,Graph37,0.0444366581,0.0015489344,0.1122943723,0.6027541545,0.1400796565,0.6371299551,6,148.0889044452,0.3745741651,0.0518518573,2.3078423529,2857,211545
39,Graph38,0.0417461524,0.0014808862,0.1099418726,0.5926612448,0.133113959,0.63622716,6,154.6229508197,0.3722506959,0.0487615739,2.3157448711,3172,245232
40,Graph39,0.0359632788,0.0013527118,0.1069432053,0.5868748082,0.1263592542,0.6396614622,6,161.4092587333,0.3835976095,0.045854903,2.3240516318,3521,284161
