*Vertices 303
22 "#66"
277 "#290"
92 "#293"
300 "#43"
243 "#264"
19 "#285"
100 "#201"
54 "#221"
31 "#150"
32 "#211"
20 "#199"
199 "#153"
139 "#24"
196 "#99"
172 "#244"
287 "#97"
265 "#257"
62 "#8"
69 "#225"
296 "#16"
23 "#284"
114 "#183"
9 "#252"
94 "#49"
27 "#163"
184 "#301"
294 "#173"
66 "#299"
264 "#146"
144 "#178"
8 "#277"
186 "#154"
171 "#65"
286 "#228"
6 "#85"
231 "#61"
260 "#250"
166 "#268"
284 "#27"
39 "#126"
167 "#86"
257 "#176"
77 "#206"
68 "#280"
255 "#39"
254 "#233"
49 "#282"
152 "#165"
156 "#267"
75 "#19"
146 "#22"
280 "#262"
242 "#122"
84 "#30"
299 "#168"
289 "#167"
130 "#241"
252 "#124"
7 "#265"
46 "#68"
180 "#184"
267 "#258"
145 "#292"
160 "#59"
34 "#219"
271 "#190"
143 "#123"
297 "#226"
182 "#212"
181 "#260"
157 "#73"
259 "#102"
53 "#115"
15 "#82"
275 "#186"
18 "#36"
247 "#247"
185 "#98"
42 "#20"
83 "#113"
222 "#105"
169 "#37"
104 "#302"
164 "#51"
95 "#117"
132 "#242"
168 "#261"
274 "#100"
151 "#217"
210 "#214"
216 "#259"
281 "#223"
111 "#272"
113 "#169"
101 "#185"
79 "#21"
4 "#231"
293 "#50"
224 "#135"
240 "#189"
268 "#237"
74 "#114"
149 "#195"
179 "#158"
178 "#256"
14 "#175"
233 "#187"
270 "#41"
128 "#248"
16 "#10"
170 "#171"
295 "#48"
190 "#138"
28 "#203"
37 "#279"
56 "#52"
72 "#107"
282 "#151"
17 "#74"
301 "#11"
110 "#23"
44 "#62"
140 "#140"
106 "#234"
204 "#14"
173 "#131"
191 "#55"
194 "#269"
221 "#4"
202 "#13"
58 "#136"
117 "#2"
87 "#147"
288 "#216"
67 "#164"
225 "#84"
165 "#274"
134 "#222"
65 "#94"
192 "#205"
261 "#177"
218 "#110"
64 "#76"
290 "#104"
102 "#18"
61 "#89"
213 "#245"
131 "#69"
52 "#291"
90 "#137"
38 "#294"
121 "#80"
127 "#45"
212 "#142"
3 "#12"
36 "#112"
272 "#116"
263 "#75"
10 "#204"
88 "#81"
48 "#96"
124 "#210"
21 "#266"
11 "#270"
96 "#273"
141 "#125"
195 "#34"
118 "#224"
71 "#92"
78 "#67"
183 "#54"
57 "#213"
47 "#106"
55 "#130"
251 "#91"
250 "#162"
262 "#129"
198 "#209"
112 "#198"
302 "#200"
25 "#32"
244 "#108"
26 "#33"
246 "#181"
177 "#240"
175 "#58"
232 "#72"
81 "#253"
207 "#166"
241 "#182"
248 "#57"
105 "#271"
161 "#188"
99 "#144"
73 "#56"
153 "#254"
133 "#157"
108 "#103"
208 "#95"
29 "#29"
159 "#79"
40 "#15"
136 "#25"
228 "#5"
226 "#180"
60 "#1"
35 "#196"
115 "#227"
253 "#93"
238 "#197"
70 "#35"
217 "#283"
45 "#251"
12 "#232"
5 "#155"
269 "#64"
107 "#139"
80 "#90"
278 "#44"
155 "#287"
98 "#71"
163 "#161"
158 "#218"
256 "#172"
303 "#28"
298 "#148"
119 "#132"
116 "#121"
126 "#215"
285 "#38"
189 "#159"
89 "#143"
138 "#239"
148 "#243"
24 "#297"
234 "#179"
82 "#70"
203 "#298"
245 "#7"
63 "#230"
206 "#6"
200 "#194"
273 "#202"
129 "#78"
50 "#118"
239 "#170"
215 "#192"
103 "#145"
76 "#191"
258 "#0"
276 "#296"
13 "#101"
219 "#119"
237 "#40"
123 "#17"
2 "#255"
176 "#160"
137 "#77"
30 "#281"
266 "#9"
223 "#88"
135 "#207"
147 "#193"
122 "#288"
187 "#128"
1 "#141"
150 "#31"
249 "#174"
174 "#133"
201 "#156"
125 "#229"
85 "#278"
283 "#289"
188 "#120"
292 "#300"
227 "#42"
41 "#134"
193 "#249"
154 "#127"
235 "#87"
214 "#276"
236 "#149"
59 "#3"
220 "#46"
51 "#238"
43 "#83"
86 "#220"
230 "#286"
197 "#263"
279 "#275"
142 "#109"
97 "#47"
209 "#152"
33 "#26"
211 "#246"
91 "#60"
162 "#111"
205 "#295"
109 "#236"
229 "#208"
291 "#235"
93 "#53"
120 "#63"
*Edges
54 185
80 282
136 297
185 216
205 173
120 208
21 105
117 260
201 67
76 110
207 268
225 252
145 8
108 107
165 202
243 46
170 22
59 72
175 62
293 262
71 162
129 159
215 147
138 158
88 159
279 41
183 175
246 211
268 84
36 160
186 22
34 182
57 153
97 136
167 274
38 277
82 261
259 100
264 42
261 204
2 181
91 115
193 197
56 3
60 59
283 54
126 293
143 13
60 22
179 5
151 77
184 208
129 59
154 151
61 235
231 274
276 49
36 218
257 114
38 104
274 3
182 66
142 218
215 76
147 55
23 253
254 166
71 141
117 186
211 4
56 40
42 56
87 144
204 157
44 60
235 251
266 280
294 267
259 42
30 259
170 112
178 265
258 295
53 103
22 278
117 56
169 221
266 212
47 40
164 173
156 233
269 186
189 147
137 71
259 185
34 134
105 28
149 74
227 252
143 215
181 293
190 97
167 57
242 144
293 270
17 141
238 123
131 4
108 80
158 34
86 188
137 274
279 20
7 52
10 17
79 59
49 143
191 300
169 14
63 130
5 190
224 190
225 136
98 49
149 83
150 174
188 190
158 281
183 90
288 127
59 118
52 30
165 15
206 254
269 16
164 255
11 99
298 178
136 284
53 237
50 187
81 11
38 122
82 88
275 122
28 147
89 112
298 159
189 54
156 265
40 191
142 143
259 48
12 190
30 38
291 236
173 300
186 166
262 163
198 19
293 93
9 208
169 295
79 56
102 67
115 291
40 169
137 261
227 46
13 171
137 255
271 197
185 132
2 280
288 208
271 223
129 289
281 32
156 99
119 50
277 104
64 293
203 195
13 89
151 245
208 241
137 80
174 205
52 148
26 120
286 213
257 86
289 55
81 194
303 207
14 166
131 102
205 255
292 228
87 13
274 192
176 212
4 125
274 244
84 41
200 64
19 171
129 300
213 251
178 267
35 240
70 84
262 154
176 189
226 201
262 162
80 123
65 259
183 195
276 37
80 59
37 205
202 78
111 26
166 67
208 167
79 104
104 145
225 123
237 270
236 57
64 164
112 35
185 287
139 146
187 86
224 180
279 19
156 101
26 201
151 297
282 192
132 87
213 14
188 142
216 141
52 184
300 245
81 232
123 242
263 157
120 146
49 228
200 273
130 275
136 257
230 292
186 23
192 252
110 278
150 73
97 269
116 291
109 244
60 47
295 59
199 137
129 176
16 190
70 289
222 92
159 150
152 299
257 247
98 64
193 264
17 263
81 2
207 113
158 64
302 158
100 157
239 35
257 51
50 152
74 16
196 254
243 81
167 253
66 70
23 59
299 160
156 243
162 127
2 267
157 115
96 144
88 15
20 76
32 229
101 180
157 64
68 133
42 136
1 15
174 242
28 292
181 248
63 241
120 6
272 270
257 206
277 282
63 43
102 48
129 88
74 162
97 160
107 190
89 88
65 268
228 254
207 189
93 55
85 268
148 32
213 214
198 182
109 125
9 74
261 7
40 263
285 229
104 217
293 159
226 265
177 108
168 52
282 53
31 196
28 297
14 257
64 222
295 7
87 62
95 171
253 142
216 275
195 119
276 92
120 225
265 233
289 67
226 275
243 53
184 277
239 96
97 22
235 10
252 53
177 206
190 41
212 189
230 37
23 68
143 244
166 2
206 97
95 50
243 63
197 21
127 246
168 94
54 288
159 66
246 105
29 98
144 8
94 183
77 156
142 270
57 182
217 251
202 16
254 177
60 129
94 228
143 170
120 219
198 77
216 276
37 282
131 177
226 71
25 265
219 48
13 137
285 70
225 212
274 21
22 136
61 71
76 157
206 143
143 95
289 133
120 13
29 42
143 189
220 26
94 190
78 264
153 49
12 16
298 86
80 5
253 235
276 115
170 302
186 188
251 59
102 270
31 73
238 59
235 6
75 145
174 20
166 11
51 247
155 24
35 274
299 250
276 76
4 42
59 133
48 124
282 87
48 69
155 85
237 13
129 15
114 275
115 286
10 196
239 238
245 8
28 117
141 272
216 84
223 6
15 197
16 290
79 54
40 105
220 57
227 152
240 73
88 150
150 146
224 106
25 91
116 17
150 295
23 120
89 10
25 248
197 169
133 183
61 288
42 12
274 157
92 23
56 187
3 220
295 271
76 72
202 79
201 277
280 165
256 1
282 65
53 94
284 228
63 193
237 91
6 162
142 193
101 144
83 269
73 274
22 120
274 13
31 193
8 23
300 218
283 217
60 11
270 50
216 70
243 21
26 280
147 54
205 201
276 165
60 125
148 281
23 154
160 22
14 47
228 202
233 143
5 258
183 167
189 112
143 72
186 224
139 231
6 88
270 159
143 108
285 59
44 295
229 224
33 131
280 105
15 47
33 213
10 202
59 223
57 288
272 5
273 35
147 117
210 36
217 222
21 180
257 101
192 10
296 177
193 109
62 231
56 61
202 183
113 42
176 26
278 183
298 240
189 27
57 159
154 174
29 228
262 108
171 75
170 41
80 103
184 49
161 215
269 292
192 233
77 109
84 106
257 261
250 27
224 55
195 86
147 140
254 247
140 250
128 4
262 224
290 129
140 103
180 293
195 143
8 24
297 245
139 94
51 213
282 31
146 2
137 234
262 229
101 261
148 106
34 29
79 10
254 13
139 91
254 117
245 254
88 121
213 219
141 188
103 194
206 73
61 123
257 239
71 154
6 258
247 222
187 90
221 191
28 112
287 263
228 44
221 88
147 94
57 158
202 114
230 214
76 161
206 293
115 80
42 198
90 17
185 48
239 71
280 90
203 125
118 34
95 181
248 295
140 251
181 105
160 3
92 155
77 231
295 303
79 148
229 5
220 167
54 92
254 153
257 94
246 144
257 52
212 86
22 255
102 227
94 116
288 86
218 72
80 272
301 100
294 139
265 181
122 19
234 114
173 182
253 106
211 20
217 52
109 268
92 205
245 60
239 201
88 93
204 120
208 259
144 234
149 109
128 109
4 12
23 230
130 286
66 290
260 267
266 18
133 250
8 241
164 259
131 160
171 34
212 229
62 38
229 214
226 114
80 199
227 221
278 206
198 74
54 118
13 185
95 166
213 230
276 52
185 42
9 7
65 258
63 206
296 164
225 240
74 64
185 200
201 268
229 36
185 166
151 136
59 86
129 152
202 43
251 68
291 263
102 210
183 64
74 15
70 65
89 170
124 57
43 146
69 124
149 196
234 6
296 145
259 20
241 60
162 244
142 272
176 133
218 74
149 77
86 116
58 242
196 287
29 139
228 55
85 251
139 70
246 234
93 57
209 264
130 13
120 15
88 112
126 132
166 92
186 113
87 181
273 176
41 94
129 189
282 224
79 117
170 20
7 148
25 125
140 1
5 243
42 296
244 188
105 213
208 33
16 233
32 126
299 36
75 290
298 224
55 65
156 255
28 281
102 185
201 84
145 60
51 80
303 158
120 38
109 302
50 300
26 129
164 146
88 51
203 145
37 104
120 80
243 45
20 188
84 125
7 267
92 184
83 91
234 226
281 57
1 148
44 303
38 268
186 67
185 208
148 109
131 88
273 129
47 162
131 184
290 244
169 59
28 35
78 209
250 108
156 274
65 61
124 252
28 184
118 79
225 39
9 11
41 224
5 204
85 277
183 260
69 93
293 245
89 16
109 177
251 80
230 197
154 191
70 262
57 77
184 279
114 184
273 274
220 97
148 51
268 241
172 275
71 187
10 43
71 236
19 241
297 52
43 114
205 120
228 289
79 26
233 149
282 196
1 236
202 272
29 237
229 281
215 26
236 155
28 240
79 206
35 238
284 258
137 37
286 237
11 261
239 94
78 232
261 246
153 21
127 285
202 117
255 227
12 268
248 14
212 163
86 299
100 192
166 5
154 111
152 69
48 2
219 143
228 176
208 204
77 148
297 217
47 298
184 253
55 188
189 186
45 228
282 103
166 248
166 106
76 137
8 293
100 79
153 101
16 88
101 192
139 275
201 133
74 36
76 233
269 56
120 223
102 70
21 43
41 19
89 5
161 43
86 198
258 3
46 192
135 86
9 21
14 234
95 7
117 218
112 215
271 294
6 83
79 299
215 28
137 32
66 224
193 99
238 135
262 54
81 148
264 102
248 175
118 280
75 287
168 239
57 123
70 136
140 294
216 243
289 288
24 276
49 214
254 232
295 188
117 26
231 170
117 220
140 266
114 170
219 218
191 45
70 144
32 109
97 41
201 215
87 152
287 259
218 213
67 59
79 175
44 25
97 50
269 175
255 99
4 184
98 107
253 6
159 137
50 243
213 177
180 241
267 234
275 239
280 243
233 22
230 250
28 201
122 81
118 281
102 300
35 147
211 130
251 286
81 114
45 60
175 282
138 286
58 55
174 163
61 175
275 300
33 228
218 79
299 189
114 49
251 292
63 146
205 19
208 300
82 46
49 217
133 113
94 258
167 227
185 275
213 50
16 282
243 199
56 48
97 164
251 187
215 20
199 228
112 147
183 78
254 130
44 131
228 227
47 177
15 185
51 142
209 76
175 303
296 56
81 276
10 100
169 150
148 254
15 259
74 138
42 157
144 206
16 222
192 8
255 225
9 96
142 173
206 127
176 149
298 282
107 73
37 203
211 254
238 192
69 87
32 57
85 112
26 227
102 173
278 239
221 73
258 204
197 66
272 76
82 157
256 204
81 63
236 213
175 46
81 254
98 56
235 303
160 258
123 235
166 153
247 235
192 123
185 271
268 70
156 105
225 35
112 3
209 32
85 182
80 141
271 192
225 70
184 68
234 239
123 72
65 287
85 70
33 159
215 192
90 129
183 68
232 237
82 149
292 49
11 105
120 293
179 269
111 260
264 1
112 302
267 11
53 50
10 180
216 153
75 294
276 69
88 248
86 229
122 1
70 159
109 31
252 263
195 71
208 42
50 125
211 132
229 198
59 303
50 116
94 180
219 39
155 159
184 260
78 140
53 89
183 46
241 246
271 215
58 284
201 257
76 192
152 230
63 50
120 263
153 129
287 51
60 67
78 288
297 114
79 108
170 275
107 262
156 9
176 186
73 213
258 220
228 169
83 144
274 108
248 231
36 234
128 286
118 175
89 114
224 65
110 174
280 15
49 52
25 71
138 177
30 104
57 275
84 291
1 198
7 208
71 257
113 136
136 88
111 243
131 269
271 116
17 192
279 276
182 54
55 122
93 131
73 116
205 277
181 52
52 155
42 86
137 24
178 104
235 34
246 267
94 28
130 193
182 28
221 70
228 98
139 269
182 297
55 53
30 214
109 22
173 158
102 250
39 212
19 3
115 1
150 237
243 43
120 40
80 140
117 105
42 237
129 45
239 180
162 266
267 261
188 127
137 70
64 296
208 34
84 243
293 130
225 298
124 279
147 76
248 169
183 79
126 130
50 43
290 103
63 47
202 275
270 14
80 303
90 45
136 179
128 264
209 86
268 43
155 148
63 114
37 71
59 47
239 133
151 191
277 19
105 267
49 30
25 295
183 147
232 29
93 248
240 102
31 116
102 162
38 184
87 127
122 145
207 109
69 118
244 199
169 42
123 70
256 22
155 71
300 239
168 96
104 273
73 237
188 131
251 65
265 147
111 45
72 55
117 59
293 224
288 124
63 12
62 13
155 181
114 143
274 79
98 82
87 47
144 156
109 230
235 40
255 144
19 214
94 22
99 246
29 94
88 225
201 207
155 98
52 104
143 251
188 93
123 89
179 163
209 9
6 61
133 186
102 141
5 156
241 261
278 301
89 235
137 83
150 42
90 23
203 137
5 170
159 272
235 172
21 195
65 187
241 90
96 209
221 245
200 101
236 93
67 278
158 236
9 255
288 227
240 20
46 113
166 117
192 28
76 143
98 78
144 73
81 35
214 135
119 33
29 183
40 293
218 86
121 43
60 97
272 207
63 268
280 5
276 232
209 212
208 105
74 142
234 222
303 171
36 274
176 290
227 103
54 12
34 210
74 270
128 213
65 190
190 284
116 53
80 89
137 225
268 106
241 71
276 77
99 105
98 214
169 110
28 158
220 219
34 151
199 144
74 147
101 224
194 129
103 81
23 75
56 251
222 47
77 168
267 99
36 244
208 52
178 295
160 56
224 154
110 153
246 114
75 205
240 70
4 115
94 252
47 218
138 148
199 53
105 87
11 241
24 241
239 84
253 138
121 290
31 221
143 62
273 238
2 105
146 81
66 145
170 14
140 264
104 49
107 90
171 102
109 142
43 88
134 151
251 87
226 248
211 99
37 77
8 51
245 123
52 259
113 50
150 139
137 90
44 189
86 219
183 80
7 262
224 213
190 230
131 55
14 145
153 181
200 74
149 189
248 81
164 232
115 128
58 229
248 136
298 243
203 60
254 186
303 221
194 189
98 37
123 223
16 159
64 232
80 107
254 216
189 245
160 83
17 82
300 41
255 96
189 96
145 85
291 149
208 165
22 157
7 155
143 50
214 45
69 59
158 78
116 237
129 84
197 265
174 262
209 89
191 190
116 164
136 255
57 181
224 296
140 87
167 40
169 299
276 255
89 282
63 213
285 97
245 209
15 208
84 275
247 125
9 90
184 8
80 250
259 171
248 159
162 290
156 153
105 166
278 285
40 148
301 220
142 80
65 108
122 277
222 158
169 253
89 103
170 56
124 184
136 164
39 146
197 7
100 20
189 163
53 45
256 261
21 271
40 296
34 229
269 136
9 99
150 248
243 178
89 264
230 185
202 263
259 246
44 33
98 46
247 299
157 245
225 235
170 251
62 295
231 75
102 253
185 36
206 82
263 64
243 146
159 197
204 25
193 265
257 234
152 67
62 298
243 9
64 34
140 212
65 117
10 147
294 6
163 256
217 122
70 97
112 116
288 66
81 155
213 240
269 218
156 98
259 261
214 137
248 70
253 258
175 131
273 82
33 108
109 37
76 55
201 186
87 130
220 134
278 46
284 16
259 13
120 24
74 25
182 180
27 101
42 40
278 175
1 103
70 228
272 302
118 109
212 218
41 226
69 230
301 94
114 182
180 235
99 96
272 213
207 213
261 262
22 164
88 148
104 122
35 215
116 300
40 15
124 52
245 27
186 202
142 97
122 155
298 87
30 37
199 83
3 117
225 131
153 276
188 272
74 7
129 163
222 29
38 101
277 112
252 95
285 75
19 159
63 2
166 6
9 98
289 36
40 118
237 103
103 36
174 188
190 154
298 237
2 50
302 6
125 184
37 222
154 58
209 118
35 11
4 247
65 64
21 202
96 156
194 60
21 293
50 135
272 102
27 22
286 12
72 50
159 225
42 253
221 271
263 213
172 33
140 298
133 189
165 292
105 153
210 54
272 53
95 300
152 277
42 191
299 201
57 198
19 268
269 282
75 139
57 229
101 123
182 229
251 134
262 179
90 110
251 61
160 204
94 255
198 148
67 129
5 201
282 23
274 2
82 218
1 124
238 213
20 272
40 124
202 40
299 183
184 203
100 215
140 102
222 121
299 289
256 177
160 244
8 85
272 109
108 164
129 238
42 245
256 246
196 184
148 115
171 93
192 20
34 86
290 89
250 189
183 176
221 84
225 93
169 22
188 182
191 31
226 84
42 46
164 252
220 235
212 13
169 220
147 20
95 273
96 21
16 18
45 194
303 42
247 59
249 234
208 148
174 171
177 63
160 149
110 285
4 50
102 221
182 288
187 55
1 144
75 244
27 161
282 1
212 127
241 45
228 295
60 218
141 242
286 126
292 217
72 263
23 295
222 15
34 184
259 108
239 102
264 282
221 67
204 15
273 145
13 64
278 94
296 122
78 79
71 76
239 250
292 203
239 46
78 11
296 227
10 28
64 29
177 125
200 240
253 26
275 145
104 98
45 280
47 263
60 42
293 22
116 10
139 226
272 143
228 290
206 80
178 28
221 300
99 221
47 213
300 84
79 124
174 266
56 131
31 89
213 4
269 204
123 285
95 263
81 105
6 26
216 249
112 10
244 236
126 270
34 187
170 240
122 3
32 223
219 252
107 173
116 95
214 122
23 205
151 2
282 212
20 46
28 252
29 158
5 108
207 302
217 79
269 231
171 169
85 69
254 224
83 25
22 67
165 43
274 185
92 2
182 235
221 91
258 228
105 151
17 157
141 123
117 282
216 284
142 284
50 169
255 93
131 84
56 64
200 102
3 215
102 84
252 116
285 169
74 302
146 298
150 190
123 39
99 209
174 70
141 39
16 7
10 106
121 159
21 216
241 129
174 221
253 139
63 257
55 280
301 257
25 280
276 104
300 201
114 5
23 43
120 70
247 213
31 103
40 159
263 208
40 81
107 142
228 285
23 55
6 225
17 206
1 77
108 76
128 236
80 6
87 237
230 24
173 174
86 25
167 235
68 75
102 228
254 213
185 120
63 291
144 231
223 25
187 107
47 197
17 148
71 86
75 70
260 68
23 283
87 63
291 213
251 55
28 26
244 218
111 2
175 204
192 237
84 109
34 272
80 132
289 173
219 268
5 163
135 292
152 33
37 214
159 20
241 234
226 144
59 44
69 57
175 59
153 141
94 117
86 182
13 56
124 173
163 224
241 27
36 83
99 282
103 146
71 248
91 74
123 102
127 97
196 128
103 209
300 120
212 194
271 216
177 14
199 201
116 187
98 163
74 245
94 42
29 93
301 14
285 54
23 24
17 99
150 164
30 45
171 205
149 261
223 229
301 22
293 9
185 231
257 82
57 40
50 188
134 135
109 277
262 247
54 198
144 257
34 195
71 134
162 218
255 26
159 124
233 215
182 124
231 121
49 124
164 17
184 66
114 249
128 244
70 101
260 9
150 284
182 190
38 13
194 241
189 34
173 266
91 270
113 157
137 126
10 149
245 218
215 228
183 289
257 231
4 273
68 98
126 136
169 6
42 183
180 243
201 113
188 189
227 117
65 13
155 230
8 122
252 291
262 286
32 132
202 147
246 226
208 108
246 162
79 300
76 37
58 262
182 289
34 71
93 1
286 247
207 250
303 67
54 229
300 171
103 161
43 2
216 156
199 111
27 207
30 217
58 53
213 132
266 164
252 22
149 115
258 169
161 3
214 155
161 238
75 123
143 93
47 72
144 99
101 122
264 87
138 207
67 228
118 218
59 283
156 21
138 115
209 229
168 292
205 154
95 169
274 154
228 111
45 216
303 296
81 43
86 149
68 30
212 146
201 152
12 237
140 239
65 208
52 159
227 84
88 116
86 31
263 293
144 170
217 54
206 132
166 7
175 93
166 271
30 43
189 103
74 266
256 234
47 201
234 204
254 246
94 97
196 75
299 188
295 284
106 138
290 218
77 8
6 42
226 294
115 122
294 102
233 49
186 283
70 164
93 263
120 143
142 15
249 226
268 302
286 270
245 61
206 68
152 60
166 243
160 250
103 99
60 90
193 257
136 26
250 5
34 116
229 106
142 190
271 207
301 160
204 3
61 248
13 131
71 234
239 269
234 27
139 83
48 108
95 282
144 249
181 114
58 190
46 166
184 292
217 277
284 91
278 104
129 244
64 17
190 201
58 142
128 254
237 303
206 148
262 197
102 120
168 156
199 237
117 201
73 146
7 105
249 141
264 235
273 149
92 198
159 219
216 280
138 235
99 145
120 127
99 175
221 100
120 287
178 30
274 233
149 136
202 26
226 133
35 269
278 127
7 276
111 267
161 10
295 204
84 228
198 276
49 38
69 94
56 175
219 51
213 257
139 84
261 114
303 187
179 186
110 17
93 43
115 222
269 6
214 76
80 281
5 174
247 219
208 48
21 223
214 292
53 143
110 59
117 139
87 294
142 244
287 8
116 135
201 219
303 40
122 276
97 278
220 44
211 139
293 44
143 43
247 138
129 11
94 156
147 148
102 159
84 193
94 164
288 158
53 164
237 287
260 243
124 85
194 11
77 176
101 234
19 66
135 187
34 288
206 23
157 186
230 87
81 181
47 206
143 188
105 216
237 98
51 218
192 209
77 275
89 116
228 95
232 98
7 181
287 13
17 151
270 152
139 171
140 159
137 250
102 266
118 86
208 11
179 113
197 165
275 201
50 57
266 170
244 47
71 80
189 26
26 300
92 19
178 37
79 61
48 87
185 244
27 133
237 56
113 199
265 260
243 254
136 16
191 89
86 191
58 76
258 138
83 234
202 18
284 97
144 82
218 258
237 146
33 174
249 254
97 95
206 14
122 23
1 155
88 137
29 75
200 122
262 180
292 7
71 244
103 15
56 303
187 72
53 188
254 4
130 290
84 121
43 12
246 11
177 170
82 263
274 208
86 57
150 204
79 142
34 10
47 133
72 101
254 141
295 175
19 38
23 250
148 213
74 72
54 124
158 93
155 69
184 145
8 38
214 87
59 263
175 281
60 157
73 303
55 119
59 289
266 2
286 32
259 159
228 273
124 19
60 98
299 182
55 236
43 170
275 243
147 19
221 110
219 10
155 37
160 236
131 52
118 182
280 111
281 79
124 217
281 132
127 22
293 59
122 49
86 213
94 84
43 84
115 158
2 154
212 118
119 187
40 264
300 169
210 229
92 104
191 169
210 158
17 22
137 276
120 164
268 132
76 117
210 302
21 165
290 74
239 226
31 227
209 295
228 35
86 151
137 187
87 212
269 160
190 73
123 139
100 98
49 8
49 144
110 46
137 154
195 116
121 16
43 231
110 227
45 199
271 147
42 93
93 94
288 155
191 13
32 147
215 240
262 190
177 302
137 144
209 124
246 180
114 242
95 35
192 73
221 173
75 102
176 163
265 295
78 21
160 199
265 293
253 65
202 59
117 78
293 73
276 292
254 267
87 1
223 253
296 117
164 139
171 123
185 168
124 77
225 223
276 233
173 224
165 166
47 290
155 137
199 97
128 51
117 301
179 79
7 260
288 147
267 166
129 201
148 252
118 198
284 45
109 63
60 186
198 232
59 135
72 269
70 110
189 195
272 189
25 169
136 159
253 211
132 148
143 38
261 14
185 241
25 220
265 194
26 59
48 79
73 226
133 30
156 209
62 136
161 219
240 147
4 245
62 121
87 42
85 65
189 80
192 149
86 190
263 164
57 46
204 169
105 148
299 179
238 132
173 288
100 271
237 209
138 213
290 193
265 7
290 289
214 71
184 293
94 284
195 187
202 176
27 257
34 154
91 150
136 46
300 142
76 237
73 262
277 224
207 133
240 162
16 129
239 58
24 192
257 104
105 261
246 94
266 16
67 1
119 228
226 260
288 252
19 109
37 207
89 245
30 122
299 195
171 110
293 121
33 113
217 19
265 19
202 53
58 147
61 66
213 115
204 248
298 212
116 303
148 229
272 251
31 13
91 148
246 249
257 241
208 12
66 52
220 22
158 65
90 11
160 220
85 229
50 102
254 178
155 76
124 32
227 70
76 27
248 225
223 197
215 108
211 193
284 42
249 257
100 76
116 169
141 253
94 136
199 236
7 2
59 228
