*Vertices 368
320 "#164"
218 "#79"
230 "#222"
315 "#177"
35 "#175"
358 "#315"
32 "#107"
149 "#14"
84 "#118"
344 "#134"
279 "#144"
169 "#330"
323 "#320"
93 "#56"
146 "#174"
40 "#46"
332 "#212"
306 "#76"
238 "#308"
308 "#247"
309 "#357"
347 "#105"
67 "#157"
13 "#243"
286 "#221"
85 "#19"
176 "#253"
150 "#48"
269 "#334"
220 "#173"
251 "#296"
95 "#109"
197 "#290"
241 "#20"
25 "#352"
194 "#224"
186 "#359"
171 "#60"
41 "#30"
365 "#129"
128 "#103"
7 "#332"
127 "#130"
12 "#73"
68 "#166"
199 "#284"
117 "#314"
361 "#21"
159 "#230"
213 "#213"
340 "#128"
72 "#178"
126 "#4"
351 "#360"
326 "#204"
297 "#282"
52 "#28"
254 "#274"
118 "#139"
248 "#240"
154 "#116"
160 "#94"
360 "#355"
158 "#218"
229 "#345"
99 "#179"
348 "#96"
281 "#232"
324 "#311"
60 "#276"
189 "#289"
137 "#160"
335 "#136"
152 "#326"
250 "#294"
368 "#167"
244 "#256"
34 "#245"
231 "#71"
65 "#226"
166 "#113"
185 "#35"
179 "#217"
300 "#255"
187 "#252"
57 "#238"
9 "#233"
104 "#43"
330 "#206"
44 "#137"
39 "#165"
208 "#254"
295 "#197"
298 "#26"
214 "#275"
265 "#346"
276 "#195"
284 "#126"
177 "#68"
329 "#32"
352 "#298"
155 "#121"
86 "#186"
302 "#301"
328 "#106"
96 "#257"
78 "#277"
260 "#11"
296 "#273"
63 "#153"
204 "#322"
245 "#251"
88 "#57"
153 "#87"
92 "#313"
307 "#158"
341 "#159"
105 "#241"
236 "#67"
252 "#312"
43 "#342"
62 "#259"
46 "#64"
305 "#65"
143 "#336"
224 "#365"
142 "#52"
33 "#85"
234 "#74"
277 "#280"
164 "#90"
53 "#262"
211 "#306"
73 "#69"
200 "#193"
216 "#37"
331 "#246"
161 "#271"
59 "#364"
140 "#115"
243 "#169"
312 "#202"
167 "#34"
48 "#182"
303 "#353"
337 "#123"
301 "#45"
125 "#225"
90 "#16"
304 "#219"
168 "#265"
98 "#59"
188 "#2"
366 "#24"
261 "#102"
134 "#227"
56 "#13"
148 "#287"
11 "#319"
215 "#104"
116 "#363"
184 "#288"
219 "#220"
240 "#189"
174 "#176"
318 "#333"
287 "#318"
280 "#281"
97 "#47"
225 "#99"
163 "#210"
354 "#23"
119 "#335"
103 "#72"
4 "#261"
319 "#135"
80 "#269"
55 "#184"
70 "#263"
124 "#95"
23 "#40"
342 "#50"
327 "#44"
54 "#54"
175 "#191"
27 "#236"
81 "#302"
322 "#205"
270 "#93"
122 "#328"
346 "#168"
180 "#347"
38 "#51"
232 "#77"
83 "#356"
64 "#270"
183 "#70"
111 "#231"
263 "#188"
2 "#6"
253 "#145"
353 "#111"
26 "#216"
69 "#351"
205 "#358"
1 "#58"
338 "#196"
334 "#348"
290 "#80"
223 "#344"
5 "#154"
212 "#29"
51 "#339"
30 "#211"
145 "#350"
255 "#108"
311 "#367"
222 "#172"
227 "#340"
256 "#147"
210 "#62"
317 "#122"
91 "#199"
288 "#192"
100 "#36"
20 "#63"
274 "#223"
193 "#117"
217 "#295"
31 "#86"
19 "#133"
333 "#53"
21 "#18"
262 "#316"
130 "#31"
101 "#279"
294 "#190"
275 "#124"
273 "#100"
282 "#207"
207 "#10"
289 "#142"
206 "#61"
181 "#267"
343 "#180"
313 "#293"
267 "#150"
228 "#325"
355 "#9"
283 "#329"
108 "#272"
22 "#305"
285 "#304"
362 "#82"
135 "#300"
139 "#97"
133 "#17"
182 "#349"
24 "#244"
76 "#292"
3 "#55"
42 "#131"
50 "#27"
112 "#341"
196 "#78"
364 "#81"
190 "#5"
165 "#148"
147 "#138"
120 "#214"
123 "#248"
162 "#317"
202 "#110"
75 "#338"
77 "#362"
201 "#66"
272 "#39"
74 "#331"
110 "#163"
310 "#291"
209 "#149"
172 "#42"
58 "#235"
47 "#91"
349 "#127"
87 "#183"
336 "#162"
235 "#234"
49 "#185"
357 "#141"
131 "#155"
144 "#266"
246 "#132"
192 "#354"
339 "#125"
259 "#170"
121 "#286"
138 "#181"
37 "#337"
321 "#309"
350 "#203"
157 "#38"
345 "#156"
10 "#140"
264 "#152"
115 "#194"
325 "#120"
299 "#25"
191 "#49"
106 "#0"
102 "#146"
198 "#187"
233 "#242"
292 "#161"
242 "#323"
239 "#143"
258 "#209"
367 "#208"
316 "#343"
203 "#33"
18 "#101"
226 "#119"
237 "#324"
257 "#84"
278 "#198"
178 "#215"
359 "#88"
271 "#307"
314 "#278"
109 "#8"
356 "#75"
8 "#310"
132 "#285"
136 "#366"
151 "#15"
291 "#268"
268 "#283"
79 "#171"
195 "#361"
107 "#260"
61 "#201"
15 "#229"
173 "#258"
29 "#249"
16 "#228"
14 "#200"
71 "#237"
156 "#321"
66 "#327"
129 "#83"
36 "#151"
6 "#98"
141 "#7"
89 "#92"
82 "#303"
247 "#112"
17 "#22"
113 "#299"
170 "#239"
45 "#250"
293 "#89"
249 "#41"
94 "#297"
114 "#264"
221 "#3"
28 "#1"
363 "#12"
266 "#114"
*Edges
276 98
252 272
48 159
363 263
314 185
73 235
310 280
226 284
305 132
186 335
76 90
368 54
39 121
40 238
133 284
133 366
131 345
358 169
149 150
125 333
345 67
330 179
86 152
352 15
3 267
120 14
71 250
168 148
196 245
127 34
5 66
365 204
300 17
122 125
8 108
72 166
295 338
268 280
59 227
136 112
106 191
256 72
57 252
279 72
97 95
351 316
300 53
103 306
241 256
168 150
119 34
188 172
170 228
122 287
343 344
84 114
210 341
303 83
266 202
367 286
291 173
358 323
322 23
114 245
41 71
25 35
300 169
352 302
109 337
101 57
304 155
141 12
111 312
289 219
171 126
51 242
286 365
326 75
114 144
248 35
192 179
10 47
240 91
179 117
298 218
2 159
144 254
52 90
8 126
304 367
340 145
205 43
40 92
187 181
28 202
126 61
218 185
354 172
127 200
78 72
340 127
212 231
64 44
141 293
339 146
349 217
326 278
205 316
242 321
131 154
119 197
171 23
26 368
27 127
135 117
348 226
51 193
328 159
34 47
95 29
199 217
179 136
153 47
31 40
220 294
356 183
274 194
112 179
318 317
13 161
54 327
262 92
129 364
28 80
150 325
110 336
14 7
155 278
132 113
300 119
20 104
320 291
233 331
87 176
69 277
354 182
86 229
327 301
253 140
154 304
155 340
147 191
133 213
172 253
290 283
102 357
300 176
44 262
278 197
139 112
191 181
291 333
343 88
242 262
9 204
118 128
187 264
232 148
97 193
57 34
160 340
315 138
196 41
27 29
175 127
181 161
102 153
198 207
349 179
77 122
68 101
124 26
70 218
21 259
272 172
114 86
298 19
91 195
322 198
252 324
359 144
334 149
174 260
33 20
232 101
93 343
75 334
32 340
338 350
285 237
115 49
83 316
89 99
33 353
365 319
201 245
323 5
152 92
44 354
1 361
281 286
130 50
128 205
57 226
161 291
101 347
228 327
54 177
115 306
123 111
317 339
150 50
64 176
56 207
114 131
86 259
54 306
232 349
347 306
358 22
357 10
363 149
216 329
299 257
154 21
297 310
23 256
198 276
298 39
362 170
206 174
337 47
54 346
141 111
73 127
5 319
336 164
154 175
93 52
119 143
269 41
54 361
54 167
151 216
350 203
309 75
283 321
359 329
22 178
199 143
262 119
277 316
300 291
257 133
343 89
119 169
286 313
30 367
365 118
33 203
40 230
108 45
252 101
46 73
108 190
204 340
255 273
293 152
221 219
293 262
301 83
239 267
191 155
304 306
203 172
144 129
184 76
273 206
18 239
200 204
300 323
174 48
159 248
188 175
191 41
101 352
94 199
174 89
50 299
203 288
227 166
193 356
69 275
80 64
115 312
154 325
136 309
291 6
228 163
70 294
330 321
89 339
362 20
145 182
136 43
233 195
220 33
105 18
198 175
344 79
224 136
198 297
2 334
177 259
344 147
272 217
190 21
26 158
36 253
78 250
104 216
360 195
76 314
71 314
193 155
186 51
356 221
297 87
87 239
256 159
308 9
127 184
176 151
326 141
118 231
78 330
341 67
215 353
139 20
341 276
127 199
132 313
89 175
207 281
7 49
64 236
42 355
33 106
14 278
16 30
5 9
345 82
209 255
14 27
343 220
317 133
175 200
248 90
58 356
232 273
304 302
201 5
340 252
9 141
280 81
4 330
5 47
193 104
154 56
362 328
124 261
256 69
48 6
1 52
68 345
67 336
196 48
277 45
342 141
215 202
215 137
316 224
251 94
163 218
132 184
5 92
244 101
200 156
301 262
196 218
311 75
5 307
189 199
26 275
156 127
253 263
182 303
208 77
43 150
142 306
190 245
34 154
232 336
117 285
201 234
191 201
356 124
223 205
208 196
209 201
164 232
86 62
181 272
147 93
310 81
109 271
37 83
169 8
205 14
266 32
266 276
92 124
314 163
185 257
73 111
255 27
107 213
42 208
84 282
327 191
21 339
247 117
21 115
170 248
293 309
342 20
184 363
257 284
175 23
309 14
81 76
133 305
307 131
153 293
138 301
322 94
37 51
247 271
354 175
180 167
40 210
176 9
243 5
229 208
164 134
168 124
251 208
89 232
89 88
363 273
272 251
303 351
128 321
341 253
212 190
155 216
254 70
136 265
323 110
135 297
215 92
301 325
176 184
196 64
189 5
133 141
328 70
139 351
321 353
68 170
345 328
241 216
355 19
99 149
86 184
2 93
13 176
39 187
100 56
136 325
313 251
346 308
281 111
181 279
169 65
28 141
191 4
218 148
166 247
129 71
215 266
290 207
91 331
56 129
301 289
283 137
185 126
323 108
18 109
80 245
121 101
73 210
262 283
324 330
159 87
165 219
20 250
41 343
129 254
168 13
74 318
210 150
299 88
306 212
218 88
34 170
95 362
277 2
200 26
203 196
232 175
239 79
358 287
284 289
9 103
283 237
64 338
130 25
250 49
210 28
102 264
301 2
292 51
160 47
139 160
74 111
128 298
58 41
54 1
270 331
267 225
278 79
2 72
3 216
262 279
188 350
104 84
256 165
33 164
213 163
114 108
327 320
124 310
174 159
89 101
232 72
344 41
303 360
185 365
98 149
53 245
118 42
170 266
149 329
68 43
218 151
21 42
71 345
13 235
271 167
153 52
141 239
301 26
277 180
2 199
256 220
288 294
253 247
133 239
282 135
277 340
359 270
18 289
182 224
318 324
200 13
33 364
324 238
203 108
256 357
187 144
173 168
12 306
87 131
267 126
23 281
250 229
65 162
21 336
246 340
315 183
205 368
201 327
63 209
55 144
226 326
95 27
174 310
30 213
121 92
120 367
203 104
228 362
99 247
184 49
132 217
67 277
234 13
349 335
356 152
251 198
316 119
241 50
101 280
68 227
97 98
139 356
39 197
57 202
290 364
239 36
210 329
208 107
130 366
300 314
87 99
296 144
21 240
366 220
150 152
255 123
247 346
332 26
24 309
346 216
303 325
368 320
248 9
254 291
41 345
241 142
262 36
347 158
208 213
150 109
310 4
118 95
124 161
179 234
286 157
20 151
316 215
142 52
233 274
283 130
310 261
258 219
3 104
15 111
209 58
213 66
19 354
18 20
361 274
351 77
19 131
38 130
153 326
161 256
67 328
59 51
300 316
100 355
361 56
3 239
337 325
362 196
47 142
208 339
275 38
35 76
297 81
304 318
342 356
140 56
5 291
85 255
201 238
96 329
312 338
185 21
133 295
276 219
162 254
141 202
147 219
289 355
270 333
118 164
54 191
27 13
131 292
304 194
262 150
106 363
286 163
197 300
169 252
338 278
148 313
114 9
163 151
149 46
165 17
52 221
163 26
270 69
273 300
362 6
185 88
67 5
70 29
163 268
309 205
331 130
218 213
267 27
179 299
88 291
97 191
125 121
9 363
46 180
223 262
255 316
224 340
287 367
77 152
327 259
71 185
181 273
192 145
341 5
76 312
133 359
256 125
120 247
366 38
339 145
326 200
67 127
249 23
145 205
168 187
354 177
85 212
350 326
7 113
278 314
121 27
11 273
104 361
141 110
303 334
137 56
304 179
92 179
333 127
147 50
143 325
236 10
178 105
272 333
36 267
367 213
251 62
10 218
323 47
156 201
316 37
327 157
105 159
266 37
235 170
166 98
88 107
82 122
123 34
163 125
277 145
160 270
230 304
43 227
137 330
361 194
365 66
168 107
291 9
360 316
92 138
34 209
216 157
127 287
26 13
121 34
166 276
255 89
148 94
17 176
265 125
162 275
223 69
283 252
62 146
74 152
40 153
221 67
362 261
332 286
164 95
350 275
242 283
21 20
64 315
34 308
358 82
249 154
289 80
172 185
86 87
181 62
345 86
42 19
316 285
366 270
78 156
145 88
128 361
350 332
367 60
35 260
267 219
202 361
123 102
171 134
270 199
306 158
88 333
312 137
262 211
337 198
125 148
129 326
25 73
224 303
337 333
275 201
169 122
180 340
197 319
161 179
161 188
293 88
353 255
167 340
273 198
13 275
87 285
278 363
101 268
126 21
291 294
295 259
205 69
258 266
293 1
221 194
288 91
216 149
328 34
201 229
143 51
190 137
367 247
281 124
90 38
126 279
89 349
180 250
158 160
71 159
83 215
362 357
176 338
218 113
254 124
73 75
206 79
345 217
131 336
50 335
158 274
124 348
62 294
213 242
115 266
367 235
39 84
76 86
227 145
42 77
255 337
271 162
54 56
319 55
219 283
77 360
124 48
128 131
143 186
121 135
123 134
164 63
66 101
261 241
127 209
39 51
7 162
27 201
181 296
305 366
249 218
39 346
183 174
299 276
300 313
135 352
92 304
307 46
354 216
337 195
201 66
64 173
280 277
358 187
155 140
341 286
10 164
304 166
309 182
296 264
13 274
39 345
44 53
134 58
351 259
333 257
174 81
15 308
368 42
324 11
143 149
52 305
82 146
251 175
332 314
8 156
83 360
342 105
67 137
34 27
232 352
130 321
176 253
239 215
368 179
213 26
338 240
239 253
199 20
184 78
250 297
299 191
48 71
207 215
50 207
302 250
124 128
293 318
328 35
132 268
241 333
142 363
85 220
128 160
355 10
124 362
11 211
73 21
208 144
250 197
238 48
81 361
88 364
204 169
150 96
291 59
314 148
333 69
134 16
30 27
163 275
122 163
335 200
49 319
252 204
167 156
238 293
169 339
225 85
176 277
200 294
138 146
131 79
190 246
323 321
23 103
341 292
105 331
158 120
87 247
209 158
33 46
46 135
88 311
211 321
177 91
153 133
86 343
122 204
177 243
56 5
168 266
18 250
10 283
296 72
240 93
322 133
353 89
188 9
213 258
132 258
197 81
26 219
211 324
99 110
20 17
362 254
261 348
202 194
7 201
335 95
93 130
282 230
293 26
129 206
271 169
311 110
138 191
173 99
308 365
256 107
218 91
150 199
127 160
127 246
203 345
231 190
88 206
254 135
251 330
217 42
334 355
108 245
362 149
69 116
13 233
328 256
41 185
68 243
258 286
175 335
320 5
105 316
295 263
16 170
322 264
194 151
190 215
28 97
17 284
265 316
14 262
259 99
133 49
48 64
128 164
110 48
146 186
229 285
108 244
166 83
172 21
287 187
257 33
291 51
138 222
26 7
365 55
103 176
240 47
226 345
229 51
148 205
187 45
91 79
169 10
138 343
108 53
266 249
164 341
171 249
282 295
86 213
305 217
19 325
37 238
200 266
309 265
181 330
368 221
161 151
346 307
301 157
62 161
156 245
152 5
22 182
156 180
74 109
180 316
270 203
130 216
325 147
164 2
74 92
233 2
252 229
175 61
22 262
5 199
203 40
168 291
136 291
60 101
222 149
42 206
328 255
360 164
317 287
297 268
80 96
294 155
52 164
28 352
299 269
240 238
348 361
254 251
9 316
208 62
225 36
172 177
298 73
143 237
86 24
195 112
344 214
167 304
181 131
181 144
313 258
170 158
26 42
73 51
97 299
159 27
221 295
255 63
342 249
160 185
60 132
167 246
163 332
117 65
240 353
46 36
166 33
202 95
103 258
240 257
368 247
238 11
54 164
295 254
187 44
64 303
262 82
54 236
47 293
97 50
123 27
191 260
271 116
117 92
58 276
97 46
324 321
302 310
48 132
233 71
253 215
96 45
266 83
172 41
299 218
338 273
216 305
302 76
309 275
152 311
244 173
102 36
241 111
155 224
135 350
361 13
77 227
245 280
180 200
165 265
357 258
30 359
104 42
85 206
336 10
61 231
160 106
249 35
237 117
164 20
203 221
200 30
257 359
294 359
270 153
53 203
327 81
164 316
248 27
122 252
123 9
236 102
145 316
358 252
256 39
114 63
99 138
135 251
120 268
174 34
60 246
66 271
120 101
203 272
299 207
228 209
129 114
22 283
79 142
180 77
27 197
179 300
93 23
290 129
53 362
21 353
184 280
154 339
106 74
78 76
46 265
325 84
229 59
36 160
10 200
18 160
232 178
136 25
165 10
196 368
32 328
123 57
267 29
191 275
24 153
342 218
337 129
119 95
309 229
322 175
330 101
3 219
13 9
21 104
278 288
203 361
24 179
87 56
27 112
97 157
60 280
106 98
41 73
13 124
38 128
63 72
279 161
65 268
68 341
83 76
293 160
272 232
297 280
297 208
51 342
152 287
77 271
104 259
116 316
354 234
239 102
95 325
54 200
193 216
237 135
300 161
264 236
240 5
325 5
161 208
275 322
202 328
184 81
25 75
184 251
23 229
4 296
200 96
16 308
12 201
169 311
266 362
347 99
225 302
317 335
354 157
124 304
25 112
150 244
28 241
147 349
320 190
114 55
31 265
187 296
294 61
229 73
97 2
356 275
72 181
349 108
302 119
88 130
146 87
104 95
365 342
156 67
180 269
201 38
364 57
258 13
316 169
199 121
275 229
232 251
264 239
62 9
217 313
218 364
327 229
183 119
92 111
2 35
133 185
335 259
141 126
95 266
126 19
368 92
50 62
350 161
288 175
154 341
79 47
360 169
151 328
228 367
327 2
245 50
304 340
106 170
18 306
18 139
37 192
13 2
28 196
226 308
114 159
55 153
252 130
367 157
17 253
318 101
188 236
161 144
214 302
181 231
272 187
299 37
158 134
28 320
157 85
302 342
34 319
325 91
60 148
346 167
191 366
148 184
46 366
20 124
200 181
163 297
107 342
99 48
60 282
350 158
213 158
138 353
366 85
213 209
200 350
151 153
196 137
342 93
53 355
142 18
213 125
267 172
44 196
62 53
143 145
240 200
347 212
201 20
319 160
356 34
188 5
102 10
305 19
16 365
356 12
121 70
258 194
110 174
170 11
122 7
343 72
162 189
202 269
39 320
68 14
361 236
139 78
243 299
44 245
201 301
36 188
144 62
343 259
150 221
143 195
212 366
44 48
367 332
145 180
227 84
138 87
26 304
342 151
133 316
246 117
232 94
202 226
190 312
160 314
322 177
336 98
6 348
365 128
165 114
201 79
2 9
233 324
141 65
151 31
309 295
322 91
23 130
256 109
363 132
164 233
41 126
361 163
46 207
23 16
153 239
14 154
97 344
192 199
212 23
252 362
162 129
34 13
333 342
203 341
83 128
147 345
260 188
41 366
177 1
343 87
169 283
149 106
362 358
240 115
170 13
359 25
45 188
259 316
98 201
223 250
329 40
153 304
179 65
214 163
78 314
260 327
7 17
187 124
196 320
309 119
356 38
261 218
34 305
316 326
211 69
308 153
275 140
61 322
227 76
261 139
206 6
265 75
4 259
243 241
202 104
219 174
201 59
140 63
62 185
206 109
6 139
223 265
348 300
258 265
213 274
87 129
2 183
130 17
301 20
98 40
349 199
16 249
181 96
250 205
338 259
106 150
71 235
190 127
267 18
260 61
40 260
256 60
259 41
188 40
335 147
168 310
151 102
229 69
345 350
202 219
96 198
21 102
155 93
4 135
248 2
187 64
208 291
128 223
172 31
72 183
197 265
207 364
275 257
332 153
74 238
134 276
283 330
55 342
146 9
151 180
285 247
134 251
185 366
190 41
179 141
143 59
164 253
314 265
360 136
6 4
256 10
341 110
173 315
132 214
285 152
344 191
342 292
139 225
342 178
26 262
273 124
38 42
326 239
197 302
285 160
74 305
227 53
139 85
257 73
325 255
342 201
165 257
286 180
245 62
277 47
368 237
307 365
191 188
295 74
311 193
270 95
168 45
327 1
322 326
25 186
353 202
33 14
302 87
136 109
219 194
34 60
147 319
361 2
272 72
341 304
190 50
95 249
356 234
364 333
66 120
361 188
288 263
252 309
207 147
53 161
99 146
311 133
242 331
219 213
297 302
67 54
310 251
264 219
22 300
283 324
326 61
237 290
355 353
97 327
321 238
216 150
346 136
6 115
67 110
142 151
79 248
241 12
34 238
229 155
232 18
157 190
145 203
181 208
252 92
335 367
103 212
271 337
272 201
96 244
165 328
273 18
318 238
278 341
167 341
7 238
178 299
151 362
264 253
364 155
49 72
93 118
58 34
241 3
177 213
265 274
235 155
210 190
279 272
357 148
189 286
124 31
224 229
248 15
101 217
232 364
314 316
126 294
206 208
217 229
309 287
236 103
238 51
104 344
14 79
180 224
192 135
183 177
108 300
13 357
233 34
27 68
74 242
119 37
76 352
332 213
128 336
40 106
368 332
361 221
287 254
213 40
90 172
36 193
266 247
261 6
235 270
155 219
197 169
140 337
305 85
16 105
259 67
11 362
41 357
228 284
149 119
289 17
71 68
94 48
329 15
127 319
293 92
368 346
168 96
98 247
264 181
339 270
26 283
86 167
98 346
321 355
41 290
351 203
302 113
20 217
9 105
303 119
338 288
73 155
11 120
50 171
27 15
219 329
319 36
66 129
363 40
310 73
30 274
294 68
75 229
317 87
170 270
81 313
237 211
300 84
286 156
60 297
130 241
271 317
216 201
55 229
286 26
309 22
256 348
364 13
195 186
8 346
15 302
197 268
242 308
228 74
346 269
232 218
39 262
166 99
27 71
67 368
185 49
20 203
206 366
194 289
64 279
219 167
56 200
7 127
316 229
326 225
202 255
138 55
13 367
149 124
52 158
215 255
180 265
319 349
256 105
273 247
67 343
276 322
247 74
84 216
127 119
55 332
66 238
140 114
324 204
233 256
305 18
204 156
42 244
114 17
37 269
276 27
315 365
33 99
354 208
337 20
102 241
291 69
105 215
169 195
167 144
191 50
367 131
320 201
140 84
264 279
319 342
194 264
138 331
10 253
49 208
241 141
145 359
366 17
179 3
83 355
174 57
333 325
140 325
138 64
177 231
119 77
278 200
268 66
84 21
357 330
73 18
20 38
175 110
149 1
290 211
172 39
226 34
148 121
164 339
334 119
235 319
351 112
76 85
286 268
53 131
125 314
326 59
218 290
99 222
131 239
102 29
185 97
348 195
114 187
299 177
229 360
121 256
219 179
211 288
333 357
23 264
20 359
306 160
348 125
208 112
104 196
41 27
13 51
66 337
60 184
37 75
323 169
261 61
72 174
41 21
306 356
305 333
350 288
90 241
326 263
336 121
106 131
158 42
72 79
31 153
361 346
350 65
86 366
205 211
28 221
328 356
161 168
60 89
81 251
231 23
181 49
315 174
183 276
309 277
43 326
128 355
198 201
279 173
35 291
91 261
279 238
68 166
258 330
283 208
290 206
323 125
19 317
98 142
63 23
125 194
83 302
183 364
216 106
244 81
32 175
95 337
312 193
75 350
142 340
70 362
89 293
85 217
71 14
196 312
279 296
161 107
326 56
113 310
149 130
242 342
141 266
306 342
293 113
243 345
277 324
294 6
248 222
73 342
283 331
300 74
191 55
354 185
232 257
329 88
63 190
147 332
73 186
48 138
302 163
111 134
232 99
319 9
191 200
201 28
85 199
127 368
258 136
95 361
298 124
160 261
163 310
363 316
192 335
190 288
251 214
264 289
30 264
155 104
47 340
165 218
234 326
40 293
101 251
152 8
324 152
132 163
176 129
367 264
26 113
250 109
279 1
209 123
221 189
185 299
113 185
152 112
169 345
221 32
223 165
151 356
319 367
336 341
315 232
173 220
362 156
6 233
36 199
216 126
49 322
167 155
7 327
360 348
335 140
92 44
174 191
83 41
269 327
33 291
274 367
332 65
162 223
112 223
205 86
337 2
43 14
221 116
363 98
179 215
93 126
157 133
268 201
158 236
95 42
261 128
129 79
124 160
307 243
142 188
228 295
340 44
196 255
230 89
24 51
108 63
128 334
66 47
298 34
242 130
154 47
116 200
342 221
89 304
9 110
88 14
365 19
323 146
10 289
205 116
215 360
164 57
168 365
54 45
148 310
185 190
232 166
289 341
127 325
223 41
196 207
182 37
6 18
226 219
335 365
219 34
226 337
8 42
31 213
330 86
126 320
329 171
304 204
27 194
202 46
200 286
183 231
284 271
178 30
156 163
262 117
3 18
350 274
38 299
205 265
197 184
270 106
268 347
70 365
79 86
209 148
16 34
90 142
58 159
176 114
132 27
62 339
109 262
35 34
287 283
23 142
292 196
145 72
231 103
291 235
163 330
153 51
231 297
33 216
293 133
361 286
266 171
355 38
66 204
199 78
362 364
121 94
259 191
60 8
193 337
193 291
327 122
299 46
366 171
125 251
295 233
202 25
26 236
138 279
109 165
161 315
280 261
148 175
297 72
128 248
36 322
1 221
156 107
114 181
164 89
252 74
167 66
184 115
221 56
328 248
302 78
241 52
320 221
190 338
80 341
146 237
117 287
259 89
341 237
322 350
49 55
6 285
81 101
138 173
207 36
221 216
9 331
324 110
309 88
130 19
246 8
94 78
107 310
367 295
134 347
311 73
72 77
99 224
323 244
231 28
154 140
319 165
127 53
214 91
83 75
211 283
2 328
114 53
361 273
28 44
114 62
340 151
21 120
262 112
197 316
360 119
103 38
198 181
58 275
113 70
77 262
135 168
83 68
200 132
16 281
257 338
349 3
193 338
182 119
191 350
261 38
12 134
108 173
190 216
270 216
289 292
150 190
77 186
78 57
165 36
162 26
328 353
166 366
240 185
266 306
166 43
279 331
145 351
137 228
246 298
347 313
244 9
184 134
363 311
234 2
140 23
19 217
213 84
151 241
40 216
345 259
114 177
27 330
130 353
269 229
133 339
209 245
235 41
241 6
152 346
28 12
87 79
33 153
36 164
180 119
192 143
199 184
258 332
315 149
89 329
13 148
49 32
163 264
74 323
201 260
267 155
138 265
249 84
114 45
17 159
156 41
357 134
1 274
339 234
174 259
151 56
48 28
346 332
225 276
73 333
6 273
167 352
147 97
155 239
185 20
250 81
232 340
98 255
213 151
270 302
153 170
186 242
11 156
126 52
170 308
215 290
69 179
357 72
92 335
164 131
72 146
252 323
185 85
345 174
258 251
188 56
252 219
334 20
200 341
78 342
107 300
24 14
195 152
309 51
124 64
41 29
42 175
154 95
255 43
325 332
86 271
124 302
347 290
361 61
196 215
97 63
344 132
38 185
188 291
48 78
175 324
295 312
192 53
21 249
282 340
117 130
49 174
268 47
17 129
23 253
235 326
156 181
267 253
126 172
252 132
346 345
314 367
156 143
77 163
126 364
36 357
360 59
355 79
215 368
340 89
42 108
42 324
170 287
84 246
304 326
200 288
245 140
155 234
48 321
364 239
130 364
11 201
264 141
231 236
180 229
298 210
355 266
53 329
177 291
129 84
6 121
186 360
13 310
278 350
366 331
53 265
340 118
203 137
299 109
256 47
316 333
202 247
74 271
175 60
266 353
321 331
110 263
6 62
329 150
323 66
134 34
213 330
13 330
261 138
97 40
142 46
301 92
147 130
228 119
265 269
355 207
132 218
8 238
19 292
231 101
190 298
257 364
234 322
267 321
288 337
292 222
137 54
204 22
207 266
191 38
266 329
104 41
207 271
322 294
192 186
268 310
196 345
44 54
80 253
245 48
321 271
354 327
287 204
206 72
341 296
178 233
13 171
32 84
353 267
142 1
73 1
305 240
298 24
13 151
345 320
187 279
367 289
184 268
77 162
28 5
178 16
176 161
11 127
85 133
343 146
88 149
301 256
336 346
30 233
267 93
31 270
322 295
230 47
62 41
198 288
285 124
148 231
74 122
132 250
304 120
10 259
18 256
283 271
59 53
209 98
131 147
176 159
365 353
312 276
174 299
142 73
48 89
36 197
257 289
127 117
343 366
111 34
218 207
359 316
84 111
241 212
29 105
50 106
39 28
42 318
168 193
84 311
87 117
91 175
199 129
357 253
327 177
210 342
148 176
165 23
308 57
9 138
263 226
351 31
86 56
104 345
342 144
73 326
174 35
167 89
23 18
193 107
219 59
316 127
265 350
11 163
329 166
63 98
290 342
52 68
47 314
263 129
97 38
204 34
65 310
253 362
342 187
146 25
247 162
75 302
28 76
328 136
290 109
303 203
175 337
174 99
216 88
305 193
149 12
262 169
3 151
71 281
300 129
147 365
140 191
231 306
191 212
310 360
103 251
322 78
337 32
355 21
297 184
240 350
74 272
77 311
124 241
159 29
286 143
168 315
82 323
326 255
127 47
332 219
28 64
242 66
318 57
136 269
368 117
79 35
275 226
293 361
144 70
273 12
312 183
84 34
124 6
224 77
199 221
195 83
55 48
301 353
226 321
134 170
112 233
202 32
215 328
240 204
188 345
163 42
164 47
249 39
270 33
14 266
287 252
255 6
285 92
60 231
319 344
339 325
47 16
337 341
113 76
243 84
84 97
116 43
96 132
15 84
193 275
226 71
337 79
256 223
164 221
75 235
201 110
332 87
304 332
120 286
44 232
46 5
285 273
257 20
223 83
190 191
237 266
234 183
155 52
75 316
322 273
257 88
160 188
368 185
131 291
164 133
56 144
197 217
38 272
288 303
6 21
190 297
157 185
272 191
11 285
325 324
114 244
322 93
35 216
59 252
318 9
289 256
97 301
201 40
196 341
116 213
206 46
199 44
348 142
98 46
146 174
365 367
1 46
187 266
141 316
231 292
37 311
127 112
126 354
176 145
338 46
333 351
218 310
48 80
332 113
7 243
52 151
27 101
56 203
228 283
39 125
83 25
25 269
247 152
190 56
276 315
345 197
65 87
157 221
137 292
13 134
34 240
219 282
59 77
26 172
285 150
191 241
130 218
330 271
349 19
262 65
137 341
205 318
179 230
272 257
190 193
323 206
209 333
356 287
289 36
158 14
32 356
265 229
44 234
265 55
291 64
6 247
354 221
311 51
183 12
314 169
8 234
221 210
140 38
142 231
55 259
357 320
272 299
4 181
304 158
46 32
339 284
96 29
205 75
273 349
46 360
136 287
281 147
127 335
339 9
78 297
180 83
102 256
326 361
144 294
110 49
135 302
143 303
326 276
130 127
86 66
137 276
86 41
273 312
104 86
1 194
219 340
33 241
179 75
319 113
104 124
97 201
194 332
261 315
304 305
282 155
96 107
57 139
206 330
38 234
172 190
147 95
21 270
324 293
320 52
25 145
362 242
279 234
95 57
72 351
268 361
29 174
342 2
162 237
159 129
319 271
44 118
306 38
85 215
22 341
79 240
187 231
23 139
219 334
166 204
135 60
216 70
305 261
147 160
95 255
93 17
315 87
313 291
161 34
275 155
298 243
6 86
250 280
241 281
89 219
35 99
46 166
68 76
275 172
142 293
226 218
23 208
128 273
59 316
312 81
325 73
333 1
77 195
70 96
220 21
21 218
337 87
333 158
299 201
337 128
304 212
346 325
188 200
261 18
70 168
15 28
273 31
176 80
44 293
345 25
299 203
23 17
119 42
88 150
279 29
259 211
18 9
129 280
59 334
49 315
130 143
337 154
138 161
222 201
84 155
251 297
184 90
183 202
160 71
251 176
39 196
292 365
68 336
46 259
143 229
114 291
367 359
292 73
68 110
340 52
20 94
119 215
359 70
259 296
307 299
158 212
74 283
48 315
173 9
159 34
61 12
300 173
153 257
168 251
155 326
23 155
358 122
73 248
59 186
218 154
21 85
272 296
319 42
37 199
292 307
249 178
20 356
91 154
118 147
32 127
348 21
23 241
135 47
245 60
196 80
123 16
144 236
164 274
180 176
150 294
322 288
196 364
28 245
221 308
88 176
365 349
162 66
318 271
355 300
106 202
152 6
161 64
184 357
67 68
195 59
286 6
241 299
101 36
105 86
221 125
199 336
262 238
164 154
3 245
140 36
363 188
313 199
99 72
119 75
165 244
150 116
191 125
56 356
148 89
46 224
178 204
219 346
61 288
257 218
328 221
82 252
215 29
1 36
277 231
100 207
111 331
21 320
334 265
311 229
236 56
129 333
229 326
128 175
353 331
219 241
345 63
72 185
221 188
360 325
2 174
166 76
232 30
337 18
281 159
54 277
11 7
32 133
363 288
150 1
347 207
72 138
78 92
44 40
26 243
11 66
113 215
314 197
9 311
144 273
26 148
288 128
141 341
252 75
34 9
300 168
343 345
163 30
224 328
228 339
260 98
292 319
7 228
46 195
302 313
76 279
156 209
347 308
277 302
34 93
116 180
5 12
50 95
93 365
232 60
200 91
72 93
188 203
81 231
190 106
65 299
221 196
173 45
297 337
336 259
324 74
243 67
112 337
262 358
283 353
55 326
107 87
7 189
317 72
194 53
5 345
219 325
244 280
333 213
87 160
42 126
265 224
71 132
161 173
282 211
226 20
171 130
63 232
42 332
131 149
295 34
243 63
40 226
169 265
241 270
3 147
1 109
319 321
221 359
308 174
364 299
47 311
268 11
190 221
104 305
169 82
345 288
33 359
354 305
148 101
59 133
264 150
337 250
350 244
140 239
190 9
219 367
17 38
333 212
43 274
295 287
311 195
212 54
52 150
219 304
73 98
270 291
141 78
156 228
286 194
255 247
331 29
84 193
207 239
90 319
278 364
90 151
288 240
188 202
63 166
311 316
185 19
289 202
241 54
35 88
325 341
358 113
220 10
199 277
37 84
165 240
148 107
258 25
129 281
248 34
342 122
308 111
34 68
232 185
228 287
195 301
92 237
46 316
350 237
304 169
361 142
175 12
140 127
41 129
175 264
67 280
349 300
3 126
250 184
348 128
152 238
8 107
302 350
121 60
85 277
268 189
341 346
155 58
340 84
342 96
36 82
73 364
304 349
175 263
130 83
180 303
104 141
362 347
367 258
56 254
38 155
1 88
328 347
343 45
93 273
361 307
99 49
137 289
96 343
330 276
13 30
275 75
145 237
268 81
166 171
9 111
21 305
241 177
36 256
258 241
33 293
196 295
11 101
239 164
53 254
138 309
321 282
52 23
328 28
159 300
265 192
334 360
84 337
130 150
141 43
168 207
309 69
302 73
197 132
20 149
224 125
41 114
335 22
43 316
154 68
163 348
27 154
88 72
278 239
243 12
87 174
315 222
357 209
41 15
242 353
252 242
306 90
279 253
28 180
20 6
104 126
204 238
262 308
188 366
234 306
302 111
9 208
54 31
283 11
21 10
92 146
45 302
159 84
368 190
190 135
357 163
8 22
225 9
200 338
356 333
234 12
61 91
52 210
36 279
337 167
282 221
252 321
318 204
119 208
57 237
13 57
315 35
225 123
89 209
343 99
318 92
205 221
357 222
191 333
288 269
14 248
289 165
91 19
101 175
90 188
202 34
165 205
245 63
268 135
47 221
133 21
137 5
176 107
228 169
147 121
