*Vertices 596
182 "#541"
130 "#480"
68 "#59"
83 "#148"
315 "#385"
54 "#405"
405 "#275"
403 "#282"
89 "#240"
13 "#464"
359 "#568"
326 "#117"
235 "#438"
23 "#577"
65 "#281"
448 "#251"
56 "#510"
496 "#479"
172 "#579"
292 "#482"
380 "#429"
175 "#199"
216 "#129"
15 "#508"
475 "#520"
449 "#78"
528 "#18"
499 "#138"
310 "#379"
505 "#544"
153 "#575"
90 "#298"
94 "#314"
161 "#571"
479 "#40"
213 "#14"
57 "#272"
442 "#176"
116 "#537"
433 "#103"
474 "#574"
170 "#161"
278 "#29"
253 "#546"
129 "#208"
137 "#180"
375 "#23"
486 "#550"
204 "#576"
353 "#28"
10 "#109"
269 "#17"
19 "#533"
348 "#535"
203 "#163"
258 "#263"
244 "#207"
537 "#270"
128 "#20"
412 "#456"
156 "#531"
70 "#539"
82 "#450"
120 "#443"
303 "#452"
509 "#215"
27 "#170"
113 "#248"
72 "#192"
55 "#543"
493 "#24"
370 "#327"
95 "#303"
390 "#130"
432 "#36"
579 "#588"
81 "#528"
571 "#90"
527 "#358"
36 "#139"
560 "#221"
290 "#47"
365 "#472"
236 "#329"
495 "#147"
121 "#259"
398 "#435"
298 "#71"
195 "#330"
381 "#173"
205 "#566"
252 "#107"
106 "#581"
378 "#503"
343 "#79"
422 "#151"
425 "#422"
311 "#404"
299 "#106"
50 "#254"
482 "#184"
232 "#104"
44 "#204"
568 "#62"
581 "#442"
237 "#276"
67 "#146"
572 "#145"
521 "#518"
345 "#359"
300 "#364"
173 "#595"
431 "#193"
268 "#58"
504 "#366"
77 "#332"
447 "#30"
151 "#384"
302 "#88"
457 "#517"
43 "#325"
386 "#202"
184 "#295"
317 "#468"
367 "#6"
240 "#476"
421 "#351"
426 "#131"
562 "#525"
296 "#491"
564 "#77"
199 "#353"
519 "#101"
109 "#437"
320 "#408"
573 "#50"
229 "#530"
8 "#179"
337 "#296"
5 "#160"
261 "#166"
473 "#70"
37 "#9"
588 "#477"
143 "#434"
558 "#473"
78 "#389"
251 "#232"
397 "#335"
520 "#159"
443 "#26"
394 "#86"
160 "#194"
76 "#409"
294 "#25"
223 "#191"
66 "#428"
38 "#344"
318 "#277"
245 "#257"
472 "#167"
508 "#54"
415 "#73"
466 "#172"
404 "#220"
91 "#484"
177 "#457"
265 "#374"
52 "#495"
190 "#210"
104 "#158"
589 "#264"
124 "#126"
283 "#441"
29 "#426"
270 "#94"
218 "#60"
393 "#190"
9 "#243"
576 "#84"
33 "#189"
468 "#328"
395 "#416"
406 "#223"
408 "#244"
511 "#135"
319 "#529"
157 "#256"
97 "#27"
427 "#260"
547 "#499"
176 "#278"
169 "#551"
126 "#265"
308 "#150"
430 "#171"
570 "#306"
198 "#98"
88 "#507"
26 "#11"
187 "#483"
46 "#249"
500 "#593"
249 "#552"
123 "#132"
111 "#500"
574 "#186"
39 "#519"
222 "#156"
226 "#455"
239 "#427"
477 "#333"
369 "#466"
166 "#542"
596 "#115"
542 "#547"
125 "#424"
266 "#262"
437 "#317"
455 "#567"
526 "#402"
21 "#340"
85 "#511"
373 "#217"
446 "#209"
115 "#403"
561 "#233"
563 "#523"
254 "#388"
279 "#396"
86 "#352"
569 "#83"
60 "#390"
312 "#123"
207 "#228"
100 "#490"
59 "#268"
507 "#412"
276 "#48"
435 "#553"
75 "#168"
271 "#493"
154 "#269"
152 "#548"
6 "#460"
578 "#155"
17 "#448"
194 "#144"
459 "#361"
388 "#273"
188 "#95"
211 "#386"
264 "#111"
451 "#65"
586 "#506"
332 "#56"
162 "#177"
334 "#573"
374 "#432"
429 "#368"
228 "#246"
282 "#52"
438 "#7"
567 "#504"
550 "#245"
309 "#141"
553 "#322"
219 "#255"
259 "#67"
11 "#297"
183 "#534"
193 "#440"
4 "#554"
122 "#462"
293 "#119"
141 "#37"
262 "#413"
470 "#21"
339 "#373"
548 "#142"
241 "#488"
593 "#497"
361 "#116"
164 "#12"
73 "#252"
210 "#561"
212 "#222"
336 "#154"
513 "#137"
391 "#89"
247 "#538"
506 "#439"
481 "#285"
131 "#165"
234 "#570"
243 "#310"
355 "#371"
49 "#348"
467 "#305"
287 "#376"
536 "#509"
31 "#474"
497 "#266"
330 "#489"
288 "#197"
118 "#560"
12 "#169"
462 "#515"
518 "#187"
420 "#93"
543 "#66"
275 "#203"
220 "#425"
221 "#286"
41 "#143"
103 "#572"
428 "#51"
102 "#231"
444 "#582"
492 "#485"
63 "#407"
107 "#350"
460 "#140"
385 "#411"
179 "#458"
346 "#555"
145 "#287"
335 "#82"
22 "#363"
45 "#175"
250 "#307"
25 "#486"
133 "#274"
491 "#1"
148 "#410"
202 "#369"
577 "#323"
136 "#465"
28 "#522"
363 "#375"
439 "#218"
399 "#594"
372 "#85"
565 "#122"
484 "#19"
110 "#540"
64 "#196"
584 "#35"
140 "#219"
127 "#419"
591 "#494"
416 "#242"
546 "#300"
150 "#324"
587 "#181"
227 "#578"
379 "#556"
200 "#521"
490 "#53"
98 "#585"
514 "#128"
533 "#211"
530 "#5"
366 "#433"
34 "#34"
185 "#206"
322 "#68"
233 "#492"
108 "#92"
411 "#8"
51 "#346"
248 "#360"
418 "#309"
323 "#33"
585 "#311"
40 "#338"
92 "#174"
566 "#514"
424 "#446"
105 "#15"
144 "#512"
246 "#290"
280 "#453"
592 "#127"
32 "#524"
284 "#229"
423 "#378"
417 "#261"
465 "#157"
224 "#557"
242 "#367"
256 "#592"
180 "#250"
163 "#451"
583 "#532"
554 "#118"
502 "#505"
341 "#214"
305 "#469"
407 "#400"
96 "#558"
71 "#349"
20 "#31"
62 "#569"
382 "#205"
524 "#342"
158 "#586"
541 "#334"
358 "#152"
376 "#398"
450 "#415"
18 "#224"
167 "#564"
480 "#75"
273 "#226"
445 "#99"
582 "#536"
272 "#562"
181 "#267"
325 "#356"
61 "#91"
539 "#362"
338 "#583"
522 "#336"
476 "#559"
134 "#421"
257 "#320"
347 "#238"
327 "#284"
352 "#513"
314 "#183"
48 "#591"
99 "#418"
263 "#516"
555 "#195"
469 "#339"
344 "#3"
384 "#55"
208 "#393"
281 "#112"
401 "#113"
191 "#399"
142 "#293"
356 "#481"
463 "#279"
74 "#395"
225 "#213"
101 "#475"
30 "#227"
464 "#436"
149 "#430"
307 "#445"
458 "#391"
306 "#280"
117 "#444"
159 "#57"
333 "#80"
340 "#236"
139 "#46"
575 "#406"
487 "#124"
434 "#423"
321 "#16"
419 "#326"
93 "#63"
354 "#319"
2 "#114"
304 "#372"
360 "#345"
147 "#584"
534 "#212"
301 "#414"
192 "#76"
549 "#253"
238 "#308"
351 "#447"
165 "#587"
189 "#216"
196 "#121"
274 "#0"
138 "#545"
371 "#105"
24 "#39"
413 "#471"
594 "#102"
178 "#258"
69 "#527"
402 "#357"
112 "#81"
357 "#235"
277 "#22"
171 "#149"
16 "#355"
545 "#239"
396 "#392"
552 "#110"
535 "#289"
174 "#501"
590 "#69"
512 "#370"
529 "#61"
501 "#589"
114 "#100"
168 "#10"
155 "#461"
436 "#365"
297 "#563"
471 "#45"
350 "#401"
186 "#38"
7 "#381"
551 "#315"
119 "#417"
231 "#420"
313 "#288"
410 "#201"
87 "#136"
441 "#383"
532 "#467"
557 "#377"
206 "#153"
515 "#380"
1 "#318"
414 "#72"
368 "#292"
516 "#321"
503 "#64"
197 "#125"
53 "#41"
483 "#44"
498 "#312"
324 "#74"
135 "#182"
215 "#96"
489 "#526"
478 "#498"
3 "#198"
531 "#459"
456 "#580"
383 "#108"
485 "#347"
538 "#449"
214 "#87"
392 "#382"
400 "#463"
217 "#97"
58 "#178"
84 "#13"
286 "#496"
285 "#49"
201 "#316"
488 "#478"
146 "#337"
328 "#230"
440 "#188"
291 "#431"
364 "#470"
79 "#134"
454 "#590"
494 "#343"
362 "#200"
452 "#294"
580 "#283"
80 "#291"
331 "#299"
510 "#162"
595 "#487"
461 "#43"
267 "#394"
255 "#549"
132 "#185"
389 "#341"
230 "#387"
14 "#247"
342 "#454"
544 "#225"
453 "#237"
316 "#241"
289 "#502"
295 "#42"
209 "#565"
260 "#164"
409 "#301"
329 "#120"
525 "#331"
42 "#302"
387 "#313"
540 "#271"
47 "#354"
559 "#304"
377 "#4"
556 "#234"
517 "#133"
35 "#32"
523 "#397"
349 "#2"
*Edges
66 474
39 155
116 185
589 157
56 2
263 526
220 283
250 236
544 285
380 83
252 390
145 230
546 580
183 547
93 11
18 446
286 585
74 587
497 429
587 103
384 373
448 121
425 555
578 499
371 156
183 447
108 391
105 394
125 49
418 244
219 521
590 490
569 430
484 144
140 514
403 237
565 421
163 19
25 468
157 523
138 486
143 395
68 590
503 546
275 72
484 528
43 397
111 255
570 354
550 33
361 84
72 3
317 364
292 32
580 481
203 242
561 102
457 286
86 325
368 194
593 434
178 59
344 491
189 145
117 266
117 517
2 192
414 446
574 360
313 574
14 255
10 505
5 508
84 593
373 408
138 579
576 120
395 517
465 526
116 489
30 54
239 380
224 435
309 319
253 402
201 14
543 430
268 508
307 561
410 72
129 404
89 367
134 464
571 342
453 584
552 232
423 2
311 346
361 596
51 394
219 176
204 165
206 383
21 425
155 578
56 448
486 299
438 524
134 103
74 115
383 163
418 185
390 123
478 582
256 365
57 257
537 449
229 580
568 491
314 92
236 565
308 59
46 85
562 144
135 108
59 133
6 226
583 60
454 99
221 237
122 257
590 170
595 351
527 51
48 435
261 325
74 230
487 543
472 373
579 210
242 358
433 216
310 2
417 29
156 296
533 129
426 461
522 262
340 299
550 9
474 318
395 76
211 220
509 573
171 206
332 353
431 520
298 240
264 232
142 409
15 86
22 485
499 534
139 274
402 226
276 419
530 97
95 583
122 260
465 135
493 420
550 397
20 493
109 231
219 167
534 275
438 573
196 244
546 90
128 294
241 538
431 460
98 249
99 74
314 136
40 409
89 561
479 572
439 405
569 314
135 8
316 135
131 103
74 591
42 475
495 519
326 346
232 2
14 545
119 464
502 15
499 10
277 93
315 198
214 287
557 104
536 456
475 347
528 37
75 222
576 294
421 487
62 474
274 589
89 557
259 470
201 38
243 467
110 485
9 189
460 343
402 76
19 27
92 587
482 44
329 163
264 299
310 325
189 426
54 524
535 437
8 178
596 84
125 185
23 155
343 63
47 366
232 484
489 271
446 309
82 122
10 405
528 420
575 66
358 438
182 547
446 560
7 327
134 577
198 359
147 137
98 227
80 9
253 423
525 411
196 393
152 249
318 217
330 6
138 161
230 208
589 529
11 263
16 199
252 503
309 495
402 391
46 413
1 419
593 358
543 285
400 330
332 196
10 36
4 361
105 335
31 548
195 273
38 532
276 327
595 108
229 484
228 416
212 455
380 307
373 185
554 461
591 547
530 141
526 287
262 125
195 459
405 364
371 463
74 198
288 27
317 101
583 379
390 211
18 450
550 480
449 335
455 234
297 275
250 69
545 43
62 103
244 344
262 495
298 145
137 222
29 107
256 93
134 233
520 75
81 196
189 439
590 44
286 566
562 434
545 1
451 550
147 436
545 30
593 257
360 593
97 276
531 230
536 166
433 37
215 59
111 263
230 358
286 352
549 485
577 498
543 539
203 135
314 8
164 139
101 258
76 18
401 555
306 338
65 594
179 300
464 190
488 363
204 595
361 311
582 174
431 275
305 252
373 396
367 332
225 50
177 400
60 166
115 510
116 289
359 234
219 257
107 159
274 57
145 191
461 377
373 94
35 404
533 416
209 127
289 161
511 129
587 279
3 60
514 553
528 67
276 358
585 235
241 86
132 442
396 512
188 480
142 91
427 573
511 6
60 515
99 506
435 161
48 173
462 42
385 253
529 198
88 562
2 53
356 25
276 20
434 7
332 377
339 65
412 280
438 494
108 27
442 46
574 316
206 58
254 515
365 82
203 438
133 337
513 201
290 285
505 161
15 356
3 520
508 259
273 580
402 498
258 155
535 336
136 241
67 259
50 561
473 415
477 426
499 120
349 270
311 315
349 285
114 450
554 242
53 343
59 142
64 530
414 337
434 74
98 166
476 234
286 274
351 15
310 326
358 479
454 4
111 537
300 543
31 477
272 182
23 234
541 86
44 383
60 589
189 111
187 330
36 216
169 330
55 79
521 566
2 335
187 130
591 233
361 223
17 424
247 163
224 209
499 384
58 92
427 326
119 76
64 431
105 384
108 8
422 327
145 126
554 596
548 520
495 540
395 435
493 428
98 237
417 198
213 93
485 306
446 15
222 349
299 45
297 205
114 559
529 42
562 160
519 282
103 137
145 544
596 196
318 452
596 312
183 588
145 536
42 157
531 529
402 306
26 139
357 328
138 456
232 168
433 64
100 91
352 32
340 122
451 353
173 111
146 541
372 362
337 544
530 390
89 466
483 186
521 56
226 72
5 185
524 589
565 87
338 542
361 23
495 67
189 236
569 112
73 513
401 191
13 201
413 516
337 313
383 171
387 498
102 30
521 562
305 4
457 521
291 30
79 54
122 357
537 64
490 307
10 461
161 137
447 285
287 279
256 158
41 384
199 71
99 149
503 485
325 401
17 369
591 358
476 15
149 76
267 554
456 399
174 15
185 200
357 365
84 44
464 417
368 147
41 3
161 338
383 37
79 161
532 417
277 339
353 571
362 402
347 424
266 121
59 561
404 384
408 574
353 568
469 9
76 344
263 81
369 412
124 277
370 569
571 61
147 505
263 160
290 68
514 36
173 28
441 215
481 451
563 257
586 93
170 454
576 340
200 28
392 238
271 472
473 324
84 432
374 49
531 201
402 159
170 496
193 475
65 463
47 266
24 417
313 403
505 264
306 25
582 130
543 163
163 369
24 194
377 243
371 8
269 438
5 520
81 15
68 503
67 128
532 142
453 362
591 120
329 520
324 367
43 195
519 548
485 17
13 364
501 522
415 480
301 225
139 290
266 111
560 567
59 504
281 472
81 75
214 99
419 198
396 183
433 510
236 476
112 576
520 560
2 281
390 20
484 458
548 471
550 237
16 74
327 484
239 16
499 371
337 11
170 298
380 54
20 86
120 556
318 516
572 41
543 294
87 216
18 534
583 279
247 17
151 133
306 413
589 497
188 189
420 270
164 72
382 288
159 32
253 118
581 109
539 190
258 500
585 205
49 37
380 2
165 454
87 10
201 305
555 68
343 175
51 406
380 524
362 417
593 578
19 178
234 133
40 144
24 337
365 536
99 578
484 451
194 324
546 595
258 178
65 313
163 448
554 12
80 190
409 368
497 569
158 490
517 443
202 558
105 18
326 554
521 263
59 393
290 10
116 56
375 369
329 517
591 573
237 564
114 515
113 234
77 476
427 516
319 421
293 550
488 168
46 316
532 177
165 203
27 248
406 225
174 281
468 95
481 190
142 588
263 85
35 2
303 531
316 509
254 441
295 572
325 20
69 56
15 167
267 482
543 68
227 23
260 491
365 540
284 169
76 450
149 235
25 365
44 51
488 489
392 347
393 410
289 184
176 51
395 23
493 277
275 102
270 61
441 311
404 308
555 503
201 471
510 221
469 408
498 360
469 300
554 21
462 413
353 196
97 121
502 156
32 85
480 473
537 549
469 131
351 59
261 222
206 564
31 244
355 74
132 162
85 271
197 116
266 219
275 89
346 455
61 242
396 371
326 431
30 337
335 309
573 206
272 47
359 148
463 564
16 6
337 239
245 518
381 460
157 115
126 168
479 353
193 334
344 22
192 508
439 225
480 490
177 481
92 95
123 530
580 463
83 422
395 265
540 537
466 543
385 211
595 82
294 311
266 296
595 347
198 574
390 472
104 336
214 54
476 565
390 511
296 273
84 344
238 476
487 275
115 345
173 255
67 358
366 344
65 580
484 172
451 490
10 53
499 79
442 294
404 555
314 403
19 444
559 314
166 133
352 457
272 227
276 141
550 561
327 336
412 250
233 158
354 585
130 531
370 531
483 541
44 293
418 20
105 353
112 490
540 349
347 177
502 318
75 470
213 522
393 544
433 226
31 45
569 529
591 193
368 401
225 534
342 122
517 184
428 324
37 263
86 345
133 396
183 455
40 397
211 265
157 257
170 174
355 472
288 449
343 481
433 72
574 461
243 427
439 490
287 413
142 481
152 454
398 559
547 325
300 494
559 579
463 221
477 561
88 359
133 258
382 518
385 135
261 465
286 183
482 19
323 24
347 350
219 57
398 63
94 273
340 246
155 82
343 20
187 533
242 146
18 344
404 225
221 145
514 564
340 76
482 565
485 209
304 198
485 107
518 181
5 236
199 248
251 128
595 163
401 553
219 119
584 528
90 564
208 415
346 431
197 341
553 477
263 502
438 391
189 272
292 44
433 188
561 367
29 464
549 427
258 236
585 203
241 532
548 37
157 423
390 327
22 115
467 87
91 220
18 548
26 310
264 2
190 184
331 391
441 593
400 233
222 27
588 195
487 437
289 201
269 391
436 544
334 103
168 499
485 516
223 390
544 489
520 320
61 512
39 225
118 182
298 282
573 233
166 180
203 390
492 163
122 356
404 507
553 498
203 465
307 59
202 147
274 285
360 487
359 338
485 34
162 126
518 168
399 202
320 233
63 463
171 116
388 392
139 225
35 276
489 472
574 137
262 374
287 57
130 140
128 372
423 589
194 58
328 567
266 21
532 335
409 397
516 171
449 222
206 562
77 398
45 550
79 511
583 63
116 191
172 356
167 476
31 296
505 234
100 26
304 242
300 403
346 234
375 583
575 450
186 484
136 452
134 234
534 446
165 167
391 270
160 528
591 15
372 401
255 500
553 216
337 126
527 107
112 9
296 572
376 396
395 127
396 279
51 380
495 299
536 215
413 109
114 382
197 121
229 156
94 1
1 236
571 572
14 211
505 272
434 111
157 441
120 307
335 10
307 425
338 314
400 595
580 535
530 285
74 458
312 518
224 62
484 515
386 74
313 320
540 121
552 86
102 311
214 105
527 40
411 504
10 340
288 550
232 450
212 139
239 524
280 241
55 248
146 397
571 494
339 389
455 456
444 165
431 22
51 49
86 582
473 322
507 29
519 192
111 484
592 350
258 221
50 59
92 345
470 323
251 478
24 73
582 378
152 140
73 298
402 214
265 577
463 365
82 349
434 239
172 373
238 243
318 313
271 381
215 526
352 559
6 187
550 390
163 45
214 576
511 331
377 393
363 339
256 147
86 407
517 37
7 279
291 105
330 532
124 43
316 376
531 492
179 40
369 220
170 517
141 258
475 274
228 283
320 307
361 29
394 508
387 201
159 343
452 544
547 567
573 482
384 128
255 26
10 571
268 406
2 431
164 282
587 203
87 223
353 439
228 587
460 287
479 50
246 219
486 593
296 352
442 27
494 248
441 69
11 327
348 374
549 64
590 503
4 595
125 29
140 477
546 593
492 195
582 111
530 278
396 499
317 402
177 287
188 213
502 223
433 38
206 167
565 1
219 427
122 351
16 275
184 246
288 129
512 315
255 580
509 564
219 569
397 232
587 135
382 269
521 502
272 249
394 420
549 313
527 163
459 215
534 314
465 306
506 286
4 204
570 27
342 39
162 591
316 558
299 504
390 354
22 74
423 335
143 497
152 197
306 65
369 240
539 50
540 178
333 112
454 19
585 391
38 83
276 329
57 266
573 235
397 494
201 389
522 345
397 246
223 433
197 153
415 438
140 17
112 335
26 543
251 499
116 382
141 128
358 172
390 389
77 182
295 308
465 508
282 391
230 429
225 446
548 404
144 263
431 189
334 154
413 533
233 43
251 102
141 105
252 211
473 442
439 115
530 295
73 497
1 480
452 240
248 394
555 382
268 470
264 216
213 68
470 580
133 546
177 539
51 446
551 331
576 548
356 83
509 416
324 543
194 388
513 449
301 119
260 483
155 382
6 561
136 475
591 212
495 548
555 378
148 593
320 147
137 169
240 511
322 225
196 487
196 400
465 287
289 302
502 245
267 464
548 129
30 550
143 265
69 17
215 190
323 520
530 403
526 567
213 20
88 287
574 429
385 231
117 572
425 551
452 42
114 518
125 434
468 398
314 262
548 401
173 454
385 262
3 246
266 18
413 6
317 543
78 115
518 423
60 407
92 121
490 312
99 50
333 569
59 311
184 426
523 595
323 441
517 216
73 458
87 517
429 60
248 147
442 108
195 222
26 483
19 455
150 472
482 132
105 190
410 25
578 222
522 323
499 389
311 520
79 98
555 340
18 340
146 60
341 140
399 175
209 153
481 361
429 504
272 338
76 83
492 155
386 42
543 372
20 141
428 596
415 269
480 487
197 195
414 298
416 429
583 256
232 41
593 117
371 142
244 554
349 470
58 318
44 17
265 510
452 63
28 152
187 304
237 129
352 555
576 487
35 213
516 431
190 343
402 155
530 344
154 520
483 42
141 375
537 314
502 289
499 515
479 282
236 467
33 109
299 367
434 99
552 299
484 493
400 13
574 430
543 354
490 99
240 595
188 409
520 388
108 395
314 273
28 535
404 300
10 383
340 550
306 61
33 160
180 50
247 69
345 439
99 232
364 335
344 61
257 551
424 351
589 56
9 340
590 519
42 65
23 273
427 80
99 220
551 467
284 409
410 382
360 50
585 518
434 150
428 480
262 239
503 16
560 352
471 587
535 560
291 584
504 389
246 42
452 312
543 415
344 353
182 209
136 394
423 210
540 59
41 596
434 76
450 119
74 232
362 337
562 416
63 205
380 18
56 593
491 299
230 450
296 559
592 216
91 593
453 111
363 376
288 440
311 151
59 589
225 392
428 285
565 269
548 460
449 168
592 511
481 237
290 483
109 149
83 411
170 241
320 385
459 300
269 484
469 146
280 308
167 454
442 203
505 4
387 471
495 86
321 505
495 411
310 254
356 44
307 493
143 596
317 382
581 301
383 232
234 338
309 145
294 411
318 368
268 391
103 189
554 82
140 129
423 550
143 99
139 35
449 323
561 242
174 196
373 40
178 576
4 486
245 157
577 193
214 545
229 121
202 146
463 498
401 261
394 214
4 167
390 77
554 225
72 191
495 296
407 265
47 327
241 81
535 77
452 527
63 390
147 131
165 321
533 62
114 592
37 441
361 125
334 224
219 525
273 442
417 181
135 198
550 185
465 65
249 226
544 490
363 448
244 400
563 51
520 170
425 392
195 236
56 536
154 423
559 273
38 330
145 427
154 135
119 361
573 170
57 426
155 410
202 560
551 201
235 127
166 256
336 222
268 490
315 490
373 294
267 89
470 190
588 125
239 220
431 560
122 416
377 441
336 520
490 309
35 218
58 367
152 255
556 44
593 591
91 82
556 420
344 299
297 511
470 215
437 362
376 515
483 322
79 183
476 173
215 293
138 32
159 294
260 187
526 181
69 542
596 390
182 412
423 206
368 574
329 585
572 194
412 573
12 415
487 13
564 24
24 557
205 209
284 365
550 442
49 213
72 402
94 546
320 76
372 503
349 223
24 498
140 387
349 323
319 81
293 14
287 310
273 364
407 565
256 48
404 49
529 50
323 420
589 561
231 580
494 306
328 367
549 107
491 154
434 511
170 5
121 574
285 493
508 84
61 495
596 374
281 341
205 142
406 524
378 536
152 334
234 562
1 330
100 496
68 274
570 201
447 574
201 273
44 431
242 489
304 211
228 20
571 416
39 1
213 335
198 280
350 163
45 59
73 537
478 222
449 386
306 585
462 457
543 491
369 560
285 487
320 207
306 508
388 24
509 307
325 459
159 549
148 343
547 156
138 334
397 49
170 469
159 362
183 469
500 473
101 163
306 180
187 301
303 212
4 160
406 275
358 257
184 24
311 334
463 223
519 217
347 552
152 325
460 236
185 309
390 171
318 271
101 226
478 145
329 199
277 83
593 218
584 331
172 161
504 329
125 570
173 170
294 104
117 274
288 130
2 146
54 516
490 390
144 286
287 148
106 172
233 376
73 180
578 266
539 250
15 240
414 479
299 23
116 239
35 159
128 20
297 255
6 372
571 578
187 543
68 139
59 336
86 170
134 386
175 459
213 397
439 406
341 354
463 296
471 115
25 538
93 198
24 389
470 367
527 421
348 56
40 86
3 263
401 21
367 483
229 52
203 543
436 199
466 170
284 35
188 594
546 93
577 228
397 16
517 148
56 122
503 422
346 174
564 584
240 171
515 87
319 348
532 267
119 189
238 550
198 393
262 507
336 54
561 14
252 255
294 584
176 3
113 207
481 340
443 590
508 513
203 520
245 138
288 531
279 70
58 442
41 196
512 490
197 107
388 376
514 485
480 192
492 1
24 294
583 553
348 543
262 213
392 484
273 80
497 256
58 137
214 177
165 98
455 500
226 90
252 2
334 213
190 534
35 266
303 220
62 180
93 184
334 375
96 272
55 48
344 276
73 484
439 259
463 256
236 150
554 460
541 552
525 387
182 551
218 493
590 112
247 49
258 46
258 331
463 226
490 528
280 457
473 348
538 173
234 398
454 7
158 168
187 23
236 20
327 406
79 447
471 483
313 246
159 112
502 591
266 300
75 541
189 471
543 139
455 338
355 191
128 594
401 58
436 512
427 148
395 560
25 375
8 564
307 241
553 561
185 183
310 143
309 466
526 59
247 214
138 366
594 423
225 370
301 205
197 400
404 552
506 497
554 196
474 217
520 220
54 98
98 392
190 570
308 332
295 131
556 9
454 138
590 268
44 214
484 217
102 457
84 523
306 409
117 395
111 562
308 519
252 91
2 286
109 506
406 416
454 153
352 247
58 60
304 7
453 378
162 178
560 547
197 124
304 280
136 86
302 93
189 140
550 221
409 190
158 172
93 103
412 529
272 62
207 231
447 556
63 581
416 389
382 175
525 257
247 398
85 3
461 93
52 263
339 265
298 463
250 574
170 202
572 335
71 478
37 231
451 528
84 431
80 442
184 511
186 141
495 131
103 346
93 452
359 519
533 358
27 388
90 284
417 478
524 362
197 454
120 119
403 96
545 556
519 589
44 275
474 571
127 348
270 511
206 255
287 239
420 545
532 130
566 547
470 44
239 395
315 497
342 6
592 184
131 246
458 355
68 281
342 408
352 233
396 114
383 552
140 278
289 388
131 436
360 402
25 362
460 37
548 23
177 531
296 286
177 527
437 464
555 567
281 419
286 519
44 196
548 359
59 159
83 143
445 44
528 461
114 473
190 109
319 117
552 470
293 343
330 252
546 177
289 103
131 449
285 587
197 512
224 342
459 521
27 87
185 463
271 143
181 245
520 361
73 554
64 82
512 403
193 405
508 322
30 317
41 422
115 207
89 321
12 189
8 372
304 235
449 5
475 166
119 334
222 465
426 10
189 437
2 10
573 316
33 332
3 44
314 578
329 596
238 119
209 498
528 93
473 172
335 577
74 358
22 225
14 207
323 461
534 75
264 297
563 15
101 389
26 68
411 519
67 460
190 222
323 294
494 559
157 463
497 50
503 532
313 481
87 265
41 571
413 82
543 516
50 389
230 340
155 317
266 369
546 193
190 487
560 580
449 135
345 47
252 469
257 591
149 288
375 500
293 222
62 158
587 583
487 382
474 55
179 532
187 488
290 491
207 316
108 463
392 127
472 527
237 435
345 280
273 562
94 472
81 195
278 493
533 207
417 227
102 550
73 152
407 495
348 376
259 84
120 401
585 477
58 24
224 103
182 96
482 214
135 491
329 490
463 337
205 536
562 184
25 155
264 205
339 9
118 256
93 188
521 92
83 157
272 500
383 340
196 78
399 359
1 129
479 360
211 357
449 50
445 422
295 322
279 257
360 209
518 153
403 229
419 585
474 562
509 380
228 493
296 371
413 56
243 147
526 267
127 378
497 258
298 403
155 91
309 9
23 161
25 413
285 596
417 91
39 347
19 348
527 448
162 537
170 578
377 260
499 290
561 494
184 111
503 529
188 540
355 540
123 443
4 435
196 233
244 570
334 161
442 350
185 236
269 571
41 430
31 424
397 202
290 367
231 507
58 430
404 446
171 357
528 426
94 150
270 192
556 511
40 457
369 310
74 578
218 30
456 32
468 551
328 395
51 195
348 559
593 547
125 274
135 513
542 306
84 133
333 447
588 82
370 130
75 504
531 226
60 86
522 399
483 543
285 181
468 365
350 429
349 259
302 420
199 325
72 21
201 95
307 99
105 9
158 334
300 44
495 69
476 346
447 584
32 578
176 61
388 358
209 207
448 501
578 296
525 498
210 435
577 418
139 394
586 400
562 4
374 412
111 521
549 561
280 130
591 238
205 48
452 313
17 29
267 363
355 115
306 327
360 242
470 42
592 265
125 116
298 100
90 486
584 186
235 478
6 336
433 89
437 250
469 577
87 390
168 333
307 125
371 14
217 270
559 150
416 458
85 536
552 10
348 206
410 335
205 251
404 293
475 117
546 221
375 377
471 495
475 563
189 201
573 480
308 340
550 113
341 370
290 543
192 371
308 182
87 345
102 438
244 237
246 195
528 510
342 531
456 153
349 226
266 133
349 180
151 194
527 344
320 239
447 38
144 580
115 405
303 189
472 260
9 265
175 322
194 358
216 129
374 63
448 65
95 195
474 138
57 589
508 571
225 105
59 326
170 548
355 596
358 18
386 481
347 217
422 67
26 442
76 370
540 126
239 88
112 168
177 342
143 213
538 496
64 236
392 230
549 263
193 398
504 446
424 305
64 503
155 378
372 323
122 365
324 382
385 236
290 471
74 284
367 471
48 31
252 312
121 174
344 544
230 304
374 117
436 318
555 83
161 523
592 463
85 187
108 34
450 171
14 347
562 348
494 232
218 97
245 180
131 70
294 168
229 173
538 100
154 152
41 214
334 118
554 589
308 445
249 579
52 28
419 574
281 383
549 219
489 22
284 447
551 99
348 584
202 26
401 524
25 452
482 591
412 240
30 400
165 255
525 477
31 495
262 102
181 121
83 44
118 272
289 583
134 434
374 27
221 340
408 122
174 32
297 163
168 343
203 339
433 312
56 403
140 361
269 493
441 230
494 219
179 356
409 297
44 438
181 358
129 478
496 86
574 370
118 154
248 193
304 151
570 72
21 143
498 40
525 468
304 376
418 585
434 120
82 424
89 424
173 323
84 287
9 431
314 281
9 540
540 497
286 15
238 543
304 331
104 586
520 568
204 172
326 126
419 559
393 286
356 342
566 28
273 534
222 461
295 321
468 539
411 312
492 317
306 298
539 16
11 78
424 326
421 59
215 219
347 477
324 243
588 38
155 538
443 131
72 518
269 302
52 593
554 329
244 288
250 124
527 22
550 14
492 500
328 89
427 495
401 493
276 201
271 522
38 421
282 353
216 547
37 2
364 89
475 56
477 527
87 499
432 168
337 546
521 400
351 303
253 173
51 83
284 244
365 4
24 543
534 329
422 548
237 448
217 389
409 90
191 378
167 287
505 328
302 576
519 442
276 157
155 55
259 464
261 203
284 429
8 436
451 140
70 116
72 450
327 510
272 178
578 274
562 559
126 546
556 196
422 246
242 57
264 37
520 395
284 13
9 324
263 28
34 514
528 361
296 222
323 107
380 328
66 137
319 227
516 465
238 419
294 541
374 125
403 452
462 56
379 148
327 592
170 216
130 17
96 505
121 482
382 11
192 140
274 276
16 504
212 108
50 375
517 208
565 258
543 171
83 460
448 297
85 185
485 539
297 284
210 158
9 163
520 555
327 267
576 93
106 227
365 112
355 265
135 227
555 473
274 545
324 513
27 503
168 422
152 172
239 193
108 91
430 529
506 235
234 453
244 546
473 298
512 410
27 322
210 516
417 520
473 367
570 333
552 211
513 327
321 291
99 193
177 234
475 565
548 277
227 182
352 547
480 324
455 366
297 280
593 536
360 483
261 353
216 126
50 403
385 301
173 152
503 588
409 102
323 5
525 250
151 212
585 498
262 380
183 458
354 496
592 564
117 146
571 372
285 26
575 143
2 150
66 95
570 54
447 453
475 39
352 455
94 390
531 440
99 206
507 516
473 450
345 469
104 578
423 3
191 65
294 509
230 517
249 182
223 585
540 162
285 196
435 166
42 403
22 276
386 217
337 142
111 86
145 549
41 308
16 360
43 335
283 359
346 525
128 321
584 295
127 366
420 409
91 43
346 208
517 516
210 207
140 340
25 572
494 242
573 93
490 24
336 503
40 242
9 561
546 237
487 556
344 568
512 265
312 370
344 349
219 178
510 465
334 296
229 81
567 352
82 50
76 515
418 250
324 375
316 494
58 132
398 182
212 373
491 131
501 585
544 176
329 312
484 383
496 154
327 313
198 121
587 594
235 262
559 387
292 356
372 82
198 450
438 318
277 77
140 439
226 82
80 337
312 519
385 294
536 224
283 389
487 9
202 515
84 526
298 237
120 340
177 543
323 275
39 152
389 52
554 526
225 262
552 438
175 431
161 480
265 71
335 188
95 498
1 551
369 25
373 219
388 181
313 145
462 375
227 118
286 391
531 227
67 309
125 66
480 93
529 484
314 311
323 84
427 202
332 58
332 114
560 549
465 472
447 340
86 504
438 41
140 196
176 195
208 375
279 208
476 500
260 336
479 83
426 157
175 359
116 271
386 288
241 17
63 231
180 409
421 570
113 347
269 186
85 178
447 493
208 269
435 326
417 437
195 553
137 8
382 132
154 297
148 507
119 109
292 317
460 495
216 511
340 453
389 38
276 353
252 153
294 555
482 596
111 286
342 317
30 415
275 458
395 366
21 107
222 246
314 287
62 247
36 426
343 573
519 239
28 246
103 169
546 118
549 328
322 128
506 533
436 539
234 173
588 532
326 480
187 539
258 343
348 143
391 419
405 175
494 383
491 90
126 188
386 326
530 584
440 25
561 228
387 221
397 402
454 113
98 57
45 542
439 192
185 47
359 163
380 75
4 195
377 517
189 560
565 58
569 251
40 456
369 303
152 501
147 172
233 242
438 491
217 31
54 433
247 190
571 367
561 164
463 515
590 80
243 75
499 221
544 215
561 113
237 65
584 179
158 59
93 584
515 308
128 282
197 420
141 372
146 327
590 528
223 103
45 442
557 300
381 372
555 54
3 112
293 124
238 311
147 118
188 215
459 92
595 192
519 151
237 47
16 205
578 589
472 344
191 390
347 150
469 402
481 446
461 447
434 77
238 334
239 178
211 320
362 364
510 460
403 318
573 145
491 448
66 380
397 390
348 155
101 303
51 229
216 482
418 511
28 489
143 328
240 433
78 188
137 587
56 378
52 175
378 457
240 241
9 367
418 135
252 69
248 389
316 328
367 573
299 89
77 12
174 596
114 181
495 83
108 365
266 37
404 128
361 340
554 569
33 64
87 310
533 406
533 190
512 113
480 419
140 76
33 584
143 262
528 264
549 56
251 453
51 504
112 347
177 366
110 183
595 596
109 197
344 404
422 511
134 291
578 122
576 287
61 33
155 6
433 350
540 181
193 56
23 306
178 537
237 147
19 116
492 389
314 312
537 259
269 197
571 206
328 277
18 140
572 179
311 7
346 318
12 294
538 570
389 373
275 3
516 243
108 564
220 262
304 441
570 595
468 190
50 181
311 217
8 132
587 88
444 14
260 543
340 533
465 390
214 235
534 426
592 499
394 225
543 13
520 211
255 229
182 498
44 524
447 295
152 48
46 340
120 76
576 269
423 376
277 572
563 69
214 372
568 276
402 527
588 263
116 247
370 580
395 301
404 258
324 506
562 247
322 589
452 239
519 198
450 239
409 445
373 387
47 4
490 198
515 517
380 134
325 471
561 414
281 114
170 558
505 55
157 561
142 219
97 285
493 381
276 393
436 346
8 442
455 153
577 345
344 302
10 329
453 227
358 287
236 228
98 578
408 224
166 583
294 315
579 47
244 514
237 223
347 318
467 117
122 198
108 592
400 364
243 57
582 489
195 498
350 281
31 488
164 68
310 308
498 551
404 498
278 479
85 52
244 424
511 187
352 273
209 118
1 468
564 162
351 47
579 62
314 460
578 213
14 501
533 304
552 2
237 57
72 312
265 153
304 371
362 439
401 206
404 236
340 395
306 549
528 53
256 60
477 387
324 192
386 45
252 344
133 497
37 430
25 179
524 516
262 552
63 573
564 519
247 370
540 105
336 387
256 275
409 573
116 155
503 382
447 100
418 264
335 242
301 577
129 9
377 447
83 435
201 467
557 188
596 206
515 396
237 166
210 434
513 36
108 417
560 485
349 282
396 150
414 549
301 389
57 522
59 420
179 13
141 384
356 492
125 200
294 290
78 439
82 583
354 545
285 278
552 548
569 277
219 592
109 596
34 370
8 213
331 481
108 523
155 389
380 344
564 343
262 301
428 277
87 7
236 50
522 204
562 40
253 328
482 586
275 64
134 133
559 63
464 48
200 319
451 184
125 528
6 532
111 388
238 33
433 265
559 360
157 178
282 192
573 587
301 434
62 156
269 300
144 274
211 311
281 525
15 562
132 531
115 304
215 282
254 407
102 520
409 246
116 472
75 329
456 359
53 207
318 11
116 549
469 326
183 263
526 315
303 558
3 362
382 83
264 587
505 98
587 387
25 492
547 85
256 4
559 188
427 558
88 289
539 419
580 403
110 446
520 572
511 488
453 416
88 591
537 491
335 516
548 588
533 562
371 532
43 516
2 446
260 530
45 209
570 236
95 551
311 37
476 358
83 343
251 168
448 359
108 145
398 148
293 139
256 165
51 305
345 590
88 30
508 34
486 23
415 213
476 377
487 244
369 424
214 125
314 574
99 207
540 587
202 267
334 359
152 404
184 360
77 437
197 528
351 515
310 262
531 101
328 589
206 12
434 184
59 349
317 531
220 537
560 267
489 378
25 136
522 516
347 28
21 524
269 124
312 554
348 291
512 145
510 520
534 331
411 452
573 333
528 460
252 552
363 116
305 292
223 28
524 519
175 517
454 79
510 571
278 128
510 68
491 449
508 472
526 229
232 5
248 23
295 189
52 547
128 495
41 519
344 480
340 389
522 199
207 424
180 178
470 560
147 209
314 409
160 435
47 373
133 288
120 208
435 408
420 128
102 14
577 236
267 191
389 224
386 488
96 325
60 495
559 281
271 348
404 196
449 472
593 19
183 416
453 191
93 217
48 400
8 466
219 554
386 5
421 22
340 261
115 384
232 449
383 279
255 389
316 232
16 195
108 140
167 579
281 204
16 345
15 341
448 256
595 358
87 387
78 240
445 555
400 358
460 267
587 194
448 543
425 486
129 556
494 503
93 442
421 100
43 342
347 262
105 84
437 38
278 298
262 581
582 81
434 208
411 529
528 198
28 242
182 486
595 243
402 467
323 199
206 530
209 249
148 55
549 462
146 39
279 212
420 10
475 462
447 222
434 500
267 400
318 382
595 136
215 433
400 187
377 353
540 574
592 140
347 239
187 122
265 350
483 375
189 259
55 454
456 485
495 416
285 294
181 298
505 153
240 23
49 199
88 563
128 490
225 427
247 126
555 357
551 596
454 147
257 529
293 440
452 38
216 162
520 438
273 294
99 231
75 141
441 551
580 262
302 497
522 284
387 150
37 428
360 196
137 380
114 386
302 86
32 173
330 558
47 146
356 362
298 530
79 481
368 45
102 284
354 538
68 206
410 298
19 88
351 596
298 192
202 111
450 401
110 15
152 138
467 363
435 225
108 264
488 45
428 433
203 297
329 16
70 229
550 328
576 24
215 56
374 163
378 247
561 203
231 398
357 330
211 507
219 114
426 37
255 487
367 442
243 419
231 520
91 352
502 457
251 582
565 197
80 331
544 51
323 93
252 480
197 571
183 408
128 102
544 257
420 304
415 192
538 337
146 325
393 431
381 528
137 245
314 86
393 521
386 177
304 350
469 214
344 470
193 515
276 245
336 349
184 481
141 45
365 583
467 71
447 357
223 566
77 362
575 148
108 235
198 512
96 392
593 23
230 458
507 369
207 339
314 448
499 270
492 529
204 249
40 487
389 459
46 228
443 550
442 546
43 236
279 512
334 501
498 335
40 130
398 262
447 27
195 257
247 193
525 585
270 514
584 290
392 528
298 42
172 39
498 20
519 287
506 12
147 528
368 90
420 327
497 259
208 109
366 307
368 21
299 550
437 281
456 249
584 493
350 423
571 36
528 269
429 392
162 594
447 590
288 402
535 241
421 76
503 213
391 159
39 462
549 154
93 25
506 307
155 351
290 326
502 271
448 376
185 237
240 126
356 358
356 330
87 47
348 52
249 354
319 91
564 510
21 208
344 268
54 185
392 115
523 379
71 376
505 480
558 184
176 307
111 174
100 375
8 281
537 189
168 371
160 361
130 163
417 523
114 383
252 514
353 268
273 512
528 447
561 519
411 276
548 358
547 404
337 446
170 538
239 317
30 313
298 479
125 417
371 278
444 227
41 67
571 406
64 576
222 86
128 97
382 389
506 425
150 333
577 525
294 97
425 297
573 490
372 112
44 488
481 150
176 494
402 421
31 369
46 10
475 256
539 397
312 262
163 280
128 285
517 451
504 373
184 388
96 296
428 594
588 388
154 245
115 254
237 463
395 375
339 390
345 211
443 343
2 325
375 492
573 150
491 336
121 412
554 252
404 18
32 331
361 550
321 192
338 442
425 503
449 260
566 347
13 244
198 581
372 319
565 254
219 328
27 64
528 377
416 398
202 327
207 509
455 85
430 3
527 83
391 387
232 325
310 202
355 396
576 159
484 306
36 332
27 348
187 177
424 257
452 191
519 91
281 167
508 75
470 575
6 111
190 405
361 312
561 136
404 155
256 501
426 223
494 490
19 247
359 63
145 237
41 269
343 80
98 93
480 217
322 59
196 141
397 473
201 422
413 475
450 159
400 212
105 514
257 29
152 512
106 427
107 58
311 389
51 402
166 62
274 213
96 455
514 390
238 391
169 158
96 334
245 46
540 427
535 380
530 57
364 424
573 497
240 518
541 460
568 590
435 536
479 217
65 569
374 237
404 514
58 584
546 338
428 24
494 325
407 26
449 448
394 295
377 112
417 27
563 50
419 387
16 232
3 230
316 291
561 54
54 425
384 377
443 530
525 238
241 143
550 554
35 302
159 108
323 396
518 403
366 570
11 145
433 418
303 516
179 238
383 299
458 229
574 589
337 42
20 218
342 354
443 188
99 385
37 325
554 141
346 501
246 481
257 498
268 282
236 338
15 393
305 589
566 254
242 159
304 546
252 269
446 9
472 488
247 566
191 211
64 72
206 125
110 381
442 92
195 460
420 228
566 370
551 506
357 550
163 198
78 60
199 72
12 465
268 213
452 393
78 122
554 131
88 465
224 24
88 579
331 368
196 436
376 504
470 508
480 299
261 453
512 208
81 174
250 547
383 68
54 125
416 305
85 183
514 554
327 318
234 10
374 371
86 590
486 224
95 257
252 132
280 301
517 308
530 472
546 519
280 187
185 190
234 118
347 211
1 553
416 287
185 9
50 426
284 554
79 474
490 526
449 365
561 445
337 223
317 403
536 256
111 119
448 516
135 318
176 145
142 519
422 572
513 491
399 204
227 455
340 486
458 208
323 179
179 538
164 242
140 44
528 378
261 550
559 262
479 223
109 99
422 495
374 369
102 99
562 502
351 174
453 484
279 52
458 236
139 568
458 465
258 351
386 355
16 497
306 234
378 81
529 333
434 581
574 527
495 38
126 80
252 357
469 59
403 80
190 54
401 503
473 552
555 162
325 447
212 265
50 197
239 289
515 350
373 324
155 359
33 430
199 537
402 364
422 194
589 447
593 563
87 129
461 27
360 452
532 108
531 323
347 571
552 461
72 393
250 566
521 156
212 396
444 30
452 481
72 222
41 358
537 495
76 197
326 196
552 50
593 212
162 213
474 152
431 72
323 57
370 354
11 135
431 181
315 471
237 123
362 361
263 393
274 103
182 59
42 80
421 495
523 59
359 297
105 343
270 433
138 73
178 376
133 1
493 464
182 152
513 387
451 125
233 392
191 396
187 31
553 468
584 377
304 74
239 292
109 222
569 312
181 578
18 127
536 26
427 245
514 498
499 334
280 172
581 575
75 131
340 328
396 363
61 150
335 133
15 253
122 25
470 9
459 539
111 88
538 223
256 255
516 190
154 548
234 546
159 529
3 196
547 161
560 216
297 501
108 137
435 464
564 571
306 122
19 257
543 267
220 150
377 426
327 367
236 354
44 380
11 454
32 91
514 61
380 356
149 481
231 575
339 499
312 223
490 285
442 314
483 285
381 495
262 214
97 10
182 127
124 576
554 290
19 232
248 323
476 119
229 56
131 593
134 457
83 334
52 587
69 578
430 314
283 467
532 17
329 383
326 451
372 391
205 31
461 188
118 445
227 165
550 356
381 484
358 129
587 144
404 83
423 65
361 435
249 32
401 218
332 550
421 373
471 186
512 526
374 355
347 10
465 520
44 410
320 464
573 73
375 289
308 572
351 132
183 346
145 463
196 34
159 268
328 442
128 415
449 520
500 358
513 266
343 594
232 46
579 224
485 199
423 506
178 561
121 584
125 442
317 33
470 282
73 589
75 104
150 361
102 118
514 353
30 591
99 537
299 436
61 460
1 390
518 267
559 198
380 76
413 155
187 365
580 80
442 529
77 238
1 504
382 492
65 80
359 23
267 124
84 450
511 250
69 307
56 484
392 378
54 148
258 562
328 453
554 53
506 143
591 586
502 378
453 310
230 452
163 214
490 171
446 142
592 384
440 203
145 222
562 229
54 235
569 328
478 381
253 234
389 86
42 580
245 126
442 162
74 275
584 576
263 389
567 229
19 563
550 200
125 450
582 39
532 364
593 247
513 448
582 519
304 129
390 313
503 51
208 441
587 466
371 439
141 526
520 261
191 392
19 214
188 9
272 398
382 479
385 109
54 184
239 218
329 590
318 176
56 457
33 275
193 120
193 385
43 525
566 398
389 334
181 132
463 261
585 208
439 278
17 31
115 195
530 561
265 396
494 302
162 473
303 308
309 200
202 465
258 393
530 72
274 552
80 409
162 135
128 188
474 289
458 300
451 269
98 474
572 460
129 176
267 333
583 335
318 351
236 264
400 124
476 219
313 132
76 341
361 343
391 201
413 496
387 158
359 465
61 220
45 367
546 417
267 314
59 403
373 232
550 404
436 360
544 18
141 139
272 375
596 87
69 222
201 94
3 304
215 528
589 92
94 387
194 73
71 348
222 95
337 50
125 419
559 270
119 54
147 318
369 558
69 183
344 260
593 263
464 142
400 88
350 499
336 99
501 4
380 581
344 327
544 131
311 415
255 375
596 422
505 255
164 274
70 218
217 584
101 241
340 543
400 284
202 138
549 105
164 349
575 134
160 313
317 351
83 589
263 352
318 492
128 198
537 154
201 195
547 81
176 368
578 510
71 107
307 421
353 321
538 595
514 513
587 51
357 196
101 82
482 285
51 275
550 545
500 55
511 115
281 250
257 418
403 65
142 560
4 542
459 167
559 380
416 402
324 307
479 53
252 299
580 543
224 573
543 518
473 158
494 317
562 17
517 507
532 187
187 238
285 417
331 189
424 595
435 400
59 317
582 163
69 536
572 440
416 424
220 580
210 500
239 494
421 31
134 193
190 176
195 551
482 27
440 44
288 525
409 331
577 573
320 259
250 411
15 145
197 324
351 413
141 377
314 328
477 391
33 576
194 423
510 75
494 360
188 251
190 189
171 289
495 237
147 109
408 214
451 507
503 290
278 490
544 221
477 238
229 263
305 593
472 189
566 13
90 305
448 154
184 303
520 34
522 396
157 57
286 79
595 365
555 185
323 72
491 552
122 130
279 557
428 321
389 312
309 447
267 206
569 84
520 150
515 392
37 418
354 238
296 110
51 246
227 346
392 65
325 255
343 333
157 65
47 172
542 330
512 383
532 202
214 226
377 211
379 274
591 400
149 450
545 207
18 470
354 77
184 142
103 160
33 553
577 20
202 557
363 100
265 220
310 63
172 206
522 327
405 356
506 344
172 593
356 107
519 105
60 417
109 308
332 479
25 434
361 464
402 338
277 549
501 158
360 300
414 116
506 148
52 296
573 117
75 34
442 14
490 420
49 300
413 572
440 223
30 371
351 365
475 69
451 519
416 459
113 30
566 562
7 180
325 256
30 207
396 267
8 92
238 593
387 188
303 588
519 315
354 334
541 504
105 282
267 115
280 131
561 342
228 72
404 534
536 528
321 105
248 107
132 203
47 303
419 525
60 328
76 560
352 43
190 580
451 461
10 470
104 470
257 70
496 364
35 568
445 217
561 349
527 433
60 262
359 442
206 473
109 117
460 309
178 126
270 163
540 558
97 87
241 130
530 528
113 383
189 369
564 145
404 442
399 84
90 463
317 227
22 250
198 594
84 349
223 518
60 327
426 517
58 181
594 80
481 135
216 14
346 62
325 147
336 425
110 297
41 44
181 345
310 122
540 373
571 93
422 95
479 20
114 64
115 423
359 500
44 360
587 537
79 430
167 238
235 143
175 223
147 531
396 2
560 129
243 123
81 19
361 329
15 162
504 402
83 441
337 121
490 159
554 528
265 463
9 416
145 423
587 55
257 17
277 20
402 487
270 595
12 261
6 582
426 511
175 72
537 102
82 163
549 314
300 522
414 525
346 337
108 237
341 364
304 335
395 36
163 364
437 273
570 418
514 123
505 182
314 7
591 52
2 555
359 40
266 589
64 3
596 121
354 559
273 25
590 573
135 453
265 328
26 410
36 326
317 163
382 380
272 181
304 57
228 316
254 304
162 587
305 444
562 257
114 198
281 198
409 275
375 71
250 247
481 431
248 539
398 224
541 51
305 19
214 139
60 467
523 311
330 342
470 406
16 336
171 439
302 258
320 469
538 275
520 140
400 291
60 109
280 136
198 416
107 514
18 560
583 356
123 34
202 553
456 272
433 235
525 274
347 442
526 60
272 137
29 516
494 269
336 82
213 159
191 150
542 334
55 169
412 118
208 501
431 285
521 475
266 448
58 8
205 23
392 526
388 497
526 73
342 155
266 335
368 386
276 268
173 342
550 540
276 213
564 58
311 119
543 428
107 306
544 468
532 197
47 85
507 360
56 267
76 576
318 409
449 112
420 141
224 402
595 280
91 532
401 542
218 131
164 213
17 214
396 151
522 20
45 8
76 490
469 573
401 281
583 536
68 401
197 364
277 332
201 397
365 531
390 431
435 57
341 560
587 8
577 264
539 242
152 547
339 191
549 475
410 377
538 201
48 165
551 73
516 390
272 481
543 319
68 171
555 5
579 226
569 589
340 463
42 468
242 469
148 193
594 410
93 428
580 169
269 132
73 7
220 467
7 339
200 263
84 336
549 413
144 200
59 578
171 43
368 325
540 542
543 360
232 193
194 178
366 392
16 80
99 451
297 155
34 250
342 226
45 217
433 443
292 91
497 121
2 230
35 141
29 231
273 275
554 392
575 421
279 206
126 588
98 82
378 372
188 537
169 69
199 397
36 298
349 552
86 446
20 109
596 458
54 427
74 336
414 428
45 162
561 438
143 218
467 219
43 190
274 270
267 388
380 506
107 494
278 414
180 57
25 4
325 433
293 93
509 553
60 519
152 227
436 173
210 274
362 538
140 212
24 181
177 198
24 525
307 528
286 582
487 428
81 233
482 360
61 390
456 82
85 19
248 58
507 36
296 314
349 143
507 220
463 4
571 16
385 50
198 160
493 349
69 156
50 540
570 585
352 174
439 275
218 479
488 481
247 547
524 79
129 225
173 172
172 454
555 386
116 310
529 542
184 464
99 320
258 216
367 151
271 488
554 328
302 393
297 389
237 211
131 595
85 237
444 249
5 548
573 369
357 487
179 405
540 275
349 295
403 409
549 9
89 550
588 119
368 379
151 388
263 289
159 58
207 61
501 163
222 299
56 459
294 343
118 243
110 435
54 236
111 505
310 396
560 91
422 309
547 505
147 154
445 82
55 334
448 589
264 552
533 564
94 314
115 441
126 9
33 83
309 58
233 497
16 89
108 404
368 321
128 446
156 566
451 525
61 312
111 585
129 534
368 313
316 378
552 60
163 303
75 472
119 445
235 199
574 34
26 45
508 180
203 3
183 518
491 298
248 305
438 377
559 310
465 137
206 222
463 578
442 285
158 550
248 205
384 355
375 322
497 301
88 583
30 9
260 222
465 204
482 178
129 446
340 284
516 560
267 573
550 227
354 580
359 55
452 453
115 265
507 239
459 419
453 556
132 130
447 541
137 92
220 134
584 270
241 497
593 475
87 592
361 197
370 250
399 92
541 287
423 339
237 243
203 510
189 391
566 391
389 573
59 219
236 585
588 177
91 130
408 402
125 155
519 301
83 272
463 6
427 159
99 125
214 61
58 495
449 244
369 41
278 508
145 343
458 557
485 360
9 218
408 362
431 508
97 20
36 355
84 116
448 357
166 234
327 233
485 397
349 506
36 366
276 559
180 137
367 312
516 344
514 196
362 125
312 293
214 14
362 29
569 490
529 152
494 164
128 508
178 52
183 296
356 478
371 151
494 424
220 588
62 147
348 402
486 173
153 334
445 113
326 461
314 270
429 441
188 80
314 84
108 13
542 454
436 234
134 596
257 203
110 371
151 316
237 313
484 82
463 477
486 342
239 384
96 224
315 261
213 103
326 530
442 42
347 17
511 111
131 201
397 50
36 315
73 311
105 589
142 145
27 528
316 385
186 530
95 429
256 297
310 191
140 409
224 167
478 506
483 508
189 38
238 139
448 384
44 382
373 438
30 536
483 27
517 592
546 557
426 397
362 430
91 13
495 221
336 415
366 375
511 573
520 537
484 424
507 318
499 332
422 382
562 361
362 405
138 148
397 195
479 251
481 164
263 518
50 413
410 304
227 328
511 321
449 461
140 534
564 576
578 433
562 462
369 101
54 99
225 574
544 190
434 263
137 131
258 245
554 123
473 58
56 555
265 247
116 593
449 383
422 571
325 485
17 538
111 289
379 98
4 579
572 154
291 45
236 525
577 119
326 141
321 349
90 182
521 580
252 223
301 76
533 9
364 182
325 254
313 164
197 70
155 100
265 267
48 140
494 301
242 419
482 511
538 364
294 112
472 426
238 135
424 372
46 447
230 395
303 25
493 207
531 154
276 524
229 300
13 587
272 152
463 184
63 83
573 118
341 580
573 568
530 546
219 397
288 1
304 93
15 39
578 148
581 75
540 429
560 534
510 261
70 230
475 17
176 453
220 102
449 344
313 580
32 463
352 596
222 442
28 63
259 207
167 486
42 313
45 86
14 204
168 503
569 437
447 530
538 356
589 277
404 244
404 34
65 515
413 547
404 358
143 117
131 222
499 110
575 578
265 304
464 384
311 476
41 578
355 512
282 321
194 268
485 431
81 536
117 477
324 415
164 440
9 145
134 417
31 323
231 451
589 121
309 313
364 30
150 107
311 269
379 338
58 529
467 339
60 392
346 117
539 300
163 305
88 102
82 109
112 392
420 421
206 57
402 496
212 244
497 482
382 332
512 339
179 91
289 434
308 502
302 523
242 287
182 562
312 403
192 428
223 72
595 241
471 264
561 121
281 129
547 488
194 540
183 229
179 201
14 577
140 553
40 325
408 505
200 562
105 480
69 74
519 594
251 560
140 214
335 371
141 461
147 360
224 234
78 442
569 447
329 471
250 156
376 208
351 492
140 576
198 334
225 189
151 208
166 110
347 498
187 262
279 207
183 596
415 114
587 117
356 455
326 422
150 275
494 22
188 133
479 206
429 458
428 584
47 546
116 547
89 396
365 488
158 165
322 294
59 372
21 300
47 51
314 565
228 175
526 347
30 571
114 519
524 60
261 524
93 489
109 138
577 201
494 195
86 537
96 111
192 278
436 514
362 201
156 314
582 183
518 555
450 37
530 232
311 458
434 119
573 334
506 231
571 226
417 80
140 401
267 423
103 202
203 8
265 116
315 219
304 225
279 339
227 249
142 327
536 229
68 75
141 213
49 433
370 543
150 92
512 230
25 337
286 88
396 441
217 248
452 182
578 361
388 503
30 439
2 168
249 84
434 15
409 546
247 474
344 323
522 237
379 161
549 540
450 581
564 11
516 447
137 447
207 479
470 461
197 352
300 59
464 239
63 52
184 143
96 500
431 33
433 197
396 551
62 562
138 559
120 334
240 162
415 410
595 20
71 146
181 589
572 549
270 176
564 513
159 276
118 210
211 423
152 16
334 550
39 376
16 320
342 582
372 274
392 489
182 542
459 503
183 214
395 99
60 423
27 137
462 193
452 171
230 267
120 529
595 175
389 503
6 424
494 51
16 372
119 289
565 250
585 426
524 383
214 534
163 464
587 482
545 9
126 476
395 112
376 585
281 75
562 475
552 320
240 101
198 383
452 246
195 243
356 595
370 577
375 223
389 526
287 173
115 230
316 6
402 71
302 107
575 208
188 279
481 374
13 531
32 296
556 88
10 40
196 308
436 51
274 97
323 222
321 157
321 55
96 456
406 18
488 116
497 393
127 25
535 327
239 201
493 529
34 90
497 325
94 123
163 223
214 353
247 555
140 34
58 587
273 125
100 163
282 430
399 197
232 387
206 448
346 78
193 118
336 257
259 460
212 234
173 147
232 228
420 214
553 550
17 6
177 217
168 37
130 86
484 368
223 4
549 531
175 33
519 452
263 116
394 188
252 183
285 275
294 503
125 581
490 59
260 59
288 416
340 89
567 475
274 62
457 489
287 528
164 114
593 523
356 155
329 499
51 292
117 469
180 589
588 189
147 551
578 257
337 403
495 559
587 339
51 48
498 468
362 340
40 44
260 528
450 228
242 269
270 188
493 451
357 30
550 106
534 189
185 585
231 528
373 592
44 305
567 408
528 341
18 171
272 224
44 324
459 345
299 83
511 562
511 561
336 370
330 211
590 409
205 260
369 588
337 518
326 64
182 325
381 137
572 309
143 47
573 53
198 215
511 289
578 430
380 127
288 344
529 280
39 263
414 192
494 27
375 186
520 571
537 59
362 261
581 208
118 566
18 581
426 190
507 13
183 216
368 491
392 380
218 338
455 126
560 522
101 588
499 254
229 521
193 301
312 250
519 316
287 326
529 426
382 358
417 388
88 46
419 389
498 236
587 178
527 38
550 61
543 333
261 209
530 568
102 256
495 215
27 460
547 398
70 206
116 563
152 25
148 218
140 195
309 30
366 355
359 171
175 329
385 154
546 275
82 118
361 571
236 333
372 336
403 58
114 188
402 40
295 377
490 421
125 463
76 262
531 351
423 523
468 195
325 38
293 418
545 261
263 439
297 382
561 316
573 543
251 328
359 546
93 152
177 17
31 570
177 413
246 494
547 552
280 303
496 136
70 562
401 564
357 480
479 519
160 132
173 581
150 546
513 139
267 541
93 543
574 185
591 378
588 31
360 40
112 41
562 271
303 31
461 79
168 97
145 80
125 595
336 543
527 538
329 336
69 591
565 267
452 485
104 170
310 517
93 471
579 465
57 305
430 175
409 452
102 386
178 62
504 436
57 592
45 430
248 351
225 269
354 114
193 316
21 547
52 583
120 548
350 335
234 138
311 266
557 316
350 142
552 503
447 121
422 270
131 260
55 224
390 494
595 588
60 105
194 228
302 372
153 399
341 362
192 163
358 223
77 132
384 461
431 553
140 404
531 543
12 322
268 411
299 328
460 571
19 239
579 486
104 216
385 552
238 219
424 100
225 489
92 561
181 516
239 112
533 225
172 455
481 217
567 183
373 323
56 156
441 265
578 129
397 515
111 296
332 573
483 43
478 348
186 344
411 201
572 232
511 138
314 587
58 388
458 21
530 448
274 392
7 436
50 132
387 318
539 437
73 126
272 256
83 554
568 443
462 257
375 344
90 318
438 2
211 44
415 491
79 516
198 560
50 121
527 362
465 299
326 78
79 285
218 2
534 482
275 382
230 375
499 222
581 19
130 10
120 487
170 478
530 276
49 16
209 571
363 489
588 163
512 7
114 433
142 183
245 256
33 264
227 376
500 456
77 43
565 517
128 491
330 155
499 20
277 219
587 390
536 117
114 470
362 127
86 92
312 522
323 266
108 197
65 452
291 374
127 36
395 596
255 202
524 22
550 171
264 383
426 428
351 305
322 382
14 344
552 281
116 21
494 16
253 546
494 146
133 437
345 342
433 588
556 177
425 143
246 511
200 116
272 161
238 146
337 507
336 33
273 373
36 499
319 346
5 96
453 481
105 299
289 562
454 227
216 573
349 139
463 422
435 21
232 283
17 521
279 562
576 372
160 386
386 473
590 89
311 230
102 387
435 579
236 201
198 335
229 73
278 484
441 267
225 171
290 428
596 115
169 501
250 185
171 145
528 295
522 329
326 62
12 443
323 295
585 238
330 177
13 365
68 282
488 575
350 410
137 79
176 246
546 61
463 341
78 345
15 518
576 526
260 353
255 96
454 16
145 208
497 84
103 337
188 140
11 55
457 246
73 358
70 245
273 538
163 201
536 32
398 109
297 172
42 142
101 501
155 263
348 372
7 60
139 323
67 214
268 483
558 485
426 243
5 84
119 15
317 389
498 334
333 411
583 566
538 205
424 274
98 583
97 448
238 418
335 499
73 181
458 115
310 424
566 229
349 422
185 529
93 372
459 242
595 107
346 385
420 372
538 143
452 132
590 360
140 280
590 282
208 7
9 406
291 125
168 297
1 43
465 336
561 587
229 174
405 40
33 155
84 470
334 356
334 476
34 312
259 358
113 171
277 479
475 237
427 50
269 584
273 362
15 234
82 6
457 582
162 518
44 555
231 159
35 108
217 488
295 375
126 258
359 501
447 449
547 19
15 82
499 183
20 94
4 166
438 128
76 532
455 486
356 101
314 162
20 159
137 283
266 390
454 161
16 215
499 285
209 519
336 419
309 260
370 437
537 56
341 129
364 122
575 365
444 167
169 455
376 358
405 273
454 484
290 186
195 242
294 109
410 227
499 216
99 423
528 173
272 255
43 197
354 463
283 248
75 14
377 194
374 390
397 522
343 584
92 197
410 423
533 474
283 450
201 238
564 337
53 131
100 407
546 300
405 481
207 307
126 276
386 530
67 113
287 286
345 300
113 346
186 560
479 196
418 228
10 397
507 101
407 512
349 567
470 391
53 361
433 571
552 507
326 242
479 128
62 434
318 573
121 393
105 67
202 173
167 425
225 544
219 37
374 149
230 131
560 552
382 223
337 185
505 227
137 332
253 210
536 591
584 159
426 539
371 580
433 594
293 347
12 104
375 229
230 117
509 53
83 429
333 371
288 64
146 294
88 233
187 17
381 521
171 448
98 96
458 202
351 310
50 320
168 41
280 589
163 191
40 556
194 238
579 135
156 166
307 259
16 424
238 370
390 329
517 20
243 85
429 376
367 49
288 269
408 555
135 301
237 256
5 530
11 155
325 16
163 183
553 238
60 4
265 23
485 153
275 222
155 127
163 119
100 240
69 296
114 394
135 158
204 167
404 189
548 124
234 416
245 35
499 511
344 535
250 280
362 89
350 463
346 274
448 596
375 517
410 223
553 585
174 134
532 558
579 359
487 152
555 183
274 420
234 227
358 572
534 472
132 16
469 590
454 512
227 566
224 91
355 78
405 345
33 451
190 117
532 400
334 205
335 536
260 505
441 91
459 16
69 378
196 590
191 540
32 299
368 191
569 549
559 134
539 21
539 147
332 216
2 73
431 3
264 20
400 365
112 148
589 549
170 449
307 558
386 220
109 454
225 343
51 485
93 519
250 168
184 327
533 302
16 300
478 376
224 252
552 429
93 335
524 494
77 189
532 388
595 91
283 72
114 497
200 187
134 352
431 87
314 56
457 544
446 185
6 422
18 268
34 497
512 277
511 132
50 484
268 422
331 232
93 312
418 236
129 186
229 241
427 126
222 453
529 297
72 440
587 402
112 345
116 378
52 81
573 488
340 185
335 545
323 581
308 418
537 513
300 498
189 487
287 424
145 174
550 552
387 139
404 351
11 221
149 150
223 203
254 230
339 87
72 541
370 553
275 157
391 513
295 24
561 336
37 432
431 349
249 505
520 99
555 523
590 40
471 543
274 141
130 107
591 320
326 312
127 554
167 297
60 380
544 191
51 55
153 512
589 424
84 530
567 271
64 386
395 231
391 61
455 272
454 376
279 89
299 371
391 214
54 108
230 523
81 457
435 334
375 584
51 15
476 174
398 495
211 112
224 210
439 341
378 308
343 554
585 416
361 10
239 301
49 93
272 205
211 154
209 91
462 172
558 365
455 444
214 317
378 310
358 69
112 473
190 225
24 362
94 559
545 89
393 261
238 546
243 32
551 335
242 536
174 478
564 114
255 167
150 570
419 155
522 469
578 591
51 360
171 309
251 207
549 226
383 108
337 405
27 465
511 170
148 374
562 28
300 356
147 160
247 232
520 467
478 521
516 34
61 580
84 574
198 217
207 550
154 449
279 455
56 280
178 381
73 131
531 548
82 342
511 458
339 74
541 485
265 230
266 179
399 23
483 77
418 498
40 51
193 593
268 322
133 220
148 386
581 76
540 219
218 379
392 211
421 360
557 304
403 546
354 516
596 589
76 193
6 412
526 311
507 209
140 373
499 97
311 210
223 108
403 272
402 19
459 471
344 465
198 221
45 89
105 93
448 502
522 459
569 44
193 468
433 109
150 437
110 98
180 126
459 312
434 117
574 27
552 293
258 335
431 223
93 327
552 18
570 527
503 268
253 224
509 467
126 2
467 553
409 325
185 181
334 24
428 294
401 35
168 84
224 542
60 115
590 242
367 306
414 259
593 69
92 387
390 270
524 504
509 533
188 135
586 596
49 40
79 290
327 221
84 480
591 85
198 59
503 282
536 222
478 15
51 356
436 71
393 382
136 165
303 52
275 40
246 580
466 162
383 450
46 328
115 589
196 428
404 325
430 61
436 503
352 521
469 360
319 475
299 335
345 539
533 431
190 560
236 208
584 472
485 105
180 279
562 32
247 183
380 575
401 8
490 248
54 464
216 207
137 359
230 423
314 137
279 19
218 53
523 289
82 238
291 262
255 515
299 258
323 177
341 109
292 316
348 213
193 450
259 298
485 436
382 72
303 38
375 451
406 129
369 477
152 205
485 494
155 399
495 316
56 300
346 253
395 425
279 138
490 576
487 596
461 438
590 576
583 68
10 312
425 81
384 519
573 344
427 314
212 61
529 114
182 476
232 472
132 320
264 4
567 165
74 522
306 514
315 287
510 27
158 348
250 195
230 393
197 113
490 225
20 428
45 481
376 258
581 126
505 307
261 512
265 207
96 169
445 484
119 114
292 421
433 470
284 491
404 75
203 167
392 311
484 184
578 517
193 499
430 89
89 220
370 61
120 580
255 456
415 223
569 327
481 245
234 182
340 390
173 98
221 131
461 196
514 282
352 549
44 494
281 572
576 85
274 530
14 112
175 410
137 255
245 431
222 12
448 591
370 398
522 107
146 40
287 351
549 337
482 51
344 141
150 522
516 167
584 176
135 448
539 201
515 347
359 120
61 257
464 207
269 214
12 339
312 430
281 94
495 328
343 449
408 153
405 409
594 217
421 320
476 224
335 354
308 422
468 573
36 375
517 584
377 218
100 292
174 563
135 537
2 160
302 129
74 374
248 272
188 198
594 270
102 228
115 520
340 113
112 20
83 576
77 468
99 542
516 6
263 547
317 147
112 343
165 205
225 185
83 148
284 441
292 380
288 43
522 363
273 438
388 73
513 375
439 426
451 141
468 187
365 487
46 308
497 395
587 434
494 40
564 223
404 329
227 274
238 469
132 239
596 479
524 527
175 361
228 264
192 573
48 524
261 361
370 463
118 572
576 343
487 293
422 155
103 4
33 72
364 25
554 374
287 454
230 211
523 365
140 120
181 497
239 575
397 71
100 430
419 75
47 107
496 297
38 51
275 349
143 199
161 147
273 279
263 535
484 584
69 174
125 507
421 475
121 591
330 17
164 3
511 336
499 410
316 591
224 129
416 367
314 41
596 572
62 211
497 231
360 56
566 263
65 155
62 160
126 59
305 364
333 232
102 590
280 37
565 477
31 481
270 453
521 245
362 2
239 148
24 285
344 571
370 216
206 589
534 583
423 499
335 594
534 176
289 189
16 148
191 208
564 112
508 285
394 364
108 571
282 61
492 588
578 125
573 423
400 184
376 346
82 187
527 145
334 167
423 515
57 178
60 65
43 5
155 175
538 454
477 250
554 146
550 116
416 550
313 321
326 487
234 187
236 500
536 331
496 241
555 30
26 349
556 590
224 142
173 328
584 216
108 514
172 427
481 498
479 495
308 377
119 507
550 347
252 476
196 324
132 584
264 308
554 102
141 543
89 374
110 396
192 160
270 439
547 82
368 267
553 267
350 17
14 284
23 256
58 539
410 470
129 43
137 493
381 393
112 398
174 50
223 145
27 285
543 77
365 244
207 224
208 547
347 463
306 421
566 502
141 159
33 528
136 559
284 89
103 399
262 237
437 134
521 591
222 574
153 120
339 401
60 350
341 433
183 237
550 511
13 135
7 134
303 28
436 494
298 322
475 551
196 112
266 540
185 318
290 97
591 596
482 85
147 354
523 116
416 310
46 194
594 451
101 90
107 86
303 548
1 498
366 320
51 266
159 317
1 73
9 347
54 2
417 185
575 82
122 287
542 169
21 261
206 588
490 501
369 13
135 442
343 331
105 573
50 211
232 299
336 12
102 291
404 373
108 171
391 139
29 63
144 126
373 346
329 197
320 524
234 547
150 117
405 79
476 142
128 353
307 392
161 579
573 245
383 312
146 395
117 227
215 594
190 354
153 255
440 569
16 147
138 177
188 73
533 283
45 159
262 130
24 202
503 104
487 295
210 517
102 113
255 169
190 309
193 83
45 53
287 311
5 336
454 435
101 194
423 519
133 569
483 468
194 181
158 110
61 336
206 290
63 371
120 507
270 519
412 82
503 493
19 263
328 135
360 541
95 587
225 577
110 168
321 262
574 493
594 175
374 229
57 448
368 261
263 242
179 10
77 331
61 361
453 569
523 594
146 376
485 579
511 83
361 149
126 219
137 159
182 224
190 358
213 466
355 215
332 20
2 545
105 102
197 561
184 222
47 522
443 408
520 312
7 500
368 42
1 402
308 384
485 491
8 27
36 254
343 528
59 556
201 194
128 12
395 464
102 525
583 550
463 42
553 516
370 257
288 76
521 589
448 101
544 495
372 148
83 548
293 453
499 404
363 155
589 482
100 57
545 439
536 307
5 465
369 179
138 455
147 32
563 289
388 316
195 219
424 122
194 537
346 147
336 434
433 36
4 538
303 400
230 555
522 435
494 527
46 67
110 173
78 310
360 522
403 190
193 262
109 262
482 135
583 4
92 257
128 105
537 407
177 595
172 65
372 264
472 387
204 593
122 326
457 131
356 365
93 350
444 459
390 590
85 593
244 425
359 93
383 61
