Vertices 85
4 "#7"
6 "#10"
46 "#21"
83 "#39"
59 "#0"
19 "#31"
28 "#60"
44 "#75"
14 "#68"
62 "#29"
75 "#77"
52 "#27"
12 "#11"
3 "#19"
72 "#64"
33 "#56"
63 "#70"
66 "#45"
84 "#76"
78 "#82"
77 "#62"
82 "#30"
5 "#26"
38 "#13"
76 "#50"
18 "#6"
7 "#1"
43 "#34"
70 "#52"
24 "#47"
40 "#37"
74 "#43"
22 "#17"
60 "#83"
48 "#58"
34 "#32"
50 "#44"
73 "#53"
27 "#74"
79 "#9"
45 "#46"
39 "#25"
41 "#3"
57 "#66"
2 "#63"
8 "#22"
37 "#33"
42 "#55"
30 "#40"
25 "#38"
81 "#51"
69 "#72"
71 "#36"
51 "#78"
58 "#16"
85 "#73"
13 "#79"
65 "#67"
64 "#65"
61 "#59"
9 "#4"
16 "#12"
56 "#69"
68 "#48"
29 "#15"
31 "#24"
49 "#14"
47 "#20"
80 "#2"
36 "#84"
55 "#23"
67 "#8"
32 "#41"
21 "#18"
54 "#57"
1 "#61"
26 "#49"
23 "#5"
15 "#28"
10 "#81"
35 "#35"
20 "#80"
11 "#54"
53 "#71"
17 "#42"
Edges
30 47
11 74
69 10
59 51
51 80
4 26
26 50
26 63
58 65
30 55
76 34
62 34
42 62
39 20
70 62
31 55
76 30
18 74
78 2
45 70
75 53
73 61
62 29
13 45
81 8
61 1
4 61
10 57
13 75
80 19
9 65
13 5
72 83
65 29
22 21
34 17
50 57
10 75
28 55
35 3
27 25
16 57
46 21
54 64
48 4
20 51
85 17
40 9
84 83
26 83
77 35
53 84
1 43
55 2
20 5
23 41
66 76
41 67
1 79
27 8
8 19
31 37
39 18
27 53
33 29
69 66
19 73
32 70
61 26
22 83
65 79
19 67
51 10
68 82
29 47
66 68
72 21
17 39
24 28
80 5
80 37
12 41
22 81
66 78
61 70
16 71
56 84
5 74
19 43
8 37
57 71
44 63
5 33
78 36
7 9
78 51
63 84
71 25
15 40
33 67
20 75
2 23
13 36
28 34
21 66
48 75
81 64
65 40
10 50
54 2
37 9
10 60
18 66
33 26
6 84
44 45
30 62
44 26
40 39
75 60
25 11
73 39
41 52
17 15
52 21
9 29
77 56
69 67
46 32
22 15
71 15
69 15
19 72
76 42
80 33
70 46
15 81
34 68
9 1
33 68
61 83
70 30
24 68
76 70
3 81
43 35
52 5
49 77
35 33
82 34
8 15
57 48
38 11
59 25
20 10
19 79
61 14
22 18
69 85
78 10
65 1
50 45
26 69
38 83
10 66
83 63
40 3
21 83
43 34
40 81
53 70
57 25
64 2
57 83
30 42
28 82
3 43
16 54
66 83
39 57
27 69
84 4
10 53
48 16
20 13
72 32
67 23
30 46
11 59
11 70
80 35
24 82
33 24
69 44
42 32
44 85
70 42
67 7
19 7
40 64
47 55
19 5
68 69
51 36
15 3
71 24
70 85
15 67
63 53
16 4
54 48
52 15
6 64
19 32
10 42
65 7
63 27
23 7
2 19
74 21
81 71
83 74
34 72
3 8
27 85
17 16
43 80
8 40
18 16
36 10
79 31
6 61
50 16
68 5
36 60
65 31
71 82
11 55
75 50
30 5
63 15
33 79
84 27
83 33
53 69
64 29
23 30
41 6
8 53
57 42
70 23
79 37
83 25
69 63
68 71
71 22
42 46
73 17
69 84
14 43
84 61
23 22
29 40
73 34
6 55
28 6
11 30
80 3
18 21
41 7
46 11
45 11
24 34
61 19
66 62
63 85
79 7
4 2
51 13
30 61
36 75
35 79
66 22
44 53
3 37
44 84
73 46
18 5
48 26
25 74
62 47
12 72
19 41
13 60
33 19
74 66
2 67
43 9
75 51
47 11
14 1
64 61
30 32
15 27
23 79
42 13
40 73
20 78
24 35
73 43
43 61
51 60
22 74
2 28
61 48
24 78
42 48
79 82
75 42
13 10
55 46
53 85
23 61
67 79
72 46
76 62
48 13
50 54
5 46
72 38
80 52
83 18
6 2
4 50
57 75
1 37
20 45
5 21
78 68
20 60
2 7
34 71
84 45
84 85
5 11
78 75
61 22
15 41
26 85
4 54
62 68
33 65
