Vertices 334
176 "#104"
208 "#282"
327 "#111"
83 "#193"
233 "#243"
121 "#232"
162 "#46"
22 "#39"
268 "#114"
153 "#76"
249 "#140"
102 "#86"
228 "#63"
96 "#82"
90 "#258"
50 "#172"
20 "#299"
223 "#162"
247 "#268"
41 "#144"
14 "#211"
120 "#191"
182 "#332"
244 "#93"
18 "#265"
65 "#183"
161 "#143"
124 "#157"
189 "#290"
257 "#115"
261 "#280"
85 "#170"
178 "#326"
143 "#316"
133 "#149"
152 "#207"
10 "#32"
197 "#302"
160 "#55"
13 "#165"
136 "#262"
87 "#289"
134 "#28"
129 "#291"
204 "#305"
155 "#3"
306 "#9"
147 "#87"
241 "#136"
203 "#26"
93 "#4"
296 "#293"
165 "#137"
91 "#13"
184 "#164"
251 "#53"
331 "#92"
128 "#215"
76 "#36"
255 "#128"
192 "#222"
119 "#71"
246 "#184"
100 "#133"
278 "#125"
332 "#270"
180 "#248"
240 "#252"
260 "#320"
220 "#234"
137 "#19"
56 "#325"
97 "#47"
234 "#197"
302 "#224"
26 "#59"
190 "#89"
23 "#199"
273 "#236"
151 "#219"
47 "#51"
19 "#148"
132 "#225"
333 "#107"
148 "#85"
187 "#182"
37 "#230"
183 "#30"
265 "#91"
196 "#21"
318 "#238"
46 "#103"
212 "#227"
326 "#38"
205 "#129"
6 "#29"
303 "#175"
79 "#66"
186 "#35"
316 "#147"
222 "#43"
123 "#214"
89 "#60"
95 "#154"
88 "#11"
73 "#49"
69 "#34"
263 "#244"
27 "#153"
277 "#79"
118 "#18"
111 "#250"
114 "#121"
33 "#311"
194 "#330"
227 "#310"
170 "#220"
314 "#8"
283 "#206"
31 "#287"
29 "#198"
173 "#300"
144 "#253"
43 "#295"
4 "#160"
167 "#62"
2 "#318"
301 "#163"
267 "#119"
200 "#20"
126 "#202"
238 "#254"
188 "#323"
16 "#242"
206 "#44"
101 "#187"
286 "#97"
328 "#256"
213 "#90"
44 "#169"
32 "#10"
5 "#96"
325 "#251"
266 "#142"
175 "#25"
308 "#329"
226 "#130"
149 "#88"
169 "#110"
77 "#58"
166 "#283"
71 "#77"
164 "#333"
103 "#217"
68 "#200"
99 "#41"
55 "#321"
11 "#6"
259 "#145"
319 "#331"
193 "#124"
115 "#27"
295 "#78"
279 "#159"
231 "#271"
53 "#102"
293 "#156"
310 "#173"
171 "#297"
122 "#1"
185 "#116"
36 "#231"
248 "#286"
334 "#306"
287 "#245"
74 "#204"
145 "#168"
216 "#174"
191 "#216"
82 "#246"
299 "#127"
218 "#278"
323 "#72"
156 "#117"
221 "#7"
7 "#0"
42 "#259"
28 "#166"
163 "#272"
108 "#247"
210 "#266"
141 "#81"
245 "#14"
290 "#179"
225 "#213"
284 "#294"
61 "#151"
48 "#218"
38 "#185"
94 "#171"
57 "#167"
304 "#146"
110 "#322"
98 "#69"
237 "#152"
66 "#298"
199 "#31"
280 "#178"
113 "#309"
262 "#65"
81 "#285"
80 "#61"
294 "#226"
201 "#40"
72 "#106"
181 "#264"
39 "#228"
232 "#276"
324 "#95"
239 "#75"
54 "#22"
8 "#269"
202 "#195"
291 "#235"
138 "#237"
52 "#120"
224 "#139"
157 "#131"
282 "#70"
127 "#273"
21 "#209"
131 "#113"
276 "#24"
142 "#317"
274 "#94"
146 "#118"
309 "#101"
58 "#2"
107 "#37"
264 "#307"
49 "#288"
305 "#281"
258 "#210"
254 "#275"
250 "#33"
288 "#229"
177 "#16"
320 "#138"
105 "#308"
271 "#324"
64 "#108"
322 "#188"
330 "#267"
158 "#54"
40 "#196"
106 "#23"
198 "#123"
297 "#319"
117 "#223"
312 "#100"
24 "#208"
150 "#42"
59 "#192"
109 "#190"
252 "#328"
256 "#240"
174 "#122"
285 "#67"
298 "#303"
317 "#212"
139 "#201"
3 "#181"
9 "#180"
329 "#261"
313 "#260"
321 "#249"
116 "#279"
275 "#158"
179 "#263"
195 "#161"
235 "#257"
86 "#177"
214 "#313"
229 "#84"
140 "#68"
112 "#277"
281 "#304"
230 "#312"
51 "#233"
236 "#112"
30 "#98"
125 "#241"
12 "#221"
60 "#5"
219 "#296"
243 "#126"
63 "#64"
215 "#45"
35 "#315"
242 "#73"
75 "#327"
45 "#15"
34 "#83"
104 "#176"
159 "#186"
17 "#80"
168 "#301"
84 "#74"
289 "#155"
172 "#57"
311 "#135"
292 "#141"
25 "#132"
270 "#134"
1 "#314"
211 "#292"
217 "#189"
269 "#203"
300 "#284"
70 "#274"
62 "#48"
67 "#12"
272 "#150"
253 "#194"
78 "#52"
92 "#105"
154 "#255"
135 "#239"
130 "#56"
207 "#99"
15 "#50"
209 "#205"
315 "#109"
307 "#17"
Edges
138 220
144 128
163 210
204 290
244 65
179 329
248 305
180 321
191 123
8 105
113 263
114 215
168 50
258 16
124 111
13 275
219 25
38 3
101 113
280 65
269 268
300 27
93 147
14 117
285 133
196 250
202 291
284 225
289 8
149 131
68 180
78 187
68 85
235 311
208 43
328 12
94 126
43 300
35 132
74 300
42 210
230 110
109 29
68 217
116 31
329 136
234 202
173 241
28 73
291 116
284 66
37 192
135 16
182 252
270 295
231 144
84 145
75 59
81 310
333 92
17 175
51 234
296 113
129 237
320 197
265 178
220 269
271 319
3 291
334 142
328 240
95 246
129 211
159 38
210 322
266 272
304 132
141 57
140 69
13 44
49 296
121 27
218 248
310 9
197 20
327 291
117 192
320 29
123 100
247 141
233 286
173 66
10 285
30 312
214 182
21 12
324 5
81 197
120 74
3 18
94 220
246 86
25 205
289 120
176 85
260 230
142 1
180 109
50 319
210 313
149 265
266 249
9 84
332 151
27 327
234 318
4 145
121 180
25 100
133 253
12 152
172 262
19 82
135 36
67 40
286 277
280 29
214 164
99 225
312 311
230 301
121 168
20 66
231 57
43 105
308 135
82 48
303 208
289 57
21 151
176 83
38 44
35 256
231 166
104 44
331 147
149 100
120 305
3 198
215 157
129 230
241 310
248 212
174 292
22 109
238 328
187 9
94 166
28 303
284 232
112 211
49 144
105 237
211 197
314 72
209 198
209 135
290 161
55 61
134 265
176 295
230 182
124 135
92 21
3 246
133 107
227 319
128 253
21 202
65 310
107 57
331 149
14 268
218 300
132 210
166 171
218 296
162 78
302 170
203 253
291 310
209 91
35 33
278 293
46 309
240 100
4 170
319 204
180 82
301 191
14 99
67 287
269 109
133 218
261 202
163 330
90 181
124 267
218 129
123 212
268 48
151 258
159 74
20 31
105 35
218 123
290 44
223 266
25 316
166 87
168 171
226 255
299 210
226 205
120 154
205 165
199 203
324 205
326 265
170 46
294 197
219 166
161 233
13 300
308 310
170 287
183 62
277 33
2 151
244 57
318 287
123 82
39 37
135 108
111 70
199 320
101 216
180 23
180 156
139 18
81 20
329 144
174 267
224 165
140 57
23 251
128 68
172 268
318 263
231 299
133 23
111 231
308 247
210 101
318 138
141 36
73 26
16 288
240 127
123 157
220 329
230 271
299 192
131 89
189 332
229 141
108 277
20 261
305 219
59 278
10 15
155 226
126 325
5 246
148 244
159 204
240 218
67 76
315 19
300 151
320 16
200 45
196 41
138 16
296 9
257 154
296 189
288 280
294 225
136 144
13 105
66 254
94 195
328 325
124 145
302 293
18 161
202 129
268 257
332 313
18 194
254 212
244 176
128 152
167 52
311 261
142 260
103 151
133 56
43 277
87 208
19 18
39 291
288 180
171 49
3 159
265 258
204 83
312 39
18 64
173 171
133 237
49 232
265 136
246 9
203 217
143 264
223 142
205 33
233 108
270 299
230 35
297 334
121 224
50 185
283 310
59 217
225 302
151 264
126 50
270 117
224 241
24 151
139 269
259 50
68 40
261 132
184 288
229 207
32 262
34 295
220 300
71 295
2 121
121 327
195 280
88 50
285 213
182 308
94 91
145 328
255 333
12 146
166 112
159 172
138 173
315 35
174 35
220 135
40 329
4 25
206 73
110 1
334 178
171 219
228 147
329 1
184 163
191 258
19 235
284 305
265 190
266 102
191 327
11 118
334 56
265 252
167 133
282 134
173 223
195 172
113 174
308 260
37 16
23 226
28 13
57 125
132 298
121 51
20 43
11 215
46 86
292 105
113 264
82 36
21 108
11 307
233 44
166 43
55 252
305 296
216 141
35 188
287 59
144 156
136 81
22 11
282 119
51 101
157 302
197 254
28 78
325 202
204 209
310 66
176 257
171 248
288 111
37 233
223 111
215 222
284 277
311 90
333 130
219 208
66 305
28 195
217 9
263 144
304 256
231 132
155 28
20 173
224 226
71 79
49 204
323 84
35 1
334 230
82 178
25 325
306 199
59 61
34 141
181 332
50 244
258 237
44 144
292 325
237 152
216 78
212 125
209 64
219 33
117 43
33 8
314 289
273 217
49 43
198 257
313 56
290 307
304 330
144 179
220 202
224 1
271 144
205 195
332 329
178 298
59 202
94 4
191 283
178 308
23 265
301 269
91 158
41 258
52 267
211 83
253 216
10 149
273 225
3 64
157 299
62 148
329 181
37 49
292 161
90 179
294 215
142 87
38 179
49 197
141 285
66 31
334 252
87 261
180 267
64 154
235 322
125 233
138 216
120 114
237 39
35 56
325 42
205 63
143 33
67 272
297 308
85 216
300 117
259 41
18 100
81 261
304 66
197 117
179 332
237 61
151 128
65 10
278 174
318 65
108 263
89 32
95 184
124 195
212 263
40 101
313 240
174 28
114 84
109 68
65 46
62 203
220 82
56 252
247 181
310 271
193 273
51 287
260 105
192 55
50 97
41 35
28 308
180 233
261 49
261 310
188 113
256 2
161 237
211 168
112 43
303 48
170 151
292 27
237 316
113 308
242 241
334 39
55 263
188 1
103 191
74 83
17 148
179 325
14 278
250 133
266 133
319 143
237 74
29 220
151 90
167 145
42 111
101 292
182 298
202 248
103 193
23 209
44 301
254 248
283 308
287 288
202 180
254 232
131 34
225 12
142 182
113 211
51 210
154 311
223 193
287 325
293 55
192 123
208 81
44 220
315 216
266 329
317 278
233 273
234 68
170 14
209 280
129 43
291 37
226 65
333 236
312 266
107 54
129 121
273 291
139 116
322 59
139 58
33 252
164 299
264 65
84 278
317 129
324 145
333 91
330 123
118 215
308 110
42 50
303 104
107 45
82 138
230 66
127 238
27 61
143 302
269 235
293 27
116 296
67 22
12 191
241 169
127 103
169 327
132 166
320 189
105 126
55 330
35 55
230 159
313 310
184 133
44 161
199 109
219 218
143 173
16 291
64 38
103 313
296 12
277 17
187 3
174 154
318 42
165 50
125 192
81 248
1 308
71 206
189 110
230 266
270 255
162 158
308 143
201 78
305 328
19 330
284 82
175 251
108 280
333 89
218 111
100 293
113 288
24 64
219 197
203 89
21 117
116 219
191 192
31 112
123 24
29 279
198 146
247 313
23 184
325 51
290 144
303 199
235 81
127 181
94 159
165 131
231 240
85 334
77 174
181 136
182 113
242 243
154 328
194 252
1 334
120 139
47 134
139 104
47 104
203 333
219 132
297 230
90 260
212 174
186 167
220 171
33 95
300 50
320 103
61 20
151 241
151 132
319 230
232 189
233 171
216 270
331 22
135 283
158 131
148 93
85 154
94 328
121 313
25 320
4 154
260 319
77 266
172 221
154 182
95 76
332 233
20 305
100 43
271 48
10 133
164 264
279 57
159 95
29 192
181 8
124 72
117 294
14 283
316 180
241 144
63 272
189 318
326 243
64 310
16 253
322 246
30 309
222 11
14 59
232 124
120 234
263 220
50 104
284 261
2 310
2 48
277 141
127 90
203 268
158 106
202 212
204 56
234 103
260 110
12 132
269 49
116 246
1 230
325 70
41 281
114 242
170 24
170 216
27 133
112 182
317 218
169 92
145 57
31 75
20 49
170 29
302 123
174 32
293 301
152 242
205 100
85 143
286 46
292 257
180 246
32 124
211 16
309 242
322 185
265 182
40 112
29 83
72 221
92 45
55 2
224 237
152 44
224 291
132 94
173 194
311 100
70 240
334 321
114 255
26 147
268 301
20 208
110 143
274 331
51 49
214 174
224 321
247 217
100 320
37 64
120 28
55 284
45 285
109 255
82 235
8 179
206 172
176 333
59 253
283 209
74 27
272 237
195 19
121 193
141 79
302 192
156 198
284 171
195 215
301 199
291 256
279 311
75 211
105 57
284 116
103 317
220 137
199 26
267 243
190 34
142 264
158 215
177 272
179 248
53 46
322 126
37 44
279 49
303 85
152 208
253 85
151 50
3 45
239 118
53 241
112 142
70 235
143 81
4 293
260 271
82 135
81 296
305 43
230 216
44 225
48 233
18 70
13 19
159 28
184 280
72 236
214 281
142 55
220 313
21 320
139 209
333 115
123 194
64 51
21 75
259 65
105 297
290 129
176 68
126 253
236 98
325 223
240 265
184 145
75 36
152 192
293 132
235 298
136 154
298 39
275 4
230 223
68 149
230 227
195 26
135 287
209 82
208 290
275 184
143 105
151 154
212 273
44 177
3 55
109 160
33 240
41 161
241 21
316 231
20 112
308 9
56 100
297 256
283 189
290 273
18 163
184 293
138 217
211 87
204 110
178 1
324 30
37 287
194 185
95 121
279 273
164 2
304 161
172 59
313 4
16 230
311 205
132 253
109 311
189 284
194 226
37 263
73 34
144 197
320 224
219 290
156 259
186 306
322 139
1 49
227 214
129 112
210 154
289 165
184 151
313 320
33 227
222 147
204 57
96 62
102 331
30 242
269 59
317 283
157 311
194 204
194 182
132 86
259 31
313 258
185 286
25 31
31 171
311 243
236 255
266 222
236 290
290 49
258 293
176 9
82 39
139 95
57 84
72 21
197 116
234 40
174 8
258 334
294 144
332 136
128 283
19 298
259 266
193 13
166 254
275 78
314 306
168 189
44 276
136 111
288 231
28 88
59 126
129 300
281 1
171 181
48 123
48 241
297 214
124 211
256 220
127 25
281 319
91 63
111 290
165 290
34 94
194 233
257 146
240 235
218 127
219 281
249 272
334 110
164 178
310 85
103 302
322 242
329 267
31 43
209 234
255 325
14 21
9 305
242 321
275 123
307 275
303 310
160 285
120 95
239 73
272 19
231 332
210 328
74 163
24 21
33 126
278 128
12 279
100 2
100 195
3 317
292 202
39 100
293 207
289 95
66 300
326 147
131 64
47 114
103 110
238 329
29 318
264 303
70 247
247 144
116 261
232 218
145 288
191 220
252 227
208 31
260 283
123 258
26 201
31 305
135 321
261 168
128 2
176 109
149 244
260 123
174 269
221 26
286 192
197 284
21 283
217 23
281 178
224 287
31 315
3 16
118 203
252 110
318 288
223 164
165 226
189 142
219 168
248 189
166 136
222 213
69 186
73 282
65 253
160 324
303 209
137 78
325 269
292 20
14 154
3 163
203 151
294 258
289 281
203 269
109 139
50 195
311 232
132 257
208 168
255 100
254 144
68 220
82 288
82 281
34 44
32 72
24 253
13 238
45 30
170 246
197 141
89 278
269 180
5 285
41 276
64 263
266 32
41 84
240 275
154 144
43 211
35 223
157 322
190 149
37 188
218 116
190 102
273 108
286 229
251 10
37 299
289 123
149 102
330 133
329 328
75 163
218 95
301 250
238 259
126 279
225 317
63 10
116 133
126 109
163 299
57 290
217 253
275 154
222 169
133 286
129 225
253 265
38 47
104 3
59 168
90 267
109 166
314 45
12 28
264 13
111 154
5 148
64 126
72 57
166 319
203 243
214 103
144 173
315 134
284 110
280 309
311 25
68 204
269 124
48 223
322 21
308 277
301 13
21 35
76 276
146 144
293 195
184 40
185 124
260 334
94 238
318 290
64 268
163 40
326 76
200 158
112 111
24 103
113 111
249 277
210 24
130 199
171 238
50 181
66 261
18 287
286 309
301 28
190 193
317 21
248 43
310 216
83 269
198 114
174 189
209 83
13 103
196 161
138 270
120 124
100 27
261 248
73 203
274 5
36 39
136 85
81 257
115 58
330 127
93 250
91 73
132 170
16 321
38 280
35 298
246 240
270 69
155 57
141 148
227 18
173 31
322 106
332 70
159 42
50 75
210 286
319 13
301 215
116 156
224 311
259 42
226 192
44 82
166 20
107 25
322 83
39 277
232 171
265 304
23 120
120 109
81 111
217 321
47 262
141 287
50 33
84 293
16 318
75 252
332 46
122 44
121 159
109 40
284 219
55 189
131 236
232 317
89 97
259 161
145 197
158 114
59 29
313 48
319 212
211 59
288 253
212 288
121 125
246 56
298 55
284 129
164 126
327 284
38 334
215 226
214 55
252 135
315 56
236 327
174 74
202 40
263 303
313 277
90 325
12 123
30 98
37 220
2 288
19 27
205 269
39 35
12 268
55 280
99 201
43 284
66 232
140 124
265 124
68 23
130 25
137 289
325 41
238 83
261 100
262 107
18 210
139 234
300 291
298 214
36 279
5 30
4 76
40 83
101 14
25 270
243 100
199 122
168 8
1 55
124 275
287 180
255 276
141 323
90 154
270 276
311 191
254 288
22 63
2 132
296 171
23 29
193 133
27 272
256 125
308 4
44 111
128 103
278 311
159 238
217 241
64 177
292 273
280 14
324 103
288 144
291 197
89 316
193 272
105 110
46 8
242 150
174 314
136 247
187 258
98 72
231 235
118 307
254 279
74 176
269 209
327 149
312 186
112 219
241 166
220 180
294 35
313 256
174 325
109 322
125 189
279 318
155 303
297 271
97 146
51 126
46 231
105 232
333 268
287 216
269 248
260 214
124 13
101 126
333 177
217 234
31 328
190 76
296 300
185 257
211 68
321 48
257 6
313 212
4 49
63 99
187 95
19 25
92 176
270 165
275 156
56 297
249 67
2 123
205 251
267 185
310 251
218 208
50 279
274 324
85 180
248 112
227 178
307 244
154 330
224 32
230 164
264 182
143 185
85 219
247 105
20 209
268 119
28 154
87 300
192 249
219 254
263 39
33 101
328 128
237 181
315 110
185 198
259 290
105 56
330 191
189 315
45 93
109 209
40 217
29 101
162 239
207 286
243 250
156 278
270 193
75 110
303 35
260 322
56 180
103 205
298 305
332 277
168 300
82 219
329 211
61 101
83 159
11 175
136 8
25 190
3 135
311 57
132 66
1 297
59 65
241 76
280 272
17 77
305 188
115 17
211 248
236 92
309 5
163 179
155 276
23 74
259 100
44 275
235 328
246 105
83 155
252 281
272 133
20 329
90 123
194 334
332 128
291 27
14 225
65 169
40 90
267 6
230 3
184 20
216 38
114 146
38 86
83 197
225 152
304 41
128 268
321 288
95 270
172 289
264 230
101 50
18 136
314 244
301 91
288 121
210 145
182 164
90 247
330 253
276 314
325 238
113 44
128 294
250 293
243 73
74 29
236 276
141 28
75 258
108 28
159 314
104 189
56 59
79 206
145 44
86 145
299 181
223 330
53 312
49 218
112 110
10 213
145 189
22 41
100 97
137 47
285 257
3 298
31 248
34 25
268 76
170 318
292 84
311 269
9 198
189 171
192 95
299 224
137 186
216 50
312 286
1 227
256 101
266 43
4 210
265 35
249 136
45 130
252 298
288 27
292 137
28 283
87 33
182 75
265 110
132 50
320 195
269 321
235 291
201 6
227 59
280 22
13 173
232 237
41 27
188 33
78 222
190 205
36 273
264 214
104 160
304 174
50 65
178 188
313 132
302 152
187 159
91 266
179 269
225 20
104 187
94 216
50 2
14 152
211 171
330 220
211 166
85 163
71 77
126 185
131 198
131 320
232 219
298 56
18 154
227 297
210 291
283 303
280 61
233 19
44 28
111 152
85 190
117 317
136 290
25 131
278 103
197 209
53 286
318 283
186 46
240 269
184 225
317 40
334 298
135 39
210 296
231 161
64 72
289 191
215 241
312 78
319 141
144 8
126 259
47 54
50 256
91 16
280 310
104 240
230 204
179 210
164 188
281 33
35 31
292 295
173 293
212 37
196 118
68 116
120 253
225 322
216 247
266 237
56 260
271 2
43 121
305 208
298 105
305 189
247 240
265 147
197 227
282 32
321 159
84 198
90 210
249 27
197 66
124 88
88 123
163 8
253 109
305 112
86 311
279 95
77 86
106 89
199 141
256 174
334 214
75 33
173 218
154 181
74 209
8 328
24 258
170 315
159 72
289 308
100 78
266 41
133 161
83 123
225 168
35 18
181 163
204 260
258 121
221 206
54 32
293 21
142 297
143 297
195 315
305 156
302 283
60 78
309 22
244 277
178 194
142 204
150 251
107 285
212 163
22 65
154 247
256 36
328 40
178 120
163 329
261 57
83 232
65 272
311 310
278 81
65 4
125 214
274 309
246 128
297 211
35 227
208 129
188 194
114 267
111 3
193 114
296 211
123 21
145 13
137 58
151 34
294 152
251 162
164 105
57 293
160 327
285 177
54 134
28 247
108 121
31 218
144 21
247 94
18 329
204 121
279 151
203 222
189 8
153 162
90 275
38 303
4 3
4 209
90 57
174 39
164 68
247 139
83 253
136 269
278 51
48 84
233 121
332 330
327 132
303 47
52 174
325 181
252 105
39 292
35 143
157 255
320 258
241 270
58 69
60 314
34 225
315 209
238 283
290 3
168 49
99 196
130 73
104 70
124 83
235 18
293 289
134 115
145 59
40 209
114 6
174 184
325 218
27 174
87 49
75 319
224 55
15 160
287 253
224 100
238 231
197 87
12 128
24 316
302 315
52 193
120 290
193 255
92 9
194 1
292 249
292 205
70 154
198 216
32 98
132 156
132 317
64 136
139 13
219 129
250 169
36 287
184 195
196 63
115 203
149 226
164 334
293 231
312 10
168 232
135 44
205 22
263 321
172 279
72 242
123 20
248 301
252 127
132 321
254 214
192 48
36 142
260 33
117 302
134 78
113 204
104 12
271 264
319 2
296 208
133 102
300 35
241 165
136 240
3 326
9 38
174 99
288 12
286 84
284 304
111 90
117 185
254 112
174 253
276 286
100 29
318 136
182 143
87 51
57 28
68 31
330 14
314 98
201 15
83 126
103 189
295 229
111 127
135 208
40 322
237 256
173 116
124 57
86 280
90 8
114 289
185 308
108 195
330 214
209 255
231 313
328 142
43 197
33 14
303 57
178 252
280 330
28 307
297 204
46 276
314 199
217 49
59 209
210 255
152 68
17 203
270 121
80 250
174 13
266 171
220 36
228 89
258 28
301 124
13 249
43 178
253 18
240 65
157 103
164 317
329 85
327 134
121 39
224 56
260 252
318 273
22 155
20 168
318 261
234 29
44 294
22 73
29 255
27 161
239 323
288 263
43 2
24 128
210 70
312 249
101 109
109 13
230 75
77 67
90 269
269 152
191 325
260 100
26 60
141 313
127 171
243 190
248 214
18 303
29 40
139 23
284 208
204 182
302 151
314 293
216 227
231 90
51 313
237 65
58 205
27 230
290 191
280 31
21 252
36 108
305 25
315 20
254 208
284 49
219 266
218 302
47 307
17 122
55 230
101 83
225 124
166 61
195 185
125 8
82 37
195 182
3 320
86 329
230 197
320 68
37 329
16 72
270 38
10 190
239 153
238 28
1 252
290 14
228 60
152 83
205 266
119 242
96 229
295 278
310 246
145 231
192 170
128 132
319 182
73 268
189 66
5 99
292 210
126 128
151 12
90 238
133 196
263 19
193 292
185 238
121 291
215 180
164 142
38 191
216 3
129 49
83 8
108 287
279 71
117 170
56 33
301 315
77 172
87 145
121 37
103 12
144 291
161 220
44 208
59 138
49 247
133 240
25 247
58 104
238 303
18 125
159 281
320 253
49 112
120 101
332 178
252 2
159 276
101 139
97 224
32 243
180 128
33 334
151 214
161 273
235 308
159 49
209 318
297 75
202 317
224 136
203 285
126 159
16 121
126 160
203 21
141 108
23 202
246 65
241 95
70 127
291 263
56 263
112 269
334 143
70 180
40 136
172 28
264 35
55 164
281 142
290 163
82 33
330 329
133 1
13 76
332 90
104 310
126 268
291 232
61 19
80 285
144 90
314 130
316 210
143 108
253 284
5 185
288 51
253 209
284 254
149 158
232 116
253 180
111 8
144 141
188 217
142 188
143 1
151 100
281 110
178 181
137 217
124 184
237 19
114 141
199 68
76 79
321 292
246 210
38 65
241 152
273 138
141 83
287 264
27 254
48 225
2 142
316 78
170 103
2 297
25 295
254 49
71 85
334 226
254 261
300 121
124 276
223 28
94 290
143 281
35 310
166 121
107 47
85 148
322 141
18 68
266 19
171 257
74 233
9 37
238 330
121 29
281 320
232 258
270 99
255 158
278 38
269 101
34 291
267 176
124 27
159 288
94 86
117 227
105 112
224 41
128 291
316 292
252 322
170 42
271 328
310 149
269 258
301 233
123 294
324 84
324 202
322 253
293 72
129 81
239 282
261 166
291 218
325 188
204 226
132 225
46 324
290 230
293 48
321 220
217 27
42 238
171 261
36 321
320 93
132 48
299 325
300 83
133 41
253 58
220 39
280 263
164 151
90 126
75 334
29 314
189 37
297 197
173 232
234 327
115 11
315 104
260 297
147 78
8 330
146 93
41 190
208 66
283 91
132 152
55 223
161 19
22 133
9 273
132 236
50 27
154 253
310 45
109 141
246 142
334 105
141 166
267 15
96 215
284 205
40 207
236 108
332 142
144 33
216 108
235 253
101 88
180 4
180 273
86 48
289 178
72 243
144 2
42 70
188 144
332 139
138 37
174 111
69 53
9 303
223 275
37 242
56 49
217 101
171 305
276 306
112 217
253 290
146 237
127 136
51 108
180 192
224 45
159 55
67 172
50 252
310 317
235 332
248 232
128 21
320 292
316 172
220 123
184 299
286 319
219 329
172 149
113 220
85 50
290 88
147 134
192 264
190 242
58 199
35 110
98 331
48 114
20 214
48 75
86 189
166 317
244 83
105 230
116 185
14 51
128 170
8 283
247 152
253 318
180 33
305 292
57 205
25 224
223 184
191 320
19 247
103 23
318 330
3 234
127 313
168 144
273 152
57 223
55 297
264 194
194 298
247 197
333 145
85 195
81 301
264 2
202 75
232 151
91 151
298 188
134 11
240 154
20 218
8 286
233 59
256 263
312 141
320 141
278 131
148 147
217 280
271 56
315 210
216 246
143 142
280 193
144 87
124 76
46 207
168 90
27 309
333 266
84 282
313 42
223 44
128 258
233 124
106 157
5 279
258 190
38 50
156 78
38 317
277 280
166 232
266 183
33 194
238 110
21 268
93 265
225 21
94 246
226 164
72 327
188 27
1 113
98 167
55 226
266 113
178 301
300 90
280 165
239 250
36 16
145 177
138 179
27 84
234 109
300 211
202 3
216 92
40 23
115 7
235 90
182 240
125 70
22 30
174 238
311 195
60 122
252 299
86 233
311 174
71 34
260 188
272 292
216 155
178 113
32 65
3 50
34 13
20 296
74 234
108 164
226 25
55 152
205 29
325 235
88 195
176 236
100 280
254 218
279 166
29 209
181 231
67 23
334 308
217 212
18 9
222 158
144 235
64 333
143 2
223 334
333 315
288 170
188 2
151 317
90 163
173 34
151 191
238 145
8 235
208 232
202 249
320 104
93 47
258 170
2 334
121 263
156 221
65 138
243 114
317 302
67 180
233 249
295 257
176 269
125 287
254 34
313 325
216 116
75 298
151 67
278 203
151 117
183 76
310 170
242 282
67 79
33 31
192 214
2 105
144 105
195 76
224 99
83 182
216 160
159 216
65 187
116 184
57 44
226 2
168 330
167 292
219 31
126 161
153 244
65 39
246 198
232 21
155 32
241 190
202 136
259 25
276 69
275 32
293 234
117 128
290 332
109 83
198 52
35 204
315 296
110 298
40 203
253 94
114 93
68 202
28 243
13 291
60 30
83 313
42 145
127 39
10 97
197 173
142 227
209 202
212 204
169 203
33 3
132 258
235 136
137 316
226 272
106 276
135 123
59 23
217 291
64 118
71 160
165 100
126 202
75 264
125 241
296 135
143 230
260 281
248 204
81 168
245 167
129 87
12 312
224 233
246 85
45 315
27 314
304 266
31 211
308 101
163 136
135 29
114 185
114 286
233 157
208 300
121 212
242 146
161 295
179 181
110 328
219 159
229 213
138 291
18 8
115 118
85 174
298 142
290 20
110 39
230 113
195 111
127 217
211 266
4 290
27 234
159 218
216 65
133 155
329 212
113 68
42 263
73 229
43 173
302 294
69 320
307 76
69 80
216 192
65 252
52 114
258 67
179 127
244 68
288 252
69 10
281 136
215 263
268 225
3 310
134 76
144 127
255 138
272 326
145 246
66 166
67 206
44 184
257 65
126 269
16 164
219 279
224 149
311 251
182 138
204 1
274 145
33 271
100 141
226 264
268 315
48 191
151 44
41 151
74 197
208 95
332 170
253 51
249 174
170 94
24 97
314 137
272 174
84 153
194 260
22 282
317 170
59 259
67 63
152 174
136 238
241 82
20 334
176 139
42 181
313 40
180 46
249 81
77 221
256 1
191 64
162 206
264 94
106 196
296 90
322 319
229 277
123 34
325 111
36 74
101 22
279 42
31 113
255 11
264 1
251 324
193 149
256 273
292 221
325 210
271 227
138 39
179 231
237 292
322 29
322 234
18 267
279 293
225 283
143 117
296 284
39 159
233 113
233 128
76 10
329 84
90 70
164 33
8 124
166 296
287 138
280 142
145 223
101 197
333 169
44 168
66 171
203 58
151 25
224 152
249 48
212 39
68 267
2 286
91 314
170 294
62 77
144 18
299 25
106 32
194 110
87 218
131 239
212 321
280 260
104 325
313 55
114 270
287 16
152 193
38 286
168 254
317 51
196 160
105 178
143 136
217 269
104 216
117 225
97 27
320 322
135 263
68 209
321 230
224 20
265 20
103 132
129 168
158 7
20 280
171 330
208 74
191 112
13 293
286 227
232 123
294 48
117 103
205 155
86 185
270 294
55 220
41 292
184 289
139 199
192 317
193 94
33 1
308 129
210 300
297 287
168 252
265 273
205 8
287 101
214 220
329 325
297 48
128 81
25 233
248 247
173 212
195 301
1 209
20 205
303 103
202 120
269 263
131 92
219 59
317 128
155 199
210 332
124 203
73 222
193 199
244 52
37 259
5 236
305 104
81 313
161 157
111 210
218 144
55 105
181 116
291 311
75 281
244 272
101 74
217 109
315 51
126 29
178 33
223 302
20 256
291 269
30 294
305 81
261 211
174 124
232 308
3 270
258 317
119 84
204 95
257 117
49 141
210 31
211 304
322 124
152 61
161 16
168 112
228 32
46 13
152 117
216 126
284 166
321 248
320 83
83 70
226 240
265 39
320 157
300 112
271 164
8 154
27 83
306 183
77 148
13 203
228 172
113 260
236 9
252 142
116 189
254 43
49 179
192 275
331 156
85 171
82 312
332 264
22 161
112 81
111 254
47 195
193 24
105 182
327 92
41 261
313 154
224 16
242 81
30 46
329 133
216 45
149 315
249 42
163 70
325 94
154 212
278 262
233 291
113 13
223 113
218 171
183 10
126 95
188 241
40 59
284 87
53 207
104 198
303 159
113 33
299 277
262 45
298 319
272 84
278 198
242 34
205 279
22 326
179 20
133 304
240 90
278 146
31 166
218 284
303 139
46 325
87 317
83 88
50 215
224 44
112 232
59 109
233 50
313 322
142 173
141 102
321 322
227 113
315 115
330 313
183 89
275 293
323 73
111 278
204 166
125 288
39 256
170 21
100 211
12 281
100 279
47 286
281 105
256 235
1 292
134 84
141 165
175 195
220 61
296 83
27 4
111 33
216 224
90 64
95 209
323 282
327 116
328 70
41 237
241 87
55 56
126 328
25 255
197 283
237 59
129 204
223 155
166 248
135 68
311 66
141 295
2 225
17 96
73 221
46 274
320 234
184 111
202 176
310 41
53 309
94 139
90 86
247 329
90 42
168 265
87 225
310 125
59 247
217 322
304 259
173 81
82 280
138 133
307 134
215 185
241 216
111 18
166 197
304 316
264 19
253 240
160 295
156 327
85 294
4 123
154 332
134 323
311 176
314 323
57 92
116 144
44 124
218 278
65 116
37 83
302 190
270 192
62 6
185 309
216 303
318 300
253 202
50 290
311 297
330 328
17 34
238 8
244 294
41 299
281 13
204 2
173 305
246 109
57 95
192 225
211 33
68 283
112 237
212 233
233 159
170 144
212 256
298 281
24 302
298 287
25 165
50 330
180 125
61 41
123 170
235 57
16 87
195 310
95 261
292 110
111 56
246 187
292 287
157 262
195 155
56 227
101 164
42 332
144 70
93 309
86 9
144 332
17 71
163 298
42 235
127 202
48 264
41 316
103 314
300 284
207 309
303 231
30 53
125 258
283 192
16 197
160 79
123 142
28 160
293 317
181 74
75 194
271 3
107 251
274 22
67 58
237 209
139 217
325 227
36 233
214 291
164 12
131 241
84 326
259 249
68 174
284 31
254 105
203 312
113 105
112 327
28 145
293 50
57 264
141 280
215 323
171 269
113 329
321 291
235 219
242 273
154 163
272 269
255 165
227 164
303 329
163 289
131 327
127 328
19 215
16 51
83 217
56 299
152 157
75 108
191 2
294 103
218 303
306 285
145 315
12 302
152 305
293 171
123 225
257 229
37 23
305 232
204 256
179 116
310 219
142 110
35 142
166 81
63 177
240 144
162 38
303 65
296 173
194 55
133 242
307 215
166 128
135 212
39 322
307 222
314 134
62 97
48 14
52 146
164 281
265 233
326 65
35 299
304 19
21 242
189 216
46 316
217 209
141 209
314 155
59 324
258 202
256 215
290 261
322 226
87 265
208 4
320 147
125 291
223 13
317 23
263 246
164 110
109 135
154 59
181 86
16 263
52 156
271 194
305 125
292 133
305 168
232 133
130 22
2 227
293 124
182 297
30 159
17 62
240 28
309 80
293 112
264 33
85 165
220 128
107 140
215 149
4 66
242 155
315 172
35 212
224 261
242 16
220 65
232 143
42 247
261 313
280 174
229 76
47 76
3 10
61 304
237 334
55 188
88 57
5 46
154 235
171 74
271 214
150 67
145 52
76 266
240 286
95 145
18 263
315 11
208 111
188 49
142 319
222 326
143 252
12 117
234 41
57 307
100 179
220 233
101 291
9 248
26 244
23 299
150 134
53 274
120 256
318 294
50 232
296 232
12 30
39 168
117 95
308 271
322 269
35 252
236 4
225 256
249 253
236 273
172 88
258 110
292 215
210 247
260 264
128 202
149 85
320 294
263 270
138 215
271 35
307 60
271 113
107 130
166 300
298 310
192 210
126 70
182 2
258 283
310 224
27 286
253 135
37 135
8 70
219 43
225 303
268 234
332 117
199 176
60 155
157 65
30 83
141 206
227 284
302 61
151 334
256 132
120 322
90 66
277 203
149 307
43 202
10 88
14 318
178 230
151 68
243 246
254 81
106 228
223 188
30 288
298 258
184 57
57 301
231 35
309 293
259 142
319 113
266 316
6 215
90 136
55 334
151 95
68 101
77 160
158 17
214 230
234 314
145 144
41 170
300 233
195 107
1 237
25 328
123 329
269 50
226 326
246 286
258 218
93 73
66 202
183 207
290 187
329 305
228 122
87 74
9 280
164 14
237 259
15 6
156 187
146 78
78 26
120 68
95 59
22 57
73 242
113 194
308 319
197 168
192 4
84 328
42 141
288 108
109 55
251 180
28 148
234 126
249 296
93 122
297 319
289 287
277 163
103 21
209 300
321 121
84 235
170 112
188 264
28 109
185 320
126 23
330 240
214 75
32 153
12 24
315 103
198 280
35 164
325 3
33 298
36 180
220 209
163 263
253 321
195 223
219 261
161 38
191 317
163 235
280 94
300 315
265 228
235 313
134 185
228 314
254 159
317 234
65 9
203 158
113 301
39 59
223 225
301 282
191 173
29 55
269 121
154 232
170 316
238 40
246 42
16 212
174 300
193 30
286 59
159 202
264 110
134 107
144 313
14 123
232 132
82 289
91 22
188 105
117 319
241 283
218 189
210 238
22 79
317 48
246 141
30 72
323 242
301 145
127 219
325 290
263 82
204 246
149 148
24 14
139 68
287 64
298 247
22 98
96 228
101 194
298 264
295 63
74 168
128 195
195 34
9 43
264 241
244 199
109 303
33 55
112 189
42 163
85 226
283 35
226 88
205 55
231 8
326 146
50 230
190 331
61 3
70 313
310 180
243 148
21 192
42 144
275 9
67 19
44 95
65 266
43 18
296 126
311 50
166 224
270 41
270 311
75 143
152 21
85 325
138 212
319 188
223 20
39 4
240 179
152 258
209 117
215 212
8 279
256 82
176 224
100 42
269 294
246 159
163 120
192 293
2 87
50 74
327 145
50 86
334 204
36 138
302 48
216 105
317 33
99 47
136 65
206 265
141 111
31 303
108 39
21 190
111 35
19 249
334 19
212 253
36 121
263 50
4 13
51 293
301 173
38 290
261 42
38 248
233 281
300 254
137 223
232 59
26 80
278 285
18 247
192 103
109 304
229 71
310 128
294 173
122 91
71 50
302 51
72 315
160 84
155 104
55 204
258 302
68 269
116 211
152 265
237 89
303 204
48 171
171 87
304 272
243 301
9 226
55 113
256 264
238 29
321 233
189 21
181 168
6 200
317 24
67 221
253 163
327 318
276 293
329 235
296 18
316 259
25 157
65 3
227 188
292 304
205 314
217 95
290 46
211 195
318 121
231 133
86 192
105 313
159 86
129 248
238 240
12 317
192 246
136 204
41 19
55 136
205 255
85 88
75 271
209 41
243 198
121 48
29 224
210 181
238 305
49 209
181 48
68 294
290 9
241 78
205 112
141 204
217 194
231 127
267 146
105 287
175 9
135 21
212 43
94 137
218 261
35 81
221 64
143 55
77 73
21 113
4 309
242 317
127 163
251 174
248 49
212 180
225 37
268 155
180 138
166 305
145 220
120 293
291 152
194 308
66 211
308 214
33 168
48 24
126 68
125 184
241 226
332 94
149 23
133 195
90 161
194 227
315 236
97 183
68 299
290 246
297 281
234 59
19 149
242 166
19 259
217 171
142 170
256 265
7 326
10 6
248 20
253 232
94 295
9 293
327 190
222 22
86 290
289 223
173 168
305 330
227 75
39 321
330 136
78 6
269 23
163 252
50 187
20 59
249 286
87 240
283 81
100 288
42 136
38 322
121 220
33 246
152 190
191 90
100 270
65 140
138 121
209 13
321 310
57 114
223 95
203 93
99 100
52 91
132 270
184 279
18 127
223 301
156 41
257 77
5 286
18 328
80 140
264 204
67 148
128 224
2 70
236 28
125 264
247 103
103 225
200 106
236 148
38 234
233 278
40 210
195 164
86 104
313 329
318 51
256 288
70 156
204 219
3 117
283 300
139 192
48 57
153 282
270 65
191 29
37 125
279 146
65 94
261 120
56 174
241 59
124 317
321 82
210 144
57 8
294 290
29 202
316 121
244 102
56 308
256 110
43 260
182 292
285 93
240 332
313 66
290 37
120 132
253 332
82 230
124 304
287 247
126 155
311 123
327 256
312 274
186 97
57 12
250 131
266 57
65 86
313 193
254 211
182 178
62 130
185 156
14 302
252 164
123 128
147 149
74 164
7 169
180 209
320 270
142 233
95 105
283 218
263 233
184 4
100 71
104 16
218 184
151 33
227 334
211 305
271 105
134 155
198 137
100 226
243 159
165 157
263 125
311 151
82 121
133 249
99 185
101 27
91 292
303 324
290 303
86 3
56 1
55 271
16 210
185 43
313 328
272 140
25 327
188 334
61 181
316 19
67 11
155 122
27 216
235 181
164 240
132 260
312 71
164 56
324 207
110 182
325 184
128 207
247 12
45 234
27 220
23 234
96 97
314 186
213 190
288 31
233 216
296 66
234 269
125 135
51 273
75 178
332 163
103 14
289 44
120 29
252 319
262 161
82 51
233 318
259 223
184 13
325 225
25 89
24 3
263 101
280 276
204 233
17 295
74 266
258 207
231 252
272 10
214 56
55 110
234 83
14 192
314 292
85 266
138 210
217 13
205 241
67 64
315 7
39 297
308 39
240 171
303 184
187 94
253 292
249 105
278 151
110 141
241 233
137 57
175 176
179 313
258 142
264 252
225 82
269 40
327 263
286 332
1 265
14 4
161 288
94 172
313 219
322 209
54 199
54 119
156 149
137 312
83 48
249 61
121 85
176 72
273 135
291 209
296 254
138 246
38 195
166 320
218 305
235 109
290 310
253 220
123 152
238 51
303 235
219 66
257 226
311 299
284 246
188 230
86 310
195 210
24 257
325 154
257 161
168 43
110 319
205 224
180 193
269 125
151 303
151 225
70 136
319 164
298 260
233 136
203 11
170 270
232 4
204 164
70 94
258 74
3 226
253 52
213 153
272 139
83 94
294 12
230 308
125 138
283 24
125 104
18 252
236 37
216 168
299 11
278 112
233 135
121 135
280 149
74 65
110 56
11 333
169 268
84 249
240 163
220 291
39 225
275 61
1 20
261 259
257 333
141 230
48 21
268 40
269 202
180 159
128 48
255 320
308 188
302 128
123 121
286 285
85 248
85 175
50 246
253 124
218 269
194 214
83 251
79 77
234 125
50 310
290 65
111 85
83 202
82 273
215 15
188 56
31 9
75 14
215 22
287 321
68 50
51 256
120 50
103 123
293 44
287 50
291 41
105 61
20 220
195 151
249 237
108 16
212 193
129 232
224 243
74 259
78 196
126 219
166 49
108 138
205 170
131 295
243 48
105 325
220 266
174 101
330 189
111 46
51 332
68 166
261 232
314 46
91 92
91 253
231 18
20 189
157 326
33 182
291 329
82 125
258 23
75 125
194 318
174 315
144 330
152 143
44 270
305 194
258 21
271 252
204 178
306 250
94 144
192 24
65 56
244 27
50 9
21 99
317 325
244 331
241 117
253 151
212 82
225 248
138 233
290 254
265 225
331 30
40 128
241 34
295 85
190 167
234 287
26 307
209 244
135 83
142 33
285 88
195 10
53 324
117 48
232 85
72 169
146 156
178 55
113 330
87 83
40 120
280 70
204 227
244 114
173 291
90 171
329 182
66 81
269 1
270 30
99 301
185 301
145 279
57 32
35 235
204 195
92 257
162 17
197 214
240 194
314 283
10 89
104 72
105 33
257 218
117 283
198 272
47 174
257 155
235 179
241 158
244 147
196 158
268 176
273 211
93 324
193 185
284 211
139 126
143 188
330 90
244 123
282 77
115 155
95 195
191 86
234 189
28 4
227 105
56 300
260 121
74 94
144 135
225 214
35 94
51 120
29 155
163 303
109 194
225 211
152 23
38 24
290 179
26 69
284 81
224 59
4 86
316 63
295 88
151 314
169 130
180 270
81 27
83 111
319 235
99 195
124 52
5 84
289 28
292 276
94 3
300 86
208 116
35 281
61 136
202 217
156 303
5 283
332 238
68 88
2 246
85 244
298 113
104 265
47 6
130 186
18 264
288 289
207 274
16 251
51 37
187 310
219 81
79 326
244 94
332 33
266 92
286 179
292 126
123 178
329 127
211 50
168 218
288 220
86 85
334 182
233 61
192 132
192 121
275 57
103 297
266 174
154 42
165 69
89 241
222 243
82 303
327 176
329 231
67 274
192 247
247 219
261 48
258 112
302 277
94 135
130 327
226 270
291 135
20 212
317 305
75 3
159 320
68 163
95 124
310 287
171 197
211 81
131 333
143 260
205 219
327 295
198 174
104 147
139 324
273 321
185 317
218 25
298 308
217 173
65 104
197 129
279 301
93 6
51 135
56 43
23 83
315 176
21 116
217 33
143 101
195 251
290 170
14 132
327 232
85 290
138 135
204 271
85 168
216 137
220 212
276 303
99 160
28 244
260 128
300 258
14 55
311 20
14 12
159 280
314 126
230 252
103 197
139 172
149 243
87 294
299 18
74 217
187 216
320 35
216 231
224 270
174 277
73 265
180 135
44 195
19 133
121 256
17 141
290 109
195 49
198 205
269 320
155 322
125 273
195 145
174 243
56 192
132 4
165 311
51 33
284 112
197 300
239 242
295 96
175 150
252 188
39 318
279 4
143 226
216 41
18 192
265 254
230 2
267 159
212 85
319 95
249 311
37 197
87 31
94 311
132 123
297 191
123 117
97 157
144 275
38 43
23 73
142 181
132 24
87 168
278 37
126 290
231 210
132 21
54 250
267 16
329 240
34 161
86 127
256 321
195 332
311 13
254 189
181 38
333 327
328 141
29 141
235 330
26 262
259 218
201 106
208 189
261 296
198 85
331 221
284 298
273 85
164 143
82 218
156 134
319 55
294 317
68 233
56 75
188 128
223 198
133 259
41 249
132 51
280 33
38 51
154 230
139 83
20 129
189 81
283 31
244 19
217 29
145 289
205 270
195 279
41 50
72 108
308 82
330 108
265 109
227 298
43 189
61 161
308 204
161 316
127 154
205 89
108 37
237 195
199 63
118 222
112 185
170 36
68 322
36 216
31 254
247 235
268 92
111 240
14 50
105 291
246 325
257 189
238 139
143 322
163 238
271 1
73 309
308 105
251 199
316 301
159 50
41 184
332 318
240 320
114 99
153 242
48 50
48 99
315 288
261 303
190 310
151 330
278 302
152 191
248 220
104 9
33 110
194 56
220 318
100 121
273 220
332 127
75 2
277 180
42 294
134 222
56 57
72 131
93 137
225 270
317 112
48 170
192 257
8 85
313 238
325 8
212 36
109 268
301 1
251 69
308 264
123 296
35 330
4 204
151 192
48 230
104 159
44 42
135 269
258 8
226 310
331 292
267 212
202 166
68 44
129 173
296 297
254 20
189 27
220 91
67 139
116 43
308 2
41 42
274 30
294 72
65 132
4 57
13 146
65 309
10 186
317 244
194 164
328 90
56 143
192 238
291 271
320 260
35 103
247 332
19 332
222 259
78 99
197 204
132 302
113 269
328 181
55 37
210 258
23 240
60 201
249 184
237 203
121 275
190 47
33 2
211 208
269 243
55 227
93 267
205 258
247 204
44 98
19 75
238 320
18 181
116 320
220 294
289 55
226 24
270 291
168 166
28 271
37 318
323 62
273 39
312 74
132 310
329 210
293 95
318 144
246 264
82 287
145 283
214 1
180 283
36 51
199 99
243 278
84 23
95 188
130 203
279 315
133 297
252 204
14 68
123 317
308 246
330 111
39 287
26 140
123 151
35 135
288 146
329 171
288 164
50 94
171 124
31 81
190 176
328 50
293 28
188 297
86 216
202 259
240 210
238 111
158 326
56 253
117 92
171 254
213 148
319 61
40 28
116 248
181 248
30 25
117 310
286 274
61 174
73 92
260 2
164 308
48 12
138 137
161 250
11 327
97 76
211 144
49 9
220 211
22 153
261 170
82 113
310 36
117 132
180 16
281 2
278 109
185 319
327 302
269 298
42 83
323 119
283 67
61 225
126 74
103 283
5 114
64 327
208 83
253 152
297 252
107 299
226 267
253 68
330 18
38 56
30 207
195 165
118 63
253 123
326 244
232 300
302 174
90 56
59 225
41 320
148 265
281 204
31 152
210 174
141 59
63 88
174 330
225 170
169 131
198 267
305 300
111 302
35 182
92 85
330 61
30 160
171 151
246 147
246 57
294 110
39 16
173 208
51 125
223 1
15 78
20 82
155 92
31 110
192 41
34 229
114 161
191 182
50 29
146 74
248 303
218 34
104 137
33 36
48 283
82 233
37 87
95 280
123 67
180 132
18 325
124 312
203 283
58 250
231 163
287 220
325 240
276 285
65 31
65 192
76 41
101 266
289 4
212 301
149 94
120 126
126 217
49 264
288 166
36 318
313 57
246 13
166 208
116 168
121 152
233 109
223 68
34 38
64 226
73 286
255 69
104 121
13 332
219 248
315 169
249 261
132 291
202 290
30 265
29 82
217 5
306 80
176 17
326 193
14 233
86 170
61 142
94 303
23 88
33 308
208 159
169 11
175 79
161 280
284 1
267 291
270 128
194 303
157 225
319 105
272 3
145 318
205 143
229 309
314 269
277 77
13 95
322 298
251 26
44 295
170 152
311 170
237 144
45 29
74 269
318 257
91 37
235 174
68 59
211 219
170 191
317 104
213 67
41 223
61 189
302 321
82 120
296 253
274 71
39 254
95 170
37 142
305 42
294 166
116 87
275 244
164 170
273 3
170 249
56 230
328 55
291 184
93 102
105 204
283 9
75 113
268 229
210 8
111 313
193 301
286 76
302 21
124 26
101 235
84 151
238 181
300 20
217 50
292 61
242 286
286 324
305 269
163 25
207 279
290 295
65 34
129 296
57 18
96 71
54 193
160 277
160 78
194 49
244 174
13 195
214 252
280 113
118 22
254 116
221 41
319 120
19 174
33 214
239 119
154 238
29 269
182 281
87 66
224 283
120 83
179 328
109 38
6 311
294 246
251 30
74 151
31 261
214 105
216 97
284 29
310 159
286 66
176 169
154 334
49 202
111 317
325 231
240 261
263 141
279 125
65 72
247 111
163 124
218 112
27 237
260 329
193 3
208 195
100 309
294 159
242 84
317 84
222 333
310 253
294 21
173 39
84 54
153 323
18 56
90 180
244 215
232 211
9 140
223 124
2 1
40 132
278 185
303 50
234 101
62 76
212 108
95 4
315 292
191 128
18 151
137 54
266 71
179 18
35 178
8 24
197 305
41 128
225 191
56 2
233 39
17 213
332 325
142 225
13 224
299 189
3 303
2 298
113 256
249 37
113 35
193 278
132 112
227 143
288 211
14 317
72 92
266 141
19 163
225 320
182 271
116 166
164 75
73 78
224 75
105 49
247 110
213 149
30 3
173 189
260 75
34 290
208 246
105 264
111 179
233 151
246 1
263 273
148 102
94 104
42 8
156 176
157 146
254 129
22 307
292 185
35 319
258 12
119 71
271 191
180 31
243 34
288 291
298 230
44 132
165 320
53 157
43 261
61 234
109 162
157 226
70 182
202 101
4 124
38 49
329 111
36 263
259 217
189 123
12 283
1 260
197 299
39 180
65 25
114 174
98 153
61 37
233 41
65 320
90 18
281 223
68 83
34 300
16 125
47 243
321 171
41 202
204 33
104 324
137 21
87 43
298 223
168 25
277 300
170 298
170 220
143 313
299 281
158 201
261 94
178 271
36 246
273 322
281 277
192 128
217 120
128 127
247 330
246 281
332 18
112 195
241 301
112 261
114 138
320 241
109 296
30 152
101 253
109 155
132 121
264 56
113 56
315 194
269 267
220 146
31 189
253 234
298 68
243 146
29 16
240 29
254 194
2 240
238 189
21 191
224 208
318 59
46 238
204 143
38 310
212 287
69 93
111 181
232 233
81 192
201 196
103 56
220 223
156 174
332 230
322 308
324 312
174 161
299 318
289 225
37 238
197 208
188 214
135 25
128 209
86 328
226 120
49 300
237 155
13 199
293 179
140 52
87 128
19 314
284 2
288 135
299 226
292 223
296 192
97 130
111 19
59 166
54 326
132 294
269 253
36 260
133 234
203 196
100 28
322 202
232 87
75 55
298 271
240 8
93 80
101 144
213 265
45 6
24 152
27 242
8 233
110 2
12 192
44 32
238 18
34 211
172 234
218 103
13 237
164 1
125 151
328 253
287 294
260 286
82 68
85 104
249 161
117 136
325 182
56 281
145 27
192 190
258 143
225 4
123 278
9 169
3 280
88 149
237 55
104 38
40 172
201 160
110 297
275 282
326 26
221 241
53 99
255 18
82 184
324 89
291 212
34 277
292 156
200 201
86 283
132 280
290 286
240 18
49 14
170 49
223 4
130 285
110 21
108 321
194 142
72 268
187 170
152 317
159 279
16 8
313 8
122 285
213 147
139 202
125 143
334 111
232 265
58 130
51 248
124 100
280 246
319 290
164 298
269 137
81 120
295 277
290 95
296 43
261 189
20 211
188 281
233 288
202 319
330 28
52 257
318 44
333 73
184 296
220 127
46 246
204 50
297 113
108 291
78 157
174 297
197 164
160 137
138 51
248 103
83 294
163 152
272 57
168 31
114 274
230 233
22 26
313 112
225 212
73 104
112 173
269 127
63 25
334 113
111 328
82 109
165 57
301 92
151 281
270 104
264 310
320 112
286 48
225 128
126 288
128 327
49 31
53 5
9 197
334 35
95 202
39 125
159 168
151 182
32 26
174 141
298 185
296 31
61 272
13 286
220 156
292 142
287 163
198 27
143 214
253 70
294 41
322 292
256 287
82 132
269 265
235 111
49 173
190 295
56 277
116 305
286 33
329 225
149 176
232 56
265 91
332 294
296 48
114 278
232 110
66 279
320 175
224 168
148 190
90 278
39 288
4 301
255 299
283 193
82 251
37 209
143 289
305 87
153 221
68 3
121 296
248 224
132 41
39 51
315 131
313 18
131 176
185 174
258 103
309 324
170 251
65 55
330 264
171 112
16 256
205 157
325 127
44 279
145 256
253 105
254 205
325 288
48 38
258 72
295 7
37 321
320 311
78 224
112 87
260 55
101 215
305 13
272 234
164 260
298 143
178 214
259 154
303 219
129 171
178 56
51 180
173 248
77 213
65 159
305 254
308 218
295 58
264 178
29 49
308 252
108 269
124 107
199 69
55 281
1 75
113 164
290 317
308 281
312 207
94 310
286 318
9 3
320 97
78 158
224 256
157 100
321 51
258 225
261 86
305 205
215 82
236 69
19 323
151 48
130 165
85 243
137 250
21 41
40 37
248 66
255 179
173 154
132 191
87 81
84 185
296 125
180 86
294 191
124 123
238 179
114 262
180 136
145 76
4 311
182 56
219 173
108 55
212 146
163 242
191 138
152 27
278 141
309 266
232 20
35 2
227 260
197 189
286 7
129 1
28 279
149 333
61 259
287 23
26 77
128 210
277 116
271 21
144 59
243 156
243 285
129 166
178 2
135 184
20 283
125 117
84 22
195 142
84 257
178 143
2 170
253 74
334 264
85 235
291 36
287 233
157 224
195 4
186 53
320 246
331 213
119 78
151 179
287 132
260 182
29 37
70 290
152 283
290 99
257 174
197 292
40 166
90 189
194 297
27 155
314 331
258 182
132 305
315 224
280 163
296 260
212 325
94 236
328 144
253 29
44 4
287 263
178 297
322 278
94 326
162 277
329 154
174 139
319 214
173 261
159 9
135 31
247 117
208 94
35 273
122 73
265 42
124 125
153 119
299 13
313 163
278 253
117 154
237 317
88 155
87 296
104 314
316 249
139 292
37 273
87 248
322 74
38 149
220 251
100 328
116 132
223 132
202 172
74 68
221 259
27 16
77 101
283 294
254 195
294 265
169 64
76 301
92 64
127 121
10 150
290 149
155 50
330 299
194 2
142 178
137 126
227 182
35 332
43 27
257 114
281 264
19 321
141 215
51 263
319 136
204 214
184 207
103 300
57 42
38 246
43 171
110 214
223 279
160 6
205 4
320 145
21 288
57 13
173 166
66 168
195 65
58 120
315 327
289 37
195 325
271 142
41 286
216 30
86 295
1 182
314 13
28 184
218 74
284 280
252 263
258 279
324 316
184 167
42 56
318 320
76 167
9 156
107 93
165 299
20 116
43 81
104 258
290 104
210 103
259 305
68 205
281 271
31 129
212 21
214 191
264 297
105 75
85 187
25 241
14 281
136 325
37 36
293 109
40 139
226 169
334 66
215 86
116 112
83 99
147 217
265 102
231 136
274 161
237 304
83 14
318 82
331 148
155 44
233 234
280 39
249 65
288 275
279 13
52 107
292 329
332 111
325 237
211 126
192 204
137 69
305 202
320 296
116 81
76 311
240 151
56 3
144 181
248 208
244 132
111 132
56 288
129 261
174 285
120 257
117 184
274 98
330 179
4 67
132 283
225 226
116 83
156 114
293 334
151 242
304 219
246 68
135 271
163 247
314 48
116 171
61 266
179 193
316 39
59 251
202 321
83 156
87 254
146 224
191 117
187 303
309 312
108 82
249 43
228 262
136 210
266 264
237 273
40 126
205 320
156 257
133 235
226 28
155 6
3 260
270 48
43 232
95 125
194 38
226 320
197 112
111 103
184 284
170 51
3 170
42 179
72 22
203 314
219 257
237 305
247 212
186 243
289 12
86 187
322 23
308 292
204 66
25 321
23 207
181 313
90 253
41 272
314 272
316 133
109 4
95 29
329 42
205 174
157 279
180 318
259 95
29 176
14 113
164 259
57 195
189 166
156 193
230 291
179 136
173 264
195 260
100 174
231 328
33 166
99 243
294 151
268 45
105 1
202 61
103 238
81 191
218 197
330 70
303 224
59 83
304 73
175 92
151 283
214 315
218 81
94 232
238 247
162 315
266 161
94 154
208 311
33 330
310 43
45 172
138 225
8 127
9 247
88 84
174 146
278 127
310 235
137 10
209 126
59 74
250 276
237 168
49 305
329 316
184 136
46 10
121 72
13 29
18 117
73 226
34 114
66 112
156 267
122 306
305 261
170 16
241 157
243 193
223 61
256 138
202 74
116 180
97 283
18 278
269 120
146 258
136 142
15 243
104 18
308 55
112 292
300 171
57 85
320 303
231 42
332 328
202 94
44 230
316 234
33 230
26 38
65 29
151 13
86 144
68 141
103 152
209 116
24 294
38 263
132 72
300 261
105 195
256 294
85 289
189 49
32 326
305 129
163 111
241 114
74 255
256 37
129 116
181 184
29 288
291 156
75 188
278 267
24 225
65 305
35 297
286 264
3 209
281 334
39 154
258 14
87 219
28 163
232 144
38 168
243 52
247 179
51 212
265 33
329 46
13 289
174 102
26 312
3 70
317 64
285 84
275 28
137 145
247 8
197 13
189 300
51 291
95 301
104 280
53 137
88 191
181 305
135 303
313 204
62 10
257 267
33 288
223 143
81 300
108 246
253 40
58 186
125 41
55 182
44 332
257 5
104 304
288 202
43 74
70 231
242 42
59 223
59 139
300 126
188 180
329 319
218 65
218 43
280 326
243 266
141 160
90 230
53 314
310 48
208 57
9 216
49 8
280 290
101 321
292 259
277 4
322 145
240 181
59 120
277 230
280 205
28 95
100 212
76 279
291 90
311 241
191 202
265 264
278 52
330 290
308 75
110 113
137 134
299 100
92 122
315 238
116 66
93 222
193 97
194 82
180 28
310 143
257 282
127 257
314 266
246 303
66 25
194 281
199 228
319 194
113 281
166 170
142 132
109 225
189 68
173 284
139 253
123 283
266 292
155 141
290 193
311 226
143 195
101 59
157 169
217 225
328 136
143 113
286 35
219 296
54 243
268 320
226 174
125 215
312 269
191 165
113 142
121 178
178 260
221 228
7 327
173 211
307 94
14 321
268 156
49 219
300 230
9 202
291 292
66 218
227 308
51 249
240 249
202 233
111 41
192 94
38 105
219 220
256 180
75 301
23 111
263 65
14 151
125 129
21 290
233 181
275 98
84 68
313 136
154 66
278 186
24 260
172 44
181 330
82 16
122 314
145 293
291 74
209 277
236 64
66 29
35 13
226 40
251 196
287 173
121 273
274 272
108 316
48 152
115 327
298 297
107 137
86 303
49 271
292 74
256 318
168 152
126 254
157 253
266 276
280 50
22 44
263 180
81 135
165 236
215 315
85 159
253 23
308 290
283 313
197 31
281 230
139 244
313 159
121 90
73 169
318 108
96 141
233 16
48 110
110 271
25 300
284 20
318 125
141 119
151 288
241 9
138 263
61 238
180 211
84 238
132 144
51 220
12 83
20 237
165 137
105 315
180 291
302 67
257 266
324 187
225 166
228 93
199 322
65 111
226 131
201 203
18 128
143 4
225 51
157 270
56 296
91 133
64 315
124 58
67 253
8 329
331 265
55 264
130 306
243 257
197 261
125 302
160 190
231 9
85 58
62 215
210 330
51 105
198 251
171 20
51 233
300 31
247 195
28 198
55 20
180 108
189 211
72 333
234 64
212 289
226 286
85 155
276 205
173 300
302 84
284 248
322 232
205 316
133 109
235 127
242 232
4 270
34 48
205 91
46 139
299 205
231 330
293 256
230 101
4 127
185 165
116 195
26 153
149 285
59 288
174 125
260 266
321 138
312 46
51 241
214 2
37 136
124 151
50 90
287 121
50 286
117 258
302 266
231 318
29 139
238 235
194 105
165 107
168 284
49 246
127 210
194 143
42 18
103 251
264 319
92 265
189 87
226 50
312 217
300 214
304 249
104 275
192 294
271 188
254 291
187 38
71 277
73 40
174 135
242 237
170 194
298 204
320 137
103 203
14 294
3 166
246 72
154 231
16 220
16 273
280 187
240 178
144 325
194 230
113 2
25 48
142 75
213 65
146 291
60 306
152 151
59 325
184 301
243 83
166 237
243 176
38 254
223 293
90 329
209 273
330 325
71 141
216 294
57 294
83 195
145 58
173 87
248 168
266 16
37 180
204 75
249 216
317 268
49 28
242 78
42 328
268 327
175 107
275 95
279 229
301 85
273 41
