Vertices 206
131 "#177"
187 "#120"
39 "#124"
62 "#78"
199 "#33"
32 "#100"
74 "#192"
47 "#148"
81 "#96"
64 "#26"
59 "#103"
154 "#11"
136 "#31"
77 "#155"
203 "#134"
184 "#87"
173 "#86"
155 "#38"
52 "#75"
34 "#92"
56 "#145"
25 "#198"
22 "#5"
24 "#184"
19 "#172"
53 "#114"
206 "#84"
35 "#55"
44 "#122"
162 "#121"
166 "#44"
176 "#82"
165 "#1"
78 "#136"
104 "#66"
82 "#8"
87 "#200"
33 "#81"
61 "#4"
49 "#190"
138 "#161"
43 "#9"
67 "#162"
54 "#68"
12 "#151"
113 "#35"
41 "#49"
200 "#76"
72 "#61"
63 "#74"
198 "#176"
38 "#180"
139 "#60"
68 "#28"
97 "#189"
80 "#18"
160 "#72"
129 "#83"
205 "#204"
181 "#154"
177 "#139"
186 "#168"
92 "#164"
202 "#91"
66 "#2"
55 "#179"
201 "#27"
126 "#80"
6 "#73"
40 "#170"
133 "#36"
94 "#15"
185 "#93"
147 "#29"
2 "#157"
9 "#195"
189 "#163"
204 "#48"
151 "#156"
175 "#23"
46 "#142"
143 "#16"
161 "#194"
194 "#95"
148 "#89"
95 "#58"
125 "#39"
60 "#10"
124 "#132"
122 "#62"
120 "#199"
69 "#43"
15 "#160"
127 "#113"
65 "#128"
51 "#69"
102 "#173"
101 "#119"
88 "#143"
171 "#22"
23 "#7"
58 "#54"
195 "#109"
121 "#116"
106 "#137"
134 "#115"
89 "#20"
145 "#17"
27 "#32"
140 "#85"
86 "#53"
174 "#112"
91 "#167"
179 "#67"
144 "#101"
16 "#104"
7 "#111"
180 "#34"
141 "#59"
83 "#158"
70 "#110"
18 "#171"
79 "#3"
146 "#41"
167 "#25"
172 "#24"
149 "#188"
115 "#135"
132 "#106"
152 "#182"
109 "#70"
45 "#141"
85 "#65"
96 "#129"
42 "#107"
135 "#12"
169 "#201"
10 "#186"
157 "#146"
99 "#140"
188 "#175"
36 "#165"
114 "#153"
190 "#19"
76 "#130"
48 "#150"
57 "#6"
182 "#185"
116 "#205"
75 "#187"
150 "#57"
108 "#63"
119 "#126"
26 "#181"
107 "#30"
1 "#90"
117 "#98"
153 "#52"
100 "#108"
3 "#169"
178 "#118"
123 "#149"
158 "#99"
93 "#51"
84 "#196"
50 "#183"
37 "#191"
191 "#79"
130 "#14"
159 "#133"
17 "#174"
170 "#117"
112 "#46"
98 "#152"
118 "#50"
13 "#42"
111 "#40"
105 "#56"
30 "#45"
110 "#138"
4 "#178"
29 "#77"
14 "#144"
20 "#123"
8 "#88"
103 "#159"
183 "#131"
128 "#94"
168 "#0"
193 "#21"
73 "#193"
28 "#105"
197 "#125"
192 "#71"
137 "#97"
21 "#127"
31 "#203"
156 "#64"
164 "#47"
196 "#13"
163 "#102"
11 "#202"
142 "#147"
5 "#166"
90 "#37"
71 "#197"
Edges
137 76
131 40
19 18
197 119
190 93
202 184
15 203
136 189
62 126
172 46
29 104
203 117
106 138
59 81
91 5
189 186
61 144
50 27
116 97
156 196
146 44
150 169
201 126
65 25
159 115
188 182
83 2
164 27
153 178
134 62
46 99
195 150
35 104
132 53
135 140
206 134
113 180
78 148
190 20
174 7
30 204
161 37
7 127
9 10
144 137
73 114
92 99
91 40
160 33
151 199
102 86
124 56
193 153
24 4
169 31
41 137
122 130
24 49
97 73
203 172
114 99
155 26
45 157
205 98
31 116
181 67
50 55
94 82
196 96
192 6
203 26
46 88
155 18
106 115
42 57
95 134
60 155
138 5
37 25
102 19
124 129
42 139
152 182
4 38
119 187
183 203
112 200
80 100
61 194
92 103
87 97
40 154
65 159
197 101
4 198
22 165
84 135
124 183
69 125
170 101
145 69
36 21
147 30
28 7
178 177
45 98
16 195
119 159
202 28
66 169
68 63
138 79
127 42
199 193
118 119
104 133
162 78
190 82
88 193
148 35
166 33
137 162
4 172
75 169
152 55
63 125
101 20
92 186
110 78
171 68
200 51
137 32
70 28
78 203
203 3
6 13
82 136
136 110
182 137
3 55
41 69
118 153
50 26
96 110
157 123
62 197
171 60
100 28
176 164
6 200
74 56
27 138
5 33
34 140
10 188
120 169
123 48
96 106
34 125
72 144
20 198
181 97
32 141
4 10
96 148
203 180
41 119
100 132
194 35
10 205
162 65
87 136
7 35
95 191
181 55
50 205
26 102
75 37
6 144
19 17
140 81
32 29
36 5
6 123
121 2
99 115
163 117
159 151
179 90
84 41
15 181
18 129
65 58
203 177
96 172
14 114
129 33
177 17
158 206
202 148
190 17
145 83
36 116
103 206
125 30
51 82
90 54
9 16
76 100
62 55
71 12
14 12
50 198
38 167
55 88
44 33
86 141
103 138
115 103
102 78
40 10
119 64
205 45
23 95
68 195
19 97
187 186
76 101
66 2
75 87
154 75
140 185
123 39
194 74
192 160
165 179
128 117
33 32
194 117
21 177
133 36
142 189
76 84
7 186
138 90
147 162
177 96
189 195
87 96
96 91
24 20
44 119
116 84
200 160
44 20
76 102
169 44
50 125
41 206
50 182
87 84
157 98
168 62
90 91
91 28
86 117
90 61
184 198
19 79
186 103
52 80
41 120
114 159
91 125
106 19
25 75
28 167
137 158
166 23
137 191
104 166
49 97
12 157
138 186
47 138
184 34
148 122
38 83
136 149
180 66
198 66
199 189
175 108
16 38
77 190
45 169
20 162
5 181
53 189
186 151
168 137
171 190
200 141
155 104
76 21
177 188
147 134
47 142
98 48
190 163
152 10
108 136
187 2
91 79
69 46
114 98
189 3
150 18
6 137
205 74
93 137
200 60
146 193
120 63
36 3
111 175
109 52
126 95
94 195
136 64
125 200
27 156
44 185
181 169
137 114
119 46
41 28
70 78
96 45
64 161
117 73
78 74
5 145
126 165
75 74
65 203
110 167
112 166
138 4
16 7
154 19
114 144
94 102
183 153
5 186
95 29
129 148
31 48
17 102
170 119
193 14
24 26
163 59
149 197
146 156
149 182
177 8
159 124
194 142
195 30
193 58
47 56
181 103
121 63
10 82
90 2
105 7
2 73
148 1
32 128
15 92
39 8
160 68
37 120
170 153
63 179
31 9
25 31
43 82
5 83
118 111
197 121
16 49
169 136
82 185
78 97
170 44
121 134
171 136
80 193
79 147
110 33
21 57
132 28
102 4
16 70
154 150
42 196
57 201
36 77
152 26
197 64
189 181
82 77
73 25
105 43
164 204
42 134
66 105
146 136
100 42
171 90
189 121
184 155
148 16
80 156
8 145
17 79
144 151
31 115
146 93
40 119
178 197
166 41
44 179
67 2
194 128
106 203
58 111
170 23
198 190
36 2
187 122
190 11
27 1
127 16
198 152
50 188
109 200
141 155
82 68
8 87
191 33
2 133
173 148
5 189
87 185
195 168
64 204
11 9
190 110
194 59
49 169
106 105
185 141
125 79
172 175
56 123
102 24
115 138
58 126
160 63
158 194
48 45
56 19
11 97
108 165
87 161
151 36
142 96
5 151
63 48
119 189
134 88
138 150
101 16
48 54
61 199
55 182
120 9
197 162
63 87
37 87
63 194
189 28
91 77
78 115
18 9
145 18
105 164
59 137
110 26
202 196
96 79
79 67
139 60
51 174
182 197
156 96
137 121
37 9
135 99
111 193
148 7
78 38
79 76
185 162
190 66
124 177
170 188
150 135
7 114
151 83
157 202
33 24
35 62
141 85
199 43
70 195
55 24
118 27
182 129
45 196
179 197
137 194
17 164
98 116
122 133
50 138
120 73
148 8
8 184
128 59
9 25
41 23
106 180
72 199
35 63
57 80
162 30
166 135
31 19
121 146
27 107
12 45
153 58
39 48
25 36
32 153
186 77
55 102
99 12
198 188
110 106
38 188
59 158
4 39
55 91
19 115
114 151
76 70
174 81
151 2
91 151
110 31
77 162
161 135
86 90
62 3
153 177
192 33
35 95
39 189
14 99
110 159
170 178
34 173
3 5
4 181
39 187
38 152
123 196
74 73
3 172
147 101
78 183
47 135
161 120
5 150
142 45
156 154
39 170
115 102
141 138
152 24
26 27
164 114
83 185
152 102
189 30
8 159
18 24
97 205
150 23
106 90
117 124
44 86
85 60
120 87
47 185
100 143
122 45
79 82
7 124
105 64
78 17
8 173
177 115
27 139
191 62
154 138
137 128
14 157
17 26
78 106
146 81
23 108
90 93
72 180
41 52
9 149
10 119
129 62
11 53
74 11
33 104
170 14
202 8
8 27
45 46
199 123
95 41
132 151
121 45
170 68
80 64
28 42
125 156
132 82
54 180
194 144
90 123
138 133
178 134
48 71
5 35
200 185
110 149
24 184
190 35
146 35
196 125
175 193
143 48
34 1
12 56
22 153
68 79
167 90
185 114
17 131
63 81
110 177
48 156
71 120
187 101
44 47
140 40
11 82
74 86
41 109
69 64
59 113
24 10
88 129
117 132
57 195
152 188
22 43
137 133
4 97
149 161
59 117
7 168
57 65
67 20
119 31
48 4
66 135
205 178
120 11
46 157
57 145
2 138
31 73
177 102
97 37
136 36
71 53
36 103
169 161
42 16
103 151
153 69
82 59
182 19
187 162
20 170
108 150
119 60
206 1
49 123
75 125
82 45
84 161
50 132
112 58
91 15
3 79
190 153
14 46
88 142
115 110
64 70
114 48
69 42
2 31
135 128
79 22
128 29
128 51
177 159
39 171
11 37
67 151
185 169
46 44
155 39
46 29
46 144
53 42
63 192
3 129
71 31
125 49
182 93
79 11
119 69
55 131
177 78
29 62
120 154
73 9
191 185
140 202
46 91
188 172
14 116
116 49
101 178
194 152
65 96
53 49
3 2
71 110
55 154
2 132
3 150
159 153
159 203
206 144
129 191
145 141
97 56
99 157
22 111
137 63
180 174
174 100
53 133
131 152
115 32
134 170
42 195
75 11
46 28
105 82
4 144
50 152
93 119
9 116
170 45
168 201
141 136
17 38
194 81
134 179
148 102
182 88
100 102
58 8
31 205
64 201
67 186
121 144
55 188
134 53
109 160
33 35
93 44
181 186
196 58
48 135
87 11
144 163
69 1
131 24
184 153
37 5
29 103
53 79
91 106
179 27
70 105
180 65
171 93
47 88
46 47
204 107
77 5
2 141
114 205
68 190
50 15
138 121
63 109
158 107
155 183
155 119
87 74
127 106
132 42
122 51
142 99
127 124
157 88
6 129
9 194
149 33
49 33
7 132
136 66
203 181
47 12
106 174
105 125
79 201
183 161
71 116
73 16
25 79
158 128
42 186
95 44
46 75
46 173
129 162
187 185
41 157
105 136
19 40
34 170
30 160
155 133
138 40
15 138
30 76
106 177
156 142
120 92
71 37
119 132
123 142
84 120
191 116
16 136
66 186
131 19
31 161
30 138
136 86
116 73
109 6
29 192
41 53
78 129
105 90
193 64
63 134
64 58
12 46
11 73
26 131
194 139
173 61
184 68
131 10
21 124
147 35
17 114
75 31
100 7
128 163
45 172
177 60
198 35
189 2
125 80
96 46
138 182
139 64
25 169
109 134
116 74
58 175
144 117
86 120
82 48
194 198
141 111
54 50
32 194
203 62
15 49
71 150
27 86
55 9
96 138
123 46
125 155
9 74
68 153
43 72
20 96
172 43
67 189
88 14
62 7
53 70
126 112
36 49
5 159
61 101
85 88
167 126
79 98
30 8
4 155
145 93
90 187
99 36
62 45
115 124
91 145
169 87
91 162
64 111
26 188
203 21
138 181
202 68
179 154
149 49
79 28
177 25
43 165
145 55
198 26
167 104
85 90
186 74
205 116
64 179
87 40
41 5
45 14
165 196
178 119
137 14
20 127
201 80
151 189
29 159
37 169
41 165
33 176
127 58
186 15
63 99
133 93
195 45
37 205
142 56
5 92
100 116
199 88
180 110
9 75
99 88
16 53
161 202
79 172
94 71
120 76
81 162
31 74
76 38
60 141
82 172
162 134
198 169
121 101
197 127
46 42
11 56
66 161
148 119
33 206
106 190
104 125
201 68
67 39
117 158
166 150
113 66
105 124
141 180
125 3
76 115
190 90
169 116
42 41
155 168
97 32
148 124
184 108
145 185
87 149
20 38
185 40
111 89
114 15
113 163
47 14
178 164
24 188
2 32
199 119
183 70
205 161
197 170
95 150
85 162
8 42
55 49
50 48
45 67
189 15
26 18
51 125
114 88
190 31
55 19
30 145
60 2
180 172
69 57
96 78
56 98
202 155
42 64
40 76
51 117
40 106
72 179
25 116
5 84
68 109
33 197
10 172
137 172
65 76
5 153
48 12
156 143
159 164
81 137
24 87
103 195
71 97
25 149
5 49
125 123
92 67
194 169
155 178
7 195
118 35
175 139
41 160
8 4
19 185
47 98
190 32
20 5
6 160
146 163
44 45
61 108
25 120
203 76
132 195
199 190
159 33
129 126
68 13
68 93
85 94
163 82
83 51
10 182
165 79
193 86
165 82
196 161
124 62
35 179
20 63
26 12
71 169
27 180
74 97
96 124
80 145
132 125
121 106
138 3
82 22
97 9
71 14
5 15
52 112
39 18
24 182
35 191
116 11
140 5
162 178
65 39
183 163
170 16
41 153
193 123
28 53
188 19
125 145
86 115
97 81
143 186
124 65
20 187
96 203
55 39
90 94
50 129
174 42
127 110
152 19
154 87
76 48
61 140
162 170
21 183
143 179
117 6
179 81
18 198
74 37
21 106
94 17
11 25
132 23
83 181
113 32
197 85
111 35
20 86
37 73
40 148
31 149
183 85
204 27
162 128
116 181
135 104
75 49
172 174
9 87
28 16
147 89
99 137
47 123
98 64
119 24
176 30
84 73
148 62
4 131
178 44
45 56
117 39
81 121
40 16
140 174
7 53
191 64
49 74
181 11
133 135
9 71
134 187
4 25
135 13
3 143
181 3
179 123
152 170
136 180
131 182
204 160
113 43
60 83
145 133
4 20
116 196
42 201
172 65
105 204
60 44
61 180
196 41
76 41
192 200
11 49
48 44
53 192
190 27
113 164
102 10
158 144
97 64
61 184
149 97
7 42
67 103
95 135
127 78
36 15
40 17
61 41
19 198
55 38
151 172
150 10
140 119
68 121
55 4
92 158
79 188
76 159
36 67
154 8
82 113
110 61
92 2
120 74
202 173
38 170
3 67
107 139
186 3
40 29
37 31
96 82
163 81
8 76
70 127
131 18
44 173
125 57
149 37
14 56
190 67
14 23
63 155
48 155
96 31
34 148
139 78
162 6
47 8
138 93
176 206
116 161
22 108
94 61
119 179
50 10
159 146
82 47
45 99
92 91
16 115
87 205
197 49
96 21
136 185
59 32
34 51
36 44
124 78
190 61
125 4
87 71
197 39
39 121
186 128
8 179
94 117
126 191
3 51
41 144
63 6
200 63
57 167
98 46
59 27
88 56
153 35
133 148
96 125
113 119
36 92
110 53
31 84
154 5
25 181
136 165
137 163
97 75
27 48
21 115
54 141
10 19
3 83
139 96
62 127
94 89
135 57
151 15
136 156
15 83
33 29
34 128
195 127
20 40
91 60
189 103
146 111
179 137
206 29
178 98
81 144
62 131
186 195
84 92
102 40
110 124
49 182
185 173
9 161
88 128
146 189
48 20
129 138
86 138
196 189
47 195
100 53
4 50
11 84
95 104
24 17
49 157
17 153
198 182
155 58
91 185
84 150
198 131
205 73
3 15
169 84
96 76
136 33
206 133
119 39
55 129
43 179
47 157
42 70
145 68
18 188
33 173
196 46
162 88
38 131
171 63
164 139
33 87
185 116
86 73
201 7
153 78
181 36
19 24
87 110
154 62
115 36
68 90
9 84
41 202
195 100
8 185
20 121
23 78
60 109
169 74
94 53
28 38
140 173
162 37
137 123
117 17
197 44
30 47
30 58
110 76
90 124
11 205
141 153
44 82
151 197
97 161
92 122
2 172
7 71
88 125
169 149
205 44
76 44
26 182
44 101
140 8
4 19
99 123
174 195
6 52
125 141
32 163
203 124
195 138
149 74
91 48
172 133
41 70
16 132
66 62
185 5
34 185
4 26
206 53
86 112
18 62
22 145
101 31
197 187
180 163
161 74
138 102
138 167
36 177
19 164
127 199
91 189
77 181
102 131
48 99
66 201
120 31
4 152
4 88
114 6
92 83
14 142
162 101
119 134
76 183
24 81
36 91
95 75
168 58
125 144
76 78
116 65
82 34
193 156
4 106
119 101
46 134
25 94
61 178
17 28
71 100
134 81
64 53
73 161
97 120
3 182
125 109
175 149
2 64
115 119
15 133
167 16
151 138
133 189
153 192
26 15
35 17
92 138
206 129
183 159
127 132
171 199
144 32
18 185
154 73
2 202
38 26
161 49
195 17
93 85
34 8
44 162
16 119
153 111
148 39
37 2
117 32
188 40
127 174
30 57
2 181
149 116
156 62
32 158
6 98
36 169
8 182
159 2
77 150
149 71
71 161
168 70
56 157
112 195
204 176
189 78
165 3
123 122
66 40
141 184
131 188
191 99
69 80
63 14
177 119
47 36
84 71
123 27
19 38
56 69
114 12
27 148
21 90
198 93
120 149
92 77
18 55
183 177
117 125
100 135
102 188
103 133
84 74
199 66
32 27
99 47
30 78
114 44
156 135
140 1
204 140
24 36
127 129
68 133
27 147
67 138
164 107
23 34
11 161
50 17
177 16
133 14
53 150
146 138
189 92
70 69
10 198
73 49
34 45
186 190
82 198
165 61
38 50
13 86
2 186
164 133
141 95
151 49
49 84
18 8
28 196
154 2
10 26
191 112
73 149
137 206
29 166
48 46
66 37
11 121
94 26
48 47
79 5
7 70
94 177
132 91
61 69
85 108
127 76
182 4
88 44
101 118
46 133
26 48
46 107
179 1
44 157
40 28
79 154
205 46
192 109
121 30
176 62
112 182
161 2
135 23
151 77
114 79
95 109
18 10
152 40
26 117
16 25
170 121
13 167
143 42
160 47
171 119
187 170
169 73
166 202
61 72
49 202
95 1
179 105
16 205
117 81
99 44
75 84
183 115
98 36
123 114
19 121
33 140
116 87
154 76
48 14
12 98
50 185
8 150
181 37
93 148
202 61
186 91
144 59
198 40
147 118
25 96
174 28
176 108
134 101
191 206
43 107
106 76
58 162
132 70
67 91
101 2
45 11
126 29
124 139
170 83
94 150
16 134
60 3
123 173
41 141
106 124
174 132
16 62
15 115
62 206
39 136
155 69
164 177
100 23
40 62
144 128
45 63
18 4
97 184
73 87
185 184
193 35
5 103
29 129
203 115
3 88
74 150
54 38
110 138
126 140
141 23
92 151
109 189
69 68
183 110
74 71
82 46
164 110
38 70
8 119
63 154
79 149
134 44
153 152
113 190
162 121
31 82
155 76
53 195
37 55
162 61
88 12
79 73
147 111
198 79
25 74
119 162
64 32
40 79
35 117
45 88
93 61
169 9
95 46
96 44
52 160
205 25
155 171
93 147
142 153
129 119
108 139
54 187
24 50
40 167
156 124
14 125
50 46
48 169
21 159
3 77
64 31
54 91
88 62
70 50
202 108
19 205
94 105
100 127
22 117
106 183
18 205
125 128
198 3
13 27
53 170
138 19
164 183
167 86
113 122
176 29
36 138
36 83
68 57
157 48
136 79
123 45
81 128
105 113
72 141
10 38
33 179
103 91
114 75
132 24
8 16
139 127
77 106
120 205
190 91
52 200
183 50
96 66
133 186
11 35
60 46
141 182
27 133
186 194
42 65
194 163
96 183
183 175
8 7
89 175
198 102
112 49
140 95
198 55
103 158
126 204
45 134
11 169
64 57
87 16
60 50
58 89
127 8
15 103
133 181
183 149
65 183
24 38
55 40
82 71
65 110
18 152
103 3
144 159
61 147
148 140
16 126
34 202
64 61
78 163
15 67
142 190
120 116
129 41
177 146
162 33
120 8
100 70
204 133
6 79
88 123
45 30
30 131
133 107
40 8
110 203
2 54
68 7
69 184
160 82
75 161
84 97
75 73
55 11
25 49
4 44
8 195
8 1
153 83
204 95
112 153
8 102
9 56
11 31
188 136
55 8
134 79
103 159
30 69
74 181
105 42
58 69
175 60
27 154
37 76
151 158
127 52
62 33
198 157
55 15
116 15
198 17
159 106
49 71
141 22
174 65
17 152
55 56
16 169
92 3
93 188
192 52
179 94
135 1
53 31
1 50
195 177
73 185
2 15
76 177
39 203
153 6
36 39
115 49
26 19
49 87
196 18
10 17
198 110
4 116
79 33
70 199
86 180
144 50
46 56
36 186
50 155
56 23
50 19
91 138
64 126
71 142
146 119
142 46
17 182
25 71
36 178
183 30
23 45
142 157
200 23
56 170
119 5
131 121
142 98
49 136
18 138
115 133
45 114
125 41
98 139
134 20
29 19
79 49
178 187
12 75
149 205
26 39
1 202
119 20
71 205
185 155
10 132
198 41
171 192
106 33
85 150
66 64
5 76
147 204
123 14
132 60
139 197
197 20
97 25
44 75
65 205
65 49
138 123
181 151
79 60
149 11
99 56
146 153
71 11
16 174
182 102
77 15
135 125
142 150
169 97
108 60
205 9
114 63
52 199
144 15
199 172
114 20
17 18
139 142
108 82
163 158
96 4
178 183
3 91
151 3
184 140
49 37
121 44
38 198
180 190
131 50
50 203
65 21
6 41
57 7
113 197
138 189
40 24
70 57
96 159
153 147
110 188
172 14
78 58
88 98
110 24
83 91
80 30
44 187
186 122
56 181
67 83
132 51
79 123
84 158
123 98
1 184
1 126
19 76
73 71
93 162
95 131
150 9
115 147
149 84
5 67
98 14
195 116
124 76
197 63
64 41
126 33
31 97
65 106
91 2
20 17
50 102
103 150
136 43
35 29
59 172
71 114
83 109
49 35
194 188
142 124
48 128
17 188
33 25
1 200
178 20
170 8
4 12
9 181
185 48
6 178
16 31
28 94
94 147
39 162
87 19
189 36
64 84
30 33
187 161
201 195
162 63
18 50
28 165
118 30
31 32
32 99
71 75
114 82
72 54
98 99
28 127
51 60
161 25
176 126
169 135
84 37
191 29
25 84
179 172
26 55
25 19
133 78
119 6
25 82
114 47
105 41
75 205
114 19
31 49
92 181
110 184
190 45
34 117
120 158
113 27
182 38
187 196
61 179
16 185
114 2
