Vertices 368
206 "#8"
182 "#3"
198 "#247"
146 "#224"
93 "#253"
13 "#260"
7 "#164"
302 "#20"
291 "#296"
85 "#311"
73 "#48"
339 "#264"
100 "#56"
112 "#256"
286 "#329"
135 "#293"
153 "#223"
243 "#173"
17 "#157"
163 "#269"
346 "#211"
11 "#218"
320 "#64"
262 "#348"
81 "#87"
229 "#52"
201 "#213"
20 "#195"
108 "#126"
121 "#251"
56 "#160"
139 "#167"
32 "#188"
48 "#197"
280 "#162"
72 "#232"
92 "#276"
143 "#366"
241 "#321"
116 "#95"
177 "#200"
230 "#76"
3 "#14"
99 "#277"
76 "#16"
316 "#228"
226 "#275"
333 "#122"
113 "#323"
42 "#79"
136 "#216"
47 "#82"
176 "#236"
12 "#333"
114 "#322"
260 "#289"
109 "#210"
233 "#129"
155 "#47"
45 "#59"
88 "#310"
259 "#39"
62 "#103"
14 "#304"
167 "#285"
235 "#313"
352 "#127"
128 "#227"
287 "#268"
194 "#302"
323 "#306"
78 "#148"
295 "#212"
147 "#208"
156 "#334"
363 "#252"
59 "#325"
208 "#58"
212 "#286"
55 "#202"
141 "#309"
16 "#170"
195 "#271"
335 "#77"
46 "#91"
312 "#326"
232 "#297"
91 "#131"
341 "#357"
240 "#294"
300 "#44"
180 "#203"
74 "#362"
157 "#314"
150 "#97"
274 "#196"
110 "#360"
197 "#355"
219 "#221"
58 "#274"
60 "#15"
210 "#201"
246 "#204"
361 "#105"
69 "#175"
236 "#242"
267 "#263"
220 "#130"
119 "#184"
148 "#110"
301 "#113"
80 "#249"
1 "#209"
216 "#149"
41 "#38"
160 "#30"
90 "#233"
221 "#270"
123 "#154"
213 "#51"
101 "#24"
97 "#9"
4 "#25"
358 "#6"
251 "#147"
319 "#318"
171 "#328"
315 "#363"
294 "#67"
19 "#99"
282 "#13"
140 "#305"
248 "#118"
278 "#102"
142 "#176"
307 "#1"
276 "#10"
273 "#340"
217 "#55"
6 "#151"
257 "#135"
322 "#177"
255 "#116"
126 "#315"
172 "#62"
82 "#215"
231 "#248"
38 "#94"
268 "#235"
57 "#33"
124 "#283"
192 "#303"
8 "#145"
304 "#89"
169 "#192"
173 "#261"
355 "#225"
103 "#68"
9 "#111"
237 "#339"
117 "#352"
168 "#351"
211 "#239"
27 "#308"
52 "#245"
277 "#19"
270 "#18"
68 "#115"
67 "#83"
283 "#190"
134 "#281"
256 "#292"
129 "#66"
285 "#21"
193 "#336"
33 "#166"
77 "#40"
107 "#132"
164 "#350"
184 "#109"
215 "#168"
353 "#343"
234 "#272"
258 "#206"
10 "#57"
347 "#124"
34 "#354"
314 "#189"
245 "#181"
263 "#222"
162 "#125"
54 "#60"
175 "#46"
202 "#50"
149 "#80"
272 "#112"
222 "#98"
253 "#141"
313 "#237"
345 "#29"
249 "#11"
250 "#273"
318 "#338"
51 "#45"
205 "#299"
152 "#183"
306 "#22"
203 "#75"
329 "#90"
364 "#295"
23 "#230"
26 "#330"
317 "#353"
179 "#172"
244 "#28"
61 "#27"
342 "#93"
311 "#4"
170 "#319"
298 "#42"
24 "#205"
309 "#146"
127 "#17"
21 "#187"
275 "#240"
305 "#229"
204 "#266"
190 "#120"
337 "#128"
196 "#186"
332 "#301"
144 "#174"
137 "#63"
303 "#140"
252 "#287"
44 "#282"
265 "#138"
281 "#364"
94 "#74"
125 "#84"
185 "#73"
338 "#159"
290 "#85"
43 "#134"
199 "#280"
310 "#143"
334 "#219"
154 "#267"
161 "#341"
36 "#161"
366 "#279"
174 "#133"
79 "#324"
297 "#265"
225 "#356"
271 "#5"
362 "#155"
207 "#257"
264 "#238"
183 "#178"
214 "#81"
356 "#332"
357 "#234"
158 "#96"
18 "#70"
360 "#346"
365 "#41"
209 "#153"
326 "#150"
279 "#35"
106 "#198"
340 "#107"
349 "#100"
269 "#65"
37 "#335"
166 "#152"
288 "#144"
325 "#34"
181 "#158"
50 "#108"
308 "#327"
145 "#246"
238 "#72"
132 "#320"
86 "#171"
247 "#106"
95 "#345"
254 "#54"
133 "#262"
104 "#101"
348 "#284"
118 "#156"
367 "#49"
330 "#23"
224 "#220"
188 "#169"
31 "#217"
336 "#316"
296 "#165"
324 "#259"
359 "#114"
189 "#291"
200 "#317"
354 "#117"
122 "#71"
130 "#123"
40 "#241"
299 "#136"
266 "#119"
187 "#179"
35 "#231"
39 "#163"
218 "#214"
65 "#86"
178 "#337"
53 "#191"
111 "#53"
321 "#194"
138 "#121"
87 "#12"
98 "#36"
71 "#288"
30 "#61"
70 "#139"
186 "#244"
83 "#342"
293 "#347"
64 "#199"
22 "#78"
228 "#349"
227 "#88"
350 "#193"
89 "#26"
343 "#278"
261 "#243"
115 "#359"
105 "#300"
120 "#182"
368 "#255"
102 "#254"
351 "#307"
28 "#312"
289 "#104"
191 "#361"
165 "#290"
63 "#258"
84 "#250"
49 "#92"
131 "#0"
15 "#69"
242 "#331"
75 "#185"
2 "#7"
66 "#2"
96 "#32"
25 "#180"
344 "#31"
159 "#367"
327 "#358"
331 "#226"
284 "#142"
328 "#207"
29 "#365"
151 "#137"
239 "#298"
292 "#344"
223 "#37"
5 "#43"
Edges
305 139
10 187
318 85
215 220
32 232
186 349
138 368
313 128
192 12
127 87
160 102
20 299
238 243
35 296
206 353
368 263
41 282
121 62
163 121
348 241
18 242
271 43
288 46
184 73
232 114
54 321
185 265
277 114
256 224
83 168
214 210
143 214
53 97
232 81
347 256
20 287
181 354
177 65
223 10
305 198
134 9
64 17
309 11
286 116
49 279
88 41
261 133
4 243
276 23
8 231
89 277
286 339
127 183
191 334
265 288
175 196
355 258
309 69
52 90
366 296
275 176
203 220
50 325
301 151
82 15
34 227
251 80
46 105
102 50
126 33
354 218
115 87
190 336
62 160
161 201
53 22
242 259
342 282
265 48
344 35
32 221
168 158
112 16
77 149
315 115
242 59
109 208
111 334
272 341
285 283
161 234
300 314
261 309
22 193
228 29
58 231
8 47
133 167
254 231
280 218
217 103
173 121
287 288
75 272
21 292
276 238
261 270
124 187
342 307
121 119
41 15
8 19
192 157
318 280
17 168
70 149
148 131
293 4
88 161
67 180
320 344
267 190
206 107
19 65
32 246
249 277
238 314
107 318
40 32
325 196
85 229
31 127
192 200
196 197
267 207
242 323
269 225
93 90
83 205
113 306
320 334
311 96
230 271
6 82
346 42
276 74
221 9
326 101
169 362
162 262
345 106
233 232
171 242
363 244
285 78
73 362
136 175
260 143
34 312
306 196
270 101
74 325
234 6
175 137
153 124
40 320
53 160
198 105
151 198
280 24
150 289
207 139
143 38
338 319
275 317
110 16
277 138
274 273
129 360
312 132
7 81
277 203
329 214
194 325
19 132
345 162
35 228
283 79
154 218
235 220
98 2
110 95
297 367
301 48
38 17
164 225
236 178
304 355
190 227
206 7
18 284
194 4
76 216
148 312
17 283
310 321
256 183
119 35
131 33
321 358
330 58
253 338
350 169
162 358
174 358
164 34
136 153
258 97
236 99
331 153
81 72
146 147
92 364
314 234
248 38
235 157
155 321
232 364
104 114
320 137
215 362
55 30
32 61
224 352
196 54
67 291
250 44
137 229
86 104
337 242
133 305
304 103
108 83
367 345
169 234
286 354
214 267
299 182
243 226
258 211
160 127
296 341
339 63
110 70
20 194
357 285
71 294
146 127
242 112
161 159
237 317
149 219
264 223
259 355
157 143
75 16
110 132
103 152
144 94
298 333
87 166
91 303
322 75
33 55
299 170
302 179
82 218
327 108
231 190
307 330
39 104
310 219
332 138
230 238
107 286
190 199
189 70
182 330
160 194
296 47
264 35
260 353
172 267
364 314
37 110
174 288
108 291
327 58
142 215
355 136
197 249
305 348
44 89
26 107
177 346
204 182
362 308
333 53
240 262
281 132
286 19
11 105
155 208
142 278
28 307
82 53
303 349
267 223
262 76
116 309
347 260
179 182
28 236
174 219
168 313
130 272
84 234
349 180
141 122
8 84
142 146
27 191
20 191
283 106
61 196
155 222
55 26
287 236
90 309
354 303
282 64
23 6
308 129
37 148
161 121
285 199
47 142
89 357
37 249
300 362
264 339
214 268
314 306
263 187
295 222
263 336
262 325
13 305
325 84
236 189
27 121
285 219
158 220
142 300
167 32
77 44
214 41
345 192
240 227
220 164
55 64
348 30
165 135
147 266
284 310
261 286
203 50
147 104
292 364
180 53
346 23
207 117
118 67
68 96
361 255
41 246
222 166
113 1
128 84
54 309
338 21
348 2
260 129
307 211
158 141
255 310
161 47
349 305
289 255
268 198
32 333
51 177
294 270
17 39
22 267
216 45
111 209
311 360
97 271
76 178
102 147
247 263
22 291
121 39
172 169
87 268
258 71
362 55
79 207
296 273
316 106
203 231
245 86
120 196
305 183
28 226
80 49
218 79
22 350
283 25
362 208
100 38
21 207
229 72
284 186
91 239
243 258
79 267
104 77
12 27
353 168
276 40
57 140
114 222
150 286
7 345
273 205
187 322
20 89
271 209
216 288
320 22
206 328
332 239
84 89
253 252
327 226
117 14
60 303
290 163
161 110
73 346
183 75
366 11
164 222
35 232
254 222
249 178
222 53
296 5
171 173
181 366
78 229
341 262
184 19
155 34
59 339
267 322
33 337
294 117
362 296
73 264
268 133
280 119
132 76
50 99
56 46
105 52
249 316
352 265
272 184
61 358
186 328
33 211
90 267
80 338
54 111
243 58
209 258
5 160
155 29
293 83
239 262
243 217
216 60
29 101
308 236
280 187
277 270
132 333
156 176
357 185
163 354
261 25
30 290
328 367
303 81
215 80
214 300
226 54
60 247
230 265
233 212
158 304
344 84
281 74
46 35
308 45
137 172
5 20
14 312
118 106
351 6
43 355
111 40
61 201
248 216
355 187
203 363
172 291
304 305
279 267
266 123
236 130
67 72
339 138
213 279
258 77
234 172
318 129
16 267
330 216
342 294
214 353
285 311
230 149
11 167
11 20
58 290
89 306
43 293
309 135
35 55
146 32
96 94
138 282
362 115
130 154
311 350
346 129
191 31
337 358
240 132
208 10
332 139
201 88
97 303
77 75
225 161
144 121
171 184
264 129
301 64
62 238
319 24
95 235
321 314
5 71
18 321
288 14
339 173
216 39
225 182
142 26
359 203
341 117
223 331
363 194
275 222
257 238
127 255
143 161
24 129
226 2
305 314
100 310
324 102
164 242
325 36
184 175
166 304
75 333
247 108
346 365
284 351
86 16
67 87
99 299
125 43
332 105
343 340
114 79
213 259
255 37
195 82
327 205
98 53
84 131
5 97
354 302
232 310
17 211
142 55
87 160
222 342
106 102
108 77
43 188
354 158
282 91
81 291
209 166
297 192
81 146
345 134
159 308
105 257
249 4
149 100
303 130
187 99
73 247
272 282
166 174
265 290
325 280
100 171
351 80
307 320
36 310
29 105
189 92
176 73
316 21
331 128
88 172
320 313
14 175
74 21
148 285
276 176
174 78
56 139
67 248
167 244
191 121
312 12
231 210
174 226
354 223
65 170
358 175
64 229
304 364
225 143
270 333
322 207
313 283
109 31
310 304
341 154
72 336
199 327
221 48
88 349
50 263
36 16
60 31
242 344
124 234
99 57
73 162
40 236
73 20
288 293
337 21
160 73
133 102
178 55
301 240
330 68
227 120
199 241
41 182
288 204
295 334
320 9
115 287
18 315
218 143
155 131
60 302
58 160
70 216
323 26
97 95
330 321
76 73
25 185
349 363
283 85
55 276
57 326
23 74
68 151
278 55
9 182
194 298
217 278
74 81
49 248
105 234
311 220
161 90
276 100
179 308
115 18
201 273
240 288
306 224
264 92
69 288
227 196
136 342
269 8
1 305
179 106
194 247
188 25
266 263
145 340
48 198
296 259
41 260
149 322
356 172
5 109
66 146
294 323
93 79
313 169
180 160
36 39
206 163
35 66
229 254
56 229
150 267
12 288
336 29
63 154
282 100
269 183
359 307
270 251
343 140
328 33
193 109
103 274
348 73
269 231
187 60
158 68
304 147
336 180
39 212
6 267
9 208
2 198
172 340
331 315
244 367
154 112
356 103
230 91
249 255
342 154
304 182
101 293
84 99
54 50
132 259
50 188
245 74
28 45
62 269
127 52
368 152
285 280
146 40
264 19
252 201
300 269
95 303
317 335
114 135
339 166
141 21
94 222
4 124
367 237
138 250
230 211
108 304
361 287
112 368
91 205
318 132
74 341
112 222
226 366
112 289
88 278
120 301
13 212
148 43
253 301
272 345
87 108
331 255
281 360
35 5
169 54
23 198
297 128
229 170
114 169
175 238
147 109
99 235
182 301
248 290
268 186
298 149
293 144
86 75
263 177
105 341
175 367
345 348
285 302
275 82
172 312
13 344
250 224
31 88
66 352
113 76
195 214
38 181
180 343
306 222
333 221
220 368
145 187
18 306
245 77
8 171
200 319
137 92
112 249
57 217
221 76
41 333
40 54
76 112
77 47
9 153
4 155
261 190
65 250
196 292
243 16
132 321
178 353
288 276
171 215
214 67
42 246
207 128
177 147
275 305
359 7
127 276
216 48
86 358
103 258
42 364
272 105
357 367
174 35
309 308
187 120
74 52
284 330
305 178
256 272
269 332
365 188
190 125
27 299
309 222
174 86
26 204
197 230
288 203
177 44
344 56
250 255
208 154
233 136
255 20
197 29
291 205
257 93
215 19
262 194
96 351
248 340
26 9
294 45
122 160
62 239
346 304
179 200
206 10
78 185
318 161
249 186
40 106
226 342
317 205
180 317
50 12
84 42
64 172
235 41
67 124
175 303
4 352
160 226
304 225
233 234
363 365
33 42
230 306
76 242
297 29
346 295
206 332
252 81
301 331
131 324
160 108
304 100
226 12
338 342
108 54
229 259
94 174
210 292
77 297
31 108
340 22
137 46
157 67
54 234
209 132
69 50
303 8
311 108
195 235
194 118
36 145
315 277
358 137
97 18
235 156
276 219
315 308
11 154
268 205
34 105
361 351
62 291
4 262
240 171
65 297
354 254
249 144
5 355
136 26
177 21
117 197
311 253
228 159
36 240
119 300
8 272
150 11
150 269
246 277
351 106
338 18
284 282
140 28
187 78
70 309
52 198
356 229
309 295
222 208
81 289
220 173
317 159
30 260
263 255
102 40
259 46
261 146
147 270
321 352
3 27
42 189
96 232
33 44
323 288
15 257
104 72
60 182
92 215
124 219
365 210
166 11
165 334
100 259
291 57
190 306
156 267
290 352
353 238
113 236
221 150
196 142
238 278
31 186
75 365
289 130
260 151
2 335
299 285
98 290
213 309
261 86
98 307
151 184
330 39
241 60
78 354
359 23
204 240
271 89
69 295
216 52
93 286
99 335
61 186
114 345
314 158
257 243
129 315
34 104
120 323
48 152
262 119
270 351
325 172
283 100
108 230
326 354
57 82
108 277
257 68
61 365
311 44
105 358
184 133
185 68
204 317
288 363
176 288
38 118
127 125
75 300
260 17
352 117
26 61
20 72
150 170
226 136
234 357
68 362
247 177
333 259
55 53
151 265
28 107
151 367
304 144
364 344
68 344
306 66
78 147
284 348
304 329
297 69
315 193
156 180
346 258
226 208
70 259
236 224
257 282
180 274
180 73
182 111
178 344
365 76
272 211
48 8
77 191
330 86
344 289
196 2
115 1
329 56
64 161
215 63
280 185
255 62
311 296
12 346
106 73
158 230
186 194
131 268
140 149
200 283
177 180
148 29
179 151
334 161
45 42
128 143
223 137
124 348
265 231
62 286
205 190
253 230
227 300
310 254
40 222
355 316
50 216
112 236
167 70
171 75
144 288
38 162
340 83
50 17
265 346
126 286
282 1
343 81
150 2
189 45
26 271
125 142
166 238
96 318
220 151
139 46
66 75
33 37
42 218
233 185
183 195
53 60
284 357
307 182
48 255
265 6
92 231
83 201
96 142
166 59
73 340
328 342
345 118
283 192
208 301
354 137
124 263
1 210
170 284
350 7
190 145
301 35
171 147
348 189
277 117
134 227
35 123
100 206
42 303
302 16
99 258
59 336
361 67
167 222
180 200
46 233
335 69
264 232
230 84
89 208
130 91
173 132
292 269
143 287
111 1
237 265
341 358
174 336
14 259
148 185
256 295
345 271
23 305
70 130
139 284
58 352
79 301
229 206
181 335
81 13
178 237
173 172
252 353
334 301
326 6
162 169
244 15
62 290
294 98
185 95
14 93
320 53
151 358
366 301
326 109
121 283
33 149
267 293
311 299
368 82
260 256
285 208
82 269
38 362
34 212
95 218
18 158
106 182
12 41
156 1
97 205
103 272
199 127
120 13
55 2
164 333
46 306
195 234
232 365
201 85
223 341
303 174
290 222
6 299
172 127
200 114
244 149
71 269
79 39
72 268
26 62
24 2
197 83
143 323
365 352
123 137
131 290
223 320
23 8
4 167
311 149
101 238
261 245
135 361
294 27
365 84
52 357
101 345
290 6
194 280
295 319
139 99
273 199
270 142
114 72
176 211
7 258
167 311
70 148
220 249
224 234
42 307
152 147
102 141
85 146
264 43
279 227
338 262
339 119
240 43
203 332
347 115
321 274
273 5
50 82
363 53
157 48
122 248
280 210
155 98
335 345
38 73
269 182
60 339
74 89
178 272
294 277
89 236
368 367
18 185
29 91
235 26
181 59
147 31
94 155
129 196
57 78
334 158
141 114
135 26
356 185
142 325
172 252
7 109
80 60
111 297
357 65
35 355
176 81
279 199
153 3
287 228
146 180
330 44
355 139
104 76
51 174
289 96
129 257
45 269
221 281
22 183
328 199
13 300
182 49
169 240
264 183
210 59
120 326
310 136
312 24
24 285
36 313
11 24
282 213
54 359
263 311
139 188
4 5
51 209
117 93
107 37
302 216
341 163
87 173
348 71
189 226
123 317
26 348
148 189
357 126
225 88
11 134
234 19
106 77
85 206
261 268
363 180
131 316
255 162
126 211
125 179
113 41
262 228
194 216
339 90
179 140
336 28
116 317
197 360
290 233
125 257
259 287
170 270
309 152
335 39
174 189
105 76
101 244
3 157
274 94
71 189
197 338
147 229
57 156
178 130
50 49
58 337
310 24
112 11
170 182
65 190
181 300
179 243
58 159
331 283
317 3
75 215
313 367
149 41
290 322
1 52
313 223
263 317
330 236
288 343
42 182
145 43
21 342
61 101
216 364
47 11
279 207
289 28
10 196
344 367
175 213
288 168
174 163
143 179
18 51
62 223
78 254
84 164
288 184
208 249
202 153
53 44
157 39
298 365
100 331
60 65
337 266
86 331
224 288
104 140
277 212
215 21
315 272
233 227
358 57
125 208
289 302
247 34
19 6
93 102
194 246
252 112
146 343
64 245
320 61
120 79
178 70
133 353
171 48
8 329
57 120
42 160
320 252
294 192
189 120
285 321
259 318
299 36
231 14
9 73
154 173
201 11
294 231
295 341
148 244
79 7
194 210
109 302
160 278
228 344
10 138
54 31
12 250
312 70
78 109
292 184
141 334
34 73
321 148
56 35
345 12
129 111
334 346
277 71
86 223
130 129
367 271
130 222
61 51
258 190
164 357
352 75
42 51
318 36
38 291
85 122
49 359
148 156
17 163
65 62
254 31
199 162
365 297
45 122
112 83
186 81
20 124
167 164
83 29
156 26
70 280
126 137
45 344
182 3
135 364
278 305
183 136
255 224
174 142
218 39
148 33
208 270
34 33
232 20
332 266
258 285
168 154
36 220
244 23
140 163
203 283
179 202
149 76
329 309
260 122
49 119
342 189
250 5
367 123
274 195
267 337
359 104
73 165
98 243
45 362
194 205
59 163
347 328
264 40
311 362
74 32
11 123
18 360
271 216
204 271
352 331
16 119
336 77
193 34
119 245
259 170
141 320
334 55
102 277
63 181
191 262
109 40
365 292
310 269
223 271
117 112
270 231
321 29
256 216
180 234
103 181
177 244
64 302
203 290
279 103
49 153
63 93
2 86
273 178
273 49
268 174
81 340
55 87
150 362
331 201
10 263
33 239
250 227
288 180
11 17
309 112
279 354
23 268
9 335
106 35
293 329
46 80
259 239
185 267
261 264
186 351
141 18
218 219
283 66
168 338
38 196
66 350
298 137
20 90
73 32
142 77
127 368
255 168
311 69
202 193
22 243
42 203
49 329
226 260
122 249
276 338
75 71
340 1
62 296
146 187
52 294
289 209
326 158
56 121
23 70
170 28
178 83
54 203
321 118
3 101
18 8
173 320
45 347
322 299
246 274
186 10
270 218
320 315
316 128
78 143
350 32
291 298
314 177
28 114
236 261
217 30
347 227
300 298
131 214
53 109
357 134
244 247
161 235
32 338
179 74
301 132
32 134
66 326
218 260
21 313
84 310
261 318
246 162
249 115
44 214
361 251
227 174
277 85
268 279
250 69
240 68
173 115
99 276
338 69
245 331
282 222
221 58
321 134
49 2
258 86
106 362
354 69
88 123
141 154
273 297
225 104
289 216
66 230
45 359
5 228
205 289
75 111
220 130
195 169
10 126
210 134
20 33
321 126
361 145
204 212
283 158
48 183
65 81
52 350
111 66
17 334
307 3
162 27
15 36
325 362
229 163
292 250
150 161
182 327
151 253
345 355
241 24
173 321
262 20
106 6
244 165
185 28
323 77
246 166
316 120
141 15
158 3
1 48
267 57
275 88
197 340
170 100
189 122
15 47
116 103
122 290
200 329
196 104
54 254
320 330
85 232
29 366
273 74
119 160
348 256
30 41
201 140
251 276
3 300
149 75
25 80
129 182
295 117
270 210
334 215
116 164
104 49
86 20
117 262
285 233
362 155
288 33
14 219
2 61
181 138
245 16
365 209
245 167
24 73
311 62
312 22
49 42
192 273
320 244
275 65
297 256
132 271
15 83
207 195
317 51
82 229
347 25
62 278
195 267
97 326
329 87
233 265
245 213
111 304
239 92
350 245
100 136
230 4
94 310
80 325
76 127
229 66
178 164
48 347
55 339
282 298
137 269
282 189
201 134
335 82
73 189
110 356
231 23
180 263
52 229
216 258
78 296
288 294
21 351
206 323
82 346
169 70
335 80
321 270
62 187
10 87
174 76
63 101
316 230
167 321
325 75
311 361
76 27
211 341
270 31
170 340
239 293
225 349
116 187
308 316
316 222
245 183
295 162
181 200
228 162
125 230
167 72
196 177
221 306
82 135
50 155
260 355
48 60
236 266
147 297
270 358
233 337
140 206
7 273
91 306
208 276
81 50
235 289
196 330
204 13
118 292
252 281
109 39
225 366
62 236
15 230
121 239
152 110
225 68
295 219
327 203
193 115
116 297
329 247
118 290
86 98
104 233
344 303
84 202
5 330
123 250
97 219
93 214
77 351
321 324
289 300
362 349
175 364
294 158
31 42
214 68
345 15
330 203
71 180
103 290
262 256
82 254
358 243
337 352
86 187
103 331
34 17
56 109
329 181
259 129
155 234
164 366
222 249
144 157
321 61
58 134
272 274
12 187
342 31
270 73
105 271
340 87
59 299
339 75
233 220
353 202
49 193
186 148
360 299
290 166
120 126
140 289
348 18
296 84
170 141
321 169
323 22
81 278
92 199
287 129
163 11
24 49
299 250
204 331
170 265
272 269
54 263
341 212
95 84
21 85
133 214
349 300
325 112
189 145
185 113
211 283
158 201
323 106
141 134
275 187
288 228
273 26
314 106
78 175
289 103
342 13
69 304
60 26
131 142
20 342
138 54
146 302
356 232
208 325
247 290
256 90
14 330
222 147
296 338
78 158
143 41
227 94
207 111
333 359
120 17
305 358
317 136
228 192
126 157
365 293
264 94
134 155
62 251
204 300
240 45
114 363
191 255
304 268
302 176
312 113
221 30
185 278
137 140
33 219
201 288
249 87
360 237
62 349
280 21
70 177
110 164
135 205
225 211
263 131
185 287
74 51
115 83
244 171
337 34
13 201
163 18
160 313
114 246
221 154
61 183
190 79
108 272
320 98
308 15
158 309
336 87
234 230
50 265
8 359
234 147
334 219
254 205
339 221
170 231
335 130
178 28
119 345
159 258
42 299
79 239
111 36
12 96
113 190
1 240
294 238
225 299
4 320
330 234
193 197
157 361
297 218
283 324
116 262
223 190
279 57
164 108
63 287
152 288
143 197
361 126
219 240
272 47
163 99
300 81
91 329
145 339
46 87
114 139
183 93
175 194
190 191
173 39
49 163
277 299
4 80
154 207
109 3
292 228
53 275
131 151
258 329
224 139
187 19
69 328
144 222
85 268
350 347
211 241
237 231
201 277
248 27
347 94
30 303
116 54
192 15
165 324
264 144
124 199
224 303
162 260
112 173
33 17
20 201
210 288
308 269
348 295
284 49
147 68
169 283
280 296
311 162
328 35
335 68
305 30
243 308
43 213
124 71
180 224
204 215
36 193
308 60
265 269
345 155
71 44
14 155
26 209
247 241
304 76
272 238
165 49
338 99
329 295
267 203
305 117
172 151
109 70
220 217
57 324
290 282
59 106
229 173
231 150
46 70
132 279
186 290
353 318
154 140
265 5
140 337
307 68
235 134
152 46
244 299
163 364
293 337
256 37
20 182
331 270
78 203
36 119
85 58
291 239
121 198
45 24
312 9
82 211
244 22
222 11
175 329
6 168
9 291
291 324
268 98
145 85
212 352
309 270
96 290
295 92
13 67
178 94
114 268
195 112
134 326
183 295
285 201
200 347
78 42
280 124
155 117
123 216
76 330
269 334
45 36
41 323
54 311
209 330
108 4
255 182
112 196
282 204
118 217
113 187
231 73
106 284
92 95
227 49
55 303
202 270
165 288
128 2
72 327
34 75
345 224
121 35
158 163
336 337
87 86
74 304
195 246
115 39
323 85
103 87
112 276
183 273
98 24
364 96
39 66
195 10
41 53
302 84
268 17
126 20
315 297
325 292
149 277
257 39
200 309
35 342
356 42
237 276
18 94
174 361
221 211
212 273
135 211
290 23
24 40
272 85
173 56
268 255
162 365
83 56
72 52
262 156
127 341
46 300
335 135
337 327
158 335
145 155
35 32
327 361
25 238
220 323
3 110
294 254
288 259
345 126
165 78
90 167
277 37
117 168
309 136
270 129
29 208
19 367
195 299
357 159
158 218
23 186
50 296
125 345
102 68
304 5
163 250
292 133
273 16
307 176
362 22
232 250
347 323
338 273
77 232
322 82
11 363
347 109
249 285
304 281
86 94
320 70
59 250
169 243
35 72
109 262
102 267
122 116
107 233
154 211
180 78
71 274
348 335
13 102
180 35
239 36
220 352
241 8
115 223
81 44
108 245
325 177
192 244
272 181
252 51
253 247
191 263
272 279
5 208
281 313
187 177
271 108
114 11
76 64
165 150
185 200
64 31
165 248
284 243
316 148
179 34
273 193
29 230
269 175
333 30
60 259
246 350
188 77
111 366
165 2
246 229
177 259
325 367
301 144
122 269
61 205
205 224
215 357
319 365
109 80
211 178
170 81
338 62
2 83
342 234
245 150
244 294
137 70
263 114
65 265
71 311
345 131
282 241
67 56
190 82
256 126
90 37
68 357
317 19
31 193
14 139
238 80
185 11
261 198
255 133
293 204
298 2
6 260
163 74
166 70
241 81
349 126
176 257
65 137
275 72
60 81
254 345
329 227
6 72
172 15
311 155
17 158
166 161
20 106
131 339
217 42
244 257
95 37
80 268
169 144
43 81
161 30
358 190
190 268
176 131
269 103
193 126
19 38
1 77
220 241
132 356
358 89
199 212
353 160
305 158
100 294
177 362
242 194
211 261
44 273
300 342
284 198
109 38
59 81
177 323
174 254
46 106
74 58
50 183
79 100
104 127
54 146
228 237
178 284
222 311
55 48
94 228
319 366
98 52
354 213
322 71
200 177
137 119
69 109
293 317
46 282
184 312
159 155
104 243
293 74
198 102
250 104
291 71
176 22
280 84
171 139
46 2
302 139
367 174
337 181
70 107
287 84
345 122
303 282
193 184
43 277
227 103
137 77
130 158
203 180
98 130
99 129
12 20
327 286
186 96
111 262
24 215
339 195
356 200
217 161
248 153
116 359
80 146
196 243
158 270
125 244
316 217
191 34
68 290
25 215
310 206
119 86
58 96
335 42
55 238
365 31
235 228
109 336
88 231
237 241
116 326
109 185
201 340
230 350
17 269
366 343
335 205
305 4
124 132
213 162
182 265
140 308
184 23
333 242
128 33
167 320
114 138
157 360
302 330
110 348
184 325
353 49
64 147
363 192
140 332
139 84
120 222
364 65
184 303
72 96
43 55
107 136
137 345
152 78
306 232
351 93
237 270
166 306
260 167
60 72
204 301
96 188
241 218
161 115
346 259
86 120
47 41
154 366
188 30
98 198
152 220
318 168
194 182
246 17
330 126
28 177
134 305
182 321
293 197
278 124
260 42
353 229
101 54
138 68
137 54
280 27
175 294
268 221
363 172
340 52
218 330
287 231
152 133
316 62
214 165
54 355
329 161
54 134
313 198
304 89
294 66
148 7
333 51
103 301
86 272
319 336
345 307
89 336
58 100
199 225
199 366
253 256
313 204
61 123
349 121
157 171
133 118
272 30
66 177
38 232
262 16
196 7
362 189
359 330
57 96
329 275
69 353
178 304
21 203
338 214
70 100
358 328
237 214
38 28
74 50
246 150
214 217
333 314
190 313
153 43
118 95
301 191
235 296
212 56
160 339
285 48
269 305
66 290
25 6
294 32
354 10
7 228
166 151
91 66
40 18
169 159
279 214
309 303
24 66
363 35
19 266
250 162
298 197
348 50
62 340
344 54
241 28
196 187
108 68
18 78
314 20
142 245
171 251
51 150
169 33
321 24
95 278
306 247
98 42
332 349
194 65
258 162
173 267
183 9
41 285
176 347
330 273
188 223
9 201
175 197
253 162
86 180
301 78
274 290
52 128
94 163
291 36
251 336
251 253
209 193
21 123
352 45
203 340
366 63
296 178
347 125
264 311
340 142
236 176
350 201
249 259
197 37
320 201
93 325
57 235
293 176
64 205
95 307
16 251
352 13
233 175
287 28
266 303
349 155
342 15
217 236
264 134
231 74
31 363
37 190
359 71
226 121
242 276
230 54
87 119
92 290
343 149
226 33
233 186
176 186
53 94
162 326
105 239
322 200
271 142
10 155
184 358
250 54
146 148
338 363
121 223
341 190
91 327
14 148
50 97
326 249
76 54
280 338
319 98
215 188
45 97
201 249
59 3
77 247
165 322
73 19
241 101
111 181
135 224
183 160
151 186
362 289
47 36
220 97
324 302
170 181
278 257
132 308
250 102
128 50
201 24
276 213
58 155
162 148
132 57
90 189
309 30
101 79
147 139
290 183
49 172
332 241
233 282
228 211
190 354
305 253
288 222
292 278
17 338
171 140
207 72
361 319
248 77
313 20
359 70
182 80
258 164
11 190
110 195
158 104
3 118
188 364
195 105
84 195
92 171
333 183
343 306
284 152
195 196
331 160
283 264
200 73
35 269
254 66
96 42
8 319
182 274
17 36
16 311
55 200
46 343
151 133
43 220
59 77
336 128
145 287
88 270
189 274
348 146
71 30
42 330
127 288
108 147
184 352
342 268
45 255
297 105
137 326
74 300
37 318
251 324
93 335
286 209
55 34
320 224
88 235
129 326
30 312
69 56
180 357
302 231
11 36
21 222
17 206
345 316
200 25
100 55
234 294
309 155
237 64
244 54
288 205
335 169
186 230
41 155
260 327
164 23
342 236
244 4
224 89
2 319
368 58
214 285
229 280
357 332
238 318
47 279
291 180
260 187
368 177
318 7
60 211
26 157
262 115
192 146
117 150
14 232
234 152
200 48
359 174
166 36
316 236
326 233
311 164
186 85
262 324
139 186
17 173
368 86
200 224
133 135
320 322
319 172
68 152
309 198
350 19
161 315
249 31
125 325
39 105
231 102
285 242
18 319
264 166
325 91
204 121
238 227
349 240
230 237
143 71
33 51
185 358
208 338
236 230
111 100
32 315
129 96
293 48
330 56
214 108
329 153
153 64
19 299
249 94
308 326
180 77
309 237
323 367
314 12
234 272
364 93
343 134
353 274
354 7
153 368
176 245
365 138
206 245
360 79
120 175
357 87
63 79
42 304
79 31
148 45
62 61
4 354
203 282
355 147
359 132
18 55
203 33
341 166
241 171
200 65
43 114
363 231
164 256
220 347
150 6
135 171
106 311
15 8
148 179
165 313
62 183
109 115
131 311
170 171
32 89
334 8
227 12
123 152
62 182
49 184
6 303
232 21
28 26
16 220
283 21
360 50
335 223
238 234
216 211
217 156
302 92
91 137
244 17
6 155
368 247
175 165
293 92
290 130
251 91
122 330
70 136
150 13
128 308
305 289
117 130
332 214
262 244
190 8
56 45
285 93
66 320
36 368
234 97
257 76
348 165
186 167
42 367
104 211
322 129
179 160
170 147
267 161
347 179
164 37
135 40
203 68
11 170
334 247
75 194
62 35
83 360
349 204
7 129
266 358
96 87
4 297
324 7
206 313
72 82
156 327
144 85
84 51
157 228
165 21
337 128
97 111
233 280
148 57
43 124
36 91
110 100
228 359
123 300
98 166
235 279
364 218
160 215
63 276
93 297
48 53
7 131
25 139
246 238
154 223
263 12
325 176
254 46
218 253
260 349
11 183
1 136
246 62
57 223
122 324
154 58
166 231
287 269
146 21
232 179
233 125
184 50
275 94
29 37
351 57
356 62
84 216
55 273
10 111
48 176
346 336
345 27
284 327
176 336
45 54
177 185
287 312
362 100
89 12
304 99
47 73
239 124
150 347
47 138
341 219
67 347
172 345
233 108
14 334
15 248
129 57
345 248
132 306
301 302
237 260
149 143
198 311
340 192
64 335
129 341
202 45
333 71
26 286
280 347
194 256
28 108
335 4
359 85
235 59
364 7
185 329
309 242
69 285
291 210
67 94
59 140
359 236
1 59
277 97
283 54
309 315
169 49
56 299
263 329
32 326
309 53
202 282
344 20
34 12
235 108
149 224
326 244
21 336
159 191
99 93
123 195
111 5
257 62
23 264
160 105
218 368
155 140
12 228
172 76
294 206
302 322
203 244
277 320
236 301
241 292
244 330
172 75
243 181
146 297
110 266
253 131
329 107
231 293
140 4
259 118
227 242
347 155
359 294
37 331
179 110
125 30
235 79
62 271
179 23
51 303
252 189
114 302
26 199
165 8
41 89
129 160
141 274
349 220
222 325
225 144
347 95
30 344
186 215
119 131
319 308
302 40
57 213
92 2
246 365
214 86
280 293
73 297
319 235
86 192
21 214
34 275
49 291
107 24
233 330
24 205
265 329
163 162
138 206
253 274
220 269
248 301
354 159
321 147
11 130
146 295
335 139
224 273
201 65
114 178
234 85
285 354
261 88
73 311
120 272
27 352
101 291
279 230
188 335
6 63
154 17
299 51
91 321
28 229
5 69
2 36
33 304
18 68
200 315
90 56
355 247
148 121
145 250
270 249
156 197
213 60
79 241
55 51
347 158
189 118
323 234
98 57
266 92
286 204
210 83
264 168
297 295
166 154
285 3
160 83
291 167
271 329
189 25
64 273
75 191
124 364
173 284
80 316
261 168
132 3
344 122
328 251
131 109
119 350
92 366
11 60
59 141
113 115
35 256
136 86
285 133
26 155
245 18
323 169
177 286
246 362
20 224
50 318
128 136
95 273
157 132
102 193
334 200
99 260
11 218
44 99
360 212
246 106
47 302
80 255
207 6
44 100
348 122
259 174
98 121
167 272
24 257
1 12
339 213
99 98
183 120
76 285
62 264
147 69
122 231
299 284
87 276
89 109
291 154
54 115
316 240
142 18
348 352
311 4
68 340
367 119
342 176
35 319
230 81
255 135
212 94
344 217
346 323
9 121
274 230
275 97
288 238
350 283
353 58
158 178
242 35
187 225
300 213
221 93
248 131
146 7
260 207
330 144
332 28
33 7
137 308
143 28
82 270
38 259
286 189
93 17
225 195
129 208
251 74
307 138
157 186
171 197
82 303
50 98
35 365
304 2
128 200
298 170
160 298
90 275
134 260
111 149
141 318
216 67
275 170
90 254
61 233
281 181
6 54
155 105
15 203
108 43
57 356
239 48
328 327
316 41
304 254
192 84
46 66
78 251
162 81
231 77
14 359
68 3
260 291
322 334
294 107
301 181
104 21
37 364
43 44
334 258
66 41
297 78
244 268
15 338
276 195
218 29
160 17
114 264
332 101
108 106
298 216
222 362
60 334
39 297
257 148
309 8
199 187
9 60
287 290
203 243
307 358
89 59
2 290
277 243
128 62
315 319
167 276
257 253
74 18
243 208
255 354
188 263
21 329
323 210
30 253
56 364
188 209
320 264
104 4
190 334
43 209
64 246
273 121
299 35
231 224
8 237
10 132
118 268
203 292
310 115
25 69
309 98
291 207
119 114
299 131
342 44
8 251
2 281
114 170
269 324
52 87
215 14
101 39
235 242
69 283
127 270
156 108
115 243
343 118
271 287
105 171
15 337
118 263
276 41
229 122
2 39
1 212
282 3
188 2
243 66
326 223
110 250
343 214
136 66
134 256
213 222
227 322
228 194
110 281
296 208
265 335
304 212
91 136
292 361
77 42
335 288
76 249
88 16
335 231
167 5
323 180
184 263
245 247
41 332
67 294
284 228
140 126
251 226
285 107
13 2
265 235
313 343
46 342
330 169
352 258
301 269
52 187
137 108
213 348
235 261
306 297
94 43
296 60
245 121
39 63
340 258
181 125
325 18
122 329
351 101
122 117
80 260
257 38
111 139
2 285
116 266
331 31
219 42
182 93
216 68
270 42
89 234
298 278
195 170
6 330
249 177
261 162
199 229
279 100
236 258
367 172
137 271
75 201
345 331
275 179
58 13
133 335
17 105
316 360
242 264
334 201
271 136
166 122
3 224
119 11
33 201
116 276
254 337
340 103
223 177
187 368
122 222
303 299
264 281
66 185
10 295
9 158
167 64
22 124
358 194
150 93
171 111
253 367
204 166
192 285
359 347
88 59
300 288
218 211
67 233
183 282
180 54
168 309
65 18
186 221
279 48
210 326
93 294
25 175
296 365
187 230
39 129
142 181
239 194
112 227
19 167
151 138
109 170
51 182
245 162
301 77
258 264
103 80
249 257
45 94
17 70
21 213
202 139
181 131
313 90
292 29
111 23
282 304
319 43
54 236
294 104
90 248
92 322
123 214
51 279
203 208
183 117
287 198
158 125
349 264
263 320
276 340
335 60
323 94
87 22
323 28
175 98
287 223
112 62
193 94
194 140
260 232
15 262
276 184
34 134
1 26
361 153
326 45
340 77
86 45
282 144
91 117
62 133
159 15
100 48
296 272
7 156
152 56
199 36
59 173
140 81
15 215
243 201
239 52
349 175
237 103
216 185
39 360
162 350
150 139
337 285
64 330
254 47
234 243
367 317
140 2
172 302
92 308
179 307
43 91
310 101
256 16
341 346
329 97
272 245
335 108
246 224
146 202
94 148
310 288
207 311
137 365
13 87
330 254
293 145
363 230
318 193
334 19
24 5
108 244
4 67
96 18
102 121
131 322
191 311
23 158
3 152
214 331
10 347
14 273
271 260
285 146
154 278
363 336
343 123
243 139
176 161
337 216
143 30
121 30
32 173
78 312
257 71
293 14
127 17
228 324
245 201
3 256
231 271
312 88
41 204
232 105
257 112
288 245
152 36
278 135
272 353
239 73
298 250
191 218
222 187
127 81
138 22
175 45
53 156
15 279
288 336
107 64
359 128
138 353
170 151
133 143
326 74
285 175
24 253
141 192
220 11
180 294
154 282
342 73
48 181
319 239
258 208
147 38
237 359
252 24
171 57
257 43
48 147
184 252
5 95
62 116
132 114
78 367
264 296
327 123
52 45
76 220
254 283
96 7
261 181
181 62
30 317
306 42
306 40
297 169
357 20
349 3
320 279
236 333
118 22
130 36
314 34
185 13
218 5
282 118
225 146
233 146
247 106
171 148
123 83
37 141
36 280
18 230
189 131
249 32
236 182
90 121
308 340
22 139
353 112
322 101
208 147
98 288
228 179
329 98
139 36
102 62
216 247
282 179
303 312
140 226
265 43
194 232
111 2
223 289
175 239
186 355
52 153
246 258
176 188
355 28
125 353
356 360
206 41
243 188
212 290
63 242
254 282
325 260
100 267
43 133
298 111
328 218
186 357
85 161
231 314
199 73
279 290
334 278
112 286
86 196
116 140
239 251
266 195
160 54
267 243
194 83
204 223
69 107
141 208
28 204
367 155
285 218
326 340
321 11
253 181
89 103
309 214
170 35
149 188
118 39
31 197
22 217
138 80
252 92
237 180
113 26
108 231
365 309
257 288
131 310
331 47
120 16
123 278
307 334
69 245
276 246
234 247
306 273
40 215
267 198
207 244
174 256
334 20
359 353
223 160
346 355
13 331
136 346
142 35
356 333
48 62
162 351
34 83
40 313
352 310
333 258
26 182
320 350
103 291
115 236
105 100
53 88
48 108
255 290
136 263
232 269
267 248
99 148
174 113
270 226
3 296
309 287
132 244
42 243
50 361
353 12
214 19
72 248
159 135
331 67
240 344
161 348
233 267
21 305
287 22
64 128
353 159
118 311
307 53
134 165
308 312
294 366
355 224
180 41
50 144
296 299
274 244
315 318
62 137
110 123
76 25
248 317
216 342
50 279
127 12
217 359
334 31
294 115
237 264
166 57
203 285
221 26
167 346
91 171
296 164
73 339
172 72
43 308
295 282
22 30
54 266
346 141
26 356
300 23
200 354
17 174
219 319
79 342
260 39
225 273
46 81
358 8
79 13
318 67
79 24
148 215
248 367
253 70
213 45
172 364
99 267
226 38
218 28
364 276
61 333
8 242
64 106
166 138
43 217
300 282
44 98
74 48
344 337
161 224
322 243
48 310
107 54
263 273
119 337
178 74
114 113
231 354
184 129
6 112
273 156
252 307
286 91
245 301
284 245
264 91
90 98
222 76
272 20
195 226
306 17
348 276
154 214
119 364
201 35
139 299
134 320
24 71
6 309
119 348
35 268
40 133
221 267
199 135
77 214
326 91
78 131
12 141
247 312
317 210
33 270
2 125
79 296
180 346
318 91
125 82
55 75
140 88
230 277
91 188
218 8
327 209
80 269
147 287
133 154
148 281
229 162
200 233
356 312
185 70
118 173
195 204
2 322
256 135
322 287
325 359
267 83
101 235
204 178
249 39
97 266
313 214
139 24
242 190
350 179
24 346
161 312
127 116
10 287
37 114
313 87
329 23
282 351
5 8
249 215
98 247
187 184
292 221
95 139
300 66
183 7
119 335
159 277
51 322
217 40
292 328
160 207
25 239
134 101
72 59
127 129
303 47
69 144
301 354
299 330
147 87
256 198
41 46
155 262
298 304
157 340
218 220
28 157
329 189
368 188
192 177
181 182
115 256
364 44
168 76
181 289
314 351
321 13
56 188
37 285
56 294
45 129
35 317
103 49
362 118
246 210
51 240
67 9
250 213
344 339
295 31
56 215
20 221
215 33
119 145
220 180
11 122
89 300
200 84
5 302
321 331
196 228
169 274
363 178
242 172
252 275
52 196
193 140
350 103
156 179
247 96
320 212
292 91
145 140
65 13
191 225
153 104
5 101
247 27
78 89
99 175
306 361
255 353
257 45
130 322
365 29
205 172
9 101
243 210
237 111
77 63
145 352
49 292
238 315
83 282
95 204
357 220
59 104
310 308
314 245
34 151
84 209
360 153
22 107
48 160
307 276
30 77
163 271
281 229
142 227
74 145
342 187
10 55
224 238
88 24
91 358
161 65
326 3
333 176
80 357
279 156
194 366
298 109
302 187
240 185
207 228
165 347
351 266
116 357
130 81
225 346
185 123
214 130
309 10
83 310
158 246
138 75
279 89
195 366
105 82
229 25
174 16
203 224
216 297
119 288
291 294
198 343
151 126
41 60
355 245
299 359
41 22
324 367
111 137
304 53
285 7
144 55
170 16
68 57
129 95
316 142
24 305
299 66
117 265
198 285
62 172
51 34
5 15
325 13
351 237
280 17
79 99
168 165
126 138
15 294
301 163
43 269
105 353
196 18
170 165
21 230
263 210
23 232
355 219
98 49
250 309
157 177
189 128
184 78
1 130
41 158
242 261
92 50
279 67
33 314
222 216
309 232
289 42
132 92
322 226
338 129
87 282
5 112
242 319
206 179
57 71
326 196
212 365
192 211
268 110
230 74
355 169
362 52
211 268
75 23
302 56
152 206
111 125
321 339
24 214
102 97
78 328
339 364
229 36
79 185
282 365
351 59
198 140
305 317
124 244
113 278
55 202
78 53
362 90
28 192
345 23
366 182
279 125
269 206
68 46
77 66
169 75
82 41
347 354
329 327
42 224
237 293
51 212
47 42
158 169
366 240
8 127
185 281
365 131
67 125
267 55
97 305
254 136
10 49
207 168
284 133
43 324
142 170
210 176
101 320
97 67
169 25
197 361
367 1
86 151
366 136
367 64
113 69
105 175
269 331
107 73
93 54
281 262
268 83
70 172
295 145
79 194
274 332
364 132
3 13
367 286
345 29
223 277
65 301
246 169
86 247
179 292
270 332
67 224
8 368
153 158
320 92
216 334
183 102
291 247
94 111
188 247
100 306
209 312
70 226
112 90
303 307
209 151
349 162
99 191
150 180
343 252
11 89
111 46
185 56
233 173
93 283
270 179
149 60
221 344
286 14
208 167
24 165
1 318
278 129
342 190
184 220
176 15
280 95
70 170
88 54
255 26
254 17
48 16
360 264
305 196
156 249
67 280
100 137
103 352
16 155
346 311
169 230
183 138
143 96
304 61
368 207
267 174
219 69
7 101
62 104
80 89
208 22
109 201
101 122
300 337
368 274
191 329
101 73
48 15
273 30
192 368
15 169
158 336
62 195
175 174
140 279
36 49
203 4
289 343
44 272
209 78
317 143
221 68
248 323
313 174
208 51
293 269
225 102
272 215
348 326
296 144
247 181
294 36
224 343
94 164
300 170
141 91
206 130
28 318
44 132
297 112
79 14
350 10
326 270
207 102
209 310
357 46
311 119
109 285
141 109
280 268
311 160
332 135
251 36
132 1
366 143
29 289
280 62
202 24
241 149
231 63
123 22
343 249
42 290
25 55
366 62
62 232
198 181
252 227
94 116
254 77
343 51
334 122
212 245
194 122
181 108
229 15
267 176
277 44
337 220
180 48
358 203
46 124
250 154
21 39
335 266
29 130
281 62
11 278
361 266
221 280
91 346
311 2
37 4
179 50
235 258
271 273
141 162
125 166
211 311
131 209
226 55
233 205
365 323
263 176
305 261
290 238
16 133
107 248
33 158
47 74
177 100
344 223
206 76
345 108
30 2
75 5
268 218
6 48
282 80
17 304
12 242
122 218
9 1
241 165
85 83
15 88
305 184
245 258
185 64
284 112
49 308
84 322
350 149
118 244
165 16
17 130
68 300
329 246
223 333
343 218
224 96
174 281
71 253
216 280
324 201
213 135
18 28
349 84
95 214
240 207
326 273
227 56
48 233
281 164
287 244
351 185
78 97
233 156
50 75
159 340
337 297
190 173
140 114
32 310
268 167
313 236
239 140
37 244
127 45
147 258
360 283
154 328
3 31
116 25
313 357
115 323
48 10
278 213
110 177
158 221
178 322
249 244
71 101
25 275
54 195
347 24
232 315
236 311
207 358
258 219
54 223
54 307
213 353
145 171
280 2
200 225
76 243
255 156
244 94
61 367
9 127
150 80
64 111
80 339
141 30
145 222
43 303
92 361
35 116
56 358
250 341
230 356
180 261
36 204
256 65
72 202
21 189
36 168
125 129
229 365
318 336
324 24
281 29
86 13
362 33
353 315
106 274
297 284
160 175
180 22
311 208
64 169
117 163
82 234
207 62
352 154
318 308
147 344
4 239
334 82
123 33
341 209
293 259
158 60
97 314
291 99
251 209
10 129
225 124
167 20
261 55
155 330
216 163
215 53
7 202
85 2
175 57
90 12
259 2
132 197
153 170
35 345
133 22
288 239
217 149
150 167
28 167
87 60
334 321
138 326
31 70
349 113
67 81
353 92
353 179
362 271
163 314
240 197
82 94
147 142
231 202
203 103
167 44
255 130
299 103
332 226
229 108
95 171
68 304
150 268
297 49
95 17
215 319
18 236
168 95
200 259
31 350
198 365
238 279
20 173
331 158
333 323
221 216
333 52
319 194
62 5
143 236
51 149
23 172
337 226
237 235
164 347
140 85
96 69
259 166
250 188
108 132
248 300
298 47
294 299
171 254
333 177
41 114
111 254
353 158
90 211
67 174
281 230
233 103
90 152
26 148
294 249
260 212
218 331
140 319
222 16
17 53
211 291
352 304
356 162
124 78
282 133
343 55
135 72
116 206
64 72
121 234
356 327
146 305
222 358
314 257
56 317
158 187
341 34
249 10
335 92
235 85
71 366
20 305
103 131
251 118
88 323
85 157
252 167
187 220
274 269
122 365
363 158
326 301
66 84
365 185
245 358
142 269
149 131
267 274
150 27
358 287
85 114
44 291
238 350
230 177
127 227
302 155
51 41
329 184
352 259
36 182
77 306
237 138
241 242
140 27
65 66
5 224
54 184
167 274
280 135
366 79
121 38
328 301
136 241
98 266
233 188
142 356
76 236
244 208
164 319
256 268
179 146
209 54
133 104
200 211
178 285
184 177
166 288
175 149
137 257
251 122
334 316
203 94
340 55
284 259
123 71
236 246
283 351
314 36
284 355
305 224
258 315
118 138
28 41
87 128
211 274
40 241
363 186
202 181
210 169
329 14
290 174
27 59
331 82
340 148
69 32
180 106
165 362
319 25
47 146
158 5
271 57
66 257
172 342
183 329
56 266
27 171
236 263
255 220
229 209
184 183
263 30
302 3
133 288
333 266
96 310
60 111
229 24
341 297
19 75
128 255
115 228
93 174
31 13
104 90
339 147
260 124
89 37
250 358
280 155
225 234
137 294
174 91
171 128
293 251
52 142
344 177
152 261
44 339
170 20
347 85
316 200
230 25
357 292
156 336
53 118
49 342
286 365
40 359
366 192
287 135
325 258
90 273
42 276
138 169
242 179
345 175
310 290
92 78
220 56
185 107
94 127
232 327
343 6
38 311
64 151
1 116
164 152
235 268
360 91
197 287
333 182
211 234
311 335
256 309
322 201
167 131
338 351
95 262
53 282
122 192
300 168
252 240
93 277
368 56
148 359
273 299
105 169
146 338
130 193
237 40
121 63
253 179
270 56
237 2
55 192
132 78
159 273
365 203
43 295
298 238
110 202
224 297
225 101
368 90
2 118
243 29
101 85
222 9
38 29
347 345
64 53
275 174
62 82
26 178
217 232
73 299
347 49
40 354
268 339
329 131
177 267
9 316
188 328
41 326
251 321
162 175
171 339
274 21
182 246
312 231
181 147
206 104
274 66
261 120
100 127
215 122
329 249
324 361
261 337
121 221
227 161
189 180
244 41
159 208
353 78
216 82
215 83
212 166
350 276
270 362
154 285
334 153
140 216
43 358
14 46
227 163
8 62
78 25
267 336
156 344
139 362
70 227
295 174
102 200
347 255
338 323
45 290
75 249
338 246
358 258
175 42
176 71
131 146
313 52
151 317
39 305
214 205
352 10
111 81
243 365
354 318
259 250
132 149
253 243
62 89
310 358
4 2
84 167
89 361
89 166
53 246
174 20
359 19
294 183
268 250
307 103
336 282
364 208
27 146
245 365
100 281
368 157
8 287
62 245
217 168
273 101
93 225
368 317
34 189
135 306
161 191
278 98
266 16
337 208
90 138
20 121
361 331
137 232
78 38
222 47
307 269
278 367
284 125
236 349
240 157
64 136
252 199
236 4
116 282
315 262
204 130
282 279
62 71
215 106
331 203
97 27
183 338
31 302
337 118
56 257
225 203
222 285
74 111
362 286
289 198
290 109
301 56
164 93
82 251
1 55
232 165
105 44
172 309
242 188
43 99
336 195
224 188
128 14
198 54
289 229
89 338
50 319
362 76
47 108
161 42
321 260
204 98
262 273
353 297
211 280
353 34
31 30
198 95
56 165
68 318
365 228
13 32
268 30
100 98
162 39
327 6
214 127
221 235
90 173
340 345
19 310
324 44
142 206
91 10
205 53
28 321
9 301
251 278
135 108
345 179
319 309
306 96
74 238
283 327
186 260
326 355
22 190
366 347
82 87
330 54
160 63
122 244
365 150
343 66
302 9
113 157
114 202
174 311
345 202
1 218
329 100
323 185
231 136
139 223
179 258
258 193
221 326
312 196
66 152
279 302
46 61
176 202
293 223
72 111
187 71
249 21
71 61
324 204
188 318
140 91
248 213
126 313
91 48
129 49
275 151
15 98
314 139
210 295
330 153
54 121
213 19
174 151
67 182
203 214
247 137
290 50
278 187
6 197
13 112
267 349
85 362
280 366
36 102
310 10
46 298
125 57
162 18
298 121
243 127
162 256
208 317
143 182
206 367
107 131
22 314
262 41
38 122
160 138
106 252
50 45
254 62
279 252
312 138
253 324
203 114
26 11
212 37
119 352
314 10
177 32
344 230
96 196
247 42
356 335
6 81
220 82
337 47
106 38
88 26
270 17
112 172
21 314
40 30
125 143
329 105
363 293
155 89
181 18
260 54
312 351
200 205
270 1
186 13
97 298
265 214
149 106
223 337
25 75
91 273
6 342
243 55
237 182
270 260
52 230
246 172
247 227
119 218
38 153
125 231
158 259
364 248
8 346
81 53
354 59
359 61
184 240
160 101
23 133
343 63
192 352
171 14
100 257
41 52
93 235
337 343
78 96
13 125
224 198
322 87
321 149
209 362
119 140
59 251
142 59
86 124
13 297
66 249
31 283
198 357
6 237
271 267
5 128
121 134
102 60
287 51
185 96
34 269
105 93
222 242
158 115
75 362
211 318
285 77
34 123
251 37
68 351
347 32
15 340
260 138
26 143
229 359
176 314
79 124
358 138
29 237
307 249
41 104
93 72
154 179
174 366
60 288
73 2
122 120
69 142
75 310
353 335
124 240
32 148
296 118
346 245
187 301
270 272
18 355
61 48
47 130
121 257
247 335
364 256
226 364
16 106
64 186
158 367
154 234
287 354
269 158
332 25
21 1
33 178
233 147
156 105
2 180
286 258
141 275
276 218
308 190
191 360
25 9
20 291
15 62
362 56
132 118
337 194
108 254
140 122
324 40
131 247
92 113
316 232
90 215
191 284
231 201
142 7
37 360
215 158
244 66
28 183
238 309
242 237
57 110
52 365
91 295
245 264
89 91
266 314
355 272
82 37
21 300
312 230
277 152
226 126
105 221
268 238
50 141
110 297
204 267
279 331
134 350
116 361
157 215
97 198
350 304
346 215
210 362
271 44
182 343
75 327
264 268
274 240
149 150
80 13
287 245
76 305
59 96
314 303
165 92
4 66
288 167
190 248
274 278
76 23
6 310
125 354
360 66
306 229
90 72
108 35
101 341
168 272
329 301
320 144
155 189
60 122
172 223
346 256
299 17
70 327
334 120
38 322
349 104
340 280
335 22
98 273
39 8
63 202
177 130
121 84
361 142
201 110
102 165
189 271
368 313
356 151
336 233
288 348
93 45
226 246
273 285
75 187
292 324
121 133
244 40
110 17
367 243
178 2
188 87
284 168
269 87
235 29
183 111
341 327
6 52
94 241
91 142
247 339
87 238
285 343
136 31
8 351
219 155
26 166
234 355
274 199
75 94
159 8
215 130
141 97
248 234
303 172
146 119
136 76
35 261
61 65
168 227
273 83
330 269
94 60
138 272
361 154
277 151
327 308
125 51
127 130
124 326
78 98
126 170
260 344
143 14
162 71
50 301
131 99
22 221
303 61
24 308
320 129
260 114
305 231
22 175
124 34
120 65
177 169
231 313
180 97
266 330
340 327
285 65
65 338
195 133
266 91
113 218
144 364
346 322
278 216
177 121
49 265
25 98
199 324
220 91
142 191
119 246
224 15
364 88
26 130
16 93
338 42
34 115
190 301
300 131
322 95
320 18
265 28
11 87
345 88
14 241
293 67
160 321
61 30
100 211
72 204
174 48
301 345
308 20
327 223
50 275
139 160
320 82
363 142
9 306
2 52
53 257
171 55
328 28
116 61
345 226
19 125
229 116
130 43
252 90
259 120
42 82
215 127
305 180
311 180
358 44
107 299
91 278
302 280
68 35
107 209
201 151
285 119
244 204
217 3
304 314
229 30
130 198
14 168
279 217
360 178
77 211
7 40
180 328
103 18
42 248
276 30
315 245
338 179
265 100
199 319
191 345
158 237
112 259
16 73
199 81
12 119
30 154
234 96
145 52
135 253
238 84
299 88
15 207
81 337
205 86
31 277
289 332
222 154
25 85
7 99
35 202
366 167
304 137
269 339
79 182
1 109
248 352
130 119
250 183
112 81
106 211
308 2
157 57
150 360
276 217
48 367
16 276
214 275
95 53
267 105
302 225
136 187
198 233
235 49
242 141
97 154
336 26
119 304
327 368
363 72
283 159
57 39
5 294
47 104
149 85
144 333
364 72
227 129
103 362
296 41
321 38
321 265
306 101
201 254
44 54
68 73
365 238
93 187
56 135
320 11
350 195
367 92
350 144
293 359
118 368
27 28
199 239
320 337
346 29
193 317
328 73
209 44
210 232
289 109
185 345
1 35
252 63
104 248
217 190
251 367
49 228
282 243
276 142
258 36
227 14
169 96
115 237
299 276
309 106
124 93
164 29
169 27
55 198
117 330
23 134
223 251
218 338
158 28
330 142
150 121
19 295
270 50
198 56
155 275
310 366
214 278
296 321
250 121
257 90
323 352
329 111
359 277
299 75
115 97
25 190
276 134
207 175
126 224
104 109
6 46
39 276
285 97
141 85
356 181
265 219
326 176
357 86
150 253
18 210
214 320
360 110
132 311
124 75
22 127
27 144
191 76
157 242
10 102
47 329
143 110
187 329
152 102
109 92
239 115
155 335
70 345
359 218
240 154
181 268
309 149
59 204
193 40
198 351
104 197
242 336
194 15
60 51
43 200
225 62
242 254
272 289
178 213
85 104
90 31
189 31
280 309
365 216
211 266
338 48
153 67
194 254
21 183
88 267
126 356
306 198
233 283
32 97
51 313
234 178
71 89
264 307
34 235
80 224
147 196
21 355
275 318
204 67
342 152
128 110
92 101
76 26
367 335
269 85
207 142
25 208
239 284
74 240
176 40
29 161
156 353
219 67
92 355
124 116
285 224
311 226
6 133
342 144
363 163
153 11
139 225
323 165
221 274
105 307
324 179
211 313
309 284
223 345
323 299
296 49
22 155
201 215
274 83
328 59
290 105
347 174
248 178
6 179
40 153
34 325
332 252
117 97
232 337
65 336
292 317
290 283
342 23
262 143
32 43
254 290
100 68
299 5
1 20
70 132
342 366
310 7
205 149
214 22
30 357
74 295
278 336
192 336
252 44
176 231
250 63
289 214
285 43
200 21
129 84
162 337
340 185
340 335
21 38
96 29
153 274
103 2
40 156
135 214
339 163
286 282
7 62
272 129
343 45
77 12
44 233
240 332
77 262
231 41
91 350
73 347
106 251
301 224
205 324
15 330
209 296
360 306
300 2
331 359
271 41
255 42
163 109
1 32
283 277
2 223
16 294
228 108
80 206
186 102
106 92
176 167
19 56
368 356
85 354
3 318
269 344
225 193
228 121
315 159
124 290
225 367
350 176
344 8
94 130
94 319
198 219
359 87
103 215
112 101
326 344
176 23
353 338
236 23
214 238
264 39
54 270
176 54
337 126
260 227
166 135
119 141
307 41
255 301
196 299
127 283
51 37
328 235
182 66
155 38
312 361
301 289
283 241
307 204
148 358
211 36
51 210
364 152
313 218
64 259
340 130
276 133
57 24
265 16
41 292
255 187
290 235
339 128
63 279
279 349
9 331
180 331
225 281
210 135
353 253
108 109
241 274
260 189
344 19
296 353
110 81
183 172
19 11
337 24
196 99
31 335
280 290
278 301
174 109
344 128
366 244
151 256
46 359
66 168
284 43
159 341
60 301
107 364
54 218
158 209
45 217
127 213
314 121
264 249
325 97
123 352
315 268
287 173
111 213
110 90
104 181
309 283
182 362
52 91
30 279
10 135
89 340
41 265
98 30
167 27
229 342
30 102
265 359
331 138
203 251
324 52
366 202
42 3
203 223
349 96
43 333
253 204
25 228
334 114
231 138
129 282
310 144
78 313
71 235
324 61
335 282
76 84
109 73
102 278
362 35
