Vertices 127
51 "#84"
37 "#25"
32 "#116"
110 "#99"
122 "#59"
103 "#18"
66 "#23"
127 "#83"
102 "#95"
115 "#50"
38 "#42"
12 "#97"
97 "#12"
53 "#105"
60 "#11"
33 "#65"
99 "#6"
3 "#29"
112 "#64"
116 "#54"
87 "#92"
24 "#74"
118 "#2"
47 "#124"
105 "#26"
77 "#43"
126 "#93"
70 "#120"
48 "#35"
5 "#102"
13 "#89"
76 "#103"
10 "#15"
88 "#77"
36 "#28"
67 "#76"
72 "#30"
30 "#3"
45 "#39"
69 "#80"
80 "#98"
64 "#63"
16 "#70"
71 "#117"
15 "#81"
58 "#75"
92 "#19"
104 "#0"
81 "#34"
79 "#47"
44 "#67"
28 "#113"
4 "#21"
7 "#78"
27 "#62"
39 "#104"
107 "#4"
100 "#31"
59 "#73"
34 "#121"
83 "#37"
46 "#106"
57 "#79"
94 "#96"
109 "#7"
9 "#8"
96 "#112"
78 "#109"
73 "#110"
89 "#118"
93 "#5"
63 "#123"
113 "#61"
6 "#82"
49 "#51"
121 "#101"
31 "#38"
85 "#58"
125 "#88"
111 "#60"
52 "#111"
20 "#71"
23 "#126"
95 "#20"
65 "#122"
42 "#27"
1 "#10"
90 "#16"
62 "#68"
106 "#17"
29 "#53"
55 "#100"
56 "#33"
108 "#114"
114 "#9"
35 "#41"
43 "#46"
82 "#85"
98 "#24"
68 "#45"
120 "#22"
86 "#69"
21 "#32"
50 "#14"
11 "#52"
119 "#40"
14 "#91"
25 "#48"
75 "#107"
123 "#49"
26 "#1"
17 "#55"
124 "#125"
2 "#108"
101 "#72"
22 "#86"
61 "#57"
91 "#94"
84 "#13"
74 "#44"
40 "#90"
117 "#36"
19 "#56"
54 "#66"
8 "#115"
18 "#87"
41 "#119"
Edges
19 40
116 76
91 89
87 62
38 29
104 69
14 97
68 69
67 92
91 45
42 99
46 82
54 72
77 13
67 118
44 127
43 122
21 56
36 20
58 62
124 18
31 30
29 77
125 74
94 44
105 13
62 125
55 76
113 11
89 121
52 95
62 109
125 40
14 18
87 78
53 127
43 69
92 34
4 80
3 93
40 97
44 118
88 79
59 35
126 14
64 22
72 106
94 51
124 25
80 84
70 71
31 118
67 48
113 17
49 43
76 72
103 111
83 76
88 94
29 61
39 21
91 124
61 34
72 107
56 99
59 21
56 43
84 50
77 95
19 1
119 118
80 6
90 66
9 61
57 88
122 49
110 22
111 102
5 17
6 38
84 13
107 88
100 17
64 112
114 38
17 122
32 28
50 94
112 100
98 101
82 21
57 13
31 69
94 16
85 77
52 98
123 89
35 38
80 49
118 29
98 77
121 87
118 60
54 5
28 33
117 56
41 102
50 26
101 5
97 84
105 75
59 40
64 119
58 108
54 87
21 8
40 117
29 114
113 117
122 106
9 33
4 71
28 95
53 105
87 125
88 10
93 114
11 86
95 79
88 123
106 102
31 65
120 53
117 41
96 48
102 20
41 65
58 111
10 49
14 31
51 127
76 102
10 30
26 66
95 66
120 21
110 49
69 90
11 20
44 103
72 83
107 69
13 62
54 29
15 119
18 63
3 64
88 75
24 47
9 19
41 88
25 126
98 25
49 1
108 122
50 95
24 16
109 88
25 6
111 26
107 85
121 76
57 50
13 64
44 64
13 109
86 67
104 73
31 36
92 112
44 60
71 51
3 83
25 109
76 101
50 17
82 117
124 32
40 29
43 40
89 75
123 42
126 84
76 64
39 96
83 61
35 84
85 51
55 124
92 108
24 36
63 94
2 28
112 118
92 44
94 47
84 74
94 33
105 120
85 80
116 13
96 6
49 84
101 44
112 42
114 122
25 107
82 62
11 35
31 15
48 49
48 101
9 123
8 23
107 4
86 76
96 113
122 33
81 16
109 29
65 45
39 28
95 48
48 112
28 71
48 2
64 23
121 106
96 84
3 51
96 23
25 8
108 42
84 19
100 110
95 10
79 2
89 104
3 89
73 99
119 69
72 77
101 96
7 31
31 68
113 119
15 110
63 32
33 43
48 62
2 53
4 119
97 23
114 16
15 106
1 102
55 48
23 36
110 91
15 5
110 78
16 68
75 73
52 120
93 56
26 126
50 74
84 31
23 13
127 48
19 13
26 99
98 20
28 62
80 120
18 2
36 118
27 64
60 45
83 88
70 125
40 93
10 68
108 110
79 61
101 125
20 35
19 120
27 106
97 108
54 45
82 84
114 2
80 63
75 59
92 114
55 121
111 72
54 30
6 34
90 106
121 37
79 3
41 53
50 8
24 79
27 86
41 66
109 107
88 46
15 127
32 39
9 44
37 67
107 79
45 19
82 57
62 105
2 78
54 106
12 39
67 94
124 11
12 35
72 23
15 40
115 3
71 47
33 100
40 60
93 67
82 89
36 60
55 50
57 122
20 100
104 46
89 28
105 74
112 26
66 33
14 120
107 104
71 49
57 46
101 82
126 44
60 97
121 44
58 35
85 68
124 107
42 13
127 18
36 66
6 57
122 44
85 103
84 116
84 38
96 103
37 107
82 122
60 4
84 102
109 51
3 23
33 26
7 106
15 17
111 34
101 67
54 103
55 43
57 30
36 7
44 117
24 106
81 27
7 70
28 85
79 80
42 98
81 51
64 33
81 80
36 123
66 86
113 1
92 105
123 5
5 49
43 7
17 1
28 3
78 25
51 70
107 111
58 24
10 20
23 67
118 11
19 91
52 106
94 10
97 101
39 57
54 51
61 71
76 5
64 99
69 10
57 123
60 61
8 82
56 83
28 52
79 55
104 35
108 44
47 32
85 58
75 62
120 11
111 66
39 11
108 66
78 96
75 76
82 116
60 103
97 1
52 80
81 123
8 34
20 60
1 78
54 122
88 3
30 26
3 27
61 54
48 113
101 35
34 9
89 74
34 99
127 52
4 31
23 88
122 24
83 100
16 8
8 14
20 3
14 109
66 112
122 20
126 87
90 111
8 15
36 73
59 73
115 122
93 83
21 55
83 111
116 11
46 64
108 87
64 38
82 58
48 86
4 22
103 25
121 31
88 63
72 43
49 56
23 46
81 85
7 15
37 88
19 48
125 48
64 14
109 4
61 97
97 62
118 120
18 29
89 70
3 116
30 127
34 7
15 104
102 53
73 108
124 43
45 109
94 77
7 113
101 1
108 121
86 36
83 27
40 87
31 26
53 32
111 122
117 19
89 86
62 33
