Vertices 255
78 "#58"
116 "#245"
57 "#106"
7 "#17"
46 "#121"
102 "#8"
254 "#154"
24 "#169"
82 "#31"
11 "#186"
190 "#161"
204 "#28"
159 "#66"
244 "#221"
15 "#218"
127 "#48"
110 "#72"
34 "#62"
27 "#135"
40 "#1"
129 "#216"
148 "#233"
223 "#92"
30 "#49"
44 "#239"
213 "#249"
36 "#190"
51 "#175"
171 "#95"
197 "#98"
92 "#185"
5 "#166"
153 "#156"
125 "#69"
209 "#230"
230 "#163"
29 "#224"
21 "#97"
216 "#192"
186 "#21"
169 "#120"
160 "#199"
217 "#99"
151 "#246"
207 "#82"
105 "#232"
173 "#238"
26 "#160"
119 "#79"
205 "#205"
32 "#204"
164 "#242"
245 "#244"
236 "#32"
195 "#34"
58 "#30"
178 "#252"
126 "#83"
156 "#231"
253 "#226"
83 "#39"
138 "#144"
23 "#174"
52 "#150"
35 "#141"
135 "#212"
37 "#180"
75 "#5"
227 "#237"
55 "#35"
201 "#20"
241 "#27"
88 "#91"
79 "#65"
196 "#68"
237 "#236"
77 "#198"
69 "#247"
6 "#187"
250 "#146"
249 "#140"
17 "#129"
167 "#78"
215 "#172"
181 "#234"
179 "#137"
144 "#142"
81 "#53"
226 "#240"
175 "#6"
109 "#51"
8 "#147"
121 "#16"
248 "#157"
33 "#197"
13 "#100"
172 "#116"
224 "#202"
100 "#70"
12 "#110"
163 "#105"
43 "#208"
130 "#73"
10 "#213"
176 "#189"
59 "#159"
47 "#76"
161 "#67"
184 "#42"
63 "#45"
111 "#101"
89 "#220"
3 "#63"
38 "#225"
188 "#254"
123 "#188"
54 "#85"
228 "#136"
108 "#0"
22 "#81"
50 "#130"
206 "#80"
252 "#155"
16 "#74"
212 "#145"
61 "#18"
85 "#138"
1 "#7"
28 "#36"
242 "#25"
131 "#207"
165 "#52"
199 "#38"
132 "#19"
247 "#228"
18 "#14"
225 "#44"
180 "#54"
193 "#125"
137 "#200"
14 "#47"
152 "#123"
80 "#217"
65 "#57"
255 "#10"
48 "#55"
222 "#165"
93 "#209"
96 "#182"
42 "#93"
146 "#241"
66 "#210"
2 "#183"
97 "#251"
157 "#23"
192 "#15"
143 "#164"
139 "#60"
220 "#86"
115 "#118"
141 "#114"
53 "#148"
239 "#133"
118 "#88"
41 "#196"
170 "#117"
74 "#9"
98 "#43"
147 "#84"
64 "#153"
76 "#11"
101 "#235"
210 "#4"
200 "#12"
106 "#109"
133 "#102"
45 "#179"
191 "#219"
218 "#50"
9 "#29"
149 "#104"
238 "#56"
233 "#151"
68 "#211"
166 "#111"
221 "#193"
70 "#128"
142 "#227"
113 "#195"
140 "#90"
73 "#2"
49 "#119"
183 "#115"
203 "#41"
104 "#87"
234 "#75"
136 "#203"
25 "#253"
243 "#96"
177 "#71"
174 "#229"
91 "#243"
60 "#143"
124 "#77"
198 "#13"
62 "#177"
246 "#24"
95 "#214"
187 "#170"
145 "#103"
194 "#134"
158 "#113"
185 "#206"
240 "#61"
112 "#112"
251 "#178"
122 "#168"
87 "#22"
235 "#124"
99 "#222"
86 "#184"
94 "#94"
211 "#33"
231 "#167"
117 "#176"
229 "#152"
90 "#215"
67 "#108"
154 "#194"
214 "#127"
232 "#59"
202 "#89"
72 "#132"
219 "#250"
182 "#131"
31 "#3"
162 "#139"
128 "#158"
20 "#201"
189 "#191"
71 "#181"
103 "#122"
155 "#46"
208 "#173"
120 "#26"
19 "#64"
150 "#126"
39 "#40"
56 "#37"
4 "#107"
84 "#223"
134 "#171"
107 "#248"
114 "#149"
168 "#162"
Edges
250 149
112 38
163 28
42 115
118 158
102 145
141 9
46 199
220 170
179 36
157 76
103 231
25 107
60 220
5 187
77 143
63 61
138 177
255 241
250 42
143 26
108 184
77 160
33 20
7 192
207 54
250 104
44 245
49 224
39 204
175 18
36 150
225 171
211 18
40 132
172 97
161 196
209 25
245 105
190 177
27 114
26 72
67 136
171 239
247 6
79 17
204 170
228 8
233 119
244 15
8 183
217 149
162 38
249 118
243 82
27 202
42 22
111 176
244 5
77 95
53 79
229 21
146 91
75 198
220 147
211 184
59 136
3 50
235 17
51 208
75 19
162 187
34 232
63 54
72 168
111 183
145 7
241 30
233 38
170 169
251 231
78 144
145 124
40 255
198 234
155 124
199 165
70 141
111 223
186 1
231 86
99 247
50 47
7 139
78 234
133 232
32 235
43 45
38 96
94 109
22 63
22 126
57 14
72 252
121 175
140 63
238 127
53 254
158 67
76 180
193 57
159 234
96 135
29 231
145 224
8 207
221 104
57 223
158 50
255 232
168 113
215 243
177 132
96 52
35 162
230 128
46 112
64 35
32 36
128 67
47 138
227 21
132 155
161 200
160 36
78 177
173 41
176 8
62 51
39 220
111 172
118 243
49 170
49 104
128 86
150 179
149 138
142 135
161 81
72 172
8 17
4 179
70 184
155 48
171 88
252 110
155 34
56 48
249 94
143 177
215 100
128 68
51 15
203 165
32 205
122 6
45 23
7 76
152 70
251 153
191 244
163 160
55 243
159 241
2 231
163 53
13 149
142 231
24 243
2 49
11 179
194 35
31 159
112 171
191 84
244 142
218 18
165 87
152 50
34 9
83 155
56 16
37 141
38 202
100 123
38 10
157 67
231 45
133 121
108 100
27 65
217 175
15 142
139 203
171 228
121 75
118 52
18 49
195 175
130 94
123 33
114 208
39 130
108 13
109 126
227 174
227 80
16 249
126 53
98 124
177 140
224 148
213 181
214 233
194 27
205 136
48 125
138 88
157 241
24 133
223 159
114 142
222 13
233 113
249 53
25 176
145 147
32 153
106 18
180 198
236 9
208 49
168 93
133 235
248 46
69 66
33 233
144 161
89 99
88 223
189 77
113 92
51 134
170 163
137 64
239 212
154 224
59 67
41 217
79 130
217 60
207 147
7 63
42 3
140 166
158 55
26 233
237 97
22 92
14 79
95 228
89 67
215 194
118 189
143 183
64 8
187 122
148 12
104 224
29 15
21 160
176 131
102 72
239 93
177 58
22 115
78 53
172 195
56 124
217 104
72 164
186 120
1 165
54 252
2 23
100 239
214 83
140 231
13 202
68 35
127 175
77 134
19 85
66 84
180 55
239 2
78 47
240 78
243 124
78 112
90 80
70 247
115 37
88 197
172 146
234 175
202 34
194 76
46 71
168 133
177 210
42 233
132 206
176 36
76 100
101 226
138 2
166 61
57 4
31 83
89 38
52 216
204 17
15 90
235 60
185 99
110 159
132 74
68 90
47 161
181 38
131 95
139 73
15 99
8 12
8 212
149 150
45 26
96 5
183 240
211 236
1 234
3 47
211 76
23 54
62 113
31 241
67 70
206 203
140 50
34 82
172 252
193 251
236 78
128 197
37 29
214 4
161 255
95 158
18 232
22 167
27 190
100 40
167 42
93 122
38 187
186 79
202 232
155 7
210 246
32 113
159 172
203 236
48 235
30 1
221 190
111 154
166 141
11 224
245 178
81 3
31 175
222 49
255 166
176 171
147 235
96 117
246 98
37 26
128 153
254 94
200 81
182 24
111 27
135 89
114 183
186 139
206 67
195 35
59 167
47 236
92 123
121 82
124 18
221 247
35 252
75 22
231 59
116 101
68 185
211 94
56 177
207 141
140 230
13 140
239 59
110 165
121 199
243 158
234 243
83 206
216 35
100 27
217 138
19 12
5 182
81 9
147 103
88 237
161 50
243 134
113 193
202 128
170 134
253 142
98 195
57 47
164 148
229 64
12 27
209 97
141 126
199 48
208 248
54 238
191 10
59 64
87 125
160 176
178 148
18 165
160 12
185 142
42 30
12 79
166 158
234 61
207 110
5 117
228 179
84 93
145 140
241 54
16 140
132 61
57 159
235 152
197 252
167 85
172 130
147 108
233 23
26 86
254 141
134 224
141 255
192 255
162 27
175 184
206 88
188 97
229 57
47 157
216 152
215 72
217 67
187 22
237 245
254 153
42 140
137 144
165 201
150 114
172 18
139 12
179 34
208 215
77 106
255 140
74 172
114 13
161 22
242 82
135 171
112 204
141 220
231 51
200 239
53 95
181 11
177 108
180 61
153 124
115 252
141 217
166 122
199 30
180 126
250 85
52 86
52 176
42 26
238 225
244 103
101 181
103 248
62 116
169 103
118 24
49 228
49 114
212 197
159 19
32 123
183 139
220 118
240 186
158 212
230 26
12 71
19 211
81 192
222 130
248 36
235 182
31 197
47 149
202 110
177 246
244 252
70 96
71 169
216 36
65 240
252 134
136 214
80 142
79 169
104 66
142 68
24 86
36 59
180 246
112 254
144 29
155 98
209 151
209 219
41 216
44 164
200 132
117 251
104 183
201 255
49 152
119 167
75 218
67 104
169 193
205 224
254 248
144 158
137 51
75 54
79 206
219 141
198 184
250 12
243 143
102 203
228 194
134 215
183 12
170 168
144 150
148 229
54 152
169 196
76 175
53 49
213 188
91 237
140 83
14 201
42 194
119 3
160 136
145 55
242 200
239 64
176 137
170 186
205 182
7 57
87 14
150 15
139 39
154 17
137 5
57 79
246 203
61 236
115 113
51 126
180 206
195 81
63 56
230 110
147 132
140 202
169 70
156 160
133 200
187 250
133 64
87 195
56 211
37 182
47 177
204 147
160 51
238 73
240 127
163 145
132 108
6 137
170 138
110 65
109 81
53 229
141 100
240 103
98 234
247 53
57 239
167 201
34 79
171 31
218 186
183 5
174 181
166 39
60 149
151 181
106 170
40 79
62 21
167 144
197 106
158 167
243 232
166 115
200 155
223 169
157 175
81 124
254 232
111 98
29 160
79 125
114 26
23 252
28 242
10 244
251 71
124 171
228 140
234 183
12 106
143 96
125 19
65 199
104 207
195 139
189 11
32 77
83 255
189 137
231 235
224 223
121 19
235 28
82 40
245 57
37 251
34 126
55 132
114 70
72 47
41 176
204 192
134 228
86 160
110 255
115 104
234 223
89 66
49 85
223 166
249 66
181 205
220 240
217 45
146 253
251 149
153 10
171 104
87 119
74 17
92 205
200 125
154 136
41 189
93 99
173 105
24 153
243 154
111 162
95 93
149 240
27 212
14 47
159 78
197 163
145 202
55 74
122 231
210 13
115 123
206 115
187 12
158 239
67 183
48 63
165 74
74 192
78 238
229 190
201 120
46 254
98 79
230 174
106 111
60 84
211 175
54 234
212 250
110 124
223 250
61 73
158 104
76 196
121 242
34 239
71 85
21 145
165 192
186 78
10 95
153 143
94 140
45 53
108 196
60 233
130 186
254 145
7 65
62 193
235 9
84 89
169 117
95 80
54 128
63 14
138 222
150 214
97 44
125 94
106 201
189 154
157 184
21 170
216 222
39 14
13 67
45 138
207 127
59 149
112 114
248 11
108 155
147 168
140 77
134 143
13 42
34 167
204 73
190 47
85 114
55 236
79 149
127 147
13 59
16 47
108 16
195 19
26 111
6 133
155 170
104 90
142 10
29 95
206 166
59 88
182 140
220 119
85 243
132 204
167 206
61 255
220 41
218 14
103 193
61 34
171 95
8 115
139 232
27 226
180 127
92 136
56 192
94 152
110 55
122 162
43 38
73 125
26 208
190 42
137 254
79 180
198 104
47 144
26 196
26 117
163 3
247 118
86 62
18 238
243 72
143 38
165 31
141 34
73 14
177 238
2 177
110 182
212 26
230 29
52 57
32 145
250 35
107 227
233 231
215 51
215 248
123 71
46 62
128 60
157 155
67 249
4 112
157 83
204 102
212 114
32 137
242 186
151 44
86 54
94 73
195 155
165 48
42 218
37 166
125 102
232 214
167 210
171 161
220 169
153 59
243 145
214 170
117 114
16 104
81 218
145 129
165 149
221 154
87 98
189 42
187 13
53 2
39 201
4 41
34 240
220 22
126 123
43 135
73 163
20 23
119 27
171 204
86 96
87 177
204 149
158 196
122 37
118 78
196 207
183 133
84 99
163 179
198 102
251 189
143 70
30 177
134 92
182 2
110 18
144 228
173 118
222 128
209 173
185 205
133 112
113 173
243 94
12 115
21 158
150 72
99 142
50 235
42 53
133 224
118 138
124 162
203 121
249 35
219 116
252 248
96 41
154 123
74 124
150 22
211 225
34 48
235 24
171 155
249 144
166 84
159 158
219 97
48 186
57 197
125 78
36 205
106 17
216 137
186 83
202 17
30 73
125 14
124 40
57 145
207 88
19 167
122 208
47 223
40 139
34 65
133 111
17 54
165 34
33 216
33 35
254 26
172 77
249 21
165 75
102 119
178 107
67 114
249 248
191 253
234 180
40 76
46 233
85 144
222 144
2 6
249 15
115 229
215 90
103 115
173 148
101 71
21 79
123 136
229 234
225 203
79 102
52 153
46 252
208 62
150 126
145 182
171 113
7 133
65 109
213 116
16 197
251 12
17 81
33 220
109 18
17 193
33 6
190 252
79 208
11 222
155 74
95 111
194 85
27 79
214 71
210 130
180 183
31 201
207 125
143 94
175 243
125 218
62 17
172 93
36 147
246 108
138 167
170 145
55 48
159 26
245 41
189 123
47 238
46 228
88 120
254 29
124 63
207 144
143 187
248 162
194 143
130 225
232 4
143 88
144 235
30 124
255 198
174 219
210 127
115 112
136 158
96 231
245 213
82 7
18 73
8 147
159 53
136 137
145 62
225 157
24 94
251 154
169 126
83 30
33 194
100 130
229 86
79 152
191 42
16 210
111 49
47 103
30 40
251 23
139 3
104 246
246 56
187 110
141 58
41 137
128 248
62 160
132 73
139 234
76 19
194 113
132 196
154 51
252 49
222 8
101 219
214 202
149 35
242 232
58 39
74 14
248 20
95 191
16 70
238 42
127 177
166 85
158 169
193 143
110 102
90 223
100 64
142 140
9 94
114 193
150 104
107 15
201 9
89 68
171 153
90 66
46 221
119 165
112 32
75 94
203 175
203 132
193 166
36 190
2 51
118 88
111 57
22 158
11 41
29 80
53 171
211 108
51 251
27 228
254 110
239 46
170 167
217 249
98 211
115 94
33 221
20 11
218 161
43 129
156 107
87 196
211 196
243 223
163 194
240 125
85 138
72 214
57 85
161 166
217 88
25 44
194 231
190 168
238 58
180 87
241 87
16 57
19 220
119 185
27 250
141 202
30 14
217 153
1 74
5 2
156 150
137 160
113 23
166 10
205 212
80 116
212 171
225 243
75 155
141 111
150 224
116 174
98 40
109 132
156 181
89 52
163 141
32 221
251 45
64 5
112 12
42 171
43 95
225 155
250 66
3 186
102 78
251 96
11 4
103 182
175 73
167 223
197 250
104 19
182 217
86 254
58 140
28 61
94 52
100 119
9 198
170 150
94 3
12 190
130 196
153 145
207 163
252 70
147 162
11 67
205 6
247 57
232 73
12 40
167 88
139 240
23 6
157 34
102 58
163 232
220 254
16 203
229 205
218 234
56 203
59 11
9 232
65 47
42 16
40 141
50 112
132 94
130 242
214 149
113 228
126 81
223 50
128 208
142 20
164 178
105 188
68 131
53 202
242 111
199 47
238 211
185 89
157 73
126 159
10 97
217 133
26 171
93 209
27 215
116 151
149 180
206 87
43 168
26 224
132 195
197 109
243 153
123 191
102 13
144 115
100 177
195 127
188 107
5 60
48 112
88 112
4 110
202 103
52 17
118 212
171 246
51 187
202 147
26 106
95 38
30 47
150 52
21 64
162 160
26 229
217 163
16 184
158 2
12 67
26 88
195 28
90 43
175 246
200 236
79 157
94 100
219 151
133 145
46 193
124 42
177 161
193 16
132 18
4 75
187 88
118 133
16 100
43 239
252 239
215 231
167 54
27 128
238 40
3 125
241 63
83 48
187 86
64 117
175 172
110 115
147 73
223 48
211 39
234 74
45 158
157 170
182 243
22 119
131 223
119 70
158 236
193 35
237 235
20 71
46 196
87 55
133 119
140 59
54 50
167 166
111 124
184 74
197 217
238 170
199 201
8 27
58 82
129 253
111 235
169 150
251 208
85 230
77 20
159 3
197 167
239 85
146 219
249 188
68 80
9 223
61 1
170 77
136 20
4 235
27 139
171 169
122 194
49 206
39 157
50 240
186 255
135 91
246 22
44 178
179 13
98 88
110 47
201 48
53 224
30 13
228 207
138 179
30 19
16 159
60 172
183 21
246 199
55 167
65 130
200 82
145 234
133 26
255 167
230 168
175 28
27 159
30 127
31 170
57 13
21 124
118 49
183 249
253 24
193 167
28 87
11 190
218 184
60 243
140 119
240 232
114 176
21 56
133 167
149 229
157 132
42 51
57 216
176 97
24 172
82 180
42 165
227 178
36 13
176 233
196 120
82 246
208 24
144 35
68 244
33 189
121 192
141 49
160 189
8 126
212 20
42 81
149 122
239 187
184 19
117 46
155 203
28 83
141 39
216 86
26 17
235 72
3 126
18 82
237 188
242 54
159 192
202 252
240 40
94 235
138 60
122 53
149 163
142 90
142 224
107 213
4 166
155 63
23 190
198 140
112 163
141 190
202 243
124 88
247 129
103 239
12 118
21 57
88 203
41 221
80 145
228 15
22 202
129 60
17 182
238 233
57 35
185 84
197 224
167 207
112 47
212 3
100 145
53 145
124 159
67 75
74 211
161 74
193 190
66 29
127 241
206 62
246 109
82 203
57 213
224 6
104 102
175 161
38 15
62 149
247 185
147 22
43 119
41 46
216 123
35 112
114 147
252 118
118 144
177 42
202 208
172 221
114 88
172 169
136 176
249 143
189 178
223 42
17 239
43 156
239 145
251 106
245 226
223 199
148 237
176 32
201 211
94 126
199 42
29 71
33 113
183 49
155 223
206 24
72 53
109 19
102 18
92 166
202 227
29 36
113 36
14 130
5 4
161 194
167 112
69 105
249 229
23 141
238 180
212 119
195 7
191 15
242 48
5 85
147 9
166 67
54 206
19 175
109 195
170 158
132 239
181 173
12 20
45 71
207 242
134 86
2 70
5 248
13 35
223 147
37 86
118 104
112 106
21 85
96 2
233 248
22 47
225 16
235 214
243 132
28 196
131 84
73 102
189 17
253 131
111 19
127 139
142 197
229 122
132 39
100 159
137 131
89 248
56 81
2 233
133 88
19 55
123 36
249 57
203 202
152 153
23 117
251 130
27 147
198 39
246 184
140 144
194 49
224 21
69 107
153 170
54 88
223 63
82 198
236 18
6 141
235 197
119 239
14 241
170 125
40 199
102 158
226 181
106 229
22 139
161 204
184 177
173 178
4 239
189 4
14 206
223 75
44 219
179 212
237 178
116 25
27 141
201 133
122 182
94 129
125 225
46 52
207 150
47 210
126 50
206 46
186 55
15 35
151 227
151 226
228 249
209 164
167 235
124 177
114 5
147 67
42 197
219 173
86 5
239 235
24 122
200 14
170 206
156 97
4 186
204 1
62 16
52 49
74 56
248 90
34 203
158 111
197 20
62 24
41 215
218 79
126 206
94 35
171 177
182 152
93 129
156 91
21 248
126 59
90 77
65 204
136 77
183 192
233 24
88 166
113 88
182 80
54 67
109 74
233 223
89 15
141 110
238 132
27 60
57 23
132 19
87 75
169 72
60 34
193 253
11 147
13 125
229 49
131 185
63 225
33 251
126 103
254 12
130 59
21 72
50 33
218 165
64 160
35 212
161 57
20 216
45 70
127 39
218 223
82 14
63 120
170 172
50 72
203 120
253 239
71 122
94 79
44 69
24 13
115 158
235 222
67 170
4 171
152 29
54 26
64 153
12 104
28 211
255 42
123 221
126 71
210 175
69 178
126 64
141 179
248 250
21 119
114 25
33 136
241 184
20 224
145 214
79 115
94 124
107 226
70 214
43 208
152 86
223 182
217 22
121 124
104 125
138 120
233 217
24 229
175 235
132 83
239 72
86 136
243 56
164 252
36 194
132 255
147 167
186 40
50 196
57 110
250 67
177 49
110 100
135 224
147 198
86 123
42 93
152 41
100 58
211 82
78 110
13 56
255 82
214 56
88 243
223 58
197 190
28 255
169 240
33 128
239 234
51 20
211 58
247 15
129 95
22 255
144 231
58 13
244 237
243 138
140 57
95 137
62 5
251 230
168 202
251 136
42 126
125 171
115 228
165 180
179 70
155 192
161 163
195 165
171 85
194 117
166 13
34 55
123 20
6 213
1 100
106 255
164 227
198 152
82 78
226 44
211 42
7 206
228 42
61 175
23 16
134 37
106 244
63 243
194 138
190 222
144 147
81 63
68 38
70 241
233 21
222 168
48 81
241 28
4 111
126 132
124 100
208 247
118 187
248 26
100 103
41 113
41 252
181 69
180 167
12 239
134 96
48 108
111 23
45 67
64 190
157 78
162 191
176 154
122 153
216 26
12 163
194 32
210 186
250 5
128 252
116 188
16 31
88 70
196 255
118 85
142 103
159 240
27 130
110 143
114 94
127 165
218 110
12 9
254 152
163 235
255 223
35 54
220 210
76 31
181 105
239 7
33 69
144 177
109 218
163 122
171 14
197 111
179 86
236 30
243 21
60 35
250 166
3 175
165 255
202 224
3 155
186 9
178 146
68 115
214 230
67 103
201 242
180 63
12 170
13 103
201 7
54 201
124 139
235 37
95 189
255 16
121 157
214 193
110 83
1 109
42 47
38 90
86 143
108 183
71 24
145 143
8 138
117 154
206 236
203 42
127 22
135 112
255 63
23 147
81 102
215 54
169 184
52 26
192 196
242 166
141 215
71 117
166 135
92 179
253 29
92 160
222 26
166 150
234 118
221 50
228 224
24 67
85 214
147 35
60 215
252 38
177 175
97 164
233 143
150 110
204 236
215 187
225 94
38 33
48 87
18 74
130 217
122 202
222 229
70 150
248 100
124 65
104 169
53 71
132 211
119 159
188 101
42 182
142 191
50 106
124 61
49 238
127 28
17 138
140 118
237 151
207 37
49 100
163 234
38 247
85 129
196 141
103 52
200 171
171 223
3 235
152 67
220 16
199 192
98 18
25 178
159 79
168 13
235 228
210 132
13 81
130 223
51 100
174 226
165 102
126 196
42 57
152 150
160 194
213 227
204 88
116 209
182 171
202 115
31 246
147 39
228 176
66 93
67 34
48 58
220 110
196 39
70 193
216 160
187 85
96 37
117 189
240 31
183 194
201 240
171 120
32 243
100 163
69 226
75 76
92 153
35 143
59 158
135 66
99 129
153 53
202 119
98 225
18 65
173 152
43 85
157 109
37 45
95 170
230 190
162 172
102 155
6 216
202 235
111 65
252 124
120 58
4 104
22 141
86 171
198 196
63 55
129 244
42 185
193 60
116 44
149 133
78 197
120 30
19 169
144 72
50 70
41 123
150 159
39 3
39 115
67 210
145 245
76 192
111 239
121 56
6 32
233 71
74 73
22 94
125 175
56 46
106 56
163 108
47 60
62 224
240 61
104 144
112 11
132 111
143 229
124 186
50 141
133 84
170 137
225 17
42 144
16 236
75 238
121 255
193 248
234 217
187 231
249 233
198 78
94 102
86 51
53 85
72 96
141 147
30 184
44 105
248 143
134 6
169 78
148 25
37 230
111 85
154 205
180 109
232 125
144 214
234 125
79 28
7 236
172 67
74 98
220 165
214 163
47 186
194 118
222 20
94 220
19 149
181 245
254 252
47 85
81 16
150 206
255 58
122 45
52 229
58 130
119 24
100 249
163 4
35 254
150 239
221 230
234 233
245 69
164 181
162 13
251 13
125 75
235 179
120 184
98 58
128 158
43 80
203 201
144 26
3 74
133 36
102 240
122 140
69 216
175 87
10 248
32 136
116 91
197 238
7 121
48 88
8 152
31 75
198 206
189 24
226 148
239 22
151 91
111 61
64 243
153 38
192 47
115 30
156 151
77 150
163 193
150 100
191 89
13 159
16 12
88 179
112 190
63 65
198 34
133 211
104 48
158 49
197 143
59 119
129 84
126 2
93 185
63 201
17 194
196 210
81 14
33 118
195 88
42 35
234 172
175 108
100 144
60 24
26 252
221 209
195 3
249 131
36 137
174 193
195 31
134 2
190 206
202 171
130 50
50 89
104 241
82 98
79 195
247 96
201 234
41 253
246 1
161 16
253 15
248 13
235 162
135 191
217 39
111 79
160 11
123 208
127 111
201 225
241 167
162 11
17 85
220 73
184 145
40 81
38 36
176 248
88 236
105 174
212 138
206 59
38 29
168 92
24 141
190 248
72 182
192 218
192 236
27 249
149 118
77 154
43 191
24 187
24 150
163 182
75 16
27 177
36 250
88 160
236 19
6 54
109 104
6 228
17 93
32 118
144 250
170 88
88 246
184 234
211 241
88 201
80 122
75 127
36 117
138 228
117 137
151 97
106 87
240 198
168 224
231 243
27 179
166 79
22 207
5 231
156 188
4 150
71 88
66 169
179 117
254 124
154 33
121 211
121 127
171 13
246 212
182 144
15 131
89 224
49 166
193 21
235 206
88 9
97 24
78 48
213 209
187 115
101 150
110 42
249 34
130 110
43 185
112 158
24 88
95 134
135 93
239 47
228 41
76 49
114 160
246 75
67 96
182 112
83 184
215 103
49 248
27 57
53 60
210 204
197 52
76 85
31 14
148 107
147 42
34 238
23 187
3 22
170 115
77 205
211 75
205 123
157 58
196 200
175 196
124 79
72 17
147 12
150 238
14 121
180 161
137 205
173 226
191 68
54 200
182 228
130 16
165 223
46 207
40 102
118 92
120 195
3 197
47 71
2 33
151 174
134 208
75 108
207 12
14 192
114 141
128 64
110 172
115 239
24 95
28 94
26 49
167 37
179 241
38 216
166 202
238 74
4 93
163 208
220 78
243 119
150 167
144 8
241 175
60 100
113 11
17 197
10 185
172 22
77 123
103 150
27 235
206 16
4 145
13 138
233 144
150 62
117 57
94 11
224 183
141 53
218 34
141 112
212 172
55 206
12 137
104 88
109 79
214 158
128 42
195 48
3 228
143 159
251 122
88 128
139 179
4 142
194 182
254 221
35 221
215 15
145 77
161 246
149 202
96 197
38 80
117 45
138 107
198 18
126 200
255 30
114 62
196 190
222 79
241 200
222 254
66 122
196 186
249 187
59 66
12 169
65 39
71 208
240 238
117 215
155 165
4 47
139 110
56 199
54 112
230 254
93 228
1 48
162 67
118 106
223 92
4 202
125 206
183 141
121 236
164 188
49 130
59 235
118 27
86 106
251 5
144 130
53 172
61 42
162 250
230 179
98 127
111 140
212 223
12 166
217 57
221 249
89 250
76 63
20 36
170 139
5 215
229 188
58 206
28 109
60 163
25 115
152 5
172 133
23 168
33 205
214 187
231 172
230 50
56 19
228 131
135 136
57 133
24 167
248 114
4 79
99 191
57 70
147 212
144 122
196 214
67 169
54 140
228 26
98 121
223 175
64 177
186 220
17 41
19 180
4 231
117 187
88 86
117 138
223 241
104 243
94 232
21 113
46 172
165 196
21 59
48 171
179 53
243 49
167 30
72 206
90 235
69 213
250 88
169 60
96 71
171 160
67 159
52 38
238 4
149 94
126 166
8 248
89 26
164 138
31 3
178 2
240 87
98 184
35 244
243 156
219 148
145 114
43 29
202 59
179 144
240 203
120 16
74 115
245 89
106 53
238 203
134 133
62 172
72 193
167 140
103 243
207 217
136 111
63 121
185 38
225 199
163 157
143 116
201 157
239 194
227 146
179 168
50 29
241 55
21 8
31 184
16 34
218 211
101 151
34 223
31 140
132 34
69 174
204 3
112 228
33 176
56 118
91 69
120 175
234 31
166 106
221 36
73 206
88 132
32 128
73 82
34 200
215 145
41 13
17 250
207 106
151 213
236 98
58 127
133 171
134 140
112 179
180 18
169 182
60 229
31 73
157 119
67 106
29 96
238 14
194 46
232 39
24 135
195 241
13 183
109 165
39 243
243 42
62 117
252 206
210 17
201 169
130 124
71 179
188 71
73 223
22 242
143 142
49 234
9 255
232 3
255 139
150 34
24 115
206 110
221 37
212 64
7 83
180 225
155 19
62 194
8 221
1 75
12 59
13 139
219 86
253 185
179 200
218 177
245 219
186 14
222 147
235 26
47 218
35 85
41 223
146 97
190 233
13 19
166 232
61 238
208 99
128 143
186 76
59 131
2 21
20 179
254 54
182 193
132 186
135 45
49 37
124 70
244 239
207 78
114 128
12 172
211 127
126 230
222 169
134 27
9 161
183 122
27 112
196 111
57 160
183 163
142 151
212 252
194 124
1 34
3 72
167 149
103 46
132 193
38 129
27 72
39 184
14 139
181 116
152 133
202 240
92 49
200 175
206 230
67 133
150 71
36 15
165 132
105 101
67 182
112 191
2 117
125 158
119 63
106 187
35 134
33 143
158 126
139 75
197 97
76 39
100 169
249 84
185 80
227 129
57 112
62 23
157 169
216 221
235 150
85 251
61 81
235 207
168 143
243 53
206 200
106 138
100 186
113 123
82 109
94 183
162 54
39 255
111 34
57 221
70 217
147 221
8 194
199 186
100 111
201 109
72 30
135 8
193 117
229 153
239 193
16 67
228 94
74 39
21 232
33 114
162 8
137 4
111 24
215 106
29 122
33 141
153 252
232 198
36 154
63 73
177 192
22 87
149 110
246 196
127 109
129 112
196 73
253 248
57 222
239 110
216 154
248 206
130 81
192 3
199 196
200 22
4 218
192 201
12 87
13 4
88 220
171 111
141 88
247 27
37 138
77 113
76 30
112 211
85 206
176 205
56 195
17 177
114 54
221 160
243 179
41 6
4 187
2 224
125 197
16 134
4 67
58 121
126 27
112 243
92 191
229 252
211 14
24 37
66 146
232 119
174 224
204 83
17 126
49 115
20 5
28 7
220 145
158 189
193 50
7 170
124 232
217 184
80 50
46 143
133 205
248 4
202 14
71 149
251 216
162 5
234 47
215 212
169 207
151 148
47 200
159 163
134 23
178 37
236 234
121 40
166 153
171 203
200 198
49 140
98 19
147 125
207 98
159 182
254 202
81 210
24 162
50 27
217 73
25 133
26 115
87 184
18 203
13 21
96 85
7 180
119 145
210 7
126 179
168 254
173 101
52 16
69 193
152 4
216 88
10 131
254 52
86 27
199 126
37 231
228 51
187 71
207 170
39 236
210 171
37 217
167 132
30 198
200 165
154 20
136 250
82 76
161 79
46 138
191 29
168 125
6 17
80 15
217 85
129 68
57 67
186 152
126 239
229 250
120 255
195 126
197 120
74 16
126 65
67 76
178 101
145 130
129 89
124 31
43 64
202 126
187 42
194 4
231 126
111 13
163 88
27 145
57 254
115 111
149 232
28 9
112 36
11 252
47 170
36 229
124 106
21 150
115 234
55 159
183 245
111 152
115 136
25 188
6 221
232 56
28 238
217 147
112 169
233 168
230 4
196 145
218 140
95 84
140 30
234 177
196 106
191 38
165 81
126 198
138 41
204 118
81 78
250 112
245 174
59 26
7 232
109 203
117 208
160 224
62 231
76 132
67 115
180 13
49 67
121 250
87 102
243 165
52 212
129 51
25 227
49 47
206 220
88 94
213 156
37 27
199 155
249 71
218 48
197 243
74 193
255 118
193 170
191 80
67 221
240 109
34 139
17 49
11 72
161 28
87 225
145 85
118 122
228 85
180 3
10 29
205 221
16 242
147 234
36 182
235 118
21 217
206 225
197 133
247 243
204 110
4 220
218 120
150 32
185 85
70 151
130 234
106 141
46 166
148 156
216 143
27 167
214 140
92 6
153 222
206 70
19 65
50 150
165 120
193 209
190 17
184 255
1 79
94 166
182 207
234 58
141 47
192 13
234 240
96 113
164 15
194 248
81 140
149 8
236 56
133 138
249 139
250 252
78 79
121 83
249 52
115 20
21 83
72 183
172 207
22 240
110 54
4 133
52 114
42 210
173 25
120 249
78 139
132 246
203 218
145 64
157 218
140 89
185 229
150 37
162 135
211 192
82 127
105 97
159 65
144 194
111 35
204 195
223 161
179 172
159 42
103 70
17 150
33 77
206 86
183 177
103 230
4 241
128 194
130 161
231 174
73 186
99 248
12 189
250 143
175 83
70 140
193 67
237 181
120 9
94 104
236 110
160 59
83 211
185 95
66 115
222 252
128 115
143 205
33 112
28 19
109 87
149 22
249 206
132 166
240 152
42 104
175 132
120 74
34 192
161 125
136 215
200 16
146 151
197 218
231 221
203 22
57 233
126 98
159 98
24 231
210 236
187 36
39 61
186 195
127 201
131 142
191 153
195 55
8 242
127 76
233 222
49 112
180 31
67 235
50 133
229 85
4 225
157 28
236 180
187 194
186 155
194 64
248 222
117 202
204 198
7 58
166 217
161 238
2 251
89 13
149 230
167 126
149 27
251 158
42 158
155 16
54 14
180 124
40 211
193 24
238 3
241 7
39 30
60 247
118 134
64 77
47 124
167 177
103 129
231 111
223 120
173 97
46 126
30 28
90 145
118 126
111 110
111 170
23 72
26 223
26 176
125 119
140 53
64 27
183 115
83 130
79 61
221 16
20 59
22 234
237 226
200 79
239 169
45 150
62 162
67 110
159 85
215 2
250 154
70 72
117 228
86 67
9 195
241 203
18 240
120 119
1 104
195 225
61 58
170 16
82 118
207 152
105 151
27 225
233 64
220 215
112 212
127 108
153 27
224 33
100 127
77 51
23 208
161 19
115 88
30 119
69 101
81 88
18 83
126 19
180 177
180 74
36 33
93 244
98 201
190 80
224 64
25 91
49 163
186 65
222 103
43 166
121 184
52 119
96 141
154 143
254 59
236 67
21 93
164 116
177 53
252 22
214 252
60 10
20 38
249 250
42 1
205 20
207 206
191 106
104 134
168 206
210 120
45 24
110 241
2 252
251 54
190 235
85 162
223 197
66 15
148 116
91 71
202 19
9 167
162 221
254 229
54 125
64 106
239 185
103 183
210 9
41 162
42 133
169 8
76 120
9 82
47 34
55 31
254 103
163 228
2 170
206 35
59 233
242 198
118 50
46 250
240 241
124 113
206 39
61 207
5 54
123 235
117 239
138 235
167 239
123 11
218 132
103 143
37 152
39 73
114 228
50 169
52 143
47 241
168 141
23 86
252 96
15 93
171 84
102 246
62 249
144 185
249 60
70 250
6 220
100 167
150 23
120 18
73 165
110 223
157 104
102 98
122 215
26 158
222 60
8 188
66 247
61 165
32 49
138 183
24 54
115 93
248 27
155 104
64 13
136 172
4 72
172 79
233 111
42 195
112 61
40 58
123 239
27 45
100 35
5 23
55 67
17 88
147 182
83 202
111 83
53 216
214 126
183 172
254 42
95 229
128 191
202 104
161 3
196 19
85 8
166 170
16 114
94 93
130 13
250 141
243 239
52 167
149 223
3 183
209 188
99 43
2 12
163 103
134 12
45 229
41 160
232 235
26 140
250 228
57 224
153 79
134 146
199 19
133 101
26 128
192 172
221 137
208 13
200 61
249 239
140 87
152 60
136 221
199 200
165 82
9 47
90 99
198 55
178 188
2 20
229 177
169 252
139 157
46 134
79 47
204 127
37 145
36 224
94 2
46 190
133 104
171 254
168 59
135 169
206 243
51 26
254 66
222 196
176 94
53 176
88 140
61 119
177 65
144 248
191 247
152 112
115 16
159 229
108 70
225 40
171 64
236 87
10 2
84 29
197 2
37 140
104 220
59 214
115 243
46 243
180 159
132 28
139 228
247 167
152 18
228 217
152 115
63 234
202 80
140 168
222 217
240 47
62 35
118 214
249 162
101 67
130 206
100 190
255 202
105 11
50 239
169 35
144 13
157 31
126 54
119 169
84 90
234 110
223 200
12 100
93 38
231 147
53 27
248 59
135 99
252 168
18 9
22 78
175 102
92 33
169 141
250 4
249 147
71 52
73 88
30 192
142 95
141 115
177 110
138 112
144 131
159 169
183 189
220 126
206 196
166 172
233 29
13 136
117 122
196 243
49 23
78 130
217 3
140 92
16 55
155 246
27 20
255 109
45 254
170 17
115 194
82 196
3 35
247 68
197 161
180 240
59 79
202 251
162 239
63 34
153 118
219 164
162 53
139 138
73 149
111 149
118 21
127 73
221 176
176 169
47 143
159 155
114 50
16 35
123 52
52 128
70 17
81 110
216 94
113 154
46 182
53 230
151 178
106 239
82 163
141 170
60 85
10 104
135 84
117 115
238 102
168 114
33 85
111 145
204 98
76 98
112 172
94 58
22 243
138 144
115 160
15 220
77 222
183 170
57 22
42 21
155 111
131 27
64 251
13 10
13 106
216 193
141 46
53 152
14 158
95 66
79 67
10 43
31 232
3 79
96 187
184 28
172 123
178 235
234 108
64 95
192 78
66 133
67 90
70 64
4 50
155 236
14 132
94 96
225 65
148 223
173 188
94 236
171 141
68 53
89 29
166 104
120 14
201 195
64 235
8 9
127 18
6 50
211 155
224 77
3 65
127 186
147 102
137 49
250 119
154 160
241 125
16 182
26 23
171 198
32 224
150 168
161 54
12 49
54 143
131 80
62 60
115 218
42 11
72 229
181 17
138 51
201 241
177 45
163 114
79 220
223 163
121 196
162 76
162 103
152 72
233 12
150 9
123 215
34 211
208 5
211 202
250 208
243 184
55 98
49 153
109 235
93 142
112 58
82 120
87 39
161 152
23 8
116 146
168 248
190 143
232 126
68 171
144 197
175 79
141 138
10 229
236 4
42 118
243 126
83 170
54 31
222 230
32 92
204 82
60 109
223 106
124 166
199 150
70 208
64 143
39 225
120 65
31 150
223 104
4 81
147 72
8 223
241 198
111 78
125 83
78 31
81 236
197 162
146 213
155 30
243 111
145 176
112 134
41 136
207 240
2 103
22 65
203 87
236 3
158 123
217 218
132 1
98 175
203 28
136 54
37 171
94 233
125 196
86 189
152 55
223 94
119 238
13 163
14 40
155 40
67 214
124 196
111 252
159 125
241 186
149 50
16 110
131 8
188 146
40 214
203 57
32 189
213 173
217 212
34 13
170 217
60 2
190 26
102 236
192 220
42 248
110 53
29 90
140 4
251 248
38 193
246 14
149 239
13 145
108 28
118 246
52 54
126 139
1 242
244 89
194 250
125 126
53 212
196 157
109 78
112 140
1 183
115 29
17 228
8 254
197 232
80 84
180 9
175 48
197 234
14 240
68 10
126 127
84 10
229 22
146 101
51 85
220 166
63 198
194 99
47 195
50 248
252 191
225 75
216 45
114 46
111 238
88 66
100 47
240 157
85 27
171 58
56 14
176 173
172 194
208 158
66 248
52 137
228 60
215 119
178 116
19 130
95 123
53 4
173 156
182 190
205 11
245 156
159 166
227 36
84 15
208 46
91 188
205 250
241 109
119 14
200 1
250 16
163 21
243 139
21 149
218 61
201 18
252 17
250 202
35 103
140 206
91 131
193 194
140 3
28 58
144 162
47 166
64 166
196 79
26 168
193 111
159 196
163 198
133 12
92 216
104 163
212 238
139 28
183 64
159 153
182 70
212 191
177 50
185 129
44 237
147 34
202 75
6 115
138 162
55 82
110 31
119 124
113 169
136 229
214 128
224 216
47 108
79 52
156 44
184 147
234 2
71 234
192 9
218 3
51 46
55 118
166 147
82 108
165 207
177 133
238 196
89 122
155 207
158 119
193 12
27 233
69 188
39 186
172 37
39 246
234 112
29 190
245 151
249 77
9 76
204 120
45 94
5 37
20 221
149 166
87 30
224 191
185 135
185 59
42 52
109 236
151 188
163 231
161 159
2 122
29 68
62 254
182 22
119 162
49 5
13 207
46 152
145 3
192 125
228 11
66 142
181 178
134 145
223 190
221 103
235 47
54 229
139 144
67 190
62 137
217 92
22 48
184 161
89 253
198 201
30 78
150 13
99 6
161 126
88 83
79 120
58 202
132 139
17 163
163 110
225 127
232 65
209 237
69 173
48 120
217 32
69 25
78 132
128 47
232 70
172 155
155 76
201 3
225 81
32 166
120 180
64 230
110 225
244 62
171 243
40 126
89 170
4 82
176 216
217 186
140 207
233 221
79 106
18 31
15 221
210 102
15 43
242 104
67 220
48 238
92 202
159 157
172 94
237 219
65 200
163 130
146 105
166 183
127 56
205 251
75 40
197 166
169 17
8 133
86 215
196 70
220 83
149 197
163 229
140 20
76 16
53 104
58 195
104 37
197 21
218 246
58 225
111 248
182 211
250 218
172 70
123 156
56 120
140 36
69 146
23 13
155 58
4 128
57 147
140 232
31 79
46 147
134 117
139 196
63 211
50 182
43 253
137 145
177 6
54 47
149 198
133 13
253 84
223 12
201 145
240 163
124 48
131 150
126 249
26 126
11 137
103 49
3 109
65 60
113 50
241 238
125 9
130 243
169 145
47 232
23 4
54 202
23 29
49 95
238 124
235 106
196 122
113 160
58 67
118 53
175 225
2 212
230 233
255 236
148 243
193 215
141 193
21 166
207 23
86 70
6 176
98 30
26 46
50 103
96 228
126 236
179 93
164 107
77 71
131 38
72 103
141 161
212 222
239 16
241 132
175 207
131 69
153 206
75 9
51 190
163 250
36 243
19 162
18 141
209 156
226 213
2 86
142 134
189 52
82 115
204 175
158 91
63 240
18 118
49 22
123 170
128 36
187 100
18 161
180 202
178 213
105 156
74 76
24 158
194 111
62 217
141 231
223 60
168 128
29 169
24 8
149 183
65 118
107 209
202 106
188 227
111 147
120 161
133 126
102 126
88 232
167 238
196 217
16 243
248 217
109 163
14 157
49 235
112 132
86 122
139 155
247 80
162 193
84 252
145 115
57 211
74 232
53 36
94 204
9 171
78 65
13 254
44 209
131 90
220 158
19 140
80 176
17 20
163 201
61 133
36 92
35 140
159 106
67 204
182 8
67 239
24 216
26 101
121 180
55 102
29 244
76 106
126 110
238 169
35 205
181 97
63 184
3 100
137 113
185 67
27 234
190 134
100 235
228 23
170 79
238 63
234 235
9 57
3 55
60 8
164 151
154 170
47 165
126 147
173 237
195 246
206 42
233 96
172 223
117 37
176 21
190 128
154 92
48 198
130 230
82 63
111 138
51 95
34 217
217 235
98 192
103 118
36 6
53 207
37 110
22 12
207 212
170 233
8 96
241 199
37 12
49 106
49 60
4 253
166 100
164 213
206 119
1 108
5 179
248 239
116 156
235 254
8 59
194 249
18 28
84 168
75 111
208 148
96 154
180 65
232 79
52 243
242 65
177 104
158 124
42 172
16 9
192 195
13 49
77 176
131 66
162 113
45 230
197 87
70 63
106 54
166 119
35 53
43 41
81 75
204 200
200 87
158 8
202 40
115 90
100 162
108 46
60 16
117 51
20 160
124 64
251 243
144 53
119 126
126 121
87 210
214 239
104 5
85 152
240 194
74 104
187 50
211 1
173 91
99 68
119 65
152 176
16 147
57 225
247 160
44 191
81 73
104 212
249 179
90 141
8 117
226 67
12 126
177 61
37 187
249 212
93 133
65 139
230 229
207 19
120 55
4 149
60 194
153 178
183 46
253 68
214 35
103 1
94 49
204 61
49 36
179 115
220 182
158 202
63 195
51 202
2 45
216 42
207 254
145 183
149 119
108 110
242 155
14 98
132 42
182 214
50 234
77 243
255 78
210 22
88 145
255 210
144 21
160 33
121 207
140 242
140 146
4 21
207 48
98 183
150 35
150 204
24 57
133 21
190 254
128 223
244 17
147 117
124 147
202 112
104 56
26 206
232 169
244 88
54 149
238 195
65 197
93 43
225 78
167 248
57 153
250 230
50 57
24 52
87 63
223 64
179 169
191 185
104 182
45 116
149 234
20 138
38 99
238 232
169 230
136 38
122 104
243 45
149 24
57 163
237 174
185 244
67 9
47 82
204 40
252 114
228 147
212 21
116 69
149 222
13 25
163 254
233 85
208 150
138 53
89 205
244 231
100 117
158 129
138 168
161 46
124 203
94 42
201 184
63 232
237 105
1 47
114 190
63 166
249 172
248 235
65 196
223 202
14 75
247 84
98 73
205 41
193 231
206 17
4 177
87 61
53 11
210 195
19 79
235 230
235 169
65 61
193 124
127 158
64 94
171 149
20 21
220 70
4 197
108 87
58 81
233 114
80 150
143 112
118 115
75 30
202 199
93 197
112 147
13 197
12 124
216 32
140 8
41 77
243 140
26 149
202 167
15 60
243 86
203 199
162 59
67 66
242 234
2 106
128 124
96 79
17 222
210 40
57 26
47 94
163 118
231 50
68 221
73 1
110 147
26 35
228 177
180 106
108 109
194 179
163 101
215 135
197 205
144 50
77 221
215 133
167 113
21 129
152 222
154 47
112 137
223 13
49 46
175 82
133 96
230 115
194 222
157 56
115 222
111 8
98 197
145 49
88 62
4 182
223 118
138 197
74 159
11 33
251 114
8 72
50 132
242 202
26 250
248 142
100 179
182 128
70 239
193 104
18 16
88 252
104 140
244 216
199 147
248 53
16 143
213 71
118 113
156 252
70 22
230 47
182 239
31 211
136 222
108 255
144 169
184 202
223 240
30 169
100 78
204 75
45 42
190 166
40 242
187 32
118 145
194 221
183 23
206 231
55 200
119 183
118 150
14 234
6 189
207 119
45 223
11 35
83 40
250 215
220 159
33 122
222 64
150 57
185 128
223 217
121 177
54 124
207 162
63 39
83 106
17 214
106 35
89 53
83 104
143 147
193 217
98 218
98 241
144 27
31 65
192 180
234 100
96 208
55 165
106 104
131 181
9 211
207 159
60 202
123 118
222 172
225 7
237 107
203 210
11 36
21 110
153 168
153 13
62 122
93 68
176 37
210 14
46 133
139 147
123 24
71 207
89 80
36 189
171 222
193 153
41 224
197 179
240 30
125 127
140 47
53 250
140 165
226 164
1 111
159 109
132 53
128 233
6 160
229 70
194 104
161 63
158 106
96 84
73 56
230 67
64 252
131 29
230 163
145 217
140 223
160 208
162 16
254 93
159 242
126 13
39 241
22 215
5 24
76 203
119 139
50 8
14 127
10 90
134 122
205 103
202 170
251 26
249 247
102 186
246 100
161 138
16 234
215 21
10 179
222 52
177 139
62 41
53 150
115 46
24 70
17 43
158 141
118 198
142 167
7 30
84 94
75 147
46 27
85 184
221 206
229 114
79 117
224 221
152 147
103 17
26 94
101 237
183 230
206 172
19 192
145 149
198 157
241 133
117 50
122 114
202 118
35 79
88 184
58 145
250 96
145 94
111 137
4 48
45 215
217 108
191 66
64 3
72 12
244 43
139 4
89 214
17 143
90 24
99 166
124 27
219 122
253 99
189 20
11 57
171 5
39 98
44 146
89 172
128 140
234 202
111 240
133 108
34 207
169 93
167 232
248 182
171 61
225 192
232 40
48 109
125 236
52 64
50 59
56 12
242 203
20 176
190 32
14 58
98 203
88 240
75 210
157 147
121 94
119 111
251 32
207 126
174 173
87 1
63 165
114 59
228 162
150 139
130 82
235 126
230 252
192 239
51 24
101 164
213 97
250 138
12 158
251 70
9 177
124 14
104 230
40 120
46 169
238 81
182 88
218 56
227 245
106 21
115 190
112 110
43 131
171 140
21 7
59 29
184 73
141 182
43 59
22 54
171 46
85 59
228 111
9 19
108 83
197 35
86 208
176 90
126 242
98 240
110 208
55 192
194 73
71 67
179 8
228 53
110 249
223 21
87 79
159 40
135 60
52 152
119 40
128 117
72 212
70 95
78 13
188 248
235 34
53 134
60 189
223 28
219 59
144 93
212 230
12 26
233 41
2 71
206 194
45 187
34 78
210 149
34 18
207 158
238 121
47 61
94 202
127 223
174 25
235 23
67 46
169 7
4 71
200 238
140 67
226 25
206 201
141 108
212 85
180 28
55 56
109 111
186 56
203 207
168 214
91 226
220 251
127 63
9 155
203 195
153 47
251 147
97 52
197 60
5 71
187 134
139 166
206 78
150 46
122 5
215 177
137 223
185 77
51 101
189 143
177 85
33 80
82 155
65 211
19 171
74 198
140 72
120 47
237 146
230 59
11 52
234 186
183 27
86 156
127 236
72 45
247 135
110 162
79 211
194 123
162 179
83 78
46 70
12 48
71 37
229 11
111 32
75 175
167 1
199 198
121 9
202 192
106 206
5 134
67 94
97 86
189 219
170 228
228 248
190 131
187 62
189 221
28 165
100 88
214 60
57 241
120 157
89 115
250 222
208 50
66 112
50 243
97 25
9 40
86 182
59 141
143 162
126 210
104 200
200 18
249 223
249 112
176 193
114 143
57 114
180 232
84 38
53 8
177 217
113 6
233 208
106 20
190 70
159 8
17 86
164 174
50 214
12 179
163 196
42 100
255 1
94 217
78 55
16 183
46 85
94 209
38 152
93 80
206 133
47 130
83 34
39 47
94 167
85 122
8 49
147 177
254 111
179 250
227 156
240 145
193 222
4 122
212 169
202 134
94 57
85 168
245 37
119 142
60 113
159 255
103 42
121 155
141 60
110 214
47 193
78 232
48 217
42 78
117 60
6 88
8 233
220 35
221 42
64 205
90 185
23 126
169 124
163 133
195 49
3 27
64 26
130 157
106 228
172 141
75 98
124 19
46 223
125 22
139 79
44 62
240 26
169 214
150 134
145 190
120 102
213 101
63 141
52 252
137 140
121 55
236 73
187 172
196 234
140 17
118 162
207 220
181 134
6 154
65 48
13 147
86 8
170 112
227 97
172 38
168 228
85 26
203 70
145 121
223 62
124 1
193 212
91 107
196 184
205 57
213 174
221 113
248 67
16 124
167 218
193 152
193 195
232 158
78 147
103 168
187 251
183 158
105 227
45 5
46 167
159 120
197 157
147 229
149 226
158 110
223 93
74 30
95 89
5 221
232 220
88 228
63 204
22 204
16 177
163 241
50 17
243 163
110 211
59 53
222 143
90 93
236 186
101 227
199 184
3 242
141 61
13 86
207 123
76 1
145 161
172 23
149 153
3 210
54 30
54 147
244 247
152 197
93 89
68 8
66 117
58 139
160 32
153 230
180 39
125 153
27 123
54 127
171 49
145 99
90 244
130 177
166 50
200 192
220 140
220 243
89 131
147 48
99 95
51 12
114 111
202 39
35 192
54 27
24 215
178 219
218 180
227 44
130 246
157 61
54 179
198 57
170 197
113 138
119 8
46 217
189 224
7 240
17 118
225 255
212 47
220 108
101 111
138 124
47 255
72 107
59 170
204 14
98 13
149 42
42 186
19 230
183 77
30 242
220 54
31 58
234 137
63 203
231 117
194 177
85 12
12 156
235 46
144 166
12 167
47 121
27 230
87 9
107 97
239 26
118 51
16 235
225 196
93 29
124 167
87 121
65 98
235 22
44 173
94 193
250 177
29 142
245 146
215 163
192 161
82 22
94 118
88 57
136 170
119 56
114 254
56 75
206 27
23 230
241 16
254 143
195 108
123 224
184 195
137 77
197 140
172 100
83 165
152 163
36 163
50 46
90 231
164 237
238 115
166 254
79 207
250 124
193 150
82 110
182 162
63 132
108 79
105 213
172 119
22 165
208 45
51 71
112 235
196 88
208 187
231 169
119 168
44 181
70 49
162 222
187 124
167 67
161 119
130 183
43 105
35 8
86 94
59 4
122 168
143 202
52 154
148 227
28 73
87 100
115 64
55 155
161 65
133 212
150 202
40 115
55 246
206 232
192 31
201 161
195 130
147 206
55 39
111 71
28 201
179 60
179 103
171 100
9 1
26 119
48 132
109 40
251 94
88 125
152 103
140 106
145 141
248 15
203 1
41 251
11 244
55 124
163 15
243 172
70 234
243 180
202 132
210 118
65 194
240 133
74 28
57 206
183 112
175 152
209 226
211 217
140 133
253 93
88 214
4 141
206 155
249 70
89 247
111 166
121 225
101 148
16 163
153 12
71 230
117 170
52 250
135 244
23 243
86 64
210 103
159 238
182 150
22 60
58 199
198 165
13 246
27 33
135 10
179 35
167 108
181 227
124 170
149 252
206 19
37 144
53 112
18 184
101 97
160 205
122 243
60 212
11 172
34 54
104 138
139 98
63 218
12 33
71 231
161 207
248 95
79 228
67 225
48 192
36 234
155 241
12 130
51 212
242 204
35 145
122 44
3 141
63 200
202 142
239 152
179 21
214 206
141 5
119 234
38 72
33 206
116 163
246 58
190 59
194 141
193 112
102 218
82 225
147 186
101 25
223 18
124 118
138 64
202 100
189 252
121 204
161 83
27 220
145 86
211 198
131 93
54 119
103 33
74 61
212 57
68 43
235 103
193 149
220 167
150 158
176 92
223 27
19 103
39 109
73 246
132 232
193 10
238 65
42 152
60 143
13 249
2 67
96 122
231 70
148 91
136 208
77 144
67 196
254 128
250 206
39 100
64 187
42 240
42 60
220 239
193 126
59 205
196 55
25 156
240 82
128 207
159 195
67 78
90 57
51 4
39 1
50 42
18 133
215 16
34 206
91 219
195 218
230 143
71 134
215 12
3 124
212 149
37 183
157 16
24 217
222 59
164 25
13 143
4 161
48 40
67 120
74 111
160 24
255 55
97 116
38 66
236 57
29 185
206 52
78 74
64 168
136 254
41 33
96 215
158 57
6 46
102 48
67 112
12 141
34 234
154 32
125 100
235 102
9 184
145 19
126 1
88 139
145 84
85 161
81 98
166 103
254 96
190 4
95 15
159 133
212 143
114 64
228 70
60 37
152 214
118 171
221 131
31 198
21 25
153 54
202 87
235 205
137 135
223 99
139 130
26 2
223 231
26 191
47 187
64 254
70 117
241 130
137 245
3 234
6 100
83 210
251 126
114 171
248 19
250 21
45 235
238 202
167 169
149 57
232 48
137 88
141 135
194 26
250 76
212 162
31 82
223 112
140 24
142 6
134 45
101 166
200 74
186 74
120 85
232 204
183 73
33 149
54 159
26 112
30 243
228 136
61 139
172 16
166 171
76 195
49 212
105 226
208 59
196 3
208 254
23 167
12 202
42 23
200 220
166 196
23 122
30 121
183 47
131 244
153 233
70 216
110 40
85 163
37 51
189 135
223 124
7 149
104 11
242 225
152 169
14 61
123 231
63 139
26 84
206 199
208 189
175 22
236 201
213 44
231 134
52 51
145 112
117 196
106 172
234 124
3 9
235 39
134 106
214 248
199 3
145 24
220 190
38 142
105 164
4 217
129 29
75 48
53 57
190 86
92 11
212 194
23 37
163 138
30 58
217 111
55 201
233 229
158 172
163 158
50 194
229 59
163 71
45 194
214 103
103 167
204 159
241 65
90 135
191 131
180 108
217 47
67 215
159 58
166 112
149 39
83 82
19 3
167 159
190 146
224 92
11 154
169 92
126 49
253 135
21 252
10 247
96 190
29 182
194 53
232 109
22 159
243 26
119 147
84 68
214 46
24 106
75 65
88 111
248 229
112 220
167 75
3 18
48 30
128 243
7 54
19 42
42 98
91 44
243 31
122 88
170 176
7 98
212 228
175 14
83 182
161 199
22 196
63 242
87 127
70 160
57 71
203 94
71 21
214 207
81 180
250 54
173 164
155 161
139 85
45 49
168 171
199 75
119 210
19 47
147 63
19 190
35 110
246 7
233 112
203 14
60 182
222 134
94 239
66 244
12 224
23 96
73 16
111 21
30 34
178 226
127 184
247 248
27 35
92 172
184 40
59 70
132 79
232 165
44 101
179 216
44 148
209 91
98 28
11 50
101 156
183 96
121 65
138 249
139 87
143 172
9 241
189 205
44 118
217 38
64 37
49 65
59 207
78 126
98 108
159 115
49 172
246 127
65 218
246 18
131 99
147 248
149 189
214 171
83 195
234 141
183 55
12 1
76 246
235 13
145 67
82 54
123 38
169 110
233 166
209 187
32 20
238 55
124 125
100 196
212 163
180 155
49 41
133 228
135 95
180 195
104 22
13 217
48 7
120 207
9 157
232 55
68 239
107 44
88 42
168 231
251 17
208 12
17 249
171 131
199 234
24 128
3 118
102 201
18 220
103 220
192 28
248 185
96 230
214 45
9 242
60 45
88 69
114 60
227 219
87 104
64 36
230 152
184 225
158 36
183 88
46 168
251 86
180 125
18 255
103 252
198 177
183 60
168 53
16 201
174 97
60 162
149 70
154 93
121 240
36 42
110 145
193 106
48 74
64 248
242 165
69 227
119 249
15 145
85 179
213 237
85 100
58 203
175 55
32 11
210 158
125 198
157 1
3 34
49 88
27 166
46 136
15 10
1 110
202 88
76 240
17 152
147 163
119 230
96 162
106 233
205 27
161 147
39 22
8 231
54 3
