Vertices 351
140 "#98"
342 "#280"
11 "#19"
157 "#203"
319 "#111"
96 "#62"
29 "#52"
109 "#188"
184 "#17"
202 "#54"
244 "#242"
236 "#239"
83 "#200"
346 "#26"
199 "#282"
153 "#56"
191 "#334"
338 "#141"
245 "#226"
150 "#80"
88 "#33"
3 "#339"
263 "#60"
107 "#27"
264 "#350"
24 "#23"
336 "#102"
243 "#299"
255 "#286"
59 "#264"
158 "#263"
256 "#163"
34 "#85"
196 "#126"
206 "#37"
310 "#73"
307 "#183"
179 "#194"
351 "#173"
292 "#245"
119 "#216"
38 "#106"
114 "#124"
227 "#289"
176 "#283"
16 "#217"
55 "#267"
254 "#272"
325 "#210"
251 "#332"
261 "#233"
238 "#195"
121 "#112"
86 "#86"
177 "#5"
5 "#178"
105 "#229"
211 "#36"
106 "#213"
94 "#204"
348 "#77"
197 "#196"
19 "#279"
340 "#105"
242 "#167"
286 "#115"
350 "#199"
123 "#179"
321 "#240"
43 "#122"
258 "#261"
90 "#232"
74 "#83"
65 "#121"
249 "#312"
189 "#114"
110 "#41"
92 "#30"
89 "#326"
161 "#96"
113 "#150"
318 "#258"
214 "#95"
193 "#171"
104 "#157"
81 "#120"
308 "#15"
41 "#46"
194 "#291"
35 "#45"
297 "#78"
229 "#322"
51 "#251"
18 "#20"
163 "#287"
78 "#116"
305 "#311"
217 "#211"
93 "#323"
174 "#24"
168 "#161"
335 "#320"
21 "#260"
131 "#117"
15 "#6"
17 "#221"
212 "#344"
314 "#39"
126 "#71"
69 "#347"
50 "#63"
178 "#35"
322 "#337"
47 "#254"
23 "#156"
141 "#297"
71 "#259"
252 "#113"
291 "#138"
56 "#143"
326 "#148"
302 "#303"
287 "#88"
128 "#147"
241 "#166"
210 "#109"
230 "#84"
183 "#79"
167 "#273"
248 "#94"
215 "#151"
345 "#300"
111 "#128"
203 "#342"
317 "#290"
2 "#44"
101 "#49"
276 "#244"
232 "#81"
225 "#307"
147 "#89"
129 "#266"
53 "#348"
87 "#1"
133 "#133"
4 "#292"
311 "#132"
270 "#223"
57 "#310"
233 "#262"
172 "#110"
137 "#248"
259 "#25"
6 "#40"
213 "#197"
195 "#189"
220 "#100"
26 "#186"
40 "#16"
283 "#91"
84 "#206"
61 "#329"
148 "#160"
31 "#13"
75 "#93"
64 "#42"
320 "#12"
269 "#18"
222 "#136"
20 "#101"
98 "#191"
274 "#230"
120 "#61"
73 "#220"
240 "#127"
154 "#59"
226 "#48"
337 "#159"
265 "#170"
7 "#29"
77 "#123"
273 "#296"
125 "#65"
300 "#64"
295 "#325"
135 "#218"
278 "#202"
219 "#212"
223 "#234"
257 "#281"
190 "#276"
309 "#129"
333 "#164"
343 "#74"
271 "#7"
112 "#343"
313 "#165"
118 "#139"
30 "#32"
290 "#8"
95 "#341"
327 "#107"
218 "#22"
102 "#184"
85 "#235"
246 "#177"
54 "#66"
159 "#275"
136 "#265"
72 "#237"
145 "#255"
44 "#214"
192 "#257"
149 "#53"
12 "#246"
165 "#28"
146 "#76"
204 "#99"
349 "#38"
323 "#314"
80 "#308"
127 "#225"
234 "#192"
280 "#168"
201 "#285"
250 "#142"
37 "#130"
169 "#135"
166 "#306"
312 "#181"
207 "#185"
262 "#338"
299 "#327"
1 "#67"
67 "#208"
143 "#144"
10 "#125"
334 "#58"
27 "#172"
329 "#198"
200 "#90"
231 "#249"
79 "#346"
9 "#349"
181 "#21"
331 "#247"
209 "#331"
198 "#134"
164 "#340"
281 "#97"
330 "#284"
48 "#324"
42 "#57"
228 "#70"
239 "#155"
267 "#224"
152 "#288"
279 "#175"
160 "#162"
298 "#321"
173 "#187"
266 "#335"
97 "#309"
22 "#236"
293 "#10"
289 "#34"
52 "#274"
103 "#215"
171 "#304"
122 "#330"
272 "#174"
347 "#9"
46 "#190"
117 "#31"
275 "#119"
49 "#294"
62 "#316"
155 "#301"
316 "#315"
28 "#140"
237 "#118"
339 "#158"
303 "#256"
39 "#146"
91 "#305"
144 "#180"
186 "#169"
260 "#47"
328 "#333"
99 "#153"
216 "#313"
116 "#87"
288 "#319"
224 "#252"
221 "#69"
36 "#11"
277 "#131"
138 "#227"
33 "#104"
45 "#92"
68 "#145"
170 "#137"
315 "#182"
66 "#0"
132 "#268"
185 "#75"
115 "#222"
63 "#269"
32 "#82"
301 "#193"
60 "#277"
304 "#43"
142 "#238"
306 "#51"
124 "#253"
332 "#209"
134 "#243"
25 "#318"
76 "#270"
247 "#201"
324 "#207"
156 "#241"
162 "#317"
282 "#72"
296 "#103"
139 "#3"
180 "#176"
13 "#154"
253 "#295"
151 "#149"
70 "#336"
268 "#298"
14 "#2"
235 "#108"
182 "#345"
341 "#228"
58 "#205"
187 "#4"
100 "#250"
8 "#55"
188 "#50"
208 "#328"
108 "#219"
344 "#271"
294 "#302"
130 "#14"
175 "#293"
205 "#68"
285 "#152"
284 "#231"
82 "#278"
Edges
151 13
331 28
41 36
202 348
255 155
261 72
50 139
80 194
147 39
110 32
235 252
160 280
39 72
307 68
285 44
119 73
169 79
325 329
270 73
153 348
334 263
9 261
189 111
100 243
20 13
58 109
43 284
91 240
15 36
11 165
20 179
23 235
317 261
252 20
348 45
285 332
233 325
37 114
300 74
247 142
334 228
65 104
221 154
222 148
201 97
160 220
260 304
249 56
123 91
260 310
307 111
324 325
348 34
301 179
5 242
19 272
70 162
303 199
351 104
256 182
343 348
5 10
227 52
247 350
226 101
325 13
150 282
220 351
184 281
150 154
213 26
45 339
279 228
349 1
86 200
250 39
327 154
325 272
210 265
54 277
237 315
43 144
280 286
217 176
341 73
277 186
6 114
75 187
99 246
298 93
83 186
331 311
187 310
187 205
115 198
169 126
281 104
345 83
106 103
304 6
135 324
19 33
258 71
308 300
13 256
93 112
128 198
47 128
290 174
336 154
330 67
217 169
250 242
77 128
319 150
104 111
9 241
28 338
155 4
329 312
121 28
161 280
176 132
325 73
325 351
208 191
327 38
118 32
94 342
204 277
60 59
277 311
30 248
202 211
132 329
211 101
285 148
144 319
105 344
247 313
314 211
163 4
147 43
68 58
290 130
23 134
170 78
128 74
237 325
154 35
50 75
142 325
172 169
94 59
134 281
261 250
204 217
80 243
245 123
58 5
186 283
193 147
303 342
342 307
224 302
11 283
124 108
334 24
276 261
56 77
289 110
43 291
303 81
155 97
45 297
186 265
113 125
42 205
240 206
332 169
256 312
190 309
37 335
315 127
290 29
134 313
126 230
137 72
307 170
111 190
152 273
26 338
142 102
208 83
102 150
83 119
148 283
321 12
172 237
219 10
314 281
160 246
168 104
288 79
338 217
348 161
286 183
5 220
175 245
226 15
124 113
116 235
183 81
350 326
335 212
351 252
37 45
27 291
193 280
142 213
91 148
121 27
104 195
37 287
131 189
311 240
114 157
262 284
76 19
116 300
189 296
274 197
259 8
172 10
39 239
151 134
3 70
320 42
33 296
324 267
109 242
173 341
242 119
82 19
271 24
215 135
121 124
238 56
340 256
143 118
227 302
177 226
280 190
46 337
97 292
11 188
309 341
34 1
120 96
240 151
220 250
221 50
295 335
320 133
299 25
248 146
119 46
275 111
146 271
236 134
256 246
74 43
150 31
117 31
12 105
244 124
317 216
170 283
60 142
248 86
153 327
28 33
180 84
44 106
143 116
293 308
51 246
204 127
237 71
129 52
136 196
170 28
26 103
194 302
232 252
279 138
168 313
230 297
205 14
87 177
98 301
116 343
128 196
213 43
14 248
160 65
207 231
151 19
150 74
16 240
282 147
21 144
33 183
277 10
6 154
305 129
137 17
346 130
119 309
196 255
194 171
78 248
205 189
51 137
245 84
222 121
34 118
118 319
37 10
118 128
170 326
265 274
226 18
308 286
153 290
90 104
322 191
241 318
23 13
278 350
53 322
270 16
120 334
83 239
232 74
315 235
168 63
296 18
104 247
46 75
139 161
307 279
250 277
237 128
79 264
158 76
88 7
277 105
54 252
164 191
99 194
344 85
336 140
20 96
81 300
240 84
268 97
248 88
351 157
98 350
332 72
275 272
323 227
316 234
61 89
140 281
143 332
198 340
149 50
226 181
334 139
149 334
248 26
300 54
194 216
189 85
158 46
118 68
271 174
230 343
255 166
128 244
307 224
60 332
337 326
54 139
163 168
55 179
78 274
194 247
17 261
185 34
238 173
170 22
283 238
75 282
121 114
287 94
81 128
84 67
258 227
188 308
37 43
301 135
220 23
190 77
40 30
183 133
260 252
180 351
239 151
159 76
200 83
113 83
128 207
96 117
234 350
75 287
311 171
248 348
107 184
282 86
169 189
276 176
27 225
99 67
77 121
204 252
243 345
59 100
174 14
58 136
235 256
337 283
312 217
304 42
205 111
28 301
136 53
184 30
321 223
303 136
43 58
143 180
171 97
214 221
333 65
118 36
39 285
343 259
38 291
68 135
184 154
90 288
20 215
249 345
127 115
5 180
242 201
51 102
178 117
280 151
15 300
302 19
18 293
159 134
110 260
65 169
174 349
291 279
85 72
333 115
148 39
332 270
20 189
248 338
265 258
212 191
115 315
267 326
73 37
242 128
51 222
133 228
186 288
38 103
101 349
218 29
198 100
77 31
198 134
214 320
255 321
268 225
301 329
269 126
337 351
285 219
289 300
349 150
242 78
186 51
280 83
109 351
151 220
129 330
117 287
65 291
66 86
128 37
133 248
181 77
270 23
172 207
142 47
227 345
137 186
321 85
168 272
126 250
166 152
348 214
88 300
123 292
309 28
348 319
161 252
265 146
247 277
270 115
85 124
232 221
274 236
179 146
26 46
131 240
345 155
12 240
108 278
250 73
147 16
117 306
169 56
318 155
11 133
323 141
309 340
192 312
96 263
4 49
345 49
56 123
327 282
293 200
238 285
83 94
99 214
12 138
152 80
9 234
12 270
85 132
222 131
285 17
157 137
300 211
63 136
351 207
286 336
250 1
159 59
183 161
75 150
78 344
338 291
97 227
13 332
230 285
70 208
235 38
38 31
226 20
245 338
156 203
31 178
326 210
15 260
198 129
328 280
185 54
32 339
66 211
202 50
339 39
142 280
97 80
273 225
233 37
254 56
122 251
232 120
36 87
83 276
333 343
4 253
19 273
283 17
258 336
38 276
312 170
35 184
87 101
67 324
110 306
135 106
138 192
13 83
207 245
250 169
55 253
285 26
330 309
179 152
344 82
287 43
271 110
309 81
41 202
191 62
342 258
270 248
158 71
33 204
318 255
205 24
23 215
86 5
278 67
217 128
338 296
187 287
319 269
118 199
244 100
33 196
348 228
298 164
100 163
122 244
312 65
148 234
47 55
163 255
287 42
212 203
1 300
160 159
348 339
33 148
99 239
128 281
333 10
58 345
19 241
178 300
234 283
273 323
18 120
215 315
292 265
6 150
77 166
315 179
45 220
186 23
82 105
172 74
4 217
312 241
322 9
197 133
296 276
119 241
270 245
282 178
334 153
342 201
111 5
122 69
192 311
26 326
307 252
98 56
111 38
142 22
73 113
45 277
139 131
134 179
320 86
131 313
324 192
221 8
146 38
173 126
158 93
31 120
210 58
192 76
228 87
295 191
199 136
203 122
124 137
162 229
45 185
285 326
29 188
229 112
233 21
107 15
313 339
205 280
160 106
324 16
90 261
19 318
77 340
77 235
43 17
102 246
85 99
78 56
43 146
250 136
273 170
153 131
195 83
336 315
338 43
103 196
103 84
267 315
20 271
48 208
218 226
249 132
277 222
306 154
39 321
20 94
214 350
182 62
78 173
72 329
130 226
167 70
190 257
167 47
49 195
315 247
242 198
55 298
144 116
314 29
177 343
22 46
28 248
113 109
165 50
195 144
329 89
307 140
100 272
129 71
113 246
307 180
181 334
302 57
332 78
184 38
140 304
90 142
155 13
169 182
242 193
10 210
196 116
117 92
252 221
21 270
221 34
319 220
228 66
146 311
282 314
257 94
47 5
277 283
160 339
201 152
142 136
58 26
167 190
107 218
222 44
170 43
214 313
41 8
16 292
165 282
181 146
198 27
297 96
173 12
81 282
342 351
79 49
59 160
275 127
292 51
31 74
169 198
144 237
321 276
137 5
232 133
22 100
289 149
13 17
133 250
110 18
280 325
169 125
19 145
160 279
278 73
317 302
318 196
46 170
56 161
320 1
247 47
89 72
131 263
140 56
178 96
158 27
140 340
34 169
111 258
27 197
10 309
168 235
280 186
213 234
202 308
320 259
218 125
37 190
309 279
225 163
159 344
121 185
13 279
335 180
99 50
83 219
130 18
52 111
187 165
27 305
178 202
310 343
1 343
286 337
304 149
123 175
351 102
68 137
87 154
214 260
297 336
20 42
71 19
13 173
60 236
27 179
274 171
242 189
201 216
184 174
311 342
292 100
336 332
27 128
54 87
10 297
349 87
336 325
149 188
91 294
99 68
186 344
120 146
340 143
6 226
338 249
100 329
291 62
118 179
285 19
309 275
269 320
244 90
111 318
260 183
135 73
157 224
278 326
64 296
314 181
8 218
96 28
54 32
77 197
292 143
161 6
300 206
57 339
18 260
26 121
265 283
287 169
43 307
206 35
134 142
295 63
123 77
34 186
219 279
234 10
131 166
106 56
35 319
23 131
171 49
79 67
79 251
275 296
345 323
175 280
313 56
307 28
64 174
116 237
135 118
75 108
279 75
257 209
225 311
33 321
211 64
48 79
47 190
151 285
243 27
68 108
325 156
334 154
291 287
238 119
284 28
114 235
300 310
235 176
190 140
221 202
51 105
68 312
37 201
319 270
226 2
161 35
88 6
317 196
42 107
71 171
225 152
60 331
88 347
17 338
17 274
293 146
145 55
351 170
168 252
238 94
8 308
279 305
43 275
343 78
312 276
270 108
101 177
58 234
313 10
227 49
121 224
243 324
215 209
77 43
103 4
8 346
291 13
87 125
189 92
304 263
43 76
10 104
18 178
224 17
119 291
261 85
348 300
14 35
310 5
33 39
16 261
255 330
346 110
297 300
147 172
13 315
136 104
300 214
258 312
237 55
313 350
148 319
11 130
210 314
187 183
341 161
148 248
105 231
50 347
109 275
189 280
105 278
109 207
181 348
153 68
35 107
75 214
27 252
52 258
37 252
253 166
125 150
112 9
169 185
296 120
8 172
279 68
49 201
121 277
98 115
301 172
281 215
82 339
184 41
66 111
151 246
279 172
315 39
31 29
136 344
200 240
210 274
28 343
331 270
313 105
270 132
63 76
278 113
237 186
198 287
276 65
109 26
329 19
201 224
74 189
16 10
127 128
83 224
10 337
26 223
250 113
228 92
33 313
305 345
252 74
179 195
172 247
115 336
163 142
55 73
92 310
220 101
51 78
114 275
61 328
130 282
274 241
83 197
172 287
42 169
315 256
231 325
110 348
351 223
211 340
84 135
220 265
116 347
297 81
350 213
44 26
275 161
28 198
302 98
275 351
134 76
105 49
30 327
302 225
227 81
317 138
78 26
20 348
41 107
326 142
279 186
208 95
32 230
82 121
129 127
347 206
310 337
235 26
148 74
61 212
144 169
200 300
140 218
30 252
290 18
147 74
119 47
14 15
157 301
68 291
31 221
150 78
310 150
326 54
114 77
97 342
173 309
170 118
103 33
210 147
13 313
154 33
231 238
256 148
49 231
299 203
333 248
32 8
8 177
303 233
303 118
123 275
254 145
273 94
78 347
210 309
279 311
169 230
109 324
35 320
344 47
153 269
280 44
135 17
186 78
233 313
224 312
330 243
113 23
54 306
53 89
167 134
237 150
32 226
67 267
170 237
205 54
114 12
258 199
18 7
193 180
264 295
56 240
120 86
28 45
283 154
267 313
238 233
26 170
330 175
33 256
280 312
313 193
85 222
256 257
296 342
155 238
192 254
58 38
204 235
220 99
131 340
224 100
222 173
350 231
235 200
240 73
309 91
124 284
326 312
60 80
325 180
135 222
37 81
266 328
202 6
153 14
320 165
247 157
123 248
50 34
292 331
181 75
195 307
135 197
7 1
98 46
323 243
240 111
64 230
327 8
138 97
119 351
204 186
138 219
43 212
316 58
146 228
319 280
199 129
11 181
158 223
222 195
51 142
255 122
246 242
124 33
244 99
38 10
309 240
217 324
221 2
123 351
325 257
172 23
264 266
240 265
197 275
199 22
96 35
196 207
248 114
207 350
37 119
242 176
183 67
117 2
130 86
99 237
187 177
4 194
29 149
246 351
228 81
228 168
120 36
28 312
143 286
157 94
196 258
13 301
132 52
230 104
217 284
254 132
168 99
237 124
37 115
107 320
327 263
184 211
129 350
113 294
27 315
235 85
224 322
215 4
57 141
246 257
84 270
214 174
267 108
91 163
73 220
291 36
105 157
266 298
295 209
145 167
155 261
186 351
117 260
155 224
120 283
92 88
217 245
247 179
196 10
202 126
306 50
55 84
326 68
311 123
316 216
338 16
285 46
109 99
122 328
200 111
162 328
151 305
239 283
31 33
80 225
155 157
1 149
243 97
170 338
23 125
238 144
104 220
100 27
36 210
158 303
72 4
242 280
187 86
204 336
177 40
204 56
109 98
150 183
12 246
16 213
339 106
5 234
323 201
165 260
84 235
50 140
127 137
82 124
246 338
233 257
145 26
28 325
39 113
55 63
73 170
21 318
326 133
333 213
31 35
30 269
133 337
287 214
107 327
94 179
124 249
235 277
254 98
136 19
215 213
43 99
151 65
261 316
336 18
58 338
133 184
127 67
13 337
198 345
52 344
280 5
246 204
261 156
39 338
148 195
45 319
274 104
80 58
114 186
18 1
274 134
76 261
110 248
286 319
77 10
245 332
310 275
292 208
225 255
143 146
345 16
92 147
99 228
351 26
295 212
333 127
76 234
168 224
292 134
200 29
336 114
17 83
119 59
250 32
178 334
130 343
202 117
37 319
147 154
75 336
260 150
285 52
86 181
107 6
158 21
213 150
84 337
5 27
116 340
3 212
130 88
5 172
32 120
350 166
200 20
142 312
265 118
242 331
320 130
257 132
151 343
230 114
57 193
115 324
23 239
137 333
56 341
43 286
253 194
73 179
28 228
155 312
283 325
343 301
286 240
289 36
277 128
115 231
162 23
21 167
117 327
202 154
280 327
247 119
18 297
188 75
121 157
334 150
253 317
344 19
161 263
197 13
183 269
293 92
315 168
250 291
235 329
240 133
232 293
123 192
230 118
263 11
287 283
299 288
47 244
197 245
236 55
275 291
215 99
286 238
277 148
92 40
230 86
151 351
329 179
200 31
276 351
308 1
180 81
272 267
260 347
157 313
262 322
290 282
119 245
262 212
224 104
12 241
205 64
67 245
315 248
170 228
160 150
347 8
291 258
257 106
189 337
228 183
313 65
37 94
298 295
11 36
291 148
206 220
350 157
307 172
16 73
46 200
329 109
342 39
276 51
297 140
320 232
112 70
33 6
278 127
123 198
18 340
24 343
46 339
189 146
280 257
205 148
282 326
276 47
194 106
73 245
215 183
193 102
169 68
349 206
180 73
50 169
301 294
75 88
193 329
343 346
173 294
92 121
1 221
7 181
345 302
133 213
339 169
200 150
198 36
255 245
94 296
2 64
342 319
74 81
152 49
343 2
237 282
99 333
163 330
144 78
214 121
186 234
286 276
66 177
265 127
288 240
294 273
142 261
123 186
77 292
44 118
301 197
301 242
264 53
25 61
315 169
286 14
62 264
115 332
227 100
11 126
177 36
215 22
168 189
113 179
73 326
72 224
197 86
169 108
32 196
41 259
157 219
160 291
176 19
78 272
312 33
7 40
200 283
63 169
72 147
140 188
235 172
161 75
137 313
63 137
26 168
19 236
211 7
184 202
189 281
12 5
283 189
307 235
209 207
243 49
90 321
6 232
109 169
179 131
47 267
210 205
186 241
67 286
173 307
159 302
128 259
168 133
297 104
45 242
50 222
172 27
150 235
182 95
269 120
142 44
331 94
230 6
113 71
338 125
340 117
46 83
337 150
309 83
50 42
121 252
313 21
221 205
171 201
68 323
106 133
293 187
189 230
242 51
221 290
82 217
312 173
230 66
90 331
240 163
297 131
259 7
205 31
141 4
1 293
317 272
133 196
237 82
143 39
333 282
75 74
275 270
110 283
248 177
83 190
71 245
264 164
21 193
281 72
350 82
44 84
80 305
99 207
217 138
210 275
313 270
318 254
185 30
48 212
280 222
218 228
239 108
73 333
212 69
37 138
26 186
113 100
104 339
189 151
135 108
74 336
11 10
133 74
308 347
65 230
133 81
215 193
21 123
77 127
248 286
5 105
336 116
258 63
289 174
67 160
98 275
79 55
66 218
229 48
134 325
207 17
296 81
146 45
59 179
158 145
12 219
241 17
338 34
275 74
110 147
296 286
143 326
207 160
174 304
167 162
90 176
184 314
56 119
102 99
299 79
258 257
87 260
236 72
197 234
66 293
209 102
34 173
340 282
265 241
106 341
327 146
227 176
228 205
50 259
207 23
1 38
240 257
81 100
82 119
54 237
287 68
127 109
269 96
351 340
313 143
277 314
60 77
101 184
124 292
259 211
312 5
71 91
15 45
270 156
78 319
240 338
256 195
333 113
137 284
307 280
216 159
47 26
348 111
296 333
215 238
39 291
345 216
45 116
174 1
62 262
340 230
159 254
46 220
146 346
144 196
274 26
234 219
157 111
104 138
29 271
297 337
34 282
178 206
74 242
168 256
199 225
277 106
14 290
215 144
305 197
313 344
312 244
57 155
347 41
277 156
136 59
175 115
247 241
110 30
83 301
351 318
338 193
223 103
178 308
232 207
82 313
246 118
165 290
172 217
23 245
343 75
37 126
205 181
299 93
253 312
200 339
253 265
39 168
169 104
135 44
201 57
248 75
137 342
148 160
207 46
168 102
152 4
112 266
248 235
94 223
266 203
291 77
252 123
216 77
298 9
11 107
324 73
159 239
156 144
207 216
75 269
20 205
22 12
104 301
161 150
21 52
16 37
210 200
210 222
339 350
151 113
304 15
128 55
17 84
23 287
306 174
272 82
128 311
196 16
255 190
297 341
195 131
324 195
253 152
348 169
86 135
235 296
319 94
34 272
306 271
10 89
55 258
329 223
10 27
252 81
75 140
148 108
149 8
198 39
276 27
150 186
102 103
148 113
165 33
239 113
109 247
286 219
276 168
287 116
72 109
87 40
95 164
155 305
227 28
341 28
65 37
16 217
129 196
1 347
320 260
83 250
131 329
47 234
320 11
213 287
246 312
68 222
64 139
185 64
13 65
284 278
332 138
55 60
336 66
25 95
189 223
251 53
270 303
135 292
128 222
81 172
291 172
307 82
73 104
92 260
183 138
185 312
194 257
275 215
235 133
284 173
311 37
324 222
102 98
307 106
27 318
263 143
10 68
291 20
307 17
135 270
191 3
315 222
134 321
6 260
26 90
94 350
226 153
125 290
265 78
235 121
23 94
31 96
287 237
19 192
113 316
278 116
202 1
81 250
136 258
273 243
153 154
29 139
213 238
77 167
105 217
240 210
279 246
313 329
238 143
83 38
109 330
267 291
85 106
189 173
234 338
340 114
289 35
65 194
340 343
161 116
285 344
220 28
101 293
96 314
184 36
227 157
30 146
209 61
83 169
230 172
99 213
71 318
178 153
84 217
227 198
36 300
272 44
180 71
341 344
296 184
19 303
35 348
156 143
14 206
28 285
227 163
56 58
114 26
107 211
125 131
11 300
266 68
155 216
43 119
349 185
126 99
339 283
36 235
333 215
278 329
308 334
104 341
276 279
285 325
277 111
307 215
267 215
332 45
347 154
94 10
183 29
300 349
105 244
279 273
202 35
287 293
301 230
114 104
113 75
242 114
220 174
65 78
37 133
235 336
106 152
228 271
219 160
40 202
329 161
173 97
258 59
200 35
211 293
158 19
284 274
24 183
269 24
4 137
320 349
311 233
222 118
308 7
145 114
85 47
235 111
74 170
77 37
235 178
313 237
214 283
5 272
98 337
231 208
338 99
135 341
321 128
332 309
81 329
313 220
235 220
297 32
7 36
348 118
274 142
22 140
77 34
121 210
153 50
45 41
296 205
113 237
237 248
44 326
37 4
260 88
249 9
42 300
72 119
351 319
286 20
258 21
14 347
197 276
86 13
295 112
231 156
331 137
111 173
76 148
260 11
337 90
136 52
318 192
278 199
247 301
257 186
235 301
291 146
135 245
12 144
220 102
179 58
67 172
47 236
286 217
256 105
142 224
342 164
324 285
241 5
75 148
267 13
59 82
114 99
241 43
52 192
30 343
228 20
277 37
10 246
121 275
1 165
250 37
254 265
143 126
182 112
59 63
258 119
98 119
140 337
259 154
246 278
178 15
250 27
23 160
15 205
178 205
196 261
132 284
335 89
277 214
293 269
134 82
301 234
167 151
246 198
179 26
290 188
194 294
314 87
104 338
147 169
331 156
349 146
86 111
275 287
312 327
249 4
141 316
154 165
100 233
88 211
166 330
253 351
235 39
169 54
189 186
40 101
280 145
161 86
100 72
286 340
85 20
41 314
297 235
8 101
186 142
147 333
62 25
330 227
128 315
251 299
236 90
193 318
248 215
44 85
201 225
32 272
220 75
73 276
147 230
312 215
346 29
175 192
198 37
168 319
310 314
343 149
183 86
171 166
39 47
160 196
83 234
298 48
71 233
325 254
240 287
41 150
218 232
37 327
71 82
304 218
218 40
165 121
198 351
253 28
304 64
81 256
268 249
326 56
75 11
33 147
340 66
116 86
20 161
174 6
278 26
215 121
206 343
309 125
340 85
235 65
277 241
41 88
283 149
17 49
126 226
250 240
43 272
107 116
296 186
137 237
147 239
213 33
193 131
157 220
116 198
143 336
8 178
64 31
118 238
78 73
291 133
198 109
71 199
265 160
314 200
20 210
234 127
338 75
3 182
160 214
232 110
246 123
175 91
104 106
93 345
158 63
165 289
17 141
143 309
126 123
245 242
229 73
161 65
28 250
28 118
213 56
339 148
15 117
215 104
172 278
263 170
221 32
97 253
229 266
5 213
263 184
315 111
33 340
88 282
335 262
144 186
131 32
161 46
88 36
213 204
274 12
37 240
281 210
161 43
4 345
239 72
171 4
160 78
165 30
333 148
311 78
324 270
224 12
279 55
282 139
148 168
99 74
40 226
106 170
45 230
327 39
175 345
332 67
321 22
185 181
39 341
75 98
223 180
252 250
72 51
58 197
139 34
31 202
326 78
189 224
336 312
82 145
318 257
160 222
242 340
115 106
42 188
215 301
195 329
140 185
236 261
151 197
32 116
301 256
197 81
29 18
237 252
333 222
351 339
98 138
259 165
274 160
223 22
33 133
234 326
132 303
330 317
68 207
251 335
351 39
151 213
73 63
27 241
309 204
246 186
223 324
133 198
150 30
11 187
189 7
350 246
327 83
243 268
249 175
51 128
324 84
172 271
125 348
339 252
230 151
270 119
177 34
20 275
214 319
39 340
332 103
43 143
323 82
57 243
77 241
217 168
138 76
101 347
133 55
275 198
173 115
73 216
343 56
308 101
222 230
121 147
131 10
83 44
262 164
106 23
146 107
289 310
253 323
195 100
221 15
339 256
57 317
185 287
101 107
19 159
1 54
337 26
115 244
213 127
184 34
16 143
193 312
334 146
228 104
129 76
104 241
130 1
203 95
349 205
266 322
325 124
230 28
20 259
277 58
250 222
185 228
257 48
313 213
136 190
244 72
198 94
29 306
235 135
350 102
55 215
131 337
68 143
237 173
241 291
175 12
270 280
144 32
311 186
6 101
11 306
247 143
64 14
124 16
293 75
58 173
241 292
325 332
104 148
172 319
348 126
54 202
242 341
96 74
136 189
337 195
236 123
113 279
189 72
18 304
156 207
313 156
53 328
20 140
113 127
319 74
263 24
54 42
70 182
278 83
60 199
124 199
333 34
235 151
45 92
225 345
232 165
5 236
310 174
340 291
151 5
135 138
281 33
137 105
333 235
59 274
290 220
41 348
326 179
276 240
241 47
208 182
231 244
186 20
113 102
133 161
301 324
326 307
246 309
246 83
305 103
246 13
165 6
337 274
31 185
315 242
189 185
20 327
156 122
275 151
29 293
126 334
306 289
45 78
33 157
185 269
343 338
84 108
160 99
322 70
196 186
82 190
186 239
46 301
338 27
176 129
15 130
232 86
74 279
205 88
311 250
21 145
40 248
158 254
202 174
92 153
274 244
215 28
282 239
108 341
144 141
81 60
14 204
94 102
229 251
2 110
127 79
294 272
145 129
77 178
329 118
41 263
148 210
179 337
45 68
238 348
83 283
26 151
139 18
87 172
226 187
232 38
167 19
181 87
266 61
252 187
84 115
239 315
179 123
32 200
98 94
10 344
18 8
72 108
152 331
337 267
201 145
351 27
239 284
1 319
330 118
114 143
197 104
313 309
157 222
217 267
195 151
223 76
236 156
294 231
75 104
234 331
78 20
272 247
338 198
83 103
144 108
134 239
287 206
341 84
326 169
346 235
172 210
5 247
261 207
284 85
31 116
153 11
246 98
296 312
193 133
268 345
14 340
339 277
145 192
319 339
65 206
71 76
181 349
7 297
326 321
154 146
309 217
108 21
37 210
240 327
14 304
176 245
247 12
220 20
256 313
126 39
151 196
265 102
170 140
315 189
309 133
77 309
79 70
44 319
113 272
62 57
241 118
136 237
84 332
117 29
218 147
329 83
296 133
45 349
85 345
108 335
54 232
117 259
150 184
125 263
244 129
215 272
68 252
278 286
130 314
177 221
38 313
60 76
24 31
144 69
150 92
237 84
262 79
230 242
262 70
75 149
171 198
275 235
155 168
137 321
105 22
151 38
23 146
114 138
216 219
103 267
12 157
158 268
268 152
184 120
80 4
329 324
310 248
173 323
243 61
302 56
200 139
344 109
340 336
111 114
305 276
245 68
310 282
323 91
283 8
170 198
74 349
290 218
71 13
5 169
256 152
85 312
224 52
186 158
125 346
206 149
288 322
279 179
208 229
23 275
248 275
245 173
169 284
22 4
291 192
162 191
230 26
46 309
15 185
94 339
279 44
54 120
88 18
326 74
182 81
33 14
103 190
56 232
39 75
103 45
166 97
78 310
235 337
43 238
108 324
239 160
86 314
59 321
326 195
65 90
157 76
183 185
59 56
58 329
340 24
75 301
10 331
215 350
350 351
86 252
171 163
196 150
287 280
93 63
56 136
140 51
215 127
334 121
25 266
21 237
124 233
256 286
29 110
125 205
116 252
58 73
234 26
231 250
18 24
277 55
234 103
33 285
168 285
3 328
14 130
240 51
289 184
96 41
46 307
54 210
38 336
153 289
7 300
276 284
99 144
267 37
107 226
115 326
238 217
311 62
103 27
289 146
198 333
250 276
10 111
283 286
250 274
240 65
317 44
109 179
7 218
21 173
180 37
230 250
234 85
319 196
251 322
230 34
333 98
210 98
82 242
277 196
80 285
232 146
318 207
105 192
99 296
121 37
115 257
340 287
63 239
320 178
76 241
315 231
99 339
249 323
139 130
180 312
169 114
102 56
8 306
59 145
239 81
92 184
251 203
157 58
88 96
139 42
65 138
280 284
67 239
247 213
236 85
282 54
292 340
326 46
289 263
249 247
149 306
336 40
197 201
332 267
132 302
235 189
130 189
275 135
73 277
174 205
12 280
196 81
81 134
269 14
278 213
173 278
160 215
4 292
27 296
309 311
256 240
17 335
197 350
194 166
133 217
248 232
58 312
291 281
332 238
50 300
236 324
246 170
278 309
62 112
131 296
8 289
128 33
234 170
2 92
213 252
167 158
256 302
314 293
185 96
206 183
307 126
240 10
169 27
43 111
114 109
127 119
190 148
299 309
142 68
32 312
37 146
316 91
23 225
59 52
332 135
200 296
290 178
74 109
17 329
43 230
133 108
197 296
342 76
237 133
200 220
241 99
138 195
67 90
341 350
159 167
166 309
47 246
261 134
234 311
287 252
94 207
10 118
157 285
10 341
167 39
347 64
148 338
280 265
242 90
284 227
26 134
154 125
14 29
307 278
134 196
59 233
201 159
209 182
146 29
284 136
119 198
144 52
319 235
346 7
279 148
147 314
56 86
317 301
282 133
164 299
37 74
45 346
41 7
160 46
65 224
142 114
125 96
83 98
306 20
230 185
198 339
218 64
261 94
223 311
219 214
10 189
121 189
315 333
115 67
320 218
116 10
96 196
257 307
234 75
194 227
223 192
170 321
232 172
119 115
302 49
59 180
346 15
234 38
138 245
345 325
44 189
301 78
86 133
281 38
85 195
202 130
326 340
262 112
196 327
223 157
330 199
256 160
71 338
59 294
292 236
327 168
219 98
327 277
334 230
118 350
305 91
77 111
291 342
328 48
56 210
344 243
236 287
311 100
238 142
286 220
230 177
233 129
138 56
305 302
319 147
23 280
33 23
155 249
103 278
298 182
85 43
140 332
23 150
291 89
15 110
77 268
214 44
133 109
49 301
277 43
81 331
138 247
224 47
300 43
60 71
249 332
131 85
237 51
104 22
189 13
7 30
59 249
150 86
114 327
56 96
32 259
351 282
1 64
108 331
326 198
102 277
112 69
75 271
108 243
296 13
270 330
151 52
221 150
137 135
140 219
341 169
139 92
150 275
39 90
120 306
335 328
45 172
27 135
315 193
196 145
60 339
150 96
229 288
247 234
190 145
280 33
40 42
222 200
205 65
351 272
60 245
222 32
63 344
112 173
268 201
46 104
235 343
219 81
291 329
326 116
293 31
73 77
108 234
338 289
319 252
300 30
223 90
282 277
43 160
279 168
286 189
199 46
65 351
211 15
172 275
222 312
30 218
109 56
315 298
330 323
95 61
5 33
36 202
26 197
31 340
319 301
147 280
11 347
75 153
40 120
227 63
309 347
242 332
172 131
241 78
133 67
330 339
286 202
336 223
186 179
207 37
77 313
71 192
91 344
248 113
305 49
109 78
87 7
321 246
126 308
64 107
190 115
84 148
324 142
116 204
142 105
247 329
26 238
225 323
192 21
51 274
100 52
168 337
31 259
136 333
114 16
80 268
220 118
250 75
337 325
103 105
280 236
95 288
278 196
339 102
74 169
134 72
292 44
55 52
215 247
339 278
117 205
57 91
6 263
2 42
337 23
84 291
48 112
249 241
10 21
188 126
9 61
231 245
58 51
196 123
26 43
252 133
332 243
136 81
6 18
267 135
247 279
173 224
153 183
65 204
211 92
246 150
133 28
246 265
287 165
232 42
291 5
50 204
291 167
136 342
77 120
80 157
17 291
252 172
111 33
196 114
45 38
90 105
163 291
116 320
337 147
81 153
89 79
87 117
296 198
197 241
293 35
84 338
309 65
235 230
159 85
2 310
291 312
334 282
338 230
241 240
120 37
229 209
38 150
157 34
340 277
348 40
39 169
206 289
56 198
280 73
37 50
77 144
225 102
307 277
272 160
270 127
342 222
344 204
147 309
332 195
333 121
189 35
111 242
140 221
339 140
111 168
161 178
196 287
311 290
23 313
246 122
323 247
224 90
70 25
304 184
110 36
231 305
14 24
210 133
191 112
346 143
146 33
185 35
62 164
54 125
163 155
252 157
268 350
242 105
58 285
129 342
5 73
143 287
142 173
281 333
188 1
343 118
336 296
338 250
342 173
73 95
51 223
280 200
207 151
122 61
309 2
261 258
194 201
22 285
267 157
279 60
281 195
45 293
197 68
161 310
277 343
268 302
267 265
339 199
147 45
246 33
105 351
309 128
45 287
101 161
160 104
29 178
214 13
309 13
117 237
216 10
306 66
295 258
275 46
338 68
145 159
286 275
119 341
148 121
159 303
283 150
86 235
230 14
230 38
306 347
5 351
281 206
239 90
351 13
24 188
147 116
87 88
40 153
4 223
350 111
299 298
343 150
111 256
275 283
27 242
250 334
155 330
220 51
226 64
120 185
193 161
150 314
219 44
237 73
300 168
115 22
314 64
210 329
2 24
203 135
44 281
64 81
45 130
255 194
30 206
304 20
214 240
304 41
242 132
180 103
169 340
82 44
121 213
341 301
329 44
111 286
200 343
118 183
311 43
48 61
207 147
351 172
293 2
234 129
128 313
199 168
166 175
173 138
137 143
21 326
328 67
81 190
143 136
146 343
159 135
28 326
133 305
121 143
326 147
246 283
344 241
222 275
326 126
281 20
7 64
121 338
306 130
345 194
95 342
179 5
201 190
107 7
21 176
169 291
288 9
81 32
233 136
68 261
179 350
119 166
296 185
8 184
160 223
131 109
128 336
207 157
239 237
2 308
196 242
350 26
19 186
153 20
334 140
340 339
161 340
194 249
91 166
290 41
254 190
42 263
44 98
55 231
74 54
325 103
80 57
166 76
265 90
186 183
234 65
220 310
122 208
109 305
173 94
333 265
195 248
211 29
271 96
313 222
309 213
167 199
293 6
305 316
80 316
312 307
165 346
172 58
17 104
281 311
188 282
30 226
17 341
176 144
2 214
124 98
329 170
153 54
143 244
160 151
301 192
29 202
344 233
24 64
260 206
297 153
327 98
350 172
289 75
15 50
228 126
149 87
141 317
23 28
278 122
151 166
151 350
65 159
66 146
343 113
273 171
205 36
82 176
204 20
80 339
204 96
170 160
326 327
19 103
102 234
282 228
318 159
180 65
255 73
326 23
137 242
238 195
140 204
198 99
139 120
196 246
228 6
122 335
342 60
285 104
93 335
96 34
17 127
284 219
127 106
244 12
186 161
142 305
289 202
193 44
47 325
199 324
210 102
68 183
276 22
127 319
178 181
110 218
28 56
212 258
319 142
303 190
252 285
350 123
131 12
276 207
137 268
78 156
118 17
309 326
155 225
81 105
269 11
29 226
341 195
231 276
80 85
20 239
286 271
143 241
37 173
162 112
255 152
225 194
221 220
284 182
193 333
90 72
172 312
98 239
256 337
180 83
224 156
307 302
134 331
282 293
172 32
230 31
193 72
78 289
269 271
94 123
55 244
182 264
172 125
223 292
114 247
147 153
211 205
54 178
257 145
241 315
296 183
192 213
282 230
195 103
225 242
225 284
67 342
22 134
163 52
195 127
275 237
343 7
271 88
197 155
286 170
345 127
234 109
198 126
18 150
157 265
169 204
231 198
197 128
209 112
132 158
198 233
44 111
310 24
339 113
295 229
6 86
98 329
44 339
88 11
192 190
107 304
243 13
312 315
33 10
287 193
103 252
153 275
226 34
178 252
146 153
257 332
332 280
299 62
81 78
155 317
272 303
211 125
6 35
281 68
128 291
244 76
170 209
336 107
81 43
350 43
166 316
177 139
39 118
232 114
162 335
279 327
183 221
84 133
238 52
13 348
186 312
36 101
45 200
83 274
161 261
206 24
238 113
146 187
126 309
23 204
207 280
117 304
272 307
51 106
88 177
310 263
321 77
63 326
117 36
247 169
293 205
146 269
193 216
16 140
315 245
90 109
333 54
217 240
126 214
311 196
351 341
148 5
189 73
55 190
281 10
336 200
101 348
216 57
191 79
35 8
307 331
175 97
275 116
316 163
186 27
68 100
331 327
234 21
255 201
303 311
81 311
233 190
241 305
122 95
269 32
140 319
20 230
54 45
208 22
27 311
196 39
343 140
213 280
190 240
189 96
72 276
17 119
112 122
198 148
213 257
198 207
259 271
275 252
118 94
52 250
21 55
109 292
256 74
270 217
84 58
42 56
42 275
141 216
299 191
198 104
150 301
333 168
80 345
321 224
351 279
331 231
90 108
111 267
291 214
281 99
42 306
196 153
337 151
263 222
161 179
233 56
327 104
142 46
279 287
290 149
34 147
271 14
148 38
157 197
132 143
288 209
160 168
143 56
292 246
46 278
315 351
309 140
232 29
329 46
192 124
204 94
98 298
151 34
15 32
333 13
128 337
334 306
98 208
45 211
21 250
287 348
237 103
242 144
156 350
39 172
43 75
47 104
281 119
320 41
66 185
196 52
139 36
60 136
113 159
340 296
28 235
97 118
253 57
250 215
223 236
147 279
296 291
325 58
161 154
248 290
111 56
210 34
316 277
217 115
13 77
196 282
40 126
277 124
66 117
242 186
272 114
47 134
141 136
70 61
109 157
284 72
105 223
231 236
100 127
245 219
206 116
288 298
244 196
104 172
139 202
345 316
148 196
135 67
185 282
63 144
27 219
227 57
265 284
234 256
132 262
182 164
44 138
5 104
336 281
110 35
49 253
51 179
163 137
99 46
25 298
176 59
236 246
117 174
33 300
78 15
116 221
196 158
263 205
308 50
330 291
350 285
157 307
298 303
188 88
277 144
286 28
46 277
329 200
77 180
56 337
147 196
187 126
231 254
338 257
283 39
129 159
114 312
160 82
254 344
131 181
121 219
231 242
285 193
114 256
285 54
204 6
7 114
281 196
328 93
346 1
207 223
65 239
105 19
98 43
334 2
196 165
170 68
296 1
46 94
169 28
257 199
239 287
309 247
319 219
277 296
167 129
291 326
213 197
250 200
211 248
167 10
243 255
280 351
320 74
265 319
270 160
6 237
63 19
258 12
140 139
30 88
121 340
46 103
132 142
287 147
77 207
217 55
260 187
171 330
265 170
42 198
185 343
35 45
253 201
297 238
2 6
132 342
333 286
123 161
174 260
197 246
186 309
296 246
115 335
275 126
283 297
219 123
223 275
262 215
306 116
282 146
256 200
290 87
51 47
117 35
170 327
210 32
239 80
88 204
213 276
297 172
223 224
286 65
150 218
190 52
252 337
183 35
151 138
156 292
285 23
296 193
275 214
81 68
279 65
337 32
223 231
106 267
267 305
81 192
307 5
284 223
20 319
340 13
11 161
82 225
204 220
345 53
68 71
196 297
103 67
20 338
100 102
203 229
283 222
68 91
23 77
327 179
140 37
127 103
264 9
293 54
197 319
232 50
129 151
51 331
313 257
147 259
293 306
81 45
283 116
142 233
265 73
228 180
148 254
57 345
33 170
16 175
350 72
125 202
104 240
270 223
140 118
33 248
64 300
76 199
172 340
79 322
336 320
248 119
312 179
239 270
283 86
100 337
337 114
200 337
70 95
327 26
63 141
77 311
174 139
300 291
101 34
136 193
153 237
143 99
128 200
332 274
336 186
9 25
69 208
128 324
83 172
187 149
167 224
41 2
117 7
66 226
62 322
152 194
73 163
37 26
99 344
213 157
121 88
239 102
51 171
140 1
158 199
168 121
122 63
267 242
157 44
245 104
256 179
94 72
351 182
311 50
93 267
241 301
36 343
337 5
141 243
178 6
31 8
280 173
261 321
310 181
147 200
215 153
199 151
43 138
45 123
279 312
333 338
349 64
221 30
108 99
218 35
286 50
169 173
97 219
32 189
344 71
296 220
316 272
186 55
123 148
52 137
32 282
196 194
279 241
57 94
212 141
241 280
297 121
330 240
240 102
350 225
267 270
143 189
255 57
264 118
215 186
108 192
195 197
38 107
123 307
305 194
131 143
175 152
93 251
285 222
8 92
131 204
5 207
207 108
278 281
261 344
170 245
109 313
187 309
313 68
307 72
119 113
102 315
75 252
43 168
204 185
169 37
222 198
170 34
58 67
126 15
10 195
282 2
38 94
246 155
351 193
102 161
256 170
11 37
256 37
284 196
267 152
188 130
129 39
14 181
298 122
210 142
263 183
140 38
167 270
170 241
278 222
166 294
113 28
214 92
71 195
218 177
277 75
40 32
310 169
22 94
74 220
187 232
332 47
315 325
166 57
137 345
37 301
235 30
86 125
89 95
281 250
283 32
12 331
124 49
27 222
59 111
170 325
65 191
88 314
245 267
193 326
113 27
226 14
90 22
135 244
151 68
131 343
340 10
214 1
127 111
112 298
94 278
80 217
306 87
305 152
93 191
192 351
298 328
66 282
101 334
65 150
197 118
8 45
26 118
345 100
187 290
193 116
325 17
336 184
281 246
108 210
27 86
311 133
234 46
216 69
156 168
198 237
293 334
307 292
180 237
34 339
75 304
92 87
19 197
306 340
316 253
3 53
328 251
84 250
67 108
14 221
17 73
196 111
151 258
8 154
141 190
115 135
298 134
265 21
145 76
77 248
309 17
44 104
272 103
133 104
49 144
185 260
24 314
270 44
20 237
151 100
56 45
127 5
332 75
169 263
152 97
172 265
341 151
168 65
296 281
281 287
345 160
278 247
110 174
333 138
307 148
116 41
72 275
170 244
93 182
44 56
204 64
161 202
23 169
272 26
4 104
284 179
148 337
50 200
239 232
31 214
240 47
206 40
340 310
232 230
12 231
237 286
91 60
58 115
288 93
294 49
155 103
283 336
118 337
150 11
161 99
105 292
92 200
38 326
228 340
321 245
305 268
278 140
260 120
198 321
60 131
90 292
202 210
296 327
230 204
160 195
20 143
351 98
135 148
80 91
142 196
27 157
289 15
182 191
205 40
178 50
21 60
179 173
147 327
46 198
230 160
118 250
15 77
105 261
320 271
208 322
95 62
123 235
331 291
157 195
251 89
176 330
268 91
244 151
107 221
206 174
16 72
280 267
22 176
211 11
235 81
94 338
22 98
13 336
11 293
275 104
36 24
187 15
50 349
59 333
99 291
115 73
240 147
73 108
272 337
144 170
151 251
273 345
248 147
43 127
197 342
204 12
293 147
304 66
77 100
56 151
200 277
303 219
81 334
238 37
339 236
328 164
241 337
331 321
271 293
5 279
171 12
199 267
42 310
147 160
113 65
213 303
281 332
232 237
85 179
210 12
65 156
236 327
83 222
336 327
74 221
183 148
143 198
310 6
131 307
150 32
262 295
58 114
311 276
45 278
123 143
80 253
44 127
167 59
292 142
215 201
347 31
168 46
256 116
279 213
216 63
187 174
143 73
120 226
46 336
325 138
211 218
267 250
73 84
263 14
238 179
77 277
21 311
222 20
252 282
272 219
327 340
89 229
39 45
161 113
275 228
156 256
248 222
34 241
97 305
228 109
38 110
209 160
233 145
342 268
140 45
85 166
285 204
100 275
214 220
333 85
318 258
240 281
35 178
336 269
297 228
89 299
167 123
96 8
350 83
351 225
8 29
158 159
300 86
94 270
148 49
327 200
252 246
130 96
319 108
244 236
120 130
222 326
40 35
111 65
230 96
102 170
336 12
94 161
205 29
326 330
281 220
319 13
259 181
243 155
38 312
258 223
113 287
331 276
284 67
222 23
140 327
224 276
327 242
143 128
76 124
324 279
259 232
272 144
290 334
210 338
170 172
113 312
244 142
283 346
304 110
115 138
20 272
164 162
144 193
120 20
125 24
65 338
29 308
144 163
207 170
28 333
181 6
105 225
121 146
69 266
222 340
306 107
159 233
63 156
341 299
195 296
151 286
138 13
351 19
131 73
300 306
60 254
47 254
253 91
272 238
256 280
13 248
185 304
123 321
313 160
327 339
277 168
165 15
163 90
153 87
255 97
90 44
336 245
125 222
27 244
62 335
29 41
34 232
230 5
242 91
4 83
205 204
232 263
240 160
114 133
82 129
339 161
186 235
219 278
212 272
283 143
336 183
235 94
326 275
215 172
237 72
90 231
154 248
164 69
151 296
134 324
166 345
332 23
181 30
133 5
222 197
37 285
302 316
346 92
72 197
305 328
311 326
167 57
66 271
166 285
280 16
5 256
177 300
6 269
197 315
304 177
339 311
340 205
143 279
57 97
219 103
13 157
345 141
232 226
234 17
263 220
292 22
59 190
315 272
313 337
224 261
259 42
172 218
309 37
227 256
69 70
223 142
283 38
96 32
182 4
37 265
13 32
213 224
11 8
189 27
173 98
190 13
33 186
305 171
47 307
129 43
163 49
296 84
66 15
336 65
312 240
218 183
189 292
46 179
265 193
252 205
275 241
120 110
248 151
230 220
325 195
261 244
308 221
134 124
305 249
128 180
188 64
233 192
18 35
327 121
235 102
226 230
44 275
40 41
185 310
157 331
147 220
201 199
143 65
109 287
248 116
192 258
213 68
34 117
344 21
291 234
340 281
250 128
311 190
173 231
242 240
276 105
346 183
172 286
296 144
185 111
225 49
25 251
40 24
35 149
80 175
44 99
218 202
9 191
43 297
142 77
272 74
186 113
148 151
17 103
105 46
111 21
319 85
163 215
30 18
104 128
304 87
118 244
177 232
53 212
295 47
239 17
99 72
250 122
59 55
217 142
189 170
307 185
306 56
31 126
100 13
272 197
323 324
30 41
295 70
183 252
188 297
118 81
145 238
255 113
126 75
151 99
77 125
183 200
313 215
157 127
309 253
324 214
105 267
154 281
341 12
45 310
29 96
21 316
241 286
168 49
280 102
92 6
132 28
200 144
238 83
311 169
196 7
256 157
77 318
256 77
296 204
240 38
108 215
54 304
155 351
103 162
111 232
83 241
43 239
333 285
269 260
260 226
317 97
331 123
35 88
37 98
271 185
119 267
152 91
46 17
67 274
318 65
27 277
279 265
210 45
160 317
103 135
227 180
259 54
98 100
229 322
18 34
215 197
327 319
98 278
350 233
197 238
108 127
205 235
75 37
27 123
11 334
319 54
265 287
13 172
17 22
3 9
215 65
109 3
335 203
327 197
121 94
78 285
319 318
148 99
298 89
121 68
112 79
172 336
331 247
273 49
9 93
331 21
298 51
34 239
232 205
235 210
244 22
159 119
148 336
106 220
19 233
39 309
267 231
215 217
39 121
156 284
137 70
131 184
246 168
20 128
205 300
250 340
248 297
270 195
301 159
333 309
228 226
76 324
42 6
30 306
9 48
285 123
240 282
6 147
77 326
301 238
333 39
308 96
228 181
105 39
246 45
322 298
72 342
200 275
239 281
221 185
158 114
157 102
170 143
334 54
313 234
240 113
11 147
182 335
114 52
143 242
147 349
293 40
316 303
42 8
148 73
169 193
287 200
102 68
332 12
245 196
305 330
33 120
87 348
33 239
98 224
104 277
161 237
234 136
315 144
51 129
162 295
106 128
344 192
256 150
21 204
340 252
274 248
188 181
237 256
103 270
296 169
109 144
34 148
291 346
252 59
285 84
174 226
309 68
148 186
249 102
45 120
4 173
244 180
105 279
58 195
99 192
311 114
289 125
144 282
257 166
63 51
13 113
284 68
300 20
193 12
18 210
179 268
228 248
72 21
311 111
219 215
224 124
351 67
133 297
118 311
64 147
288 53
222 336
183 42
187 184
101 297
166 84
256 333
281 75
220 275
189 157
302 163
278 148
215 169
125 32
169 256
73 200
13 140
30 308
205 74
242 138
131 319
218 120
297 200
81 54
172 311
42 126
282 263
272 344
5 13
305 4
132 17
341 261
307 56
240 127
325 169
351 68
219 67
166 201
304 125
111 35
155 49
339 333
50 183
167 197
195 214
67 123
329 350
253 330
11 154
34 13
150 230
256 267
170 96
88 66
176 351
10 215
83 295
250 192
164 60
3 162
94 76
215 83
54 196
128 68
189 210
23 47
267 144
235 131
75 116
289 139
117 161
142 16
344 83
215 342
323 317
76 215
311 189
134 152
237 185
54 128
214 187
214 41
135 46
277 116
16 204
50 348
33 98
326 207
329 279
48 69
235 339
327 256
286 127
9 203
333 118
250 176
33 220
300 41
47 331
166 273
28 329
235 312
28 74
230 68
17 193
281 327
99 351
122 162
296 339
55 199
146 333
41 20
245 115
242 312
310 259
170 340
151 106
140 94
92 226
272 75
74 263
276 109
26 116
69 9
22 141
98 5
239 104
77 237
79 61
43 173
47 156
315 220
210 234
251 266
341 270
228 174
23 256
94 265
5 161
43 114
12 72
331 142
336 54
215 337
322 118
203 298
30 101
173 234
37 34
324 235
285 186
46 44
123 242
173 247
105 213
71 213
227 189
111 285
180 198
39 325
75 77
177 41
34 74
38 33
276 68
81 141
20 296
275 307
8 87
310 348
274 47
161 37
31 139
134 46
319 250
185 285
114 96
2 304
333 313
114 50
121 10
215 311
313 136
159 288
169 38
215 151
146 42
64 6
35 165
214 116
135 338
281 204
338 140
159 292
30 283
296 248
62 209
84 85
272 222
9 53
36 35
17 108
148 275
264 122
136 114
131 275
244 223
180 265
170 251
68 133
230 24
78 239
130 287
294 270
39 116
244 51
60 128
75 120
225 330
177 327
114 94
126 263
47 243
126 101
44 16
225 316
284 47
83 272
129 168
137 274
259 200
18 343
217 214
159 90
110 75
347 346
138 108
310 228
137 215
44 274
346 35
113 68
191 231
85 279
153 149
204 188
348 205
130 7
240 314
309 165
291 151
328 295
283 304
140 168
207 137
96 133
265 114
191 122
320 221
271 74
160 189
265 315
234 195
114 211
68 28
334 347
289 188
329 344
42 35
322 182
256 144
66 41
26 72
124 81
286 281
247 105
179 292
120 24
27 336
212 79
198 278
101 31
120 154
257 19
244 65
15 218
214 151
350 46
185 263
275 36
231 85
295 322
261 158
147 120
309 47
154 111
127 235
237 324
190 51
180 256
267 46
231 109
81 205
264 212
237 250
67 44
131 118
322 162
343 237
283 248
267 258
189 113
94 234
129 19
39 40
150 202
326 123
138 127
339 13
300 40
13 43
54 86
173 197
143 160
85 148
10 324
222 170
206 8
99 13
283 75
110 290
258 233
196 240
173 193
210 150
72 97
64 35
117 320
241 102
27 68
215 291
304 188
119 233
157 318
43 12
217 326
287 118
145 316
55 182
37 167
114 343
101 75
219 23
340 56
129 59
84 294
74 334
97 49
265 145
123 47
275 77
2 202
265 27
135 43
102 5
227 344
6 30
78 118
21 97
113 43
42 349
313 26
215 82
277 329
268 175
309 179
127 121
111 279
224 137
170 274
185 46
48 262
279 196
304 226
20 180
53 22
310 146
6 347
347 269
67 59
70 164
100 103
286 46
187 43
56 315
281 319
187 220
278 128
122 322
248 332
227 316
335 288
256 241
28 324
210 293
114 302
115 236
265 28
29 289
338 33
74 154
318 39
286 169
56 135
252 44
116 280
119 111
104 151
106 332
277 230
335 61
129 231
327 125
111 272
351 148
113 329
286 329
193 5
133 22
284 172
290 296
193 210
91 19
121 325
152 155
329 157
303 108
284 133
37 189
219 325
239 127
50 41
35 232
257 39
317 345
183 101
291 132
210 325
54 92
325 312
271 282
24 92
26 17
329 84
105 316
214 200
267 44
44 312
132 19
255 272
319 11
108 203
56 13
196 139
213 331
243 78
108 219
204 143
82 138
344 252
32 220
232 265
314 139
43 256
75 326
183 111
36 174
40 2
202 74
220 43
233 342
78 275
258 333
342 17
93 95
287 341
133 265
280 291
254 167
32 65
57 330
350 186
35 1
183 84
131 44
291 186
147 96
275 232
198 313
239 140
104 325
143 239
96 11
94 143
305 317
16 127
287 50
232 174
221 131
35 120
54 50
121 269
7 248
311 160
278 85
144 114
296 40
135 279
123 280
154 81
300 256
180 199
98 286
348 75
246 28
126 286
126 333
240 27
86 131
34 200
255 216
45 107
324 68
151 10
206 226
210 296
334 20
100 167
224 133
197 129
313 98
301 58
137 173
189 319
133 307
100 274
227 317
283 340
109 46
43 157
309 197
115 296
50 6
348 281
287 309
104 300
231 281
321 16
151 192
341 325
307 210
55 129
70 299
15 161
51 20
133 214
122 142
204 68
25 203
252 109
78 41
8 153
125 300
154 130
349 92
299 229
109 158
172 213
265 313
318 63
126 285
80 255
277 280
124 288
28 156
216 21
80 201
347 20
207 338
11 20
23 348
350 238
256 326
288 112
113 324
180 272
118 313
117 139
335 9
230 183
8 348
306 188
185 348
208 264
132 196
41 32
267 128
41 24
84 219
280 309
210 140
340 45
324 17
14 211
13 327
3 62
209 48
295 122
226 117
114 215
222 237
39 183
324 44
37 185
22 274
174 41
107 54
328 9
126 310
223 219
269 214
147 297
211 269
340 275
301 94
177 235
270 219
127 324
114 22
131 210
55 219
326 338
178 346
229 164
44 59
38 30
114 15
114 147
207 204
9 79
112 179
150 239
187 181
230 1
217 193
244 311
240 252
316 285
130 50
108 28
312 160
111 107
297 183
323 152
319 263
180 38
314 131
72 201
75 84
56 118
268 82
10 348
58 94
169 2
227 257
169 123
269 189
228 343
27 161
262 69
109 342
200 148
32 277
333 190
216 28
90 60
39 73
47 97
220 13
27 307
338 308
43 27
39 34
44 73
155 323
210 114
284 193
12 344
114 233
257 71
143 133
211 304
60 196
20 242
249 330
46 151
86 277
70 122
219 115
275 113
233 215
229 65
243 317
278 207
141 219
171 239
298 207
223 179
193 108
28 47
98 39
238 315
319 283
191 48
275 173
148 120
71 39
176 55
221 218
198 301
234 3
260 14
66 286
142 171
107 260
240 32
304 30
280 283
259 34
143 348
240 339
129 192
55 127
16 108
85 98
127 292
154 348
333 78
198 280
84 106
197 204
303 27
151 186
265 305
116 259
37 84
303 13
327 2
91 158
189 237
340 204
321 72
91 46
38 343
185 215
62 162
194 97
286 81
98 179
91 227
157 237
277 267
95 216
243 219
59 13
285 239
72 23
169 99
101 271
122 212
278 160
8 334
7 38
315 219
59 199
68 146
166 59
350 20
125 181
56 351
145 151
307 167
244 28
100 104
100 137
77 331
96 334
248 99
186 102
142 284
194 163
149 309
73 56
105 328
307 241
61 93
297 86
33 214
10 136
161 281
66 204
217 103
283 173
233 26
248 204
336 270
35 2
177 149
215 204
154 183
54 165
245 327
76 270
81 77
140 285
279 180
319 43
113 16
27 109
118 104
278 210
213 179
222 238
296 178
84 284
18 289
102 148
49 313
19 160
339 73
23 224
179 278
23 296
40 110
128 170
181 206
8 188
307 163
205 66
319 169
121 56
226 88
148 144
213 240
242 227
126 222
115 83
200 121
257 129
103 307
201 173
301 103
324 99
113 183
239 142
349 110
172 206
282 38
44 148
75 56
209 212
272 55
195 124
289 2
33 202
86 334
10 17
223 72
140 241
80 155
38 301
170 281
246 272
109 108
335 264
95 44
279 102
88 40
239 307
151 169
161 29
117 310
282 338
299 61
65 245
179 119
203 191
98 247
151 283
287 98
156 105
131 165
136 71
56 128
340 151
145 90
64 343
146 34
85 102
83 145
19 258
214 102
106 319
128 338
220 140
129 303
323 294
125 235
99 348
186 38
206 161
236 51
197 278
240 123
19 224
332 44
162 217
327 33
38 261
250 228
222 75
28 222
106 67
50 18
312 74
257 159
95 298
192 128
155 143
138 176
256 68
289 178
311 261
195 16
86 43
55 167
248 234
64 18
33 37
223 276
46 173
265 99
265 242
147 5
319 259
337 247
288 329
220 143
349 8
243 201
23 221
50 30
102 77
148 239
190 90
114 63
16 151
175 197
276 100
236 331
143 144
266 3
205 11
176 257
338 124
114 224
114 82
307 13
311 137
309 34
282 78
310 149
144 133
267 350
102 307
239 13
1 232
348 206
54 38
326 250
233 113
291 223
315 313
252 131
77 342
286 192
40 74
131 41
43 240
334 314
180 179
65 82
148 309
19 168
38 285
175 316
156 123
94 220
342 176
312 265
137 329
112 3
308 289
311 267
56 333
230 165
94 284
306 202
83 99
291 144
171 47
277 270
325 241
301 144
351 201
267 138
258 158
128 224
83 267
90 12
4 216
94 137
297 348
139 125
18 81
256 215
286 56
104 204
72 305
272 193
155 193
185 259
20 183
138 238
51 195
349 230
35 269
1 125
5 210
333 329
212 164
10 238
309 277
114 185
343 320
315 140
229 191
106 118
11 121
195 28
146 168
72 43
20 312
188 146
197 217
35 263
300 101
303 309
344 59
74 289
222 204
128 215
249 302
58 337
342 270
7 50
128 230
13 114
285 337
170 155
50 189
114 81
87 259
293 64
310 334
324 103
150 320
12 284
326 11
67 291
231 47
237 75
235 80
45 83
287 326
168 350
48 70
60 159
13 60
20 131
160 326
135 321
214 189
89 9
27 193
78 246
127 78
123 193
112 61
188 50
85 13
210 27
126 66
339 180
166 208
267 312
2 18
314 66
32 114
280 252
197 98
42 202
83 185
100 5
294 278
111 64
344 132
111 180
16 176
45 115
126 327
340 154
23 5
196 349
75 45
121 86
38 13
165 269
335 299
111 283
108 198
313 43
245 133
46 10
66 65
107 34
36 304
144 5
254 341
134 73
91 345
45 14
252 46
84 267
318 233
143 197
114 277
152 171
143 28
178 347
280 132
87 147
228 214
290 183
160 242
54 78
277 4
20 38
269 125
122 169
77 1
168 172
127 198
22 283
39 189
340 46
15 232
213 307
146 133
140 247
56 10
98 318
56 180
161 170
46 127
267 325
158 333
230 263
189 87
345 307
47 279
192 155
332 222
238 245
147 283
153 347
348 304
127 311
300 304
165 271
138 193
216 215
180 170
34 283
74 114
319 256
314 289
125 50
92 126
273 57
42 177
193 200
278 336
16 277
325 81
348 183
50 187
200 247
234 337
228 283
235 24
313 285
28 46
193 121
37 310
111 28
235 321
45 20
3 69
31 88
218 6
237 283
162 238
67 3
260 35
147 252
336 85
309 5
76 82
226 202
84 186
336 173
281 238
90 253
316 4
271 177
107 343
21 322
335 191
318 17
169 80
109 65
14 86
276 144
157 337
236 318
94 186
349 177
324 5
325 95
120 181
203 61
2 15
102 242
25 229
154 139
147 185
340 107
164 9
274 350
85 73
136 72
180 46
282 28
231 22
238 160
63 21
121 34
26 239
273 330
193 37
72 144
106 10
48 254
154 96
260 218
109 237
141 305
136 176
16 250
231 98
313 103
7 31
121 282
209 69
210 44
192 109
92 149
142 100
48 264
137 239
319 33
131 281
274 231
170 332
234 180
67 166
235 54
75 297
56 190
38 28
72 46
113 195
90 220
98 213
297 143
117 334
286 263
341 186
312 351
59 234
81 101
236 137
33 184
292 85
127 27
83 296
85 152
256 146
39 36
90 258
141 91
247 195
33 344
266 164
332 73
270 90
200 186
261 45
125 66
17 312
34 150
199 242
209 3
71 231
82 49
107 282
263 269
339 254
261 137
157 20
33 187
274 162
290 92
229 262
313 275
58 213
102 256
215 339
189 241
145 303
239 68
159 273
310 313
263 28
315 331
160 119
117 88
241 151
156 245
33 151
350 261
217 17
248 125
129 21
22 137
174 188
319 121
101 41
18 211
318 132
176 318
7 293
106 173
341 115
278 301
220 334
61 164
214 326
12 156
13 329
16 243
57 194
246 238
202 30
7 128
142 17
321 140
33 238
56 147
60 247
326 108
309 67
82 227
13 105
224 331
65 166
24 146
53 335
186 128
119 329
267 168
81 184
232 189
314 40
303 82
272 161
196 140
15 139
256 282
177 153
214 336
343 133
126 116
81 137
271 36
279 301
258 303
13 160
40 178
55 233
78 207
83 275
4 46
237 125
2 184
283 333
121 283
147 260
276 12
196 331
59 254
297 202
90 196
235 46
16 332
289 64
85 90
77 230
268 323
70 328
308 304
12 265
199 100
101 259
229 298
240 239
189 204
12 47
196 94
140 39
4 302
172 128
69 133
123 180
273 227
93 313
137 196
185 146
118 133
136 350
331 72
165 314
68 32
153 320
300 202
235 327
75 29
305 99
237 27
81 168
196 285
204 114
195 22
169 222
108 313
283 240
32 29
118 315
186 245
109 23
249 294
200 248
348 296
114 240
34 33
19 78
254 71
232 78
308 41
339 151
164 322
201 141
214 45
337 281
188 39
65 10
90 51
147 351
335 322
168 205
196 280
326 254
152 302
39 170
138 324
125 180
138 278
319 116
283 314
169 86
285 34
307 58
344 179
118 280
58 247
38 272
154 114
195 213
186 105
335 198
48 299
239 298
207 55
185 275
1 314
334 30
260 38
125 334
65 222
186 5
158 169
309 102
261 55
210 143
234 274
254 142
97 240
302 44
167 173
57 294
326 76
180 99
98 303
286 311
144 261
191 89
196 326
142 118
296 240
25 53
47 72
174 178
131 286
20 314
39 222
240 87
67 167
82 132
343 178
230 313
250 116
274 106
310 204
91 302
288 212
64 291
286 146
39 104
60 47
11 29
124 167
43 242
81 189
315 180
157 108
153 35
99 329
277 161
180 270
162 89
211 306
329 103
317 179
28 346
319 297
284 51
265 39
336 124
46 195
222 104
335 217
125 78
236 321
333 230
107 88
274 10
327 105
230 7
42 153
320 170
300 221
237 188
28 137
275 207
154 252
11 271
138 16
119 103
64 346
76 26
49 222
114 8
177 206
9 39
28 135
40 184
269 188
199 231
136 192
43 301
75 33
78 75
137 47
180 27
196 43
337 242
238 114
346 87
166 141
119 239
220 131
192 268
39 350
148 68
165 87
42 120
328 203
300 75
248 102
130 336
161 45
193 279
124 27
347 10
273 163
221 348
31 349
264 299
284 97
188 110
65 277
144 123
128 272
239 84
312 22
333 268
291 292
346 140
134 12
126 168
10 204
263 211
222 143
267 17
114 10
318 245
30 290
251 208
31 107
339 146
103 47
319 23
104 279
272 286
279 119
211 110
187 297
37 176
344 213
175 294
226 165
209 208
128 195
25 79
294 21
329 59
292 172
247 127
119 316
264 305
130 30
74 226
219 106
246 56
298 212
185 139
52 176
136 318
46 77
207 179
242 103
108 12
86 287
350 58
219 118
118 300
242 279
76 233
238 318
238 46
327 198
261 124
1 143
169 324
323 305
339 23
33 20
270 176
296 237
61 69
207 287
99 219
125 81
68 267
96 110
119 104
43 276
339 337
98 58
318 158
159 172
198 20
9 162
10 59
337 43
319 86
296 310
320 34
237 267
319 291
123 265
125 313
167 76
108 115
256 285
238 81
282 118
100 267
283 312
342 83
69 299
312 340
157 39
146 40
163 268
237 224
341 16
33 240
90 156
157 160
109 186
161 311
131 215
28 142
268 157
146 275
169 118
63 192
85 274
74 282
114 222
146 348
201 249
85 39
308 211
289 50
282 189
332 27
301 73
44 213
237 121
241 39
207 12
98 172
210 247
182 328
254 199
246 17
6 271
314 8
4 331
225 46
279 83
143 124
220 96
228 196
303 231
196 216
256 104
92 289
107 293
171 338
222 56
101 146
286 33
142 195
207 319
9 266
239 338
140 47
77 159
108 121
340 1
94 113
10 146
170 169
37 331
338 55
301 116
161 147
248 45
169 307
46 242
297 34
236 284
281 39
127 39
33 68
124 151
21 249
296 121
284 161
169 20
88 38
16 103
313 169
278 109
235 7
114 309
269 15
55 106
30 14
327 311
324 196
81 294
315 5
311 68
192 28
344 318
206 188
321 62
131 146
12 292
218 116
97 145
191 69
255 305
13 285
347 211
28 204
217 223
11 24
86 213
17 313
218 210
205 313
99 55
336 99
332 17
291 263
113 196
299 3
194 316
96 320
30 149
228 221
255 316
15 125
330 316
220 137
285 292
337 99
278 38
296 300
144 241
319 215
76 164
312 236
333 58
243 325
252 210
20 44
343 347
350 331
344 129
278 337
210 119
150 240
65 63
155 141
168 309
205 319
169 16
45 197
239 313
342 158
133 148
291 256
40 304
75 230
66 174
65 133
102 169
302 294
351 160
79 164
350 265
135 196
160 333
289 226
351 250
58 336
165 235
250 210
248 165
56 68
254 151
107 120
302 168
184 117
35 11
284 151
6 11
23 38
106 270
132 350
124 257
89 25
198 291
37 151
131 24
32 340
311 47
169 160
332 250
180 52
195 68
309 111
146 1
173 144
174 11
92 263
76 284
97 291
180 135
130 293
311 278
127 258
255 93
128 13
349 65
311 285
251 264
273 317
68 50
148 114
169 216
308 18
163 152
122 193
121 65
274 302
350 284
75 54
207 132
196 193
133 239
250 345
219 189
252 281
211 226
63 312
147 127
333 220
335 164
277 72
155 171
173 213
37 242
257 167
294 25
288 105
306 125
100 291
103 138
223 79
247 94
292 170
80 49
108 23
108 286
241 303
188 125
214 144
114 297
332 219
243 253
58 344
272 241
282 281
145 63
45 96
126 343
24 139
309 104
281 183
97 273
336 33
134 173
351 20
19 138
163 175
250 143
104 235
103 129
105 124
128 99
158 123
196 37
282 343
58 169
63 176
275 37
255 273
216 295
40 259
146 200
70 203
138 5
285 340
77 195
254 55
104 43
324 331
151 180
38 231
296 329
246 173
12 85
193 343
65 344
18 349
86 81
312 123
280 246
180 242
180 171
231 51
193 22
165 117
264 70
301 65
105 27
25 208
33 72
102 285
140 154
181 230
220 149
333 102
343 272
156 200
81 313
130 174
206 346
241 180
278 58
267 317
178 218
319 146
29 269
159 63
258 23
236 124
242 17
100 156
137 241
124 274
325 127
9 299
105 321
221 226
93 262
325 135
13 102
38 68
65 45
152 164
177 260
100 236
20 148
111 337
238 198
41 54
238 53
151 143
234 123
252 290
54 221
140 77
170 168
155 272
198 68
138 244
55 301
68 339
103 309
27 56
308 220
65 198
348 39
59 158
73 267
248 74
59 250
71 303
344 258
13 193
149 14
35 230
105 133
296 168
234 179
114 146
8 116
115 192
111 341
20 195
351 261
222 55
189 172
116 210
323 194
237 147
78 111
248 186
99 256
296 283
320 205
267 331
121 172
182 162
213 109
146 7
67 315
284 341
30 320
265 237
285 264
255 323
254 21
239 193
343 161
144 279
172 142
271 297
330 91
282 29
119 217
219 344
63 342
182 288
153 88
231 209
10 186
218 101
248 287
15 314
291 204
53 48
187 218
118 301
144 102
119 121
216 225
223 12
291 220
293 346
97 141
121 38
64 87
182 61
284 90
121 326
142 197
169 33
183 74
347 181
50 154
20 133
38 196
308 139
33 56
272 148
246 244
70 191
285 169
172 192
24 6
306 218
333 105
204 126
72 231
308 165
322 89
178 348
325 235
44 119
258 43
92 304
220 327
140 131
55 329
28 281
10 326
204 313
349 40
246 37
183 32
106 285
283 204
257 303
113 140
312 196
43 234
117 232
123 114
104 257
19 60
307 322
338 13
265 207
138 297
1 126
247 344
168 324
219 94
230 74
258 173
160 303
45 128
34 113
140 138
60 233
349 41
87 74
105 10
176 113
154 240
62 225
104 337
232 204
8 214
102 128
68 90
281 125
74 309
157 193
76 318
72 301
194 159
323 176
138 144
263 177
116 327
58 143
171 227
311 26
245 141
95 266
252 73
180 132
128 326
142 124
75 38
276 156
145 28
195 224
193 237
304 130
128 131
151 168
109 279
143 172
82 60
49 166
186 305
50 181
136 73
215 243
229 3
17 85
116 81
303 166
181 327
238 105
111 110
257 102
150 14
181 42
104 99
291 238
210 348
64 40
240 291
1 211
75 123
51 124
298 79
112 25
272 311
128 252
220 54
53 266
341 326
316 129
232 27
277 160
161 200
303 167
125 38
319 65
10 74
247 63
277 172
291 213
334 221
159 341
292 19
179 171
86 338
345 97
259 29
232 334
12 215
339 168
293 181
133 277
333 307
38 37
317 275
262 288
84 138
54 23
244 137
13 143
288 203
47 124
29 347
27 281
131 121
37 111
273 223
116 106
23 214
104 326
79 209
37 1
105 38
185 78
140 143
16 134
195 278
117 282
269 149
220 168
56 291
118 326
130 110
203 209
295 89
24 346
237 131
21 196
137 219
19 21
235 34
44 240
329 250
296 282
34 27
181 204
275 289
340 38
81 240
79 335
100 280
287 142
23 333
321 274
1 291
342 49
123 241
297 66
280 124
111 12
317 190
128 253
65 197
166 155
117 346
235 103
100 333
133 10
141 330
171 141
158 129
109 32
55 256
147 180
136 82
312 164
334 287
334 31
13 121
205 161
185 18
223 127
78 308
328 239
68 174
229 61
347 202
175 243
248 319
345 330
135 272
28 183
10 180
57 261
348 230
169 82
144 44
140 114
78 329
348 42
62 295
125 310
56 275
1 198
306 18
138 258
89 328
114 241
317 90
154 14
226 36
62 229
7 45
293 178
327 272
262 251
65 237
324 319
193 65
249 134
179 13
91 225
98 309
228 114
271 7
344 55
125 315
127 10
265 291
235 237
187 110
76 236
323 49
108 44
125 20
120 304
164 89
131 180
45 215
139 88
110 263
6 319
73 294
179 39
204 319
108 245
78 286
94 109
1 32
251 164
278 234
238 253
239 197
104 250
317 49
188 260
83 291
263 293
288 215
67 270
315 23
195 215
67 162
241 327
172 94
312 144
254 294
14 6
20 114
21 325
326 125
240 254
50 338
94 5
99 94
106 324
339 131
340 68
38 248
124 5
45 207
75 168
242 161
198 78
192 60
289 10
223 99
270 224
142 168
45 226
93 70
255 227
158 176
141 255
168 332
45 204
121 81
196 179
154 42
46 115
232 75
138 170
113 77
31 287
147 189
147 131
96 50
63 109
167 132
329 331
17 106
221 7
282 348
292 274
138 312
345 262
312 134
206 110
115 55
189 301
129 254
136 94
172 78
198 325
256 239
44 109
42 88
203 93
215 284
276 108
280 326
2 259
208 344
193 148
170 81
37 200
29 130
255 91
161 333
140 33
54 34
218 269
103 292
84 321
308 320
140 306
160 336
143 307
121 169
32 78
270 63
187 314
350 99
270 315
39 46
290 346
169 224
215 351
292 240
294 44
244 239
107 153
227 119
119 136
198 14
230 311
61 288
250 23
185 161
306 248
2 235
50 74
195 244
21 171
342 47
45 283
193 84
31 177
131 78
111 123
198 213
278 296
287 33
177 174
181 263
173 156
261 278
60 223
7 214
277 236
224 56
90 276
80 82
284 56
193 186
4 201
145 212
265 351
261 100
135 13
150 111
204 123
179 225
67 235
5 38
256 123
15 8
147 177
47 144
188 45
86 296
288 3
104 37
13 282
228 43
37 28
42 140
263 50
341 219
285 99
102 345
103 104
235 157
190 222
134 277
6 306
56 296
347 320
119 55
327 332
292 267
322 135
248 10
188 200
3 251
8 66
141 192
348 271
258 129
62 330
211 289
128 275
189 198
178 107
56 277
235 118
250 297
275 65
213 12
217 5
154 86
112 309
28 104
88 336
85 127
99 319
224 138
321 244
204 146
281 45
93 217
149 2
202 220
301 168
252 5
120 153
285 237
237 319
333 140
83 157
287 210
38 350
189 86
49 268
338 254
214 148
224 225
84 94
186 297
228 173
345 56
325 194
30 293
332 237
333 43
287 178
200 38
252 189
60 318
238 109
175 313
65 39
297 154
337 224
277 88
318 217
315 113
116 286
347 237
7 202
336 121
90 172
25 4
45 29
169 338
276 236
336 77
25 264
263 250
199 275
108 321
108 217
285 232
47 264
316 317
171 344
281 312
19 341
224 160
222 291
216 330
247 312
112 208
118 108
294 201
220 304
58 311
304 286
76 12
94 195
286 178
203 295
13 147
177 165
5 74
258 76
104 71
195 123
222 309
184 308
222 180
163 193
329 207
129 317
231 312
217 301
113 98
5 215
153 202
73 235
292 244
311 44
304 289
123 278
291 236
128 85
10 319
301 82
141 194
306 226
111 343
133 171
284 292
95 112
11 66
143 159
293 189
85 156
220 197
303 63
193 224
42 1
315 280
117 314
72 55
77 267
65 148
65 43
168 292
44 33
77 76
256 222
304 74
161 283
26 51
258 4
234 254
17 213
81 277
281 124
133 43
172 193
28 245
210 186
311 236
154 263
289 7
119 296
78 189
347 36
221 125
151 20
248 5
264 236
17 233
269 348
90 303
313 171
234 207
47 272
26 38
289 181
84 339
186 56
183 128
168 114
189 100
296 270
17 67
105 72
108 325
177 297
350 195
133 172
343 187
82 199
215 19
13 326
32 77
79 266
33 297
279 280
46 318
194 129
285 261
265 134
156 222
88 147
232 33
8 181
43 10
329 94
187 7
145 103
351 196
315 327
263 260
337 183
26 242
223 148
271 125
36 181
68 250
195 81
346 32
121 240
239 311
255 168
205 153
85 196
303 143
266 212
62 307
215 240
36 346
209 122
143 134
170 121
83 324
155 316
261 189
88 64
255 134
111 39
302 323
204 38
189 65
308 54
309 150
301 109
99 313
273 328
173 350
260 34
336 193
288 46
74 11
179 245
242 129
114 57
48 321
28 39
15 320
307 74
287 28
256 272
135 351
243 152
157 65
237 350
285 47
322 299
5 34
190 265
41 35
311 200
96 343
235 282
280 272
266 262
190 113
264 298
5 302
159 268
253 268
250 310
60 317
302 67
70 46
152 78
67 217
54 297
190 344
151 111
234 131
321 152
247 68
104 321
183 256
206 210
145 325
245 26
312 331
284 109
334 42
106 222
76 330
56 243
118 291
309 196
157 279
144 19
13 212
317 4
312 135
115 44
342 52
341 256
162 257
130 347
34 23
179 157
317 341
286 128
197 5
15 174
92 101
52 318
320 31
41 110
90 113
75 228
284 102
214 241
160 200
133 180
204 15
342 55
296 161
350 27
263 196
214 65
329 197
43 118
332 81
267 16
45 324
111 351
115 103
189 144
78 331
47 22
248 221
231 321
16 67
304 101
229 243
94 4
84 91
86 343
149 200
46 265
3 93
250 323
327 133
129 132
160 183
215 56
289 107
39 150
232 116
229 69
309 223
319 39
3 298
160 201
20 282
84 16
81 351
346 101
138 26
196 131
168 169
314 221
131 127
217 127
310 286
126 297
178 139
47 312
46 67
240 340
214 68
56 285
297 65
55 156
315 341
307 315
134 284
179 332
196 338
83 121
345 115
27 104
291 337
193 241
175 261
275 130
270 325
296 38
9 262
322 69
295 53
144 57
102 160
325 256
308 88
165 40
272 189
228 54
181 260
239 168
63 71
157 240
107 170
160 131
169 228
114 345
256 71
177 20
38 78
48 164
344 342
134 192
294 152
338 220
237 246
5 246
62 48
207 238
282 42
173 86
102 111
317 294
92 248
304 165
317 166
198 348
260 348
309 200
168 56
183 87
223 203
186 326
46 37
87 263
229 141
172 348
296 103
81 131
331 23
39 343
326 138
109 102
65 256
17 138
267 127
196 329
266 335
272 265
334 326
173 192
232 8
57 305
68 140
325 44
234 22
5 157
331 138
140 161
302 216
215 157
32 34
111 23
340 43
235 334
183 232
13 272
189 66
196 252
89 262
113 51
133 99
195 143
50 296
195 273
303 176
329 238
115 104
54 347
350 283
224 22
145 199
214 110
333 68
125 146
247 144
343 41
92 41
291 196
51 291
285 215
348 54
309 113
219 134
110 153
84 312
4 255
87 187
165 14
220 92
161 248
273 131
228 78
277 189
326 200
234 333
189 56
124 256
199 21
96 24
130 348
127 207
115 318
339 239
343 14
190 159
121 173
242 222
20 118
261 292
303 102
38 341
107 349
313 12
74 290
210 319
168 173
126 146
144 280
116 314
79 328
351 115
185 126
212 89
235 27
186 219
10 245
297 74
128 276
338 10
261 307
301 131
326 12
157 156
161 23
260 146
26 207
249 273
209 264
189 1
187 235
54 343
121 8
242 333
126 291
260 101
215 143
318 305
335 330
247 148
220 340
132 136
114 56
315 311
33 83
231 292
197 4
318 309
80 16
181 41
186 220
216 80
337 350
137 326
237 247
309 291
107 310
178 11
294 28
121 161
175 160
241 246
99 280
189 228
74 1
213 301
67 337
87 2
242 215
125 33
27 183
273 21
265 317
215 75
105 59
47 201
258 190
288 162
101 14
156 22
313 78
125 11
84 119
243 302
148 313
332 133
170 250
332 324
92 174
249 255
307 242
228 118
313 301
335 69
141 294
346 188
297 150
11 87
80 337
311 275
342 318
241 242
178 150
250 173
7 149
40 260
26 75
56 292
282 126
163 80
159 240
118 261
21 71
238 214
219 73
208 3
51 169
83 131
154 13
123 272
99 5
189 213
17 133
25 191
56 82
107 18
317 163
338 118
237 104
54 148
65 136
85 217
267 173
81 65
30 187
98 186
220 196
205 240
336 126
78 252
324 265
85 142
47 143
127 23
207 63
11 297
177 2
124 220
229 93
13 68
4 323
148 45
210 220
56 270
175 255
28 278
153 140
237 168
120 263
111 81
309 236
292 180
148 98
103 71
281 247
43 215
256 316
144 194
285 55
136 127
98 237
312 109
128 301
46 213
150 110
147 339
144 13
5 71
38 113
203 3
17 219
77 130
111 186
88 206
200 338
12 236
262 3
318 135
117 14
269 20
233 89
10 81
268 255
231 142
207 303
200 75
205 32
185 286
239 132
148 250
26 83
56 144
81 24
140 99
318 277
158 115
300 32
28 127
207 145
40 15
278 80
340 108
260 125
113 150
200 116
307 248
50 340
69 295
350 279
220 38
334 185
333 111
46 247
265 98
117 130
296 92
166 163
81 207
12 325
220 278
50 1
157 131
48 95
327 341
27 102
39 68
148 245
280 331
23 20
309 170
304 347
313 39
282 87
205 6
198 250
348 81
196 74
299 182
176 94
114 313
350 281
285 315
147 300
78 161
42 184
235 10
88 2
146 75
104 84
139 343
325 331
272 102
260 139
55 122
10 168
108 339
125 320
38 307
74 306
205 2
119 77
200 242
276 247
312 43
348 347
346 202
136 103
90 47
332 127
311 106
67 197
66 202
35 34
96 101
157 173
252 98
22 190
150 291
141 249
273 43
36 228
151 238
160 124
236 43
165 31
124 331
270 234
132 63
118 16
221 160
169 321
191 288
57 268
323 284
88 304
198 277
39 58
22 85
80 294
309 198
119 65
2 150
6 31
196 250
147 278
214 147
126 27
114 118
45 33
330 119
44 238
332 227
254 52
181 107
340 280
156 132
10 311
297 293
172 337
286 144
198 286
205 308
339 186
222 246
10 332
319 154
147 183
321 142
124 72
175 57
144 275
308 260
329 252
215 119
137 285
99 257
28 150
156 254
333 284
61 246
333 157
172 65
227 4
168 342
301 80
81 56
77 65
218 263
4 84
100 51
140 200
73 57
74 287
217 296
222 267
321 325
232 32
228 172
83 39
52 109
303 76
66 64
186 252
227 166
224 85
128 169
105 100
172 280
113 137
2 349
125 351
146 6
116 290
1 45
52 296
26 247
73 127
307 73
123 136
296 147
235 137
130 210
85 331
225 85
172 261
32 204
150 131
260 153
20 10
181 346
274 9
97 294
76 224
41 289
198 216
126 64
72 156
109 197
201 305
332 303
194 155
116 103
8 230
76 254
149 320
13 148
150 338
271 8
226 35
138 147
68 275
156 83
270 100
210 180
331 105
206 308
121 230
283 309
215 210
129 227
348 239
5 106
144 297
7 172
310 256
288 266
1 15
318 199
28 247
136 102
323 57
94 168
283 221
28 270
196 238
67 241
130 78
108 277
2 153
17 186
207 195
214 139
149 74
332 160
178 41
282 30
73 284
177 29
221 230
140 24
117 41
337 176
33 29
135 217
156 134
20 214
275 239
306 114
190 242
77 196
163 249
308 147
101 200
350 340
273 68
41 11
178 30
264 203
318 170
1 310
139 107
196 51
323 291
65 196
313 71
239 156
261 12
233 309
51 329
139 14
32 128
133 111
106 350
29 349
82 5
177 188
105 311
193 222
121 151
224 236
127 148
283 165
108 199
267 276
261 22
70 43
336 220
23 164
29 86
24 54
205 310
172 4
5 123
210 17
15 177
294 255
331 89
155 175
43 309
98 72
59 192
291 143
324 341
301 173
319 228
265 339
220 272
330 201
302 285
74 240
173 207
315 172
346 54
243 72
167 127
145 176
169 297
110 107
42 269
129 60
347 271
282 33
73 223
121 216
186 145
142 84
33 143
212 25
218 289
240 235
116 174
12 60
202 269
211 153
242 10
67 71
265 198
46 230
58 46
217 63
97 316
337 74
178 304
146 117
291 315
1 41
337 125
77 234
296 16
199 63
282 45
52 159
231 69
121 111
138 105
338 113
220 114
152 316
51 219
99 278
127 118
96 7
132 192
215 38
51 156
241 56
77 240
78 342
237 101
118 186
151 338
226 252
88 125
131 309
23 10
111 204
11 289
225 299
100 168
10 198
231 102
56 170
256 47
39 256
325 137
39 326
219 128
217 157
24 211
197 22
56 219
185 205
148 265
225 57
214 161
290 8
129 57
183 78
285 291
111 222
79 3
224 231
333 292
200 207
213 207
162 93
61 113
205 150
169 192
56 267
296 230
22 51
324 337
164 209
28 239
236 108
64 130
217 237
128 22
123 13
338 231
275 94
286 252
294 155
154 200
234 134
201 236
250 109
101 120
136 268
343 27
150 300
24 15
199 52
301 350
338 213
35 29
11 110
105 233
143 37
235 92
150 168
185 340
146 312
307 134
39 135
337 327
99 111
168 77
60 258
81 242
229 197
187 289
303 254
306 24
202 188
189 340
90 171
71 339
240 167
153 130
338 163
154 7
338 56
122 62
17 12
160 337
282 265
179 333
228 296
169 176
99 286
120 336
169 183
326 274
38 133
15 88
26 98
285 210
297 272
324 245
170 196
326 296
283 102
301 195
86 34
183 1
187 74
314 101
335 298
45 169
205 50
193 223
106 138
175 60
148 311
33 277
221 260
117 40
85 100
169 213
244 224
298 62
308 146
244 85
291 19
319 67
278 327
213 339
228 291
104 135
332 217
112 53
154 178
87 120
180 246
60 132
345 294
326 151
278 233
196 275
103 351
210 26
285 280
198 150
37 336
120 290
337 317
338 127
166 323
26 222
22 338
151 152
239 129
319 293
162 53
65 74
140 58
265 228
103 186
267 81
280 128
76 341
163 81
252 38
272 331
235 78
262 122
56 5
234 113
100 134
180 311
267 159
113 313
341 217
164 112
337 341
339 303
228 27
308 133
174 126
11 14
348 283
253 84
297 252
11 15
254 333
75 349
65 246
55 39
234 257
218 2
246 286
65 16
108 43
158 233
134 252
271 116
98 51
331 58
48 134
77 327
232 185
224 292
288 164
186 39
45 168
126 7
264 328
29 320
175 342
18 346
90 324
260 24
247 80
198 136
168 215
326 161
130 211
60 176
149 260
70 229
161 143
172 148
20 77
305 163
92 185
325 224
149 348
205 180
186 44
238 237
136 100
336 68
141 152
1 153
5 321
159 72
50 228
140 283
37 337
127 84
154 206
250 144
113 244
74 86
27 39
58 223
16 135
222 279
199 106
341 37
256 242
214 81
204 144
222 244
35 188
346 289
174 283
285 281
191 328
231 284
287 161
343 286
99 45
144 172
302 155
167 176
312 81
146 250
32 86
343 246
66 220
153 96
12 253
4 273
244 133
154 29
152 345
307 247
261 284
78 336
313 19
46 121
104 20
348 265
127 145
228 56
291 297
120 43
216 227
332 119
262 270
217 73
173 285
252 119
120 221
18 31
141 94
177 7
319 183
236 179
266 299
151 222
193 207
300 146
338 228
220 276
186 133
83 20
200 138
85 223
161 64
338 222
58 99
331 223
172 116
339 179
329 262
54 183
248 50
233 132
87 41
85 51
104 150
307 186
229 328
102 34
104 333
204 327
124 321
180 230
247 325
86 308
152 328
329 194
38 2
75 339
129 109
132 159
27 280
201 341
301 338
148 252
107 24
195 173
343 293
42 96
168 193
318 109
331 283
98 78
234 111
213 37
192 309
129 148
65 114
263 172
63 97
293 154
346 214
265 311
58 83
188 185
22 311
185 33
114 287
140 250
125 210
340 54
336 150
285 113
85 326
158 291
238 287
89 215
273 80
91 216
304 290
307 80
100 12
13 168
271 181
126 218
217 132
80 250
150 242
248 11
215 148
291 54
335 208
327 106
267 255
119 164
150 169
343 66
81 120
27 292
293 87
189 275
26 104
32 334
245 194
140 28
78 312
275 278
119 91
327 138
47 329
250 114
13 75
185 202
137 231
239 238
322 3
13 324
319 115
337 240
189 103
105 215
176 171
28 78
74 30
339 237
217 339
190 132
315 233
230 11
222 214
284 53
307 124
174 287
222 225
99 210
229 182
205 1
269 92
49 316
147 232
136 213
275 285
135 127
77 26
108 55
50 185
157 148
283 14
43 28
241 116
223 175
54 289
170 111
64 283
268 251
292 321
337 220
74 32
220 170
350 272
15 64
252 244
213 329
226 263
277 118
6 36
325 116
32 326
307 274
161 291
316 249
272 239
121 103
202 149
350 198
60 44
86 327
144 224
279 27
309 239
308 40
308 36
250 287
15 290
156 193
300 220
114 103
231 280
172 241
320 45
231 134
327 149
7 283
265 144
345 163
205 283
10 343
149 282
56 146
133 77
176 292
24 116
149 308
120 340
250 324
139 348
240 277
214 270
146 96
168 86
76 55
42 74
12 81
148 180
115 278
230 290
263 283
106 167
203 270
42 165
262 25
252 108
47 207
189 327
33 337
307 193
27 331
119 142
186 136
254 257
148 270
78 68
83 158
153 126
259 18
180 106
199 233
317 268
72 242
31 290
190 157
96 235
293 117
161 74
126 206
286 120
20 283
159 55
318 321
241 351
104 13
150 148
162 203
258 78
168 16
313 104
286 315
296 102
183 34
134 137
248 2
300 172
339 56
11 314
295 266
280 250
83 159
277 232
273 268
201 91
119 67
319 275
311 337
348 131
252 32
186 287
133 185
325 291
144 342
197 170
7 24
243 194
280 180
189 190
198 75
343 172
320 146
83 52
265 75
338 81
265 327
124 144
64 101
114 150
327 1
127 26
37 205
188 221
170 291
189 114
85 123
75 334
78 210
343 110
230 272
243 231
200 126
22 236
58 207
147 202
159 199
347 185
181 290
200 319
55 315
154 31
46 196
153 34
108 49
213 324
237 148
168 51
151 333
104 246
289 66
283 131
119 313
105 301
100 160
26 113
254 136
346 205
244 217
18 184
217 106
342 82
106 108
168 44
204 8
257 59
173 83
205 218
110 259
252 348
109 236
218 271
297 178
212 62
292 47
81 222
6 189
19 217
237 87
267 63
286 121
278 90
297 232
311 101
305 216
161 2
148 161
340 135
68 116
94 26
235 43
304 32
268 142
113 297
65 249
78 121
311 150
283 18
58 12
120 198
342 249
42 346
279 129
73 316
111 239
217 163
61 298
250 313
38 338
145 142
65 173
272 196
301 274
212 47
310 172
351 37
96 188
292 317
61 53
297 107
327 188
81 138
19 94
99 23
43 271
247 170
152 227
214 165
214 327
35 259
42 130
90 193
157 344
79 95
27 340
92 110
235 90
81 278
319 230
180 98
339 163
21 257
336 20
142 236
235 286
246 128
193 278
302 171
232 161
335 3
283 289
263 348
114 170
120 202
137 151
326 189
319 125
60 63
338 330
295 251
265 5
147 228
157 78
296 287
113 99
187 346
254 63
144 180
237 43
301 312
272 173
234 286
120 117
22 76
114 290
108 58
135 296
266 48
74 259
331 13
182 280
50 146
281 307
117 110
336 287
45 177
260 346
31 130
218 200
63 190
312 55
65 1
127 341
48 335
12 51
266 191
249 250
349 308
166 302
45 121
253 301
196 232
