Vertices 104
1 "#98"
85 "#57"
56 "#80"
89 "#71"
27 "#97"
70 "#81"
17 "#42"
24 "#99"
43 "#41"
97 "#101"
71 "#7"
28 "#78"
21 "#26"
55 "#11"
23 "#35"
98 "#19"
2 "#20"
14 "#74"
53 "#32"
54 "#90"
77 "#46"
91 "#18"
26 "#47"
72 "#56"
87 "#8"
51 "#103"
16 "#30"
12 "#93"
35 "#31"
39 "#48"
90 "#22"
79 "#39"
52 "#38"
73 "#33"
49 "#10"
92 "#58"
76 "#45"
78 "#53"
22 "#59"
102 "#1"
42 "#17"
68 "#9"
60 "#23"
96 "#24"
48 "#86"
88 "#51"
5 "#25"
66 "#21"
9 "#79"
41 "#49"
63 "#0"
58 "#102"
20 "#96"
32 "#13"
40 "#5"
59 "#3"
18 "#91"
15 "#43"
103 "#55"
81 "#6"
44 "#85"
94 "#100"
65 "#82"
86 "#34"
99 "#16"
8 "#50"
69 "#36"
34 "#61"
83 "#95"
4 "#14"
101 "#28"
80 "#84"
104 "#27"
19 "#4"
11 "#67"
45 "#63"
84 "#54"
61 "#52"
3 "#29"
67 "#89"
50 "#62"
74 "#83"
95 "#73"
38 "#65"
7 "#40"
93 "#15"
37 "#75"
30 "#77"
46 "#92"
29 "#76"
25 "#94"
82 "#64"
62 "#72"
47 "#87"
64 "#66"
31 "#68"
10 "#60"
75 "#70"
100 "#88"
36 "#69"
33 "#2"
13 "#12"
57 "#44"
6 "#37"
Edges
33 6
29 95
71 14
18 46
9 80
68 84
11 19
95 89
47 54
33 86
94 27
95 74
39 53
83 1
23 10
88 22
99 34
28 65
74 80
12 48
20 51
20 64
19 30
83 27
14 37
70 74
79 66
25 17
90 95
16 75
96 104
53 87
91 32
34 101
96 71
29 75
27 87
71 89
18 23
66 52
19 53
83 56
35 42
1 20
41 69
28 80
23 3
7 66
45 41
79 63
86 20
90 3
27 51
43 23
77 76
45 84
102 72
24 97
9 49
30 28
18 67
103 79
43 66
101 74
63 20
37 3
100 18
86 5
101 52
95 62
35 81
67 12
15 52
48 100
12 71
73 84
60 84
17 51
44 11
5 2
44 12
98 22
5 69
27 69
37 59
23 4
83 94
24 29
64 96
8 78
29 28
35 4
83 24
77 47
8 99
88 60
89 62
49 78
92 79
26 81
20 25
96 77
28 70
15 39
97 20
39 99
93 70
1 47
40 16
81 96
63 23
91 104
98 23
96 102
86 50
50 63
36 72
47 46
37 95
54 44
69 64
87 95
85 61
42 64
67 36
36 85
22 75
49 6
33 48
1 24
47 21
70 57
32 8
45 38
58 83
13 55
84 92
65 46
43 103
67 55
38 21
97 86
65 71
52 2
39 18
28 69
33 101
99 2
36 5
97 1
88 91
41 26
91 80
15 88
78 15
66 27
94 47
92 39
14 95
9 74
97 25
77 79
3 87
47 13
83 25
22 57
34 17
22 64
22 36
91 43
61 3
22 4
21 76
31 54
38 15
17 47
31 13
41 85
12 46
92 61
19 61
37 53
58 1
67 54
6 5
83 17
97 51
61 49
62 13
62 37
25 24
12 47
36 88
80 25
58 94
24 51
93 27
94 51
45 59
49 88
45 27
101 40
92 36
90 82
31 55
41 93
103 55
5 59
33 7
88 31
43 60
1 25
83 20
9 28
18 44
88 56
98 8
23 31
77 81
3 101
13 99
87 104
38 94
25 27
75 95
61 64
92 48
46 67
35 59
90 84
81 101
42 89
15 19
37 68
32 36
8 2
37 75
29 14
47 48
87 11
70 104
49 11
59 52
64 88
70 80
84 33
58 24
24 94
8 72
67 44
22 102
98 31
3 33
64 65
44 47
56 30
104 25
93 16
20 27
62 29
17 59
21 28
69 13
31 19
22 7
44 46
14 74
58 97
80 29
77 36
4 61
66 85
97 83
42 72
104 60
5 34
21 42
72 38
55 101
56 74
48 67
79 78
31 61
56 9
38 64
29 89
69 16
37 89
33 52
10 9
96 82
64 43
51 58
74 28
104 30
67 2
27 58
46 69
103 45
89 75
56 65
22 94
101 23
86 15
72 48
70 65
