Vertices 115
20 "#2"
43 "#20"
90 "#79"
33 "#39"
29 "#57"
70 "#51"
99 "#23"
64 "#37"
7 "#21"
91 "#38"
31 "#103"
26 "#49"
57 "#4"
10 "#104"
5 "#0"
58 "#59"
24 "#56"
48 "#89"
52 "#94"
38 "#112"
4 "#26"
68 "#47"
51 "#99"
105 "#16"
100 "#33"
114 "#61"
41 "#27"
81 "#35"
75 "#52"
86 "#40"
106 "#85"
65 "#70"
113 "#3"
44 "#6"
97 "#29"
50 "#31"
32 "#9"
2 "#87"
18 "#18"
66 "#43"
37 "#83"
79 "#113"
49 "#110"
61 "#71"
14 "#30"
30 "#74"
62 "#19"
53 "#62"
82 "#13"
28 "#45"
110 "#114"
89 "#53"
9 "#44"
69 "#15"
17 "#10"
47 "#69"
84 "#60"
74 "#22"
115 "#77"
34 "#42"
107 "#32"
104 "#63"
15 "#88"
101 "#68"
13 "#102"
22 "#25"
27 "#108"
56 "#55"
35 "#5"
8 "#105"
95 "#90"
19 "#96"
23 "#48"
3 "#91"
103 "#106"
73 "#84"
11 "#58"
54 "#1"
1 "#7"
72 "#92"
16 "#24"
87 "#64"
78 "#11"
21 "#66"
46 "#82"
96 "#98"
59 "#76"
39 "#107"
60 "#78"
63 "#41"
25 "#81"
93 "#101"
109 "#95"
108 "#67"
55 "#28"
45 "#111"
6 "#34"
92 "#72"
111 "#109"
85 "#65"
94 "#100"
40 "#93"
12 "#86"
71 "#80"
102 "#36"
67 "#54"
80 "#14"
112 "#8"
83 "#17"
88 "#46"
76 "#73"
42 "#97"
36 "#12"
98 "#75"
77 "#50"
Edges
6 53
2 94
103 10
47 48
18 28
66 89
70 79
103 27
63 21
58 94
34 114
41 99
20 64
65 76
49 8
71 90
24 83
111 27
104 113
43 48
26 29
84 81
109 71
34 2
11 47
81 55
19 96
76 59
102 26
81 97
70 71
111 43
38 111
79 103
8 109
8 10
5 33
17 90
42 31
37 55
76 30
67 74
22 102
72 48
38 54
34 109
91 113
102 14
16 88
28 4
58 54
96 13
50 113
2 106
104 67
58 62
19 52
42 104
58 47
2 40
41 18
61 1
93 31
103 110
24 77
64 22
111 8
11 103
59 51
86 58
93 109
3 72
106 40
16 38
34 52
70 47
42 19
3 23
56 63
63 7
42 13
42 102
89 17
22 6
90 37
16 54
14 8
102 36
54 24
91 110
99 70
49 38
46 71
108 57
95 2
15 3
35 55
56 104
50 83
19 31
20 91
73 25
75 101
49 59
61 92
2 4
87 74
16 1
48 106
54 12
11 67
88 28
26 68
73 52
69 25
114 55
9 25
42 112
12 2
108 106
81 3
98 61
67 32
65 59
56 78
12 11
115 60
60 59
33 88
92 10
34 113
63 18
11 75
10 90
91 55
60 73
94 42
21 19
10 27
19 6
30 59
87 16
58 65
71 115
52 109
73 90
48 3
72 2
101 57
98 76
1 46
93 58
32 98
50 44
30 98
1 30
72 102
62 101
77 89
88 2
103 49
99 67
95 101
5 81
109 96
79 8
49 27
100 67
42 7
50 80
48 78
75 57
39 10
31 34
33 89
77 82
12 15
66 6
51 31
108 17
62 81
16 41
24 47
8 39
45 38
38 39
97 55
76 74
79 45
96 2
104 26
59 92
99 103
57 107
94 51
101 81
112 79
30 37
22 43
105 43
13 51
26 69
65 61
94 31
25 37
75 21
111 10
37 73
83 4
8 110
64 17
111 39
10 79
6 20
76 37
45 39
106 3
61 83
39 110
14 65
61 76
91 66
52 41
98 92
27 98
113 98
19 5
25 60
48 40
81 80
49 34
20 97
114 22
43 91
77 105
23 107
94 109
47 22
12 24
45 92
29 7
33 56
106 95
72 106
24 85
42 54
67 20
14 35
69 14
41 115
51 109
46 21
27 114
51 96
112 41
66 70
94 13
102 60
53 5
66 57
18 70
99 63
60 46
101 78
98 65
90 60
70 21
79 39
42 109
18 82
8 103
92 76
39 27
58 9
20 86
76 45
52 96
60 37
29 75
31 13
10 49
16 21
18 73
19 93
49 111
109 13
38 18
33 7
93 13
29 47
36 2
65 110
12 20
70 58
21 83
73 59
78 36
38 8
43 77
1 40
77 62
12 27
80 58
44 68
75 17
55 44
79 46
112 29
97 98
33 11
85 66
108 112
65 79
21 85
97 112
3 114
44 16
12 48
105 23
8 45
51 93
107 112
101 36
36 111
96 93
90 84
49 110
40 72
60 4
86 7
27 45
44 88
78 55
85 94
59 61
7 91
23 11
98 107
21 102
63 81
42 52
36 105
113 22
69 42
82 47
70 101
103 34
112 76
97 74
80 75
6 93
70 17
21 58
97 75
46 72
25 41
12 40
104 85
71 37
52 51
115 57
25 46
105 114
4 85
65 10
109 19
52 93
92 36
95 48
23 66
20 55
47 88
