*Vertices 795
143 "#407"
1 "#365"
291 "#739"
18 "#562"
752 "#727"
459 "#705"
194 "#313"
705 "#684"
261 "#222"
278 "#438"
361 "#614"
609 "#544"
631 "#226"
481 "#389"
739 "#278"
110 "#630"
505 "#731"
397 "#50"
686 "#604"
113 "#243"
204 "#168"
372 "#413"
345 "#374"
495 "#385"
411 "#689"
76 "#65"
255 "#468"
374 "#309"
581 "#793"
237 "#375"
353 "#181"
508 "#446"
531 "#316"
6 "#541"
654 "#97"
201 "#420"
599 "#214"
534 "#156"
528 "#293"
342 "#501"
665 "#682"
483 "#539"
9 "#118"
712 "#751"
731 "#264"
621 "#38"
265 "#422"
16 "#734"
404 "#741"
394 "#517"
749 "#667"
122 "#447"
167 "#186"
549 "#574"
741 "#141"
203 "#339"
175 "#712"
436 "#441"
634 "#485"
348 "#299"
80 "#36"
17 "#417"
145 "#615"
48 "#635"
242 "#719"
608 "#30"
304 "#382"
586 "#361"
64 "#455"
4 "#178"
216 "#411"
235 "#379"
275 "#450"
208 "#277"
770 "#725"
287 "#782"
671 "#724"
264 "#551"
578 "#654"
100 "#99"
479 "#692"
734 "#132"
293 "#163"
214 "#715"
723 "#372"
168 "#66"
717 "#383"
650 "#191"
274 "#354"
184 "#13"
2 "#658"
118 "#39"
23 "#477"
545 "#143"
395 "#119"
383 "#550"
536 "#773"
677 "#165"
740 "#554"
222 "#241"
268 "#220"
61 "#728"
323 "#412"
316 "#114"
704 "#656"
662 "#607"
772 "#238"
130 "#347"
166 "#315"
668 "#138"
215 "#20"
51 "#644"
298 "#392"
357 "#675"
588 "#147"
786 "#208"
617 "#778"
38 "#245"
157 "#109"
716 "#591"
439 "#490"
431 "#617"
349 "#783"
406 "#71"
72 "#162"
658 "#46"
103 "#763"
625 "#489"
774 "#271"
39 "#16"
57 "#23"
171 "#735"
611 "#211"
82 "#75"
136 "#381"
262 "#426"
584 "#352"
236 "#519"
601 "#256"
416 "#673"
75 "#609"
550 "#174"
388 "#41"
15 "#456"
186 "#774"
347 "#93"
676 "#404"
747 "#100"
99 "#1"
604 "#771"
426 "#336"
736 "#110"
552 "#40"
614 "#688"
754 "#56"
663 "#713"
379 "#219"
557 "#690"
624 "#224"
144 "#423"
67 "#292"
450 "#294"
221 "#199"
336 "#349"
133 "#502"
537 "#333"
211 "#145"
165 "#523"
362 "#209"
553 "#475"
561 "#158"
769 "#353"
442 "#730"
753 "#62"
134 "#185"
415 "#752"
629 "#700"
239 "#526"
360 "#595"
47 "#388"
555 "#343"
701 "#239"
587 "#581"
115 "#434"
164 "#310"
27 "#529"
707 "#169"
465 "#593"
101 "#240"
152 "#506"
484 "#331"
71 "#594"
283 "#646"
188 "#337"
377 "#371"
132 "#151"
755 "#234"
112 "#649"
197 "#619"
294 "#266"
260 "#718"
30 "#253"
318 "#674"
246 "#527"
28 "#576"
11 "#251"
424 "#306"
154 "#91"
512 "#276"
43 "#80"
574 "#92"
764 "#436"
684 "#769"
232 "#295"
524 "#757"
187 "#85"
693 "#81"
721 "#149"
563 "#659"
478 "#396"
46 "#639"
659 "#465"
516 "#791"
533 "#530"
290 "#37"
182 "#702"
433 "#193"
138 "#509"
375 "#346"
720 "#368"
219 "#113"
317 "#160"
158 "#14"
88 "#772"
85 "#130"
646 "#740"
223 "#478"
632 "#513"
380 "#273"
257 "#518"
332 "#561"
170 "#746"
727 "#765"
371 "#499"
271 "#546"
137 "#29"
460 "#373"
513 "#5"
263 "#756"
181 "#750"
454 "#495"
457 "#128"
267 "#190"
258 "#376"
240 "#584"
324 "#335"
124 "#154"
682 "#693"
551 "#758"
108 "#777"
507 "#556"
129 "#218"
715 "#498"
592 "#4"
10 "#560"
642 "#651"
24 "#461"
666 "#694"
386 "#398"
696 "#775"
748 "#171"
421 "#611"
288 "#481"
109 "#77"
21 "#520"
785 "#86"
344 "#463"
539 "#258"
778 "#565"
173 "#626"
529 "#709"
724 "#94"
146 "#723"
351 "#686"
142 "#668"
128 "#391"
713 "#300"
69 "#363"
37 "#418"
41 "#340"
153 "#314"
94 "#564"
452 "#0"
322 "#303"
31 "#648"
279 "#330"
619 "#24"
52 "#82"
535 "#606"
672 "#697"
229 "#206"
630 "#722"
602 "#514"
147 "#179"
320 "#267"
469 "#419"
782 "#482"
745 "#443"
544 "#457"
518 "#355"
282 "#460"
606 "#462"
527 "#484"
571 "#155"
443 "#89"
172 "#657"
496 "#524"
583 "#127"
781 "#736"
273 "#367"
767 "#370"
780 "#687"
620 "#521"
792 "#505"
106 "#394"
392 "#492"
81 "#67"
500 "#76"
276 "#304"
603 "#483"
655 "#236"
567 "#78"
340 "#87"
327 "#542"
95 "#469"
514 "#679"
13 "#642"
451 "#282"
311 "#356"
285 "#244"
378 "#326"
220 "#332"
333 "#442"
506 "#714"
738 "#660"
135 "#433"
420 "#95"
735 "#486"
226 "#173"
192 "#263"
160 "#48"
487 "#549"
190 "#511"
510 "#106"
585 "#788"
218 "#472"
328 "#503"
590 "#608"
390 "#531"
66 "#552"
428 "#747"
595 "#102"
657 "#760"
97 "#54"
65 "#117"
366 "#195"
628 "#137"
418 "#699"
775 "#768"
522 "#661"
456 "#362"
462 "#599"
125 "#247"
159 "#142"
330 "#641"
305 "#268"
784 "#563"
685 "#510"
96 "#488"
570 "#104"
314 "#63"
370 "#60"
635 "#159"
647 "#359"
670 "#96"
664 "#779"
376 "#683"
365 "#653"
185 "#643"
105 "#662"
560 "#770"
766 "#298"
326 "#55"
489 "#575"
119 "#410"
699 "#342"
633 "#459"
791 "#707"
244 "#567"
373 "#322"
743 "#242"
313 "#6"
12 "#32"
580 "#416"
209 "#203"
151 "#274"
548 "#217"
441 "#79"
498 "#49"
358 "#672"
161 "#213"
408 "#602"
777 "#161"
213 "#473"
455 "#586"
448 "#470"
652 "#259"
303 "#415"
162 "#73"
68 "#281"
700 "#454"
412 "#435"
744 "#401"
149 "#10"
759 "#504"
42 "#291"
651 "#671"
726 "#252"
458 "#103"
556 "#260"
270 "#628"
177 "#183"
331 "#26"
253 "#312"
54 "#568"
315 "#638"
446 "#140"
74 "#125"
679 "#432"
230 "#120"
593 "#269"
308 "#90"
612 "#766"
104 "#600"
339 "#710"
714 "#148"
140 "#344"
92 "#131"
321 "#532"
511 "#703"
384 "#9"
616 "#254"
559 "#111"
482 "#280"
543 "#405"
341 "#285"
643 "#31"
680 "#764"
3 "#11"
432 "#250"
667 "#536"
280 "#221"
472 "#334"
437 "#189"
674 "#345"
440 "#701"
569 "#678"
568 "#500"
248 "#289"
301 "#146"
286 "#637"
453 "#69"
476 "#681"
310 "#177"
233 "#634"
702 "#201"
217 "#184"
492 "#225"
32 "#569"
758 "#265"
681 "#666"
656 "#476"
653 "#577"
284 "#53"
207 "#471"
468 "#582"
53 "#685"
575 "#729"
689 "#121"
703 "#249"
77 "#449"
210 "#139"
367 "#153"
475 "#535"
19 "#84"
600 "#45"
793 "#453"
737 "#786"
56 "#726"
401 "#755"
761 "#512"
449 "#633"
725 "#784"
564 "#403"
368 "#430"
228 "#27"
205 "#115"
706 "#107"
589 "#650"
493 "#175"
427 "#216"
25 "#578"
405 "#68"
718 "#399"
148 "#64"
708 "#589"
174 "#176"
618 "#677"
73 "#272"
673 "#402"
491 "#792"
694 "#232"
50 "#698"
519 "#35"
763 "#74"
266 "#202"
414 "#320"
45 "#428"
639 "#287"
245 "#47"
355 "#200"
532 "#706"
610 "#325"
598 "#623"
79 "#134"
396 "#738"
429 "#720"
540 "#198"
669 "#570"
111 "#364"
84 "#61"
346 "#231"
688 "#279"
281 "#307"
430 "#573"
359 "#157"
582 "#351"
91 "#188"
389 "#348"
155 "#408"
295 "#590"
562 "#663"
410 "#545"
422 "#329"
40 "#587"
62 "#494"
36 "#744"
649 "#598"
70 "#126"
407 "#197"
212 "#182"
22 "#290"
521 "#21"
302 "#557"
473 "#571"
34 "#664"
196 "#44"
356 "#533"
102 "#397"
613 "#695"
779 "#324"
788 "#613"
501 "#717"
517 "#647"
509 "#597"
98 "#548"
762 "#421"
300 "#167"
120 "#83"
251 "#616"
444 "#308"
488 "#753"
636 "#144"
325 "#424"
661 "#180"
623 "#625"
107 "#522"
231 "#207"
227 "#754"
180 "#319"
393 "#301"
413 "#166"
33 "#328"
289 "#711"
8 "#515"
525 "#749"
195 "#116"
312 "#338"
139 "#70"
728 "#737"
576 "#704"
78 "#129"
742 "#52"
597 "#380"
690 "#789"
156 "#745"
572 "#474"
206 "#205"
387 "#620"
467 "#761"
709 "#228"
131 "#42"
93 "#59"
751 "#618"
363 "#721"
256 "#34"
403 "#596"
402 "#237"
250 "#72"
87 "#386"
7 "#233"
523 "#458"
547 "#691"
644 "#696"
641 "#192"
566 "#733"
391 "#559"
425 "#640"
795 "#123"
546 "#112"
423 "#255"
463 "#262"
277 "#583"
445 "#164"
225 "#327"
234 "#33"
776 "#369"
126 "#787"
352 "#790"
14 "#196"
480 "#622"
605 "#762"
790 "#580"
771 "#170"
471 "#223"
59 "#480"
783 "#743"
329 "#377"
615 "#555"
189 "#676"
542 "#229"
692 "#670"
26 "#8"
5 "#487"
760 "#780"
123 "#636"
683 "#19"
607 "#51"
364 "#3"
732 "#172"
565 "#534"
541 "#448"
435 "#15"
789 "#136"
338 "#58"
409 "#235"
794 "#631"
691 "#406"
20 "#528"
447 "#270"
254 "#479"
307 "#261"
127 "#543"
297 "#194"
299 "#785"
198 "#215"
645 "#440"
626 "#108"
757 "#429"
381 "#297"
733 "#794"
202 "#25"
722 "#357"
729 "#57"
60 "#781"
169 "#431"
464 "#497"
252 "#275"
474 "#759"
622 "#445"
399 "#296"
121 "#321"
58 "#537"
504 "#390"
400 "#204"
83 "#187"
176 "#665"
515 "#425"
259 "#317"
438 "#652"
497 "#547"
398 "#592"
499 "#540"
627 "#553"
530 "#605"
730 "#17"
461 "#395"
369 "#716"
292 "#493"
49 "#572"
337 "#439"
183 "#538"
35 "#508"
710 "#732"
503 "#358"
117 "#311"
526 "#767"
116 "#135"
768 "#288"
579 "#257"
86 "#444"
648 "#400"
385 "#98"
114 "#627"
199 "#585"
63 "#212"
695 "#7"
687 "#588"
241 "#624"
419 "#748"
434 "#43"
660 "#12"
382 "#366"
538 "#680"
494 "#318"
502 "#437"
640 "#629"
306 "#451"
490 "#655"
678 "#323"
573 "#525"
272 "#645"
247 "#466"
354 "#742"
44 "#610"
773 "#507"
765 "#558"
697 "#248"
89 "#632"
90 "#150"
141 "#302"
193 "#22"
787 "#246"
55 "#496"
238 "#409"
698 "#378"
746 "#210"
554 "#122"
29 "#467"
594 "#491"
269 "#669"
334 "#283"
637 "#603"
191 "#464"
417 "#708"
485 "#286"
296 "#414"
719 "#124"
335 "#612"
558 "#516"
711 "#776"
750 "#105"
350 "#360"
470 "#393"
591 "#384"
243 "#305"
249 "#88"
675 "#18"
466 "#579"
486 "#566"
577 "#387"
178 "#133"
477 "#601"
638 "#621"
520 "#341"
756 "#452"
319 "#152"
179 "#284"
343 "#28"
309 "#2"
150 "#230"
224 "#227"
163 "#427"
596 "#101"
200 "#350"
*Edges
38 744
653 682
461 32
540 83
745 238
262 5
482 39
301 160
173 745
393 19
600 402
548 262
355 471
113 129
616 701
101 322
252 706
45 65
90 225
143 93
122 399
675 380
272 723
125 177
622 163
701 282
741 456
267 548
307 469
388 308
465 544
705 791
41 382
508 213
777 220
305 452
129 11
598 641
380 236
275 456
652 314
7 4
12 626
701 28
739 519
478 654
540 534
119 746
716 236
424 719
167 689
628 374
385 493
192 384
267 212
243 49
406 84
401 776
236 581
120 154
748 630
345 14
143 380
403 625
504 228
87 699
191 457
326 149
355 209
206 79
703 268
611 147
725 146
518 568
198 413
549 138
232 22
131 624
14 391
195 596
439 421
457 250
261 92
478 740
621 742
94 784
433 772
621 521
429 226
413 572
737 602
165 787
455 232
122 283
661 400
373 426
199 127
96 230
92 310
724 534
130 549
553 14
90 741
519 131
443 544
416 436
174 485
217 364
327 350
691 392
458 106
96 352
660 690
157 235
774 259
338 250
757 746
576 569
314 144
288 344
402 79
92 353
343 574
29 18
408 624
717 131
522 774
534 624
746 37
155 37
690 438
247 726
697 563
584 456
567 150
374 678
290 397
740 403
707 400
285 279
446 510
209 582
507 579
141 6
268 395
95 321
710 399
512 276
274 268
513 99
709 205
650 196
400 412
155 421
364 453
153 477
789 90
381 208
779 96
705 406
589 13
82 338
743 400
741 480
682 177
130 41
690 731
17 372
264 133
675 393
194 209
626 452
110 368
176 98
542 51
720 194
528 456
757 136
27 472
301 143
301 293
548 493
492 154
483 686
528 381
590 509
14 267
508 312
683 343
481 457
314 754
437 682
101 626
111 165
716 524
563 351
771 709
783 524
548 141
21 792
519 95
675 370
424 769
248 482
767 24
458 582
121 463
92 211
431 257
589 431
390 786
463 545
559 157
622 337
447 222
143 773
403 231
691 482
70 74
730 493
9 500
579 222
222 379
177 151
448 688
456 516
55 5
178 616
633 512
792 509
490 136
670 724
463 767
625 84
311 281
524 186
782 527
210 178
628 22
397 742
495 589
157 219
269 545
278 506
695 168
159 14
184 234
313 621
421 380
110 692
784 244
660 607
82 721
86 345
273 307
406 763
528 225
677 423
625 582
599 206
280 635
698 771
769 141
375 620
70 758
314 132
194 159
129 234
794 332
160 552
532 511
171 377
446 545
8 572
750 653
180 699
40 124
792 95
416 13
122 247
471 611
158 675
453 38
476 666
124 260
171 20
305 151
785 221
228 21
554 253
337 670
706 736
634 516
219 280
278 368
384 26
628 618
47 375
306 383
488 642
766 355
463 265
3 631
136 262
482 49
448 512
658 452
203 556
324 311
288 132
219 217
455 329
384 81
720 504
312 528
615 375
402 216
414 82
779 241
120 124
722 320
308 169
626 579
739 204
766 344
228 658
268 542
74 510
679 141
657 645
129 693
363 91
248 15
141 635
224 512
589 392
732 779
252 708
731 307
336 57
314 434
478 368
64 15
381 567
225 392
94 32
5 304
706 472
167 119
628 407
537 150
427 542
493 141
107 558
660 245
237 386
597 619
637 278
127 143
408 403
795 471
11 745
436 207
549 33
353 545
528 133
561 706
764 622
552 290
789 187
654 583
494 562
395 447
16 603
123 482
617 94
54 49
5 301
670 109
145 110
38 636
256 131
377 590
54 399
521 500
617 528
633 731
3 766
652 541
450 71
221 141
109 43
78 366
580 412
341 460
646 781
69 527
234 157
378 209
764 662
601 463
536 415
129 253
165 694
636 394
628 153
150 398
730 706
311 435
436 143
93 424
620 257
252 679
328 194
350 217
301 265
160 736
361 13
324 327
39 607
384 153
726 420
21 196
28 620
69 426
164 296
392 274
707 444
433 118
291 56
631 456
235 779
79 116
33 628
519 320
620 106
414 200
303 111
626 643
248 720
290 748
239 314
540 748
366 620
416 142
84 675
65 303
328 686
784 484
462 107
507 389
343 443
503 438
557 563
69 167
67 368
266 208
200 704
732 19
28 625
267 226
152 425
586 30
715 239
539 250
724 19
514 456
452 619
131 345
762 17
220 434
297 284
285 660
439 774
171 428
707 279
441 732
196 420
624 27
15 85
426 570
402 153
159 72
432 389
475 287
3 93
272 456
155 115
420 62
450 741
102 598
364 768
316 750
792 134
241 748
327 502
326 97
732 702
693 149
697 534
590 162
444 776
732 132
24 494
384 552
438 240
420 160
620 605
497 327
63 380
196 721
322 593
281 515
430 401
583 567
539 151
438 407
723 248
713 329
323 17
157 19
232 577
424 652
343 284
52 65
795 223
93 661
457 200
568 457
40 465
73 639
519 723
795 789
235 354
51 455
515 373
261 81
226 618
247 303
634 490
225 731
445 660
372 323
569 204
241 471
438 16
542 153
399 212
715 774
213 285
240 512
350 469
420 35
626 67
558 328
498 193
358 557
265 455
526 573
602 536
392 145
772 178
70 510
584 234
194 731
706 324
41 144
244 472
549 484
741 424
732 276
277 681
676 278
439 361
758 252
748 443
61 741
776 69
227 386
558 55
151 722
744 757
764 599
717 304
165 20
211 471
115 553
400 494
636 319
129 593
312 579
510 245
443 249
63 701
756 731
435 162
418 472
248 357
145 549
75 177
314 626
93 276
117 17
766 543
177 83
458 724
739 269
644 107
312 420
521 267
70 336
337 71
435 726
138 556
651 479
346 609
519 132
35 598
726 210
14 668
276 676
441 596
90 243
634 15
395 413
701 284
319 211
132 347
494 544
355 167
724 695
631 267
257 568
31 140
23 96
304 355
282 541
228 202
430 90
237 258
545 132
544 755
492 584
583 177
762 425
494 393
149 699
100 724
111 330
399 416
257 13
233 238
495 625
235 276
202 245
724 453
337 432
194 160
329 508
113 63
16 173
41 153
473 784
492 624
370 158
117 502
266 162
504 518
82 453
167 424
138 561
766 681
10 563
149 359
226 603
411 590
359 341
611 420
785 432
559 539
17 331
258 776
228 600
276 247
201 622
101 276
611 173
601 785
695 338
637 399
593 457
399 553
522 436
90 510
644 612
114 446
246 33
390 637
411 110
367 262
690 111
316 706
213 372
561 347
703 495
227 170
519 676
183 660
689 554
452 736
377 422
748 471
537 275
687 5
721 274
699 278
554 427
35 651
664 728
431 75
219 131
146 299
248 457
596 316
212 719
515 216
228 150
256 198
12 500
38 592
78 654
91 86
288 747
317 63
133 378
46 221
436 399
250 607
495 676
560 336
67 72
433 341
334 90
154 716
761 195
395 314
76 435
72 184
282 260
705 416
228 74
222 558
472 124
146 415
534 493
446 741
499 320
343 245
753 149
635 677
291 505
203 312
490 342
624 554
381 458
493 202
165 22
494 674
265 789
146 671
774 208
189 95
432 148
236 785
772 173
331 280
187 435
113 259
236 569
750 4
452 313
167 734
561 635
574 795
713 226
297 554
668 561
755 437
580 622
447 501
447 276
238 489
278 308
574 168
370 22
77 114
310 636
559 683
285 654
351 686
90 300
728 119
122 196
114 638
774 739
130 279
222 542
786 611
290 314
458 372
111 624
153 382
634 289
115 705
699 10
393 445
239 255
216 741
143 209
211 52
160 485
69 106
535 590
248 451
519 554
37 351
714 109
435 159
187 47
118 228
731 13
353 750
24 119
588 174
534 774
609 18
91 624
221 301
20 470
235 732
184 471
221 274
412 179
203 311
473 410
99 736
460 219
412 698
75 361
320 359
157 215
621 580
660 120
61 299
63 167
577 592
205 324
568 573
190 569
445 362
359 445
140 200
561 433
436 8
261 608
147 730
656 35
219 228
18 32
460 348
543 276
77 282
91 707
39 741
132 440
750 80
377 701
178 734
427 229
754 137
262 277
13 726
304 721
39 641
150 164
744 17
85 619
267 661
163 423
366 750
697 458
364 338
113 179
290 3
375 656
217 203
393 555
377 125
90 319
224 252
125 627
518 355
703 121
734 32
424 674
365 163
66 690
405 600
368 573
314 90
721 131
134 686
624 746
75 22
554 74
362 20
34 793
95 191
63 427
63 718
599 670
144 561
304 606
332 14
248 261
316 187
245 452
364 200
587 367
448 703
131 210
493 150
247 219
383 769
98 110
572 509
69 735
172 438
744 645
408 278
334 632
389 472
368 329
616 539
713 766
407 691
252 90
93 432
651 50
557 189
168 441
642 556
628 49
413 648
661 504
358 569
204 149
446 691
407 17
39 177
519 170
512 571
667 773
760 579
628 433
113 275
493 763
206 329
145 455
701 230
402 535
458 26
389 265
597 755
475 401
86 723
499 533
25 46
645 494
602 471
561 100
688 580
118 413
221 162
706 284
7 484
717 87
658 670
456 201
730 548
247 389
194 113
596 588
332 454
344 367
122 174
267 159
485 153
308 436
559 624
615 450
487 784
483 605
631 668
452 284
93 239
741 45
499 673
427 777
650 91
364 63
419 407
439 619
331 84
114 682
235 23
528 30
719 58
713 405
212 679
209 493
173 66
568 594
579 224
561 33
755 451
695 460
139 326
276 310
269 176
460 166
295 175
246 381
395 93
110 706
386 482
624 129
427 167
622 69
700 367
644 194
337 264
125 129
273 147
556 691
703 124
455 787
513 14
390 63
506 491
153 128
165 228
402 256
641 373
502 743
647 720
544 81
533 451
773 310
340 217
229 191
54 684
466 23
67 432
252 341
150 720
47 128
343 184
30 362
724 73
611 374
628 746
77 485
307 426
605 106
666 378
226 223
148 115
489 391
71 206
467 94
35 270
230 588
113 652
540 267
722 336
463 154
635 621
362 117
133 35
545 196
493 7
107 51
282 744
212 436
89 556
333 499
411 706
272 768
130 755
28 482
553 380
522 721
427 353
786 743
253 492
741 652
327 487
770 228
83 134
110 295
703 597
678 279
392 408
188 587
648 746
774 189
307 113
531 436
247 655
188 300
774 226
273 363
519 700
223 788
9 308
382 273
703 741
446 406
205 91
191 496
108 436
778 325
275 741
178 660
623 532
786 719
724 159
129 68
68 238
766 656
456 21
225 122
421 449
280 161
776 396
62 554
15 444
536 221
359 473
329 422
408 542
235 463
100 84
413 159
261 281
244 625
786 30
435 607
622 723
622 691
730 97
221 764
428 114
206 116
436 383
37 459
331 554
21 685
760 116
549 220
379 290
250 72
319 386
626 655
176 519
230 427
634 553
633 99
447 774
446 132
56 323
370 384
45 779
66 244
32 116
93 268
564 720
211 159
607 73
389 631
237 319
515 94
440 734
772 542
26 195
512 133
500 167
321 541
549 541
22 540
717 409
619 599
599 700
785 284
589 123
701 348
659 106
503 675
741 265
39 328
319 678
77 509
785 84
238 460
754 118
257 537
216 169
302 24
703 769
501 557
393 635
463 91
420 768
281 124
252 425
274 258
393 206
174 731
668 492
414 353
230 216
313 519
495 473
251 509
761 499
433 307
481 336
518 28
174 137
415 126
690 22
450 516
220 619
202 730
568 423
366 174
42 414
17 464
204 93
125 674
496 483
212 697
385 211
292 674
60 536
451 409
794 425
30 686
518 83
118 245
480 378
346 469
529 481
22 544
85 4
204 702
86 648
460 776
192 507
190 503
294 793
77 709
301 230
308 79
61 357
74 230
669 46
11 545
734 380
433 81
343 162
93 78
190 27
5 207
441 90
392 695
701 784
768 540
455 392
81 154
353 358
364 100
559 601
303 782
148 515
456 773
122 603
356 332
120 150
174 276
591 535
658 592
699 631
257 719
479 351
654 423
292 494
403 123
571 353
219 668
262 580
789 632
743 631
118 206
434 9
177 636
600 635
157 267
134 413
239 756
230 220
132 273
253 655
282 381
718 23
553 282
679 531
18 759
600 83
354 79
211 597
559 248
149 143
758 774
720 356
764 463
489 167
570 228
286 410
764 171
246 501
208 456
668 747
347 249
341 482
37 1
764 215
420 616
495 94
652 174
362 217
147 450
167 188
413 208
31 698
484 109
75 187
463 97
639 610
661 95
437 588
187 93
96 5
180 534
144 236
260 698
151 322
215 706
487 145
41 443
49 784
423 774
268 511
740 235
136 312
211 545
221 748
148 39
179 341
539 787
154 567
297 702
626 736
632 1
157 293
155 463
458 85
447 93
210 422
771 725
114 262
9 366
124 457
757 691
540 788
433 331
763 494
443 590
406 413
767 628
417 298
111 707
165 39
616 421
83 221
23 747
77 762
361 686
144 413
542 35
192 85
133 14
42 635
446 707
348 3
538 50
494 580
107 308
225 321
390 475
120 763
307 51
374 70
345 795
167 457
788 571
47 648
119 399
658 39
279 73
440 530
79 374
317 215
316 660
395 595
210 635
228 364
570 719
705 172
493 381
217 187
695 42
74 205
582 557
75 77
458 265
266 510
656 413
499 773
660 211
377 339
284 43
334 610
500 132
14 73
132 717
437 650
91 548
544 579
215 149
2 417
69 363
705 414
82 389
129 261
99 331
580 163
471 386
484 281
192 596
91 503
523 418
98 367
162 554
220 215
124 588
648 696
779 594
670 528
792 541
111 555
427 362
356 73
208 29
634 136
453 660
13 216
167 767
777 433
216 407
131 272
570 518
660 80
598 586
137 26
370 84
500 601
224 400
211 226
538 616
537 542
259 179
471 63
539 727
187 676
533 410
212 119
578 47
80 552
177 738
357 110
217 337
200 725
54 98
29 23
238 45
157 43
508 748
639 372
441 755
660 689
355 628
515 167
742 215
72 85
722 392
316 395
783 272
122 15
90 426
665 176
150 747
721 707
129 677
494 243
372 542
763 675
8 472
39 336
445 12
533 236
127 687
167 116
163 185
322 315
292 569
570 120
206 228
747 64
364 434
642 278
215 81
558 371
742 313
750 159
287 228
187 565
334 544
406 481
253 72
342 491
519 120
623 39
699 101
295 247
669 147
739 446
74 338
689 762
190 638
203 11
137 370
521 435
479 511
459 676
328 612
528 250
469 622
188 285
495 686
592 621
160 248
544 190
309 193
294 719
694 331
666 389
65 95
122 288
215 405
600 39
433 149
182 417
30 181
484 616
772 443
42 665
95 237
355 124
73 275
226 537
416 714
669 252
543 656
434 70
81 377
21 639
564 511
131 33
50 128
100 30
691 721
698 124
8 792
360 446
275 101
412 300
292 17
786 714
452 554
414 424
776 715
624 485
85 596
513 284
348 561
61 362
9 116
216 122
362 63
788 110
698 85
458 93
319 627
301 353
11 8
793 227
125 584
380 648
713 367
428 262
132 734
618 669
235 320
2 83
785 697
144 136
744 739
676 41
437 703
275 601
513 3
46 321
297 433
619 457
91 271
590 300
673 147
255 238
155 443
14 746
367 20
323 302
592 750
125 787
616 131
150 62
200 783
628 341
147 676
395 212
29 86
679 635
167 450
624 165
281 241
118 353
14 174
424 709
384 305
364 331
347 65
595 510
653 694
14 648
487 473
153 718
132 673
246 176
156 455
348 763
306 129
694 253
314 250
217 162
676 63
303 87
400 391
385 453
178 193
619 283
42 241
250 732
370 82
400 451
382 107
372 266
166 290
323 355
443 162
106 107
749 603
636 621
355 448
142 637
646 617
447 448
343 754
370 607
732 563
514 481
81 12
573 306
697 38
224 668
420 219
306 774
11 739
624 220
270 624
557 438
14 747
289 740
624 350
425 333
429 390
386 793
422 372
158 574
777 83
20 563
277 486
27 761
220 507
122 308
515 593
593 403
93 370
501 176
303 424
368 5
253 683
155 457
572 72
287 560
535 712
49 572
293 159
301 187
446 275
217 290
533 72
519 118
283 542
393 200
397 743
76 619
190 625
691 401
112 119
259 469
21 272
717 648
511 7
565 310
174 405
245 650
115 337
756 635
670 595
683 658
370 211
187 72
291 165
355 703
193 574
82 326
558 577
19 347
414 22
51 408
722 592
176 620
210 19
746 395
234 281
301 266
65 763
699 649
90 358
614 723
616 163
74 675
21 436
657 346
209 267
161 567
278 556
734 312
421 788
562 642
694 191
266 332
481 353
626 79
449 31
578 334
446 131
308 356
584 113
703 209
440 576
745 153
370 245
156 83
774 543
499 382
650 14
598 286
747 598
592 80
243 166
196 450
731 312
517 358
137 446
26 139
722 70
336 231
331 370
167 645
13 349
325 73
300 636
427 622
312 700
212 300
273 447
74 420
370 777
621 83
198 377
221 667
86 635
368 294
341 407
235 373
574 683
30 794
359 216
509 487
725 299
224 493
676 708
508 735
121 470
359 317
445 616
583 215
367 353
163 699
290 168
253 225
184 178
79 236
755 137
408 123
402 663
443 106
87 576
777 521
281 458
503 508
187 584
595 493
42 91
373 147
323 365
167 177
442 329
261 313
78 694
285 444
471 129
446 786
390 365
517 649
402 212
144 416
750 118
212 784
428 694
494 621
446 384
226 274
472 111
48 660
460 149
540 134
422 14
252 688
450 4
478 63
767 337
718 230
694 305
160 693
702 83
14 177
237 433
457 297
80 593
660 763
330 432
768 57
8 73
660 380
287 263
628 626
130 502
690 533
510 314
382 570
601 504
216 427
219 717
293 109
641 204
422 281
120 754
132 404
233 678
735 448
503 201
426 277
546 670
297 624
279 789
601 570
142 73
794 241
320 252
196 247
235 79
754 385
290 777
147 548
120 631
28 310
675 184
219 348
441 730
203 414
698 648
343 446
176 672
152 632
286 586
591 87
771 554
222 660
66 430
727 671
183 297
658 500
458 115
463 660
79 431
642 565
731 542
747 199
548 384
97 746
397 228
624 475
264 558
728 224
360 238
3 113
343 340
76 785
782 130
331 162
528 336
129 683
548 119
433 131
438 222
131 383
618 783
439 244
24 486
656 10
395 222
217 353
132 555
642 794
264 113
513 72
57 402
32 546
301 333
233 470
568 117
266 27
559 485
99 591
634 790
787 345
383 577
521 281
362 16
210 703
432 204
309 57
261 777
450 679
361 536
253 556
238 563
766 230
418 238
370 100
509 300
235 558
532 692
669 236
136 14
307 198
659 366
349 175
297 329
188 654
301 389
93 188
771 444
18 465
619 212
738 439
698 616
26 70
57 202
768 179
25 355
169 719
513 540
316 338
432 757
555 224
609 25
322 490
656 50
372 678
677 774
757 83
101 333
18 246
231 356
659 15
314 786
208 537
391 302
703 739
509 319
652 118
308 84
112 637
351 257
235 748
561 519
412 208
548 386
63 67
340 72
355 586
661 118
795 450
484 188
175 73
388 422
624 229
151 86
210 82
209 338
539 484
761 407
610 732
178 9
243 647
489 589
101 394
128 63
314 348
636 521
633 4
459 177
750 771
598 331
420 76
86 203
17 59
245 63
715 255
520 744
737 775
695 212
509 1
413 202
98 580
74 234
795 92
380 202
63 131
470 589
216 212
184 211
38 741
502 772
711 103
413 776
732 221
727 16
10 569
162 493
45 325
533 197
628 28
426 463
694 475
99 8
79 301
250 795
646 624
392 638
297 571
636 74
709 290
378 628
6 464
210 158
464 533
118 26
239 580
310 271
120 518
719 314
323 375
27 772
660 202
456 106
487 304
209 326
265 691
219 675
493 660
498 706
256 12
136 414
312 329
460 196
35 110
422 472
494 277
620 715
221 191
79 333
421 642
208 235
509 121
16 602
487 466
619 314
65 234
316 384
434 400
211 209
672 534
426 297
143 323
157 217
721 774
583 399
157 116
577 685
427 364
653 408
311 555
421 692
612 362
410 587
124 673
322 222
469 138
405 675
585 700
407 401
648 329
719 285
785 294
617 415
320 707
261 381
337 211
262 138
453 118
584 274
628 249
140 142
234 427
360 323
756 444
40 518
57 266
706 747
41 694
149 33
645 438
628 481
333 673
56 274
80 301
217 87
730 724
703 206
160 85
310 236
167 91
789 510
521 542
79 109
213 69
209 540
518 731
614 437
324 766
316 195
159 534
481 564
228 719
215 132
406 63
215 754
636 674
94 327
11 499
118 150
93 80
472 682
322 122
794 509
570 554
527 661
11 201
654 310
749 238
109 230
206 259
149 205
568 715
730 697
66 124
379 161
378 683
253 764
523 226
662 206
90 61
273 134
187 443
123 55
701 675
731 698
331 395
741 281
725 342
529 282
527 87
422 123
334 592
445 341
276 545
670 166
238 165
133 426
173 539
45 116
245 697
739 284
147 333
503 312
326 370
471 245
542 154
445 693
537 21
375 85
153 206
281 746
528 298
22 134
70 310
685 533
716 332
282 367
118 621
8 761
614 438
93 655
494 147
353 333
226 69
675 250
127 756
186 296
411 617
328 240
543 659
144 324
191 24
61 727
426 273
754 595
360 375
326 80
582 484
132 367
163 450
504 382
601 392
150 732
174 426
155 144
300 554
310 262
460 413
764 244
544 556
184 168
567 670
9 231
352 299
47 691
247 29
141 686
373 276
308 301
747 447
227 30
744 345
259 65
430 533
746 297
229 395
321 373
590 46
20 438
151 244
321 747
325 201
42 82
252 141
117 212
484 647
739 136
69 284
395 78
343 193
380 318
790 122
502 213
648 703
20 8
285 437
785 400
308 634
519 18
717 355
138 684
715 334
545 402
5 24
257 107
282 715
643 3
116 734
184 116
130 362
390 228
447 609
318 534
445 90
188 782
222 174
355 688
570 472
415 368
616 500
321 237
578 438
194 393
344 466
368 741
118 234
444 341
118 43
676 346
716 253
222 36
780 237
276 774
731 102
577 520
468 669
620 647
704 666
777 345
9 334
67 513
278 413
137 19
68 610
370 596
734 631
731 28
272 301
81 607
481 378
421 540
724 279
664 765
107 138
379 458
585 653
350 33
722 772
621 39
325 777
427 261
426 503
399 11
701 90
713 274
663 179
697 739
323 195
624 548
427 543
678 217
211 675
608 395
557 83
456 591
771 70
512 3
448 691
782 359
140 368
650 654
162 159
393 744
246 447
329 247
651 666
226 90
601 405
464 761
328 220
760 722
185 287
316 573
600 202
144 208
224 649
266 4
393 518
613 765
609 676
732 668
7 542
355 93
71 780
343 701
745 215
161 219
380 372
233 788
307 713
420 345
469 252
109 567
334 24
220 257
84 76
132 528
284 768
176 303
731 203
46 614
750 768
203 756
98 487
743 703
184 167
351 506
164 151
27 371
706 267
286 565
676 174
16 725
545 709
635 83
500 539
134 572
484 211
227 428
320 357
243 67
512 437
299 771
744 302
313 397
580 564
6 757
60 185
277 140
766 367
563 749
282 463
296 5
439 216
702 521
735 306
795 202
729 343
157 707
764 218
657 171
152 461
316 310
115 221
177 358
271 398
241 640
619 229
451 750
218 304
423 157
300 628
129 184
323 163
147 140
185 337
244 218
534 115
697 703
460 504
417 780
584 47
470 362
391 54
148 81
125 527
536 227
135 459
196 593
308 93
555 284
228 643
689 423
504 570
398 334
500 493
229 164
599 150
135 749
508 121
466 244
722 410
635 718
181 227
633 641
614 20
702 397
231 195
378 399
177 447
218 787
325 149
494 703
262 628
183 39
395 4
437 220
616 267
584 478
290 570
153 273
298 497
769 591
395 652
180 714
747 366
787 228
660 420
616 692
763 200
635 192
393 68
448 485
200 407
621 675
714 179
774 296
163 543
635 259
768 432
762 252
641 445
604 795
730 400
319 120
321 480
189 50
458 322
732 544
202 196
624 265
228 160
406 372
743 636
697 151
787 512
477 198
660 109
293 120
31 473
74 97
362 463
621 65
485 373
329 787
298 514
321 258
40 572
533 786
10 691
794 556
149 130
296 471
362 512
361 86
94 54
131 313
320 464
106 386
226 136
324 167
731 515
316 70
434 567
746 689
735 659
523 360
294 407
87 244
311 647
787 701
172 436
623 371
162 472
48 75
177 69
403 83
167 301
100 63
143 432
716 87
449 523
655 177
458 748
390 728
582 130
13 140
756 653
363 569
55 33
150 136
163 701
538 471
134 205
360 32
268 184
531 450
274 154
305 588
121 423
741 311
340 187
117 741
492 697
403 51
571 397
165 307
533 312
187 211
143 130
511 165
240 673
296 469
699 468
572 590
549 587
140 294
156 349
577 101
717 767
373 455
523 115
642 699
96 8
400 641
448 59
723 235
602 718
789 675
569 707
153 362
162 4
508 122
131 193
338 331
339 351
764 354
247 198
764 593
134 407
234 542
556 265
202 135
194 281
364 441
216 580
723 206
617 713
438 255
45 412
772 58
21 777
444 463
611 793
568 464
129 279
715 162
502 675
542 761
789 20
685 635
654 732
112 447
548 109
703 93
494 244
318 672
63 14
491 299
157 279
565 427
745 589
226 72
304 414
49 194
165 133
453 137
302 277
661 677
384 367
228 85
252 342
446 613
481 511
386 207
784 536
159 132
207 275
205 178
721 121
401 721
444 252
395 689
120 500
634 279
502 323
138 686
125 358
670 84
5 18
580 443
713 521
5 529
745 228
457 355
509 499
352 502
91 255
457 589
94 191
326 763
713 537
748 288
310 317
508 207
290 82
694 495
202 554
123 279
11 113
42 312
633 68
256 498
22 348
680 83
457 519
648 492
630 333
65 157
683 643
515 91
494 619
620 190
17 667
3 701
697 567
507 35
244 297
268 187
310 232
741 178
475 646
16 470
766 521
768 304
103 728
527 110
745 262
653 116
299 342
475 622
626 256
790 624
238 682
155 413
534 347
407 174
523 782
636 448
705 36
534 41
11 706
647 343
295 278
204 503
788 375
654 628
235 412
212 15
261 779
397 472
347 763
226 732
422 153
250 729
626 382
751 164
307 277
368 373
148 446
447 458
628 509
544 569
564 512
61 125
458 540
597 706
743 701
29 624
390 361
348 115
145 475
786 771
301 116
307 611
85 417
154 109
287 38
530 327
206 134
498 732
203 718
380 177
391 322
59 366
161 208
109 211
80 370
507 372
166 414
542 229
597 676
408 119
408 129
79 229
296 136
661 121
680 557
343 280
131 67
187 463
607 561
438 762
719 741
704 769
153 221
586 482
82 65
785 786
159 748
432 701
242 511
45 743
181 428
196 334
110 767
211 147
273 84
749 459
368 24
450 276
515 199
724 177
610 248
679 246
465 143
785 658
236 723
490 681
379 597
660 498
623 4
97 407
92 81
316 789
754 158
196 726
623 183
166 413
119 219
138 648
276 331
52 338
473 540
116 160
298 501
643 109
491 534
80 574
30 66
355 582
165 594
297 73
221 621
28 719
15 135
766 288
70 654
212 527
513 689
149 230
183 394
124 145
225 196
523 483
743 248
300 98
699 153
563 229
279 136
681 358
196 301
422 713
480 163
714 721
26 498
5 771
131 196
635 84
172 416
549 686
308 151
122 30
103 90
372 322
37 557
688 14
290 443
373 101
129 726
14 390
498 636
205 9
203 713
554 99
79 717
176 369
342 667
385 100
266 216
149 689
297 266
518 463
3 196
290 346
286 747
446 628
310 567
679 580
423 240
284 313
132 466
608 134
553 544
413 445
174 293
471 138
406 154
688 310
282 751
628 67
753 736
339 522
65 211
655 779
544 571
232 98
85 780
231 15
142 589
204 694
450 571
345 723
639 47
85 741
731 305
709 35
93 595
293 149
364 405
206 58
407 355
133 558
542 276
520 426
67 111
296 87
196 313
660 93
434 763
18 741
320 220
355 502
337 179
741 453
370 673
635 520
670 253
226 384
469 28
426 782
641 439
202 243
288 246
493 125
634 255
441 331
330 161
202 194
534 231
59 699
445 187
756 678
122 300
646 170
22 379
754 453
731 122
211 433
469 372
93 46
41 274
55 370
218 348
631 497
619 96
689 159
314 158
256 78
376 183
499 471
395 356
678 253
305 154
73 388
64 570
393 482
503 638
300 373
21 130
721 9
70 707
761 140
41 273
542 210
483 507
274 373
30 638
724 388
301 100
754 12
147 248
380 529
754 747
167 279
8 720
470 58
47 490
741 243
344 639
685 707
173 356
688 743
93 642
731 277
421 330
628 312
441 370
462 51
768 599
544 314
141 25
136 526
201 782
552 245
373 382
206 169
557 172
787 779
39 552
111 225
616 138
503 29
70 359
325 96
694 159
707 219
259 565
131 336
531 570
359 301
275 72
584 615
196 27
434 84
445 639
368 296
295 312
460 49
779 325
194 648
443 693
623 301
400 448
195 477
216 257
532 678
373 628
718 278
558 409
151 717
626 308
545 424
584 167
635 9
25 493
527 694
586 164
754 256
519 654
129 132
193 592
67 225
689 39
688 47
472 41
519 222
168 742
8 676
595 100
609 774
549 144
177 238
149 267
85 279
586 303
776 196
103 524
141 580
758 305
50 348
686 701
238 155
600 331
789 754
572 628
530 356
434 521
790 609
74 39
643 592
406 199
463 269
4 211
311 726
181 458
571 143
306 764
16 613
755 187
271 480
196 639
102 5
762 515
151 252
561 532
82 301
156 415
177 174
368 622
682 408
372 543
188 329
693 600
86 37
221 565
328 644
76 670
780 676
294 85
626 198
375 8
495 277
145 647
504 198
407 732
290 158
292 783
355 768
540 664
560 415
688 458
322 418
266 689
230 205
164 5
426 334
487 481
651 241
759 323
558 310
85 588
59 776
373 378
208 719
108 61
514 244
93 574
468 59
96 337
152 64
638 751
635 534
701 154
769 216
757 602
768 24
518 161
120 654
765 527
144 268
138 748
741 284
705 175
158 19
687 398
202 133
351 665
37 503
586 79
306 204
398 163
766 659
737 634
566 533
351 176
250 150
356 651
304 777
350 458
244 489
607 592
734 545
774 675
635 132
141 785
512 63
555 706
274 649
326 52
69 661
647 678
247 282
417 95
35 496
392 383
606 131
471 188
519 424
743 121
132 706
589 238
446 159
668 694
515 271
741 221
728 711
343 215
707 33
158 683
133 372
541 556
308 689
314 236
250 201
443 100
63 475
481 55
395 165
65 245
322 438
183 697
163 236
206 192
567 789
329 164
397 82
257 558
212 316
269 242
12 413
542 285
169 568
16 706
555 63
297 564
686 301
439 147
351 282
693 370
91 92
743 458
315 251
565 523
635 610
252 602
592 63
765 16
719 395
486 768
485 731
110 433
622 86
22 372
224 293
231 677
159 230
143 136
5 14
350 447
512 674
702 157
203 662
494 603
148 234
8 564
724 546
5 614
694 138
453 683
554 565
71 38
633 553
206 457
500 1
740 141
201 219
660 307
24 146
459 726
111 337
29 213
782 645
552 405
666 105
744 91
648 490
234 228
389 515
503 481
253 698
395 597
542 293
631 220
459 635
763 397
203 451
202 162
350 705
570 115
562 714
6 244
564 695
104 358
680 112
144 457
413 521
721 786
200 600
372 315
746 300
619 113
641 716
660 157
25 735
739 101
355 484
284 567
82 153
229 407
90 636
362 551
639 620
761 403
527 625
252 772
795 151
746 702
284 661
658 730
364 65
483 125
689 316
721 752
306 597
757 717
591 95
485 370
360 449
686 222
435 750
57 441
316 650
216 349
564 500
355 195
39 739
310 353
704 512
6 367
49 694
768 628
81 99
378 554
631 294
153 33
609 270
435 675
490 501
659 703
545 63
9 90
220 120
311 599
723 131
308 473
780 749
621 399
675 118
534 451
60 775
545 689
281 647
405 571
179 779
598 579
134 215
162 714
152 792
332 504
214 421
10 567
563 476
509 23
450 42
624 266
545 24
237 359
634 5
719 660
669 744
470 676
485 758
683 608
87 308
763 553
211 463
626 444
177 425
154 660
512 196
238 246
535 403
74 395
738 238
567 761
487 328
308 529
176 557
114 472
452 362
664 227
325 782
596 160
136 50
154 212
100 167
411 170
495 540
641 480
554 384
268 216
433 79
303 322
223 221
684 657
593 261
81 131
497 222
775 415
680 649
295 83
583 52
384 493
558 708
779 371
292 216
690 56
622 426
504 247
626 719
589 563
126 146
106 273
393 21
116 38
626 325
573 32
210 729
627 460
482 334
433 346
469 533
584 252
746 540
643 162
324 458
554 131
398 598
479 288
496 648
790 676
58 502
320 134
713 414
516 690
791 648
430 482
295 95
485 261
230 378
608 596
378 476
187 266
300 572
746 265
196 54
150 739
310 757
93 388
19 30
406 195
134 221
520 367
662 755
660 140
703 280
759 226
609 528
4 232
198 661
206 225
541 260
361 421
226 137
719 469
791 492
272 355
757 546
331 362
487 708
353 282
80 72
734 650
47 228
744 71
60 642
229 460
267 366
258 368
347 317
688 3
391 537
774 314
661 343
79 174
745 38
428 727
509 577
150 129
542 785
500 441
452 583
108 171
579 196
198 620
101 628
275 29
764 337
372 546
571 714
259 477
371 662
747 503
697 215
542 209
155 748
228 724
3 702
509 718
106 225
777 133
196 370
661 417
553 743
276 78
474 349
717 443
547 494
420 730
702 85
84 27
167 759
513 521
234 786
728 466
391 509
723 495
28 564
124 147
735 373
785 779
661 591
240 222
103 793
579 79
408 279
96 194
673 211
715 537
589 85
789 747
125 151
624 493
274 570
140 298
5 522
721 703
78 184
259 578
728 164
6 392
554 739
643 14
527 368
348 327
493 306
373 202
250 159
603 582
228 413
730 80
635 134
373 248
409 201
513 97
540 88
629 34
219 670
63 531
537 626
772 205
702 353
579 229
258 481
714 232
436 300
649 411
185 288
244 415
78 607
202 724
120 157
528 589
490 411
18 406
393 399
425 110
472 238
152 72
270 5
141 486
199 687
608 4
450 316
491 163
145 53
184 668
195 82
423 577
374 483
388 697
493 84
386 375
215 3
448 409
89 642
708 8
99 718
178 423
622 745
143 353
626 250
407 266
192 790
371 84
226 91
534 753
519 319
221 713
41 275
669 271
691 467
275 253
226 190
503 407
358 653
787 153
190 768
746 206
434 706
220 279
667 661
702 364
591 37
393 322
324 225
411 197
636 633
198 717
659 768
408 557
534 256
384 730
341 485
777 571
724 611
443 273
150 261
346 151
162 561
561 361
362 446
518 720
724 561
741 361
126 646
264 22
147 145
108 87
196 120
678 494
782 600
599 441
7 162
410 487
445 670
300 310
276 337
661 777
320 164
746 273
90 281
184 420
665 269
546 579
681 478
259 517
668 661
184 136
734 478
231 201
427 317
482 343
723 564
757 580
489 143
351 459
489 669
147 614
517 236
633 85
596 420
304 113
33 303
451 507
539 633
273 592
390 741
116 69
66 300
789 503
652 379
118 789
93 714
592 471
460 539
447 255
593 730
513 162
274 443
149 82
718 793
561 512
306 503
709 565
296 795
94 713
200 466
397 84
769 468
437 215
471 528
329 144
122 369
569 50
725 11
218 767
136 49
464 248
269 644
18 490
224 620
234 453
774 219
308 567
47 448
141 153
225 541
258 460
748 267
741 226
518 655
701 389
651 413
330 598
456 99
350 206
487 319
304 131
140 433
602 125
506 380
219 458
541 544
80 359
105 631
358 50
444 301
170 525
333 62
465 786
719 743
542 703
143 261
154 691
180 495
338 39
55 191
434 545
554 754
550 670
130 355
422 180
358 606
412 436
371 565
331 204
595 385
434 388
512 532
115 389
387 89
567 607
428 288
780 321
764 169
336 768
39 668
68 772
63 693
714 615
621 434
654 500
79 748
405 463
82 402
344 523
231 776
656 102
638 685
504 615
7 496
85 746
374 201
14 761
177 204
158 397
151 787
308 239
723 65
205 343
784 314
224 320
787 568
63 546
145 720
167 558
306 144
777 689
726 91
413 160
314 67
3 556
95 542
371 541
777 161
417 257
776 244
193 290
4 741
677 561
206 626
487 489
572 772
210 676
469 202
717 546
131 301
336 391
518 89
633 211
431 217
374 312
210 129
638 589
619 559
422 458
216 328
379 619
51 741
399 296
301 768
528 603
81 228
228 33
136 192
262 111
435 519
634 389
300 622
493 147
552 540
451 164
731 369
586 278
426 195
201 469
793 543
706 624
373 87
673 774
544 633
473 788
697 149
277 556
600 484
665 162
206 754
154 413
182 681
148 93
553 599
131 195
327 723
43 534
713 592
485 426
310 451
646 720
272 257
420 131
780 293
269 319
161 397
229 172
777 143
261 533
533 380
118 608
561 261
344 619
697 132
346 443
124 77
767 115
216 757
251 48
124 529
499 107
459 104
607 343
247 204
360 10
118 39
707 703
494 225
142 705
363 106
779 150
124 495
304 344
647 768
766 564
47 90
1 620
109 194
301 346
79 257
393 764
378 697
593 774
59 475
782 463
113 351
37 179
247 95
39 282
678 194
545 694
240 322
519 789
237 348
698 410
699 432
454 39
394 739
300 276
4 64
212 487
563 75
259 413
48 13
600 284
497 136
259 86
567 393
118 385
615 393
458 444
652 413
117 301
542 226
336 265
129 627
400 334
774 432
694 275
739 631
617 649
777 565
22 202
59 594
399 433
430 525
232 140
732 5
209 380
177 149
554 420
744 577
500 276
80 571
262 392
109 743
349 83
419 543
150 92
443 228
298 660
458 17
134 775
211 230
692 191
631 73
511 678
425 359
290 607
158 228
84 502
730 456
75 216
319 422
448 235
329 122
6 125
33 607
190 93
314 284
211 177
373 415
195 717
100 747
144 225
660 643
455 403
20 44
118 331
626 228
783 725
144 102
400 739
564 504
315 121
746 674
263 524
654 719
590 686
367 571
245 624
221 117
494 302
304 336
336 718
419 733
63 518
395 323
147 570
147 19
639 776
77 66
454 40
375 104
433 68
719 620
771 258
351 477
441 726
585 771
312 718
233 75
763 162
484 264
137 648
644 560
721 250
323 137
455 415
363 162
688 386
24 22
6 682
209 628
600 84
714 90
407 654
393 132
266 85
383 522
163 420
571 461
221 526
316 434
602 425
672 380
221 371
329 177
457 63
30 624
487 244
314 643
344 300
234 723
165 632
334 453
9 397
142 487
502 709
93 445
673 676
586 125
30 756
262 60
611 763
497 734
647 413
163 679
635 124
368 364
140 238
599 654
289 235
1 225
278 294
592 742
112 279
482 400
333 360
626 296
520 69
177 399
667 119
316 178
500 384
434 743
355 344
278 286
366 225
187 341
429 407
401 745
734 424
211 592
346 413
271 740
367 703
14 329
84 582
29 307
627 177
310 229
458 703
442 620
120 158
179 599
771 134
489 246
717 414
38 508
187 444
702 115
446 444
341 206
226 643
487 94
619 93
125 645
471 252
590 320
4 771
766 20
407 364
331 38
174 694
78 316
393 543
552 149
14 184
691 713
115 217
358 95
144 587
399 357
19 193
350 101
451 65
463 543
249 230
481 9
24 553
75 614
320 364
196 500
162 192
446 569
252 3
132 220
368 732
167 644
173 368
422 211
70 14
572 325
307 772
508 99
500 763
677 407
472 300
390 86
282 402
365 104
432 647
536 575
199 295
668 741
296 372
160 592
93 567
659 793
34 323
631 83
586 310
349 461
584 465
578 255
22 422
111 580
3 226
292 188
207 361
171 389
378 203
305 471
268 129
647 734
177 371
423 532
729 683
739 237
169 420
596 230
670 493
484 720
130 93
625 217
188 184
675 43
147 236
770 690
248 6
316 99
453 519
658 693
580 148
593 393
656 167
438 391
540 129
728 344
611 550
114 590
83 4
423 323
354 374
688 677
242 293
153 253
361 177
493 93
150 125
548 619
478 564
727 114
327 54
5 381
617 170
528 223
714 779
532 791
39 420
510 458
249 149
402 484
717 744
720 726
115 229
542 621
386 295
541 138
463 688
362 59
636 689
451 450
39 316
637 583
722 633
494 587
33 209
91 420
421 403
542 713
766 472
132 311
588 167
501 451
591 106
236 345
368 167
222 501
479 647
250 592
163 531
225 515
692 705
138 790
49 367
23 293
669 341
244 735
217 665
163 419
577 639
413 184
133 499
691 125
615 562
147 310
428 20
225 735
453 458
755 457
67 231
9 595
609 292
336 456
529 727
401 636
757 527
118 307
101 25
431 333
219 698
125 669
444 542
165 212
468 121
343 320
450 730
518 295
392 433
426 402
200 115
643 234
619 168
580 636
157 343
314 552
310 661
732 369
65 484
452 81
351 529
89 421
454 565
386 648
601 610
164 773
699 739
261 7
319 500
700 192
258 211
333 322
147 655
692 35
718 583
19 43
605 401
330 641
500 683
79 514
732 600
710 775
204 217
583 295
231 346
411 538
157 689
98 85
79 724
460 268
481 371
131 452
784 578
611 116
631 463
434 635
74 82
92 210
267 196
534 204
66 652
390 529
67 694
456 290
247 620
353 150
291 771
611 789
651 598
273 31
373 282
16 589
386 777
632 648
421 774
434 555
741 310
131 777
456 32
385 661
234 232
699 228
410 199
596 307
187 660
600 326
487 392
768 568
124 317
87 109
554 314
585 490
262 495
795 539
196 559
310 768
227 524
709 432
519 795
23 220
265 183
776 634
182 604
574 554
702 294
61 167
235 419
116 731
158 607
361 298
392 131
364 131
540 499
190 33
554 723
350 121
314 63
507 731
726 476
747 673
72 700
593 450
225 264
487 49
184 670
786 697
499 253
200 503
597 689
611 399
333 167
40 117
98 294
139 162
84 631
212 268
388 19
303 213
494 322
187 741
120 99
699 636
600 774
515 469
515 463
388 643
276 535
9 378
634 231
569 749
14 476
366 742
276 665
14 322
779 786
455 220
41 134
519 160
654 542
402 65
397 343
334 545
607 249
38 266
125 688
220 319
218 539
736 384
342 444
30 79
202 521
743 380
380 30
512 179
375 715
492 561
22 407
348 49
80 157
536 526
445 719
657 710
391 49
761 204
636 262
753 729
773 367
123 678
73 151
531 457
731 86
602 624
325 86
149 742
731 228
787 101
133 356
210 81
739 137
570 320
439 504
280 190
537 297
322 636
712 151
676 446
200 224
288 367
412 83
143 211
455 408
603 448
77 534
267 741
403 776
271 700
447 225
589 416
284 150
650 757
211 446
558 243
726 670
478 320
720 651
344 700
489 163
253 215
147 763
513 226
590 707
262 279
7 703
624 327
495 564
248 485
635 348
47 714
250 695
739 628
172 791
3 85
63 754
273 393
233 365
634 288
174 668
596 231
261 290
145 1
561 746
695 234
40 116
713 735
171 710
434 754
284 544
602 762
250 113
563 411
323 281
661 698
586 620
166 485
764 661
553 348
541 66
561 732
436 192
23 527
197 676
174 267
11 624
539 209
14 106
224 113
20 444
290 149
434 132
91 574
732 768
416 522
747 265
195 577
206 758
533 482
426 567
209 262
7 346
506 113
211 489
498 162
1 399
137 268
730 336
9 758
721 782
211 167
789 68
381 723
82 607
228 436
458 513
337 747
542 117
41 389
351 726
304 134
619 277
701 355
226 188
501 295
314 729
63 786
790 603
235 543
685 96
624 83
602 133
196 539
354 342
46 489
225 96
393 586
310 384
720 412
493 400
697 743
80 192
72 74
503 480
678 497
181 281
395 284
503 378
692 767
389 336
202 768
503 628
55 355
355 81
433 611
745 762
534 395
50 487
266 293
221 787
200 294
731 166
786 772
777 188
323 770
87 252
210 4
174 670
344 67
433 422
266 506
208 190
619 756
407 457
381 219
567 656
241 534
776 625
82 693
757 269
633 312
161 439
703 135
553 670
496 135
636 397
218 302
230 689
777 231
289 417
375 499
420 498
688 294
267 731
391 601
301 689
793 223
533 420
59 122
38 84
267 187
598 666
4 456
49 503
570 546
735 447
131 726
26 82
73 704
788 793
638 54
397 693
453 163
165 628
168 19
768 366
234 252
471 167
224 494
247 117
55 421
129 719
462 697
719 72
187 22
53 419
597 469
154 205
784 602
761 373
93 643
697 741
468 603
23 321
75 321
124 219
51 378
48 383
175 34
516 415
82 196
401 53
90 108
556 451
642 387
769 253
125 167
375 224
309 3
268 161
73 521
507 140
308 724
332 255
113 739
688 413
252 164
669 508
250 284
125 416
407 41
761 731
38 709
564 96
453 26
472 371
472 147
669 628
692 175
695 154
747 160
390 271
162 592
759 603
754 650
238 123
691 94
439 447
197 75
30 180
720 432
674 607
124 599
599 344
777 264
300 72
534 426
15 198
35 767
589 542
182 183
85 583
623 686
423 691
624 683
294 548
277 443
161 232
397 777
627 708
230 198
611 746
340 405
692 651
414 6
432 276
364 245
228 125
46 75
446 300
69 396
518 64
284 608
453 261
526 456
101 4
380 219
11 333
739 548
553 579
557 292
558 420
579 786
625 54
133 373
455 217
386 200
421 538
423 688
635 463
720 747
313 309
163 671
662 48
250 763
488 776
217 148
98 344
306 652
211 294
712 64
621 290
554 54
333 776
319 93
257 167
615 336
282 140
42 713
36 612
734 319
177 773
495 699
619 395
714 177
732 217
287 624
124 319
408 761
706 661
226 441
196 703
422 122
432 579
668 341
233 111
333 86
210 660
694 179
495 151
569 613
728 333
321 276
525 487
359 110
84 763
336 207
147 732
311 290
492 196
537 422
225 638
456 706
171 436
42 451
541 254
82 785
676 320
108 225
120 101
340 600
544 277
32 609
99 97
120 279
33 745
154 11
488 396
27 632
256 284
362 54
331 281
750 364
14 458
645 732
4 314
360 365
726 432
353 487
660 208
324 236
631 261
240 136
159 592
685 199
219 620
417 42
221 346
200 68
310 621
448 253
296 212
465 73
234 235
407 420
399 131
143 504
769 546
120 284
213 65
456 113
726 627
458 33
496 4
112 531
132 4
202 215
400 41
741 597
34 568
308 221
408 642
361 315
290 308
281 596
577 769
49 31
356 558
420 789
691 275
67 647
785 721
268 456
544 603
465 497
615 642
648 304
445 588
457 228
344 163
723 324
546 242
116 621
571 144
420 572
574 707
584 22
233 13
241 638
518 733
433 162
373 107
594 392
734 63
542 599
567 148
132 702
405 434
248 274
55 217
238 706
107 460
210 785
554 155
747 439
301 162
568 486
715 430
164 6
743 694
149 785
135 636
634 417
470 453
415 667
122 123
583 747
633 65
355 188
774 159
151 570
18 71
675 537
544 572
226 221
746 134
548 676
40 32
261 741
380 333
777 471
386 361
665 501
262 622
501 235
216 175
458 391
388 331
599 117
147 420
293 702
266 389
653 680
85 64
12 99
769 329
71 140
570 697
793 207
56 770
134 721
727 422
294 174
518 674
129 87
753 347
422 165
654 129
654 249
72 647
258 15
487 133
185 302
250 500
346 177
97 147
165 667
530 462
198 769
762 224
273 449
580 166
777 63
322 523
494 194
226 85
616 786
755 689
14 544
563 768
358 774
748 191
301 248
113 65
757 787
310 306
603 485
225 407
6 327
537 130
456 216
284 647
568 779
83 703
458 519
372 284
697 226
496 274
149 463
208 493
133 5
458 494
343 84
210 789
265 420
572 688
378 391
485 220
438 96
634 304
195 564
24 221
605 430
288 302
385 675
168 12
746 554
395 412
683 134
579 348
368 505
244 577
415 582
732 607
507 465
324 306
645 250
775 536
616 367
584 785
556 506
724 93
745 219
157 732
568 79
702 476
331 497
368 649
297 567
229 438
8 175
714 311
95 639
211 452
306 634
747 228
198 471
39 320
736 453
456 759
147 634
515 701
742 160
751 509
27 507
693 384
593 191
393 450
150 113
452 79
267 198
153 545
413 488
640 164
519 128
584 450
454 109
85 388
252 580
178 426
477 253
517 703
472 373
463 703
187 384
602 333
255 263
73 268
137 99
546 282
458 443
653 578
780 459
763 228
185 547
573 310
212 628
76 370
743 297
732 158
96 690
157 78
405 160
474 428
779 423
168 370
444 659
789 319
151 758
681 381
370 79
520 588
72 110
147 750
724 310
215 204
174 554
540 310
483 107
761 533
771 177
448 208
437 303
537 659
746 234
666 456
430 747
147 165
634 93
519 250
21 427
244 716
771 482
729 607
674 17
741 266
434 482
731 295
67 74
400 208
104 517
619 706
362 517
257 375
456 144
11 423
203 471
767 626
670 388
285 179
148 137
302 709
451 235
82 79
528 131
311 767
427 519
123 283
101 316
39 513
624 517
380 84
394 296
230 399
508 520
703 632
80 97
654 702
39 4
676 583
446 6
744 564
686 71
288 244
413 608
137 304
484 360
395 118
257 378
206 306
661 419
87 639
73 115
707 364
93 132
355 21
538 318
463 701
313 245
645 372
165 277
190 28
84 521
489 456
745 221
52 458
433 209
336 64
626 747
407 733
430 345
68 422
202 689
15 192
655 11
795 222
191 636
39 72
74 204
368 774
624 35
702 701
434 284
731 51
63 668
563 548
77 539
753 317
316 500
24 667
366 732
724 45
237 225
33 540
400 235
229 80
523 23
460 154
548 7
294 100
87 382
409 721
434 148
560 781
621 508
212 258
665 363
184 621
220 83
305 433
357 175
457 84
101 87
314 82
167 157
478 482
317 458
10 410
90 561
153 631
458 437
34 269
339 479
479 538
706 746
461 10
116 149
278 320
117 732
324 321
413 325
494 620
49 764
61 746
582 667
339 511
502 49
653 95
675 338
477 786
452 693
322 492
204 12
204 398
294 246
464 649
444 763
330 355
531 245
222 22
338 693
341 68
686 768
312 497
503 534
520 93
750 621
70 79
774 557
93 678
691 53
793 221
743 307
432 120
399 772
585 136
225 655
287 262
414 178
368 111
489 720
714 661
711 474
539 417
187 641
722 539
529 403
741 583
85 786
427 730
14 748
310 700
72 754
495 638
150 230
32 368
521 406
636 510
207 542
794 571
579 270
111 41
392 306
99 43
694 772
19 331
670 446
589 248
757 761
366 368
374 329
747 554
334 378
202 540
441 187
218 701
586 424
636 790
14 407
26 196
195 253
504 99
793 688
523 463
775 401
147 111
584 226
450 774
356 659
12 736
266 113
774 378
10 281
445 153
234 754
519 646
647 207
311 661
494 253
561 370
71 769
622 642
307 521
378 30
780 463
719 386
680 464
74 534
84 196
708 515
153 210
148 178
173 386
161 67
6 107
71 546
548 370
303 147
495 125
524 474
660 388
407 789
131 384
366 759
48 110
187 91
785 441
493 274
748 157
724 82
116 502
99 314
556 222
774 394
144 414
399 69
420 685
157 446
731 539
432 178
450 456
634 102
197 214
537 446
221 77
305 518
747 729
481 569
554 285
546 304
760 318
446 187
615 699
692 631
221 8
769 701
583 169
220 678
71 372
537 703
720 733
68 307
697 592
551 54
367 91
285 155
130 602
225 177
193 331
50 59
11 16
713 216
254 135
149 619
84 512
476 501
165 709
283 341
243 221
262 228
626 753
273 300
162 386
619 768
234 652
693 316
722 543
204 777
42 528
230 461
461 700
43 148
669 653
310 436
380 469
432 697
511 529
191 554
210 495
714 769
245 309
698 188
129 198
726 45
414 406
184 224
588 457
414 606
237 189
432 750
693 552
168 43
453 229
407 53
167 445
714 668
693 52
542 697
40 772
722 394
201 125
688 239
691 733
196 472
187 485
81 347
218 769
457 610
284 697
754 619
471 695
292 330
369 566
766 63
606 703
495 14
85 331
635 246
169 294
594 475
407 136
158 753
474 712
400 124
609 360
72 169
545 275
197 41
455 257
755 782
546 766
157 571
489 660
450 701
777 221
709 112
774 339
706 266
611 248
241 414
142 583
702 515
699 134
297 307
282 23
487 546
793 67
729 724
405 388
434 43
469 755
739 636
444 635
324 143
281 440
367 484
719 216
70 747
464 283
106 645
734 225
380 537
375 393
220 325
625 427
481 123
776 415
232 748
688 55
664 322
107 356
646 146
787 321
319 242
631 542
294 626
656 520
461 648
93 697
448 572
174 463
414 508
253 219
711 524
779 121
641 398
425 509
186 471
624 583
450 241
517 576
636 583
445 622
756 586
623 631
680 737
226 739
130 541
308 586
721 521
114 509
550 593
771 707
268 4
40 496
660 721
219 145
77 571
542 205
503 492
293 635
289 373
777 211
344 647
174 660
211 591
190 660
407 390
140 344
543 609
13 89
18 344
701 81
104 627
12 228
331 52
268 636
288 448
757 169
63 746
570 732
197 566
194 287
149 447
750 413
432 145
337 64
513 619
446 366
13 546
702 301
158 510
215 76
92 57
167 539
228 281
405 211
219 195
542 698
700 136
767 254
320 253
548 703
22 719
231 445
412 155
741 441
557 226
93 457
713 348
714 660
283 697
694 646
540 599
333 485
573 536
359 243
265 276
77 371
587 62
55 165
215 650
441 446
645 116
211 132
570 93
397 222
120 769
568 40
30 241
12 92
225 194
98 140
382 99
194 79
714 395
450 689
175 508
654 552
563 369
191 507
522 644
730 741
747 546
317 593
677 219
50 353
730 81
777 226
507 281
519 345
328 222
69 470
413 758
737 47
355 463
93 379
104 128
215 68
396 765
542 743
310 620
599 33
28 312
754 160
631 626
237 343
268 435
368 764
624 252
775 594
43 588
112 390
181 56
12 724
281 95
131 405
132 319
768 343
355 348
528 522
682 25
20 533
201 664
378 586
301 504
279 673
606 660
746 187
444 545
513 149
301 11
617 467
375 586
505 165
225 714
543 447
198 437
771 588
229 161
441 211
658 331
541 606
71 344
355 426
636 789
576 713
694 23
131 596
86 678
563 726
641 702
784 448
445 69
216 493
668 284
83 386
501 417
337 335
138 241
301 513
433 70
400 668
498 131
455 625
333 18
681 322
413 567
277 538
276 89
464 511
731 495
166 267
137 267
456 266
599 529
373 205
626 208
53 46
20 628
127 466
67 409
158 338
502 389
180 163
743 413
575 776
146 669
445 229
623 376
453 148
761 194
308 577
534 661
390 35
177 390
713 68
406 310
652 521
180 42
397 3
451 544
607 97
66 428
252 785
757 179
170 505
219 1
131 162
699 60
723 676
420 222
87 680
787 269
191 235
420 226
149 355
67 766
136 636
410 320
739 153
296 709
643 290
469 438
191 472
144 553
131 380
683 450
496 83
480 425
51 195
795 290
389 777
694 458
528 545
523 333
546 12
780 189
490 281
91 284
30 288
168 724
721 267
792 620
734 94
96 21
716 327
644 501
739 641
528 260
118 607
134 6
327 790
245 754
775 656
46 611
458 224
49 688
388 338
554 460
782 355
344 735
76 626
745 748
292 244
4 619
689 129
528 501
645 81
229 539
697 154
781 146
370 379
194 757
397 298
95 633
443 302
649 252
544 179
374 655
472 638
405 210
756 274
3 57
508 33
597 95
499 367
621 393
699 610
8 21
49 638
95 21
471 484
13 262
558 499
26 654
421 375
134 621
123 64
702 407
747 248
164 414
654 510
211 195
444 569
65 510
324 34
269 793
378 180
346 795
149 220
438 509
694 3
256 643
202 485
661 535
579 724
169 122
489 248
320 290
539 366
350 284
677 571
110 147
397 521
536 375
326 250
320 141
312 472
75 28
287 140
140 307
258 373
108 103
162 174
255 306
571 596
482 355
481 37
368 144
208 96
445 208
17 502
610 432
341 71
300 27
591 443
107 279
49 59
545 70
219 596
116 457
758 320
779 23
67 592
543 458
30 54
337 649
495 187
7 434
381 476
695 203
706 256
784 765
83 596
47 390
742 147
321 260
634 603
735 553
1 543
5 246
215 111
450 528
399 61
75 741
607 600
361 514
599 463
633 456
747 345
473 375
450 187
592 137
754 552
523 426
533 190
759 272
647 169
228 200
311 361
292 185
100 441
639 229
548 528
527 714
628 310
580 310
412 576
209 333
485 482
493 160
306 746
183 563
502 362
432 262
100 777
190 69
542 212
541 124
307 746
644 532
579 212
592 256
293 124
160 120
731 770
174 212
212 234
137 366
715 519
316 139
338 658
641 216
77 537
296 436
281 698
427 305
624 122
443 519
238 412
341 224
222 609
545 72
200 348
235 758
312 392
273 189
447 750
688 661
157 83
552 202
536 75
141 277
116 106
368 489
95 682
528 731
107 494
631 253
319 210
554 372
702 571
51 477
574 443
368 345
169 356
561 219
776 237
700 288
134 674
494 111
364 57
601 162
93 518
99 769
638 509
452 750
545 380
333 739
762 492
728 18
189 417
201 626
17 228
98 49
716 454
745 636
782 11
423 362
536 278
769 535
496 709
509 535
140 426
99 84
210 261
304 577
455 502
107 203
337 6
138 217
84 63
676 248
293 795
500 405
444 84
222 67
308 585
263 356
331 498
675 673
161 64
148 9
402 628
348 339
265 111
735 544
169 301
518 98
606 269
782 350
109 422
288 373
163 649
513 452
661 397
206 512
220 534
610 90
743 721
372 121
519 217
367 570
718 237
240 248
601 616
349 781
30 393
494 682
210 280
68 543
743 774
656 30
745 77
191 539
238 515
769 311
93 215
732 484
474 694
497 71
75 787
311 422
378 502
77 201
2 203
243 253
399 735
353 434
393 512
755 741
600 675
269 282
125 24
688 179
490 647
449 333
125 218
445 84
318 411
19 294
368 147
286 248
742 82
473 7
542 221
87 471
90 500
714 78
378 302
484 464
44 614
310 117
418 376
301 142
635 228
324 730
202 257
632 761
308 490
795 17
634 415
549 282
583 132
756 254
592 331
562 424
120 162
498 90
285 439
216 429
620 744
495 597
315 468
689 741
124 45
177 67
86 359
220 451
558 124
353 63
196 91
556 698
443 158
163 300
45 608
563 37
271 741
724 129
488 565
106 401
23 247
773 542
673 191
42 232
67 7
368 156
582 678
741 425
131 414
14 104
519 385
631 39
400 146
106 111
217 306
39 206
215 555
655 678
574 131
619 746
659 484
703 761
715 485
489 222
54 213
701 351
347 635
528 272
784 436
413 666
100 293
295 718
424 494
209 529
153 512
587 220
185 107
287 207
147 261
667 536
696 285
313 100
184 148
112 408
289 569
279 469
650 472
402 652
416 124
373 659
465 22
296 355
631 769
125 118
322 227
395 205
285 619
715 169
790 707
667 656
425 361
101 382
476 222
481 304
204 330
738 242
217 471
513 131
160 545
750 194
614 529
598 219
757 443
702 267
661 53
10 698
713 57
406 6
619 23
203 89
132 305
636 375
510 9
571 137
658 309
149 84
495 173
327 465
153 554
444 746
124 43
500 364
531 97
148 500
236 469
89 124
697 271
534 299
452 384
275 608
20 253
75 204
148 343
64 254
79 153
101 755
776 77
397 452
83 245
147 741
624 370
739 319
107 673
177 328
554 481
795 457
382 545
353 534
179 286
204 486
706 72
482 641
241 54
679 665
399 719
557 618
626 577
679 451
273 673
131 250
379 362
67 655
611 160
534 754
132 252
457 600
45 720
150 579
777 458
380 463
142 295
480 204
414 379
85 209
571 47
68 334
444 356
545 746
168 608
261 266
188 558
184 245
627 91
503 545
372 353
154 500
642 86
220 779
166 24
244 446
615 10
716 448
386 690
250 196
661 11
174 788
676 275
101 331
225 478
496 331
482 717
776 537
90 149
520 274
453 753
638 244
414 725
375 450
752 728
644 561
74 355
237 10
766 520
793 620
483 211
373 402
631 666
637 563
287 328
753 132
194 206
129 293
532 705
13 421
274 113
232 334
570 717
137 101
219 500
703 274
758 131
223 679
279 515
184 777
764 200
552 554
268 465
196 258
756 116
155 288
676 528
430 786
410 732
495 54
788 123
331 769
639 427
392 633
457 100
768 377
206 131
771 360
206 519
726 304
229 317
184 35
116 147
481 767
709 539
264 690
167 567
416 383
417 562
648 390
780 135
71 272
288 152
327 544
353 561
411 637
79 457
35 713
669 780
252 508
720 539
209 266
109 795
317 635
699 99
428 377
224 534
77 565
167 702
210 492
618 107
35 380
168 446
221 11
762 206
274 321
497 598
98 554
576 544
786 39
641 493
333 471
11 350
392 18
151 212
508 634
512 644
715 578
148 521
702 5
109 492
544 302
546 695
641 513
766 621
472 661
691 688
194 23
303 15
174 493
63 217
268 135
194 484
407 27
793 482
773 217
520 259
546 545
325 436
795 224
50 774
202 159
721 439
281 495
609 276
289 6
463 556
766 544
222 720
574 621
207 706
18 700
39 245
444 239
137 447
193 137
367 86
793 314
721 579
269 144
208 198
381 641
382 578
511 793
410 85
750 747
349 10
660 81
481 771
180 336
198 253
432 285
784 716
143 350
728 616
234 774
716 502
747 724
731 22
485 123
132 5
674 761
274 619
423 73
592 771
243 409
395 187
689 795
49 747
730 670
714 706
257 42
745 565
714 178
592 343
445 379
784 186
20 528
68 611
230 284
279 392
664 310
314 654
755 327
129 680
784 16
47 585
641 99
390 155
584 375
212 124
154 192
558 451
524 788
158 80
570 457
459 728
512 221
599 209
732 59
411 707
603 639
481 217
298 490
586 633
523 634
73 212
449 788
195 368
702 731
359 451
652 138
320 649
753 405
416 564
695 795
731 494
120 534
486 757
433 312
292 6
517 102
434 402
196 635
320 773
476 641
93 562
246 517
9 676
586 747
231 343
731 478
91 618
222 14
46 223
628 392
188 520
50 273
772 437
596 65
650 460
177 748
29 325
648 238
384 724
170 349
457 433
362 129
341 72
131 457
473 698
248 344
132 362
83 471
127 398
503 294
670 616
236 35
287 711
717 691
68 300
443 340
592 724
374 188
454 641
83 714
253 194
85 542
463 691
409 374
205 147
546 274
464 331
325 719
363 237
469 378
612 536
131 484
65 194
537 10
216 512
306 169
167 484
358 277
411 359
77 753
507 698
510 498
119 114
538 558
648 382
382 518
286 421
68 485
518 397
693 635
378 759
595 500
101 458
107 371
72 235
268 168
109 537
717 734
427 81
621 74
320 268
8 565
310 101
626 120
636 287
14 497
390 531
432 559
343 739
23 544
709 548
247 784
732 187
335 699
430 241
6 51
422 348
413 229
744 6
27 91
744 494
735 122
697 84
721 350
71 456
250 689
85 283
619 574
558 35
84 326
689 310
8 371
57 245
400 374
384 120
599 39
150 9
746 647
768 125
416 562
601 722
410 652
217 420
436 73
584 393
373 120
269 571
143 17
316 597
96 206
743 147
402 584
452 219
602 98
612 278
250 670
603 167
150 378
378 159
678 365
276 222
692 380
219 393
82 763
411 75
724 148
141 689
698 587
762 96
108 129
148 154
699 337
520 401
478 652
464 212
764 389
203 755
218 29
242 739
279 247
719 619
433 7
699 236
515 764
530 162
364 296
392 211
408 110
132 168
8 359
554 39
686 484
624 555
688 160
244 634
63 91
122 626
292 464
110 232
445 149
362 211
208 709
76 184
190 364
320 766
683 193
381 280
759 466
635 457
780 545
222 149
167 622
244 226
703 378
712 35
63 500
678 603
623 336
427 528
29 543
519 370
150 545
689 540
432 546
508 773
502 706
430 246
485 64
94 55
162 324
384 660
113 694
787 785
784 423
228 596
709 542
228 389
221 570
116 319
714 761
722 488
673 261
277 24
276 56
744 306
787 3
182 562
546 426
476 383
140 715
567 261
213 619
45 787
454 224
194 405
229 548
753 230
556 469
753 546
334 739
626 149
661 548
142 692
766 499
66 345
548 106
712 278
196 397
577 720
319 163
309 147
457 645
79 693
489 177
13 781
402 64
524 538
448 413
276 375
372 337
341 237
661 250
772 592
300 414
150 626
362 611
602 688
257 726
750 375
407 147
706 389
310 400
149 607
58 761
209 224
688 773
392 620
1 90
312 72
186 146
433 206
685 634
647 231
400 513
716 589
746 268
794 390
406 313
674 360
91 708
698 733
398 784
456 484
610 600
758 160
346 662
538 186
420 300
410 211
275 4
661 110
149 366
141 540
157 714
777 702
490 771
532 631
471 1
436 83
261 346
173 784
720 99
302 694
459 1
336 420
434 228
519 754
544 372
509 632
676 142
670 485
237 55
74 118
20 407
700 170
606 546
699 583
609 456
335 163
154 378
611 316
636 746
763 521
775 354
412 286
625 336
235 625
123 387
427 718
321 293
430 170
685 49
228 137
523 187
387 421
540 661
357 706
17 772
508 635
220 107
508 481
599 582
706 134
710 741
167 554
509 241
173 46
657 775
772 314
564 386
655 661
679 718
166 724
311 444
413 243
5 773
706 725
564 101
269 618
195 42
465 238
471 587
512 68
622 636
624 113
536 524
787 626
252 244
534 310
500 519
153 484
458 534
633 15
140 554
784 687
298 2
301 795
747 493
378 518
278 583
714 345
540 375
73 300
641 248
387 403
456 324
586 717
729 184
316 16
599 351
417 173
452 393
100 149
137 668
455 123
460 647
157 364
713 750
733 396
741 149
510 301
570 69
541 755
653 40
731 168
247 732
682 459
441 658
365 228
14 633
150 191
262 709
746 534
83 731
619 464
237 175
246 594
697 494
84 82
439 332
274 224
758 248
775 121
244 217
741 357
113 4
371 11
667 565
620 95
140 486
454 772
626 540
86 138
621 785
165 779
228 26
405 726
479 277
281 252
739 132
179 572
701 580
416 636
96 29
27 533
638 251
636 208
202 134
548 631
580 319
520 776
98 345
269 514
454 527
719 120
15 527
43 158
793 561
370 695
80 9
471 426
132 611
300 603
196 215
179 128
41 677
378 449
245 314
769 323
206 408
520 396
296 576
719 747
229 130
473 494
486 761
322 718
140 204
595 554
423 248
144 774
503 219
66 747
567 698
653 127
701 697
331 409
714 380
205 553
243 281
754 92
98 7
274 202
291 680
702 90
220 157
441 109
89 686
639 483
310 150
205 492
261 355
273 528
677 144
371 792
37 509
91 750
476 447
570 252
648 761
482 610
577 409
683 492
316 593
776 201
699 198
182 481
466 268
325 20
380 220
626 134
107 15
790 739
229 150
571 261
686 183
22 469
12 534
67 601
176 566
719 772
211 713
5 171
593 304
503 103
484 678
231 641
470 234
213 247
603 315
389 216
538 692
229 533
592 116
611 149
601 324
64 288
548 434
793 575
674 580
592 338
149 168
433 706
534 293
166 647
552 120
47 676
212 730
569 6
144 460
495 30
32 489
602 255
660 26
596 689
470 678
671 189
218 24
392 102
113 200
285 443
782 438
742 452
592 84
309 338
56 731
142 175
390 246
785 452
155 529
432 678
719 715
90 525
648 299
604 530
771 567
621 658
314 706
355 787
479 784
30 165
729 754
436 164
159 301
461 792
136 734
219 497
634 109
314 209
565 224
295 490
384 331
405 493
702 102
602 448
271 508
109 675
609 484
713 701
478 278
769 106
452 458
620 633
39 141
695 184
63 229
784 790
482 409
403 577
583 706
446 609
203 481
534 519
23 344
634 439
518 509
221 540
60 278
148 701
482 649
636 134
774 194
97 621
631 63
205 691
561 407
723 650
764 48
362 393
300 699
702 427
147 492
720 398
699 504
702 717
561 499
308 587
102 515
239 573
661 713
104 125
163 213
707 619
534 93
220 221
228 637
762 293
465 489
648 506
715 216
653 586
134 730
554 310
216 262
545 725
482 719
2 156
120 52
57 224
153 495
674 772
406 43
706 450
494 288
164 647
678 27
479 140
485 593
317 492
121 792
110 651
288 227
28 204
713 85
634 448
14 619
674 616
144 220
303 793
793 7
628 463
67 484
203 504
257 380
218 5
99 106
503 140
269 351
278 535
672 679
498 519
253 267
162 143
298 534
621 763
340 654
157 11
443 347
774 133
202 519
507 10
734 195
26 607
744 438
464 153
670 178
512 636
721 446
107 248
457 406
220 27
15 393
485 319
720 576
446 590
391 709
628 588
660 731
21 308
683 137
762 485
611 626
331 706
19 443
301 364
75 503
166 546
565 517
230 762
378 741
457 571
92 750
5 121
296 590
91 448
125 448
11 669
750 405
139 80
119 661
556 327
752 682
422 189
518 374
308 511
317 70
348 766
647 273
121 13
19 370
155 208
554 675
145 331
23 241
634 121
773 83
364 202
59 235
131 413
779 434
653 71
414 546
650 668
482 739
635 256
397 795
6 155
786 268
608 149
334 641
206 650
109 683
688 130
106 67
700 20
481 116
645 107
255 348
409 542
355 686
208 586
697 234
455 211
715 465
599 634
502 302
288 292
735 514
397 26
99 652
297 394
652 79
451 777
732 677
346 210
138 163
48 620
206 777
461 335
787 230
118 743
90 571
406 786
117 400
91 500
560 328
98 527
372 24
741 468
125 591
544 312
195 567
577 84
786 246
584 154
229 557
789 740
533 493
734 676
444 422
309 397
583 301
221 267
24 544
188 350
260 394
381 39
314 695
492 545
123 355
611 772
708 140
55 133
469 371
458 599
3 472
63 261
320 11
503 603
316 255
260 101
71 32
221 119
42 353
461 371
730 586
495 87
504 345
386 259
98 262
175 704
17 438
569 715
106 685
739 777
771 661
450 6
451 713
209 136
743 66
702 174
701 297
637 762
250 81
451 641
373 27
795 93
509 101
324 192
393 599
582 189
586 161
731 407
673 136
732 755
307 73
599 473
714 691
364 457
7 3
184 154
401 354
362 724
610 484
790 470
741 399
340 661
153 770
287 204
157 498
611 219
240 532
728 126
531 680
676 252
677 121
453 435
669 757
507 14
577 131
456 542
413 715
167 452
486 715
261 163
539 542
39 261
79 331
579 232
565 420
699 253
3 675
267 202
379 268
726 555
370 747
775 690
339 265
322 544
496 616
293 21
513 310
657 138
157 452
515 177
521 229
711 690
781 617
8 310
296 440
17 469
523 125
14 47
405 316
205 482
528 117
653 557
575 278
378 694
694 663
174 5
695 57
72 619
4 648
93 67
323 95
523 789
295 637
745 201
137 245
675 452
242 132
618 292
502 87
595 39
441 601
606 517
540 374
481 420
450 639
206 702
469 206
163 684
319 271
774 481
406 295
465 536
368 580
30 758
417 490
712 722
543 356
336 376
175 495
311 393
674 273
252 724
187 706
436 346
209 614
109 542
250 337
591 287
209 195
631 424
768 312
701 683
520 71
616 660
320 367
643 250
600 196
406 515
570 744
580 169
316 362
564 276
174 388
745 454
519 219
484 243
505 709
379 276
70 424
427 445
143 792
625 95
792 639
244 127
436 557
238 517
261 795
72 310
63 90
50 598
293 284
459 416
295 357
209 297
70 212
194 780
151 537
231 134
301 441
568 619
446 162
326 158
645 147
85 782
481 698
655 7
368 515
510 211
473 277
601 307
674 624
316 206
238 337
5 93
786 259
695 402
712 612
49 504
739 219
295 75
325 328
384 338
494 694
445 546
133 216
640 751
555 518
635 21
588 766
316 407
310 320
20 187
557 682
638 37
164 83
225 337
745 495
723 386
346 792
626 550
435 364
786 228
761 228
433 445
457 368
453 39
310 192
149 144
708 271
121 494
673 509
499 473
385 132
741 223
377 348
571 187
141 777
116 722
351 501
289 175
458 209
639 587
48 295
443 250
496 208
408 308
474 505
112 392
247 134
693 74
308 450
406 682
410 741
107 289
120 435
157 131
32 769
689 73
169 67
150 654
772 743
586 336
480 468
561 346
301 399
82 592
244 25
502 391
620 322
140 7
438 352
234 730
546 472
589 749
211 334
613 73
8 356
533 71
18 327
162 761
100 519
367 602
305 403
202 650
80 754
231 284
724 132
683 331
574 359
390 713
196 403
159 588
295 301
697 776
423 425
70 458
198 273
178 755
722 129
18 476
459 463
223 274
30 666
362 554
433 652
699 619
337 450
167 250
360 332
314 766
667 375
753 313
555 264
626 29
248 115
581 549
405 384
478 720
478 691
678 503
619 133
217 159
57 68
697 475
147 28
727 362
50 17
237 322
635 489
552 592
616 689
24 669
321 563
288 599
274 624
655 638
149 313
730 284
64 504
115 333
657 125
147 79
714 655
643 453
670 80
607 583
166 82
559 370
13 111
223 436
316 707
610 136
109 405
125 423
413 712
111 251
19 397
13 372
576 481
793 322
564 345
701 660
296 333
179 655
421 473
794 228
67 212
85 610
275 619
757 382
50 180
217 707
99 183
362 310
383 509
5 147
134 8
301 611
771 311
199 577
75 792
699 179
636 179
373 206
784 184
478 420
214 732
764 68
85 338
43 313
400 91
650 248
125 621
614 682
470 273
720 211
729 80
149 571
310 542
326 193
763 284
137 184
75 192
684 597
209 98
193 658
464 609
678 411
89 402
307 259
521 284
397 500
747 67
719 689
770 111
424 434
204 715
654 720
158 178
159 215
290 245
577 134
340 542
534 379
373 66
248 90
689 198
268 520
411 320
639 635
256 452
463 451
713 441
184 91
773 323
693 210
84 400
693 9
122 192
629 204
654 316
660 469
74 458
561 382
653 47
410 474
481 285
698 670
157 745
675 626
167 14
587 609
608 76
708 483
759 334
757 780
166 5
648 718
214 108
499 371
724 519
433 707
730 26
294 386
312 685
426 165
202 378
571 266
504 398
279 209
374 1
95 780
660 225
546 785
543 18
695 414
543 444
702 722
143 372
277 778
426 379
290 545
111 140
546 82
40 49
463 713
220 285
697 265
743 402
787 443
660 516
76 607
140 586
11 724
327 235
559 261
644 665
690 356
70 231
394 310
703 427
438 403
364 314
676 749
482 274
764 71
680 47
571 366
596 78
356 613
624 225
700 436
702 636
400 534
296 715
409 252
460 42
96 152
293 747
101 769
303 261
558 237
556 226
206 298
465 526
437 132
38 187
135 248
475 331
654 245
214 369
275 174
570 247
134 570
326 397
101 277
468 653
35 469
692 34
26 643
619 518
211 168
316 795
216 746
392 240
568 514
399 215
769 784
101 541
350 259
137 343
276 720
93 92
120 26
768 661
567 485
520 488
133 223
339 242
689 37
611 545
502 625
377 355
75 272
131 559
678 519
353 503
724 215
72 621
73 478
393 722
285 777
192 431
414 783
13 642
703 493
109 168
630 56
746 725
102 358
768 15
602 233
395 626
745 253
401 426
518 203
578 737
719 128
1 589
62 136
472 520
11 120
224 322
364 79
577 564
367 322
659 270
483 354
112 399
333 223
308 576
129 391
661 733
14 268
374 46
519 47
18 164
405 742
485 121
678 164
414 682
8 183
121 220
378 11
143 337
337 645
600 427
556 518
365 375
769 716
483 490
500 478
494 540
99 600
298 258
98 482
343 552
65 9
513 129
556 670
38 743
601 678
494 599
408 731
523 279
546 70
333 236
535 577
592 670
346 597
12 628
203 503
310 224
693 596
248 545
158 250
334 407
516 776
436 229
305 99
356 323
5 428
415 646
240 191
609 46
301 515
308 367
434 600
149 301
279 98
375 451
374 432
635 253
148 386
536 16
337 380
539 758
317 217
192 331
31 110
533 202
651 779
388 151
687 132
793 5
554 219
648 61
93 785
162 721
14 226
708 375
598 204
113 554
506 747
434 370
273 554
401 35
145 598
320 539
766 253
685 130
364 540
194 260
589 127
65 458
303 98
554 700
393 216
352 186
180 311
678 281
248 493
485 320
123 27
463 758
789 314
698 27
140 751
333 151
489 457
422 694
574 310
316 648
85 660
160 245
675 736
157 643
670 148
129 238
366 786
127 669
331 326
461 99
660 196
47 761
767 71
730 701
425 75
311 697
160 763
635 753
542 422
113 683
118 229
671 198
485 62
630 619
234 660
150 407
184 10
21 565
478 294
728 671
287 524
651 647
682 206
342 585
685 655
577 601
675 787
643 434
689 284
545 426
114 694
593 701
621 633
571 226
368 177
795 650
746 786
621 149
763 43
5 641
316 79
54 190
209 683
608 443
469 101
220 537
529 194
295 597
215 668
786 179
414 332
412 87
487 530
722 553
135 443
407 55
446 484
720 544
660 433
561 535
438 153
20 572
235 362
176 223
71 623
707 261
282 328
98 255
456 182
713 230
616 253
101 344
434 99
337 436
633 228
690 352
48 167
283 422
558 224
270 507
238 406
490 528
266 470
228 284
66 759
91 437
586 584
589 6
555 707
322 688
397 382
731 320
577 410
730 607
527 184
353 564
769 509
646 474
49 587
13 295
616 330
310 529
759 656
196 730
94 561
122 634
569 761
368 44
246 448
691 235
668 78
380 14
3 174
568 629
43 443
753 713
593 683
368 620
103 61
137 670
777 636
508 543
368 715
388 370
228 185
713 219
706 584
238 253
535 89
711 263
402 715
437 100
591 639
444 537
384 400
167 134
42 234
4 310
193 210
285 120
363 10
300 14
761 390
296 739
382 482
225 65
107 691
116 212
261 635
296 524
571 199
432 747
723 102
22 247
702 599
323 42
450 201
4 692
304 448
132 482
316 471
741 407
317 534
619 179
95 206
500 583
582 555
261 492
661 167
641 593
596 204
101 409
135 456
512 663
471 693
792 259
30 35
350 273
535 383
390 4
366 432
776 475
520 61
319 435
725 272
403 642
53 476
384 79
114 751
193 158
374 556
785 38
555 678
143 389
216 543
256 219
533 271
346 337
253 179
125 234
274 409
431 769
294 600
565 594
71 169
281 143
773 766
567 731
109 21
1 51
203 594
274 555
489 127
33 266
134 616
141 253
391 768
790 528
37 412
405 435
220 414
153 452
39 63
219 626
368 238
524 15
331 124
774 162
636 371
57 660
284 432
90 380
672 223
774 67
211 141
192 601
321 417
734 701
489 573
4 212
484 358
33 370
507 450
461 90
346 587
716 360
455 141
330 503
234 367
264 212
615 391
294 285
572 28
531 671
228 754
759 336
52 84
221 465
718 142
469 320
178 668
148 79
569 140
743 493
249 583
698 541
346 279
666 50
123 392
655 643
206 321
306 18
423 548
524 581
28 7
83 247
194 413
241 490
33 237
82 4
274 735
428 557
355 433
195 215
446 85
98 94
451 141
455 747
314 78
581 170
616 322
82 285
492 717
224 708
420 435
603 569
627 602
697 73
546 427
645 266
83 256
294 203
444 528
125 38
216 115
331 219
471 18
30 476
519 375
478 650
27 203
210 593
730 481
448 503
306 508
394 698
451 229
168 621
594 697
243 310
624 125
557 665
280 739
740 534
174 550
405 621
520 299
109 118
664 88
563 490
91 217
189 727
379 485
423 428
596 276
753 329
594 277
150 503
67 294
616 771
582 494
571 267
140 91
85 616
502 163
663 316
115 180
294 422
619 688
200 172
655 187
272 111
194 527
361 468
510 219
595 747
231 219
92 434
795 452
689 285
719 410
611 795
97 9
131 456
261 70
192 317
635 143
702 664
328 140
766 611
299 163
35 792
101 686
207 306
310 30
650 338
545 253
297 226
657 163
648 101
730 116
212 262
154 519
481 308
152 772
113 700
620 227
286 214
49 436
371 745
87 120
694 393
730 458
293 17
221 320
365 511
237 421
534 237
689 162
583 504
8 745
184 765
200 272
582 374
148 767
617 398
30 40
118 683
45 311
310 68
180 82
465 496
167 190
494 319
15 641
327 107
616 305
592 4
166 368
84 721
519 331
187 166
74 713
120 137
188 410
664 204
9 441
148 608
504 391
51 171
547 682
480 740
77 774
206 217
734 709
635 99
168 148
266 577
103 225
182 381
502 372
600 543
427 217
206 422
758 282
608 600
518 565
484 276
320 709
258 276
450 155
65 247
732 741
636 500
409 297
348 294
750 137
635 777
484 184
195 39
756 152
296 457
258 173
143 67
246 565
187 313
631 134
264 775
182 79
198 371
4 174
669 6
116 545
355 228
319 398
272 359
128 325
314 572
779 481
554 28
241 332
628 147
673 260
250 596
768 192
111 355
420 670
411 505
154 552
147 290
267 460
337 236
550 184
3 668
353 592
732 266
168 729
196 65
373 111
495 298
55 731
448 412
627 130
584 544
301 209
155 764
371 231
686 272
330 774
471 107
107 378
565 689
265 167
507 40
503 224
537 484
536 699
187 554
26 683
481 358
759 190
420 548
472 84
652 229
326 210
699 220
99 228
154 264
515 393
639 434
226 46
243 267
39 187
554 381
296 771
485 789
254 740
329 64
192 359
149 768
87 37
646 518
769 456
676 91
331 373
346 717
131 643
464 759
621 144
444 518
419 455
585 417
407 661
400 297
494 281
108 285
500 385
195 174
196 786
106 87
517 694
502 554
417 206
564 380
231 694
683 308
205 420
76 355
235 241
287 644
631 747
268 209
350 208
205 393
3 355
308 639
480 432
481 707
696 299
586 95
1 140
741 429
226 430
199 794
497 145
90 201
746 317
138 66
384 721
635 427
463 677
433 109
69 472
133 673
397 250
294 82
588 380
741 101
224 724
707 763
686 22
519 228
463 30
486 546
154 194
319 697
743 213
633 200
82 484
520 38
642 143
21 542
509 480
208 472
331 78
660 744
151 649
609 40
151 320
568 773
334 721
109 52
113 136
129 423
750 154
746 129
13 387
695 726
7 131
160 670
507 337
519 384
118 601
795 420
613 727
415 781
172 79
148 714
93 433
621 500
706 172
451 528
102 450
66 226
101 403
134 250
670 100
377 228
301 545
639 702
572 163
646 349
641 792
201 660
138 87
250 74
395 137
776 594
354 605
334 713
25 344
739 368
772 129
301 274
207 200
175 13
174 134
79 734
275 653
486 6
736 316
421 499
264 235
117 279
583 546
481 626
192 422
93 279
402 123
308 136
509 162
380 312
635 234
216 600
6 568
176 746
109 621
63 341
759 532
758 359
655 787
468 372
109 360
219 515
144 793
68 741
136 438
555 45
66 386
211 82
642 571
133 162
219 74
586 122
310 786
451 125
179 443
741 225
185 770
704 258
699 746
546 718
176 430
359 431
579 519
459 752
724 732
107 718
547 722
301 571
125 187
270 25
308 574
137 316
195 701
157 109
589 197
439 231
541 790
131 441
322 515
370 619
688 93
189 31
130 523
265 233
136 779
93 582
231 397
99 596
675 230
184 159
495 698
488 712
492 780
31 732
392 1
777 328
232 79
184 222
274 707
129 611
148 482
266 157
302 28
389 105
459 71
655 136
21 281
252 296
373 740
612 413
763 674
650 33
763 742
741 413
765 529
223 265
364 706
406 323
470 150
611 310
224 117
492 631
229 353
194 243
539 420
732 122
68 116
650 198
667 189
93 137
116 205
314 787
537 482
215 434
3 388
616 435
654 677
153 331
718 246
731 94
325 68
106 375
673 709
450 755
213 196
508 83
433 481
209 5
269 501
572 116
229 4
464 25
401 488
393 397
10 247
294 457
20 58
443 178
175 540
235 265
116 725
217 123
699 377
131 693
384 92
561 553
178 457
482 473
104 163
44 438
561 384
131 314
329 726
487 16
527 136
116 709
230 597
604 255
288 59
40 489
628 85
93 372
587 248
465 466
694 704
503 555
555 482
129 437
71 554
403 383
288 66
412 111
550 405
357 172
539 305
589 246
181 780
109 160
237 648
403 487
543 621
414 460
331 397
539 492
747 592
22 4
432 670
41 545
344 254
174 561
143 502
484 78
384 635
164 144
633 448
508 278
748 427
204 33
789 583
223 276
193 256
484 374
574 84
39 660
500 661
86 107
383 55
316 730
231 198
485 167
298 481
324 368
596 434
164 333
364 515
596 159
617 368
163 706
290 196
732 322
762 701
600 85
699 382
545 274
425 637
273 577
753 12
300 226
84 141
612 617
268 206
149 600
432 268
670 385
256 184
351 13
342 163
472 281
154 203
597 573
256 736
118 643
61 225
720 620
435 39
650 118
11 341
458 388
265 13
358 682
553 312
9 30
563 436
237 444
554 457
416 53
767 194
653 124
336 702
555 11
645 695
720 768
276 275
30 401
380 353
433 99
5 523
661 561
3 84
731 214
780 791
153 507
35 83
678 648
658 187
630 164
384 154
641 162
592 762
336 712
762 219
312 3
528 542
706 14
115 664
201 344
719 546
401 470
443 470
148 131
795 131
699 185
550 579
211 764
245 458
616 268
714 98
309 131
545 544
769 200
64 731
592 695
198 668
431 362
423 399
321 21
439 242
85 591
28 98
445 655
5 787
737 30
701 608
208 504
115 793
376 681
153 589
91 545
226 743
515 745
3 758
469 407
323 218
310 324
29 191
684 350
222 774
508 190
312 14
683 441
256 313
87 577
322 698
196 542
456 660
699 46
495 346
668 19
638 482
296 698
371 15
293 359
784 288
732 450
496 373
420 313
372 301
370 785
308 30
350 72
487 358
628 43
439 493
179 519
131 564
253 689
430 490
23 640
590 174
631 521
15 367
545 619
57 314
93 224
276 741
695 267
450 301
583 266
645 62
150 795
390 680
287 612
119 509
500 534
17 535
77 624
69 130
324 541
331 484
338 743
388 513
411 497
732 661
22 7
682 723
452 443
688 407
541 756
570 174
639 14
443 537
675 284
140 560
795 564
228 592
75 470
311 621
788 661
364 324
429 197
338 753
38 444
610 113
660 789
82 654
413 317
384 99
782 29
235 481
146 352
422 117
545 16
707 298
161 774
443 456
546 597
768 438
169 162
489 773
82 336
552 364
5 377
623 147
135 274
272 64
15 301
406 380
98 136
143 235
552 226
730 57
95 557
592 206
306 316
131 18
158 729
568 269
712 194
351 564
8 700
95 535
504 655
416 140
274 200
632 190
591 48
348 265
441 689
384 100
794 270
45 155
372 576
471 314
793 524
224 422
355 623
722 185
184 226
542 118
607 4
668 583
360 466
637 764
458 545
368 337
476 416
537 96
230 362
208 191
534 75
625 718
555 520
450 690
602 173
370 26
381 393
62 473
200 361
323 111
66 276
144 741
437 763
528 102
148 384
336 504
447 83
706 243
101 402
200 599
606 756
669 194
588 570
423 234
591 13
343 331
79 481
122 414
689 552
242 623
557 206
442 227
18 170
310 82
60 228
56 13
250 301
108 560
537 610
300 674
305 654
367 450
574 660
782 60
472 743
503 436
465 485
297 28
334 511
314 316
196 210
679 116
131 240
21 454
451 636
343 268
521 150
356 408
767 740
327 541
599 161
50 209
30 67
542 141
157 33
362 519
420 691
511 583
774 157
207 229
539 276
771 10
406 300
478 353
403 153
574 600
360 115
670 596
375 582
290 608
427 766
513 314
743 99
145 484
168 131
484 341
703 424
532 4
367 151
228 588
444 266
693 420
247 64
125 542
191 731
706 167
424 261
297 131
289 618
11 602
75 241
495 472
361 330
420 519
703 484
252 493
35 516
698 196
370 184
581 227
412 85
49 655
370 397
381 628
550 219
372 202
345 756
521 234
63 757
290 7
458 250
734 184
5 579
192 221
568 212
280 599
514 682
319 153
211 722
176 471
255 360
586 40
297 9
631 461
293 140
469 140
558 203
307 131
182 652
381 509
348 228
743 230
545 574
525 226
41 554
675 521
373 792
393 256
257 665
68 232
634 642
194 321
639 607
626 373
39 386
228 552
167 456
432 279
206 719
777 70
787 272
93 266
706 101
24 793
510 131
432 406
485 688
42 171
545 101
639 300
232 527
177 723
21 698
782 86
368 355
355 625
413 212
644 746
247 634
582 790
597 149
709 592
706 359
432 400
174 310
447 268
163 337
198 163
10 38
14 157
795 308
631 636
341 306
782 322
172 164
577 616
728 680
54 685
639 734
132 607
267 636
349 2
107 292
709 291
124 598
588 472
405 736
724 195
683 373
223 392
787 694
109 717
554 382
349 557
90 83
102 84
405 451
663 704
620 625
425 72
359 447
784 651
463 441
487 414
202 309
344 554
266 433
22 20
238 695
83 40
206 267
559 785
114 624
360 567
222 152
419 691
438 490
690 103
153 785
423 557
552 571
654 319
206 764
652 784
145 403
756 124
470 187
758 366
177 391
224 703
674 79
655 523
334 95
346 515
784 308
599 587
410 229
510 732
635 633
686 535
512 687
400 45
162 206
67 152
694 28
664 442
300 597
324 621
492 39
509 706
398 407
282 507
269 289
487 301
117 655
503 111
92 534
37 632
90 232
584 670
363 116
31 34
621 600
768 22
244 49
480 518
112 542
452 441
216 289
158 137
28 54
771 162
743 508
99 52
87 235
305 786
616 432
602 281
230 785
774 14
195 113
365 794
20 773
732 614
555 154
395 521
83 65
52 654
273 69
698 730
759 344
162 370
141 457
675 519
158 3
158 52
438 231
795 726
602 216
317 80
418 142
567 648
329 152
747 278
158 99
774 654
393 767
87 214
543 172
591 47
654 458
753 235
364 281
41 451
281 250
520 601
316 748
740 25
539 457
701 196
179 47
689 74
568 83
528 84
444 228
122 79
326 559
434 310
312 635
498 370
300 268
552 319
7 280
668 545
19 228
755 124
238 111
527 422
184 312
258 44
676 698
221 337
481 670
434 393
583 220
545 628
518 20
728 682
53 466
160 290
681 418
133 337
429 91
653 767
372 776
460 209
671 390
31 408
299 746
676 135
567 198
717 96
579 174
433 359
38 261
701 631
397 131
702 772
579 308
245 786
187 210
347 92
174 771
221 635
76 754
319 730
782 292
660 326
703 539
107 302
380 413
43 85
701 24
569 517
503 518
750 434
518 482
14 241
433 177
15 373
127 784
545 653
251 632
296 537
27 152
757 699
612 560
734 203
785 743
452 445
247 523
599 268
149 9
330 439
580 686
716 109
359 252
87 466
405 443
322 86
206 731
777 110
786 427
732 219
426 761
635 334
554 160
215 177
90 98
719 372
579 586
693 187
481 746
356 604
205 443
230 600
597 33
756 547
471 546
220 261
619 355
483 620
99 122
363 190
265 740
512 611
658 131
86 557
633 355
694 401
401 396
50 481
572 620
226 402
99 388
257 715
122 660
341 316
157 93
99 329
266 39
763 235
8 615
611 209
719 39
433 512
109 132
314 211
769 747
141 316
48 307
446 500
678 518
415 286
439 213
107 757
602 635
200 553
226 423
391 694
84 660
93 789
402 152
474 503
156 585
110 714
654 446
628 747
772 709
485 507
766 22
600 364
542 579
762 791
678 225
680 214
433 221
306 247
580 627
73 7
503 414
660 707
494 185
582 784
212 246
111 153
312 154
304 787
43 293
456 710
451 243
652 282
92 405
746 39
731 768
92 592
660 592
268 364
138 382
148 592
492 64
413 219
724 441
2 483
187 286
556 401
119 68
649 211
698 413
718 461
721 634
159 608
283 589
109 519
209 147
764 667
452 777
225 373
489 455
694 748
722 200
795 3
141 571
149 67
405 370
257 563
156 373
12 160
196 28
439 752
216 620
750 641
374 504
597 433
500 211
730 256
343 158
45 594
713 444
132 269
567 203
449 375
390 496
487 54
456 189
401 794
611 296
536 642
624 619
698 164
249 734
359 635
77 119
90 785
229 268
13 660
71 306
314 355
406 277
557 667
432 238
167 746
375 483
661 647
194 717
147 675
414 329
74 595
476 5
774 120
334 230
652 719
318 579
74 12
269 780
353 364
270 323
773 795
394 541
268 539
125 444
91 619
325 698
490 243
120 83
465 14
413 520
588 100
319 98
516 710
119 157
474 419
313 675
716 473
409 38
224 483
722 68
748 178
567 621
668 76
333 689
151 512
226 367
39 80
548 461
203 345
724 256
577 250
157 158
469 528
773 609
133 225
543 633
323 690
5 629
75 410
537 774
355 147
665 223
334 464
125 203
648 762
599 367
519 178
334 234
489 196
670 779
789 158
28 546
389 456
601 367
178 326
141 519
63 235
373 84
179 583
670 414
176 1
621 347
290 343
627 391
683 498
393 153
7 40
767 120
331 616
94 49
346 198
274 490
68 399
539 554
370 621
91 668
355 84
660 548
453 85
382 353
1 53
632 29
162 72
207 96
141 715
717 120
169 619
719 355
559 443
184 746
634 602
753 70
451 437
744 504
344 135
789 455
24 202
593 571
706 184
751 701
693 362
113 787
458 667
693 435
116 65
795 554
311 273
259 319
153 276
774 636
720 141
756 86
314 541
67 362
70 82
362 495
569 563
297 3
174 761
652 305
464 532
162 43
196 364
173 153
188 577
1 312
535 101
324 243
602 499
554 196
48 22
768 28
660 359
558 355
229 408
724 554
141 195
607 215
611 69
75 769
660 697
11 631
341 62
372 14
226 570
747 768
669 671
178 79
554 63
34 333
279 483
759 131
460 713
727 262
406 262
201 334
554 280
116 28
36 401
390 288
490 2
222 196
382 503
120 226
435 184
157 206
589 648
154 202
125 459
141 212
209 746
668 157
687 773
91 98
747 658
225 174
372 603
534 495
471 379
495 527
134 743
144 290
66 790
325 743
542 492
259 286
774 136
122 697
204 410
401 624
262 474
354 556
85 297
137 301
236 524
496 202
702 698
278 142
423 333
250 660
496 73
582 33
151 484
43 120
305 227
721 100
661 322
536 565
33 635
225 463
149 81
492 4
450 702
149 592
382 228
190 456
739 130
294 209
155 507
546 741
570 70
625 371
163 281
736 730
371 496
311 201
169 133
403 13
237 494
239 556
552 193
636 226
503 582
82 670
173 690
736 211
203 661
347 772
183 747
168 80
154 149
185 244
209 49
655 493
284 579
615 601
785 734
8 557
281 273
232 91
73 497
355 12
512 452
116 279
160 80
85 546
154 795
68 608
334 255
723 310
534 577
352 589
213 121
444 106
721 702
364 99
322 528
216 701
264 582
226 101
558 421
313 314
593 231
368 150
388 658
619 124
476 246
154 100
107 225
162 314
472 258
659 332
14 794
344 274
331 158
173 477
697 322
208 85
130 150
774 569
338 434
109 326
730 3
607 574
295 528
130 282
154 353
621 753
447 519
133 333
480 403
157 395
522 771
681 791
607 245
319 502
237 635
393 174
533 700
719 631
795 167
370 600
164 649
483 401
366 30
785 714
364 384
407 8
527 345
606 90
753 245
706 493
637 490
451 508
727 474
716 359
718 567
221 224
582 502
371 755
528 478
207 237
699 85
175 200
64 482
321 189
180 666
237 460
68 253
355 217
699 120
634 670
276 722
775 375
560 126
618 524
177 322
529 480
74 407
222 705
470 213
235 138
753 434
337 406
519 196
289 292
639 451
325 311
114 474
570 222
448 423
54 655
167 393
29 103
74 753
386 247
728 330
597 397
611 324
444 731
356 322
713 327
230 607
273 203
497 18
310 11
456 164
743 29
294 258
728 455
507 71
196 100
230 409
310 144
432 548
333 367
278 333
50 318
153 323
319 440
739 732
85 83
184 162
234 654
300 460
650 561
609 489
676 124
364 660
315 337
206 252
227 173
233 790
154 670
168 314
5 348
30 573
157 595
296 79
782 775
602 583
221 545
382 789
478 113
136 59
372 427
486 302
306 723
686 564
471 459
676 128
741 739
200 144
169 374
80 215
83 776
713 235
756 37
164 601
540 544
243 678
607 447
761 455
539 701
63 3
71 676
670 380
529 613
599 308
768 147
155 71
104 177
153 413
628 154
154 107
757 219
150 14
540 57
655 439
767 701
576 511
209 616
252 177
517 502
628 81
625 779
294 262
445 432
301 121
87 99
763 447
548 300
393 272
129 174
143 331
686 638
183 580
559 313
15 703
50 413
143 163
228 331
745 129
94 346
592 596
27 184
715 153
14 90
115 204
763 285
160 193
119 466
226 532
459 176
611 306
261 177
312 518
434 534
120 179
425 431
215 131
788 387
33 547
140 150
127 635
555 716
348 74
217 650
674 129
773 771
353 569
518 473
563 86
143 206
776 472
769 508
320 266
115 261
617 691
231 561
373 553
413 435
128 390
222 203
695 90
434 641
234 677
616 293
50 449
427 548
727 165
148 762
19 694
340 647
284 732
439 623
420 722
675 754
777 660
603 487
259 730
702 63
285 409
438 563
210 397
159 120
119 764
244 320
746 316
546 219
769 443
211 245
39 754
593 162
681 767
91 603
577 697
473 253
230 154
405 574
162 750
562 634
520 67
635 38
3 131
484 517
621 131
750 79
701 739
370 228
129 503
177 458
76 753
6 24
628 134
313 174
397 12
250 219
294 130
571 384
768 512
558 622
138 145
355 393
721 636
9 210
210 250
26 675
273 458
377 265
153 568
284 534
580 329
693 742
421 408
767 195
769 543
593 364
28 311
571 204
393 261
159 500
463 734
767 750
54 117
174 402
660 771
268 272
308 83
503 96
416 351
698 198
341 776
617 505
373 371
671 419
141 483
320 6
580 469
118 521
18 430
14 452
774 305
401 661
314 179
66 227
382 486
48 51
745 68
703 714
307 545
151 542
200 508
586 615
500 168
599 62
226 510
161 140
173 589
313 471
743 222
345 154
219 661
720 224
779 310
28 372
382 586
152 239
219 166
305 528
777 375
262 185
497 184
204 129
25 514
194 259
594 628
20 366
131 583
164 771
437 444
683 443
652 790
617 536
111 107
385 635
571 556
392 403
70 188
433 298
713 157
359 641
86 686
427 177
131 609
731 426
192 337
37 316
761 190
137 643
775 731
601 766
601 539
546 779
313 763
667 775
728 690
287 401
685 603
50 31
187 120
766 500
439 769
368 225
130 284
417 665
495 477
661 14
743 564
283 484
636 314
196 736
310 446
85 730
718 386
763 129
99 675
51 530
460 174
22 494
676 637
369 768
400 234
187 184
217 363
179 224
398 330
746 774
308 411
720 512
539 689
137 187
450 229
426 472
507 6
124 328
271 192
687 732
433 132
455 720
187 161
667 688
310 754
398 199
119 681
160 82
147 660
337 768
392 5
637 466
311 484
305 466
543 542
203 426
502 220
444 661
262 759
314 9
495 515
131 546
239 190
706 471
57 689
454 55
359 325
521 753
724 116
177 70
600 267
611 85
620 116
666 656
545 149
384 388
279 179
463 445
698 9
372 361
486 18
624 656
307 194
695 353
304 316
182 514
614 194
232 453
579 219
51 327
174 78
400 671
707 634
334 513
178 121
125 521
724 600
79 456
679 370
416 104
164 533
792 387
252 744
236 649
490 725
8 192
595 714
310 533
696 746
140 701
397 267
333 528
246 641
631 157
763 724
761 719
372 378
238 147
746 599
93 650
154 195
252 184
673 528
57 675
759 356
692 472
85 12
353 450
79 100
30 518
272 623
210 435
247 686
685 482
616 211
774 745
548 375
97 139
288 15
163 597
162 460
677 128
30 674
452 91
422 400
164 522
443 600
739 734
353 245
100 584
633 579
148 389
647 784
459 627
706 209
101 483
621 452
211 553
523 544
470 365
785 445
165 189
512 57
786 334
495 386
541 145
620 664
407 555
502 744
284 406
493 91
79 357
699 273
500 750
109 626
458 402
43 159
598 507
377 46
715 241
222 343
539 448
776 296
543 453
429 75
259 445
322 629
626 96
126 781
28 734
728 201
422 596
271 407
161 93
193 313
194 14
787 480
205 231
165 331
84 628
237 697
137 80
70 109
347 90
297 77
637 274
482 448
122 276
141 683
723 437
790 516
108 336
206 445
282 545
565 35
75 121
411 368
336 285
12 131
697 745
460 472
243 11
211 517
72 552
389 337
95 483
87 734
61 657
548 335
165 342
141 344
206 345
450 779
131 306
769 277
98 327
608 729
211 496
265 764
160 202
146 749
98 473
338 99
529 648
26 736
572 302
193 3
275 115
472 90
784 199
745 732
178 721
692 623
597 210
164 489
694 624
67 230
374 784
668 245
437 564
626 586
407 196
30 65
678 507
310 454
69 150
118 600
232 300
75 390
380 184
30 626
400 545
164 739
537 685
748 762
235 371
497 236
263 604
698 102
234 91
250 343
179 517
599 194
136 380
383 5
236 335
592 150
579 140
331 215
571 793
212 771
277 515
487 252
35 208
599 766
472 761
621 441
683 717
101 698
90 234
147 231
596 72
399 162
498 789
245 97
519 568
482 135
84 761
393 731
158 93
709 353
360 656
373 152
294 377
192 607
301 693
506 264
665 56
140 165
731 639
367 758
262 372
164 211
184 313
578 680
670 635
463 407
266 567
101 697
688 758
144 24
503 600
463 429
320 115
626 463
353 661
23 699
324 296
144 723
197 431
43 453
590 699
223 604
377 50
764 24
268 91
390 69
218 543
370 261
542 463
456 35
346 131
328 301
75 407
639 448
109 789
414 426
79 453
141 739
735 634
78 742
391 726
131 202
153 690
766 753
379 397
148 750
331 205
227 224
763 607
424 336
374 173
148 99
539 774
743 379
238 114
143 192
196 326
626 311
654 366
448 225
40 756
645 61
618 560
47 378
402 359
393 645
54 637
111 389
30 50
528 739
244 455
562 143
206 743
673 776
238 237
561 250
519 746
746 314
350 436
160 137
671 680
528 417
280 33
503 712
61 201
10 732
792 133
621 456
771 430
233 262
323 706
741 608
732 494
374 401
192 769
402 83
655 634
355 326
128 375
767 539
282 681
267 746
522 743
18 40
328 483
175 769
561 310
24 284
739 381
151 443
694 502
322 791
705 682
220 290
85 262
715 438
577 784
654 588
276 779
176 87
374 768
689 747
536 582
167 522
703 115
642 212
427 69
471 620
581 345
284 154
230 250
494 750
308 346
688 248
11 504
660 736
721 148
100 559
605 374
280 723
707 258
140 600
679 68
325 741
27 583
414 724
471 524
542 519
650 63
443 539
422 3
17 136
372 450
119 624
48 408
243 669
428 30
740 73
638 1
466 764
371 597
613 8
29 95
396 698
301 739
151 703
594 516
162 286
98 66
456 406
79 669
112 54
49 17
716 554
732 731
82 343
62 407
660 732
658 443
307 452
269 102
246 67
104 34
134 701
674 302
420 80
730 208
558 518
401 685
198 616
502 104
132 82
208 33
306 244
206 208
91 219
22 775
188 297
684 117
519 730
278 356
390 447
513 746
570 771
574 184
479 242
151 296
773 21
208 316
706 423
647 203
266 554
164 484
534 148
114 138
208 106
502 244
730 388
450 336
243 695
213 365
520 746
63 446
286 517
481 660
493 458
278 173
351 635
295 22
725 722
475 128
75 509
333 698
420 732
466 18
543 524
144 327
757 589
608 325
324 281
171 354
508 280
439 359
624 412
439 6
406 21
471 624
660 730
212 133
72 510
660 407
113 253
203 490
413 215
338 93
345 534
518 528
21 564
458 267
9 730
41 571
352 16
30 568
652 744
116 178
28 717
765 727
300 84
218 652
510 168
728 415
457 683
628 590
763 115
82 537
119 565
592 234
747 294
435 93
103 201
147 74
380 301
117 551
164 732
119 116
545 539
450 208
367 446
65 641
115 266
38 401
149 310
718 241
111 315
597 697
228 554
785 187
464 413
124 137
90 135
96 483
568 31
241 515
545 284
567 500
196 346
143 583
92 660
793 106
716 345
766 718
541 784
324 67
200 543
654 211
260 145
552 331
259 229
143 266
179 717
236 222
434 406
746 4
180 207
45 481
632 611
443 441
178 313
224 664
769 180
191 753
409 744
307 320
115 280
494 756
210 294
28 22
220 379
489 716
