*Vertices 405
5 "#360"
256 "#190"
209 "#45"
149 "#110"
182 "#268"
401 "#310"
54 "#293"
353 "#30"
324 "#254"
311 "#179"
328 "#241"
326 "#341"
270 "#50"
101 "#229"
211 "#65"
268 "#132"
20 "#29"
47 "#186"
57 "#195"
346 "#74"
216 "#142"
312 "#158"
233 "#389"
74 "#105"
110 "#12"
321 "#226"
86 "#88"
397 "#270"
35 "#37"
108 "#33"
84 "#369"
40 "#210"
147 "#21"
177 "#344"
355 "#271"
26 "#300"
372 "#120"
13 "#285"
203 "#118"
261 "#224"
24 "#243"
279 "#345"
139 "#144"
365 "#15"
250 "#404"
145 "#35"
192 "#121"
29 "#172"
130 "#261"
62 "#354"
176 "#54"
148 "#276"
44 "#6"
97 "#309"
333 "#362"
150 "#84"
60 "#305"
34 "#63"
392 "#342"
301 "#288"
224 "#235"
210 "#197"
199 "#141"
65 "#257"
334 "#53"
49 "#387"
45 "#40"
33 "#208"
154 "#17"
388 "#77"
94 "#151"
190 "#275"
184 "#317"
266 "#279"
264 "#330"
225 "#382"
38 "#140"
354 "#16"
277 "#136"
95 "#359"
229 "#313"
172 "#99"
396 "#232"
394 "#47"
349 "#375"
105 "#289"
307 "#361"
280 "#126"
27 "#328"
87 "#378"
331 "#196"
46 "#10"
385 "#171"
15 "#109"
304 "#343"
196 "#388"
239 "#81"
226 "#127"
131 "#277"
98 "#352"
243 "#58"
180 "#62"
389 "#43"
317 "#116"
25 "#41"
72 "#106"
205 "#14"
297 "#207"
11 "#217"
50 "#339"
244 "#281"
71 "#168"
37 "#252"
358 "#347"
202 "#76"
41 "#133"
164 "#9"
213 "#64"
335 "#182"
181 "#49"
215 "#125"
169 "#225"
383 "#223"
263 "#219"
107 "#66"
132 "#314"
59 "#323"
115 "#4"
143 "#267"
230 "#374"
377 "#101"
135 "#20"
305 "#178"
286 "#46"
379 "#150"
151 "#262"
309 "#34"
185 "#166"
405 "#384"
241 "#138"
142 "#316"
186 "#401"
323 "#55"
14 "#336"
255 "#164"
376 "#291"
386 "#221"
287 "#260"
201 "#145"
127 "#299"
310 "#28"
144 "#358"
231 "#248"
345 "#250"
369 "#337"
240 "#266"
348 "#311"
173 "#36"
137 "#295"
80 "#13"
31 "#44"
336 "#130"
160 "#356"
52 "#308"
293 "#26"
273 "#11"
152 "#114"
300 "#206"
32 "#149"
284 "#321"
109 "#169"
70 "#239"
214 "#325"
157 "#292"
73 "#56"
4 "#244"
218 "#201"
212 "#242"
146 "#95"
138 "#111"
69 "#303"
43 "#346"
166 "#312"
292 "#188"
363 "#75"
189 "#367"
257 "#231"
357 "#393"
296 "#379"
274 "#247"
165 "#119"
93 "#278"
96 "#324"
9 "#25"
55 "#134"
275 "#72"
113 "#329"
320 "#211"
39 "#373"
119 "#269"
245 "#104"
193 "#70"
56 "#98"
390 "#1"
36 "#220"
251 "#176"
161 "#187"
359 "#383"
367 "#294"
303 "#18"
58 "#198"
253 "#240"
168 "#194"
6 "#212"
76 "#42"
217 "#370"
187 "#78"
195 "#284"
204 "#286"
341 "#326"
118 "#213"
269 "#200"
398 "#170"
306 "#403"
21 "#59"
78 "#296"
133 "#93"
162 "#160"
387 "#181"
1 "#381"
85 "#215"
171 "#94"
134 "#137"
178 "#184"
366 "#322"
223 "#115"
356 "#258"
322 "#156"
16 "#129"
234 "#214"
220 "#297"
90 "#135"
124 "#128"
319 "#112"
350 "#272"
238 "#80"
103 "#100"
158 "#152"
375 "#400"
252 "#73"
368 "#202"
384 "#351"
222 "#397"
347 "#376"
364 "#204"
402 "#0"
332 "#371"
247 "#255"
64 "#287"
373 "#307"
17 "#273"
219 "#191"
7 "#319"
51 "#83"
271 "#31"
106 "#327"
308 "#233"
339 "#161"
290 "#298"
23 "#251"
272 "#280"
262 "#222"
99 "#398"
81 "#139"
267 "#391"
42 "#146"
325 "#48"
68 "#113"
79 "#331"
285 "#162"
259 "#108"
12 "#390"
330 "#3"
380 "#349"
8 "#365"
381 "#364"
122 "#24"
343 "#159"
289 "#333"
221 "#264"
48 "#304"
153 "#27"
329 "#357"
242 "#122"
207 "#91"
179 "#8"
208 "#263"
156 "#23"
228 "#174"
200 "#60"
232 "#61"
316 "#283"
249 "#90"
136 "#82"
260 "#227"
19 "#394"
237 "#282"
276 "#92"
63 "#163"
128 "#228"
198 "#237"
18 "#68"
53 "#318"
140 "#51"
104 "#52"
351 "#103"
155 "#256"
141 "#102"
197 "#38"
114 "#402"
191 "#230"
183 "#218"
361 "#249"
246 "#238"
395 "#274"
362 "#338"
302 "#306"
337 "#67"
163 "#157"
159 "#372"
102 "#167"
314 "#147"
382 "#185"
393 "#7"
340 "#205"
28 "#392"
126 "#245"
352 "#350"
194 "#396"
278 "#87"
88 "#355"
315 "#203"
404 "#366"
129 "#117"
61 "#124"
391 "#189"
236 "#180"
338 "#148"
121 "#302"
399 "#320"
67 "#2"
100 "#301"
248 "#192"
254 "#39"
125 "#234"
403 "#5"
2 "#353"
371 "#290"
92 "#193"
374 "#332"
288 "#123"
294 "#265"
298 "#209"
283 "#335"
344 "#19"
318 "#368"
265 "#377"
77 "#22"
89 "#97"
30 "#259"
400 "#96"
342 "#85"
378 "#71"
281 "#348"
116 "#315"
295 "#153"
10 "#32"
235 "#380"
123 "#86"
75 "#177"
83 "#236"
282 "#395"
112 "#385"
188 "#334"
175 "#79"
117 "#399"
227 "#216"
170 "#107"
206 "#183"
167 "#253"
91 "#69"
82 "#199"
174 "#340"
111 "#131"
291 "#155"
299 "#57"
258 "#154"
66 "#386"
22 "#89"
360 "#175"
370 "#246"
3 "#173"
120 "#165"
327 "#363"
313 "#143"
*Edges
280 339
343 351
147 110
77 298
71 77
107 202
52 48
54 338
46 232
182 227
380 227
42 15
22 44
149 362
343 134
268 243
357 84
374 190
24 126
380 358
169 45
111 89
385 58
97 214
86 29
77 357
76 300
176 390
32 240
284 364
76 77
208 173
328 371
21 254
389 31
184 303
36 249
162 276
305 100
365 255
16 332
277 279
341 401
232 255
88 97
70 24
101 70
397 346
267 11
317 23
404 7
378 99
118 199
295 227
102 81
208 366
249 324
190 247
270 323
257 22
290 127
275 65
97 373
337 276
284 199
129 374
202 388
102 285
62 321
185 294
16 246
68 28
142 203
73 52
323 239
342 402
240 366
115 238
203 400
49 230
242 129
380 59
367 131
192 254
104 180
7 328
192 8
215 113
12 372
213 344
147 251
151 356
392 281
134 16
347 16
300 178
199 110
23 249
246 372
403 373
346 245
317 248
192 393
139 26
200 122
361 239
299 273
65 344
345 176
119 241
91 377
239 377
366 76
72 115
320 150
364 122
156 205
246 303
151 111
401 134
270 209
20 46
74 321
24 176
310 350
365 229
204 179
377 256
267 390
309 123
108 278
3 194
267 375
299 262
68 116
300 242
316 371
398 259
144 299
270 389
141 42
328 234
53 151
114 1
365 175
173 280
372 100
330 149
165 161
341 180
139 22
310 362
378 34
389 124
27 274
373 264
153 2
387 385
57 213
9 227
214 321
33 30
61 295
274 334
198 59
330 153
122 315
92 269
145 124
283 70
396 215
272 316
195 153
10 312
242 348
358 201
334 125
142 169
351 103
369 13
368 354
290 301
392 98
328 209
154 393
35 353
323 125
17 70
151 39
71 31
137 71
288 86
36 263
335 295
173 229
151 344
191 203
218 206
272 43
385 38
294 158
76 339
150 60
325 363
158 187
161 166
336 320
11 285
152 181
216 189
257 241
103 293
101 383
29 4
290 371
252 385
258 261
111 268
331 249
290 51
262 3
383 264
223 129
366 163
315 121
28 110
345 24
371 153
328 355
258 209
269 372
382 387
337 118
92 356
383 105
234 40
191 400
250 296
372 262
122 134
365 153
316 182
347 306
277 111
124 192
241 315
252 337
331 47
168 130
189 160
192 170
133 22
238 10
179 47
228 209
153 63
343 254
169 363
280 74
307 95
275 64
131 404
93 26
342 26
234 284
167 346
342 95
140 207
151 358
144 320
213 67
269 102
268 85
56 356
325 107
309 78
80 274
342 379
22 193
322 388
45 11
157 130
199 255
140 80
129 124
181 91
304 7
78 161
300 124
219 224
31 252
173 363
238 365
256 7
139 291
91 11
92 387
242 360
23 223
309 68
298 142
66 232
229 79
195 34
312 216
98 310
242 226
169 109
93 300
32 76
264 302
376 163
34 323
361 284
377 348
192 185
368 328
193 185
346 34
205 252
38 238
323 232
10 22
403 232
244 320
176 386
209 136
122 15
103 401
189 102
357 380
84 131
335 90
59 284
127 245
67 69
45 315
179 91
15 260
183 247
358 42
397 178
133 193
195 60
259 106
84 70
175 108
307 73
238 271
23 390
292 58
171 83
170 259
84 363
389 164
49 132
305 164
155 355
356 266
232 380
315 26
354 178
320 27
196 230
37 230
266 165
4 262
354 286
192 211
135 73
303 21
1 306
392 296
16 235
106 10
75 247
171 187
176 318
34 232
182 158
37 63
223 138
389 20
353 268
372 56
79 341
72 371
114 38
330 242
154 197
73 3
207 221
87 267
297 38
106 120
205 224
378 172
143 7
218 254
187 120
20 330
65 321
203 43
324 363
156 168
245 210
202 322
316 188
120 395
392 390
271 286
76 177
61 63
337 349
254 276
9 303
136 241
80 402
352 18
275 41
81 263
391 384
181 122
145 209
313 85
405 158
110 223
94 110
43 25
268 277
57 334
111 16
341 67
400 111
202 109
78 252
134 324
32 103
239 240
224 75
86 125
3 37
386 140
253 40
257 373
389 291
214 194
107 336
328 273
12 1
314 284
147 163
239 52
301 210
165 300
196 49
377 110
397 330
274 16
396 274
106 256
391 234
301 46
390 75
51 253
55 48
175 291
56 232
125 390
16 217
15 389
65 360
305 252
342 256
178 398
179 38
282 114
49 101
386 317
341 69
261 72
65 324
389 401
139 290
224 324
267 405
267 306
72 88
254 110
252 194
68 382
38 185
202 181
198 10
191 308
218 95
64 26
38 143
271 184
332 191
83 149
270 197
290 324
190 278
396 178
290 253
204 116
104 273
184 214
169 193
247 385
177 229
120 136
165 215
362 156
16 364
4 171
137 208
387 163
345 260
367 299
235 279
110 200
60 106
188 62
50 68
294 157
211 337
104 130
151 402
223 372
322 299
256 292
366 151
321 157
131 7
347 215
4 309
33 300
270 202
35 268
200 171
180 350
310 61
293 232
152 56
401 128
135 244
355 133
402 183
270 238
95 405
111 203
216 292
199 241
38 70
138 197
114 194
110 291
205 89
47 19
87 59
82 152
103 187
286 255
378 252
339 385
77 387
274 214
21 109
267 99
361 183
25 20
360 253
303 202
173 25
249 315
378 315
201 354
228 227
21 385
23 30
74 243
3 10
10 183
129 51
160 338
149 112
120 90
204 121
33 381
41 80
258 10
272 6
175 35
176 237
31 322
54 251
264 158
76 73
298 186
224 378
9 17
309 249
215 144
387 340
128 281
199 288
346 312
133 42
382 405
100 367
402 344
380 186
145 299
385 261
145 81
168 300
266 53
240 68
21 241
398 303
297 320
211 90
392 265
11 108
19 30
257 144
79 183
173 80
129 112
98 154
307 289
295 392
365 174
299 280
200 343
290 200
143 151
61 6
395 167
137 254
193 381
115 319
173 27
91 212
277 41
73 332
60 187
378 312
189 129
219 191
225 375
155 179
246 151
374 27
229 264
324 41
279 376
170 21
368 254
59 254
71 113
270 345
376 356
228 160
52 313
79 399
333 327
279 57
172 294
48 382
289 213
124 387
8 6
360 193
202 351
197 398
395 394
236 281
361 341
160 326
125 243
172 108
395 106
93 198
14 320
400 387
28 357
152 15
187 205
98 129
157 354
17 326
9 10
254 168
72 46
208 294
394 142
76 155
280 285
1 375
211 205
243 303
167 53
370 180
76 303
317 185
289 157
271 372
141 390
231 55
369 9
9 388
206 249
101 126
15 309
22 388
203 286
23 127
319 300
71 185
123 159
146 202
383 276
90 34
286 332
83 85
177 369
388 126
179 128
83 22
148 368
29 324
357 147
321 10
37 126
124 22
47 210
321 118
58 28
44 111
357 229
208 312
82 364
152 219
185 278
162 237
213 200
142 143
110 85
290 160
315 110
361 238
405 230
63 241
153 325
367 219
145 229
261 207
109 294
193 220
124 150
378 262
316 64
45 356
145 312
300 41
229 315
311 63
239 334
97 137
149 321
405 7
199 117
330 53
209 221
142 93
227 240
286 193
9 213
390 354
277 295
302 300
59 399
393 208
152 131
122 171
329 158
368 344
121 13
77 44
45 220
395 221
89 37
179 70
98 341
206 22
181 378
178 201
396 245
172 375
175 145
77 337
354 8
161 89
372 241
16 18
351 153
266 159
217 32
193 103
253 275
198 270
72 215
105 257
94 353
192 122
59 264
118 86
229 242
15 129
242 394
250 74
118 70
315 205
321 233
96 318
333 352
277 208
117 349
389 224
310 173
223 219
393 201
181 222
379 240
72 368
120 234
194 296
24 310
121 176
89 363
63 216
253 367
242 185
355 364
111 63
268 45
138 238
360 85
405 97
158 232
370 315
24 177
142 40
151 23
391 285
108 134
140 175
355 96
174 51
324 7
397 143
254 123
369 137
365 285
178 30
173 338
289 356
137 287
253 26
76 271
313 38
361 205
355 236
46 336
311 144
116 334
286 404
51 110
194 272
331 256
127 64
57 344
149 136
139 346
8 157
402 227
371 80
397 342
333 62
331 231
41 293
131 165
290 387
331 255
185 258
148 305
184 170
348 196
57 161
57 105
10 180
371 148
11 366
41 134
136 34
215 22
3 308
399 348
277 37
349 136
320 200
323 329
300 299
213 276
170 344
299 355
63 320
38 108
364 197
133 255
125 387
325 185
333 238
153 94
96 90
111 336
289 46
268 234
224 162
136 286
259 109
181 35
202 238
164 214
241 188
63 372
155 74
97 105
404 55
239 129
205 71
203 243
293 325
167 345
311 62
378 112
403 140
92 172
281 193
22 276
51 102
12 170
345 182
71 93
102 286
285 179
328 158
170 363
254 237
35 324
34 311
302 119
35 323
138 57
135 280
305 60
95 144
269 280
353 15
81 135
176 278
325 226
319 342
373 289
76 132
9 72
247 373
233 152
179 118
234 292
215 185
223 58
126 191
289 22
167 240
20 267
319 134
339 212
109 45
382 76
205 283
267 374
198 121
206 75
261 171
38 46
123 153
187 192
60 284
58 186
132 262
70 316
80 154
231 65
71 202
134 288
298 251
346 270
232 273
245 149
70 253
281 88
78 184
297 402
141 305
92 171
258 316
103 164
243 57
238 9
403 88
109 41
199 363
167 125
345 135
57 299
216 70
221 251
276 390
361 203
309 270
199 158
293 153
171 33
109 345
128 125
366 56
405 147
33 364
59 94
328 320
238 176
190 171
342 316
34 139
138 127
26 285
200 173
242 147
16 33
33 321
275 403
98 268
98 304
164 278
390 200
93 249
79 398
248 150
124 277
242 367
32 22
378 388
207 92
228 50
248 111
230 171
169 353
402 295
42 201
67 122
205 131
130 374
72 185
185 255
114 331
344 244
316 317
207 162
162 10
9 402
245 30
268 208
241 16
181 92
159 281
73 294
269 313
312 54
294 173
128 297
29 168
374 29
110 155
258 239
122 10
155 163
399 402
103 68
77 215
228 81
219 293
17 259
204 328
133 68
133 274
78 326
295 139
162 146
231 126
335 299
346 38
122 110
371 244
92 318
170 125
312 356
202 252
90 135
8 231
325 300
398 251
270 227
277 293
114 186
58 63
150 207
173 361
140 145
104 36
85 355
101 339
241 203
254 365
115 295
207 110
14 225
185 393
365 194
85 370
223 215
128 24
331 100
119 44
61 176
325 328
184 25
168 368
390 285
46 248
176 295
304 62
129 274
343 258
384 327
319 378
163 335
363 52
192 402
212 324
249 132
193 80
307 137
216 348
219 300
338 180
220 135
302 296
179 396
334 210
56 342
28 359
25 388
44 89
251 227
234 11
390 257
315 82
181 357
212 108
41 317
33 203
136 103
312 192
262 54
170 89
4 122
115 61
103 111
67 226
160 206
297 364
126 36
207 61
49 122
266 256
329 374
323 275
310 75
404 149
140 359
58 266
207 393
295 271
110 56
64 3
402 308
324 9
238 171
317 104
80 293
277 226
295 323
45 394
368 141
354 252
32 253
254 233
350 397
46 281
212 394
281 190
249 212
256 362
318 396
181 23
320 154
394 319
35 214
373 396
379 103
245 116
215 256
181 49
90 142
395 220
80 135
89 206
367 91
243 271
157 207
336 163
193 145
21 104
368 26
82 20
161 111
287 148
142 367
265 373
258 34
55 147
394 206
96 130
236 146
404 271
27 158
13 264
299 252
190 129
136 150
4 113
275 51
231 132
268 26
83 200
306 324
25 257
77 211
166 13
268 223
107 338
165 329
117 196
322 244
89 74
115 138
71 403
231 199
131 214
293 382
243 249
73 5
288 123
59 346
55 26
4 223
133 99
95 391
28 180
202 215
149 104
279 166
364 335
401 66
115 346
274 83
31 152
364 353
315 335
130 132
340 385
294 234
117 114
295 314
259 377
67 182
51 149
12 271
48 181
320 119
298 8
319 396
165 277
394 268
317 175
341 83
248 202
218 364
313 57
203 234
85 282
228 275
140 161
329 269
316 211
179 312
168 58
104 256
105 1
140 94
378 91
325 158
279 119
64 344
227 83
266 316
167 51
52 391
258 106
354 4
161 98
308 240
278 310
176 200
393 139
92 81
197 25
141 136
232 329
394 358
54 265
335 304
289 221
389 69
220 172
129 398
284 104
245 3
37 279
402 303
303 232
14 331
268 134
71 179
148 218
221 3
299 381
24 171
231 215
360 164
140 368
266 100
308 52
136 5
335 328
102 195
196 283
250 227
313 55
244 214
33 153
21 323
348 2
140 75
204 262
399 11
351 265
381 267
323 393
138 242
36 229
164 94
162 303
48 211
242 78
116 372
157 183
266 193
267 353
202 249
80 153
74 34
271 10
72 337
59 271
74 123
70 266
240 216
271 346
287 6
162 206
84 200
267 39
147 344
63 25
123 129
271 90
136 183
273 167
337 34
270 393
225 273
42 361
89 287
134 226
15 334
200 139
224 34
152 185
152 6
67 140
373 136
345 287
231 399
214 306
292 291
81 322
372 192
67 164
394 245
104 133
346 400
281 279
290 47
310 123
143 316
249 171
41 263
344 93
108 66
254 401
196 97
313 73
21 132
359 156
7 267
162 165
234 10
294 341
2 160
337 227
285 34
32 53
119 182
42 65
195 214
366 191
221 232
121 336
238 224
140 143
334 292
271 15
265 217
29 263
197 98
344 199
397 266
6 234
370 92
16 226
48 232
359 349
35 269
356 285
181 205
91 31
200 344
345 358
199 303
403 179
29 176
164 279
233 81
162 403
55 21
210 343
373 269
198 133
307 41
252 330
243 119
136 191
11 314
34 32
25 42
183 248
11 272
104 127
6 5
342 151
210 384
126 212
222 141
217 99
94 191
22 207
252 255
275 378
312 258
394 325
131 127
340 320
58 306
165 103
93 63
130 32
147 47
293 260
18 36
149 72
324 94
17 29
163 48
111 228
289 392
309 402
364 23
239 4
83 51
197 41
173 63
247 132
322 71
166 209
295 305
103 181
333 199
161 369
393 390
206 65
214 53
97 298
34 271
92 132
203 76
102 135
344 178
13 373
133 199
2 327
175 201
41 268
24 209
116 293
84 90
42 38
163 343
206 55
392 283
241 20
382 140
272 276
132 9
137 213
329 205
386 288
382 319
269 331
10 231
195 163
344 285
352 335
355 389
107 81
103 259
355 354
254 176
5 2
141 334
404 295
4 51
10 92
137 354
392 314
307 88
135 139
192 245
277 237
223 33
36 161
334 25
44 104
30 35
208 133
393 136
251 219
223 317
248 136
181 51
63 228
63 59
270 67
251 321
185 26
149 346
299 303
273 245
137 308
127 238
128 391
293 275
25 110
188 389
35 223
173 214
244 290
79 59
271 219
39 181
258 282
344 372
71 15
227 55
315 57
169 335
304 311
66 62
390 204
297 127
124 18
15 249
30 206
124 9
393 124
120 277
21 40
108 292
251 197
138 273
333 373
313 133
244 230
351 119
157 61
258 388
288 372
247 376
363 171
310 150
113 109
278 283
107 120
347 39
221 229
231 180
209 320
43 281
156 171
123 222
339 71
40 210
57 72
385 29
215 271
72 247
82 298
211 207
80 38
109 180
390 39
378 1
86 393
286 115
315 287
119 401
291 162
191 214
21 174
98 207
150 228
320 94
297 181
147 181
355 143
360 31
81 91
76 57
204 102
146 44
36 140
112 39
95 276
170 334
41 392
179 276
390 388
73 372
354 51
324 182
77 368
257 46
265 124
333 243
102 162
5 319
399 64
110 123
242 75
54 194
331 23
315 178
326 373
43 380
346 393
224 182
162 85
45 337
395 304
307 370
232 207
351 200
383 392
198 163
327 272
375 217
140 276
381 340
88 128
309 60
36 320
35 279
209 43
11 321
194 189
351 148
155 71
173 325
162 148
176 275
246 306
129 231
154 242
386 364
238 80
391 139
322 23
311 11
361 296
139 277
341 53
290 62
200 205
23 59
46 164
222 352
347 117
18 339
82 289
223 61
221 116
333 350
206 188
11 304
243 16
76 38
153 44
284 221
381 83
53 359
39 159
236 178
16 178
55 373
352 381
131 120
378 201
138 140
292 179
52 348
115 89
258 277
286 38
335 292
14 324
35 6
42 92
303 70
403 102
257 147
292 94
334 260
204 367
376 105
120 57
205 356
111 385
91 345
224 47
153 273
89 136
200 164
13 135
271 18
266 133
335 346
301 147
82 197
191 221
105 61
46 180
136 218
187 203
165 284
57 223
38 293
299 187
65 182
68 151
66 260
94 278
387 145
103 290
231 163
133 280
366 262
230 389
6 20
48 96
119 111
367 212
155 116
88 196
85 135
135 322
44 238
245 362
269 402
107 239
105 378
305 210
276 309
219 185
263 73
123 151
324 257
27 373
13 221
56 278
100 292
345 393
210 161
252 344
386 91
246 110
62 260
397 145
152 58
202 319
377 394
367 92
378 251
153 154
238 156
214 66
191 24
110 27
71 363
239 6
376 97
354 133
254 354
96 171
41 143
223 102
215 58
352 177
353 243
242 22
279 358
20 232
225 230
209 402
266 296
152 18
224 370
299 51
118 379
340 363
36 208
244 353
185 25
198 156
243 244
385 104
130 74
353 213
331 271
193 274
114 356
106 63
51 3
45 360
74 337
252 253
345 391
179 346
133 37
102 311
110 128
44 274
394 10
23 43
83 173
19 375
171 38
247 322
88 78
264 109
356 395
209 124
173 303
271 131
273 73
40 335
41 271
340 369
216 192
95 352
212 203
86 171
46 32
111 226
231 165
254 293
255 258
349 314
88 242
196 169
280 80
174 327
91 239
387 227
194 216
163 287
307 10
332 148
162 15
310 276
241 40
95 209
301 87
331 55
155 157
325 193
32 21
11 33
393 94
207 391
47 164
55 150
83 329
377 168
305 110
34 278
44 402
97 302
102 381
197 282
7 361
73 365
84 322
172 56
150 203
259 335
140 384
182 228
133 342
275 200
142 311
41 303
7 193
211 26
172 239
88 342
54 305
326 187
378 120
237 206
277 251
202 227
388 168
4 263
115 209
253 178
244 382
275 205
121 379
300 157
394 379
34 314
151 182
134 312
154 148
213 13
59 210
288 163
280 172
328 153
395 24
355 391
2 202
276 227
131 96
107 270
41 308
328 106
79 373
20 404
86 173
362 74
77 187
385 309
89 224
301 371
144 262
91 234
286 127
55 267
35 211
161 107
312 109
60 255
79 310
5 81
89 386
194 349
328 370
35 66
191 258
54 220
25 127
205 95
168 343
304 281
119 367
124 335
267 359
198 194
68 29
386 216
367 52
139 338
205 219
181 346
76 193
94 41
389 147
370 170
32 153
327 5
390 347
271 361
326 213
263 262
276 393
386 23
47 289
126 308
57 262
15 163
372 98
278 309
175 344
61 371
131 257
192 158
35 91
52 335
195 26
212 277
77 240
301 336
358 273
315 195
206 240
127 323
191 101
98 132
181 150
60 402
321 383
45 9
95 394
132 32
36 340
91 74
352 206
11 216
87 19
114 349
172 89
233 68
149 86
228 30
37 278
122 287
104 145
43 333
241 22
372 94
353 336
246 276
270 335
216 90
72 209
29 325
351 320
245 305
72 90
103 390
133 153
210 141
16 68
245 208
299 18
310 222
161 382
153 181
33 149
166 96
379 350
291 287
114 397
292 248
209 156
351 37
323 20
97 160
392 73
359 292
170 337
143 47
22 103
132 401
295 146
215 243
190 375
272 105
208 211
93 269
403 18
321 171
379 273
9 246
251 291
119 350
326 233
401 96
166 226
156 316
279 363
128 148
326 6
250 265
17 187
273 344
65 397
356 153
180 308
360 397
280 276
135 336
211 339
278 394
6 362
183 257
388 144
364 29
32 15
40 295
206 141
15 73
215 145
371 322
191 170
359 14
89 234
228 130
213 388
216 339
85 89
212 42
278 206
227 61
297 121
136 261
276 362
191 268
126 285
164 274
82 53
87 28
37 312
379 360
391 333
177 145
394 402
187 288
143 285
92 248
374 71
336 295
293 136
222 26
299 223
29 24
236 317
356 305
227 329
176 403
267 308
353 164
244 127
28 220
276 103
199 22
16 107
373 48
299 136
120 278
306 280
295 251
283 43
243 10
211 81
142 214
377 307
328 75
240 192
134 187
182 317
174 352
293 45
133 145
61 285
239 94
29 172
343 198
338 74
181 271
299 74
123 202
172 325
181 204
181 31
37 197
263 220
239 370
24 365
59 53
331 128
227 254
87 189
109 349
277 240
378 83
56 321
154 303
39 374
74 196
364 219
317 228
379 67
379 306
213 271
342 34
387 276
211 105
178 33
389 205
373 274
52 71
77 46
133 3
244 193
66 349
212 299
241 166
249 149
336 216
127 287
344 137
94 387
126 133
302 161
293 55
336 208
40 73
89 211
22 190
34 187
311 278
330 150
72 158
175 400
326 334
52 276
116 140
254 331
181 199
330 200
270 126
298 275
154 378
109 198
147 293
218 20
225 112
24 103
178 280
39 248
123 92
27 78
182 193
306 49
203 353
148 130
306 99
15 240
205 203
317 211
388 153
183 21
267 282
30 185
276 170
207 77
331 313
78 124
170 261
278 86
125 223
142 323
202 266
293 61
293 135
18 384
183 33
101 257
384 404
260 65
243 31
397 403
120 388
3 46
53 92
192 151
399 113
235 296
75 7
187 334
122 46
216 342
105 364
124 25
298 143
371 93
46 338
342 158
101 312
45 351
186 87
221 109
220 353
34 320
102 107
205 254
401 7
123 260
29 85
211 102
45 139
299 200
229 266
108 200
42 391
238 73
404 359
280 288
232 8
180 235
289 297
54 360
81 22
276 105
398 309
356 167
242 253
60 226
239 276
54 218
237 257
315 68
194 374
282 87
169 6
350 389
161 361
219 253
151 52
156 81
170 75
68 8
170 387
165 30
107 193
106 141
375 119
77 134
220 31
55 241
324 227
202 135
83 273
149 232
109 16
10 27
143 182
134 107
130 350
162 132
165 44
351 73
384 299
216 393
175 403
293 313
24 17
177 231
18 74
317 177
189 314
354 244
135 343
223 94
202 373
244 211
146 322
321 360
178 74
169 227
39 91
229 320
113 96
199 259
29 214
98 252
216 81
266 191
354 154
141 346
157 32
324 208
228 268
189 329
357 41
302 226
228 267
185 313
178 110
148 316
172 81
4 252
149 277
70 8
131 168
199 135
234 263
9 312
146 276
19 92
378 347
197 335
83 266
76 264
324 377
83 315
4 210
255 385
241 353
105 367
339 201
87 360
125 224
334 363
124 253
351 261
73 402
230 272
45 126
299 232
202 350
370 243
76 213
56 124
168 202
364 215
10 323
193 245
327 189
43 307
228 255
323 9
363 18
29 99
49 84
402 216
67 249
107 232
44 245
132 75
63 48
263 278
129 59
396 277
153 93
124 141
140 73
72 36
16 50
111 129
309 287
80 324
91 32
100 320
133 9
213 377
262 380
345 247
197 108
333 367
328 402
323 6
284 37
77 205
127 132
328 242
177 309
386 30
344 77
356 182
326 317
349 95
190 170
215 116
5 108
340 136
26 335
226 348
39 4
1 276
93 207
124 115
389 115
164 18
346 309
135 292
218 51
330 21
76 79
168 289
280 36
254 305
275 248
236 311
357 104
350 354
129 354
239 344
40 204
297 277
125 328
320 210
171 270
240 30
146 3
315 248
179 331
322 201
352 405
168 386
10 293
152 348
402 181
318 28
95 104
61 155
273 309
135 272
26 237
220 147
5 363
199 209
106 401
188 160
328 76
10 51
393 73
267 10
18 337
235 149
47 11
339 192
310 199
304 52
97 350
350 56
128 323
362 404
389 34
40 259
44 213
217 383
83 120
261 5
359 11
200 82
383 70
319 293
288 275
232 310
327 364
32 317
82 285
277 161
191 200
337 169
27 15
301 137
194 224
234 378
132 106
139 158
238 134
81 20
181 286
115 365
388 27
120 309
397 265
261 365
402 272
252 158
76 388
247 37
104 6
386 122
234 115
52 277
54 317
258 147
115 77
393 268
129 206
284 322
186 384
379 123
190 19
276 203
295 164
310 202
189 297
380 381
83 169
303 291
120 261
222 51
394 40
346 370
100 89
98 95
223 402
85 325
353 44
404 24
311 394
3 85
46 396
76 6
202 259
242 29
269 73
68 81
204 371
73 109
269 48
91 242
344 327
371 169
44 232
393 156
315 77
153 295
389 213
16 10
264 299
271 149
229 387
271 261
319 139
388 94
366 100
103 275
293 17
25 142
343 402
185 236
240 398
149 144
192 309
61 130
160 57
215 331
187 345
303 25
148 291
393 297
355 366
377 6
139 187
136 76
68 138
401 284
191 232
223 147
292 72
118 405
292 208
330 206
384 130
297 383
321 277
305 206
153 129
322 124
394 70
309 64
273 292
205 80
41 205
218 342
244 333
220 317
44 24
51 59
38 7
96 132
18 187
55 53
203 47
184 53
378 101
353 176
346 299
197 135
197 397
68 187
341 198
90 227
305 68
165 201
146 115
173 156
115 397
23 335
140 206
334 355
17 21
285 120
335 144
325 276
312 135
171 204
77 270
65 358
32 299
145 233
256 113
11 237
69 366
236 210
120 341
374 184
183 55
22 240
30 246
209 108
319 148
392 381
269 353
364 52
173 136
236 325
323 115
123 156
189 343
133 270
325 299
220 199
83 192
223 288
346 30
358 231
73 17
398 151
140 272
76 287
197 20
176 211
302 402
206 220
5 29
172 376
386 143
369 312
283 98
298 223
179 60
303 215
304 2
358 36
99 42
355 345
236 89
204 157
6 350
343 372
331 71
80 34
158 120
117 203
18 272
197 185
201 197
335 75
267 29
368 42
312 131
157 267
345 272
319 236
74 372
80 232
207 181
267 28
336 145
5 300
46 80
193 311
169 320
80 281
324 300
18 91
73 184
314 390
337 225
238 323
134 394
382 294
176 147
129 78
393 48
366 312
177 248
18 192
76 65
311 179
219 194
250 170
112 357
334 382
161 86
209 197
10 75
325 209
298 185
108 258
198 13
166 302
58 270
287 350
171 16
232 400
180 170
365 111
162 398
107 237
361 228
384 333
223 283
306 148
24 51
28 19
116 289
375 61
80 190
280 31
137 303
53 219
17 181
374 55
16 139
279 16
398 34
342 323
342 18
156 380
237 116
181 76
136 20
73 102
356 329
299 377
208 83
115 133
348 276
250 349
400 80
26 275
277 61
85 30
16 354
107 139
238 343
138 72
13 308
334 242
338 151
344 125
24 390
212 400
312 342
381 361
72 136
100 157
129 179
80 323
75 249
170 316
249 180
192 25
330 356
72 287
200 21
105 131
170 301
309 9
263 404
393 89
394 312
108 268
242 395
62 236
226 129
160 363
331 259
25 370
347 89
284 327
391 22
147 153
386 24
387 31
198 36
223 276
364 239
212 83
54 64
173 20
117 74
377 288
156 21
389 404
111 164
287 220
89 251
139 31
238 33
187 42
20 351
89 379
273 34
167 363
64 45
57 23
6 165
208 193
61 300
392 356
219 373
355 45
135 231
122 9
195 371
93 183
295 168
257 318
117 52
176 126
145 134
149 317
38 354
226 395
177 392
249 336
216 246
193 354
359 344
276 119
360 18
350 286
311 391
166 47
146 154
89 41
220 86
152 317
193 9
324 247
47 158
237 157
7 34
286 58
17 215
192 266
40 136
119 294
80 262
63 344
370 274
354 295
161 33
174 8
86 209
383 227
258 20
41 200
70 320
182 113
209 377
100 111
1 99
370 44
118 111
376 8
80 202
36 308
135 313
65 192
1 107
60 245
76 92
131 112
98 3
338 342
292 285
29 169
377 103
128 154
333 343
122 77
125 219
379 150
139 83
365 363
22 287
173 354
300 301
396 191
32 148
214 141
354 64
31 41
373 110
41 40
354 248
234 172
328 51
160 295
82 303
6 32
172 219
319 154
223 330
335 25
109 162
261 320
197 140
372 58
224 90
206 103
402 332
160 43
7 41
84 247
21 34
269 137
363 242
367 318
244 238
286 215
260 83
338 64
255 292
283 106
364 152
70 336
93 324
259 113
40 272
104 330
4 70
97 53
350 225
383 377
181 241
385 215
115 364
145 29
133 135
326 159
72 317
284 116
264 58
362 352
3 211
243 7
259 1
242 72
165 219
302 23
249 379
303 110
102 262
300 390
285 287
155 142
31 290
397 276
152 20
92 378
71 197
198 32
39 393
80 149
346 74
131 53
34 173
76 182
309 374
294 77
185 180
40 161
203 266
57 130
83 312
337 262
385 123
37 151
32 224
309 242
226 256
244 65
79 268
370 142
317 246
71 151
223 308
164 29
118 258
336 187
251 15
313 221
142 94
23 325
288 133
253 375
139 165
166 16
162 396
169 223
253 245
236 116
280 15
141 184
367 171
357 342
403 63
134 27
212 155
360 269
318 117
87 347
133 139
390 246
129 317
346 67
311 274
100 13
4 67
178 388
357 405
403 382
179 89
341 295
127 264
387 131
71 295
190 396
344 34
400 23
246 268
365 80
329 375
243 394
60 185
108 102
198 200
120 356
81 35
131 379
249 205
104 120
127 160
260 75
325 355
136 262
277 219
312 132
223 123
401 286
106 70
397 77
24 83
188 216
239 286
259 88
286 9
258 274
66 191
109 256
111 81
404 67
79 117
372 184
109 290
378 247
180 252
108 139
9 162
238 342
260 303
365 149
244 158
309 53
308 111
81 231
333 68
42 161
86 331
185 231
228 277
67 31
32 386
241 158
129 176
82 193
61 200
132 301
300 314
51 249
123 275
273 45
114 366
224 280
120 171
211 238
278 169
37 121
239 51
97 150
76 141
377 275
146 150
61 268
297 263
172 299
343 288
386 274
223 67
78 3
259 182
354 330
185 245
360 40
203 26
238 221
156 176
150 293
54 329
287 390
65 337
155 119
313 361
365 74
179 24
72 173
269 234
310 115
108 181
292 162
15 293
207 119
368 356
94 295
260 63
314 207
146 248
46 259
247 255
219 192
268 322
293 303
165 37
97 113
24 125
53 189
54 128
108 238
336 391
135 52
290 94
94 277
73 342
157 102
222 349
156 354
97 269
256 365
243 55
171 207
242 211
259 400
174 380
135 301
69 178
161 63
360 361
394 276
226 136
283 163
312 191
236 100
35 46
226 222
237 172
396 36
354 164
165 372
337 126
30 155
309 21
171 90
245 209
193 273
302 137
334 150
122 303
156 275
199 212
190 376
148 289
107 210
317 273
55 386
106 27
112 347
54 236
223 74
182 148
346 176
192 394
62 253
206 376
78 201
121 365
91 141
351 42
272 137
35 12
209 180
146 249
291 232
9 91
339 46
135 162
172 276
372 163
337 338
156 84
388 152
140 251
383 86
344 141
121 377
285 91
24 328
258 71
178 262
192 152
299 75
340 228
35 317
211 346
175 197
273 270
41 124
393 267
293 165
3 77
108 231
74 388
25 68
45 320
147 180
78 343
121 96
334 281
133 55
258 93
324 195
308 228
197 52
55 90
11 220
380 98
74 236
219 308
230 99
83 176
342 271
21 140
238 41
205 92
77 403
195 105
216 80
210 70
3 141
321 64
158 140
303 147
33 276
27 82
38 255
121 286
110 16
322 61
63 170
402 93
136 55
327 10
372 31
367 368
198 379
393 271
254 81
219 368
249 25
263 151
4 224
247 321
101 176
333 263
109 110
179 107
190 342
307 5
282 368
132 191
1 222
75 292
33 114
318 219
145 210
190 234
278 383
164 73
141 35
252 102
170 226
285 8
42 110
3 337
140 279
248 164
207 6
37 261
129 215
195 63
306 375
102 141
303 242
164 292
340 146
355 153
261 211
42 269
218 275
337 254
65 202
354 70
255 390
140 154
304 74
300 92
106 352
211 153
197 288
209 220
374 302
37 288
398 3
92 201
400 16
81 124
215 199
403 402
288 63
73 134
197 114
265 370
299 33
33 201
187 314
355 5
380 62
371 395
206 90
177 301
260 16
286 184
202 192
161 340
371 190
400 139
4 74
166 359
180 296
251 350
163 259
16 209
334 347
390 111
300 126
291 308
21 360
276 165
297 239
48 402
116 211
341 132
41 102
94 35
226 305
333 183
187 124
56 116
175 268
325 104
211 264
31 83
271 389
178 37
218 244
405 234
19 84
111 199
30 198
70 69
310 116
285 330
149 95
324 112
293 372
172 215
405 102
208 143
203 59
283 257
209 10
336 325
31 278
394 146
305 156
72 20
266 376
77 180
127 253
354 99
170 388
204 207
80 209
363 384
182 361
285 33
207 266
310 55
183 134
402 10
227 396
394 322
43 404
41 313
236 68
249 320
147 338
285 237
31 402
123 182
185 81
5 70
67 390
369 70
286 238
183 332
171 127
216 294
132 172
359 403
104 71
150 156
155 204
242 58
9 86
99 243
9 387
359 34
394 88
95 26
294 72
210 251
315 131
141 303
218 366
155 301
247 238
205 147
379 2
80 45
247 205
212 362
104 251
7 325
146 204
332 114
316 121
157 371
376 54
245 76
99 39
115 335
382 345
61 23
269 240
6 31
179 244
258 278
135 210
388 272
31 202
20 394
141 283
97 59
103 110
1 246
274 101
176 131
289 79
176 299
242 181
239 92
136 297
324 107
223 325
282 377
403 295
98 22
175 206
283 72
340 317
243 213
281 87
297 321
244 246
397 13
42 295
313 286
328 136
307 14
80 145
374 53
369 14
13 127
338 166
355 271
322 391
187 277
336 223
289 163
130 303
232 384
362 116
240 138
130 257
372 160
356 91
196 347
364 235
53 132
86 388
239 41
262 391
302 195
63 364
90 299
67 73
147 89
287 130
386 350
276 154
351 400
213 179
188 173
23 285
111 177
73 352
178 108
369 134
271 163
351 403
403 51
153 141
166 320
8 198
364 212
354 181
42 238
36 61
45 343
38 356
154 176
220 309
140 391
133 205
352 25
142 289
388 35
365 27
200 134
199 319
173 31
115 325
71 235
330 10
193 255
171 140
179 405
104 53
172 368
33 336
393 309
199 228
322 156
388 209
203 313
60 104
32 273
345 149
160 159
328 149
132 219
308 31
139 94
94 227
11 116
123 122
264 286
44 319
94 229
123 226
143 92
403 70
52 47
320 395
329 50
292 299
7 310
304 404
210 279
106 175
354 115
7 364
241 56
369 144
327 87
86 287
239 293
76 18
193 100
296 349
68 317
312 36
138 94
295 67
269 382
72 191
293 294
116 288
14 36
91 15
398 157
359 168
313 405
195 201
192 38
394 160
71 70
150 20
237 154
172 361
399 375
343 381
345 298
147 378
395 17
135 303
212 112
121 54
171 131
278 119
205 228
72 383
243 150
208 76
153 110
267 336
381 358
364 366
17 178
130 76
291 109
190 127
26 334
354 55
377 182
294 111
15 315
236 262
311 354
198 21
383 358
263 398
336 37
39 69
106 366
340 282
2 191
80 9
182 241
300 264
96 71
95 216
153 180
53 163
209 168
392 174
226 184
37 195
76 365
192 88
259 100
284 136
207 84
342 239
11 123
358 263
225 196
20 187
176 373
70 63
98 239
82 146
180 115
32 135
310 132
303 89
191 75
298 262
385 303
360 11
296 118
26 148
216 346
61 203
293 72
277 18
298 72
370 202
60 222
110 273
260 200
162 101
228 302
85 45
400 293
65 354
403 41
376 195
378 140
35 126
323 131
244 370
211 388
278 41
91 154
248 348
377 386
290 247
224 24
334 216
5 384
103 45
155 31
264 210
31 4
9 317
377 293
291 183
268 141
9 30
202 103
402 390
251 101
368 227
38 391
299 107
108 91
164 20
351 391
199 243
394 389
57 379
365 193
4 310
325 205
318 163
110 107
309 172
34 33
56 236
135 337
240 249
384 43
81 44
102 328
270 265
112 88
368 99
73 199
142 317
383 134
210 157
367 304
249 373
115 309
29 37
139 261
13 289
319 193
213 356
383 125
314 280
125 251
197 63
165 80
221 263
211 10
127 97
225 99
130 30
219 107
79 284
197 101
119 68
226 149
334 309
340 16
260 25
158 285
152 257
338 351
160 173
193 310
263 92
135 138
89 125
147 211
226 106
325 110
146 294
332 364
377 146
193 201
328 198
219 339
286 195
77 103
51 212
289 113
156 76
10 207
360 207
293 203
199 211
363 209
390 389
24 199
367 402
122 119
266 327
300 75
263 374
290 403
228 342
379 210
338 205
128 101
370 277
47 277
387 144
65 201
280 3
168 93
234 262
46 102
20 236
62 381
77 83
188 385
82 187
103 336
397 44
138 334
246 396
144 227
340 405
390 31
253 218
290 144
54 131
67 139
213 93
384 144
10 202
324 323
346 303
248 87
157 376
140 342
275 136
388 398
123 154
18 232
21 165
178 22
209 8
4 186
222 159
404 333
331 82
347 165
159 265
155 362
199 242
79 54
342 276
102 374
136 123
323 311
266 93
213 21
395 336
48 298
70 342
276 136
83 251
218 348
268 155
111 237
404 32
345 189
106 241
332 330
230 273
363 112
274 356
363 241
81 257
7 195
74 342
223 15
330 239
295 175
315 10
387 305
211 50
121 22
227 400
331 202
397 256
81 45
81 306
135 213
138 173
338 314
305 251
111 162
313 364
200 317
239 175
169 329
358 5
278 20
124 224
268 178
38 134
390 334
280 64
349 1
86 330
189 126
41 310
318 191
263 33
143 153
208 52
86 358
383 245
23 321
41 61
108 57
270 261
25 297
154 126
104 148
283 110
208 153
337 25
211 255
313 224
7 4
273 220
105 153
226 175
123 72
58 348
128 284
156 152
265 307
81 96
248 192
129 178
143 391
401 17
268 50
294 20
72 85
288 238
191 115
134 66
337 205
205 103
197 61
351 192
346 275
135 356
324 354
277 131
80 226
227 128
251 69
21 383
378 258
77 261
210 280
128 199
368 126
123 140
364 139
77 153
243 372
346 123
296 111
319 178
226 119
115 201
69 317
83 393
395 65
297 167
286 153
392 279
120 361
250 62
364 379
25 46
175 238
300 254
14 214
370 369
327 213
72 245
77 394
364 94
24 226
331 198
392 192
337 256
122 351
137 73
45 214
377 385
389 251
335 309
370 89
62 100
194 347
70 259
358 307
311 383
336 317
242 237
356 271
326 79
301 127
276 312
141 292
198 253
103 72
328 364
35 158
189 289
68 238
92 350
403 198
368 76
338 35
267 357
400 136
241 29
147 154
142 377
230 149
313 301
351 50
403 262
333 173
42 313
388 116
323 317
213 260
149 244
122 47
86 313
98 198
286 135
195 237
123 63
130 51
211 326
223 306
104 302
50 25
333 381
253 187
139 51
64 190
386 101
85 402
59 69
3 183
273 374
281 360
155 240
61 165
361 395
337 202
168 132
363 227
302 229
95 43
175 156
403 67
399 337
68 288
267 9
393 18
259 134
347 217
345 300
134 112
85 393
74 291
59 220
90 16
312 153
354 343
94 81
159 403
321 109
156 303
133 187
211 234
132 273
276 207
281 242
275 226
216 310
91 207
118 210
376 171
254 340
361 100
213 119
202 377
116 331
269 71
110 337
376 262
129 139
19 371
297 394
402 266
277 372
119 284
368 156
141 302
169 59
367 74
322 118
116 27
251 167
259 121
277 29
334 360
196 349
291 8
110 18
89 140
315 174
95 253
46 365
74 343
385 281
342 185
360 293
104 285
344 232
189 58
173 130
38 337
114 191
346 110
335 204
147 280
109 273
98 342
56 329
262 321
154 403
30 308
226 298
18 324
389 92
368 202
312 80
324 200
210 287
86 405
276 91
248 62
332 118
223 365
8 13
78 358
176 205
119 272
203 330
18 78
85 10
257 246
310 313
65 219
170 347
311 160
222 12
63 68
30 111
131 123
368 31
288 392
385 175
105 214
209 165
309 138
78 301
282 92
144 128
276 343
385 316
252 225
272 48
85 215
365 280
147 229
297 228
106 12
106 81
402 356
1 186
31 122
206 42
238 372
315 35
64 196
205 271
394 346
336 251
256 3
17 355
336 236
216 68
129 309
132 89
81 30
251 57
336 117
381 296
47 130
108 249
25 10
102 163
32 207
253 115
71 116
310 176
261 291
134 325
360 187
91 397
62 98
288 338
16 98
221 23
5 283
198 215
354 211
293 35
201 146
248 304
205 158
270 286
111 158
297 201
11 302
299 93
113 69
86 8
85 8
170 138
351 241
185 390
129 195
227 121
248 20
365 102
41 323
311 342
80 337
21 31
90 52
22 172
149 319
401 322
288 184
12 305
336 119
216 181
348 48
230 63
259 310
208 289
246 324
209 297
105 35
387 191
145 264
22 30
108 389
391 9
97 289
223 371
350 403
105 219
271 139
135 223
243 275
336 257
342 252
351 135
141 46
282 194
92 308
89 216
119 258
338 79
217 47
160 353
334 140
365 217
344 346
246 128
132 306
91 232
7 91
94 16
261 209
342 15
145 142
310 248
286 132
187 378
339 333
127 198
273 342
367 178
328 213
190 131
51 226
203 130
368 298
383 157
42 172
239 243
80 294
43 201
3 182
249 122
161 217
88 167
135 127
382 41
153 60
213 199
170 28
220 272
20 307
28 377
187 354
70 224
67 337
234 14
26 133
251 276
337 56
177 250
176 389
69 208
92 168
14 245
92 211
104 153
29 268
50 379
313 53
142 306
73 216
103 368
332 1
10 300
216 258
348 56
276 116
148 51
31 132
214 172
367 395
228 348
373 302
161 5
217 12
120 72
301 27
9 159
346 57
156 221
5 249
81 241
399 250
378 27
377 252
310 261
20 86
166 185
284 166
164 45
172 131
51 325
175 150
254 212
174 109
31 45
334 198
25 273
322 25
173 339
157 379
402 213
164 86
391 133
82 397
263 186
155 136
130 215
233 161
261 87
331 110
405 26
207 179
22 38
352 399
48 86
112 349
300 46
371 279
48 113
73 327
209 135
197 382
186 349
214 233
113 132
120 102
385 239
345 57
51 301
7 114
275 11
316 179
301 275
44 207
234 299
353 383
353 38
80 255
227 256
178 205
44 233
286 342
125 150
141 337
59 231
217 247
133 192
229 245
26 144
132 375
101 166
243 29
273 314
215 147
120 223
82 257
362 179
167 277
209 21
229 397
363 351
265 275
170 351
290 262
113 163
9 294
48 69
232 121
165 290
48 389
264 400
84 87
319 374
42 259
42 169
310 140
220 254
229 51
286 42
210 394
169 185
201 199
56 389
372 33
106 320
101 281
149 152
32 243
370 231
61 314
304 95
65 111
264 96
271 77
107 176
117 19
74 175
276 86
180 35
45 202
291 347
175 363
138 395
77 383
394 280
358 85
56 33
178 75
21 239
259 309
369 50
318 236
80 289
71 73
35 31
370 70
226 323
131 2
51 15
196 357
264 282
51 280
178 402
209 200
341 374
181 136
226 73
57 308
259 80
147 238
188 177
363 108
402 108
89 198
325 200
290 226
397 255
337 264
3 26
65 80
242 118
303 124
228 353
184 229
346 248
145 323
286 298
9 108
162 172
344 319
42 104
259 245
248 187
273 223
3 115
168 57
180 286
199 271
291 208
149 61
115 296
187 280
39 257
275 261
398 283
175 395
165 340
217 398
141 242
11 103
71 253
326 347
107 230
123 380
67 376
86 305
72 75
150 145
56 42
128 20
231 183
263 283
238 352
54 76
304 183
314 313
275 289
106 379
333 127
214 154
393 344
136 330
273 145
207 394
278 402
297 227
337 156
369 291
167 147
286 276
206 329
119 37
380 277
278 268
236 103
345 244
140 200
330 297
56 9
21 386
143 139
67 325
269 197
363 10
241 263
132 245
305 261
104 254
31 198
214 387
102 348
354 86
24 25
143 118
388 278
261 219
86 248
75 175
278 199
68 234
110 236
323 363
157 320
366 41
140 129
189 283
387 316
56 160
322 379
276 29
72 221
212 345
245 172
35 362
77 345
196 113
91 56
238 212
100 371
368 161
147 273
29 200
123 205
247 262
156 388
196 15
251 385
300 382
14 251
171 400
48 300
68 45
170 174
201 7
183 24
92 147
30 171
297 385
299 293
315 275
359 49
163 202
310 201
397 187
153 150
387 129
299 365
90 231
391 57
365 45
382 97
30 266
325 181
120 314
270 398
109 323
368 345
323 215
18 6
292 350
319 260
2 307
315 89
257 118
159 66
249 140
40 341
51 53
400 179
216 199
333 24
166 52
89 378
133 363
241 242
351 15
262 297
252 311
351 2
272 331
295 185
89 289
332 19
248 96
219 311
117 12
137 352
309 145
222 194
228 123
146 223
21 44
199 156
361 385
270 274
39 300
374 334
221 272
130 376
338 391
41 83
10 135
45 323
280 305
255 382
215 287
359 351
274 387
198 92
266 164
87 296
246 149
55 274
109 251
58 111
232 110
62 89
120 337
84 294
307 333
400 150
298 45
126 321
344 66
235 92
76 22
188 152
187 155
392 267
37 270
270 402
294 286
266 27
159 330
33 339
108 34
345 334
321 386
35 222
6 252
308 389
323 299
401 383
298 222
391 339
128 17
9 237
282 299
238 110
34 212
135 164
166 168
170 69
179 215
220 60
55 205
270 160
160 362
376 65
328 92
264 374
141 156
324 197
243 344
220 341
366 368
346 12
340 236
194 357
403 390
152 338
288 34
278 229
129 152
58 172
287 161
91 277
336 161
344 360
44 389
300 179
390 129
247 361
180 291
286 107
239 31
276 73
202 35
311 47
269 300
351 141
100 190
129 266
400 174
34 343
205 67
106 305
215 326
300 94
325 91
241 14
49 235
338 319
128 120
115 91
38 164
182 388
151 210
115 129
64 122
257 150
336 266
317 128
125 361
198 268
333 253
162 364
10 103
387 343
38 158
303 104
47 334
353 80
228 110
210 176
385 207
361 192
67 252
163 382
88 233
331 238
74 110
270 400
375 58
381 41
195 4
358 46
29 264
123 36
169 347
292 315
327 50
197 299
255 85
362 322
309 105
198 75
305 82
186 282
201 336
3 202
132 140
387 93
86 360
111 205
106 214
138 203
241 171
15 25
314 158
14 356
385 221
44 88
248 343
267 233
345 11
175 246
327 145
70 262
62 338
15 48
122 299
48 220
320 189
353 21
113 218
226 200
165 86
178 240
154 81
140 315
268 309
193 392
258 102
350 61
187 111
219 195
209 73
99 168
379 218
312 262
40 149
206 228
33 215
107 147
193 402
111 215
71 332
227 237
298 44
44 178
309 175
385 102
168 109
231 198
29 322
150 9
255 395
60 399
310 23
384 247
178 368
201 220
169 44
76 278
198 374
110 393
365 207
163 8
138 274
101 133
10 76
258 122
137 89
42 193
51 8
48 274
211 111
369 249
207 76
402 103
41 120
73 91
315 52
199 134
336 76
58 228
265 247
351 376
391 168
288 244
173 375
348 223
158 339
128 83
140 11
31 102
97 166
345 402
132 300
390 74
104 402
313 71
381 376
25 311
373 343
68 76
362 40
126 277
252 108
143 126
216 321
354 72
36 379
65 350
369 362
296 357
277 253
375 176
111 67
390 135
120 245
108 403
153 15
196 1
42 277
193 36
389 201
108 293
397 75
183 258
103 64
373 73
379 288
116 341
154 254
378 87
354 47
330 334
107 105
44 251
334 48
240 356
330 143
233 221
119 157
395 133
183 292
385 208
395 266
136 344
75 320
149 116
119 312
176 173
253 173
102 134
330 81
298 203
69 367
321 152
363 389
370 105
151 270
25 149
276 351
94 48
386 398
216 315
166 212
330 273
117 332
198 62
31 236
358 7
264 107
182 308
149 389
220 214
212 72
23 98
224 320
114 228
58 240
140 285
279 381
347 357
166 356
330 178
376 265
224 332
323 381
182 201
137 314
85 70
83 404
200 331
38 252
30 249
15 209
10 42
276 202
404 296
180 20
184 190
258 247
123 76
151 309
105 127
335 138
118 213
56 271
251 344
44 363
320 147
257 140
293 349
141 103
118 278
387 269
321 58
46 273
94 313
261 323
35 403
327 187
45 22
347 99
379 44
216 34
245 115
388 162
79 95
270 343
63 223
246 59
17 203
130 291
272 170
220 215
271 17
393 248
374 344
157 245
211 351
11 352
89 153
66 169
223 141
393 46
326 166
303 286
336 64
335 205
125 389
251 113
336 58
315 106
152 325
103 199
257 199
244 54
211 41
183 203
81 342
322 51
207 123
401 63
22 73
387 271
65 56
35 245
322 80
396 28
133 241
175 138
316 399
169 173
115 42
272 313
268 86
335 334
185 346
263 158
366 356
55 135
357 313
221 73
298 334
374 48
148 33
338 91
206 373
342 202
46 274
47 13
125 61
228 23
302 364
249 197
100 64
200 56
364 18
248 55
81 162
257 64
82 92
353 3
40 165
329 381
302 348
98 371
164 34
292 161
343 120
181 102
364 201
143 215
353 34
287 395
106 193
144 228
136 93
285 43
236 170
382 219
126 331
68 293
367 192
316 54
31 46
150 166
268 314
41 390
92 335
262 81
82 232
202 129
337 273
87 130
201 38
60 177
369 31
317 262
118 40
34 47
315 387
34 291
260 292
308 396
192 373
330 99
343 397
175 220
278 201
129 6
364 133
143 314
46 174
242 249
241 175
309 35
213 340
260 118
243 304
218 53
218 150
52 93
78 213
124 375
54 15
15 101
145 242
124 23
361 83
79 292
293 16
389 169
31 33
371 202
201 103
259 371
127 377
162 245
145 82
263 228
359 254
389 228
71 270
92 271
45 354
288 228
54 368
387 202
22 339
402 365
13 305
233 222
34 270
382 354
58 103
126 3
277 209
180 200
303 326
254 115
283 204
89 319
307 232
403 345
14 350
247 293
290 291
292 47
55 11
240 260
156 331
373 142
95 384
330 383
113 139
50 312
156 154
66 248
161 74
194 53
316 247
129 31
259 215
304 257
112 120
202 209
107 207
193 177
5 71
107 175
90 22
351 173
386 316
134 303
211 232
270 83
58 389
129 213
108 153
140 78
236 243
124 46
310 240
127 81
129 145
214 319
269 22
61 326
221 298
292 15
111 70
42 394
9 73
297 141
252 162
221 76
307 311
309 79
314 170
186 347
327 397
394 165
360 71
153 172
31 34
234 247
88 143
278 163
138 79
159 114
249 378
56 55
187 130
80 380
199 265
173 167
299 331
54 275
283 377
151 327
288 25
204 152
46 323
306 230
207 43
209 55
245 326
314 263
86 106
261 253
215 82
206 8
273 389
90 275
402 211
92 178
240 74
149 209
274 120
199 30
73 121
79 393
22 312
54 122
123 375
134 61
364 346
366 362
262 238
169 152
273 213
140 295
116 93
192 395
192 123
263 145
147 298
346 378
333 126
154 204
238 275
258 179
101 293
35 242
174 354
24 93
162 288
185 1
355 183
37 245
30 181
242 351
78 195
320 58
180 255
333 57
341 36
404 8
89 227
389 310
176 180
324 168
152 108
211 157
256 119
109 43
44 332
175 228
220 100
143 162
4 343
163 232
109 288
351 110
145 337
227 262
251 152
353 156
21 69
119 65
208 234
243 80
391 288
31 164
51 258
173 201
286 68
121 203
255 293
293 31
364 273
67 340
248 353
97 93
405 264
254 146
77 236
36 24
108 286
241 238
220 223
208 167
287 323
143 200
259 161
26 163
10 35
61 391
26 182
386 105
270 8
55 138
332 273
177 197
258 227
145 271
8 379
147 109
238 18
60 388
18 89
370 35
77 248
354 402
187 305
165 403
1 282
23 250
260 54
127 285
153 375
393 45
153 210
61 271
295 91
108 242
358 87
81 285
394 321
337 22
153 4
347 135
288 361
131 86
184 264
142 391
362 235
26 71
275 334
311 285
29 254
72 181
51 317
222 375
197 314
76 145
293 206
109 102
344 51
389 193
113 53
268 206
292 328
185 280
139 167
155 356
372 45
24 283
85 207
55 339
286 265
54 328
141 385
207 398
138 248
293 110
338 144
75 236
367 209
362 279
56 268
209 253
83 161
136 273
302 27
126 18
30 138
373 106
31 48
382 391
252 164
285 312
268 52
94 308
215 337
143 5
145 314
260 286
282 109
235 155
13 220
231 344
232 206
364 80
264 50
73 202
253 172
30 221
367 185
398 352
270 200
310 171
356 23
344 150
2 403
221 255
330 278
205 359
163 175
76 85
237 197
203 228
328 134
389 165
215 73
35 136
226 124
5 48
403 287
185 123
53 399
139 382
393 70
353 294
57 132
253 342
123 251
299 52
208 331
62 207
314 209
300 368
335 336
39 77
107 320
370 197
232 352
248 336
215 51
35 212
310 269
26 34
180 353
293 146
274 93
268 122
218 73
123 30
259 295
44 390
292 317
83 223
158 256
71 268
95 22
273 150
344 176
74 59
29 136
395 268
306 296
258 232
265 299
181 229
368 92
75 305
378 303
211 215
255 155
172 99
379 16
126 361
49 87
279 370
326 256
83 147
46 154
280 41
271 386
286 187
274 253
397 192
269 124
387 327
280 324
289 118
238 205
81 82
209 218
223 91
195 190
344 208
140 150
55 382
160 304
289 121
135 394
323 400
300 36
270 287
29 351
46 167
32 355
168 329
282 107
271 334
321 173
221 65
287 45
115 137
346 396
32 156
280 354
16 321
159 282
353 77
290 148
12 405
46 333
381 243
140 205
77 176
297 401
172 252
266 292
275 44
147 246
394 61
373 298
386 323
110 363
56 343
36 175
254 216
275 31
403 109
241 292
354 116
115 28
232 10
368 269
10 401
293 257
228 276
276 270
283 327
193 187
107 389
93 100
241 18
3 218
261 347
244 327
193 393
210 230
57 123
91 308
12 71
359 250
115 221
156 20
187 218
193 207
337 344
321 228
114 357
256 379
388 339
394 239
167 255
36 321
57 286
46 144
130 345
86 203
311 71
385 24
85 235
179 232
4 103
246 6
340 313
207 248
190 386
3 215
299 108
248 147
337 379
304 154
176 169
403 309
156 288
18 41
40 107
336 246
231 374
149 199
298 312
134 70
233 367
51 353
104 292
153 68
193 195
59 398
294 356
33 25
154 134
234 37
299 115
222 275
315 391
277 287
181 73
256 262
153 23
339 153
172 33
196 222
86 85
157 247
15 390
263 285
330 388
376 39
30 76
347 168
309 219
165 89
40 169
248 376
108 173
18 161
23 212
368 331
109 280
203 115
203 336
332 295
236 342
265 282
12 243
355 252
141 273
173 402
195 31
156 149
134 63
385 184
386 336
158 295
222 235
399 245
170 110
164 382
139 213
150 211
228 403
381 145
253 107
324 126
27 60
178 351
368 79
32 163
89 354
277 325
211 336
238 31
311 396
197 213
213 218
85 143
118 314
336 225
316 41
83 157
48 100
45 226
362 327
152 118
128 387
34 67
126 274
384 297
29 56
156 52
74 168
255 226
122 12
95 365
272 49
29 119
125 317
123 307
75 30
223 388
23 76
325 348
328 224
86 342
76 304
220 205
90 144
169 33
95 392
184 124
333 55
227 286
85 234
258 193
106 257
335 229
257 338
219 380
345 100
382 131
323 339
282 155
291 293
364 20
33 139
93 11
284 276
393 147
393 303
396 364
259 393
249 76
237 341
286 397
252 345
10 181
323 297
168 277
109 342
78 104
241 8
141 369
31 157
238 313
234 287
385 223
328 124
228 315
308 220
256 80
287 46
24 134
186 126
116 16
373 330
323 334
258 330
103 113
296 375
57 179
218 251
385 10
361 356
299 25
55 137
78 272
154 152
10 331
55 311
74 146
310 218
41 82
55 47
346 227
97 79
158 170
205 66
254 325
160 232
271 193
264 402
270 10
325 243
158 92
28 217
119 264
191 179
352 160
203 67
180 243
238 101
351 140
213 140
125 400
38 200
385 205
44 270
178 199
162 80
317 75
383 335
354 170
185 7
27 229
217 10
168 167
173 270
219 218
154 20
291 120
46 47
29 38
356 37
206 395
321 206
170 245
34 330
146 311
8 329
240 344
358 135
38 6
296 176
61 364
16 73
178 226
9 255
306 282
165 263
206 239
70 83
108 161
167 274
318 33
398 114
377 53
120 173
21 256
279 307
223 211
226 394
278 145
241 129
345 153
161 130
314 299
351 86
47 362
248 26
151 241
287 31
263 343
91 127
404 319
223 377
158 104
198 165
341 88
8 322
93 14
171 134
23 208
295 243
321 166
405 62
324 294
328 13
76 202
10 41
129 368
314 393
273 325
383 41
184 22
77 67
296 74
275 302
227 379
57 261
339 378
107 63
209 97
192 173
146 388
130 128
211 25
246 389
9 107
72 224
339 25
32 275
117 215
157 55
124 400
365 60
187 15
405 144
249 168
311 210
353 223
129 315
279 333
115 273
218 246
264 90
274 57
242 103
27 370
365 44
210 129
253 8
369 339
234 111
156 334
21 38
355 395
3 236
134 101
73 234
11 201
101 185
277 298
259 256
235 112
128 205
213 109
249 173
124 341
116 270
205 402
385 271
184 244
377 326
122 131
104 339
161 271
361 319
363 154
228 15
66 326
308 29
275 299
23 131
260 4
282 405
18 118
393 173
145 212
64 151
228 379
256 209
17 182
273 163
253 403
185 109
55 15
134 292
309 261
61 255
183 263
216 354
205 1
366 34
205 179
288 396
353 330
36 211
7 399
388 215
109 216
162 312
324 61
293 22
33 253
156 249
146 338
207 389
203 196
144 189
115 272
268 252
242 397
164 325
188 283
171 398
386 383
182 100
395 324
225 11
98 147
356 343
238 300
160 177
250 282
46 89
52 302
322 243
101 385
325 390
364 6
115 109
236 45
54 401
335 266
355 56
114 36
190 71
176 25
252 251
133 299
219 74
311 273
241 4
139 240
92 275
190 308
16 388
343 405
124 386
74 288
245 290
387 201
339 2
176 203
358 220
229 125
100 119
123 286
63 71
217 137
385 78
77 61
17 300
167 238
367 376
16 28
43 340
9 218
263 144
132 166
255 291
7 231
322 85
63 119
173 399
316 137
247 105
402 312
21 130
18 95
125 78
30 118
30 32
295 281
379 175
249 74
339 102
85 152
15 120
69 47
236 35
33 388
134 397
311 347
373 63
387 294
342 141
206 391
74 287
122 378
134 336
346 21
25 141
35 89
315 323
163 378
110 206
92 29
211 260
170 325
242 254
267 138
254 273
253 299
328 367
57 260
38 341
209 51
270 118
185 223
139 188
323 310
57 368
283 88
396 251
275 193
98 177
228 232
124 268
20 179
176 22
401 357
3 19
45 363
126 144
337 311
209 58
46 109
238 34
166 193
368 218
255 335
247 379
274 78
68 208
266 171
170 243
59 290
291 398
179 74
366 220
403 238
33 231
32 270
272 199
92 51
346 61
67 206
379 162
45 35
80 241
60 301
385 105
345 89
377 56
32 205
5 174
379 276
73 330
70 295
394 315
28 369
181 213
110 58
255 117
193 46
399 302
175 136
338 182
68 372
240 320
76 286
347 2
89 342
90 351
351 80
133 339
8 264
136 325
156 155
111 64
202 153
135 371
68 206
307 302
26 212
173 51
361 104
77 113
90 149
121 16
206 298
224 237
25 179
128 102
25 294
335 167
394 235
51 285
231 85
25 310
154 170
221 189
271 25
95 8
158 377
47 335
135 153
112 222
223 175
212 216
300 78
164 309
372 215
45 36
56 57
155 4
256 370
360 231
345 227
67 238
187 337
208 20
75 349
60 116
177 307
313 213
94 298
308 35
31 311
109 303
249 354
291 269
219 150
188 258
403 173
16 91
181 339
209 175
308 212
48 158
217 296
227 261
136 115
259 363
113 199
204 26
237 265
249 245
110 322
181 398
94 177
41 68
49 222
134 214
249 22
211 353
33 320
31 8
388 47
265 383
278 384
324 55
208 235
360 20
212 13
258 242
394 181
105 356
54 389
239 310
211 305
58 61
93 335
355 61
170 311
294 205
85 57
301 75
182 139
177 380
262 7
330 387
43 62
44 351
206 111
241 33
92 11
298 166
252 395
31 353
57 367
110 133
354 247
203 356
313 260
110 72
378 135
86 202
347 248
197 88
97 284
31 89
77 203
42 124
386 87
102 263
152 351
323 291
182 161
238 149
23 300
144 326
185 277
325 346
61 156
309 207
32 245
249 131
388 183
382 60
34 394
91 335
75 353
184 80
22 270
8 358
218 249
270 243
88 43
323 197
116 329
154 258
381 249
244 272
279 350
12 268
46 303
316 25
218 126
279 326
22 330
29 208
373 132
197 259
123 91
325 46
155 266
243 223
243 287
155 311
331 388
390 170
84 336
30 242
128 343
275 116
207 8
3 149
28 270
390 273
340 339
390 320
382 357
240 355
257 361
279 188
173 226
61 55
296 242
77 171
311 156
315 169
338 42
261 187
340 108
21 115
401 180
106 398
358 332
231 336
215 80
45 128
99 223
85 305
137 162
83 243
237 274
57 265
301 376
317 259
256 161
129 249
49 129
55 211
260 120
272 44
192 201
96 320
118 4
339 359
79 140
46 344
174 37
49 233
129 211
266 331
310 90
386 58
56 206
158 62
97 163
46 252
213 156
108 260
124 223
402 134
63 79
238 359
259 278
46 190
232 77
273 275
34 230
342 28
321 103
345 169
212 224
38 111
177 174
155 47
281 201
149 338
133 160
309 200
290 189
317 165
353 249
337 117
211 248
20 178
159 124
71 103
335 86
104 207
89 321
315 203
57 20
375 349
115 73
324 217
239 219
139 255
249 330
90 325
331 322
376 75
257 262
359 87
242 77
199 340
7 48
308 345
338 362
339 370
311 2
111 320
166 69
8 2
121 47
189 8
342 234
240 20
360 51
19 91
104 364
40 81
313 33
100 341
377 101
360 110
342 377
356 211
362 105
67 38
154 244
123 178
308 205
216 363
211 254
25 147
391 156
146 107
192 89
318 349
61 18
155 15
387 75
379 33
25 284
200 382
272 301
335 206
237 134
52 262
123 393
134 330
213 270
311 338
295 41
68 13
192 320
196 352
149 18
81 336
12 39
349 36
146 313
261 41
46 88
134 232
293 91
132 70
16 168
109 368
51 251
71 299
396 260
25 290
111 389
270 15
330 188
367 351
179 85
299 194
57 67
283 171
344 353
325 162
87 222
140 173
389 22
322 276
207 299
206 200
19 1
393 141
226 103
270 30
64 258
181 273
286 10
302 33
192 10
365 298
48 292
4 270
312 165
174 381
309 386
120 27
107 361
57 69
303 352
129 212
33 134
200 24
224 403
238 170
25 354
56 351
215 140
124 59
379 139
46 26
395 375
246 168
316 242
343 29
92 289
182 393
204 244
274 21
351 113
112 206
88 24
215 356
389 237
198 18
276 49
96 116
313 365
380 385
31 262
180 34
50 54
147 133
236 245
273 244
275 252
39 349
309 106
325 330
202 70
387 172
54 298
163 55
351 364
246 53
29 57
125 308
75 51
211 400
81 143
22 140
379 246
35 127
309 67
150 279
352 14
9 67
133 136
32 184
168 330
25 344
245 264
209 371
343 162
350 64
222 133
165 301
174 404
249 269
57 351
254 351
351 224
104 108
393 336
271 7
41 371
18 60
130 254
303 152
334 80
252 91
65 27
16 215
241 377
279 50
184 305
35 25
199 150
200 179
366 142
200 193
65 347
253 325
323 65
368 371
241 334
32 238
26 52
193 301
330 402
133 368
378 22
272 109
80 111
293 73
104 197
196 7
3 311
206 62
191 128
142 69
232 86
373 229
181 317
333 196
32 358
185 103
376 182
310 31
64 220
81 122
54 216
154 86
11 164
170 345
338 354
278 340
17 104
280 385
147 337
96 142
264 71
153 268
222 28
16 3
213 80
223 244
271 53
179 354
346 214
361 45
269 250
29 105
101 146
195 191
361 128
330 130
74 397
77 213
109 18
220 382
80 394
118 13
202 223
90 71
208 402
273 17
158 9
389 372
196 325
326 327
347 1
169 397
6 210
228 187
240 130
131 163
305 29
178 312
44 235
133 66
311 72
179 288
294 228
80 218
80 389
216 32
363 77
336 193
92 141
321 367
312 149
74 105
353 147
351 205
84 259
271 97
31 80
2 43
397 93
173 330
79 216
209 248
238 328
93 189
343 173
392 403
401 358
158 374
255 245
92 161
233 28
322 270
269 322
72 291
146 149
46 211
402 133
368 393
386 261
226 92
154 33
43 392
147 194
21 86
9 329
280 372
299 227
4 126
74 108
343 378
24 20
403 254
179 397
382 251
152 292
362 129
107 271
235 117
292 45
111 218
122 172
124 176
301 189
25 278
22 271
399 204
86 130
252 87
178 365
215 156
353 63
309 354
26 13
339 148
313 199
42 76
183 67
245 213
226 230
376 324
231 197
212 246
199 10
177 370
84 271
138 26
173 206
123 285
255 109
137 294
287 312
236 380
41 361
109 387
12 94
107 173
28 250
204 301
226 361
147 135
251 215
373 105
142 81
284 183
296 269
13 195
146 328
80 69
104 248
341 362
271 192
311 21
320 77
137 195
34 354
180 251
121 33
155 395
240 211
130 355
216 278
377 201
382 218
37 130
394 149
219 122
145 241
403 300
281 369
169 86
241 342
101 258
319 172
355 125
325 310
219 157
33 94
236 41
121 375
38 137
131 50
385 244
38 348
196 95
204 383
40 100
378 245
211 53
360 36
63 45
197 90
298 115
369 49
35 145
353 256
386 164
58 162
211 287
35 290
303 103
377 381
16 6
241 126
400 258
20 384
280 111
153 337
216 123
232 170
73 388
217 156
17 47
206 236
251 75
127 26
54 259
395 382
26 254
320 319
399 276
273 137
238 76
396 13
345 219
107 172
252 107
63 305
351 234
92 67
193 211
61 280
222 117
63 147
193 203
372 228
3 151
80 6
215 387
254 127
57 45
304 333
15 82
57 128
246 395
73 311
165 398
233 66
22 365
187 376
74 389
81 25
250 257
71 161
11 239
247 30
190 253
397 136
236 307
387 56
129 298
198 203
275 394
203 141
94 199
336 245
326 380
111 255
332 312
9 94
3 357
316 404
229 323
369 252
277 201
194 171
280 334
71 255
44 278
94 240
150 44
320 389
164 151
175 181
92 374
7 198
268 399
51 187
326 183
198 201
91 316
186 230
112 375
148 354
248 271
37 55
178 305
213 309
223 400
154 26
370 236
311 167
122 44
10 33
371 29
8 380
215 273
165 297
191 111
277 115
93 215
165 265
130 122
79 224
390 213
161 370
29 223
339 99
385 210
202 382
204 305
75 99
67 243
269 57
165 138
127 272
133 360
394 305
93 334
223 271
273 190
22 223
256 22
212 312
315 126
340 154
121 293
276 163
326 379
313 47
122 118
245 41
141 319
397 124
97 38
356 260
339 169
270 170
143 16
8 194
223 240
147 288
37 168
78 175
273 65
344 21
107 171
218 90
181 208
359 225
109 76
158 402
254 308
277 255
299 209
309 253
132 83
164 312
133 323
372 345
229 366
118 230
44 94
151 362
267 312
379 328
152 130
298 292
7 100
85 295
195 272
115 363
14 248
393 93
227 316
29 194
207 240
389 104
385 148
86 111
193 25
249 134
213 154
117 80
38 308
103 345
124 363
86 347
100 79
268 205
350 157
229 232
179 104
170 74
228 201
29 146
110 163
286 325
167 15
80 67
128 212
382 147
315 219
13 82
92 314
13 334
173 365
187 273
36 33
361 252
140 45
359 133
402 179
275 76
348 327
13 386
199 162
212 153
106 264
354 379
310 361
38 62
24 196
64 173
106 97
287 365
120 55
113 300
323 110
251 228
314 130
157 72
24 76
396 86
22 122
176 46
202 115
205 280
203 277
81 16
180 238
66 293
387 146
292 9
85 118
