Vertices 405
142 "#257"
137 "#274"
350 "#85"
223 "#196"
144 "#61"
118 "#268"
379 "#341"
150 "#219"
43 "#26"
268 "#197"
176 "#301"
272 "#62"
213 "#126"
141 "#376"
130 "#237"
72 "#116"
181 "#266"
172 "#198"
146 "#155"
388 "#384"
384 "#214"
104 "#308"
336 "#136"
217 "#135"
301 "#267"
117 "#283"
12 "#350"
167 "#91"
13 "#224"
202 "#8"
376 "#90"
66 "#138"
147 "#89"
74 "#248"
375 "#295"
149 "#211"
395 "#263"
347 "#245"
369 "#221"
328 "#244"
20 "#25"
42 "#289"
297 "#105"
204 "#335"
69 "#205"
77 "#251"
363 "#23"
124 "#351"
247 "#100"
18 "#218"
161 "#353"
243 "#80"
330 "#72"
6 "#158"
47 "#316"
11 "#180"
214 "#256"
73 "#179"
186 "#298"
68 "#330"
84 "#154"
229 "#261"
200 "#24"
169 "#178"
122 "#313"
112 "#284"
220 "#77"
94 "#127"
155 "#21"
226 "#228"
334 "#63"
159 "#199"
359 "#327"
139 "#27"
115 "#275"
46 "#293"
346 "#241"
367 "#84"
397 "#70"
352 "#249"
102 "#98"
105 "#29"
325 "#69"
195 "#66"
111 "#157"
129 "#67"
399 "#0"
394 "#346"
60 "#373"
251 "#115"
177 "#68"
307 "#144"
275 "#11"
151 "#75"
54 "#367"
224 "#104"
372 "#282"
278 "#276"
90 "#348"
383 "#73"
23 "#161"
282 "#252"
299 "#186"
366 "#120"
269 "#114"
405 "#312"
34 "#88"
183 "#102"
192 "#325"
4 "#204"
215 "#182"
288 "#35"
201 "#106"
238 "#254"
58 "#31"
365 "#76"
209 "#273"
305 "#195"
106 "#260"
97 "#57"
353 "#243"
17 "#97"
101 "#108"
356 "#250"
59 "#319"
56 "#320"
88 "#270"
45 "#200"
152 "#375"
246 "#317"
400 "#59"
320 "#111"
311 "#226"
242 "#232"
279 "#202"
289 "#356"
3 "#40"
345 "#12"
49 "#162"
355 "#281"
174 "#150"
21 "#177"
402 "#311"
82 "#188"
245 "#269"
36 "#344"
48 "#46"
50 "#338"
208 "#143"
154 "#322"
16 "#184"
260 "#141"
85 "#225"
389 "#324"
306 "#305"
237 "#380"
302 "#139"
79 "#142"
187 "#28"
206 "#117"
31 "#355"
53 "#299"
120 "#213"
386 "#297"
324 "#51"
78 "#396"
138 "#279"
349 "#240"
171 "#239"
323 "#193"
24 "#334"
109 "#107"
41 "#189"
374 "#93"
277 "#191"
259 "#246"
188 "#314"
191 "#170"
157 "#2"
287 "#14"
233 "#368"
338 "#285"
95 "#19"
64 "#38"
401 "#369"
235 "#74"
284 "#151"
15 "#288"
156 "#203"
93 "#294"
86 "#209"
92 "#71"
29 "#371"
103 "#332"
230 "#13"
63 "#230"
364 "#217"
199 "#53"
28 "#304"
212 "#163"
39 "#122"
87 "#37"
61 "#215"
89 "#128"
163 "#118"
267 "#187"
198 "#366"
344 "#378"
234 "#134"
273 "#39"
308 "#9"
319 "#169"
107 "#83"
133 "#363"
228 "#402"
357 "#165"
318 "#172"
244 "#201"
126 "#315"
185 "#17"
232 "#238"
91 "#255"
314 "#303"
290 "#22"
248 "#156"
26 "#42"
180 "#87"
108 "#33"
231 "#272"
135 "#48"
134 "#167"
1 "#153"
390 "#133"
131 "#229"
358 "#36"
221 "#99"
132 "#145"
136 "#337"
121 "#124"
333 "#171"
295 "#343"
403 "#140"
326 "#292"
241 "#401"
113 "#81"
189 "#223"
343 "#296"
335 "#387"
175 "#64"
337 "#393"
257 "#236"
211 "#173"
140 "#300"
100 "#271"
153 "#291"
398 "#82"
207 "#392"
387 "#372"
303 "#185"
178 "#152"
404 "#349"
5 "#47"
296 "#277"
264 "#92"
385 "#358"
332 "#56"
25 "#286"
98 "#364"
14 "#10"
327 "#101"
179 "#227"
7 "#207"
219 "#166"
368 "#362"
57 "#78"
80 "#307"
362 "#331"
148 "#65"
218 "#41"
22 "#403"
81 "#318"
51 "#359"
360 "#16"
373 "#112"
239 "#242"
341 "#399"
291 "#365"
263 "#110"
123 "#278"
294 "#383"
8 "#400"
253 "#262"
210 "#290"
119 "#95"
313 "#370"
312 "#194"
281 "#265"
9 "#86"
340 "#390"
70 "#220"
173 "#20"
392 "#394"
110 "#374"
262 "#32"
83 "#328"
44 "#287"
222 "#149"
194 "#404"
30 "#52"
322 "#210"
321 "#183"
280 "#342"
19 "#397"
197 "#3"
293 "#130"
236 "#50"
377 "#129"
348 "#192"
261 "#235"
254 "#336"
285 "#231"
351 "#212"
33 "#1"
283 "#119"
370 "#381"
271 "#4"
128 "#6"
166 "#164"
76 "#326"
27 "#175"
256 "#386"
304 "#159"
300 "#174"
190 "#395"
316 "#148"
37 "#247"
143 "#79"
276 "#44"
145 "#233"
258 "#206"
391 "#176"
184 "#55"
255 "#45"
99 "#168"
203 "#258"
55 "#302"
165 "#5"
62 "#146"
329 "#54"
249 "#103"
38 "#352"
168 "#137"
309 "#49"
160 "#96"
2 "#15"
354 "#306"
381 "#113"
393 "#345"
114 "#385"
227 "#208"
342 "#354"
380 "#222"
125 "#30"
396 "#347"
382 "#7"
265 "#43"
292 "#34"
10 "#389"
266 "#190"
310 "#234"
96 "#340"
298 "#329"
361 "#388"
371 "#357"
225 "#253"
127 "#361"
196 "#216"
250 "#379"
252 "#58"
378 "#60"
40 "#121"
116 "#339"
193 "#259"
317 "#280"
286 "#310"
158 "#333"
32 "#377"
75 "#398"
52 "#360"
170 "#94"
339 "#160"
216 "#18"
274 "#321"
240 "#264"
270 "#123"
162 "#382"
71 "#391"
331 "#131"
315 "#109"
65 "#323"
35 "#132"
182 "#181"
164 "#309"
205 "#147"
67 "#125"
Edges
31 96
10 294
217 212
125 139
352 346
128 287
105 235
195 9
274 389
224 269
65 154
328 56
274 405
213 251
153 186
51 396
15 382
47 362
102 151
363 165
279 336
304 156
97 20
375 117
264 1
279 383
168 56
89 381
293 287
79 57
263 399
55 93
241 313
205 62
67 23
188 405
210 102
368 96
90 363
41 251
154 158
47 154
123 10
76 354
9 376
198 310
148 107
343 278
16 182
108 48
67 206
134 146
94 331
138 153
313 24
21 391
51 24
319 166
178 307
238 356
392 388
219 2
159 29
401 340
336 377
238 91
191 182
176 384
242 335
288 5
255 234
258 17
207 250
177 64
171 232
142 181
275 173
173 343
107 113
337 241
122 371
208 125
151 171
205 112
109 35
240 395
152 340
119 362
160 183
304 336
66 21
179 353
17 388
258 401
312 156
299 16
137 231
334 158
183 327
185 218
207 224
312 338
123 343
292 102
274 352
55 309
44 112
22 307
287 167
296 173
340 335
88 137
113 131
336 61
186 296
116 289
326 338
161 394
246 286
154 76
22 241
317 93
161 289
95 302
43 37
147 17
3 106
402 306
305 304
62 403
121 67
64 87
315 167
373 309
210 342
367 33
244 265
114 241
176 58
139 143
258 18
258 200
380 384
95 87
144 16
22 207
143 243
388 19
117 138
359 86
64 320
292 360
129 363
108 400
27 131
235 376
118 391
150 403
351 311
93 296
96 24
268 244
159 266
39 67
136 12
29 138
209 301
149 7
214 142
266 172
388 207
346 347
69 353
110 313
152 228
322 70
121 283
169 104
299 45
23 39
34 325
20 303
389 103
145 334
9 62
171 353
71 9
405 83
6 260
142 37
121 324
292 12
385 50
275 398
151 56
29 237
341 207
362 80
65 119
271 185
245 207
363 199
348 268
276 69
321 54
371 52
181 106
262 363
132 309
12 404
241 256
233 29
103 286
322 351
136 51
155 200
325 119
171 352
314 104
218 139
313 370
364 314
84 28
229 181
194 401
359 286
72 251
104 274
191 303
341 340
125 266
118 326
178 175
9 147
14 347
338 46
138 186
379 50
187 360
377 293
50 198
279 305
394 50
63 74
199 287
215 21
130 303
151 104
153 356
343 357
305 223
140 115
128 33
401 87
397 86
350 139
321 16
377 2
46 375
313 71
56 76
223 277
213 163
166 291
48 185
4 82
305 4
266 277
68 362
95 303
5 67
121 39
263 170
304 163
291 379
349 257
304 388
330 293
281 315
47 205
357 6
342 393
391 73
59 359
391 318
330 262
400 143
87 5
309 109
235 247
117 44
257 310
328 6
16 73
293 35
80 286
391 402
234 158
398 219
289 385
295 38
260 62
308 207
385 317
320 315
211 191
274 59
236 398
170 17
313 60
175 128
54 204
96 291
135 378
79 132
155 139
119 17
241 340
294 246
107 367
19 245
328 280
146 49
108 142
203 231
206 283
116 24
171 74
316 343
127 50
274 362
258 298
210 259
182 21
392 337
256 337
312 159
64 335
4 159
51 96
18 325
334 347
209 170
172 267
57 113
19 207
198 295
357 168
335 39
366 251
12 291
199 126
62 178
12 379
382 255
355 79
261 353
398 143
71 237
66 377
311 120
296 153
197 308
27 211
91 77
233 141
136 127
135 30
88 193
171 21
255 324
94 89
150 275
170 304
146 266
142 231
308 403
15 1
338 42
119 294
309 108
35 66
23 374
108 248
229 245
348 244
258 27
177 184
235 143
24 295
330 272
158 59
27 182
295 172
312 45
326 42
297 381
274 240
53 388
119 327
334 30
314 158
17 398
376 207
185 369
310 130
100 181
320 246
118 232
216 358
198 36
313 340
13 85
121 270
113 284
15 213
126 289
206 156
251 219
114 337
308 255
220 341
155 252
347 74
271 62
218 271
177 197
100 229
243 145
356 229
36 204
36 151
294 250
1 288
387 392
77 260
47 179
317 123
14 3
310 238
213 103
381 48
113 400
82 233
303 168
116 133
273 139
275 177
6 248
139 310
256 29
61 380
255 187
384 279
272 397
254 1
169 73
320 381
88 91
343 296
6 324
369 327
228 114
332 272
388 250
298 305
227 274
353 259
331 95
405 91
97 54
359 220
246 17
120 61
165 57
266 279
260 385
362 126
93 57
249 235
386 338
16 251
213 67
249 221
223 402
380 351
317 343
155 275
178 132
169 16
388 32
270 194
171 242
244 278
335 141
194 152
10 135
347 203
163 316
31 54
67 139
389 56
335 361
176 343
320 277
213 206
224 304
198 136
94 82
88 37
126 65
185 319
81 56
82 279
97 291
16 11
111 339
92 383
400 189
72 276
308 325
105 144
323 305
255 219
217 336
20 292
118 225
308 139
74 100
61 26
77 126
374 376
310 69
104 298
354 80
317 210
197 184
393 349
176 336
3 292
113 220
338 93
366 207
338 140
23 222
361 141
74 256
173 184
47 313
364 383
156 216
371 342
314 274
142 282
225 229
122 280
7 258
2 90
213 270
9 183
228 60
154 286
306 47
107 273
174 219
106 225
219 1
301 395
144 271
37 257
1 174
361 114
126 59
39 115
337 388
358 182
324 157
37 259
57 107
200 398
48 252
18 336
16 127
151 236
256 233
17 208
29 71
235 269
382 292
321 11
253 240
321 73
184 275
206 254
290 363
32 392
22 388
184 30
76 192
128 372
280 66
227 139
205 16
149 13
314 76
215 321
194 122
204 31
241 387
402 47
65 175
251 391
322 120
193 281
321 226
259 289
214 225
361 273
117 42
211 363
95 218
107 324
220 310
223 244
173 334
383 384
364 166
147 264
330 132
340 141
309 26
272 305
223 384
296 129
276 219
103 65
240 238
139 146
181 209
139 48
53 140
104 204
223 267
282 238
110 250
391 215
385 6
384 328
347 63
337 387
350 1
16 323
44 375
87 39
172 341
114 110
357 212
225 253
244 82
105 41
43 347
90 292
399 272
296 140
86 220
30 185
193 229
260 174
51 12
252 64
167 350
216 130
284 239
126 72
106 326
388 294
256 294
362 154
397 330
33 72
18 85
258 120
150 86
142 88
113 239
58 180
145 352
389 158
111 163
388 384
271 129
197 148
169 299
11 221
109 92
125 315
311 384
110 71
165 277
296 275
72 182
325 133
355 395
78 241
373 263
146 277
151 314
295 199
222 242
178 222
256 79
96 326
12 147
171 349
159 69
295 310
209 229
133 238
260 307
330 221
405 158
317 153
49 1
53 321
373 101
327 15
366 295
52 124
163 270
374 58
346 242
306 48
176 42
360 288
376 167
67 263
353 222
329 255
7 369
340 75
273 400
142 349
163 251
399 363
214 258
104 362
298 128
273 20
175 400
392 396
310 145
315 373
368 198
53 296
188 59
178 333
83 103
339 84
178 300
296 115
331 217
154 334
106 118
376 276
80 375
42 123
219 49
272 73
66 328
53 55
259 72
196 85
226 15
264 167
51 379
309 54
378 200
48 265
67 325
313 228
185 265
65 83
228 256
375 15
254 133
24 381
284 67
163 107
390 89
115 386
242 195
154 275
325 137
152 388
252 209
82 153
156 45
152 103
202 308
31 12
287 14
159 267
181 203
114 75
97 298
174 79
85 351
404 161
126 192
66 243
100 201
120 351
327 18
26 108
287 92
303 11
122 80
107 72
9 167
78 110
146 248
384 150
126 83
183 17
384 398
140 330
231 100
237 275
343 240
124 394
279 161
130 37
371 295
38 228
320 224
245 238
323 348
9 264
51 50
299 303
170 247
3 20
55 129
377 168
312 258
176 338
92 151
128 43
52 342
12 162
15 269
266 382
259 387
22 152
254 24
395 193
137 395
56 47
123 338
315 162
111 357
325 132
75 387
283 72
374 17
6 219
329 3
91 174
190 19
251 13
176 403
325 322
258 194
203 310
272 316
73 11
241 228
18 322
71 337
390 7
277 154
241 335
212 99
143 268
149 18
386 140
238 111
258 86
374 388
21 236
246 10
71 388
48 402
359 389
306 400
325 262
283 251
184 175
299 182
124 404
234 154
300 204
62 79
403 260
37 23
274 354
341 388
74 243
134 99
327 17
388 165
405 166
24 136
288 143
24 47
369 398
110 370
152 241
59 389
96 238
149 227
253 226
198 253
182 321
118 281
9 374
135 229
88 3
69 312
58 72
46 44
254 98
347 259
171 130
240 362
186 317
158 257
109 203
161 124
284 352
90 54
243 113
133 51
130 226
341 71
41 82
145 400
230 105
168 390
244 267
401 138
199 388
382 155
354 241
341 162
232 222
62 373
35 302
275 64
318 299
352 261
180 129
25 225
145 37
100 281
165 42
140 55
96 204
173 216
399 200
157 200
133 127
343 364
118 45
255 390
148 135
317 296
198 379
45 237
233 315
58 108
259 257
250 313
234 181
39 270
8 78
125 201
378 399
130 95
320 75
270 67
105 129
152 309
130 74
136 254
209 395
126 288
95 109
182 211
317 55
209 264
317 22
271 170
108 155
192 68
387 19
229 142
144 129
317 372
212 278
246 188
8 22
364 61
87 185
341 337
360 3
163 369
238 379
343 163
93 375
146 99
190 114
315 307
219 69
59 307
342 301
136 379
343 55
305 267
268 267
335 387
169 303
128 48
92 307
304 207
55 46
115 384
337 207
157 167
307 27
16 90
125 17
91 183
228 190
226 40
61 227
305 266
350 287
246 402
14 345
148 30
338 343
203 325
73 211
143 146
4 320
237 250
275 15
269 101
337 344
189 364
246 367
334 234
285 352
102 347
65 164
290 273
75 23
15 112
331 58
182 333
304 134
227 119
42 386
335 101
106 193
349 182
225 181
79 222
23 357
50 117
53 304
316 178
12 391
197 173
193 238
150 133
87 387
383 272
33 139
222 33
163 206
45 277
261 130
93 42
125 184
228 335
142 281
347 145
356 193
332 2
88 301
265 292
144 345
253 88
89 168
88 245
77 315
74 352
37 353
176 153
153 140
318 300
203 301
189 7
35 390
232 328
104 36
382 252
364 86
374 34
330 128
298 369
397 43
135 33
74 148
251 300
112 140
184 64
19 152
235 128
163 13
67 308
366 275
143 161
234 390
64 134
278 111
238 395
229 77
144 148
241 19
212 339
125 148
14 290
233 75
248 219
283 213
16 319
384 13
50 24
127 199
224 374
282 229
353 346
293 149
75 39
226 216
400 345
83 56
85 185
378 83
397 270
251 71
6 29
200 5
101 246
182 11
267 266
220 156
378 363
315 249
279 312
183 221
75 194
308 284
174 115
277 48
396 368
24 31
265 121
127 280
265 382
62 125
345 35
126 169
238 369
378 142
273 268
385 36
85 7
287 105
341 344
402 28
383 151
351 13
216 2
206 138
332 173
125 373
75 245
187 64
128 402
65 389
243 107
267 41
13 227
354 47
143 374
302 325
217 89
91 301
245 58
370 29
91 34
102 94
156 135
118 214
326 79
277 244
312 267
54 66
291 31
395 346
209 91
163 67
109 14
12 161
199 173
102 327
126 246
64 166
34 209
129 62
260 5
188 104
65 384
65 188
47 372
36 38
159 305
357 324
352 179
380 165
37 352
336 65
4 62
354 340
62 1
189 384
336 368
235 16
327 329
221 319
386 123
247 324
29 75
5 382
96 295
133 96
133 404
388 114
331 218
46 326
336 204
205 369
404 379
208 316
83 274
343 46
366 163
133 98
167 147
70 368
241 32
105 173
391 333
300 276
398 364
95 61
103 126
399 199
177 129
319 146
174 284
187 157
127 342
381 109
403 79
53 317
43 33
398 345
194 17
54 323
87 305
259 61
219 145
303 215
180 263
84 293
313 189
64 34
28 15
61 196
351 7
347 119
54 47
405 368
322 150
387 340
53 25
290 345
145 130
19 401
161 52
119 352
293 128
3 64
285 179
14 262
207 75
235 205
378 103
382 1
22 340
93 23
311 149
259 346
238 64
305 165
177 252
115 278
53 374
70 259
1 224
326 153
144 173
70 196
203 119
200 129
116 161
90 291
331 168
312 268
263 109
263 283
276 329
166 248
405 359
28 65
228 110
77 214
252 195
213 109
191 299
86 158
211 195
328 314
253 395
203 65
210 372
52 396
40 39
298 83
274 359
206 320
152 344
325 274
9 350
354 188
299 321
213 72
237 313
362 306
2 390
45 159
147 241
325 87
161 168
394 36
364 70
361 305
246 65
3 324
55 375
156 86
253 206
29 60
67 40
214 281
47 122
328 65
365 397
261 179
161 136
313 166
22 78
69 400
122 298
163 217
97 292
100 315
50 280
14 180
218 148
251 40
307 122
244 212
194 22
353 131
122 158
95 134
358 177
87 187
387 114
167 81
199 72
276 305
12 17
168 234
224 241
402 65
254 161
94 390
403 336
222 307
159 279
156 178
86 18
73 333
342 349
225 193
304 320
176 382
355 53
88 325
136 116
15 296
313 29
228 29
180 199
400 235
327 212
39 382
277 238
62 132
233 250
269 72
349 347
44 278
391 106
227 314
128 122
98 50
130 350
367 4
26 293
70 351
285 310
216 199
168 293
82 364
199 374
214 181
397 292
120 85
377 363
369 13
17 102
338 44
117 186
387 401
273 135
248 307
63 40
283 325
280 47
75 313
194 307
307 292
165 391
248 276
65 325
386 154
324 353
331 302
5 252
35 168
226 4
401 344
343 44
65 223
160 249
340 233
36 54
264 266
165 48
170 133
283 18
310 80
23 340
49 84
152 343
43 334
117 338
278 355
349 369
289 127
188 128
370 194
240 231
86 312
109 65
20 360
307 316
124 206
332 64
5 23
156 172
98 124
224 315
325 95
164 274
106 229
223 312
268 23
272 3
398 265
141 294
36 40
66 293
307 403
208 222
21 313
87 7
276 87
21 318
72 331
80 104
195 378
386 232
50 133
149 351
201 357
374 207
186 55
63 206
110 8
243 35
405 246
386 375
283 269
229 206
265 33
32 207
359 1
128 84
357 84
305 156
154 354
188 362
159 268
378 281
117 153
167 56
226 353
401 335
292 374
277 159
30 103
21 93
59 405
395 212
378 308
138 343
55 115
170 36
361 110
94 26
348 267
389 362
289 124
125 200
276 358
297 109
304 277
83 389
363 2
236 182
233 361
70 31
313 401
127 295
156 277
142 118
250 387
147 34
50 291
53 207
205 298
101 235
315 34
400 329
206 72
151 3
402 158
174 316
47 103
2 116
87 252
332 105
103 359
309 252
143 41
50 52
325 292
33 269
28 188
333 211
128 253
118 181
49 251
319 7
233 228
32 190
47 389
33 255
205 226
43 102
241 29
279 368
222 403
119 15
321 172
375 53
289 136
394 254
290 157
49 304
305 244
247 262
364 351
22 91
177 276
238 88
21 377
195 95
196 7
115 335
273 200
104 336
176 393
180 167
391 299
398 258
334 257
248 336
243 398
3 397
141 392
59 154
375 317
78 245
39 213
268 107
192 122
8 207
222 226
272 18
131 156
248 84
17 403
120 26
60 298
259 235
205 108
38 12
393 254
15 55
149 253
171 179
85 322
260 126
259 321
346 216
167 34
265 143
230 360
279 104
207 387
275 273
127 379
305 312
402 192
358 72
389 354
284 132
345 331
118 57
189 150
302 87
323 266
76 389
286 274
38 51
279 143
24 223
375 278
314 246
282 77
222 109
95 230
291 321
200 9
135 175
327 319
68 80
344 166
204 26
345 235
370 343
172 41
164 109
137 142
374 146
232 238
395 258
364 58
327 324
18 145
197 276
57 143
229 253
276 269
334 399
91 127
50 254
230 236
258 314
372 278
165 345
55 346
258 369
10 19
261 171
24 133
390 331
156 64
170 163
166 368
309 148
38 250
176 372
131 261
400 157
138 53
29 8
378 92
108 273
405 76
403 138
86 149
103 362
261 346
69 45
14 40
194 392
225 245
403 129
171 347
324 40
348 45
295 289
1 7
1 276
63 145
331 312
373 320
126 298
308 2
3 288
15 176
369 86
203 253
235 63
7 364
344 307
257 154
126 359
51 404
245 91
168 332
203 88
176 325
342 69
2 43
291 282
116 90
33 334
378 16
291 36
238 19
290 288
291 295
2 202
69 172
1 296
330 321
286 47
326 93
188 166
188 76
37 232
401 60
299 78
187 329
207 241
137 23
201 373
404 66
144 13
405 306
274 80
32 267
340 388
134 219
186 44
320 367
363 308
240 227
75 337
312 172
287 234
64 272
364 13
152 229
237 207
104 154
146 339
323 349
164 246
176 275
230 402
381 263
119 84
102 165
80 384
201 109
342 291
228 22
327 244
115 153
388 361
224 129
307 257
329 87
400 131
139 35
227 351
274 119
221 16
343 53
56 122
363 177
16 391
372 296
247 327
98 54
106 343
215 182
147 82
310 239
185 252
34 264
324 131
39 134
214 137
269 212
221 333
182 318
343 165
296 176
155 26
249 17
17 275
156 159
38 116
281 135
101 276
284 316
77 137
280 385
193 118
276 223
14 350
44 93
47 83
163 212
298 136
92 330
384 322
84 65
362 298
165 195
250 51
77 142
263 325
296 7
375 296
299 276
99 49
249 96
95 165
256 237
382 296
320 297
158 246
43 287
395 203
242 145
124 254
323 4
376 180
346 368
209 238
270 206
1 251
319 369
258 351
303 111
208 403
127 36
367 324
143 345
16 54
5 175
289 50
253 281
93 87
64 93
354 192
65 380
128 109
343 117
143 368
247 221
335 114
288 264
188 56
384 85
324 276
7 382
204 385
132 403
227 384
62 17
125 209
331 377
12 69
211 391
172 75
288 292
1 139
32 340
141 207
205 63
178 260
65 176
240 164
49 248
119 183
320 172
302 34
229 214
111 134
97 273
270 72
282 253
227 85
118 301
221 160
317 176
190 152
16 300
362 56
44 133
259 145
226 232
167 378
257 191
135 399
126 148
39 265
223 105
389 154
392 368
312 244
339 166
328 135
133 234
354 362
140 25
323 126
128 213
259 355
130 232
340 190
317 15
230 144
39 72
331 303
40 170
123 218
310 242
349 352
327 278
233 335
375 123
91 19
243 18
127 31
395 282
330 235
16 253
321 70
66 305
326 123
16 62
369 323
341 32
182 73
122 65
270 9
55 42
106 231
260 200
404 328
111 219
47 59
393 396
114 60
12 254
164 119
83 192
229 240
214 205
225 231
268 4
264 350
263 297
144 299
241 71
248 159
139 108
301 193
336 301
153 70
306 164
51 381
225 137
142 238
257 352
201 315
386 153
366 391
70 61
194 19
64 382
132 47
259 205
387 32
111 212
204 279
210 386
266 100
137 253
114 19
366 404
190 387
94 227
118 153
96 265
224 172
160 327
315 109
190 313
272 277
336 161
313 387
390 302
233 152
161 259
306 83
372 343
190 241
346 405
187 20
223 45
85 253
37 131
49 111
311 322
361 337
78 392
7 227
283 33
330 93
105 197
133 368
285 349
166 233
68 274
308 376
393 51
263 224
252 139
310 136
233 313
136 394
86 2
99 293
216 258
232 285
124 12
126 76
258 104
273 399
340 29
181 170
330 383
237 126
116 371
351 18
211 321
369 18
12 117
279 348
254 346
266 150
310 93
126 259
269 307
253 193
21 326
113 235
255 309
112 25
379 161
155 390
75 32
31 379
330 73
135 125
1 79
70 226
236 287
351 275
37 328
87 380
139 94
89 35
244 156
271 260
229 118
204 368
269 315
7 322
167 92
264 301
66 361
209 356
321 132
263 320
399 36
331 139
117 386
375 140
193 245
243 30
370 152
100 225
394 298
7 15
260 317
133 12
374 304
118 165
307 166
56 80
189 18
5 128
286 389
20 157
24 127
24 342
219 23
23 99
84 23
11 333
203 209
250 228
233 241
226 349
99 401
310 347
146 67
398 57
289 98
90 204
56 405
166 359
257 145
256 320
18 397
115 210
333 27
178 299
163 72
373 403
172 82
40 213
348 41
282 128
93 219
21 305
184 155
50 6
236 165
404 31
108 336
395 281
189 196
168 336
78 401
305 105
148 395
275 45
278 55
28 229
166 84
53 46
325 105
1 275
233 387
353 74
69 87
307 18
34 17
214 234
385 311
397 235
333 321
53 291
363 184
169 191
123 135
218 326
335 75
404 204
308 300
108 200
226 309
214 226
126 81
216 400
299 129
299 300
353 40
209 266
172 223
310 204
47 246
174 57
192 389
161 291
250 8
91 203
293 253
268 156
216 214
67 194
243 109
27 321
137 203
307 132
325 59
91 205
223 323
112 97
395 181
153 278
317 307
248 212
152 341
28 81
127 368
301 211
56 154
135 268
206 53
69 255
17 373
1 109
272 93
154 68
307 62
325 209
270 295
175 345
5 271
174 178
384 120
99 252
129 9
325 199
381 369
203 266
64 23
194 71
156 348
199 14
380 10
12 357
168 217
334 135
366 39
90 31
67 37
280 254
395 91
326 205
343 129
355 186
73 21
80 136
82 159
118 343
15 234
136 50
257 130
75 392
302 168
359 314
255 87
349 353
129 263
364 176
191 43
313 8
266 201
124 96
251 194
375 343
182 169
68 286
64 345
128 258
272 292
184 200
355 176
336 234
115 309
92 5
314 86
350 199
200 195
391 182
21 299
139 195
16 211
100 125
233 237
278 140
405 389
100 193
151 330
207 45
55 176
126 154
101 263
276 202
193 142
250 304
30 378
222 132
73 300
80 188
242 63
313 153
3 165
337 10
166 401
327 170
147 376
335 19
118 395
359 164
119 374
186 338
217 307
28 246
77 118
302 381
358 87
85 311
111 99
276 2
123 55
290 30
93 281
55 338
208 183
241 110
365 151
128 14
64 318
24 54
74 37
140 176
267 220
194 344
112 55
289 198
128 295
106 395
339 357
263 397
59 83
355 153
13 7
325 149
80 126
104 359
205 234
3 270
36 133
154 192
392 241
258 355
224 276
190 388
219 77
85 293
129 260
214 209
51 228
88 23
181 329
209 193
75 228
127 161
69 244
313 141
10 71
326 265
280 295
82 186
293 89
343 112
137 106
131 310
366 7
9 17
395 115
270 283
265 252
103 309
165 128
167 109
234 112
72 121
242 285
294 313
400 139
58 308
325 336
41 305
264 376
200 272
205 307
373 92
395 401
258 310
42 25
402 80
39 283
229 226
305 172
118 203
262 235
152 71
394 133
305 351
317 194
331 11
338 296
232 96
24 372
320 156
232 257
285 171
316 62
30 265
218 390
205 390
41 69
152 237
234 226
319 219
264 221
90 127
287 5
167 399
247 17
361 10
250 333
243 220
11 169
344 388
106 209
96 310
69 251
281 212
153 372
65 266
293 302
309 47
311 196
307 174
302 218
6 319
338 115
19 361
187 292
133 291
58 343
120 196
51 124
111 23
270 71
373 332
357 152
72 382
87 307
378 309
188 192
314 166
174 5
71 67
67 397
178 276
205 1
193 288
390 293
22 114
136 295
345 340
48 30
51 280
90 12
56 104
104 161
66 366
89 336
152 78
72 305
320 286
159 348
91 65
128 329
124 317
384 18
315 381
330 365
69 291
206 226
357 269
202 332
396 50
192 103
13 82
128 148
119 99
87 218
171 239
87 223
266 128
105 128
87 271
74 346
126 334
180 3
33 187
354 246
34 307
121 382
368 136
120 18
28 154
53 123
1 178
180 374
75 4
111 379
57 367
49 276
341 69
152 392
98 96
124 260
298 158
394 260
343 115
238 150
97 157
93 318
246 275
118 209
88 225
215 191
90 300
366 270
380 305
272 169
95 236
348 349
54 96
194 9
72 128
219 357
28 192
242 241
138 316
310 232
314 194
77 253
219 334
72 275
217 66
7 18
296 46
142 23
382 134
98 239
112 393
13 70
250 224
131 216
191 321
326 375
131 116
362 277
295 253
162 256
94 302
110 162
259 179
338 153
398 9
313 305
156 267
302 217
350 360
40 222
200 383
127 198
191 307
133 31
269 201
93 377
16 259
220 364
107 30
134 6
56 59
147 374
23 3
97 136
388 194
324 265
251 39
345 262
21 300
119 209
198 51
238 118
388 401
146 212
42 57
44 326
34 322
49 339
249 368
314 229
129 378
405 28
104 126
255 155
306 28
48 266
85 149
349 4
339 248
36 379
148 100
399 195
346 207
179 310
308 184
266 45
316 61
213 9
233 47
11 21
343 140
403 9
363 128
140 186
367 220
274 62
264 374
376 97
281 229
29 194
131 349
149 189
304 272
154 314
254 116
394 12
319 248
101 332
371 36
356 231
16 142
280 404
386 271
216 325
296 356
331 4
197 128
148 243
336 143
310 171
252 108
265 309
242 30
127 54
84 134
343 153
376 292
364 279
201 381
72 9
30 173
180 34
403 139
64 304
168 12
383 3
25 4
139 284
299 224
121 232
253 238
140 355
268 223
154 83
395 88
103 190
42 186
289 2
30 358
349 223
67 260
174 132
136 404
241 237
287 397
178 403
54 234
63 77
54 91
184 128
171 259
266 403
316 361
153 106
31 116
323 142
128 66
224 201
140 372
224 381
355 97
271 200
402 122
125 181
282 340
19 370
170 87
205 380
81 314
72 67
236 349
355 123
200 309
283 397
212 15
97 400
195 303
300 26
152 361
395 329
114 152
105 236
387 321
274 103
330 84
368 51
50 31
29 116
242 14
305 268
57 27
177 202
332 252
221 235
30 33
33 309
189 311
135 143
165 266
172 159
26 399
305 128
50 96
315 263
96 7
353 285
328 121
386 25
333 110
119 240
287 102
145 131
254 295
27 43
35 331
355 115
323 159
161 51
236 325
399 300
317 44
27 217
327 221
90 26
357 319
34 219
158 364
164 266
128 166
253 315
231 229
144 163
312 352
193 77
362 359
296 210
68 76
275 252
184 5
402 179
401 325
235 175
334 151
295 205
398 195
31 196
28 122
19 258
175 33
91 240
151 397
306 188
105 148
244 135
144 218
252 26
383 397
53 54
5 292
112 338
302 301
16 129
5 265
223 82
104 405
112 214
65 80
176 223
63 91
165 351
172 244
226 37
22 347
288 88
230 47
198 280
116 404
307 12
66 109
175 316
233 337
369 351
211 169
154 119
382 308
88 67
40 206
355 210
222 268
102 183
259 261
386 326
69 102
325 397
54 50
124 6
306 128
47 391
26 271
343 186
248 1
246 76
213 320
375 403
253 118
387 8
345 363
389 246
274 65
78 32
377 234
10 241
189 258
312 186
179 242
68 354
205 2
385 31
17 221
122 104
175 398
157 288
128 127
363 14
279 323
51 52
249 183
248 69
33 87
26 170
274 176
144 62
203 293
376 34
32 152
331 20
201 343
7 2
70 86
268 172
196 18
341 346
390 86
145 261
201 263
128 397
146 23
217 390
99 304
73 205
282 118
256 75
36 12
61 311
338 278
139 144
211 143
156 272
298 65
71 6
398 86
245 205
387 370
366 40
387 388
179 239
222 260
242 37
349 238
326 115
352 353
309 315
101 10
97 321
130 352
346 37
111 304
403 174
383 235
231 77
28 103
213 269
306 246
88 181
122 188
73 316
291 280
19 228
396 291
189 61
136 291
369 104
297 251
373 167
256 266
344 60
95 232
385 127
169 391
39 350
189 401
79 315
214 88
185 395
97 374
309 167
120 175
290 173
394 31
259 63
403 271
55 87
286 65
262 221
55 395
24 148
380 7
145 74
36 31
201 101
252 170
307 79
310 74
228 8
361 370
398 113
230 181
273 378
183 174
141 388
12 52
326 23
327 283
244 41
256 194
188 274
370 60
308 178
60 207
30 26
351 150
324 329
280 289
222 174
70 311
381 85
138 42
75 60
57 220
240 183
96 393
389 402
325 214
362 352
143 244
121 222
131 280
35 128
25 210
296 240
176 186
361 294
116 363
92 128
208 132
380 405
277 69
325 23
223 307
371 31
64 387
41 223
324 382
382 276
314 65
347 242
156 346
87 309
398 235
334 171
141 152
378 315
295 116
392 207
387 294
126 306
317 122
405 286
25 117
319 84
227 311
253 231
297 366
281 46
346 145
93 138
233 24
386 277
41 323
326 391
129 173
364 384
219 212
115 75
318 321
194 241
362 164
57 265
194 340
154 405
323 237
259 352
32 110
214 238
294 344
175 30
94 30
158 76
101 315
336 264
401 29
74 395
270 251
271 9
392 401
362 386
203 282
244 159
177 320
1 307
25 55
158 306
11 391
277 310
114 32
224 78
377 217
115 340
18 74
111 133
26 290
32 344
73 191
245 22
34 293
37 347
293 94
161 50
227 151
381 185
240 137
328 167
302 377
285 361
225 142
175 328
319 395
402 384
72 366
51 289
74 259
388 314
242 353
38 254
129 170
306 298
64 202
207 78
65 15
216 209
115 23
48 275
366 213
138 163
80 28
200 290
242 224
166 402
150 197
298 190
83 362
75 78
15 53
321 224
61 13
316 273
123 140
57 243
59 199
308 177
271 232
279 94
224 387
349 21
350 134
61 139
41 235
104 205
258 181
113 367
392 29
350 79
27 73
166 346
172 348
87 331
72 289
359 254
108 181
398 153
111 319
217 234
303 321
186 278
285 37
92 364
94 336
51 31
274 28
383 257
162 194
286 362
344 361
7 295
301 238
273 370
188 83
31 396
106 240
230 173
205 15
262 290
310 27
11 20
369 283
47 298
305 235
198 96
272 320
253 353
245 172
227 164
363 289
295 36
190 60
18 292
83 246
192 246
5 99
215 299
134 49
155 309
326 129
379 133
281 282
60 50
92 13
230 179
319 333
208 178
401 75
58 202
366 45
7 120
326 55
305 122
78 60
133 54
152 294
266 276
366 283
6 232
189 145
280 12
79 284
133 401
297 201
12 295
274 246
219 99
196 351
207 275
116 223
169 321
110 29
62 174
231 315
160 170
340 172
117 6
135 78
49 319
318 16
205 405
129 215
22 122
13 322
144 215
14 63
347 209
222 1
137 181
64 321
235 365
238 323
320 79
372 309
39 247
220 398
96 127
341 387
174 325
156 324
43 330
316 403
303 232
287 94
31 124
166 306
4 246
200 151
87 175
43 92
100 118
42 375
29 162
321 242
314 220
315 181
330 287
67 174
203 238
30 43
311 13
261 37
245 118
6 307
264 156
116 51
195 48
260 169
115 199
232 349
328 81
172 279
374 350
50 132
89 48
138 99
216 275
336 302
316 10
119 160
359 83
280 116
223 348
230 325
388 224
117 317
240 209
54 132
246 154
156 299
335 152
163 283
193 203
235 374
49 212
56 103
318 168
198 404
266 74
49 166
31 52
104 260
300 215
25 375
30 64
31 161
379 295
249 7
136 31
40 283
283 67
161 72
255 264
346 131
349 310
234 135
326 57
223 69
170 119
72 40
50 124
59 92
58 2
345 139
102 234
151 204
226 30
251 169
242 259
172 102
210 289
70 382
163 275
275 30
6 23
26 175
337 228
390 139
394 393
280 161
355 343
146 357
16 91
269 18
5 185
187 309
4 172
160 17
246 362
98 295
350 198
27 391
379 385
277 312
102 186
308 173
176 278
405 254
328 402
400 20
102 170
332 144
51 291
131 63
114 401
385 368
204 280
218 265
303 300
138 375
268 265
187 324
403 125
147 180
60 361
75 237
248 304
175 271
126 286
139 23
361 228
192 47
219 146
100 234
128 101
89 302
87 216
287 325
258 131
363 182
346 113
97 127
330 5
378 373
203 77
50 401
26 316
302 312
372 226
206 121
48 358
378 177
368 254
274 126
154 15
285 257
31 368
52 24
384 351
137 37
284 403
281 346
320 201
224 219
222 328
108 398
219 91
225 152
116 377
371 133
15 326
74 242
148 271
153 391
111 248
131 47
279 41
77 104
22 270
247 367
47 369
237 228
241 321
206 300
207 94
203 356
105 309
243 367
350 95
214 100
369 251
242 387
191 318
136 280
150 70
281 23
322 236
287 95
172 78
52 38
185 358
305 236
143 23
294 320
370 388
199 71
359 169
116 401
321 72
288 265
396 96
377 35
300 168
139 271
346 343
7 384
21 16
146 111
37 171
127 323
114 341
204 254
232 133
139 148
154 122
93 343
207 152
165 183
11 264
32 22
262 249
108 364
325 142
382 175
234 326
81 389
357 49
217 293
312 266
282 353
173 170
166 158
352 310
175 113
288 347
46 135
247 329
142 209
63 219
388 78
174 208
391 179
128 27
321 57
298 246
235 276
326 355
393 289
279 45
235 346
393 291
280 371
252 292
82 241
90 124
205 198
343 391
359 154
69 162
315 352
369 144
387 325
205 65
298 402
226 348
318 215
368 161
255 266
290 216
47 104
199 384
