Vertices 250
75 "#150"
17 "#176"
125 "#84"
47 "#45"
161 "#246"
135 "#159"
159 "#181"
73 "#199"
220 "#1"
69 "#208"
48 "#52"
122 "#203"
10 "#31"
174 "#156"
173 "#74"
46 "#220"
203 "#110"
80 "#160"
163 "#75"
210 "#20"
121 "#206"
212 "#55"
66 "#179"
97 "#158"
12 "#139"
142 "#202"
98 "#123"
112 "#121"
6 "#157"
87 "#23"
199 "#85"
141 "#89"
44 "#151"
206 "#39"
103 "#230"
115 "#171"
37 "#122"
38 "#63"
94 "#38"
5 "#197"
14 "#136"
51 "#133"
64 "#140"
92 "#138"
216 "#65"
43 "#238"
21 "#80"
76 "#130"
207 "#212"
169 "#118"
91 "#244"
184 "#21"
154 "#243"
74 "#126"
225 "#193"
62 "#91"
153 "#210"
160 "#42"
165 "#28"
32 "#131"
110 "#24"
205 "#137"
100 "#142"
15 "#69"
180 "#153"
140 "#66"
157 "#119"
56 "#61"
197 "#172"
209 "#216"
190 "#60"
102 "#12"
2 "#148"
13 "#247"
19 "#47"
211 "#164"
117 "#125"
18 "#82"
114 "#109"
93 "#124"
239 "#196"
229 "#6"
127 "#245"
55 "#56"
133 "#99"
237 "#94"
240 "#71"
192 "#48"
172 "#8"
155 "#67"
235 "#141"
243 "#248"
200 "#81"
59 "#224"
33 "#105"
208 "#17"
146 "#77"
90 "#192"
131 "#104"
111 "#182"
40 "#4"
188 "#9"
245 "#5"
129 "#194"
227 "#128"
128 "#239"
195 "#11"
96 "#90"
241 "#154"
101 "#221"
246 "#209"
85 "#54"
214 "#155"
88 "#88"
204 "#165"
65 "#174"
28 "#235"
124 "#95"
248 "#236"
238 "#62"
217 "#2"
178 "#207"
230 "#115"
201 "#0"
61 "#59"
79 "#186"
105 "#93"
78 "#114"
11 "#225"
63 "#132"
9 "#190"
58 "#112"
138 "#32"
171 "#40"
57 "#147"
50 "#145"
249 "#37"
81 "#219"
152 "#215"
233 "#198"
83 "#249"
70 "#76"
132 "#108"
191 "#34"
45 "#185"
176 "#173"
179 "#233"
130 "#117"
71 "#106"
4 "#97"
162 "#183"
25 "#72"
113 "#53"
77 "#232"
120 "#191"
144 "#79"
136 "#83"
228 "#227"
116 "#68"
89 "#3"
53 "#168"
82 "#107"
175 "#184"
49 "#240"
84 "#242"
7 "#152"
118 "#87"
23 "#19"
143 "#78"
147 "#102"
156 "#57"
99 "#100"
139 "#26"
186 "#70"
54 "#170"
151 "#180"
183 "#223"
149 "#195"
221 "#120"
126 "#200"
31 "#129"
226 "#15"
231 "#35"
189 "#149"
35 "#178"
39 "#43"
145 "#229"
148 "#169"
29 "#73"
185 "#96"
187 "#50"
60 "#241"
107 "#29"
196 "#177"
234 "#13"
236 "#18"
232 "#226"
106 "#103"
182 "#27"
36 "#144"
42 "#111"
137 "#7"
16 "#214"
222 "#46"
41 "#211"
213 "#217"
164 "#41"
22 "#175"
109 "#205"
242 "#234"
218 "#113"
108 "#64"
86 "#204"
193 "#22"
250 "#218"
181 "#213"
26 "#134"
72 "#58"
1 "#51"
8 "#101"
158 "#127"
150 "#16"
177 "#49"
52 "#188"
224 "#116"
20 "#163"
119 "#10"
198 "#36"
167 "#30"
219 "#14"
24 "#44"
244 "#231"
3 "#222"
170 "#162"
68 "#143"
27 "#189"
247 "#228"
67 "#86"
202 "#146"
223 "#33"
215 "#237"
166 "#187"
168 "#135"
95 "#166"
30 "#167"
123 "#98"
194 "#25"
104 "#92"
134 "#201"
34 "#161"
Edges
96 141
122 42
104 67
181 160
158 48
110 140
129 239
204 78
3 149
179 13
159 17
241 80
52 86
250 186
134 109
168 12
153 250
224 93
131 95
214 80
188 47
92 63
203 114
237 210
38 210
57 51
94 195
104 105
27 90
53 20
16 3
73 174
175 173
74 221
188 117
85 61
27 233
20 174
239 166
113 118
137 19
233 52
92 229
142 149
94 34
42 58
79 162
45 151
109 126
8 147
190 114
189 100
34 214
6 204
5 192
56 216
220 182
46 162
83 129
110 223
56 101
162 161
219 186
241 148
42 114
167 182
90 49
144 231
224 220
95 109
170 180
129 5
173 70
28 179
157 186
126 9
28 161
104 199
76 205
101 230
130 103
236 210
173 186
94 30
210 107
138 133
65 205
39 18
94 135
73 233
140 72
54 79
233 129
135 169
182 40
6 53
238 149
245 171
248 83
60 77
200 145
122 238
232 181
229 132
192 201
219 240
117 169
136 216
93 130
177 216
214 95
91 93
14 168
55 172
166 90
101 246
222 223
15 107
88 114
135 42
49 43
6 170
29 25
71 114
205 51
129 122
107 234
62 177
149 129
24 249
46 209
249 149
170 204
175 230
58 167
192 167
80 174
52 213
176 35
184 47
122 73
10 32
40 202
9 225
192 38
60 28
134 5
46 207
120 214
71 78
249 94
249 72
64 182
118 88
224 74
123 147
169 56
141 88
94 238
118 155
235 75
225 73
156 61
99 133
159 66
155 190
197 159
97 95
109 249
120 134
189 235
162 175
206 194
207 121
6 214
161 173
20 204
169 230
128 49
242 179
37 98
206 195
155 202
150 231
155 111
45 35
128 196
250 36
87 176
114 132
2 68
227 158
14 12
171 194
224 198
69 41
26 192
246 226
171 94
179 60
169 98
182 222
222 140
25 229
129 121
36 22
182 180
113 219
127 179
182 144
181 108
231 193
248 49
169 101
82 203
231 191
108 200
119 87
87 159
119 138
150 171
82 23
22 168
180 189
60 243
233 142
127 119
243 127
243 215
19 229
154 189
229 219
248 43
94 55
44 64
236 226
36 75
78 36
73 86
111 45
90 73
215 199
179 21
242 77
83 114
167 68
188 65
223 160
1 122
22 176
38 128
18 246
18 21
31 32
114 218
160 2
218 101
163 123
62 114
43 128
99 1
192 216
193 102
40 64
191 39
187 149
42 238
53 124
12 158
189 112
48 108
159 54
107 173
161 179
232 11
78 20
199 150
96 156
100 202
215 45
164 182
198 236
190 192
149 173
19 72
224 137
32 12
133 104
206 5
15 50
128 215
149 135
240 82
173 200
18 144
89 107
166 149
242 146
43 215
190 116
149 224
121 242
81 16
173 27
182 140
70 163
200 21
198 208
161 46
37 117
238 250
36 249
123 109
51 63
197 205
143 136
228 83
180 104
216 167
174 95
51 168
208 40
80 170
66 2
105 173
158 52
79 197
183 178
157 220
104 122
133 8
131 71
143 75
232 209
78 24
62 190
181 11
4 106
110 212
107 55
61 102
180 199
21 146
146 122
123 158
244 128
6 95
87 138
142 126
43 247
164 249
194 32
241 34
248 179
189 220
249 165
7 202
181 207
37 249
16 11
191 150
168 26
224 162
126 120
4 133
72 53
207 101
100 180
161 128
188 212
175 66
7 24
9 81
109 174
51 26
175 35
58 4
108 19
186 139
122 134
165 220
47 1
222 208
39 48
25 138
95 179
49 239
188 116
30 199
49 127
244 83
71 33
67 155
32 86
230 224
110 201
51 178
64 2
64 68
136 1
176 159
52 142
238 2
229 186
138 15
61 144
104 151
229 216
171 238
233 5
22 121
81 195
217 165
237 4
114 177
114 78
182 56
114 131
60 145
153 15
35 66
158 76
36 168
230 35
67 199
229 89
56 175
206 110
210 48
159 79
16 232
58 64
246 121
207 195
75 180
132 173
182 214
90 233
78 173
152 3
47 51
222 72
173 99
18 143
21 243
85 165
48 38
118 10
21 143
36 189
116 172
162 22
19 53
27 230
12 15
208 48
145 122
202 4
128 228
139 25
176 66
25 70
158 32
213 183
95 180
220 108
88 104
81 89
21 216
140 190
13 77
133 175
240 139
114 100
229 85
214 105
249 177
5 144
227 63
98 157
9 149
33 203
63 32
47 26
78 131
81 64
43 242
219 62
32 151
31 92
25 133
171 29
164 12
19 25
51 164
129 166
118 171
222 9
192 144
237 99
178 121
49 83
101 59
122 5
137 47
113 119
100 44
72 182
105 141
54 176
191 105
97 30
34 53
208 11
130 42
144 27
218 208
149 24
105 124
178 69
18 187
249 47
155 235
208 101
49 145
154 49
191 123
115 133
182 44
219 26
165 194
36 100
209 183
156 194
93 1
122 192
237 135
97 34
111 17
167 212
29 248
210 89
179 83
182 216
243 103
109 73
10 172
206 192
80 6
7 79
250 178
193 48
21 63
74 112
124 237
19 39
246 122
35 159
203 237
77 48
23 30
57 180
76 219
93 39
47 9
196 49
27 52
59 230
189 247
132 58
9 129
135 122
75 189
112 1
193 210
40 237
53 30
243 242
43 189
92 21
230 180
129 126
45 54
25 219
110 155
41 207
112 117
2 7
120 42
136 125
206 223
250 179
72 160
36 54
61 145
94 72
34 204
25 241
89 24
174 24
24 132
173 102
138 99
237 123
2 36
127 77
222 218
53 95
160 108
214 20
9 166
120 135
77 179
46 153
95 24
152 182
94 88
10 226
4 88
36 239
201 190
49 247
16 181
234 210
235 7
79 35
34 19
47 165
82 114
62 58
224 195
246 46
111 197
135 170
240 213
244 43
113 236
157 78
39 143
2 202
48 136
105 4
174 223
75 68
50 162
157 203
176 17
108 192
200 125
134 129
174 148
239 5
242 49
191 156
158 142
122 79
231 39
226 139
79 175
189 7
21 82
32 129
18 121
46 247
157 37
158 182
48 94
152 69
12 76
237 155
215 83
187 219
210 55
161 13
27 109
103 112
161 243
13 247
94 137
44 188
153 207
135 6
130 65
171 231
148 101
204 241
83 154
85 99
159 162
183 81
205 227
240 229
14 250
164 56
118 141
118 119
158 14
232 59
61 223
3 207
217 110
154 247
171 191
85 47
13 244
58 55
212 48
25 186
229 224
130 122
136 5
241 174
220 47
199 182
230 74
193 206
207 59
9 243
58 240
62 199
250 15
109 233
86 233
76 241
4 124
117 19
221 112
174 97
239 149
82 92
166 27
121 181
177 110
233 239
175 197
17 115
102 144
228 84
127 123
170 211
62 240
67 202
107 219
233 122
19 231
72 177
52 73
181 153
186 163
109 230
238 66
19 219
247 86
188 89
245 147
211 241
249 3
30 241
245 123
79 56
90 126
79 65
213 46
225 27
15 75
132 78
250 101
178 153
51 226
150 234
71 203
246 129
13 83
206 61
189 82
88 62
50 100
202 175
167 4
143 162
174 6
122 90
34 144
196 151
174 36
6 169
140 77
169 130
208 164
164 216
78 250
18 101
120 222
24 173
72 116
154 244
42 94
72 208
129 109
112 247
29 173
54 111
43 13
119 102
245 222
202 36
39 37
162 35
196 79
110 167
50 202
60 127
35 17
160 40
227 12
128 243
57 36
160 177
175 57
134 52
57 161
233 134
237 8
230 65
32 45
35 151
115 151
92 168
116 24
51 182
239 249
103 179
223 18
37 224
11 207
76 229
155 79
106 133
95 34
67 40
11 178
134 192
74 67
209 250
56 202
40 155
103 77
237 160
59 178
83 60
185 237
11 41
191 72
45 205
4 8
112 154
242 22
148 211
37 199
169 59
25 76
68 50
36 7
242 215
188 172
140 245
35 54
218 82
216 48
217 1
147 75
151 159
210 212
153 11
85 24
226 178
242 145
2 108
186 191
67 147
139 220
190 188
182 63
103 119
117 130
67 224
59 52
245 120
212 108
29 186
137 37
78 224
39 1
226 24
203 15
63 76
29 240
109 24
241 229
64 9
175 159
37 30
29 110
55 226
222 39
176 144
221 224
48 21
139 229
167 64
189 34
122 126
246 81
110 238
239 90
76 51
220 177
194 191
205 168
230 221
208 19
238 55
190 110
138 173
157 250
149 5
6 34
173 144
39 177
79 126
185 147
180 36
177 165
59 16
198 116
128 13
198 249
175 151
250 16
127 13
1 204
221 157
232 153
102 182
154 28
40 110
147 106
242 127
62 96
242 120
125 1
146 143
166 73
142 129
148 97
98 221
67 64
220 38
90 225
24 1
82 62
58 177
175 161
200 18
64 235
218 12
93 37
46 59
136 169
31 76
250 121
224 117
90 142
102 18
243 77
87 201
204 97
209 178
195 48
1 8
87 116
44 75
94 212
199 219
162 176
182 188
148 178
174 170
43 91
228 244
188 10
148 175
153 81
229 63
205 32
62 217
116 94
141 62
178 101
151 66
8 99
130 98
9 104
242 228
18 146
82 180
213 178
154 145
6 20
219 123
103 161
64 4
24 172
157 169
191 165
192 48
133 148
174 180
179 145
45 194
160 158
205 14
113 224
114 106
121 101
120 9
19 75
131 180
176 140
95 230
113 210
104 47
156 206
239 52
51 246
231 104
134 149
95 30
168 169
160 152
86 149
6 148
245 9
101 157
128 154
16 153
23 45
84 242
173 133
175 65
200 44
191 96
219 15
200 136
162 66
83 242
229 119
187 107
232 183
24 170
75 202
152 46
9 214
24 224
74 37
37 99
110 19
60 154
15 188
82 74
239 134
171 163
134 39
88 105
109 242
123 8
229 173
82 229
7 188
38 95
85 249
125 99
182 206
63 82
108 61
59 153
17 22
13 91
32 249
48 198
171 119
250 41
179 183
100 199
137 39
196 175
126 73
143 22
98 186
168 32
248 161
59 56
160 76
48 220
29 238
122 120
211 80
54 197
50 64
130 112
84 200
77 189
102 138
123 26
14 31
154 228
214 53
104 62
2 206
243 179
17 151
140 67
223 184
187 49
95 170
189 50
73 129
131 42
27 239
84 128
244 77
224 136
54 162
142 27
64 75
180 202
236 195
15 157
211 174
42 203
179 38
224 98
104 141
186 246
194 151
236 215
148 95
246 41
154 13
170 148
149 27
112 37
74 98
39 72
15 234
87 190
180 24
197 162
36 64
232 41
184 51
39 220
65 197
23 140
162 111
172 94
206 201
45 6
248 36
162 151
143 144
134 27
187 15
95 88
60 13
219 139
23 32
249 19
104 96
152 232
87 113
233 131
202 57
35 238
31 12
249 108
76 92
159 49
152 213
188 226
55 205
212 184
18 213
229 108
30 170
224 159
20 80
130 157
229 245
74 229
229 121
68 7
225 142
91 97
196 65
125 21
206 190
224 10
110 163
125 146
54 248
46 81
148 8
82 177
180 231
107 216
72 195
68 4
89 116
14 174
143 125
158 219
51 227
2 44
207 232
178 41
117 74
23 215
117 98
155 107
169 224
249 23
22 145
22 159
121 110
236 145
85 1
218 42
69 16
196 187
220 249
83 44
240 190
102 63
17 197
77 119
239 24
110 18
97 36
87 229
90 5
117 214
155 203
137 30
175 17
204 95
13 145
105 118
186 15
22 139
48 222
20 95
119 199
236 247
18 173
173 57
5 39
189 68
249 236
139 127
199 105
88 76
245 87
224 130
131 155
196 197
34 105
234 23
228 77
188 210
8 250
152 209
60 122
70 186
42 33
97 43
87 188
105 10
67 105
137 9
181 209
201 238
18 67
195 222
7 122
59 240
7 65
2 75
88 36
152 14
1 137
192 220
102 87
233 166
139 48
127 38
103 57
55 72
178 207
234 187
16 183
1 171
166 122
174 135
230 170
152 183
137 188
147 133
227 218
157 8
171 85
244 248
229 22
56 155
25 240
150 165
124 8
94 165
199 113
205 12
4 67
236 60
132 71
12 51
82 33
13 139
59 213
50 25
171 34
195 212
169 20
83 128
75 100
75 117
69 207
8 101
66 17
161 152
120 73
157 93
195 210
200 143
183 121
205 26
194 217
24 9
177 223
241 170
82 119
86 49
219 119
107 177
24 79
123 4
162 115
239 225
7 180
184 72
29 142
31 26
61 183
88 15
218 33
102 108
232 46
249 178
123 233
243 83
130 74
23 187
148 204
71 42
210 56
124 147
111 56
121 145
245 149
111 159
86 225
185 4
96 173
100 143
227 222
187 159
116 155
28 83
240 163
80 204
137 184
107 56
47 177
61 182
175 155
151 133
32 102
21 250
162 45
23 12
173 108
161 83
7 50
134 166
61 200
242 244
250 243
45 79
69 11
196 159
183 250
116 212
175 176
30 135
16 142
108 40
40 216
23 152
103 145
59 152
115 22
31 205
16 213
51 32
69 158
58 190
189 91
229 220
65 45
110 235
117 235
32 182
116 42
89 216
187 163
23 164
115 7
228 28
36 114
88 153
195 184
156 105
137 108
5 73
201 113
94 102
127 231
193 236
186 117
195 116
181 250
67 110
34 182
122 94
128 163
189 93
155 210
71 218
233 162
64 155
137 24
203 117
209 11
171 186
59 41
161 127
227 168
118 203
5 189
56 234
73 134
212 87
118 96
228 161
140 18
182 223
30 214
17 196
140 45
166 146
207 209
196 111
12 249
218 131
235 19
13 28
107 149
93 117
137 93
43 93
201 140
72 137
173 25
61 173
93 98
120 239
200 60
184 177
57 66
95 47
40 249
56 40
227 14
98 230
215 248
60 173
30 6
97 1
245 187
62 67
212 89
179 61
207 81
245 207
217 61
135 14
240 19
53 135
137 191
106 173
232 69
111 79
74 157
191 19
203 58
85 8
164 39
65 111
77 161
215 247
16 178
238 186
191 250
154 109
9 73
149 207
215 28
88 12
243 13
22 66
112 119
40 235
41 15
14 223
3 245
239 126
203 132
9 142
242 128
139 38
79 17
63 12
149 225
18 95
169 221
55 56
218 203
103 173
168 20
193 160
37 230
107 239
191 238
165 1
198 159
224 112
203 131
212 229
139 123
71 82
164 32
54 66
23 199
250 11
217 193
64 7
188 64
145 1
157 112
158 51
129 120
179 215
217 231
77 128
238 135
74 169
185 106
181 152
109 47
202 235
113 105
102 56
21 136
53 76
122 149
212 19
233 149
66 115
40 19
76 227
203 201
28 128
41 183
106 138
64 189
2 152
149 73
134 90
4 147
87 193
214 148
230 17
53 170
178 181
124 185
64 202
248 242
154 161
5 86
230 33
215 13
141 67
177 190
185 8
50 75
125 220
59 11
94 211
148 115
15 191
213 142
163 25
38 201
29 16
153 187
157 230
23 245
99 4
18 16
74 42
176 115
7 75
119 193
25 66
27 107
133 185
117 182
69 182
161 60
71 58
246 250
138 193
160 184
127 103
248 13
109 120
5 34
221 37
131 162
208 249
155 87
100 64
171 98
239 109
238 120
144 39
147 68
24 65
44 50
16 207
132 55
109 61
194 150
15 23
14 26
49 244
221 33
23 43
162 25
178 3
58 202
96 105
229 9
44 84
61 236
39 208
76 168
117 157
57 226
144 21
32 224
63 31
142 73
164 40
236 122
24 96
96 67
7 108
65 66
59 69
198 24
43 45
1 154
127 128
202 167
163 29
250 207
198 222
54 139
20 170
110 184
205 63
78 220
162 247
168 31
170 214
18 108
38 163
213 29
218 11
243 154
159 115
169 237
144 105
134 144
90 247
245 102
48 247
58 114
72 223
194 61
172 226
107 229
195 169
213 207
24 131
66 196
36 235
217 156
219 23
48 160
117 44
214 204
203 186
146 200
221 17
224 157
166 5
136 206
88 96
9 233
118 62
154 77
214 144
214 174
193 110
36 50
112 230
28 145
184 182
