Vertices 85
63 "#19"
44 "#72"
7 "#31"
72 "#50"
24 "#10"
30 "#61"
23 "#29"
54 "#33"
33 "#77"
3 "#80"
73 "#34"
17 "#24"
9 "#42"
25 "#48"
77 "#60"
55 "#84"
53 "#49"
29 "#13"
21 "#65"
81 "#8"
47 "#71"
49 "#47"
13 "#45"
79 "#75"
84 "#11"
28 "#68"
82 "#6"
18 "#46"
1 "#44"
58 "#17"
14 "#55"
11 "#1"
27 "#58"
71 "#57"
57 "#62"
26 "#4"
62 "#82"
2 "#14"
42 "#73"
45 "#59"
15 "#2"
83 "#28"
34 "#83"
64 "#12"
37 "#35"
67 "#43"
4 "#9"
51 "#38"
56 "#27"
38 "#70"
69 "#56"
40 "#78"
16 "#5"
5 "#63"
50 "#79"
8 "#76"
46 "#74"
52 "#20"
39 "#54"
76 "#30"
36 "#52"
78 "#51"
59 "#69"
41 "#41"
60 "#15"
65 "#39"
22 "#66"
32 "#37"
10 "#7"
20 "#3"
12 "#16"
35 "#64"
68 "#32"
85 "#40"
74 "#26"
6 "#36"
48 "#21"
43 "#67"
61 "#18"
66 "#23"
70 "#53"
80 "#81"
31 "#25"
75 "#0"
19 "#22"
Edges
72 24
43 7
62 55
68 85
24 37
58 2
64 78
60 23
30 68
38 42
27 1
80 34
7 81
43 19
20 37
57 5
4 29
7 48
61 2
75 68
67 60
69 65
66 35
25 35
13 24
7 66
13 28
64 71
72 65
77 82
28 22
26 58
57 85
50 55
49 47
57 13
5 54
81 49
25 79
25 49
12 11
59 72
55 33
41 69
72 17
24 84
27 84
38 46
61 67
25 61
27 36
38 44
66 25
45 56
45 21
32 7
25 45
25 58
12 26
53 24
58 56
62 22
11 4
25 32
62 50
82 45
61 78
58 83
14 9
62 44
50 3
30 12
81 6
6 4
72 13
62 80
65 82
37 14
11 35
67 82
59 60
51 81
42 8
57 75
29 20
27 83
14 49
65 78
4 42
57 69
19 2
35 12
58 4
30 24
64 84
59 44
44 46
13 78
43 69
79 46
41 9
36 81
24 35
73 63
12 24
67 46
26 16
56 83
49 60
18 6
4 60
44 79
45 49
33 62
84 81
27 66
6 1
46 4
68 35
18 10
48 1
33 40
7 84
2 52
53 39
16 61
51 30
16 69
8 44
82 58
12 51
56 65
9 49
48 19
2 7
10 51
47 45
39 24
11 85
1 19
28 35
37 4
76 46
84 76
29 14
68 22
25 7
51 6
81 65
21 56
57 59
40 80
76 47
73 60
35 45
1 83
81 72
67 51
74 17
16 13
35 48
68 24
25 75
19 7
34 62
62 40
4 22
73 67
44 42
8 46
56 53
48 70
82 31
68 80
45 79
14 66
69 66
19 57
33 50
74 5
1 61
66 43
11 41
67 4
55 40
71 27
71 60
57 18
15 84
83 32
30 25
70 42
28 48
79 18
45 65
43 16
57 76
19 52
82 43
8 38
83 81
62 27
73 59
51 11
63 61
29 13
5 6
48 73
27 23
76 11
34 33
62 68
36 12
59 67
22 41
23 59
13 17
35 18
60 81
61 7
79 42
70 44
42 46
31 83
29 23
76 79
23 53
37 18
18 29
7 64
37 6
67 31
42 59
17 48
7 9
15 11
1 65
80 27
71 31
39 11
33 80
17 57
12 19
5 17
71 81
28 83
26 25
34 40
49 35
83 53
27 64
36 84
55 80
75 35
83 6
6 13
56 25
30 37
4 50
78 57
81 28
59 78
1 73
18 25
66 76
76 45
84 59
57 11
54 57
58 75
78 15
76 83
79 38
79 47
74 57
59 70
45 17
82 70
4 23
84 71
41 16
4 8
71 78
78 76
67 75
17 24
13 26
67 42
32 56
60 53
18 30
25 76
81 61
72 30
59 53
64 81
59 17
78 24
53 76
36 26
2 64
10 4
78 84
4 3
43 35
19 58
18 16
9 66
6 27
51 83
37 29
30 10
43 12
75 78
79 19
77 60
77 20
65 28
53 4
6 56
36 71
78 36
72 25
45 22
6 34
61 73
30 13
18 43
79 69
15 23
68 27
33 3
58 49
59 76
78 69
13 75
60 31
55 34
17 26
5 19
61 35
32 65
43 61
54 84
25 85
66 79
78 60
72 18
9 29
67 2
57 41
75 2
12 48
10 81
37 13
58 37
35 85
32 58
56 34
49 61
45 32
63 59
13 4
63 67
19 47
16 66
53 21
17 78
70 77
41 85
39 76
18 75
73 64
13 18
76 19
29 58
83 25
23 11
30 36
25 10
53 11
61 60
66 11
52 75
28 45
13 58
11 52
70 60
63 1
37 68
8 79
78 72
6 10
28 30
57 84
47 42
29 22
