*Vertices 303
248 "#282"
111 "#177"
98 "#31"
184 "#213"
269 "#256"
117 "#76"
296 "#7"
244 "#63"
286 "#118"
92 "#221"
272 "#220"
231 "#254"
78 "#46"
260 "#288"
223 "#95"
38 "#115"
47 "#4"
109 "#91"
133 "#146"
202 "#106"
7 "#236"
252 "#179"
185 "#295"
280 "#260"
152 "#294"
298 "#145"
127 "#186"
129 "#240"
191 "#61"
169 "#178"
138 "#78"
285 "#290"
95 "#10"
212 "#202"
97 "#138"
124 "#214"
215 "#75"
283 "#163"
293 "#28"
174 "#140"
166 "#250"
165 "#114"
235 "#90"
168 "#132"
63 "#222"
171 "#104"
217 "#136"
216 "#97"
197 "#185"
45 "#111"
186 "#244"
43 "#211"
21 "#205"
55 "#257"
22 "#124"
205 "#37"
75 "#167"
76 "#5"
276 "#150"
49 "#11"
303 "#30"
183 "#16"
246 "#152"
227 "#86"
72 "#272"
60 "#38"
142 "#123"
69 "#43"
284 "#70"
162 "#71"
232 "#200"
279 "#83"
278 "#100"
250 "#57"
93 "#193"
26 "#58"
141 "#60"
199 "#269"
203 "#263"
134 "#48"
73 "#183"
108 "#139"
87 "#273"
25 "#64"
36 "#234"
193 "#55"
59 "#65"
80 "#135"
288 "#98"
201 "#164"
181 "#24"
210 "#40"
88 "#155"
295 "#133"
9 "#1"
89 "#235"
27 "#206"
208 "#128"
48 "#50"
32 "#47"
258 "#93"
115 "#242"
196 "#212"
85 "#19"
13 "#15"
131 "#275"
91 "#297"
164 "#88"
251 "#79"
277 "#192"
274 "#210"
34 "#154"
31 "#277"
292 "#94"
177 "#225"
167 "#299"
207 "#42"
70 "#17"
241 "#278"
33 "#188"
159 "#120"
240 "#72"
90 "#239"
264 "#171"
41 "#36"
263 "#14"
198 "#258"
268 "#238"
236 "#44"
105 "#224"
247 "#129"
156 "#149"
3 "#195"
234 "#39"
221 "#107"
37 "#173"
237 "#201"
204 "#85"
180 "#276"
18 "#280"
50 "#53"
273 "#122"
56 "#251"
271 "#218"
29 "#245"
176 "#51"
62 "#184"
229 "#253"
16 "#89"
175 "#208"
290 "#161"
100 "#189"
137 "#302"
214 "#204"
145 "#67"
195 "#271"
86 "#92"
194 "#34"
190 "#127"
187 "#268"
302 "#169"
287 "#279"
282 "#180"
118 "#300"
15 "#181"
44 "#143"
39 "#6"
179 "#165"
12 "#207"
225 "#281"
104 "#159"
19 "#25"
261 "#261"
243 "#298"
163 "#219"
119 "#131"
79 "#9"
155 "#137"
54 "#147"
58 "#33"
51 "#301"
266 "#144"
300 "#156"
24 "#203"
143 "#13"
53 "#172"
218 "#252"
140 "#141"
161 "#74"
188 "#119"
149 "#170"
30 "#287"
116 "#8"
256 "#54"
182 "#148"
249 "#99"
77 "#176"
209 "#22"
259 "#283"
10 "#134"
257 "#3"
28 "#113"
4 "#23"
148 "#182"
226 "#228"
157 "#69"
301 "#284"
84 "#101"
42 "#87"
213 "#20"
101 "#175"
189 "#116"
139 "#227"
238 "#166"
154 "#126"
147 "#197"
71 "#231"
228 "#226"
158 "#81"
146 "#229"
106 "#2"
74 "#110"
220 "#199"
245 "#153"
11 "#109"
113 "#285"
1 "#196"
172 "#255"
64 "#35"
128 "#198"
144 "#82"
267 "#66"
294 "#52"
110 "#168"
239 "#230"
289 "#151"
114 "#246"
200 "#158"
222 "#41"
291 "#286"
233 "#160"
8 "#259"
123 "#249"
255 "#266"
178 "#121"
132 "#223"
65 "#174"
122 "#26"
67 "#21"
57 "#190"
66 "#56"
265 "#162"
224 "#49"
5 "#80"
130 "#237"
270 "#216"
112 "#233"
82 "#102"
150 "#45"
173 "#187"
81 "#264"
297 "#267"
61 "#27"
230 "#103"
99 "#68"
219 "#291"
107 "#270"
83 "#217"
40 "#274"
14 "#117"
160 "#130"
170 "#157"
211 "#59"
52 "#296"
125 "#125"
35 "#96"
23 "#29"
20 "#105"
253 "#84"
275 "#12"
254 "#73"
135 "#112"
192 "#215"
153 "#209"
281 "#248"
2 "#262"
121 "#191"
262 "#265"
103 "#292"
242 "#62"
17 "#289"
126 "#0"
68 "#232"
96 "#108"
151 "#77"
94 "#194"
206 "#243"
136 "#293"
102 "#32"
6 "#247"
120 "#241"
299 "#142"
46 "#18"
*Edges
221 208
52 51
18 167
252 260
77 169
93 277
101 90
91 225
54 133
234 66
179 170
10 178
152 169
158 128
80 50
60 154
87 72
51 17
57 206
5 235
89 90
62 127
88 199
188 154
252 70
89 255
202 96
151 144
65 142
275 94
74 165
285 260
226 186
246 141
230 288
53 258
262 166
120 29
163 143
232 206
139 71
221 110
83 272
69 70
51 260
237 231
160 108
269 166
246 122
108 294
40 229
109 133
95 299
137 282
18 101
143 264
127 104
121 100
79 64
277 1
245 214
107 280
196 258
38 35
178 161
286 119
10 34
162 209
51 113
283 41
292 151
161 269
268 128
268 68
189 84
131 287
147 266
46 67
61 257
281 238
283 233
125 241
274 280
231 298
12 132
300 34
117 284
97 168
73 111
232 15
125 159
10 132
182 266
280 37
242 201
93 12
36 50
136 287
145 205
243 180
277 128
177 264
261 231
24 93
272 148
45 61
282 53
257 38
37 197
75 85
238 258
164 232
58 215
95 59
128 108
245 36
280 18
80 190
66 205
83 192
296 96
277 51
290 283
249 104
272 252
83 166
67 44
255 54
121 113
241 201
18 252
98 106
226 68
22 7
184 63
124 228
202 153
128 93
63 132
290 80
95 209
221 164
34 121
164 256
55 187
232 3
59 205
129 36
45 171
138 140
170 200
83 153
175 96
281 251
259 30
175 197
274 202
99 191
177 192
75 104
259 104
237 34
3 34
21 132
53 155
234 117
270 197
185 18
187 139
241 17
140 189
39 74
265 56
222 295
207 293
96 74
140 273
131 51
244 76
262 295
73 160
187 261
31 103
202 127
51 197
49 102
282 260
62 33
193 85
105 163
120 89
166 125
273 133
2 281
247 83
177 37
301 225
248 80
198 1
120 24
37 148
153 217
189 155
147 245
18 137
146 212
38 273
154 178
219 18
206 216
124 163
258 116
292 275
160 119
264 36
290 265
273 214
97 15
50 211
230 195
212 85
74 282
27 153
137 260
80 41
234 84
140 242
91 52
80 171
282 136
77 285
246 73
108 80
58 44
178 47
74 11
106 66
177 135
156 227
280 271
77 257
14 38
241 30
213 210
270 113
128 214
293 70
21 96
209 60
140 123
257 293
25 247
41 216
87 3
72 101
277 94
185 219
147 121
27 35
225 243
179 108
167 219
43 63
57 165
173 121
62 35
72 139
92 184
254 216
272 54
166 8
45 126
212 57
238 121
196 165
272 115
252 167
124 114
228 12
55 101
53 290
277 50
188 198
195 259
163 270
262 255
221 202
112 260
21 167
219 301
171 5
286 104
184 83
110 159
57 259
241 127
78 50
89 266
213 23
298 69
65 11
109 60
163 206
52 104
168 52
85 102
145 216
29 114
193 267
165 162
100 169
93 258
146 229
260 152
298 44
223 47
24 291
139 124
225 287
103 53
2 231
2 280
195 300
298 30
220 109
129 89
277 180
56 190
65 266
136 241
180 172
100 94
199 166
33 160
292 157
241 166
273 174
252 149
274 68
122 98
262 203
17 259
82 288
156 266
104 201
272 264
199 262
6 130
210 76
56 269
266 265
7 114
158 125
252 37
69 234
116 64
294 65
192 92
189 287
45 293
113 287
154 202
281 232
220 121
49 138
219 118
72 149
196 112
155 217
52 225
43 12
268 114
130 203
303 79
248 127
67 294
132 38
153 300
121 277
166 12
196 43
214 53
180 33
280 177
8 53
21 94
285 259
301 241
171 282
168 163
302 183
281 62
229 302
298 73
266 97
261 167
239 21
10 80
130 10
250 236
255 1
245 258
112 17
44 178
91 259
302 138
295 8
53 298
137 214
149 75
61 293
179 116
102 276
258 228
68 301
128 36
201 146
237 262
229 81
158 204
292 234
198 111
192 206
58 79
3 225
47 97
79 191
215 117
85 77
164 11
261 198
110 161
182 246
165 1
135 157
31 301
62 63
221 74
15 62
271 111
158 145
255 11
48 193
206 147
158 273
127 226
229 246
91 149
89 80
184 124
36 89
200 198
220 277
55 80
243 177
84 82
35 230
57 208
232 100
296 224
177 121
60 211
184 112
12 232
1 196
73 230
247 50
161 163
156 140
91 17
152 248
167 180
60 42
157 302
60 126
247 141
167 277
24 80
195 44
197 53
6 239
167 184
114 167
101 248
123 239
242 64
110 300
160 217
65 148
228 229
203 55
119 105
293 284
138 126
252 169
284 234
136 301
112 291
274 3
149 68
128 173
207 19
64 230
216 243
252 57
269 297
197 282
241 34
257 116
184 302
138 168
204 47
37 13
217 279
116 66
198 8
299 84
83 63
291 152
283 170
97 98
265 75
300 31
201 34
175 83
301 91
272 34
204 16
87 203
18 75
140 31
279 302
57 93
95 302
196 259
156 67
186 130
63 233
100 57
105 274
152 137
138 25
113 152
129 226
105 12
169 295
170 201
125 31
142 77
291 30
199 56
149 52
220 93
200 34
103 167
45 16
57 179
2 203
104 212
287 91
159 14
198 136
277 110
256 67
4 244
54 44
63 228
185 113
73 84
205 13
63 111
68 45
208 21
299 44
205 209
269 255
92 228
63 65
206 168
158 236
110 36
300 274
154 38
113 280
115 239
114 57
144 150
108 247
29 140
152 118
269 107
192 105
147 112
137 97
180 219
41 266
13 47
281 233
53 101
180 233
216 174
272 8
153 97
44 279
87 168
277 268
158 166
33 4
238 257
65 32
230 278
172 121
206 71
266 8
120 219
171 74
146 56
295 154
12 302
41 32
32 102
58 47
115 186
255 177
122 154
202 300
34 128
58 28
232 30
166 105
268 130
253 144
81 53
255 175
186 150
131 139
80 154
282 300
29 239
131 301
278 214
39 46
24 53
7 100
302 290
270 272
140 296
234 211
178 256
243 104
116 244
185 189
111 149
3 206
164 45
108 29
110 231
299 156
56 262
118 18
166 201
24 232
203 231
192 153
201 90
44 212
224 234
75 195
165 24
127 68
173 245
145 154
290 19
22 169
131 113
214 232
36 143
56 40
291 131
266 14
163 122
198 231
297 262
54 174
199 87
108 168
231 273
280 72
224 294
131 52
271 163
269 192
72 262
166 87
182 275
235 164
233 251
257 234
24 31
138 253
65 272
52 180
296 86
170 211
246 21
264 180
169 21
174 182
89 139
125 94
103 137
255 166
272 230
286 125
259 146
288 50
301 214
192 107
107 237
139 56
27 280
301 248
220 156
185 214
118 243
268 186
11 171
230 199
2 81
57 121
120 68
1 250
115 71
160 121
185 3
31 270
117 240
175 184
78 11
188 160
273 154
99 75
184 272
153 12
187 229
114 139
105 161
105 27
166 280
281 36
102 278
138 144
116 82
140 54
271 206
211 76
68 198
178 88
287 118
250 11
2 108
170 95
15 37
136 92
88 124
233 57
193 67
278 288
177 10
149 261
74 122
289 44
265 271
198 75
160 155
88 85
289 298
142 265
63 27
238 6
178 217
277 226
63 128
141 223
37 290
247 160
246 266
259 185
262 195
273 95
239 1
86 292
112 268
179 41
2 268
203 81
94 24
87 218
301 27
11 112
44 115
123 129
85 209
49 270
180 109
75 238
56 112
93 100
289 276
296 266
232 1
201 238
280 229
198 87
196 27
134 122
61 39
274 92
216 292
52 241
36 3
49 238
22 281
153 287
75 247
212 257
2 262
30 73
97 62
52 277
114 201
47 85
259 177
262 282
237 94
255 216
34 238
10 247
265 184
91 231
218 97
124 43
225 30
106 149
30 255
169 62
85 130
133 246
288 22
153 124
142 21
22 12
154 238
101 14
142 238
91 31
279 124
119 295
99 205
23 188
163 290
22 179
272 63
33 24
35 223
295 294
89 173
218 172
268 18
172 80
161 234
138 251
56 172
165 283
274 12
52 248
292 35
177 271
218 229
196 180
129 268
192 212
65 71
191 211
188 24
108 95
110 265
184 132
241 156
53 206
197 271
257 247
97 290
116 147
245 32
56 230
220 128
71 239
264 233
8 199
133 152
160 164
14 165
93 214
145 183
297 198
245 161
195 280
41 104
82 249
101 271
140 237
52 212
117 258
30 51
250 264
189 290
224 20
137 27
111 229
64 102
181 299
265 170
238 160
139 184
297 225
293 176
200 284
55 195
146 186
136 174
250 275
109 170
168 241
11 126
176 101
280 129
174 298
101 127
72 182
75 170
301 17
154 64
54 266
197 216
187 182
229 195
160 1
78 5
129 71
231 239
13 15
239 268
139 100
152 91
104 7
128 179
94 73
278 299
125 198
72 195
270 88
188 115
77 197
161 189
37 29
246 12
297 218
137 113
233 275
147 93
261 91
50 93
77 223
273 289
112 29
94 140
113 52
112 197
108 286
189 53
193 65
196 228
255 229
42 86
185 139
302 107
59 250
218 72
199 93
241 56
81 289
27 30
289 3
48 102
93 257
73 166
184 88
192 62
27 217
219 260
150 283
247 168
252 52
7 149
184 228
90 6
269 264
293 240
167 124
197 96
89 140
41 303
164 37
52 133
89 206
185 136
56 15
75 8
53 148
23 47
176 70
128 231
272 192
198 163
18 271
180 291
262 182
63 34
65 85
135 181
203 166
103 219
97 208
153 16
132 105
125 273
26 5
297 182
273 176
247 290
187 297
289 266
13 165
75 233
297 199
24 203
228 93
182 179
106 237
299 182
105 299
14 225
302 257
220 166
179 290
198 94
221 141
87 233
262 44
241 214
167 131
217 119
302 177
1 93
8 172
268 147
73 268
47 286
106 85
266 120
63 255
264 248
55 149
216 252
285 27
65 228
228 268
87 231
96 15
164 264
302 34
170 233
73 279
116 293
241 219
154 24
170 91
131 127
297 268
180 31
300 177
180 259
180 89
280 269
114 123
28 97
287 30
281 139
179 200
166 149
195 2
210 294
68 185
221 38
162 284
27 116
175 163
230 252
158 57
94 1
104 238
210 222
297 203
241 298
129 114
81 197
194 181
109 227
166 93
3 18
192 232
161 196
104 80
43 175
132 301
176 216
268 29
269 110
140 150
267 234
18 34
43 222
185 31
231 189
128 33
122 145
149 16
87 40
223 84
171 93
101 73
32 286
80 247
272 228
290 279
36 289
245 45
206 186
272 229
152 18
136 152
156 257
282 111
176 197
300 170
241 101
92 105
197 10
205 190
172 81
265 300
140 167
135 233
69 60
97 101
129 109
71 226
92 165
290 169
52 219
138 106
187 231
54 294
112 115
241 114
169 37
77 224
285 131
88 201
93 248
96 270
180 118
165 250
241 31
167 287
3 93
233 111
16 254
186 139
45 89
229 200
280 172
177 184
147 214
270 274
161 35
148 252
181 169
270 297
243 128
26 173
202 45
153 252
258 124
130 114
51 248
268 146
143 224
10 73
101 77
287 259
41 267
21 233
185 52
31 1
233 290
236 275
120 34
303 102
37 80
146 139
124 36
255 107
143 109
185 30
302 88
247 143
108 217
17 31
77 193
130 73
80 163
192 266
187 29
192 3
177 12
158 277
169 158
149 2
22 159
103 285
251 21
4 213
91 214
23 176
102 207
184 270
220 232
239 93
166 172
12 51
37 217
11 146
155 10
225 180
41 253
105 112
228 62
156 147
83 124
115 202
196 170
40 15
147 197
258 171
228 132
114 232
282 15
10 281
114 271
172 40
73 95
272 268
53 266
282 169
121 18
278 223
40 77
115 128
278 64
237 100
301 212
28 135
35 145
40 72
101 223
287 243
179 118
52 247
110 11
172 38
121 33
39 275
277 43
115 7
231 269
170 278
246 44
198 229
219 196
93 154
140 33
292 44
147 100
172 238
154 108
51 109
187 280
83 241
202 116
155 97
81 56
185 103
125 113
252 22
28 171
38 87
141 4
168 25
283 291
100 34
36 167
212 136
260 238
150 228
228 192
122 221
121 94
118 217
233 302
28 45
21 11
156 246
161 223
89 192
230 62
122 256
53 232
172 229
294 217
146 200
232 163
89 10
110 17
89 118
36 286
285 18
19 39
101 197
17 287
103 180
77 176
258 149
104 35
226 251
90 115
115 226
258 264
24 6
105 265
217 296
30 168
203 107
193 57
182 116
289 182
110 183
223 193
225 196
194 64
169 297
113 90
228 232
246 299
51 168
139 29
199 247
113 17
8 186
27 228
273 189
137 179
109 204
233 248
142 188
110 245
217 259
128 57
68 90
254 217
29 186
260 21
15 196
68 54
168 54
3 219
36 123
256 294
150 234
262 15
214 3
299 75
266 10
173 100
7 140
152 103
211 210
295 80
209 154
39 293
301 163
268 94
248 136
90 123
245 266
291 18
123 146
22 140
240 284
57 33
98 232
84 35
75 205
170 106
187 81
114 112
223 249
223 237
23 13
264 187
110 85
179 62
3 223
154 62
194 98
16 37
229 261
121 93
225 152
254 161
154 95
243 167
264 279
270 36
148 62
221 11
51 65
112 6
155 290
179 231
175 196
50 205
231 225
154 299
45 287
110 62
192 63
64 66
287 281
159 143
286 178
302 197
295 10
149 164
35 216
70 234
192 27
3 237
65 15
155 149
110 238
93 287
274 77
120 40
277 56
99 170
44 252
128 171
144 244
195 146
295 128
110 8
274 246
55 218
168 90
177 43
112 7
225 81
189 132
287 177
269 212
108 11
258 200
176 59
149 19
160 149
87 241
270 45
12 92
161 261
177 73
108 97
132 201
226 139
287 290
25 275
2 206
14 273
182 273
280 56
77 68
115 94
231 218
81 111
245 53
284 254
199 172
21 281
114 121
235 109
206 91
286 159
110 88
62 142
53 301
84 249
188 14
26 284
108 101
114 152
225 269
302 234
228 17
127 15
161 231
128 146
56 8
134 204
120 136
265 85
16 105
302 170
193 45
125 124
94 37
221 28
68 202
170 295
5 151
78 117
3 153
204 235
109 47
52 152
129 239
94 174
226 131
114 281
96 28
125 163
17 52
80 179
140 38
302 110
2 259
53 37
63 163
168 119
195 231
259 136
180 136
45 138
178 189
196 300
82 64
87 255
50 19
205 85
222 184
74 20
2 8
32 175
254 8
245 113
251 158
217 74
181 58
287 285
164 145
269 2
232 188
152 167
55 52
54 85
244 95
60 258
288 13
281 3
12 184
240 150
31 272
36 139
44 140
225 103
300 200
215 28
143 21
16 12
210 48
90 93
109 131
200 95
168 233
92 77
171 57
7 184
302 265
15 147
2 56
101 148
10 15
118 241
246 298
142 245
34 170
97 83
97 217
252 155
150 256
85 140
52 177
281 115
8 255
97 33
219 131
71 29
147 1
251 122
231 107
189 188
226 87
30 17
58 191
131 91
226 29
258 21
302 252
53 186
131 103
215 240
162 294
106 64
196 31
38 175
93 136
258 227
161 209
45 20
149 199
230 249
297 107
229 55
167 27
3 171
98 209
145 156
83 196
57 125
96 20
166 302
239 174
94 297
101 21
96 275
217 150
163 101
30 167
139 68
179 75
85 176
285 198
280 231
264 77
186 45
274 192
242 156
118 225
88 149
206 289
275 41
299 38
273 160
115 50
140 181
86 16
86 157
96 2
188 125
182 54
184 259
130 112
63 124
212 116
14 36
148 282
226 114
87 261
164 108
272 271
298 252
20 19
129 130
264 18
102 194
283 143
220 100
60 169
163 172
34 212
200 238
216 268
105 228
291 103
38 188
55 261
128 13
202 135
261 72
299 149
77 149
224 236
160 220
80 264
220 147
30 137
256 5
273 170
35 222
277 146
5 138
234 157
11 13
125 59
200 289
266 163
52 187
114 150
225 298
120 163
105 124
91 36
226 140
85 36
302 239
27 241
247 299
186 36
217 271
195 81
196 177
292 288
90 130
40 269
155 85
274 177
7 139
291 219
7 129
112 94
97 268
228 271
237 187
36 87
104 290
33 158
201 190
83 270
67 25
244 47
62 73
29 72
106 121
167 289
82 85
237 1
257 49
302 10
253 224
127 181
173 140
133 177
101 252
297 238
200 75
187 199
97 247
186 112
283 222
145 161
158 97
37 73
195 269
45 165
127 111
115 123
122 170
276 182
45 96
262 190
255 140
107 132
165 271
24 21
147 196
56 196
237 276
177 94
84 191
192 1
36 21
198 187
179 283
288 10
218 166
272 18
93 231
27 37
280 203
274 255
92 278
63 177
261 103
237 232
267 19
34 148
135 11
186 68
131 290
262 269
192 229
264 214
30 52
146 6
63 16
181 247
206 108
84 47
19 171
195 203
72 190
170 245
170 189
216 189
18 8
135 252
299 20
180 45
83 12
281 149
108 13
179 246
211 278
214 206
27 113
105 83
31 247
65 77
273 90
236 78
203 291
281 120
98 116
216 223
272 259
228 127
218 56
160 224
11 77
283 75
1 261
62 255
185 131
52 259
110 75
12 24
118 259
52 37
235 117
238 250
260 30
157 288
10 77
119 4
189 14
15 197
112 89
287 229
206 281
200 70
200 218
281 123
102 164
268 110
237 101
287 51
260 180
170 206
196 270
91 299
89 239
97 10
113 254
181 79
93 17
206 115
92 27
200 265
33 255
51 91
155 28
158 138
22 164
179 107
254 162
271 222
288 168
172 149
101 201
153 177
252 75
57 94
169 43
253 249
181 145
25 49
266 37
180 94
56 252
241 24
241 51
58 67
63 38
298 168
80 243
217 277
30 101
100 123
300 249
217 247
161 220
115 143
222 154
254 286
72 121
131 146
100 1
295 273
96 239
89 123
163 228
202 296
282 19
266 177
193 238
54 298
291 83
53 49
27 32
91 103
166 187
212 252
29 281
127 280
184 129
111 301
27 124
77 225
111 252
170 184
39 221
132 137
130 89
163 94
140 298
291 149
185 167
177 18
41 176
37 281
238 187
247 295
185 262
166 265
232 173
65 217
260 136
33 212
40 218
108 190
237 273
150 46
15 7
24 100
196 166
103 299
32 108
153 6
192 184
113 241
215 46
298 299
118 226
150 182
100 179
27 22
100 187
139 22
224 284
258 159
29 115
79 76
277 259
303 32
298 3
40 255
290 238
49 290
231 238
45 11
208 128
281 112
146 272
53 163
148 14
93 40
105 272
179 225
199 40
70 46
231 81
190 160
195 101
18 225
15 252
285 17
107 182
190 297
271 161
302 248
45 66
265 238
56 77
230 84
163 274
268 190
262 63
58 85
94 152
139 129
11 150
33 110
36 226
224 254
5 204
287 156
237 77
65 20
128 260
247 140
244 296
220 49
139 90
82 278
36 114
218 220
236 109
28 160
69 42
160 74
273 286
286 14
152 30
133 276
39 150
299 273
288 223
93 49
259 301
68 130
23 150
262 77
291 185
3 127
280 97
66 221
199 55
83 255
261 101
11 30
206 81
113 103
197 44
70 258
55 231
124 136
172 187
90 24
41 60
178 216
300 84
221 135
122 5
276 273
152 241
147 97
78 251
12 163
300 290
158 137
92 175
145 125
82 217
279 103
138 151
89 186
226 33
11 167
219 152
113 167
132 27
218 81
158 98
248 90
128 100
81 201
220 1
202 228
11 28
114 239
149 232
41 110
248 131
166 290
188 47
177 202
174 289
177 123
29 130
277 184
16 138
248 285
84 245
245 254
251 301
255 187
225 137
57 101
266 133
232 121
86 116
177 89
164 169
35 178
234 25
187 203
164 86
16 171
258 150
52 287
260 52
14 178
81 8
18 37
266 228
151 278
225 120
119 150
163 170
42 294
17 103
125 206
170 199
96 196
51 185
69 150
198 270
201 1
10 208
248 259
89 100
180 152
123 254
259 228
128 270
137 21
154 254
122 66
24 171
77 148
201 56
83 122
211 59
56 166
300 53
245 68
73 119
184 165
231 255
30 285
163 91
275 204
218 262
78 256
217 120
47 69
128 94
152 17
294 48
221 224
30 219
40 252
167 260
20 13
212 40
180 229
237 147
104 128
154 69
192 163
184 119
36 29
243 241
81 91
271 93
272 174
243 285
109 293
236 296
143 140
154 142
165 257
149 49
248 225
218 241
73 169
300 75
262 136
120 114
175 153
272 37
269 30
270 97
128 212
266 108
102 235
229 118
264 237
68 136
82 35
274 97
89 21
254 72
56 149
27 177
169 289
148 111
119 44
22 280
276 147
105 153
153 139
87 262
279 253
122 179
196 63
7 90
218 216
122 24
53 100
72 166
36 291
32 295
261 199
210 23
36 301
129 53
279 168
196 272
203 197
287 152
299 133
231 262
172 233
177 233
201 2
86 227
185 248
222 82
302 163
29 173
297 195
147 120
212 1
110 290
266 161
35 204
135 238
156 216
244 42
288 84
295 160
281 71
182 164
133 289
99 211
33 93
153 63
134 23
160 10
122 1
50 273
218 295
285 113
37 65
284 283
12 68
238 27
130 277
131 166
213 256
255 208
98 244
20 283
250 290
222 189
206 146
294 238
7 12
59 244
237 128
149 20
150 189
112 36
68 281
102 73
55 166
300 105
299 266
232 49
229 56
252 164
124 192
29 129
123 105
121 1
56 24
172 55
211 294
248 166
229 51
301 103
33 254
45 14
265 201
203 216
122 278
187 107
274 220
97 184
80 278
206 107
11 202
186 129
10 108
138 111
37 196
243 17
192 259
174 18
112 239
282 62
53 180
17 18
217 206
258 177
20 221
97 127
175 228
247 169
185 260
22 14
217 12
174 44
285 153
203 229
33 94
60 160
198 81
219 287
285 190
292 276
120 262
183 221
111 269
38 138
139 130
195 56
189 196
22 178
14 140
228 153
127 214
275 174
185 132
236 267
257 23
134 144
116 127
179 110
132 20
281 127
217 141
152 201
23 102
2 1
94 124
182 258
279 154
239 206
38 161
285 152
97 189
248 252
136 90
257 265
239 226
221 143
96 183
75 20
143 27
217 114
20 257
94 175
141 32
224 74
114 115
295 155
201 75
94 232
193 145
291 287
11 272
272 29
94 123
281 27
28 164
198 166
15 264
55 280
178 188
80 167
22 283
39 69
169 251
9 98
53 73
116 157
255 190
131 212
290 50
255 172
247 208
251 193
232 302
172 118
111 77
105 45
173 147
15 111
34 88
291 113
129 120
298 266
165 20
21 179
173 299
103 290
13 147
203 260
168 80
18 52
262 101
45 177
204 154
216 84
114 55
268 115
196 241
53 15
117 254
88 139
38 177
90 71
73 252
100 33
295 139
80 119
109 274
299 174
257 254
94 262
41 290
163 262
26 251
289 15
115 274
209 293
91 180
35 135
53 65
62 287
125 105
274 199
224 66
73 241
103 295
184 196
186 7
147 45
175 271
279 16
170 120
285 120
281 30
290 156
131 279
123 168
233 104
118 167
243 301
166 195
247 155
171 108
38 171
251 151
138 193
140 86
178 125
285 107
137 243
172 231
271 192
2 172
148 127
290 257
195 198
127 188
277 147
176 222
56 55
131 137
250 26
130 115
291 285
208 181
291 3
5 158
186 281
174 271
167 291
93 43
225 291
71 68
225 185
222 294
36 90
286 154
231 230
184 153
103 277
95 211
178 23
130 123
164 16
80 23
222 98
252 282
266 216
78 57
52 118
280 297
69 299
199 231
202 74
33 277
261 52
261 218
261 111
130 255
159 188
212 298
149 37
21 214
257 53
152 243
105 177
91 300
30 301
162 161
43 206
111 264
63 12
191 194
24 276
15 169
177 265
91 38
91 271
268 71
18 111
253 38
302 51
79 98
208 39
240 182
270 271
114 146
63 10
140 299
92 43
68 129
58 106
182 133
190 220
72 2
77 116
40 8
72 198
2 218
178 130
199 81
136 255
100 85
172 297
182 298
260 241
272 260
230 237
140 11
50 194
232 259
19 97
44 182
170 188
97 285
65 101
187 260
66 13
137 187
73 2
290 11
116 88
100 118
158 229
261 139
101 257
161 142
167 285
74 58
243 291
173 255
210 67
119 155
173 129
208 135
237 212
180 18
179 104
180 241
253 235
2 166
29 65
65 13
184 201
9 302
264 85
145 13
250 277
186 90
300 121
15 233
90 146
111 150
36 71
69 122
140 137
232 247
301 268
142 189
187 2
124 175
115 36
252 228
268 38
169 44
229 17
287 31
276 116
49 161
132 153
153 266
193 158
254 240
136 63
102 50
9 224
21 212
116 24
136 271
68 7
84 278
16 193
6 281
241 91
51 226
94 29
125 262
91 136
261 297
31 290
132 83
276 245
299 36
66 74
271 10
178 208
197 62
201 179
63 264
194 135
156 297
11 136
104 163
235 42
184 261
185 17
124 92
148 73
197 185
121 128
61 106
211 26
261 54
142 169
41 242
73 36
258 164
297 285
118 291
50 220
24 128
6 68
5 19
281 188
56 212
268 45
196 12
287 65
7 254
62 158
156 234
17 217
256 210
258 73
169 34
166 297
94 149
163 180
62 218
265 277
152 301
167 139
61 126
27 175
84 233
200 282
193 210
18 301
165 202
201 120
89 55
24 273
63 175
130 239
301 167
141 54
266 181
24 3
161 60
164 295
184 43
72 252
206 109
286 89
181 216
81 262
73 287
182 166
228 137
124 270
219 68
3 212
87 297
101 186
300 238
264 138
101 111
149 290
208 190
109 244
62 37
124 241
205 155
272 50
262 192
113 301
193 151
107 195
105 251
178 59
239 186
125 161
231 1
216 253
239 88
29 96
62 232
237 21
173 93
268 195
177 132
275 237
94 122
212 94
195 87
94 136
274 184
87 55
241 274
244 141
85 294
26 235
232 262
125 192
233 265
51 301
184 57
219 246
187 65
252 34
137 248
273 26
75 161
90 239
81 55
119 190
165 212
139 115
37 120
98 237
204 164
31 97
198 51
14 293
248 243
117 211
214 73
218 107
137 219
111 65
301 21
250 3
277 289
55 262
51 137
278 249
130 36
24 173
198 255
241 18
225 260
227 273
21 1
3 147
65 94
53 177
137 31
163 275
234 46
234 86
212 147
268 226
8 229
269 1
51 108
56 3
291 31
57 136
137 118
197 127
73 128
56 29
92 163
37 271
94 55
126 74
98 22
31 45
275 274
130 118
201 136
226 90
282 100
72 172
83 179
115 299
214 173
34 104
288 12
232 287
69 224
164 109
220 196
247 167
285 65
28 279
24 218
264 212
252 2
225 241
29 146
16 242
239 7
147 29
16 266
203 198
230 281
199 280
285 241
230 292
68 34
9 79
54 281
101 238
124 271
8 280
139 120
56 184
184 233
273 139
11 283
230 116
290 182
143 234
116 240
75 271
27 275
174 140
132 15
53 77
58 300
2 3
25 276
104 92
100 298
222 67
17 225
292 110
302 108
152 131
158 267
177 1
62 149
109 7
38 160
295 18
247 116
18 260
254 156
38 241
189 38
247 104
229 268
277 34
226 172
18 80
74 73
206 301
109 94
131 180
281 40
163 177
234 75
33 123
245 295
72 1
256 126
56 107
94 146
294 14
37 77
26 275
101 75
12 89
128 247
269 199
216 199
63 231
196 77
171 188
190 39
130 7
171 98
165 38
232 258
33 21
280 83
254 239
259 243
139 206
123 271
118 139
217 16
97 73
291 123
73 225
103 136
63 187
300 118
11 61
118 136
205 170
41 299
238 88
228 97
171 237
186 6
272 163
79 66
156 205
17 115
226 169
57 147
196 105
27 163
216 62
269 295
255 2
95 75
3 270
21 266
212 232
300 116
130 208
209 176
2 109
196 124
228 36
281 150
199 75
301 89
300 88
257 98
75 88
60 286
112 280
111 62
195 172
277 298
237 220
291 52
110 27
108 89
149 204
55 269
103 52
14 93
54 147
222 93
194 47
96 221
245 156
288 76
156 55
273 55
12 30
146 92
91 219
122 125
3 264
15 72
137 285
18 51
97 231
247 273
252 197
57 55
252 7
120 115
255 290
44 38
197 260
55 8
169 111
276 15
278 226
104 260
8 298
75 262
217 112
16 176
97 42
38 284
6 123
286 139
73 276
280 81
72 214
297 231
252 43
104 268
2 87
47 227
166 273
264 259
51 246
145 38
41 181
6 226
180 287
65 197
189 212
225 140
42 211
130 206
30 136
233 73
124 297
119 82
239 261
265 289
301 285
201 174
158 257
107 252
81 261
225 177
278 114
264 93
90 114
81 166
33 98
167 51
153 254
250 54
161 293
203 252
97 77
161 282
212 53
220 94
170 290
224 84
245 300
182 114
128 272
111 230
117 161
92 153
169 273
259 260
273 188
252 229
23 193
266 67
1 224
146 127
168 160
274 272
166 177
282 185
10 217
179 286
185 91
11 293
97 287
132 196
177 29
224 211
123 7
293 189
57 300
257 149
145 273
264 40
70 41
137 301
119 294
283 201
17 260
194 208
259 1
260 127
33 280
55 129
272 266
209 22
18 218
233 41
269 261
220 24
29 220
88 72
190 295
65 149
42 204
124 119
125 28
70 211
245 216
184 105
186 71
31 259
168 10
75 276
161 232
116 79
292 82
108 259
197 196
185 180
127 282
14 298
239 252
165 43
302 300
241 291
24 68
241 279
151 253
262 187
8 269
170 72
268 281
2 198
129 45
57 80
69 46
182 11
186 158
228 43
49 250
243 233
28 202
24 281
122 47
40 262
198 56
288 65
141 168
239 137
169 114
118 260
214 24
180 17
98 57
171 135
226 112
156 174
173 186
205 47
151 279
252 166
282 239
71 37
89 3
131 104
89 68
9 76
195 177
115 129
248 118
3 260
198 212
29 158
1 57
153 85
34 298
114 128
139 280
285 245
18 108
265 167
131 30
167 31
125 141
105 43
106 77
303 141
114 206
261 255
139 291
83 163
27 270
24 147
142 286
28 256
181 230
87 83
196 274
215 162
184 51
153 196
107 87
105 11
146 36
192 10
144 158
252 131
300 203
103 51
113 192
75 55
174 133
170 124
301 168
201 72
222 178
173 234
264 107
5 9
229 131
118 51
82 194
281 129
114 68
245 185
76 70
291 51
295 300
268 8
300 112
266 44
253 104
158 232
124 93
43 27
206 226
295 108
24 89
37 50
107 262
195 156
217 283
201 287
10 194
188 262
131 243
139 94
124 275
281 103
222 290
246 174
242 157
98 25
9 145
230 223
172 87
256 69
132 187
279 271
80 111
12 289
291 101
128 169
202 95
14 296
178 254
248 214
158 150
165 171
92 196
203 295
124 132
146 153
102 25
91 30
289 299
94 107
217 282
248 103
283 302
61 5
288 202
269 53
158 155
238 233
190 179
179 238
201 163
240 134
34 265
173 123
187 72
294 200
146 115
258 237
112 125
282 225
63 239
241 185
180 274
54 226
273 94
55 72
132 163
127 93
86 258
1 173
66 168
259 131
201 266
229 2
91 87
144 32
202 75
179 273
18 259
259 15
71 7
2 297
16 102
135 7
3 100
179 89
25 54
154 271
29 277
301 118
72 107
283 113
268 6
24 198
154 176
225 219
22 60
196 254
177 83
116 140
62 264
295 84
185 37
110 104
299 116
167 109
81 297
33 220
211 194
274 16
186 62
67 122
118 103
299 276
273 173
111 197
116 245
121 237
286 274
8 62
297 55
10 65
90 112
21 277
41 134
20 38
31 246
252 233
111 110
95 284
285 225
56 168
228 75
12 175
285 185
126 216
268 36
36 52
264 56
38 73
285 38
197 57
87 24
109 42
125 189
147 289
68 112
36 192
33 214
247 142
184 130
230 166
170 180
86 204
97 93
167 169
241 229
103 36
175 274
154 58
24 170
275 296
270 80
191 47
81 271
292 249
64 85
195 54
95 257
258 251
164 49
83 274
182 206
154 171
288 93
89 261
79 145
20 171
299 227
28 74
45 192
283 34
187 277
201 156
246 214
94 192
72 168
248 287
49 145
163 184
155 169
145 66
225 247
196 125
224 133
125 239
258 42
218 238
89 7
107 112
290 176
261 262
222 193
225 31
295 298
294 293
44 198
146 110
73 234
133 129
26 224
264 70
271 132
124 274
277 173
172 94
155 66
73 290
275 235
163 116
228 274
16 154
261 124
277 214
84 253
261 56
139 239
254 294
26 267
195 261
4 210
137 287
80 53
97 24
167 259
93 21
156 57
43 83
192 270
175 199
208 295
220 275
71 123
216 230
93 245
112 206
169 148
261 8
272 107
270 283
280 251
91 291
107 230
273 149
287 203
120 63
7 6
120 90
7 226
168 16
152 251
180 246
217 100
237 173
63 174
26 111
173 289
160 257
6 62
159 38
184 271
208 214
277 223
168 28
44 234
27 184
249 201
80 180
265 179
22 16
286 146
227 158
302 90
120 112
118 30
108 27
163 196
18 31
120 104
199 51
155 135
75 49
181 257
164 42
68 87
132 92
245 146
18 113
129 146
282 160
117 157
34 290
56 208
188 89
281 146
37 192
238 283
198 55
6 158
206 6
102 15
160 184
127 212
92 271
92 93
280 262
40 195
108 155
229 173
277 24
167 91
20 143
180 206
198 269
146 44
285 199
254 279
117 162
192 87
279 5
1 24
297 133
221 69
96 172
32 134
7 44
234 202
142 273
3 220
10 119
148 223
105 271
97 80
170 133
185 301
161 55
146 112
218 198
205 19
243 133
147 33
290 75
123 91
16 247
276 60
238 72
206 36
248 290
104 151
142 50
72 8
100 184
65 158
220 164
14 229
52 280
236 151
133 44
268 21
265 283
287 103
279 224
283 149
16 41
145 47
231 72
119 74
43 153
116 273
215 224
69 293
26 134
120 130
57 234
137 115
63 200
158 279
199 120
29 68
36 272
123 226
24 123
198 281
197 78
104 199
107 55
163 34
36 232
107 40
184 103
1 275
261 299
257 75
185 251
81 107
268 252
77 302
75 178
137 91
206 7
289 184
112 121
57 21
245 289
197 148
246 196
143 256
37 132
20 202
137 52
288 15
195 199
297 40
228 270
121 170
175 54
205 293
116 13
36 239
153 163
29 262
288 92
259 219
239 281
160 150
68 271
40 169
290 102
278 100
108 192
219 17
184 101
228 10
297 56
105 275
63 266
9 143
43 274
158 187
170 181
22 265
261 230
174 73
269 158
212 121
80 124
249 274
10 272
14 171
70 164
187 40
214 212
280 36
3 282
190 247
135 45
264 53
221 61
77 15
163 279
238 57
80 155
1 33
297 53
172 139
56 273
41 102
101 98
151 162
91 18
173 57
206 199
162 158
155 194
226 246
122 141
140 246
22 264
267 275
127 231
148 294
142 125
77 120
277 212
68 10
272 112
111 272
146 3
278 24
128 1
215 254
238 204
278 216
100 122
225 8
21 7
256 208
263 242
301 93
277 100
168 155
300 179
111 177
62 42
135 96
113 30
275 207
94 106
98 179
246 7
44 138
120 75
233 260
45 110
207 254
8 174
31 100
102 134
3 277
270 12
127 73
81 291
140 261
43 271
260 301
68 36
21 220
130 226
289 140
36 24
165 96
199 2
58 209
180 285
198 80
89 241
158 93
111 281
281 7
33 3
205 290
28 217
93 212
104 53
266 206
211 98
186 169
250 104
20 28
22 68
245 44
118 17
252 77
17 196
124 285
127 37
154 283
255 56
165 11
247 272
15 175
203 269
200 124
182 55
12 119
218 203
245 257
63 105
73 202
255 112
200 14
127 52
294 69
139 188
33 119
40 2
37 243
171 232
269 87
102 156
260 31
128 147
284 161
30 18
97 119
198 262
174 179
196 252
175 22
232 147
5 134
252 279
288 109
153 122
177 14
13 59
197 73
89 279
73 15
43 112
6 29
80 160
135 20
147 250
94 72
28 142
130 71
83 119
250 302
141 95
243 280
282 20
177 68
302 36
140 214
150 120
184 219
121 53
119 108
282 99
220 12
131 247
32 22
105 241
62 53
97 194
188 261
55 173
252 49
21 192
225 259
283 110
239 298
109 12
60 264
285 51
93 290
282 7
269 172
2 107
232 27
220 214
8 158
122 61
128 116
139 150
1 238
246 276
277 73
68 108
274 247
208 119
260 199
295 104
138 252
228 302
27 271
8 195
112 71
218 174
152 184
137 167
24 55
170 33
200 68
18 266
257 246
158 280
85 194
298 296
88 92
138 279
136 219
32 53
280 40
201 302
196 271
223 292
14 125
228 83
34 233
217 168
35 100
131 136
238 302
136 18
165 153
248 108
89 15
300 63
60 95
75 302
127 53
113 38
287 185
65 127
167 241
54 299
252 264
72 186
230 179
147 94
104 283
220 239
31 113
199 72
72 81
245 273
276 160
138 10
302 8
8 127
96 198
283 189
24 121
165 192
230 102
122 116
139 149
193 288
233 10
88 146
200 77
54 6
104 8
88 250
155 270
239 184
170 41
37 111
294 278
206 277
299 221
34 41
282 291
125 138
149 101
139 112
225 121
125 64
202 171
180 301
130 270
184 109
10 181
254 246
259 68
274 238
190 10
257 65
197 211
275 281
206 123
197 169
15 272
224 238
184 226
16 227
281 226
43 260
89 226
203 56
179 163
202 62
115 108
87 81
151 53
174 276
146 89
17 136
182 168
62 57
297 273
118 279
284 215
39 70
92 187
35 288
120 273
217 256
268 285
286 188
177 114
180 248
115 77
97 259
233 200
283 98
287 237
28 138
87 280
93 180
95 157
110 242
248 291
198 40
273 255
273 178
289 297
112 129
269 168
237 250
281 192
218 94
53 149
137 259
234 60
46 96
123 3
163 43
71 114
261 225
164 14
37 108
27 268
89 6
148 274
186 262
180 254
129 177
235 73
4 95
15 22
222 10
258 276
165 224
94 12
174 80
133 77
281 57
222 252
110 255
3 128
154 149
295 238
159 242
298 18
214 171
68 280
57 232
52 243
160 216
197 164
43 268
170 93
214 100
218 187
237 179
199 203
185 152
159 170
69 235
152 259
131 18
243 18
283 58
156 44
220 224
137 93
113 166
108 123
130 65
133 57
166 40
174 2
296 26
160 53
270 92
248 219
99 194
273 105
31 131
111 189
174 65
31 152
87 100
142 178
16 109
71 89
43 297
253 251
85 24
25 46
116 76
119 104
270 153
62 65
206 29
271 178
246 245
45 74
297 91
206 119
252 297
87 125
118 91
193 26
72 203
31 219
14 281
106 247
249 288
127 51
275 29
108 65
291 108
112 123
42 77
33 257
103 30
150 134
286 214
225 113
289 259
239 128
125 277
303 134
165 253
30 90
21 15
49 160
90 281
233 226
172 43
159 154
66 98
190 168
142 85
237 33
54 156
276 22
136 225
170 103
258 211
177 270
276 169
86 235
230 54
123 37
229 297
195 255
96 212
68 63
118 31
136 167
68 123
68 115
116 271
251 5
294 76
29 88
224 216
208 262
184 10
84 292
203 163
265 140
106 275
170 202
17 248
106 122
287 81
165 221
270 252
73 60
300 283
6 169
161 140
291 260
41 217
234 169
299 303
255 199
115 89
224 154
27 21
280 93
147 96
218 91
231 56
171 221
123 186
21 147
260 91
283 139
135 282
15 148
124 233
264 135
261 280
245 12
4 181
23 48
159 273
110 34
177 124
222 273
262 96
225 12
241 131
299 151
24 225
125 300
120 7
233 201
110 106
134 66
212 103
136 97
89 214
150 290
3 21
113 63
153 33
285 118
266 274
117 95
43 125
73 299
279 179
287 18
272 132
184 33
277 229
268 7
117 296
25 183
110 229
295 290
291 17
198 89
277 237
61 46
172 132
3 173
220 281
285 111
264 172
233 179
153 272
259 103
9 47
140 3
264 94
224 122
45 152
20 153
118 113
237 57
279 184
128 53
60 119
150 129
45 39
218 77
237 93
199 27
295 226
63 271
238 273
298 156
89 37
228 107
104 274
302 179
8 228
154 125
250 164
293 85
17 239
20 109
57 90
272 175
231 112
187 12
115 245
254 12
1 249
212 193
15 90
75 92
88 155
54 223
246 259
152 247
39 122
91 100
233 88
50 83
270 132
110 137
174 266
225 246
108 12
164 150
104 300
71 6
43 272
269 92
254 115
38 286
301 198
81 246
27 122
151 26
85 97
156 58
283 118
298 133
130 281
225 51
166 31
163 297
94 214
239 120
282 101
198 107
132 262
78 294
107 229
72 255
229 103
127 34
160 97
232 72
293 41
174 278
291 259
97 295
140 245
31 51
164 227
36 94
216 107
129 110
80 217
107 172
239 190
101 62
25 143
69 74
112 173
231 289
230 82
233 255
121 38
24 2
124 198
6 135
47 224
138 149
294 286
282 37
7 103
204 135
38 52
266 56
97 32
243 30
97 232
136 243
8 187
199 198
274 31
190 81
158 238
279 197
272 124
168 45
239 135
245 174
229 260
43 233
234 247
109 86
68 239
76 257
93 8
22 10
285 110
129 121
143 299
24 57
136 285
232 277
125 33
161 174
110 223
169 127
169 201
21 114
62 130
26 299
266 140
250 296
156 218
200 302
5 144
149 228
25 222
16 235
261 2
271 153
252 62
22 203
288 254
142 276
265 104
276 275
168 271
260 100
214 299
94 173
201 89
214 121
280 1
116 181
114 6
217 163
201 273
3 139
9 116
182 156
266 166
24 212
83 116
154 127
115 97
90 21
169 72
212 140
290 264
14 142
229 87
50 207
273 199
151 267
93 94
282 30
9 244
106 194
274 214
102 141
285 91
256 4
123 139
83 223
233 110
142 149
51 297
201 200
115 6
271 300
22 156
2 55
298 172
156 133
165 97
175 177
168 225
78 215
243 51
121 178
36 7
255 115
80 75
272 12
203 255
301 279
27 90
202 254
153 274
158 75
80 272
146 288
107 261
34 21
138 171
87 56
268 107
270 118
170 166
203 167
237 24
37 96
14 86
276 156
133 140
205 159
77 202
152 51
137 241
303 249
24 228
9 20
223 82
264 127
290 197
128 218
175 192
155 75
252 53
281 177
7 33
3 1
15 101
208 22
268 302
48 188
201 110
225 131
49 170
77 127
65 73
44 302
269 218
233 245
24 260
169 53
282 14
31 30
36 44
42 47
248 113
192 255
169 84
38 142
87 52
255 301
32 119
29 90
64 32
155 208
177 228
219 51
197 125
201 220
147 285
177 180
266 276
192 196
206 68
99 159
206 268
50 281
270 111
206 44
197 291
113 136
231 27
290 201
190 155
51 149
45 221
11 39
240 161
224 109
80 125
214 51
37 160
170 110
140 276
94 119
145 191
174 206
102 145
173 53
83 22
295 151
203 8
246 289
140 97
288 127
175 160
218 199
146 226
114 186
70 150
94 252
279 178
57 257
73 226
273 44
276 183
154 164
178 150
48 154
114 50
149 127
300 201
124 90
192 249
125 83
94 170
27 274
46 122
147 165
142 159
111 206
156 143
103 232
158 151
255 81
50 223
59 44
173 150
94 40
278 85
258 204
142 282
90 264
238 92
9 257
149 151
96 160
53 29
12 72
158 278
238 127
83 187
53 150
75 258
173 212
261 203
186 24
160 208
179 34
40 14
96 112
288 234
158 253
267 60
214 81
289 105
287 14
89 287
3 94
234 266
213 13
243 113
90 232
249 216
154 14
185 118
251 279
292 278
32 66
171 149
11 96
157 200
205 168
197 33
107 166
143 116
65 195
271 12
178 258
124 12
130 150
234 39
81 51
137 17
277 57
297 72
290 211
153 222
299 52
89 14
195 110
101 83
262 229
264 231
199 115
103 133
52 31
214 71
67 4
248 241
91 243
83 27
82 216
115 103
296 211
176 205
6 139
178 176
111 27
130 100
225 167
168 187
231 8
179 301
103 243
68 128
229 186
100 212
231 101
21 287
158 71
52 136
147 83
31 189
177 112
238 70
6 65
173 49
178 38
193 294
12 27
53 111
208 203
257 128
169 264
108 222
99 73
50 67
99 276
178 158
38 23
3 266
180 124
43 132
229 286
128 97
254 84
132 192
31 285
217 229
90 206
167 201
281 89
63 237
24 247
172 261
280 218
219 113
100 21
187 291
195 218
204 227
53 198
63 281
226 120
94 159
173 137
101 181
24 91
259 254
166 261
125 22
178 292
97 94
168 243
119 59
12 273
300 147
258 98
254 163
261 36
94 281
8 107
97 110
73 264
73 168
131 260
246 54
198 91
164 171
119 247
180 51
132 120
128 21
161 276
259 113
185 137
277 172
301 274
247 54
206 120
282 65
233 80
26 204
250 244
12 192
68 146
256 60
94 143
186 197
243 31
299 185
246 286
212 220
214 163
72 251
112 174
41 165
216 161
302 114
65 206
93 232
223 247
92 286
196 3
8 262
140 56
190 137
161 300
75 70
295 158
132 2
240 224
240 158
184 114
259 51
239 143
40 55
255 297
187 282
233 272
251 287
104 71
243 3
77 282
141 28
121 3
177 92
22 154
193 161
35 189
86 288
248 30
172 273
104 302
63 92
149 148
47 176
90 170
21 232
200 172
111 87
120 268
56 62
218 73
274 132
282 73
249 220
131 17
202 6
120 146
37 101
105 175
182 186
186 96
264 148
122 210
269 81
255 280
293 42
51 68
65 245
189 22
294 23
273 285
162 240
168 208
220 83
229 264
109 57
145 235
216 63
73 77
167 248
269 94
252 3
264 101
166 231
142 15
26 38
186 10
216 251
124 49
181 300
295 168
302 181
248 12
275 234
8 109
177 31
174 3
283 54
11 104
186 120
42 100
226 273
285 232
121 252
250 13
90 94
150 48
202 157
92 83
123 43
15 60
287 241
159 178
6 251
174 251
214 17
258 273
29 123
232 33
300 129
182 245
198 172
88 179
85 116
229 269
264 65
18 103
174 113
127 250
228 288
172 262
277 246
165 122
63 270
101 114
218 255
195 282
233 300
98 50
