*Vertices 94
62 "#5"
47 "#50"
12 "#18"
31 "#7"
23 "#3"
44 "#48"
65 "#69"
85 "#61"
88 "#28"
13 "#19"
29 "#68"
3 "#41"
63 "#15"
68 "#62"
43 "#9"
52 "#33"
19 "#42"
67 "#81"
83 "#44"
1 "#52"
57 "#85"
92 "#6"
78 "#58"
28 "#20"
53 "#74"
22 "#72"
74 "#26"
75 "#76"
39 "#25"
37 "#82"
66 "#12"
72 "#78"
21 "#30"
56 "#32"
87 "#45"
90 "#39"
45 "#53"
81 "#51"
49 "#54"
10 "#80"
69 "#34"
46 "#86"
94 "#35"
8 "#93"
14 "#38"
27 "#71"
6 "#63"
33 "#89"
9 "#73"
41 "#60"
5 "#67"
55 "#31"
60 "#14"
11 "#47"
58 "#91"
80 "#1"
48 "#64"
79 "#70"
77 "#2"
2 "#92"
91 "#59"
38 "#22"
26 "#16"
59 "#56"
24 "#0"
15 "#79"
51 "#55"
73 "#11"
86 "#90"
89 "#37"
7 "#24"
76 "#87"
50 "#36"
16 "#83"
54 "#75"
71 "#23"
25 "#40"
34 "#88"
4 "#10"
18 "#27"
17 "#77"
30 "#84"
32 "#66"
42 "#43"
82 "#8"
70 "#4"
40 "#17"
35 "#21"
61 "#57"
20 "#49"
84 "#29"
64 "#46"
36 "#13"
93 "#65"
*Edges
73 23
92 66
57 86
71 28
18 23
45 19
90 87
9 20
27 53
2 33
9 54
42 74
74 35
61 66
51 15
51 84
74 59
86 34
25 49
66 78
2 86
55 43
11 37
88 58
52 13
80 55
57 44
45 35
3 25
51 67
73 5
8 46
88 1
10 44
34 56
91 31
13 38
41 56
1 42
82 80
3 35
62 80
59 20
3 1
83 58
58 2
57 8
92 42
22 27
14 90
67 87
19 9
88 40
76 2
12 87
71 4
39 89
74 15
7 71
29 69
25 35
91 76
30 16
45 89
31 75
32 67
16 17
72 17
58 57
6 82
59 63
67 57
7 5
21 43
20 22
86 78
5 89
10 17
20 91
93 89
52 70
27 1
15 72
44 78
93 63
88 53
91 8
11 94
46 57
10 86
90 92
12 90
78 51
12 42
84 87
80 43
14 76
46 33
8 2
69 13
71 41
50 11
10 37
55 3
48 90
50 88
56 11
39 19
91 45
72 37
61 93
78 15
83 20
22 53
7 43
85 52
86 76
5 63
65 75
57 2
78 91
89 88
21 41
94 77
50 21
46 34
72 77
34 73
43 85
10 16
82 43
6 93
90 32
64 83
72 30
42 87
34 76
83 17
59 5
55 91
27 79
33 56
39 92
32 50
22 87
67 22
6 80
8 75
47 84
70 58
52 77
56 48
90 40
85 91
41 11
84 44
6 31
33 57
72 24
25 84
79 88
50 56
71 35
10 39
3 51
28 63
75 53
5 26
1 47
14 42
72 10
27 75
56 19
17 67
32 51
92 40
59 77
48 35
20 54
30 86
31 61
16 72
68 60
78 17
43 5
69 45
62 82
79 22
54 64
30 15
16 67
58 46
1 91
57 78
1 35
76 1
13 81
35 51
33 58
92 12
46 2
18 12
92 74
25 62
59 43
53 14
82 22
66 32
40 12
11 44
14 50
71 6
69 77
69 85
82 88
4 41
67 15
9 75
10 74
74 44
33 34
67 72
81 88
91 4
87 40
25 91
54 22
43 62
7 52
44 50
44 22
54 75
45 55
14 49
70 85
70 80
17 30
25 28
87 37
49 35
88 42
64 75
81 89
55 23
91 29
55 77
33 86
23 82
42 76
87 44
80 5
29 85
51 17
1 25
70 5
35 12
14 58
51 1
45 56
38 89
39 45
37 30
14 32
91 93
25 51
53 9
86 58
1 64
38 55
49 28
90 59
25 47
4 93
16 15
14 91
74 55
43 52
86 66
62 1
31 20
67 30
55 6
67 83
78 61
40 62
87 47
18 77
44 21
20 78
5 34
59 11
57 70
63 89
56 69
42 40
24 49
75 86
81 40
66 57
6 58
44 59
5 85
9 22
47 56
25 71
91 62
13 88
75 22
91 90
94 68
74 25
63 70
57 10
23 88
90 75
61 83
52 38
89 70
76 6
46 67
67 27
75 79
6 70
66 83
94 69
32 78
79 54
75 91
9 1
64 10
31 66
91 69
55 69
48 36
37 67
21 56
78 10
74 18
51 47
58 34
76 70
6 4
86 56
34 8
20 79
20 90
82 59
28 84
76 8
62 6
54 27
76 57
36 49
84 1
13 89
3 48
49 64
34 57
21 11
10 15
17 37
27 9
6 61
37 6
88 76
22 88
75 4
78 31
79 53
13 77
6 41
48 12
4 23
88 38
2 82
9 79
59 94
56 44
70 69
32 83
14 24
23 62
42 90
36 90
38 27
38 81
37 44
55 59
12 74
50 66
34 2
81 50
13 94
46 70
84 63
50 40
91 40
67 10
86 42
27 17
32 17
5 86
55 82
43 94
49 71
55 48
53 38
77 74
32 39
19 88
76 58
73 48
79 90
49 74
73 56
1 49
23 80
83 31
84 56
17 15
49 42
93 81
88 18
15 64
92 87
68 65
19 66
