*Vertices 446
206 "#260"
110 "#420"
7 "#430"
341 "#314"
241 "#40"
257 "#52"
224 "#32"
22 "#165"
106 "#410"
198 "#319"
266 "#28"
311 "#409"
96 "#413"
390 "#225"
111 "#18"
268 "#414"
351 "#352"
367 "#266"
267 "#298"
243 "#201"
369 "#36"
215 "#29"
422 "#91"
386 "#144"
132 "#361"
107 "#48"
69 "#88"
210 "#56"
39 "#84"
231 "#57"
163 "#161"
349 "#365"
137 "#371"
233 "#331"
140 "#282"
411 "#291"
23 "#322"
227 "#100"
38 "#293"
445 "#248"
223 "#49"
74 "#46"
294 "#370"
308 "#285"
360 "#131"
166 "#310"
204 "#270"
152 "#205"
143 "#196"
327 "#437"
382 "#221"
442 "#159"
68 "#141"
269 "#90"
319 "#99"
11 "#114"
389 "#250"
44 "#178"
276 "#415"
383 "#243"
67 "#329"
368 "#187"
119 "#136"
342 "#17"
400 "#333"
37 "#300"
56 "#163"
325 "#118"
197 "#145"
164 "#20"
33 "#445"
377 "#60"
279 "#402"
425 "#5"
259 "#107"
27 "#222"
387 "#262"
365 "#254"
156 "#213"
340 "#82"
240 "#267"
416 "#397"
350 "#236"
60 "#323"
313 "#404"
252 "#130"
318 "#312"
284 "#350"
393 "#127"
424 "#204"
434 "#124"
160 "#435"
64 "#256"
413 "#252"
52 "#135"
418 "#271"
16 "#171"
35 "#109"
24 "#294"
440 "#440"
324 "#372"
221 "#377"
63 "#406"
271 "#154"
79 "#142"
250 "#301"
236 "#25"
139 "#80"
414 "#374"
278 "#203"
251 "#47"
303 "#14"
123 "#72"
121 "#274"
199 "#168"
47 "#110"
228 "#27"
307 "#324"
125 "#263"
86 "#190"
293 "#176"
356 "#360"
388 "#379"
108 "#26"
58 "#376"
48 "#24"
409 "#242"
55 "#367"
381 "#30"
373 "#288"
83 "#354"
4 "#53"
195 "#215"
131 "#101"
135 "#3"
19 "#185"
329 "#279"
185 "#87"
98 "#74"
100 "#343"
66 "#69"
280 "#289"
309 "#245"
145 "#137"
317 "#318"
109 "#157"
71 "#269"
246 "#346"
101 "#122"
155 "#321"
261 "#65"
29 "#86"
230 "#295"
99 "#264"
229 "#339"
57 "#224"
82 "#111"
207 "#33"
117 "#368"
296 "#382"
384 "#444"
262 "#70"
300 "#408"
408 "#257"
112 "#75"
328 "#197"
395 "#140"
188 "#0"
299 "#31"
25 "#351"
180 "#129"
213 "#208"
154 "#237"
217 "#287"
114 "#177"
218 "#8"
134 "#390"
339 "#326"
116 "#191"
320 "#403"
376 "#138"
120 "#11"
43 "#392"
102 "#150"
347 "#211"
423 "#199"
12 "#401"
330 "#186"
168 "#12"
357 "#217"
435 "#195"
362 "#148"
245 "#182"
177 "#353"
366 "#35"
201 "#259"
255 "#98"
183 "#67"
14 "#286"
354 "#308"
295 "#261"
158 "#169"
379 "#194"
334 "#2"
1 "#439"
337 "#334"
15 "#290"
76 "#106"
282 "#292"
49 "#307"
128 "#164"
421 "#394"
126 "#71"
338 "#336"
436 "#229"
153 "#97"
419 "#16"
288 "#133"
167 "#94"
150 "#50"
291 "#77"
175 "#276"
285 "#255"
51 "#232"
209 "#45"
91 "#411"
189 "#422"
380 "#128"
104 "#373"
260 "#4"
415 "#175"
405 "#421"
92 "#389"
406 "#335"
312 "#364"
412 "#428"
87 "#340"
211 "#113"
254 "#216"
18 "#398"
162 "#73"
297 "#356"
148 "#284"
431 "#115"
179 "#305"
437 "#125"
61 "#238"
394 "#19"
370 "#156"
21 "#432"
222 "#328"
427 "#253"
159 "#120"
17 "#85"
36 "#235"
316 "#192"
94 "#416"
169 "#417"
93 "#265"
142 "#419"
81 "#21"
26 "#240"
283 "#54"
138 "#251"
248 "#96"
214 "#160"
84 "#9"
397 "#162"
272 "#273"
305 "#332"
385 "#380"
20 "#341"
89 "#68"
208 "#108"
439 "#207"
146 "#230"
181 "#23"
174 "#226"
127 "#210"
70 "#58"
225 "#385"
149 "#418"
363 "#227"
242 "#61"
331 "#146"
265 "#429"
97 "#431"
270 "#13"
144 "#345"
40 "#183"
326 "#425"
80 "#233"
352 "#34"
122 "#302"
298 "#384"
253 "#202"
398 "#170"
77 "#443"
216 "#405"
178 "#180"
244 "#155"
85 "#158"
407 "#212"
301 "#228"
374 "#357"
335 "#241"
314 "#275"
65 "#81"
275 "#219"
53 "#102"
372 "#104"
103 "#316"
41 "#277"
274 "#234"
336 "#119"
332 "#93"
151 "#315"
28 "#10"
173 "#258"
247 "#42"
78 "#223"
290 "#189"
433 "#112"
359 "#246"
322 "#407"
441 "#143"
186 "#309"
353 "#362"
430 "#206"
277 "#369"
444 "#395"
157 "#436"
396 "#426"
75 "#366"
73 "#214"
375 "#423"
95 "#393"
263 "#297"
2 "#375"
46 "#151"
344 "#44"
136 "#427"
289 "#116"
113 "#434"
348 "#342"
184 "#1"
399 "#43"
5 "#166"
3 "#218"
345 "#59"
196 "#399"
90 "#79"
30 "#278"
171 "#325"
31 "#149"
417 "#38"
115 "#123"
88 "#349"
392 "#6"
45 "#76"
205 "#299"
172 "#358"
239 "#344"
292 "#296"
238 "#363"
321 "#442"
364 "#37"
232 "#327"
72 "#89"
13 "#126"
226 "#388"
333 "#400"
161 "#281"
315 "#95"
249 "#173"
432 "#433"
147 "#355"
202 "#306"
346 "#153"
323 "#179"
176 "#311"
54 "#424"
446 "#348"
8 "#51"
403 "#412"
190 "#338"
343 "#167"
302 "#63"
191 "#132"
194 "#231"
129 "#313"
170 "#174"
391 "#239"
438 "#39"
401 "#381"
256 "#396"
361 "#220"
426 "#386"
59 "#55"
193 "#330"
219 "#152"
118 "#134"
141 "#22"
355 "#117"
10 "#283"
371 "#441"
220 "#249"
358 "#378"
165 "#66"
264 "#139"
235 "#172"
130 "#247"
203 "#181"
124 "#268"
192 "#121"
287 "#209"
133 "#188"
258 "#64"
237 "#41"
378 "#147"
200 "#198"
62 "#244"
6 "#359"
273 "#105"
182 "#438"
281 "#200"
310 "#391"
402 "#193"
9 "#337"
443 "#7"
420 "#92"
429 "#83"
105 "#387"
50 "#78"
286 "#62"
306 "#272"
304 "#15"
428 "#184"
32 "#347"
234 "#103"
42 "#280"
34 "#303"
410 "#383"
187 "#304"
404 "#320"
212 "#317"
*Edges
90 153
230 354
8 342
276 7
322 91
177 284
361 97
104 287
9 229
287 72
61 356
178 58
214 373
40 131
391 359
100 284
115 203
392 228
83 172
390 166
430 27
136 256
135 215
225 300
424 30
163 120
62 80
441 395
363 151
306 418
358 324
124 35
316 282
225 182
408 368
230 317
307 287
297 57
278 298
83 116
244 238
353 166
152 402
323 138
416 78
284 239
72 59
40 9
401 137
382 343
374 312
195 254
284 351
289 68
274 397
319 128
87 229
245 263
274 46
330 7
132 186
421 129
132 214
140 30
356 130
427 88
414 196
8 369
102 243
196 410
414 311
281 69
254 317
160 246
428 86
110 326
244 343
26 335
7 41
410 330
430 404
316 292
194 170
399 47
324 285
369 442
390 397
219 264
301 62
434 439
152 6
94 300
218 53
59 291
225 284
131 214
101 5
275 129
21 113
127 407
365 199
254 27
444 173
218 253
409 57
250 156
100 110
265 375
437 115
249 203
221 37
387 125
106 421
380 154
97 68
137 12
32 55
199 370
361 388
253 379
148 279
320 117
263 41
106 147
153 223
389 57
145 364
441 192
27 390
148 430
27 393
58 163
284 179
8 19
202 99
285 440
386 98
350 406
199 430
194 106
35 69
216 21
186 436
421 23
125 71
173 204
55 348
100 349
2 268
200 243
445 428
75 337
186 56
264 155
182 384
391 222
402 368
221 335
107 369
155 202
323 350
116 36
120 323
312 353
158 22
436 445
371 199
23 186
30 9
328 243
408 204
23 92
125 408
293 403
402 86
94 100
320 216
68 403
217 281
116 54
166 103
187 18
404 317
277 385
41 329
270 422
338 312
271 428
262 162
413 305
240 397
257 74
67 75
30 122
407 287
64 93
439 430
235 156
32 362
79 31
301 182
343 384
337 246
228 266
61 82
86 359
171 34
75 217
443 231
18 382
221 310
446 416
374 117
278 52
10 24
151 339
162 223
383 330
394 141
125 144
402 175
329 161
33 73
434 31
243 278
330 253
101 301
376 251
319 234
365 357
437 101
287 386
179 6
310 358
324 225
446 346
198 18
341 152
365 279
287 57
44 131
263 329
42 249
92 18
363 336
158 50
354 428
358 410
371 91
196 187
8 192
354 219
110 97
55 351
200 235
279 320
254 77
194 154
391 308
179 337
415 14
220 196
430 61
375 129
229 427
198 129
348 406
346 274
135 293
350 322
437 308
371 367
75 124
22 109
298 232
227 167
335 219
69 231
13 5
300 169
316 136
22 271
424 140
87 67
301 335
288 360
19 118
124 163
383 194
293 63
329 337
195 361
187 240
206 404
379 168
309 130
212 163
359 408
120 402
430 382
137 186
371 106
162 407
212 198
12 117
142 21
395 168
5 128
182 276
410 290
359 415
175 161
387 83
38 333
122 427
219 88
227 424
100 351
152 445
265 384
198 190
86 213
139 50
10 162
187 49
63 214
93 240
27 214
216 409
152 148
367 221
285 101
36 336
80 57
179 34
349 186
398 101
134 274
15 365
138 272
173 268
444 293
318 307
23 246
196 424
3 195
146 423
7 19
109 214
436 213
114 272
35 152
161 365
124 178
209 150
54 412
323 19
354 361
338 83
343 245
333 310
24 18
446 88
305 41
343 323
103 57
410 125
62 118
160 157
180 214
61 309
405 77
201 387
24 225
176 341
161 308
334 293
22 101
275 169
3 415
415 8
174 330
229 343
138 428
308 374
138 293
355 427
432 106
60 267
378 234
154 394
235 99
327 351
309 361
300 276
312 348
121 356
315 319
9 75
256 310
36 354
226 279
446 249
424 197
33 63
222 404
249 146
297 387
229 316
253 170
113 409
409 4
374 147
253 121
170 235
327 348
284 348
156 360
195 238
173 285
30 272
249 34
324 187
19 328
405 445
333 327
396 405
77 21
155 24
232 117
323 132
280 156
250 411
308 54
19 171
370 56
19 293
305 202
418 204
407 19
264 35
42 15
185 260
265 140
140 14
401 256
339 116
380 392
275 109
193 87
279 350
19 351
287 175
219 22
290 185
345 425
282 176
398 291
219 341
15 430
75 132
96 129
436 278
17 13
324 105
55 132
345 438
117 134
360 252
322 86
161 439
280 119
177 351
307 34
390 430
414 256
172 439
110 277
87 32
337 144
188 228
444 375
40 118
32 356
379 328
348 206
65 126
176 146
246 322
197 46
88 204
169 374
221 398
114 445
132 391
350 298
370 221
54 375
155 244
204 320
67 34
133 67
225 40
201 288
328 23
158 275
325 264
190 197
284 55
383 110
110 166
349 87
306 62
387 416
223 438
144 426
411 282
50 188
312 412
37 24
297 390
235 318
23 385
267 238
435 424
295 272
97 147
354 34
416 277
281 174
323 50
155 317
78 249
40 390
195 60
309 310
156 301
432 275
45 123
310 212
222 339
348 172
321 235
287 213
316 166
415 376
68 73
367 87
314 250
397 128
311 354
200 391
418 199
166 233
311 375
163 400
193 341
216 416
409 51
363 409
54 130
330 21
233 408
354 138
239 206
70 431
311 301
310 388
367 285
413 193
142 321
394 260
76 66
43 58
43 92
297 446
198 351
74 4
20 34
388 296
223 429
302 260
36 355
96 189
409 338
211 252
275 400
296 104
199 279
317 222
133 109
333 221
227 345
78 58
80 413
333 414
94 189
339 384
304 261
322 7
218 299
338 18
67 305
58 320
182 198
21 201
163 22
231 168
167 438
80 35
26 390
91 138
110 316
95 129
38 253
403 300
161 38
371 432
258 168
156 26
14 316
178 418
411 313
219 31
272 64
275 173
61 376
146 324
442 411
347 414
387 240
358 30
30 148
193 305
132 203
149 371
391 6
351 415
92 225
232 169
217 373
9 287
354 23
193 405
220 350
281 289
106 206
174 178
20 446
437 261
316 86
213 225
32 348
171 446
86 323
276 166
343 173
384 20
145 394
357 434
56 271
382 400
389 387
201 93
86 278
427 272
105 444
9 54
67 339
17 185
17 420
387 68
436 276
37 216
300 396
389 203
354 379
106 94
333 268
221 58
278 376
163 429
275 168
21 432
274 263
330 75
158 318
87 246
337 297
28 343
36 52
87 42
406 9
61 385
361 287
411 310
106 42
80 347
373 411
321 276
163 373
174 37
44 428
125 117
202 232
163 117
218 200
67 239
14 21
82 273
1 97
234 361
341 26
15 240
231 442
401 277
322 144
21 7
400 92
27 358
361 212
214 191
396 214
395 146
385 138
41 180
349 32
72 57
6 132
118 352
308 195
153 323
91 276
216 157
166 146
96 268
435 387
240 379
289 437
2 97
370 202
396 229
14 110
312 246
171 67
169 220
315 316
436 10
100 343
277 387
213 71
44 46
195 103
254 348
151 217
422 331
403 427
353 6
22 151
129 187
158 202
322 359
443 302
99 201
147 246
414 16
379 422
265 311
122 292
348 338
196 435
240 408
56 254
269 40
362 197
149 91
258 81
252 49
92 179
162 247
40 194
22 218
434 437
205 338
99 413
409 293
305 222
271 243
142 63
93 99
427 137
44 180
312 144
338 238
290 10
106 124
285 272
325 36
172 177
292 155
205 46
329 376
103 163
322 312
421 178
175 383
238 353
318 202
335 351
30 384
117 385
121 30
162 131
285 104
143 253
295 99
171 149
312 88
279 298
361 203
405 216
201 389
38 37
200 83
63 329
436 282
249 119
396 189
51 38
143 196
151 391
349 55
397 205
268 265
348 297
250 349
89 343
67 179
62 190
326 350
27 333
365 356
68 243
421 285
193 428
226 92
169 94
415 355
360 261
129 358
412 94
226 256
3 213
117 233
90 445
241 108
96 33
94 1
86 51
3 254
239 351
254 18
361 118
176 407
85 332
352 260
58 196
117 333
409 9
7 396
99 383
162 306
410 426
406 268
171 264
152 270
19 330
157 268
279 373
65 50
104 414
10 148
371 32
71 398
332 362
180 79
416 73
412 276
54 276
436 253
54 105
50 258
31 34
266 369
432 350
398 14
383 80
325 162
23 284
254 114
73 429
21 169
253 68
182 233
274 18
229 67
276 86
416 337
21 34
265 138
67 202
60 232
214 86
194 148
186 138
239 154
41 333
256 324
226 347
278 100
309 168
54 300
271 116
3 382
213 285
81 181
158 156
365 16
101 363
197 140
212 292
43 225
168 445
399 417
11 108
424 68
267 292
105 196
169 163
171 136
42 3
235 40
88 169
225 239
263 279
198 177
209 392
342 392
375 321
407 27
43 301
104 196
382 212
169 390
337 147
123 107
239 353
195 357
110 55
295 263
229 147
34 233
46 57
301 80
326 440
206 20
282 263
279 294
216 161
284 132
163 33
176 354
106 198
28 101
284 338
7 110
187 275
97 182
122 400
293 376
390 379
19 158
116 409
122 314
105 410
254 105
329 205
321 311
111 81
195 143
44 125
213 431
321 405
180 31
137 277
274 40
7 169
316 58
109 343
19 250
384 157
313 440
351 25
182 311
8 141
317 252
173 94
305 398
122 409
2 415
206 432
194 240
251 340
256 416
277 6
176 427
271 109
306 147
83 5
319 153
86 21
51 229
347 156
338 132
323 69
77 160
204 110
225 137
373 10
189 97
61 436
92 444
113 157
407 30
162 192
99 204
266 123
109 227
373 307
431 61
5 445
166 202
117 435
376 236
256 307
415 250
350 422
199 316
55 238
422 417
105 2
37 292
304 11
82 57
341 166
24 230
391 158
196 24
379 285
423 120
229 155
36 146
171 138
20 132
142 100
414 99
71 234
158 359
383 350
364 159
361 317
430 365
195 6
355 318
103 244
265 51
127 319
387 179
306 408
292 330
226 221
324 293
224 4
271 119
26 445
216 156
193 166
405 19
253 314
294 276
253 316
271 229
339 317
401 444
379 270
429 211
313 94
137 134
36 310
96 106
148 78
282 217
313 232
235 149
27 212
436 418
163 231
387 10
250 134
444 200
233 129
134 295
429 323
161 292
124 363
347 368
103 356
187 307
311 94
311 341
260 325
229 318
431 159
387 395
40 19
383 328
351 268
341 212
280 148
335 209
298 226
311 10
281 338
15 373
100 330
396 54
191 64
34 129
445 375
161 110
305 49
414 124
194 276
312 356
124 97
207 56
97 300
202 285
348 239
294 385
154 391
401 275
51 10
23 365
354 395
397 138
250 374
178 170
95 279
160 313
73 3
279 12
211 437
161 180
443 386
421 278
68 435
125 173
395 128
94 375
79 273
297 65
307 317
445 245
148 15
335 130
27 129
88 144
190 292
340 139
26 209
440 388
437 383
380 288
102 218
73 87
337 100
143 396
145 343
110 94
67 408
98 423
50 39
30 191
292 30
156 80
224 69
397 186
154 209
290 220
122 405
390 295
39 223
71 250
279 310
355 69
350 386
343 128
437 13
106 57
104 358
44 163
226 354
83 99
330 296
69 434
179 313
99 250
222 212
426 418
157 142
353 294
106 229
416 230
218 275
296 418
5 120
386 275
101 79
329 22
392 259
280 80
153 19
226 204
293 330
38 25
38 205
442 201
338 95
280 329
95 221
398 379
86 59
316 138
7 33
405 91
128 205
289 145
365 412
387 128
363 37
134 385
314 163
69 120
420 355
194 249
122 78
87 298
100 354
5 433
298 148
10 442
140 83
356 88
2 226
354 35
306 93
414 296
293 21
422 185
389 100
5 442
412 169
333 116
2 43
132 374
75 83
107 224
413 300
365 18
129 339
54 94
348 337
165 369
202 23
189 421
26 284
348 9
316 435
373 278
284 88
217 157
432 33
333 295
322 216
402 237
292 439
176 445
205 41
408 26
365 401
9 55
41 23
170 415
87 34
173 99
324 221
61 379
18 196
99 128
78 103
415 169
367 80
347 61
282 292
213 226
198 341
338 436
93 230
350 433
407 400
162 275
253 208
281 285
255 304
75 416
265 1
222 95
415 293
156 11
361 373
147 348
120 224
431 273
383 153
439 140
194 416
128 56
361 326
348 21
105 277
388 358
309 95
356 87
353 25
408 31
248 183
359 128
254 250
65 23
317 24
389 101
279 155
235 116
348 374
72 82
376 185
144 204
279 388
404 23
6 421
21 33
295 238
138 398
190 349
385 297
323 235
277 18
10 263
206 387
217 92
399 197
270 274
20 229
36 383
290 278
172 151
375 229
7 91
98 408
13 52
148 27
403 341
436 36
431 441
36 62
224 31
136 432
330 249
163 105
240 161
288 252
60 161
110 193
177 75
226 36
434 118
255 330
24 166
112 211
75 136
155 439
52 395
221 134
104 63
427 314
2 187
259 211
48 183
148 402
395 38
420 218
200 80
387 250
217 439
344 291
110 233
431 285
15 246
233 348
61 160
1 103
397 103
136 384
36 19
125 153
24 279
7 63
62 309
118 48
147 43
383 275
103 339
12 350
191 378
219 362
12 333
117 427
54 421
213 439
235 428
406 229
446 156
196 49
272 51
92 358
170 293
357 206
354 404
428 341
222 34
156 316
296 60
400 413
280 422
157 106
95 282
313 333
75 155
148 90
99 3
88 374
250 230
221 313
422 278
439 407
146 122
32 353
97 432
98 395
445 329
214 56
369 381
115 397
121 387
97 313
408 9
91 250
350 282
157 1
405 415
360 393
406 297
229 161
39 269
257 394
133 423
192 101
328 281
428 199
254 10
122 349
317 193
297 333
277 117
250 292
91 268
193 416
277 414
401 316
354 170
132 149
82 76
186 347
109 199
389 357
295 398
316 137
128 85
246 351
67 157
125 329
22 200
335 2
143 313
345 163
24 339
145 52
435 330
58 5
19 396
234 53
252 69
36 103
432 327
12 324
19 437
394 115
399 79
250 170
356 106
140 313
316 18
56 109
117 71
421 416
59 5
296 32
235 169
424 353
179 341
144 371
361 127
292 373
153 367
445 337
418 75
232 67
303 286
180 4
356 375
239 343
253 32
157 350
97 338
338 406
16 138
169 113
251 325
118 376
6 406
235 10
117 414
57 30
205 26
366 352
308 321
314 354
417 98
186 26
155 203
155 222
349 312
16 342
360 118
180 314
48 109
389 295
292 23
324 226
392 82
146 61
359 390
18 256
397 341
220 51
6 73
421 104
64 288
86 415
252 102
59 255
446 177
363 26
341 229
296 43
320 239
437 275
174 195
333 20
124 170
64 307
171 93
424 316
5 365
16 361
240 138
23 174
401 324
441 386
376 65
432 338
367 99
200 423
250 175
83 408
265 300
264 386
100 147
126 45
113 404
207 84
238 6
172 406
42 323
290 309
440 182
183 260
391 307
5 22
186 240
157 110
35 312
83 406
285 93
416 320
153 233
176 60
18 401
136 157
117 2
16 10
409 297
54 19
389 362
404 439
82 191
439 73
342 5
32 30
299 108
108 90
196 432
41 370
93 178
357 108
400 233
114 323
177 9
190 106
287 338
266 8
190 307
317 179
402 329
308 249
28 79
380 252
25 312
439 38
313 106
153 176
256 408
263 275
116 243
196 134
364 260
337 239
312 410
54 371
39 90
365 405
49 34
193 232
361 42
313 324
112 262
189 430
221 182
31 395
309 124
174 26
257 355
43 221
27 421
395 42
97 42
405 235
341 190
122 161
380 125
439 294
156 3
14 161
443 223
137 310
301 23
274 383
127 148
95 256
206 88
226 310
206 277
42 413
326 277
313 27
128 370
390 114
437 347
142 110
248 192
250 14
171 33
388 351
105 320
239 78
3 430
240 367
83 229
31 295
400 173
318 166
96 318
93 137
432 440
277 15
364 31
90 214
232 187
121 426
150 257
280 250
258 102
2 320
321 63
443 168
56 199
436 290
265 327
86 243
436 401
202 267
432 268
115 336
197 169
69 259
386 27
439 225
22 233
279 358
260 304
176 10
49 268
312 351
277 43
201 173
127 195
254 106
122 376
103 24
101 439
127 229
127 442
33 10
297 100
206 71
204 174
248 433
146 373
276 428
109 296
25 282
26 51
125 384
403 94
222 193
329 379
177 312
422 314
345 332
278 33
442 71
218 123
426 132
221 357
173 52
387 20
350 310
170 383
97 322
422 109
349 351
23 214
391 363
154 213
415 235
394 334
235 197
91 384
34 318
6 52
224 215
71 240
9 109
233 235
305 23
373 246
246 406
337 172
332 45
30 357
162 146
103 375
80 445
353 341
180 218
41 267
187 320
24 226
272 73
320 445
91 440
359 204
30 389
233 134
277 268
293 133
110 403
18 239
105 361
147 351
353 406
414 388
117 403
22 128
52 42
245 178
130 385
365 444
350 363
327 97
373 244
143 64
254 274
329 30
292 175
404 400
86 10
382 1
294 104
97 21
27 18
6 229
371 97
160 97
320 142
339 359
51 404
383 327
61 94
315 167
405 322
270 258
377 181
118 288
344 65
322 305
24 148
134 95
322 110
424 235
288 251
386 249
416 285
436 324
58 174
175 24
348 75
43 313
343 76
77 333
327 373
182 412
20 244
95 226
353 446
2 298
225 58
169 91
186 127
100 238
234 445
40 234
207 13
387 295
138 309
203 255
355 274
92 58
400 179
416 173
378 31
408 106
199 385
265 276
134 12
219 152
280 195
316 404
146 220
39 131
424 379
3 317
60 155
166 177
235 44
402 206
314 263
55 239
79 395
166 281
31 441
201 418
171 55
127 333
16 137
33 326
374 198
74 112
204 389
134 194
294 221
77 415
327 110
313 63
349 382
103 25
1 300
263 398
290 156
78 337
202 320
16 124
37 212
178 444
217 436
333 173
90 44
193 67
263 75
101 288
271 30
203 224
217 197
209 111
63 160
238 278
250 213
71 133
214 9
86 212
148 358
421 358
224 163
405 268
170 428
226 94
215 336
348 365
203 350
314 388
152 44
230 41
329 90
317 249
375 276
292 309
297 421
171 404
424 263
363 146
308 122
99 124
314 75
238 374
239 176
138 436
361 52
201 330
285 295
61 276
282 409
428 225
193 103
101 52
41 407
24 140
307 401
237 287
435 203
197 337
216 403
92 313
93 393
55 170
251 235
387 427
218 425
421 343
391 309
337 206
189 160
33 321
403 202
142 440
9 374
356 390
146 433
292 268
133 367
385 170
276 169
301 36
366 227
290 379
174 88
274 14
121 80
418 408
317 354
312 75
152 281
358 77
412 142
122 411
359 297
199 376
87 294
446 146
212 100
253 323
376 41
221 196
214 79
229 32
171 343
175 318
98 153
201 428
209 56
2 58
51 445
216 390
414 357
257 325
132 297
362 202
382 127
379 175
432 343
239 127
86 437
225 125
21 54
330 250
12 233
424 330
282 148
322 124
346 15
351 83
10 41
134 388
166 354
52 140
187 60
330 271
332 174
312 347
436 410
398 292
156 10
195 397
56 318
415 357
121 104
217 64
20 297
346 439
230 116
194 311
161 201
178 370
177 2
99 298
214 415
196 202
379 376
193 415
333 416
436 314
384 404
98 59
152 133
199 61
427 99
148 33
330 442
249 379
327 233
177 321
374 338
226 134
253 435
412 329
77 97
285 208
204 124
9 202
385 2
204 212
155 44
425 255
290 22
401 382
174 280
36 409
109 379
314 363
110 54
314 205
436 130
326 222
347 18
279 436
396 326
25 88
105 170
309 388
20 307
408 313
415 323
395 361
421 30
163 374
204 318
275 424
361 21
160 384
118 393
358 256
316 230
5 271
93 38
25 385
129 179
19 178
71 365
32 25
292 263
278 200
325 159
122 368
83 328
256 83
219 297
209 174
99 365
55 353
18 43
356 274
40 293
96 412
202 220
189 326
440 36
391 301
246 239
172 55
140 187
103 130
385 349
428 427
442 124
249 335
368 80
172 34
10 195
126 257
15 71
238 375
367 125
441 219
235 145
318 383
143 367
191 364
160 1
390 206
49 298
391 430
13 69
297 278
96 276
268 5
166 232
240 406
362 35
27 418
166 322
159 332
56 5
200 310
308 27
373 97
249 292
271 369
415 396
49 119
310 298
193 129
435 116
268 327
34 278
24 38
333 385
202 339
23 287
422 26
428 343
122 36
313 177
259 76
132 279
292 160
300 268
353 321
268 348
33 34
206 1
306 446
254 156
279 225
293 115
49 172
385 187
258 111
61 154
203 36
392 393
77 371
274 272
147 312
40 252
91 171
160 216
371 426
265 2
337 404
132 204
171 58
64 71
128 442
246 416
305 351
383 424
100 205
138 152
95 24
300 326
306 309
341 373
11 382
140 282
16 253
99 393
44 238
93 63
194 62
386 397
422 127
349 147
389 240
72 372
295 146
287 108
396 371
223 257
137 58
383 239
14 354
309 316
68 122
175 31
79 409
6 414
160 9
225 328
440 333
271 133
277 279
437 407
40 16
223 423
133 360
173 295
174 57
431 30
439 374
445 363
15 101
140 169
206 93
24 292
179 426
157 189
357 78
132 349
21 412
40 401
96 77
225 416
139 74
187 73
174 63
316 264
225 12
125 238
11 253
367 78
232 362
151 60
240 176
199 315
169 61
133 374
142 33
68 220
33 311
293 154
92 328
173 37
308 103
375 186
9 25
362 62
161 22
323 178
312 238
12 240
310 416
369 119
393 90
354 77
201 58
396 24
87 187
434 13
151 341
401 142
137 221
337 136
202 179
189 156
349 406
160 182
46 155
232 194
108 219
204 234
307 77
317 187
19 99
27 275
244 218
333 374
140 38
169 77
347 430
130 278
44 249
27 38
288 197
444 2
266 98
387 155
435 373
127 202
78 347
369 163
87 77
317 186
57 12
93 233
297 229
346 132
109 370
349 329
354 129
92 275
397 337
405 21
437 272
171 348
108 81
338 190
170 418
88 9
221 130
336 355
19 113
150 241
42 61
422 250
98 126
345 417
350 146
403 113
32 341
196 95
320 348
330 245
198 33
225 338
189 63
149 54
279 276
213 57
48 380
163 271
229 312
413 280
356 83
406 254
140 391
296 20
104 239
169 405
301 350
99 361
397 156
203 121
121 221
173 38
90 230
357 361
417 203
200 264
83 173
221 256
43 32
75 351
212 146
275 436
18 117
151 301
33 413
406 323
230 307
97 32
393 145
180 252
154 88
230 122
176 347
146 51
32 155
75 190
235 209
204 284
388 225
41 122
288 93
9 316
351 397
270 223
275 175
93 138
427 312
94 202
166 284
368 86
106 63
48 158
321 189
86 290
73 347
289 253
158 163
339 400
67 411
132 298
365 143
172 284
136 125
416 93
137 416
156 133
170 27
109 313
357 407
436 361
189 446
119 443
407 98
410 313
405 337
311 333
372 82
328 370
298 221
255 248
192 283
140 163
61 298
209 65
288 13
431 289
132 350
229 238
437 325
138 226
138 435
19 373
379 171
93 362
7 104
276 106
222 179
240 229
144 22
250 267
391 203
117 197
422 222
379 200
204 401
46 85
214 22
109 101
93 193
317 341
267 175
235 442
339 382
400 103
222 93
155 40
389 407
342 369
415 333
45 345
51 317
327 61
327 430
331 386
374 148
388 104
267 15
152 214
233 198
63 202
338 333
246 100
330 203
34 385
379 121
2 83
62 201
117 410
224 269
433 48
182 268
158 117
306 99
176 129
108 22
445 109
122 424
211 376
110 42
228 139
161 250
385 140
23 337
160 149
281 398
133 222
288 42
353 246
343 374
175 277
340 209
132 353
61 194
256 117
200 132
404 106
117 310
379 31
152 134
274 129
411 292
313 54
16 330
271 244
127 149
383 20
405 136
313 58
415 388
132 229
396 21
307 212
346 195
389 413
10 217
199 136
245 127
275 357
410 226
333 439
265 198
62 415
346 288
375 61
297 124
180 191
208 173
163 31
422 293
163 4
18 388
93 179
301 146
330 318
138 353
38 124
410 333
33 157
61 230
402 255
375 110
229 217
306 285
44 306
406 446
148 87
327 216
221 349
401 301
215 107
34 296
176 80
227 153
166 93
191 250
355 298
211 119
339 212
173 71
124 440
429 314
259 223
60 339
271 233
169 182
172 147
155 146
65 139
392 35
306 290
293 127
445 378
435 233
405 326
236 247
346 397
6 389
124 166
411 335
163 130
220 263
179 339
69 17
373 42
296 277
275 414
89 159
6 435
122 250
396 169
80 19
262 56
140 205
199 159
77 113
3 287
318 99
20 356
329 10
235 351
7 149
338 298
68 209
407 203
256 2
214 179
433 178
322 294
155 23
406 239
9 175
430 446
382 87
390 370
398 51
119 429
295 196
310 414
23 9
378 79
236 364
220 436
35 361
124 34
69 372
326 226
357 439
125 64
217 280
263 99
213 322
254 200
50 441
160 268
190 390
41 374
198 49
180 119
205 264
44 114
187 341
405 1
431 263
332 40
283 164
105 326
340 291
372 243
259 210
152 86
138 341
368 229
33 182
323 158
341 238
6 298
306 20
40 171
22 264
61 240
203 208
219 162
397 155
379 279
157 12
227 290
74 45
317 387
245 306
399 283
436 240
70 90
134 379
171 316
253 394
296 2
109 158
55 432
415 152
212 287
395 90
414 410
338 246
330 415
291 165
322 432
400 232
173 171
329 428
203 93
196 358
320 18
299 84
40 75
264 36
383 387
375 412
182 96
119 162
395 379
441 81
265 106
285 52
88 426
309 68
220 154
427 280
235 245
339 86
36 314
416 116
149 327
72 127
393 400
401 298
182 359
247 4
207 211
209 359
327 322
41 354
359 362
163 275
445 118
423 69
95 105
31 86
73 52
426 416
262 85
280 317
212 60
311 293
444 426
337 113
348 110
309 285
369 214
147 31
266 355
355 446
355 289
9 239
323 179
54 92
43 148
204 157
24 42
177 348
391 395
97 54
125 298
13 3
180 361
124 296
37 333
61 64
313 293
225 54
435 290
204 310
114 15
110 412
76 211
176 103
106 354
413 6
318 187
133 284
115 159
83 197
326 321
117 400
101 331
2 86
356 238
200 316
155 219
221 414
416 400
11 431
324 137
299 184
424 325
186 368
389 206
240 388
245 16
249 245
319 195
160 375
307 405
108 430
368 379
293 8
151 153
42 386
333 387
43 14
309 264
229 246
305 354
9 297
384 440
275 270
404 105
121 71
243 312
314 10
419 183
332 90
343 135
436 67
384 409
281 143
339 6
394 218
390 294
180 343
223 262
2 327
358 100
125 65
113 312
149 311
360 357
296 68
349 83
426 347
313 444
144 91
410 256
369 386
63 96
90 176
154 26
398 357
309 194
135 28
282 79
263 190
176 149
272 93
110 21
394 274
404 295
138 9
60 146
284 349
304 249
68 386
362 101
444 18
90 24
204 307
280 212
62 427
404 327
354 318
138 104
397 22
307 60
100 413
375 63
363 62
343 375
51 350
177 147
7 216
177 190
71 306
351 314
208 146
368 36
26 151
295 143
193 155
403 440
265 182
55 51
289 131
95 92
384 290
206 201
389 367
281 428
113 149
32 122
347 373
239 187
58 296
176 202
243 423
233 222
413 285
406 318
367 201
243 334
430 270
256 196
427 361
242 131
318 341
379 309
347 296
125 43
117 324
129 320
68 376
180 438
382 293
176 177
285 206
174 255
14 287
296 10
341 205
149 293
289 192
445 86
100 136
86 74
330 445
354 60
128 393
405 432
113 375
398 250
45 262
143 146
20 246
205 415
103 129
133 136
89 102
13 429
320 313
156 317
72 398
209 283
196 300
92 350
137 92
256 385
413 9
290 271
117 88
376 428
311 371
76 208
76 443
376 163
359 130
289 78
282 232
25 68
105 58
147 397
383 409
317 153
211 191
40 426
426 43
183 304
367 380
350 391
405 61
418 343
43 310
278 435
322 33
109 401
446 312
295 418
38 292
10 15
297 166
200 290
196 78
445 301
337 55
354 198
240 125
209 332
117 25
30 225
244 394
32 323
114 148
153 289
300 105
216 140
299 133
246 238
396 117
154 206
75 284
161 34
155 330
91 80
377 315
442 325
328 376
122 229
220 368
402 305
129 217
268 412
19 429
252 153
354 155
193 314
121 272
305 129
156 73
110 214
397 214
369 56
197 68
189 405
279 37
48 370
12 26
275 91
115 325
238 274
308 408
365 418
233 333
6 177
24 110
294 320
69 211
322 339
321 440
235 390
117 33
130 44
385 225
194 300
105 274
276 384
394 224
109 397
125 204
389 121
90 50
152 424
248 53
189 33
120 252
199 214
41 337
118 255
37 440
416 58
28 66
78 348
65 183
281 133
428 185
298 370
344 74
95 388
350 225
253 152
144 356
366 251
103 67
373 125
124 198
282 163
59 237
254 415
5 415
12 127
337 20
321 316
23 26
67 68
124 307
367 387
349 371
200 376
315 260
427 65
367 206
193 276
317 129
439 3
154 156
327 136
2 324
259 431
439 103
273 47
393 240
382 104
91 375
149 432
333 198
290 272
27 156
299 376
394 287
189 235
313 256
27 109
333 388
242 207
337 292
80 196
93 124
445 195
324 61
378 301
44 225
49 317
173 137
324 365
75 406
21 300
219 175
320 95
36 82
204 153
250 320
391 220
253 290
3 297
10 376
170 225
375 313
208 407
129 122
432 113
302 181
202 24
284 406
205 202
421 95
100 157
55 144
289 248
75 133
321 169
44 250
193 113
370 346
12 310
374 67
293 51
205 267
290 423
147 297
15 217
418 240
88 235
298 411
163 109
354 202
198 3
353 249
181 164
428 24
158 61
284 337
355 161
7 403
225 313
416 156
438 399
268 240
365 243
217 3
176 194
79 441
160 136
423 116
240 365
307 406
186 62
201 385
403 409
104 390
385 202
254 439
206 330
233 232
235 332
333 246
120 135
16 323
27 362
35 304
57 26
264 180
313 279
246 132
98 102
416 95
202 186
87 30
380 393
171 432
197 219
7 36
360 145
316 92
278 161
377 211
121 427
313 326
148 306
41 182
311 403
48 369
42 175
422 266
26 82
268 326
347 3
256 86
132 161
415 128
163 385
189 440
233 289
59 293
386 362
275 195
55 246
268 384
116 86
377 108
339 230
243 133
42 440
276 21
58 421
205 263
339 396
200 413
221 24
329 42
79 431
24 205
109 282
430 174
403 353
390 34
390 317
92 143
196 313
423 435
2 310
299 141
189 19
230 263
124 408
385 95
354 71
320 106
351 385
91 94
194 26
182 428
413 204
94 160
202 198
354 27
386 153
441 93
309 432
313 176
446 214
400 222
205 10
348 246
173 278
237 288
171 388
229 356
95 409
143 402
410 136
280 10
138 203
206 274
5 143
235 238
420 66
415 110
393 288
75 274
207 31
132 312
322 148
297 155
368 26
94 309
10 316
290 176
398 54
177 20
288 230
41 206
441 383
281 144
49 233
291 39
152 297
421 298
387 40
228 259
173 235
379 73
437 73
176 232
427 60
7 382
230 100
93 208
275 160
149 335
63 216
92 79
254 240
323 361
375 365
8 13
206 204
272 327
189 229
73 27
17 260
379 334
431 336
182 30
416 43
50 59
206 125
387 349
20 133
35 357
214 346
324 196
265 63
435 363
67 178
189 77
315 98
395 351
128 138
20 55
290 119
70 231
157 300
175 82
349 104
335 281
205 391
379 204
144 161
177 132
390 220
385 306
401 226
11 39
410 279
313 38
55 83
356 348
130 363
279 83
73 430
23 422
31 154
189 86
1 327
384 15
239 293
175 280
386 435
391 152
26 134
416 313
362 383
359 51
1 9
361 174
427 354
157 327
34 426
318 346
19 246
439 226
233 14
353 179
226 157
264 387
40 170
211 115
299 22
177 88
54 384
162 220
434 68
294 94
73 92
384 275
133 287
383 51
40 301
234 365
96 430
238 40
171 358
407 390
410 71
154 51
200 304
26 436
173 51
235 253
293 93
233 246
401 30
349 206
263 3
316 154
204 244
23 129
399 13
7 312
137 353
311 37
343 71
274 80
404 203
14 30
83 404
310 296
205 125
291 227
376 409
285 204
288 171
432 142
352 376
363 179
382 347
259 82
343 174
416 444
138 191
60 317
4 361
291 126
446 338
410 9
61 328
436 400
413 306
294 2
343 342
172 374
323 140
25 406
444 387
379 243
427 182
321 384
60 129
275 182
245 257
178 290
313 250
349 446
170 309
437 379
426 277
161 178
376 252
43 239
329 314
271 316
440 414
435 407
198 171
383 221
52 114
358 113
346 115
50 429
386 170
92 401
282 429
147 87
261 441
404 382
149 329
72 180
107 210
410 18
147 75
196 219
203 318
380 191
146 387
246 32
333 166
236 273
398 356
76 370
375 143
347 240
143 117
143 133
272 418
440 97
12 409
338 351
124 121
284 353
36 373
341 338
424 328
230 15
367 154
108 260
281 435
370 125
366 334
335 398
268 403
249 430
308 182
60 222
414 411
143 97
54 226
335 328
70 165
25 144
194 36
358 389
427 36
365 410
10 64
323 318
362 395
278 138
296 426
220 14
272 282
239 83
397 190
337 398
72 50
194 226
206 65
332 372
321 371
409 256
338 177
423 127
435 127
203 415
375 189
38 402
175 103
86 324
69 183
306 415
184 302
26 309
308 206
119 264
33 268
395 201
187 292
398 163
87 312
219 377
186 171
146 15
16 204
155 232
431 101
230 314
41 169
225 335
101 65
402 328
403 371
201 105
292 367
225 2
138 225
195 58
384 149
163 41
87 134
153 404
100 55
243 281
118 50
110 329
354 271
428 37
370 37
115 13
292 329
295 171
388 219
217 37
206 138
324 18
284 310
232 361
288 301
200 409
356 43
345 223
44 24
221 62
379 396
337 83
189 327
30 178
179 155
394 364
157 276
322 189
214 272
3 11
9 246
93 151
194 375
267 206
28 262
417 283
446 337
243 93
70 17
36 424
148 411
333 193
322 77
346 98
254 371
428 373
18 38
169 194
11 273
409 335
426 358
376 394
350 68
62 428
313 105
57 407
160 265
254 382
18 35
226 26
277 2
370 27
299 334
320 152
152 196
90 204
63 110
260 399
355 325
401 296
187 222
225 117
436 169
368 88
315 415
116 133
265 97
58 121
130 80
405 412
185 399
79 444
122 263
25 350
82 188
201 361
144 246
298 267
154 350
24 182
63 326
63 361
405 327
162 72
263 132
45 28
233 446
278 220
12 277
113 182
42 435
117 388
64 199
202 416
64 418
19 9
260 242
23 49
332 281
202 190
416 410
373 60
179 281
309 436
442 370
393 418
383 119
9 194
47 210
363 434
310 406
282 250
404 38
77 63
370 426
120 368
346 386
235 203
2 379
127 386
280 149
16 170
430 78
365 125
249 72
245 75
116 337
414 418
35 38
90 206
67 175
131 223
145 323
115 431
264 69
51 391
430 10
144 330
240 405
338 172
151 400
361 409
173 143
214 311
311 405
24 314
374 379
187 305
236 398
335 169
285 301
230 363
401 337
406 356
173 321
437 41
427 125
280 7
351 350
324 58
115 152
16 390
10 38
214 158
190 245
56 383
274 55
161 68
40 323
103 212
339 307
250 222
160 379
175 133
105 256
219 79
82 11
376 187
428 40
65 17
173 253
446 221
63 57
36 9
239 446
3 191
407 361
278 198
34 178
426 196
333 130
65 227
244 146
321 21
402 424
341 263
42 136
4 115
42 308
10 350
49 67
32 156
365 124
33 239
274 148
41 24
250 173
146 393
403 375
349 402
367 409
200 9
351 197
155 400
311 198
278 313
65 428
6 116
64 55
66 433
213 379
277 310
152 190
327 113
366 394
420 422
97 142
412 136
390 82
385 320
129 400
337 132
30 117
149 27
201 49
123 223
65 123
226 444
249 428
383 359
134 267
301 133
39 431
16 49
157 277
149 77
169 240
405 400
108 107
444 298
54 96
374 351
300 309
320 196
226 421
93 387
338 362
421 426
169 403
401 280
32 295
75 367
371 326
287 435
76 11
230 229
206 186
235 26
239 177
435 323
404 182
432 91
322 276
54 38
214 271
346 135
203 171
389 437
256 58
172 12
121 317
308 387
315 59
197 316
278 116
401 416
95 146
239 27
19 208
362 284
292 359
339 232
240 306
321 432
98 437
65 86
194 414
203 40
149 313
118 170
33 300
10 122
22 86
322 1
254 129
407 275
103 416
342 323
404 129
169 371
88 230
57 117
343 439
138 349
142 103
52 249
152 380
212 213
332 343
20 88
282 280
225 414
224 251
116 379
220 274
156 382
389 308
398 217
36 80
309 96
251 107
171 318
54 281
46 441
250 219
290 235
182 18
379 159
400 160
15 294
386 355
280 176
46 79
30 413
306 206
289 14
276 446
343 370
141 434
25 174
416 439
358 414
59 82
162 76
209 163
333 177
162 123
49 9
180 377
33 385
19 326
19 406
326 403
233 151
374 349
205 190
339 326
9 432
361 193
25 132
212 182
20 6
104 356
44 347
354 373
151 202
113 276
103 289
318 23
316 95
170 361
148 170
187 177
65 133
306 379
340 39
257 266
308 280
378 231
226 250
153 369
435 272
396 361
5 257
297 174
415 299
285 214
34 281
32 312
349 238
311 385
373 322
240 275
102 346
445 434
57 92
430 122
54 293
27 72
349 430
268 371
409 203
94 318
120 254
105 172
240 73
18 226
82 328
191 377
22 362
202 187
179 349
49 307
279 444
218 68
166 212
69 19
80 14
239 193
108 210
159 109
250 263
219 205
193 25
398 343
130 88
382 325
281 278
374 246
400 424
354 339
214 175
189 1
435 368
387 296
213 174
40 44
368 316
249 40
50 16
327 106
232 49
60 276
204 58
142 371
190 144
171 428
18 99
77 198
404 179
240 263
340 302
445 49
270 16
148 250
134 371
314 316
106 18
124 354
170 346
144 238
249 290
232 306
158 274
173 413
140 296
127 287
327 27
189 202
104 134
27 146
103 179
205 363
317 176
114 199
435 179
192 167
24 180
430 308
152 379
230 289
414 226
235 252
99 418
275 204
293 178
404 103
17 168
175 106
129 226
137 148
16 428
80 436
395 3
330 26
73 85
317 400
132 36
349 353
77 440
354 163
275 337
73 391
179 27
357 296
50 82
62 2
156 279
245 442
36 217
382 5
387 326
277 225
262 438
12 18
440 404
318 122
232 36
351 348
2 416
136 86
24 250
374 21
432 276
208 387
127 5
171 60
300 198
42 30
363 325
178 47
172 427
173 408
124 58
31 29
268 321
121 445
127 68
439 36
199 167
173 375
175 73
31 418
389 402
320 12
410 388
383 195
320 296
359 309
391 445
268 444
327 446
178 83
338 221
63 26
9 382
187 330
357 272
333 312
239 148
384 411
229 313
34 232
140 428
59 165
137 78
57 349
434 213
109 331
259 11
215 150
4 359
320 357
415 151
338 166
47 76
427 175
96 92
80 363
116 290
132 129
91 9
383 154
263 267
151 418
79 284
92 105
200 406
267 329
44 359
229 100
4 402
99 187
64 121
312 20
179 186
138 201
227 224
180 103
156 411
296 226
19 110
136 276
359 80
397 442
437 93
27 49
83 144
103 305
341 155
338 297
122 329
202 212
400 49
372 431
230 387
15 199
354 2
123 209
203 152
375 326
118 180
246 25
398 113
356 436
99 206
445 130
274 155
10 37
15 296
356 175
423 357
227 301
426 355
326 77
230 405
294 333
189 136
199 91
138 305
335 51
128 391
146 46
367 195
180 155
328 386
106 21
3 114
426 406
79 68
193 35
109 383
400 187
336 372
239 356
385 49
423 413
170 257
24 82
442 350
341 411
230 10
54 321
86 310
197 201
305 307
314 217
402 423
343 3
406 147
142 327
439 275
134 58
309 65
171 103
34 60
176 44
102 115
343 199
361 271
58 388
275 382
361 410
380 93
200 359
343 335
29 79
196 12
156 138
178 40
35 15
357 390
349 365
142 311
316 301
34 186
136 20
265 7
309 146
293 327
223 252
338 10
336 109
52 191
246 40
180 357
61 15
442 12
27 155
197 440
315 180
440 54
50 372
250 41
58 426
414 36
24 341
275 191
153 53
285 5
412 43
200 380
310 132
253 87
94 7
288 5
439 72
359 436
284 73
263 307
79 48
439 337
19 163
178 330
254 305
249 163
292 295
349 177
263 290
349 439
390 175
205 156
130 90
412 440
400 193
117 136
418 93
149 265
439 32
351 432
83 190
102 79
347 87
300 7
413 75
46 233
434 430
176 124
411 402
75 36
45 162
112 207
47 35
105 426
12 2
38 349
256 200
389 390
362 123
398 428
378 362
384 97
196 137
21 445
30 2
271 6
297 19
68 294
316 436
221 233
267 42
268 387
3 182
444 12
108 259
254 208
428 245
32 250
404 34
290 356
268 375
221 179
171 148
374 87
122 358
210 438
176 238
163 410
384 92
179 182
55 22
173 272
429 158
151 212
102 419
152 95
132 436
382 227
222 166
104 338
15 161
142 136
51 274
388 432
263 15
290 368
20 406
343 49
75 172
100 41
7 440
402 13
304 215
295 36
2 279
422 69
49 446
180 48
318 359
138 380
301 7
18 214
414 179
397 389
54 354
273 304
24 21
275 353
146 323
321 7
434 192
105 357
374 61
130 151
92 134
416 127
148 308
85 427
297 374
376 287
94 96
282 329
256 390
90 101
419 158
439 347
132 125
152 274
138 295
228 111
293 35
246 445
9 113
301 90
143 275
75 32
68 48
21 311
205 292
322 157
427 61
305 341
144 21
411 217
339 186
32 406
388 42
219 316
2 104
23 233
27 357
14 24
240 295
209 363
238 177
130 301
415 10
178 358
122 351
32 88
174 76
220 3
264 250
439 373
36 136
415 42
179 305
221 436
244 158
406 132
72 13
143 276
43 226
152 61
375 80
71 374
327 7
190 65
62 51
297 311
404 67
186 176
163 442
176 307
79 65
253 80
143 243
278 149
393 32
230 38
426 350
61 148
72 29
142 343
135 5
166 367
320 298
272 144
427 325
82 62
1 113
398 235
246 206
5 196
378 315
428 76
156 214
178 435
82 69
268 149
137 414
409 441
430 195
415 264
405 106
155 406
104 182
315 248
432 109
394 278
65 288
87 275
143 319
417 28
33 403
256 12
132 238
404 54
230 19
399 223
269 420
406 190
337 312
136 324
323 427
156 212
372 236
138 407
324 415
57 27
143 108
265 432
62 154
124 239
388 105
67 317
301 272
278 316
206 446
267 333
273 56
341 232
156 275
193 202
143 293
281 10
383 144
199 133
329 427
422 72
206 385
444 338
299 243
309 75
58 314
73 213
320 256
199 35
199 259
204 272
156 390
2 138
97 415
93 401
277 338
42 14
293 15
282 37
328 60
373 58
305 171
106 142
192 437
367 357
58 117
132 365
163 204
318 49
243 101
100 190
365 389
78 335
400 171
296 385
281 402
337 205
36 324
256 294
108 290
404 212
329 152
191 306
44 390
390 10
104 95
394 352
413 422
182 403
317 195
321 57
175 109
142 375
163 235
172 297
349 134
359 24
114 27
173 2
132 67
214 163
147 155
3 77
235 250
253 59
248 431
31 20
335 38
379 24
427 37
201 162
415 63
396 413
154 12
387 408
442 382
190 246
80 154
143 423
264 158
67 318
116 26
390 320
301 436
348 367
379 143
335 356
410 10
428 212
151 307
37 230
42 322
431 215
439 6
198 26
212 397
280 30
352 334
346 406
137 298
432 133
61 335
92 221
138 60
285 95
323 204
12 171
361 378
446 374
109 120
225 426
367 101
131 248
296 355
444 310
298 134
62 155
99 408
170 398
373 314
230 346
42 206
230 239
426 335
338 313
329 216
30 230
226 244
70 269
223 293
88 320
281 65
264 251
54 322
265 177
354 338
331 395
159 434
386 337
250 240
5 223
75 78
202 222
203 44
421 310
212 73
354 225
434 380
37 205
58 206
328 357
263 390
30 67
239 439
203 34
51 339
37 142
316 397
332 102
308 151
34 155
382 38
290 373
236 163
298 263
3 218
437 336
153 316
175 30
311 322
235 370
293 16
192 336
192 261
349 285
323 389
278 402
290 18
174 390
49 238
38 280
31 423
174 357
57 113
175 58
186 103
18 104
172 397
208 80
310 105
152 349
80 370
172 239
403 77
355 170
187 347
373 91
393 52
240 426
294 156
279 256
251 369
398 202
405 361
298 277
20 186
404 169
138 234
189 300
411 30
133 244
6 138
213 390
428 317
156 244
19 3
434 125
216 326
249 307
178 79
230 217
203 114
119 427
226 430
206 229
133 33
133 6
204 436
151 49
158 439
56 35
63 62
169 311
51 330
90 306
383 179
373 330
152 423
337 88
301 371
429 191
397 158
433 130
349 196
93 408
104 204
6 79
205 368
393 297
328 196
87 100
426 92
24 128
83 87
130 105
289 356
436 16
35 442
3 78
397 370
171 187
368 309
64 246
323 398
354 400
379 173
58 414
343 290
229 321
346 68
432 54
284 20
287 156
346 103
383 61
290 276
325 417
331 362
216 142
97 33
324 240
373 30
300 353
33 404
131 53
12 58
317 103
81 237
194 359
335 232
343 52
204 427
45 66
250 154
63 348
214 5
35 208
220 116
189 403
166 186
100 32
53 119
149 157
296 83
114 209
7 384
14 125
234 315
148 25
223 11
337 383
388 103
414 279
293 243
307 197
254 275
276 189
8 153
364 89
252 400
220 36
259 377
300 351
83 444
134 409
101 335
410 94
156 429
218 302
172 77
383 130
383 360
310 58
137 358
338 239
105 77
393 122
353 338
130 51
206 40
51 301
284 83
265 337
56 434
100 252
1 329
182 136
68 331
130 428
117 358
249 36
358 177
152 78
9 338
105 18
219 161
119 376
65 5
87 274
49 362
403 374
15 37
26 206
128 275
27 365
202 445
322 390
82 355
23 217
185 420
4 274
321 327
396 216
326 322
288 317
76 433
43 134
124 225
268 97
281 274
79 295
26 350
106 110
397 34
34 151
252 156
179 61
3 318
442 61
127 76
321 403
61 200
174 402
189 272
56 442
36 367
371 157
218 293
182 430
348 388
24 149
64 161
291 50
335 388
77 412
135 184
193 339
194 404
86 311
298 92
31 197
93 336
380 192
155 339
170 65
180 442
7 371
223 260
147 238
351 391
281 158
240 313
383 158
235 64
94 411
149 350
103 23
95 225
405 335
428 416
309 220
23 77
441 19
175 43
103 384
292 280
87 2
285 361
279 324
83 20
416 134
335 97
180 205
439 287
73 244
375 7
347 298
336 150
15 333
310 401
321 88
103 161
235 293
113 232
157 2
328 309
75 353
384 292
435 328
79 424
409 264
116 395
62 93
228 108
103 144
329 37
412 371
293 394
38 239
367 64
251 434
88 307
326 132
400 341
432 182
306 295
428 335
402 355
118 174
47 208
240 427
246 446
79 259
402 365
69 269
103 12
218 370
239 354
99 329
117 38
213 398
232 405
196 226
276 390
205 217
10 189
284 246
363 292
71 335
106 311
361 229
440 63
186 158
280 189
329 175
148 37
385 388
260 184
308 204
311 157
311 280
356 6
30 38
202 221
363 155
446 284
253 282
391 101
390 36
3 321
265 142
404 288
277 300
426 324
333 105
290 296
218 266
35 410
376 288
350 19
139 90
411 318
67 341
143 152
220 229
183 242
428 154
171 384
347 287
378 377
411 307
21 375
379 360
372 178
355 13
184 425
407 423
401 2
332 16
283 139
106 275
395 406
200 155
197 79
36 68
26 388
373 148
106 349
133 290
83 219
260 207
243 315
191 288
439 354
71 348
308 14
63 143
356 75
127 71
19 254
432 220
267 214
160 276
421 193
103 34
46 99
444 320
331 26
82 51
369 52
94 216
37 49
240 375
346 82
428 337
339 49
200 288
287 436
297 99
285 347
446 195
121 201
427 201
442 335
358 156
254 97
335 146
6 172
27 40
34 361
6 374
421 414
335 144
331 240
100 326
27 200
87 26
66 167
176 171
124 306
20 180
348 83
291 139
245 170
446 109
170 329
407 347
180 270
339 34
51 230
197 271
233 10
329 14
312 172
234 295
446 348
195 312
55 87
216 268
135 228
142 169
310 275
403 327
11 126
278 109
402 253
276 403
146 154
168 423
289 101
37 416
48 218
209 107
240 358
172 170
304 264
341 31
313 178
411 175
212 44
113 136
156 282
227 319
182 316
129 341
390 33
395 227
295 367
257 425
84 218
302 299
118 51
350 156
329 287
212 327
100 144
239 36
355 105
229 157
403 444
305 32
10 308
106 300
3 38
226 58
27 21
155 187
87 353
193 244
430 152
306 5
26 327
98 192
312 300
175 146
58 18
235 113
33 124
388 221
250 158
37 429
140 308
203 304
313 129
240 362
361 390
149 427
83 136
309 390
171 206
48 415
75 194
316 328
198 317
349 137
182 54
338 274
138 68
60 318
102 31
106 216
314 30
138 413
32 374
244 436
359 109
280 199
309 149
444 294
255 382
205 274
308 15
299 65
147 163
359 35
1 268
439 444
367 413
384 169
214 118
326 432
190 206
321 444
114 64
18 426
78 33
177 32
182 77
140 147
178 373
205 373
386 72
375 300
235 114
413 288
230 18
328 408
415 132
420 255
329 230
413 153
117 219
380 283
409 336
15 140
387 432
198 52
158 293
365 265
287 427
435 271
254 407
301 214
114 234
170 394
435 446
42 314
313 226
275 347
124 6
408 440
323 245
402 16
79 292
368 116
49 222
161 117
444 317
438 158
80 116
254 428
375 232
6 36
345 89
292 14
122 205
392 266
170 135
237 258
335 436
351 446
42 37
372 52
30 161
24 156
110 169
196 294
23 435
180 378
214 347
279 104
24 280
405 110
346 162
198 267
126 262
256 130
234 131
100 432
413 379
71 409
428 110
214 140
54 7
308 113
20 193
91 110
126 123
192 343
335 320
330 414
246 61
200 146
391 409
254 435
17 433
31 286
277 294
246 172
239 75
116 216
169 327
430 9
104 92
124 324
415 134
35 151
436 86
157 7
40 163
382 301
401 233
69 342
53 366
275 148
186 44
411 219
251 430
130 155
117 171
113 263
22 325
429 139
97 75
114 245
149 263
80 204
169 214
338 254
305 151
23 317
322 321
174 386
151 148
121 2
398 284
65 233
110 229
383 435
48 234
292 431
427 144
106 160
33 396
68 444
359 244
255 191
277 233
92 87
104 35
36 318
199 346
136 358
179 354
366 224
195 163
278 75
265 440
106 312
61 193
220 144
254 430
217 267
393 423
59 150
267 30
409 445
129 318
76 13
232 163
190 99
443 345
87 348
160 33
387 143
140 276
113 63
295 363
149 405
230 411
388 92
135 402
77 136
22 272
284 87
42 148
56 37
152 208
55 78
69 209
189 169
171 232
32 6
282 300
170 330
402 133
36 118
98 289
328 253
188 417
79 368
404 290
33 254
440 166
411 24
198 225
385 58
252 193
121 239
351 144
2 432
277 275
436 346
11 35
161 373
104 12
191 376
45 443
100 134
131 288
300 142
417 141
111 208
396 268
278 308
55 225
331 24
431 50
314 41
415 40
293 274
151 176
111 108
246 6
384 367
69 185
329 275
254 287
83 23
212 383
187 362
349 292
384 356
229 156
173 182
274 200
204 176
30 430
323 172
377 251
403 351
22 357
390 121
422 341
395 27
422 156
272 63
182 143
339 171
379 323
133 437
387 422
170 156
125 19
244 22
193 91
124 240
78 128
146 280
396 375
437 357
331 378
19 245
364 210
155 86
82 433
67 78
390 127
415 30
236 392
105 296
121 413
337 353
134 277
370 131
330 40
49 341
327 91
231 344
375 327
203 102
238 83
182 326
292 310
245 355
278 379
311 216
427 276
179 26
270 146
144 267
409 154
179 307
87 427
83 6
100 289
70 79
355 285
138 173
61 153
314 267
252 52
388 10
436 71
31 128
282 421
416 12
235 281
113 173
315 293
155 64
103 335
327 19
121 305
196 444
3 23
288 73
253 135
41 217
105 279
77 290
402 243
383 3
119 56
252 413
230 78
327 33
356 91
388 337
143 324
115 178
404 339
19 114
306 34
444 193
297 177
176 413
27 213
174 170
336 159
259 47
239 190
124 65
85 397
305 68
127 367
3 249
155 318
294 137
433 214
290 229
256 26
169 106
358 401
79 40
444 134
85 342
214 204
88 335
169 290
100 446
277 221
160 300
214 370
94 182
330 138
160 91
43 388
136 430
434 51
175 140
275 305
313 104
51 439
23 151
312 279
363 18
173 306
169 416
386 438
254 350
85 293
266 135
162 112
290 143
68 431
68 46
341 307
350 359
267 308
233 440
322 21
378 130
289 407
95 175
387 233
217 430
363 285
293 86
326 94
383 371
421 320
232 130
95 349
327 311
77 42
439 78
169 373
9 333
437 366
261 231
56 397
134 333
176 34
219 378
154 118
239 155
65 373
193 307
220 318
94 149
390 42
63 412
68 416
15 335
204 243
41 177
365 382
389 386
124 206
378 418
439 255
43 256
365 64
384 294
275 413
31 135
52 267
127 174
219 427
385 421
63 409
337 406
189 415
239 23
68 133
398 145
111 112
152 179
155 243
252 336
119 72
57 404
437 146
356 374
12 272
424 306
216 182
285 226
314 301
320 104
276 371
335 275
402 179
219 46
48 44
249 415
61 157
151 166
121 293
328 423
290 394
154 36
71 427
219 439
235 21
193 212
360 380
290 363
145 119
392 399
166 196
24 373
418 121
295 378
97 320
393 171
281 106
358 294
298 435
362 124
163 388
195 57
290 327
287 78
428 149
105 104
221 320
167 131
154 40
116 308
328 143
275 298
435 411
187 383
326 116
122 294
217 140
427 195
430 338
202 322
238 445
49 240
179 122
216 316
445 249
405 182
133 414
203 170
103 421
333 225
22 434
211 35
444 327
200 51
308 217
310 398
414 2
225 421
289 235
354 175
330 220
42 25
241 164
50 68
212 179
346 402
384 405
64 427
205 15
116 142
187 382
160 341
423 422
326 12
84 210
290 154
5 87
187 386
445 282
281 439
446 55
1 276
285 197
31 356
147 34
240 9
270 56
187 21
352 4
297 55
300 385
98 199
140 412
197 378
239 87
23 24
125 272
3 348
249 220
75 63
23 91
24 122
343 221
213 127
416 18
439 67
323 44
271 199
104 225
444 225
193 387
256 134
144 405
274 221
442 314
307 23
2 445
176 62
352 433
360 52
134 105
353 365
281 100
442 214
409 379
380 180
282 104
415 140
147 338
48 352
140 343
91 343
67 124
229 172
390 267
44 441
44 128
349 256
187 397
70 101
355 397
244 67
330 161
308 58
306 244
400 347
280 267
329 289
338 385
327 68
249 410
333 421
196 96
186 305
115 355
409 274
156 193
372 259
35 421
175 396
119 118
428 42
108 218
338 404
64 204
333 63
307 216
279 43
421 313
6 382
46 102
203 376
257 81
244 214
55 58
431 252
308 254
446 386
174 21
276 405
187 22
413 356
334 108
385 151
171 155
24 172
298 58
404 307
109 108
417 13
156 195
130 76
204 365
272 306
211 145
73 402
136 33
413 428
277 226
318 404
419 258
158 85
27 252
26 274
191 161
26 219
42 418
230 312
38 6
43 306
421 296
290 19
27 3
349 290
230 182
409 324
378 386
395 413
404 230
281 329
204 151
295 413
158 174
341 298
106 182
367 353
130 220
84 381
122 121
190 446
1 142
270 409
169 267
379 220
293 413
87 446
75 338
133 435
229 358
35 23
155 396
15 329
263 24
113 350
341 324
396 295
290 328
117 213
435 200
361 213
280 14
324 320
271 78
93 71
218 328
180 281
267 153
109 364
152 173
307 166
371 300
424 278
38 373
136 277
136 124
424 230
240 101
220 5
119 10
343 190
445 327
191 217
246 121
160 169
410 2
354 193
49 354
383 339
73 333
318 170
128 306
285 85
242 89
11 47
209 342
361 200
406 87
368 46
320 365
422 305
265 190
153 39
44 115
205 295
285 16
445 88
10 418
143 278
302 377
308 87
400 333
415 384
305 285
391 335
176 389
298 324
389 171
201 306
128 423
117 137
150 13
189 292
388 226
117 296
304 210
275 361
339 375
210 299
412 91
287 363
407 73
346 368
195 382
212 400
179 65
292 323
426 413
113 54
55 113
197 95
395 102
368 34
393 367
83 177
349 350
436 113
426 221
78 57
440 396
169 428
339 176
54 287
409 354
239 363
136 97
308 431
343 195
172 206
355 68
221 444
64 408
276 311
162 255
408 133
398 92
330 401
329 140
95 83
297 365
138 30
281 393
361 179
289 34
77 106
440 322
198 67
224 234
390 292
16 163
326 91
151 96
1 136
87 365
214 106
438 417
267 38
229 166
230 178
232 217
110 307
158 271
34 163
393 191
148 346
349 337
58 367
55 312
104 333
157 403
440 359
350 398
330 76
166 1
308 56
101 278
195 416
327 263
346 308
206 375
401 151
3 98
250 308
404 186
351 229
2 290
113 94
445 209
36 435
352 53
146 62
155 166
338 25
285 387
368 295
341 235
179 226
160 383
167 291
259 273
216 375
413 64
194 313
151 389
109 337
426 104
54 160
226 391
194 146
278 14
348 73
225 216
167 319
87 238
6 230
140 314
344 422
363 306
263 30
257 237
62 391
158 444
430 427
446 445
317 171
324 421
17 29
383 316
374 276
326 365
40 214
134 401
156 148
305 34
356 397
142 220
158 370
235 317
163 35
49 204
95 444
143 103
330 25
379 408
137 31
422 29
428 96
268 311
79 57
392 108
26 229
397 394
70 345
422 175
116 253
426 198
317 233
409 110
138 99
413 136
436 176
308 30
411 10
94 157
38 407
194 177
126 112
226 333
329 32
384 96
7 405
224 102
124 191
73 360
190 356
408 34
67 428
137 138
412 216
31 413
124 23
225 294
267 282
376 289
108 275
146 445
396 384
206 418
186 101
428 174
307 432
205 282
99 176
11 195
63 149
422 223
410 401
206 103
240 413
95 414
269 422
85 5
4 316
281 177
71 357
22 354
61 445
133 181
361 41
145 191
200 372
416 161
295 117
191 197
151 249
382 436
27 297
137 95
105 198
13 192
284 355
363 379
116 132
327 385
16 435
40 87
233 439
395 346
121 323
419 259
16 429
118 156
399 266
239 250
182 14
441 158
163 8
240 173
367 265
305 327
73 109
217 176
388 292
140 246
367 71
296 333
52 408
20 25
335 370
275 250
329 411
329 385
114 427
80 390
44 417
138 54
187 387
118 158
216 371
179 252
264 145
379 64
18 225
21 182
250 68
390 418
227 394
161 116
171 201
191 292
326 169
361 254
275 415
359 220
25 122
97 80
428 19
331 292
384 77
136 94
324 95
313 414
121 92
33 373
383 363
191 210
245 287
368 68
274 95
404 79
140 351
403 246
25 297
314 389
98 281
161 205
282 177
225 20
208 433
389 426
222 176
176 250
384 327
51 390
116 143
441 362
18 404
95 96
152 122
218 357
18 275
239 374
42 96
124 313
189 313
33 295
248 167
233 104
41 411
178 122
217 77
122 221
373 14
102 417
38 297
343 365
179 318
312 404
166 60
430 206
218 234
127 30
206 127
252 135
212 390
198 404
129 222
221 267
152 22
117 106
178 235
356 320
154 254
284 405
41 327
195 287
179 233
363 274
237 248
306 323
292 274
355 85
371 189
6 75
293 321
180 288
274 350
351 365
267 10
102 44
333 279
48 386
397 434
346 131
235 386
357 385
244 382
307 388
388 158
232 235
220 87
113 300
192 115
307 54
270 159
415 226
59 215
286 128
6 362
439 382
252 119
235 179
144 446
87 6
186 233
94 265
215 192
83 216
237 264
129 277
310 92
427 390
288 163
398 115
191 252
229 2
56 11
142 403
400 409
58 95
296 276
389 202
76 51
337 226
199 367
173 144
220 206
87 132
129 67
51 271
205 175
201 402
86 173
113 268
278 423
367 213
44 245
85 413
51 378
316 16
27 347
143 435
135 200
384 186
300 322
281 406
232 212
162 409
243 27
19 284
95 313
245 315
235 282
439 402
405 217
30 73
330 44
237 323
84 48
399 269
19 345
430 119
129 88
327 182
240 151
24 106
384 373
387 173
79 218
352 380
277 21
411 196
301 320
175 38
405 186
103 232
148 122
235 52
58 179
43 385
114 398
446 341
415 19
324 390
69 398
363 138
88 404
54 106
178 203
294 226
172 347
385 155
176 368
222 306
316 347
37 263
49 193
280 140
155 198
226 328
287 238
254 127
190 132
405 403
435 220
5 199
121 229
110 388
436 256
267 24
375 367
275 311
225 250
15 204
308 162
283 108
34 362
345 352
87 177
446 132
273 223
280 15
356 80
323 61
269 139
318 397
231 16
198 282
436 35
233 318
284 279
33 173
420 167
67 365
256 268
40 132
441 197
8 364
346 218
226 350
155 347
386 151
230 14
35 205
323 349
226 322
390 332
176 416
176 187
44 436
252 417
85 257
285 316
274 426
376 402
190 229
316 40
70 168
228 334
274 301
93 125
404 73
102 386
1 182
368 172
22 37
225 195
65 318
391 36
427 337
178 252
442 22
289 115
113 106
379 40
359 169
201 144
12 20
101 408
58 410
270 31
324 296
280 41
421 134
106 97
184 273
282 186
121 206
33 64
373 442
110 321
65 201
232 428
239 88
442 267
326 148
172 96
190 176
332 420
120 235
435 395
365 22
288 363
30 37
364 141
35 209
44 434
7 142
311 87
400 121
389 186
78 275
307 155
357 347
326 97
240 232
366 286
138 244
322 265
204 195
405 312
321 97
333 244
172 25
440 375
178 6
80 437
295 341
135 438
372 435
444 277
272 431
376 365
229 445
122 140
37 103
109 116
114 173
275 22
199 82
249 69
278 174
22 186
136 396
155 176
199 155
370 355
59 81
400 34
396 265
148 22
268 21
290 281
130 61
51 179
222 418
281 336
96 405
431 27
278 351
356 246
92 324
240 63
216 296
315 357
5 307
382 384
61 51
38 148
275 49
183 210
163 56
292 442
191 118
135 425
55 6
441 438
406 161
423 445
353 348
26 92
23 64
117 99
400 186
206 238
307 171
28 264
195 324
442 338
176 235
408 278
264 26
133 379
268 106
369 168
326 7
254 244
284 25
346 101
99 52
273 76
409 124
148 405
167 153
411 263
435 315
225 415
174 309
313 246
297 300
217 292
372 398
80 146
41 148
425 241
319 39
96 440
219 350
156 127
130 194
166 129
202 276
361 57
157 186
390 195
379 101
101 115
202 219
223 108
78 195
395 308
109 156
99 275
233 212
133 278
367 93
90 187
293 249
246 375
432 3
205 14
328 31
230 161
190 281
142 384
149 166
279 282
313 137
341 132
436 51
187 23
138 166
368 400
146 75
245 240
327 54
376 386
329 440
142 91
330 436
272 278
379 435
278 253
173 267
407 213
383 58
349 278
358 277
389 423
26 301
349 390
56 378
9 132
56 13
365 63
252 209
124 177
311 391
421 43
91 189
434 72
240 298
292 445
208 213
338 252
3 232
61 62
23 222
235 94
279 137
216 54
296 444
335 27
118 27
108 183
190 387
10 250
246 21
12 410
69 16
68 102
432 281
232 61
395 219
217 440
15 122
294 298
355 178
222 151
284 190
41 390
351 88
6 88
370 437
28 76
318 400
47 223
439 162
402 391
337 190
280 402
176 253
214 445
51 88
91 216
186 12
13 237
430 413
199 77
49 428
106 277
182 409
405 92
57 446
122 373
173 367
73 339
343 56
327 160
428 194
220 382
120 231
88 100
357 287
51 384
127 54
180 52
67 385
278 265
254 94
202 411
436 317
156 78
271 245
290 36
402 146
142 322
441 418
49 33
159 101
350 36
388 267
214 73
151 318
90 152
113 142
434 16
142 382
439 379
69 283
62 65
301 198
274 61
57 439
23 232
158 427
148 51
27 85
335 359
361 54
100 374
40 224
367 307
293 256
158 204
30 276
186 49
124 290
127 51
368 200
137 444
355 434
163 351
9 356
351 320
206 295
163 364
12 195
441 350
189 311
372 281
152 271
316 427
73 168
23 30
213 356
202 275
133 252
349 68
54 117
405 157
256 122
195 379
386 46
27 195
23 357
88 2
219 138
47 372
442 248
157 77
351 440
113 307
296 390
248 153
100 245
217 38
194 301
436 62
205 316
239 339
201 199
197 212
264 232
422 273
36 329
387 418
249 309
410 221
340 65
197 435
171 357
285 427
440 297
306 388
436 325
202 60
284 335
358 285
144 339
49 93
178 217
175 235
275 125
98 45
212 68
138 386
179 124
409 294
100 9
105 43
163 289
184 183
98 438
275 119
136 25
266 35
20 147
321 216
316 2
404 197
27 406
128 36
98 115
232 71
198 357
415 217
109 407
320 275
295 114
206 3
263 373
42 170
333 18
1 375
253 200
238 249
152 332
309 93
356 284
337 268
71 295
233 155
282 117
54 329
277 305
343 354
166 87
285 138
65 192
28 345
38 391
407 411
16 391
75 129
144 349
119 316
195 43
273 287
335 309
40 28
411 6
30 239
284 408
125 137
272 367
348 96
13 162
301 250
431 98
170 201
201 198
227 108
168 143
341 250
128 109
277 272
409 61
179 171
199 158
105 318
158 28
442 312
38 73
391 427
13 428
213 335
354 110
426 400
103 49
229 182
401 426
86 52
192 119
240 51
310 104
312 371
264 257
193 179
33 94
206 2
152 9
179 23
223 210
209 119
41 42
284 33
314 157
91 97
140 271
193 318
30 437
253 400
292 182
166 122
40 161
445 217
133 220
136 174
186 187
172 351
61 40
368 101
285 418
22 64
93 415
195 193
68 180
256 68
402 140
437 57
116 281
397 5
172 362
235 148
229 62
390 367
173 336
358 320
182 62
75 238
187 92
334 199
250 143
74 90
115 170
27 182
7 136
280 354
92 338
370 244
436 255
274 79
281 120
41 308
118 195
268 77
256 421
258 120
88 413
383 193
384 197
162 429
232 56
132 395
196 296
246 297
363 301
329 2
206 64
168 392
395 88
160 396
6 147
137 104
62 26
23 34
110 230
42 271
22 369
365 289
24 278
19 354
191 148
402 290
341 68
439 426
52 437
274 9
147 55
136 326
132 147
189 21
124 55
92 268
80 320
78 353
138 393
171 166
65 165
161 21
190 351
197 290
416 324
217 186
179 292
343 187
163 6
200 373
343 93
434 289
22 56
400 176
199 397
338 187
358 221
172 411
365 272
155 240
154 305
20 87
328 80
438 44
170 15
307 300
20 175
226 442
174 61
47 108
320 321
405 358
258 191
307 354
229 374
427 408
412 327
405 421
231 158
279 61
261 28
113 265
440 287
124 78
404 232
338 356
173 64
436 171
11 208
68 286
54 1
261 302
317 232
263 280
308 157
124 282
388 298
174 337
157 375
374 10
385 367
44 16
235 62
9 440
439 360
5 163
96 371
127 275
170 19
375 163
301 16
13 141
385 279
241 283
63 182
395 20
349 24
225 196
328 133
73 361
232 354
144 406
363 335
339 30
409 62
110 300
445 240
199 147
57 54
300 384
406 198
92 5
253 197
444 256
3 192
221 314
189 113
7 160
394 16
79 369
7 412
102 343
337 343
138 101
262 431
2 349
119 37
206 249
3 57
147 444
268 25
388 169
359 146
329 308
86 193
108 379
148 230
67 176
292 140
311 428
32 435
348 22
54 93
169 87
230 326
161 225
204 106
232 129
430 387
213 198
319 53
225 311
155 103
317 427
341 171
137 18
53 237
42 201
204 190
12 221
229 348
242 345
328 11
30 427
387 401
82 266
233 404
174 287
239 144
312 297
292 25
61 361
157 54
416 187
430 5
307 25
202 156
300 412
173 15
416 385
319 131
65 29
326 390
396 432
403 297
299 56
238 65
222 235
263 95
114 415
337 32
333 320
280 391
370 26
284 350
176 428
337 6
43 106
409 127
249 208
130 62
381 107
44 19
402 3
152 339
191 272
358 318
186 281
26 14
367 214
401 284
44 290
265 281
396 18
271 275
82 329
442 194
193 117
268 142
6 254
196 385
27 16
158 184
24 329
296 410
240 412
226 124
388 137
385 310
276 110
136 296
421 109
229 403
91 96
340 107
199 436
368 278
263 284
62 209
73 287
96 311
396 142
195 437
161 193
314 132
136 375
119 178
285 256
255 234
316 290
289 133
121 358
198 307
111 392
409 130
235 240
35 259
274 149
286 159
396 412
376 40
432 77
122 267
275 124
37 410
15 212
365 413
214 16
151 187
94 371
326 305
278 336
87 130
249 2
297 83
7 113
31 68
15 281
138 221
27 92
372 424
439 284
117 298
175 52
327 23
185 293
32 166
12 385
268 136
318 409
153 234
187 298
401 125
12 313
332 346
368 427
279 196
423 319
292 314
281 379
338 439
130 146
245 232
252 116
391 130
66 255
332 402
6 351
112 223
202 400
331 223
77 91
391 281
370 271
331 441
445 154
2 306
368 70
440 149
408 389
228 82
214 128
178 320
350 330
216 432
427 199
349 173
189 391
445 374
387 99
389 65
351 238
76 438
297 6
68 333
318 173
201 295
62 19
155 212
197 443
25 337
161 220
371 322
297 23
226 105
310 347
332 5
218 366
60 49
371 160
298 358
357 213
4 101
124 382
77 317
439 124
226 426
120 73
233 385
125 124
5 436
361 414
176 193
157 63
212 194
160 187
409 330
140 306
220 62
390 254
367 163
104 292
154 301
160 197
230 175
146 156
83 79
439 256
34 212
132 127
398 132
370 57
189 428
221 401
406 374
77 94
287 349
361 374
428 30
371 327
384 277
412 97
388 290
333 358
99 6
122 22
203 213
335 383
402 282
274 199
264 42
287 130
182 354
222 272
285 370
101 71
436 383
441 436
77 7
183 364
429 22
88 75
177 144
427 407
104 444
361 439
329 31
135 273
114 249
382 64
140 279
364 266
425 342
129 14
333 263
365 173
231 11
91 321
369 199
198 38
32 238
355 329
105 137
271 9
243 124
197 356
255 76
217 40
202 297
422 174
383 191
265 143
321 265
402 372
12 226
130 138
197 146
165 344
213 19
59 70
290 152
97 23
129 335
278 410
385 104
199 220
7 339
402 316
288 275
235 368
51 322
413 408
442 319
200 116
306 203
79 227
386 335
105 221
265 54
77 276
15 38
54 410
95 298
20 239
258 224
350 133
80 149
41 82
42 250
165 438
200 117
341 264
442 137
307 117
386 31
445 171
180 393
67 297
183 431
328 117
183 153
129 35
216 391
12 330
99 64
244 128
250 427
278 113
322 63
287 382
333 401
434 203
10 173
124 375
347 174
315 227
322 160
401 309
170 255
92 320
195 239
387 204
50 340
256 405
21 130
314 14
157 320
18 134
337 374
156 58
427 282
177 353
264 360
189 110
270 68
63 97
22 85
30 24
412 384
42 411
19 249
305 415
426 333
94 3
397 281
254 172
411 140
445 63
49 212
17 139
42 114
312 400
324 25
42 38
212 387
31 438
83 132
435 427
205 42
118 3
51 388
250 327
359 154
279 204
75 387
34 127
333 256
156 361
169 27
314 15
188 35
198 371
383 264
172 137
123 112
429 192
54 326
373 427
404 133
220 363
435 232
343 415
299 135
445 309
104 221
389 285
245 415
285 388
129 202
212 21
278 227
57 312
353 320
359 446
155 43
7 1
292 42
208 168
100 172
246 379
371 201
317 305
205 30
355 372
233 363
26 80
91 154
101 332
271 335
213 195
390 214
329 348
118 52
116 351
124 285
29 101
269 183
322 96
405 163
443 70
100 132
175 195
185 257
47 252
239 349
292 308
19 124
350 62
362 218
427 206
388 320
311 54
68 41
49 404
55 226
306 204
313 426
323 249
170 379
375 292
301 359
254 36
114 99
363 56
86 71
244 221
110 292
134 163
60 290
359 205
58 104
278 108
133 253
166 51
58 406
375 413
432 157
439 43
33 110
93 78
52 288
71 402
62 359
432 7
386 383
396 403
153 315
18 221
37 166
71 244
63 327
327 77
200 143
177 23
194 19
136 54
158 351
71 256
104 27
206 408
282 42
272 348
414 444
56 341
281 195
129 357
67 349
382 357
411 161
373 5
15 14
197 386
358 200
398 333
416 104
356 297
161 24
34 24
357 4
153 235
388 187
198 318
155 67
373 197
153 31
390 161
135 397
94 21
413 427
159 13
1 21
439 410
6 9
401 421
365 138
89 40
117 140
130 36
216 110
92 117
163 179
263 42
156 213
101 281
36 40
85 109
214 343
193 116
244 187
200 24
154 37
202 404
96 160
353 390
116 335
90 57
389 125
14 10
347 337
387 413
320 285
287 232
323 387
367 445
410 421
435 88
221 445
354 412
353 190
233 133
354 391
292 41
445 156
219 40
136 311
64 389
234 248
424 16
71 176
311 129
206 143
86 331
166 409
209 360
105 12
78 397
154 130
168 344
80 379
216 149
407 327
151 155
275 281
339 337
328 102
204 322
5 343
445 430
170 365
283 181
40 197
333 58
78 174
79 331
373 179
292 137
174 3
114 361
38 376
426 232
423 379
246 305
190 166
250 205
72 224
109 71
83 30
404 213
201 71
42 100
18 296
152 278
256 347
173 263
362 408
208 62
352 224
401 95
163 237
40 134
360 417
100 75
432 94
370 163
205 68
390 143
383 314
166 100
442 360
78 285
11 376
217 42
256 274
409 346
202 103
32 284
155 305
400 281
158 389
33 106
446 238
275 73
32 147
361 274
63 320
337 432
182 205
244 284
263 197
157 309
20 144
288 442
389 271
389 398
132 359
254 357
158 128
317 275
154 277
250 439
188 47
316 61
296 77
264 170
25 263
86 299
229 338
30 429
327 358
206 133
379 275
372 11
138 432
149 189
121 367
178 446
266 262
353 147
254 310
162 153
67 166
285 116
51 411
402 382
254 54
27 124
134 410
221 416
318 186
20 338
324 410
34 202
109 149
430 407
20 32
314 19
335 132
244 397
4 81
184 223
198 6
87 75
296 221
294 148
33 105
110 268
274 62
82 208
305 140
142 329
435 10
110 432
225 221
12 414
312 155
152 373
370 86
157 412
33 216
435 231
401 294
297 144
389 234
33 275
365 285
376 15
144 172
54 143
348 88
101 183
63 276
411 314
435 243
323 411
10 174
38 329
352 145
356 25
9 353
196 354
278 328
54 275
104 298
197 331
140 421
310 320
385 127
87 9
310 196
323 434
130 65
219 127
55 229
438 343
272 99
271 60
183 224
173 389
276 33
357 301
143 21
382 213
367 428
122 42
100 324
172 190
274 445
257 59
348 354
67 367
240 44
409 359
445 129
181 241
209 438
206 354
388 268
283 74
87 297
222 354
368 424
43 415
149 412
232 327
284 250
308 230
346 312
208 328
427 295
151 101
388 156
196 338
182 293
61 384
179 54
81 207
374 55
382 100
99 161
264 393
295 156
280 284
212 99
171 230
172 42
438 66
78 407
378 395
436 274
254 173
163 389
228 35
118 390
152 205
199 22
436 222
204 138
16 274
441 207
219 294
281 414
236 4
187 179
335 154
318 361
274 197
445 359
117 63
131 315
314 280
293 189
33 187
421 12
208 443
146 178
430 173
320 426
280 411
49 296
295 73
109 402
442 229
163 135
369 224
279 389
30 36
353 83
416 296
14 37
274 154
216 440
365 250
23 193
299 281
414 160
143 202
354 341
203 214
40 395
136 149
305 400
343 6
63 405
418 71
401 33
92 279
437 183
275 213
293 160
239 86
287 177
35 367
304 218
318 285
324 193
151 408
49 97
330 231
137 426
348 256
359 276
311 240
138 121
277 95
272 349
10 292
157 14
201 422
415 409
5 370
102 168
307 232
430 178
195 435
38 128
445 278
216 10
397 197
350 277
440 169
119 439
10 46
152 435
99 125
25 6
148 175
435 274
282 38
416 295
99 219
337 177
435 46
52 214
235 330
256 175
320 149
375 38
117 43
316 65
10 161
237 299
298 32
187 103
91 60
86 354
281 306
311 384
378 367
278 372
308 37
406 100
36 173
173 441
239 229
155 49
293 203
383 18
156 57
404 401
273 170
359 173
22 395
148 217
151 397
243 152
205 73
395 230
153 27
122 282
179 151
193 19
305 198
256 5
277 92
201 412
427 374
182 9
357 122
388 2
384 371
244 231
409 177
77 67
194 110
401 105
59 394
170 304
149 324
234 243
306 106
172 238
133 424
72 369
233 388
297 351
331 219
34 193
287 391
41 37
87 351
329 421
95 244
405 238
73 382
162 98
169 2
233 38
210 218
49 432
208 252
337 320
189 92
254 320
31 240
142 405
93 379
414 134
117 313
238 418
200 442
204 78
137 309
263 38
249 230
270 438
174 407
3 275
50 191
107 139
136 322
239 79
21 250
335 57
96 375
12 424
35 82
201 3
92 201
366 234
211 433
173 427
388 294
83 32
422 49
364 393
64 65
334 50
147 198
240 121
201 158
58 245
114 178
6 161
121 285
19 20
186 79
24 401
391 274
103 43
347 57
162 135
79 398
296 301
30 359
76 390
113 212
80 163
92 421
56 278
11 135
427 436
97 375
226 73
429 3
244 97
1 440
161 435
290 6
100 196
169 42
275 93
124 201
90 291
199 298
396 83
442 271
101 8
424 253
386 79
311 432
298 333
200 5
256 350
298 38
389 40
273 270
40 177
130 329
407 80
233 323
432 250
328 46
149 326
219 325
147 290
284 9
108 437
36 408
328 116
180 278
305 30
110 311
52 264
390 331
161 280
348 58
365 201
128 329
249 264
351 220
268 440
326 43
132 351
42 280
163 61
253 442
14 104
12 95
147 205
197 321
439 46
311 77
149 97
326 142
396 91
56 158
216 276
389 272
186 155
395 153
80 361
295 408
233 57
88 406
65 44
321 194
241 59
166 404
198 151
279 169
401 285
109 335
323 214
293 25
371 113
92 12
73 354
268 63
275 430
391 278
186 60
97 7
9 32
317 26
36 445
312 9
80 96
276 94
414 43
117 105
36 129
19 235
15 46
229 245
358 2
127 284
329 163
137 296
314 175
377 437
316 143
411 33
367 136
301 34
222 318
398 387
404 298
374 278
323 441
237 241
346 314
257 227
8 72
317 157
5 240
75 363
290 248
432 160
98 343
117 421
416 226
176 359
413 93
327 276
374 26
332 299
23 196
289 114
179 279
32 281
196 62
406 97
21 99
271 118
78 27
307 427
394 8
314 172
174 410
161 293
27 428
317 202
132 368
387 272
117 95
293 407
260 215
174 326
224 377
397 202
309 301
68 394
132 32
292 176
331 46
281 383
410 415
356 353
297 44
388 212
325 101
161 169
353 20
398 245
360 119
335 62
415 391
1 326
149 396
100 83
2 333
341 404
274 295
2 129
43 324
359 189
101 148
118 192
20 349
427 138
330 284
391 54
218 66
182 110
92 287
151 287
383 95
412 160
295 444
86 408
229 263
110 421
307 400
316 100
7 430
280 122
446 229
108 13
264 118
233 21
6 239
218 135
106 389
124 195
441 429
394 343
2 122
384 38
179 63
422 86
51 278
104 436
194 436
338 416
41 282
379 316
113 110
235 135
196 330
175 36
173 148
422 301
36 225
12 296
444 75
151 354
36 197
19 430
253 86
80 138
95 18
254 292
313 275
7 182
38 367
196 43
375 322
439 390
73 174
219 386
361 347
216 97
49 239
179 79
407 10
238 284
414 38
148 12
408 285
403 412
89 178
199 225
350 375
184 139
339 341
292 206
154 125
71 180
1 396
169 296
28 13
252 264
144 365
9 446
258 438
23 104
205 44
119 80
155 205
80 61
407 11
417 16
336 325
281 97
68 378
365 408
168 243
173 337
267 148
446 173
49 202
196 171
357 376
259 380
203 19
186 359
135 431
63 371
87 341
273 372
418 61
341 278
209 362
103 387
56 14
305 163
116 226
5 86
148 383
370 116
189 216
426 294
71 99
77 300
373 230
310 410
428 292
156 75
318 232
446 25
390 68
328 368
203 281
440 311
15 357
412 265
312 361
163 145
418 385
44 404
109 28
71 138
151 390
171 27
327 24
323 428
241 257
103 354
187 415
23 171
403 136
41 290
171 156
54 401
197 365
388 367
189 54
176 49
35 217
196 117
23 32
69 288
106 396
264 195
413 71
250 160
446 402
401 127
216 176
220 26
351 212
362 69
35 74
169 157
360 57
177 406
195 249
249 4
311 160
404 390
385 326
374 430
254 37
26 117
321 213
282 314
318 79
432 300
416 317
334 180
283 257
396 387
432 222
232 127
77 265
347 213
257 288
398 252
311 7
435 267
302 231
182 157
208 259
13 336
388 55
186 232
296 171
67 249
310 99
91 136
312 406
222 341
432 32
176 305
41 14
230 282
88 172
50 398
216 125
77 54
229 109
24 300
14 412
403 384
375 106
73 88
311 326
390 73
372 264
174 151
388 324
322 409
385 190
46 383
250 30
131 255
293 398
353 351
36 77
196 388
335 350
75 272
34 309
373 199
397 163
229 176
363 154
319 370
148 36
67 323
251 381
101 198
63 300
267 339
293 276
161 5
88 382
18 348
93 427
285 99
177 25
146 137
86 200
435 445
341 60
297 238
353 100
409 194
398 87
374 34
409 146
233 295
178 415
316 432
68 98
353 58
272 206
365 367
375 371
110 265
370 407
402 65
174 12
6 202
21 326
439 306
98 365
327 300
88 79
346 60
360 325
252 249
66 286
222 149
218 430
338 402
428 114
330 179
213 410
422 205
430 444
245 54
46 346
187 34
332 29
313 401
439 174
106 412
331 102
219 135
16 401
275 68
136 12
113 127
67 338
71 285
375 161
36 429
151 171
176 422
94 314
337 225
55 406
330 218
287 137
65 194
110 77
175 41
77 37
233 26
109 117
440 110
288 125
311 97
160 24
253 138
318 326
330 88
283 81
432 398
426 250
388 254
121 408
298 313
85 178
401 379
393 386
52 119
318 339
217 54
196 92
121 179
39 442
77 388
280 361
432 116
255 422
416 279
346 153
140 389
149 403
238 300
431 116
117 104
26 199
363 156
414 92
256 418
46 212
361 194
163 279
339 198
271 176
206 397
231 143
338 349
106 136
202 300
158 140
378 394
134 320
326 144
346 251
193 359
243 415
136 388
172 432
403 160
362 31
14 263
330 355
226 361
121 402
335 278
230 205
29 69
224 150
45 112
189 61
95 358
47 392
44 271
38 104
298 219
308 71
429 148
73 357
446 37
202 252
122 198
328 354
305 318
44 69
184 270
312 134
263 79
94 327
418 125
235 249
274 379
81 31
173 445
140 264
408 238
134 426
384 94
191 72
250 444
420 68
170 154
125 95
275 367
132 347
396 94
414 385
61 201
180 200
300 182
202 144
299 372
203 30
3 397
75 426
233 6
124 149
168 430
168 438
119 283
85 343
311 63
354 149
353 388
186 124
226 14
128 436
370 418
350 221
203 428
83 203
73 254
367 100
14 178
163 180
114 50
428 153
337 54
445 75
147 190
78 73
284 312
290 239
78 390
250 373
169 97
208 211
348 368
227 359
125 306
237 3
40 360
374 265
446 395
307 353
350 290
315 255
427 174
54 343
20 75
424 194
426 199
202 171
171 373
371 182
148 384
43 401
274 418
128 389
183 98
432 267
348 133
330 230
349 15
365 387
3 307
140 10
376 281
175 316
265 226
279 421
40 424
169 1
78 361
62 5
187 359
383 220
216 235
129 356
70 114
312 411
21 91
301 67
33 280
409 26
149 1
119 78
235 383
123 262
136 96
33 405
88 311
387 46
187 428
287 390
272 263
158 66
6 338
335 416
157 415
67 233
133 137
160 326
93 295
256 137
330 54
78 25
252 155
278 186
356 385
2 137
426 117
373 37
324 216
243 22
432 63
192 244
428 133
320 440
337 140
337 9
323 205
166 219
33 1
21 202
350 434
298 439
160 142
356 58
73 317
358 105
412 187
63 229
25 195
121 306
174 40
8 260
25 83
389 294
152 328
385 316
197 409
99 347
68 63
390 57
405 27
421 196
117 49
178 236
201 343
55 385
363 206
288 370
142 54
356 132
37 193
238 23
309 363
342 111
62 171
239 146
124 292
306 109
174 446
169 265
396 321
84 242
361 249
427 200
343 307
121 416
80 206
320 16
182 375
365 101
338 78
323 125
416 298
18 327
241 81
149 2
398 56
87 78
193 146
411 14
335 9
232 179
289 109
295 98
251 170
102 434
140 37
166 317
170 59
300 440
326 267
161 282
14 124
30 197
257 162
233 305
365 263
3 370
321 19
110 250
155 129
31 346
324 294
137 410
437 159
321 318
444 87
104 401
91 190
250 178
88 353
374 436
48 181
200 328
114 383
203 78
116 233
233 103
147 446
267 140
145 252
393 187
320 230
227 52
58 358
204 414
21 371
5 413
396 276
348 439
206 87
440 33
397 446
53 167
348 205
96 320
43 347
13 330
320 137
26 359
370 62
376 151
94 405
375 137
16 415
173 338
268 7
311 235
382 78
210 334
62 44
287 119
127 103
375 428
254 41
302 422
400 113
365 200
35 231
412 322
401 279
408 254
174 398
57 430
404 229
1 311
156 129
362 168
138 337
408 446
117 279
3 281
358 225
265 21
85 214
136 349
388 416
161 140
35 171
92 385
143 128
333 75
225 134
121 338
264 430
96 265
356 351
36 278
353 384
198 246
198 254
397 383
53 315
421 187
157 335
389 9
386 361
177 374
122 26
67 430
20 172
80 395
332 398
325 127
431 15
206 365
80 9
147 25
393 151
163 136
203 23
383 23
313 18
239 390
104 93
182 133
293 335
256 426
202 341
3 359
338 411
324 333
167 255
434 417
99 389
328 378
206 413
231 328
279 87
316 279
23 68
337 335
213 378
295 161
186 38
238 9
1 77
431 390
344 443
41 161
35 433
372 76
280 407
399 257
40 49
60 103
95 426
185 269
445 355
361 204
312 116
345 4
47 40
189 25
114 293
22 370
135 415
134 169
148 35
162 133
57 127
133 321
414 316
310 10
415 398
169 33
137 226
103 398
309 354
173 404
136 169
371 33
385 410
146 158
124 373
329 390
177 267
87 368
429 39
49 265
55 146
140 148
357 225
116 42
433 16
313 9
397 271
276 440
78 233
338 337
430 205
192 355
382 233
25 100
362 238
151 186
359 67
436 85
403 432
4 315
93 204
334 398
272 195
55 356
296 279
158 390
58 401
229 307
285 322
113 384
265 33
166 153
173 437
415 179
106 440
203 328
239 275
78 273
103 249
322 403
297 198
124 295
385 430
437 65
168 167
113 216
119 47
51 288
348 415
414 426
363 244
246 354
138 179
337 142
346 219
313 57
5 252
425 302
35 365
337 175
175 373
54 235
40 329
432 43
22 36
296 9
368 143
412 326
270 79
88 246
183 59
49 309
86 372
222 171
82 211
374 353
384 100
20 33
20 348
38 379
25 3
354 277
301 91
394 207
61 104
355 101
15 175
387 306
58 239
204 179
61 301
329 320
287 432
294 296
86 438
179 411
354 80
79 131
31 18
277 61
343 120
300 136
353 173
374 279
232 305
154 192
163 404
97 157
132 91
363 398
306 348
4 299
118 293
223 70
356 428
9 43
230 42
264 191
276 161
428 301
272 292
238 368
341 186
407 323
374 20
43 137
100 239
320 401
281 445
182 189
132 363
207 48
294 410
131 227
88 132
6 272
346 290
26 358
362 346
13 183
203 10
2 73
292 415
41 143
58 30
444 421
407 3
138 254
146 444
83 374
97 94
166 305
39 369
375 414
37 285
430 287
26 61
12 298
384 33
75 446
73 388
348 189
359 73
430 23
327 202
329 202
357 14
92 216
37 175
219 407
284 374
291 288
359 152
147 356
424 346
148 54
291 79
313 385
149 281
396 322
297 239
367 217
196 333
176 337
348 404
49 267
96 301
169 54
82 195
10 361
246 177
134 189
382 374
54 405
72 420
310 322
271 27
309 33
386 195
96 388
326 276
421 305
135 133
64 240
430 225
45 269
359 274
407 249
240 272
213 293
53 255
423 281
202 152
331 31
30 110
238 233
153 48
84 425
40 62
362 46
311 300
335 226
80 279
218 332
13 398
398 330
264 13
163 362
127 41
43 320
176 75
421 18
142 323
389 200
98 178
143 10
65 135
330 336
391 80
145 433
23 127
358 37
25 239
9 58
14 217
22 153
326 408
295 64
424 99
180 176
134 324
189 361
100 58
166 400
357 156
341 23
404 376
64 253
145 65
298 296
269 72
232 371
176 275
187 277
97 177
407 195
15 23
34 317
355 197
266 394
276 416
402 200
393 222
204 61
19 133
155 254
339 204
25 220
428 361
233 358
240 204
145 288
230 142
385 221
216 300
359 156
1 403
206 51
199 442
104 124
172 32
60 225
101 35
205 308
357 124
444 385
163 138
295 421
388 339
14 363
210 366
389 306
238 337
183 84
415 295
441 360
343 364
85 370
312 100
393 61
68 295
349 172
349 174
184 84
298 432
270 218
140 16
147 239
206 5
369 109
206 32
310 324
57 275
310 116
186 212
21 160
216 96
426 298
116 334
278 218
63 54
221 396
368 62
285 201
220 12
229 75
221 292
10 172
396 63
15 3
345 261
52 163
230 83
256 388
285 398
116 323
382 389
316 281
362 233
185 345
110 384
133 229
444 357
47 82
106 134
428 117
152 316
20 432
180 115
23 321
78 166
268 219
349 25
122 324
326 282
397 348
136 250
435 54
354 187
252 118
361 27
201 267
276 225
243 329
319 381
347 220
98 275
278 274
229 353
355 159
427 226
76 287
287 275
130 350
234 227
64 201
233 96
14 134
163 219
407 382
185 417
374 401
324 338
55 177
294 313
92 416
63 285
348 105
53 394
405 160
208 273
295 336
64 285
268 322
15 250
174 16
398 175
152 65
41 219
429 90
67 23
25 197
80 358
238 190
27 93
243 332
32 351
220 80
399 342
51 19
113 324
445 398
88 190
73 51
277 347
243 368
206 396
318 317
267 331
389 418
101 46
326 106
48 330
289 209
146 365
260 192
173 311
125 110
196 2
52 205
155 323
147 305
145 254
31 171
74 19
285 2
116 402
106 103
180 145
424 290
441 253
292 180
1 349
30 95
51 85
168 334
147 432
168 57
38 446
10 175
442 421
186 307
26 403
419 199
198 312
158 343
424 127
110 160
252 423
427 348
410 384
2 142
415 106
445 336
436 117
244 398
121 44
361 214
229 337
292 408
130 5
410 92
235 346
370 263
22 49
95 339
285 149
401 1
37 122
49 129
193 171
32 203
149 379
25 86
299 434
290 106
280 373
347 232
440 327
349 140
1 91
222 232
3 119
264 51
282 6
169 292
132 172
67 3
93 335
206 179
68 101
238 110
95 333
68 354
16 427
163 343
356 401
95 151
191 40
127 430
399 111
182 138
263 175
172 356
186 193
149 96
229 173
103 214
16 339
43 294
128 335
2 339
285 186
240 285
220 191
421 388
23 446
446 166
65 90
168 269
287 186
94 436
390 249
314 330
88 220
274 365
368 335
401 411
120 398
312 239
163 199
130 337
236 165
309 423
137 421
373 80
391 361
156 439
370 127
175 285
132 445
214 67
307 129
119 170
373 323
371 310
277 313
40 431
21 245
153 188
442 52
313 296
78 254
316 221
124 367
215 52
351 337
2 92
361 311
109 345
136 21
406 5
138 149
98 57
207 334
252 143
187 212
26 49
288 264
67 368
346 328
47 211
182 277
422 151
24 282
175 14
217 189
343 42
272 413
353 14
44 301
387 278
182 396
404 195
128 199
90 171
250 424
427 418
240 274
200 44
134 358
30 410
166 179
146 87
122 206
140 330
292 186
282 175
276 26
198 23
312 193
102 167
249 16
352 299
275 174
182 287
166 198
225 310
279 398
324 277
238 330
379 16
229 144
305 127
391 194
235 347
127 296
177 100
214 190
195 93
264 376
92 296
406 140
277 49
416 294
250 277
415 294
430 248
240 323
7 341
79 190
193 404
267 161
346 109
65 291
297 402
156 14
330 375
306 362
247 168
415 428
109 89
238 187
276 246
198 60
258 299
32 134
442 353
170 395
192 159
46 316
365 46
415 313
241 345
171 129
144 389
239 365
114 16
57 94
200 424
389 41
356 51
23 130
125 341
203 232
383 279
233 193
424 380
18 2
276 142
127 357
106 73
376 133
392 438
33 281
82 254
168 127
190 87
160 351
288 44
198 412
276 105
355 443
438 131
249 408
263 383
14 179
430 213
313 202
415 430
328 173
20 100
152 146
378 258
97 403
12 358
230 140
426 285
246 58
383 71
17 422
151 317
136 103
445 62
214 114
253 354
119 359
6 395
376 127
322 365
43 444
211 50
409 309
254 189
257 378
289 56
350 105
430 356
206 240
375 169
374 144
103 54
440 113
421 254
285 326
21 403
306 365
254 307
148 129
433 323
220 409
69 332
171 175
87 337
178 428
432 86
281 282
34 133
250 217
35 170
30 412
73 195
102 40
144 284
371 1
238 20
174 156
246 7
189 116
250 140
407 175
138 202
88 147
348 156
96 321
286 72
221 27
104 354
78 431
148 205
80 51
93 121
352 242
128 163
37 300
176 318
402 163
77 396
271 85
134 296
57 101
192 209
328 407
395 68
212 349
103 198
141 266
262 98
194 80
350 61
51 27
10 219
229 57
432 26
415 418
60 238
88 439
309 274
408 272
195 117
305 396
73 312
263 326
60 397
446 343
316 231
295 305
283 211
38 411
256 104
9 172
314 161
61 186
154 309
368 253
86 143
12 199
179 176
194 220
324 239
125 278
436 288
281 424
137 130
201 238
435 230
42 10
413 125
410 306
246 384
91 106
245 117
77 187
169 418
54 407
311 277
216 58
324 316
249 178
305 212
412 250
350 439
240 129
339 305
26 36
358 313
33 149
156 415
44 178
128 271
216 229
409 301
296 365
290 9
199 327
325 431
413 117
306 143
335 127
186 354
440 94
263 350
134 294
47 207
291 235
225 256
67 90
223 143
100 298
28 302
226 106
175 162
254 58
267 14
28 141
170 114
217 44
418 234
372 13
27 133
385 137
65 343
298 410
156 407
426 91
41 379
180 376
316 243
445 379
116 272
300 321
172 87
379 436
230 132
348 238
411 205
342 438
57 136
389 109
383 146
73 173
213 337
130 401
406 103
167 234
336 289
239 32
202 19
287 162
231 5
222 62
361 245
391 191
310 213
287 323
290 37
54 238
273 178
197 161
370 287
25 361
103 349
144 368
416 49
106 189
376 330
86 281
301 219
166 176
389 436
144 147
316 57
240 46
191 119
357 418
293 194
110 287
305 404
434 206
350 250
297 32
246 83
64 212
393 252
327 21
306 343
288 109
430 276
329 217
395 383
246 22
424 280
210 82
284 6
172 436
323 197
306 393
219 424
201 408
65 39
413 124
58 148
61 359
355 437
195 64
409 436
49 373
439 446
277 424
195 9
169 149
62 383
263 213
65 10
409 80
325 13
408 343
410 320
400 130
11 287
2 426
438 368
309 284
16 42
114 330
330 426
46 354
298 79
52 297
390 275
14 221
99 105
40 438
370 98
427 310
314 308
366 13
217 263
330 402
218 76
314 323
36 43
414 416
37 411
193 198
385 18
316 437
278 322
421 359
71 87
403 63
93 18
333 317
92 233
353 415
388 12
384 322
147 80
222 198
15 73
367 427
296 287
281 347
13 278
221 272
110 124
166 339
15 393
67 354
330 440
220 445
283 270
302 185
413 40
63 1
432 117
118 380
386 128
282 331
333 43
281 368
296 73
403 214
335 96
155 124
254 313
386 201
155 370
240 318
187 67
390 386
445 149
217 30
36 51
51 346
180 258
160 321
116 316
4 364
222 67
235 201
430 156
382 27
186 374
245 310
97 396
141 207
40 114
158 135
176 212
149 295
350 178
423 424
379 86
130 240
277 320
327 117
254 174
435 436
368 318
42 161
222 287
190 250
9 170
166 34
20 351
220 57
330 147
169 96
358 226
38 110
172 446
356 349
401 175
229 205
49 335
38 86
400 197
21 440
124 91
55 75
155 206
355 121
114 430
77 418
294 310
11 278
413 317
253 271
304 164
395 330
271 343
270 259
174 179
268 58
335 445
15 282
328 86
33 54
17 398
294 12
327 396
187 404
79 362
44 293
127 439
376 260
284 146
147 104
134 335
222 37
189 384
307 222
190 124
415 21
132 322
176 404
308 24
367 368
221 41
80 335
145 244
51 3
420 443
349 229
208 309
424 116
17 332
36 195
35 76
44 190
318 9
91 337
21 63
423 253
260 422
119 335
46 203
356 177
124 122
284 229
216 136
101 180
263 337
354 171
396 383
362 220
54 285
40 30
297 395
333 272
272 398
3 235
341 300
225 157
6 34
79 230
344 223
445 347
212 221
206 351
124 384
57 35
125 382
332 342
409 348
72 17
36 335
293 76
296 225
217 122
225 275
97 428
361 132
306 279
18 326
12 100
244 411
254 52
27 445
310 95
282 308
351 426
227 255
5 330
27 174
162 126
198 31
180 135
185 266
176 23
326 229
16 121
300 149
227 53
7 109
43 410
14 282
11 355
325 192
197 63
347 390
426 388
254 376
1 432
216 77
189 320
226 320
166 147
36 307
101 13
124 389
296 358
442 73
201 60
407 332
25 229
263 109
226 104
189 412
414 294
256 314
345 342
187 193
329 272
91 33
383 309
386 178
330 428
92 206
162 350
438 45
13 223
397 144
209 399
181 360
16 151
144 338
104 445
116 390
49 134
403 91
408 138
432 96
412 321
12 216
316 423
200 152
44 101
367 418
274 73
18 294
308 136
231 304
64 16
145 210
1 321
294 37
233 187
63 384
370 207
55 88
415 49
268 94
166 105
322 94
384 326
170 368
405 124
263 161
101 218
436 337
237 156
212 127
88 87
445 58
361 1
54 403
391 109
26 146
195 253
401 415
37 250
332 73
372 211
121 41
284 30
363 73
135 398
25 190
101 336
304 364
79 397
31 162
101 171
278 235
409 390
86 156
343 442
160 440
311 404
27 439
393 22
298 281
272 161
246 75
100 338
142 94
238 239
192 153
417 332
278 62
403 265
189 268
177 416
58 277
237 347
21 384
221 169
384 16
376 174
418 173
410 446
214 168
1 412
42 197
25 55
75 244
127 326
374 190
93 389
327 338
136 63
113 405
30 41
383 301
91 300
339 99
177 326
417 165
156 43
195 152
215 257
298 256
397 46
73 127
318 148
366 84
136 187
100 6
347 127
391 146
41 15
193 298
445 194
330 30
118 203
100 287
83 88
176 274
250 18
161 1
421 105
116 306
400 23
116 5
263 278
186 274
254 233
190 320
71 389
138 125
359 99
125 385
33 244
75 144
439 423
56 237
349 246
142 182
210 251
85 28
171 38
87 214
148 253
21 359
168 165
98 123
349 88
316 250
15 287
148 357
222 279
379 312
430 357
233 94
208 419
297 314
153 131
289 41
282 288
386 130
146 274
385 401
395 386
127 278
78 127
359 281
113 97
290 193
5 115
353 245
173 276
38 178
421 64
92 256
125 295
120 183
160 445
333 321
324 385
244 416
401 290
184 218
434 255
121 173
327 148
268 169
9 351
309 244
267 249
113 160
339 182
405 375
147 219
58 127
86 348
36 3
96 403
330 246
186 295
267 200
178 197
155 136
156 128
401 388
348 383
361 3
102 278
409 100
55 338
104 439
388 338
360 191
296 408
59 65
100 348
106 374
323 234
363 51
133 103
108 139
14 432
97 382
432 134
63 169
134 316
444 265
413 339
318 103
405 320
71 408
190 6
40 200
316 124
232 198
79 132
193 373
371 265
432 375
119 257
33 77
337 15
390 3
336 260
367 306
68 54
156 225
142 410
152 386
347 11
355 390
391 196
427 124
157 10
105 182
386 118
96 190
382 390
2 421
190 26
257 360
54 268
250 388
203 307
292 253
309 307
118 237
136 265
145 380
385 226
200 436
377 28
169 18
105 294
443 68
32 446
22 52
385 373
5 124
1 106
343 424
169 361
192 116
69 420
149 142
205 129
358 385
444 358
375 404
408 398
68 367
360 53
212 23
364 261
200 133
60 445
186 198
332 185
371 440
90 318
104 212
51 309
247 224
365 330
274 311
234 22
333 418
341 294
384 375
41 246
20 190
202 301
428 115
390 433
216 365
275 429
407 297
295 204
134 279
107 17
441 274
144 199
252 103
433 372
387 61
318 267
238 161
414 320
285 405
48 135
55 54
132 444
383 86
341 103
328 15
322 182
41 212
404 373
279 357
368 103
40 429
143 407
199 286
91 311
363 359
350 134
2 41
224 381
239 132
68 441
384 36
21 157
170 249
382 57
26 83
96 97
295 365
96 316
85 173
175 16
180 127
187 339
354 233
281 93
262 70
347 323
293 226
169 216
407 161
3 49
155 404
63 418
278 439
102 362
107 70
161 148
33 113
134 310
61 256
433 273
376 206
110 201
65 200
225 298
406 351
96 326
174 406
23 189
389 439
60 67
226 225
301 68
330 301
316 133
278 41
261 8
249 284
409 350
274 195
109 334
418 87
169 36
363 190
73 193
431 192
343 206
387 78
146 338
440 246
101 26
198 34
215 241
321 356
18 310
190 297
139 70
361 202
90 59
317 75
409 280
311 130
321 182
386 81
444 58
259 399
265 326
188 283
86 380
195 428
321 136
430 71
23 175
194 274
37 36
321 297
88 274
25 201
240 310
363 36
161 297
284 147
183 31
379 402
216 384
77 321
225 326
321 94
158 442
339 422
428 234
266 342
350 80
439 195
409 149
106 403
198 36
57 73
407 88
291 429
277 96
239 350
226 63
343 79
174 122
282 10
144 9
255 438
406 427
191 267
134 313
174 323
99 240
110 371
292 230
133 97
309 80
148 106
86 410
290 243
6 305
313 2
436 391
5 351
193 60
4 255
83 9
79 13
276 268
367 204
151 430
116 244
87 397
314 148
395 46
102 219
2 221
43 350
103 222
27 367
127 106
179 267
149 276
307 245
304 328
406 401
362 191
25 54
274 174
213 251
384 1
38 308
231 243
124 36
229 88
30 15
383 445
244 414
52 16
201 204
29 260
220 301
397 57
95 410
348 250
324 339
397 365
189 124
157 440
157 326
101 395
179 10
383 422
37 397
377 381
338 71
187 198
245 203
175 127
411 322
91 113
363 436
383 204
418 138
30 313
122 402
34 356
233 374
117 226
429 65
337 10
250 329
204 362
76 40
446 356
257 345
267 285
312 311
289 67
279 426
78 118
429 72
155 15
253 243
182 373
279 221
196 298
71 104
298 105
67 307
284 297
29 420
414 401
397 343
18 279
141 98
289 266
376 52
86 135
63 94
7 71
18 414
327 196
275 285
365 80
177 26
43 285
259 433
357 151
151 350
264 439
442 275
326 327
5 17
233 60
360 251
117 318
348 25
14 264
343 435
296 256
121 335
373 71
171 49
9 20
1 96
295 321
321 106
209 368
411 308
75 349
128 101
93 365
272 71
277 196
12 213
37 301
390 445
206 91
330 204
4 445
376 156
396 113
394 199
160 71
86 133
197 426
264 220
100 390
30 128
203 176
349 421
249 398
18 298
441 167
71 387
176 97
329 190
30 31
442 291
119 60
70 291
166 58
64 387
361 400
71 177
86 391
318 63
235 27
136 348
375 33
170 130
309 235
235 275
194 350
49 179
256 277
322 410
274 36
244 374
16 203
413 418
401 428
320 436
438 420
390 58
28 181
161 37
382 326
306 398
282 274
214 206
277 104
299 345
407 212
360 376
360 180
243 16
83 305
11 143
298 43
11 86
68 219
248 17
145 376
413 376
338 117
139 236
369 11
275 52
275 157
122 199
221 117
166 403
105 416
441 346
244 272
322 169
200 271
47 360
51 250
105 306
311 30
402 347
415 365
130 175
197 57
321 2
42 157
264 10
16 58
321 68
175 312
415 279
382 174
76 109
317 212
96 327
271 284
265 189
158 5
129 314
428 248
51 194
396 20
121 204
155 6
397 239
311 290
225 401
363 194
98 248
173 93
101 424
85 66
58 279
187 110
416 445
255 319
396 311
76 409
213 252
363 88
294 61
38 401
174 201
402 435
219 9
142 96
413 263
182 91
16 235
269 17
230 280
278 30
68 35
40 245
300 96
87 338
428 22
229 77
322 106
332 192
120 50
277 421
422 439
105 96
5 67
285 147
204 22
138 367
148 263
391 383
117 21
166 170
118 145
391 379
153 71
350 445
265 157
330 20
430 281
293 331
376 380
445 387
156 309
446 6
335 161
169 117
391 149
101 441
415 408
323 297
237 101
217 24
104 410
217 161
101 102
124 387
265 232
182 149
229 5
88 178
273 211
444 175
99 14
387 138
148 367
157 96
326 356
37 280
267 37
353 160
281 388
49 79
153 3
373 41
87 144
333 444
398 273
197 395
24 15
237 8
431 355
216 282
36 18
18 358
55 86
292 103
79 381
427 132
56 339
189 7
430 367
338 32
186 383
245 293
149 322
330 199
124 173
244 339
408 388
148 424
99 61
271 323
279 272
383 347
144 252
144 6
350 152
409 93
287 27
444 67
179 320
198 179
322 385
88 197
94 10
440 136
117 149
215 209
80 6
37 309
343 117
116 359
314 38
433 380
68 379
416 117
289 237
110 136
246 94
323 293
284 94
49 153
337 356
233 307
289 193
389 138
385 105
50 437
428 179
372 35
23 2
323 254
192 237
190 32
110 446
374 396
89 352
40 222
368 193
309 78
274 325
36 386
441 378
445 24
125 201
412 432
252 203
369 417
13 431
306 117
179 271
286 369
139 372
271 127
19 75
277 295
141 126
4 423
86 19
296 63
368 100
349 297
19 14
313 212
131 260
398 196
386 23
129 101
313 388
72 69
116 391
14 435
36 346
316 232
397 68
341 113
413 278
404 60
86 277
350 195
204 127
311 412
182 16
221 421
244 5
215 164
57 357
122 65
198 309
400 397
282 295
196 416
67 400
110 330
204 79
108 399
287 71
145 44
88 297
414 298
46 156
400 60
232 410
203 323
64 138
375 77
22 343
134 199
446 196
71 124
247 266
377 119
442 62
403 279
253 281
349 6
179 343
98 120
438 111
215 8
417 40
309 21
9 275
101 252
6 232
27 54
343 273
349 393
52 4
217 391
117 401
244 199
36 152
98 64
151 103
186 67
391 67
249 49
