0,diameter,163,316,361,613,631
1,4,4,5,6,5,4
2,5,5,6,5,5,5
3,4,5,6,4,5,5
4,4,5,5,4,5,5
5,5,5,6,4,6,6
6,5,5,6,4,6,5
7,4,4,7,4,6,6
8,5,4,6,4,5,5
9,4,4,6,5,6,5
10,4,4,6,5,6,6
11,4,4,6,4,6,5
12,4,4,6,4,6,5
13,4,4,5,4,6,6
14,4,4,5,4,6,5
15,4,4,5,4,6,5
16,4,4,5,4,7,6
17,4,4,5,5,6,5
18,4,4,5,4,6,5
19,5,4,5,4,6,5
20,4,4,5,4,6,5
21,4,4,5,4,5,5
22,4,4,5,4,5,5
23,4,4,5,4,5,5
24,4,4,5,4,5,5
25,4,4,5,4,5,5
26,4,4,4,4,5,5
27,4,4,5,4,5,5
28,4,4,5,4,5,6
29,4,4,5,4,5,5
30,4,4,5,4,5,4
31,5,4,5,4,5,5
32,4,4,5,4,5,4
33,5,4,5,4,5,5
34,5,4,5,4,5,5
35,5,4,5,4,5,5
36,5,4,5,4,5,4
37,5,4,5,4,5,5
38,5,4,5,4,5,5
39,5,4,5,4,5,5
40,5,4,5,4,5,5
