0,degree_centralization,163,316,361,613,631
1,0.11295283663704699,0.095352016404648,0.0893711551606289,0.123718386876282,0.111244019138756,0.0845864661654135
2,0.11008403361344501,0.106162464985994,0.0777310924369748,0.118627450980392,0.118347338935574,0.0942577030812325
3,0.0942576069549302,0.0928849233584992,0.109814687714482,0.0999771219400595,0.111187371310913,0.10043468313887
4,0.0827109783420463,0.108289768483943,0.107169529499627,0.0840179238237491,0.134241971620612,0.0842046303211352
5,0.0895499618611747,0.093440122044241,0.0944317315026697,0.11487414187643,0.124256292906178,0.124408848207475
6,0.0850518685164354,0.0971753530808649,0.0802399700037495,0.0992375953005874,0.115860517435321,0.116735408073991
7,0.0879753340184995,0.0842754367934224,0.0691675231243577,0.106474820143885,0.107810894141829,0.115210688591984
8,0.0762244291656056,0.0728291316526611,0.092861386979034,0.1117901706137,0.0940497411085646,0.126559714795009
9,0.0838148277062304,0.0799164636268709,0.0808910546467108,0.0973198746954403,0.111729899060216,0.122798468499826
10,0.0732562819849347,0.0688862055085964,0.0818526824219424,0.0958541774481053,0.113995744925536,0.107986889770571
11,0.0631778356618518,0.0789012550319678,0.070850106559318,0.0886099928960455,0.0998816007577552,0.104238692872366
12,0.0683209231608904,0.0731940275232934,0.0785739347393864,0.0859420685353398,0.105317531480254,0.112919574285603
13,0.0596626506024096,0.063710843373494,0.0728353413654619,0.0827951807228916,0.0927228915662651,0.0993734939759036
14,0.0552355673523557,0.0549568679495687,0.0887989382879894,0.0828666224286662,0.0994824153948242,0.105295288652953
15,0.0576683496164186,0.0536030424234476,0.0849233930015518,0.0755032456888073,0.0872729657071667,0.0990754704609534
16,0.0677563791336246,0.0549891208573843,0.0776824728920537,0.0660480840121559,0.0854327381273489,0.0872848896800993
17,0.0648916005212652,0.0556213718753702,0.0681643170240493,0.0576057339177823,0.0749763061248667,0.0904661769932472
18,0.0570162571812737,0.0506172839506173,0.0672472802835839,0.0549016012712382,0.0683412785723017,0.0869698080919203
19,0.0544666700256966,0.0438655716229153,0.0724744293847937,0.0633143548143296,0.0799717841487378,0.08334760921046
20,0.0495448688640426,0.0440292613990606,0.0637058896878507,0.0717984953655597,0.0745459079762251,0.0795211771062804
21,0.0429999315396728,0.0436982268775245,0.0559697405353598,0.0668720476483878,0.0655884165126309,0.0831690285479565
22,0.0372511420675653,0.0429248209350854,0.0490102081100897,0.05891940668885,0.0593311149963341,0.0802267215611077
23,0.035105194563396,0.0433485384472165,0.0428272202569354,0.0532768571960529,0.0643455594861292,0.0757075032582387
24,0.0303095500632009,0.0460194943157587,0.0372289948171399,0.0591130355269881,0.069190605537861,0.0752801779615108
25,0.0297783692156583,0.0440314940671388,0.036024903759327,0.0545569760626079,0.0700093468307907,0.0667363718454446
26,0.0279320039228506,0.0442170644001308,0.0312572736188297,0.0480209218698921,0.0711840470742073,0.0601595292579274
27,0.0260155914361522,0.0398011239132734,0.0290650103734216,0.0484474409708055,0.0766478196384738,0.0646131393794945
28,0.0308051383469631,0.0405116966878686,0.0250663673454843,0.0464054733016195,0.0701124236107399,0.0573110980455039
29,0.0267331178821988,0.0354964332776301,0.0292036896620264,0.0426239886924963,0.0623591163068044,0.0525003864869441
30,0.0246217487047105,0.0310066962304369,0.0307683702515677,0.0382567913784361,0.0600818576780484,0.0550429655533844
31,0.0226398009970226,0.0270356547001203,0.0275134867080386,0.0378410827111144,0.0583416820088218,0.0516058568551828
32,0.0233524850395423,0.02412899515282,0.0290673342830458,0.0332606546386327,0.0518828091268529,0.0489491423168178
33,0.0201889549307245,0.0243827825854865,0.0253689617060009,0.0326910508179949,0.0460479265258915,0.0498044408857134
34,0.0237639553429027,0.0227487642381259,0.0241884126822537,0.0308490843485244,0.0407880597690228,0.0442201974956734
35,0.020662972847393,0.0207031332086494,0.0229815332385362,0.0299610304401529,0.0380052441960106,0.0411242099266139
36,0.020082192753546002,0.0209825387673634,0.0213057448481915,0.0293872475808748,0.0375403380484759,0.0399388166065021
37,0.0173896615714258,0.0202272770752425,0.0204949525868391,0.0290231039518407,0.0344164705732305,0.0374044243780809
38,0.0178904169487329,0.0190338716517534,0.018528128037425,0.0269993335774249,0.0304341756247382,0.0331488598378986
39,0.0174761849629466,0.0201545333227711,0.017700777106226,0.0273804373279106,0.0268424607986601,0.0306455108992478
40,0.0160624723609418,0.0196809868447071,0.0156391228846009,0.0265455401795505,0.0257169976162998,0.0294762690597147
