Vertices 334
171 "#278"
95 "#84"
272 "#150"
241 "#63"
321 "#28"
167 "#89"
221 "#6"
298 "#119"
144 "#102"
177 "#175"
1 "#38"
49 "#7"
245 "#203"
44 "#195"
253 "#128"
143 "#138"
151 "#189"
119 "#129"
81 "#133"
152 "#299"
131 "#263"
260 "#233"
202 "#333"
91 "#258"
293 "#307"
154 "#301"
132 "#293"
326 "#289"
33 "#274"
325 "#224"
308 "#199"
275 "#107"
148 "#154"
39 "#15"
304 "#118"
179 "#53"
125 "#290"
34 "#317"
109 "#96"
252 "#117"
36 "#179"
11 "#90"
159 "#279"
28 "#110"
189 "#236"
182 "#157"
297 "#42"
329 "#209"
160 "#295"
46 "#45"
169 "#100"
233 "#59"
214 "#165"
10 "#65"
230 "#47"
191 "#11"
31 "#33"
65 "#313"
259 "#226"
127 "#213"
2 "#131"
73 "#198"
285 "#194"
183 "#265"
118 "#331"
228 "#68"
288 "#125"
153 "#298"
279 "#273"
212 "#81"
277 "#167"
86 "#75"
276 "#244"
225 "#132"
17 "#245"
23 "#127"
37 "#135"
77 "#177"
21 "#79"
30 "#58"
38 "#183"
306 "#14"
192 "#255"
57 "#115"
93 "#17"
75 "#264"
72 "#40"
138 "#50"
324 "#188"
197 "#200"
98 "#332"
243 "#106"
71 "#103"
130 "#232"
161 "#206"
4 "#109"
48 "#243"
165 "#164"
266 "#229"
14 "#254"
289 "#39"
302 "#99"
180 "#76"
78 "#168"
52 "#250"
330 "#269"
18 "#276"
27 "#159"
235 "#86"
327 "#228"
134 "#281"
224 "#161"
107 "#217"
256 "#153"
229 "#282"
305 "#43"
190 "#275"
139 "#71"
116 "#304"
223 "#220"
29 "#97"
322 "#104"
100 "#29"
258 "#249"
239 "#308"
203 "#64"
328 "#57"
173 "#142"
45 "#318"
157 "#148"
300 "#173"
105 "#225"
140 "#123"
249 "#12"
47 "#18"
20 "#10"
172 "#240"
69 "#113"
67 "#111"
303 "#253"
103 "#48"
215 "#77"
166 "#143"
35 "#85"
209 "#32"
68 "#21"
244 "#98"
247 "#80"
149 "#140"
331 "#297"
299 "#5"
201 "#181"
292 "#146"
281 "#262"
267 "#330"
196 "#208"
234 "#191"
250 "#222"
278 "#130"
97 "#184"
240 "#246"
315 "#166"
301 "#190"
13 "#116"
61 "#296"
291 "#93"
232 "#27"
206 "#259"
296 "#204"
123 "#152"
19 "#56"
282 "#87"
316 "#70"
216 "#280"
246 "#261"
56 "#328"
50 "#185"
248 "#174"
204 "#51"
129 "#149"
80 "#105"
150 "#271"
194 "#193"
168 "#62"
295 "#310"
142 "#272"
284 "#270"
42 "#187"
102 "#1"
85 "#31"
108 "#178"
99 "#169"
176 "#266"
178 "#36"
117 "#35"
210 "#286"
133 "#267"
26 "#72"
53 "#92"
32 "#251"
136 "#13"
254 "#325"
110 "#324"
286 "#52"
22 "#315"
15 "#91"
146 "#180"
155 "#256"
141 "#309"
89 "#134"
219 "#88"
200 "#248"
87 "#147"
96 "#44"
5 "#227"
66 "#136"
323 "#163"
174 "#322"
213 "#205"
40 "#4"
164 "#24"
9 "#122"
54 "#172"
186 "#221"
187 "#137"
113 "#210"
311 "#19"
220 "#329"
309 "#186"
135 "#321"
271 "#285"
41 "#197"
269 "#223"
242 "#82"
126 "#291"
64 "#46"
43 "#9"
90 "#126"
294 "#25"
270 "#257"
104 "#218"
74 "#242"
158 "#141"
312 "#268"
227 "#101"
51 "#216"
25 "#241"
106 "#201"
83 "#22"
332 "#323"
59 "#124"
273 "#54"
217 "#170"
188 "#288"
236 "#176"
307 "#69"
55 "#74"
137 "#314"
320 "#160"
7 "#155"
121 "#294"
12 "#23"
88 "#320"
334 "#300"
8 "#73"
237 "#214"
195 "#292"
92 "#215"
333 "#49"
199 "#83"
3 "#306"
238 "#234"
76 "#327"
124 "#212"
156 "#196"
262 "#16"
94 "#145"
84 "#67"
175 "#238"
257 "#237"
264 "#2"
287 "#3"
184 "#260"
251 "#252"
58 "#120"
268 "#41"
193 "#192"
313 "#151"
211 "#95"
163 "#219"
60 "#284"
283 "#303"
24 "#112"
82 "#247"
111 "#211"
318 "#60"
255 "#231"
145 "#139"
208 "#326"
263 "#230"
70 "#171"
79 "#302"
120 "#283"
185 "#8"
63 "#114"
16 "#312"
181 "#287"
314 "#61"
122 "#235"
198 "#108"
310 "#158"
114 "#202"
162 "#30"
231 "#66"
101 "#26"
62 "#121"
274 "#156"
265 "#37"
218 "#94"
6 "#0"
319 "#144"
205 "#78"
222 "#20"
207 "#207"
317 "#55"
170 "#277"
112 "#305"
147 "#34"
290 "#319"
261 "#239"
226 "#162"
280 "#311"
115 "#316"
128 "#182"
Edges
328 178
286 87
132 95
223 90
1 304
234 133
82 72
171 293
48 298
171 112
188 84
10 96
136 10
9 20
41 221
298 88
310 133
322 152
10 171
105 113
194 42
74 192
131 9
198 80
329 322
275 13
283 16
122 90
258 261
271 132
170 207
44 245
186 224
154 120
22 136
305 331
157 138
115 65
156 42
294 125
212 56
174 80
219 86
127 143
124 23
330 170
257 275
310 110
254 135
191 283
55 139
9 231
191 214
198 265
33 311
188 79
285 308
248 36
260 25
143 278
213 194
233 86
97 108
313 67
179 191
22 244
162 153
197 321
103 188
210 220
136 133
31 244
132 300
296 2
159 191
114 78
90 174
151 99
189 217
305 117
299 94
67 220
251 206
174 6
120 143
149 104
102 119
267 317
268 5
199 73
301 210
31 113
16 295
124 161
169 261
224 172
82 51
225 187
15 12
294 71
334 229
317 187
296 208
322 291
58 90
280 118
321 264
85 86
309 146
70 31
334 194
219 127
245 213
41 264
47 114
300 155
175 172
238 62
220 25
278 201
211 250
133 192
182 292
21 208
223 99
20 80
197 156
159 229
126 331
29 313
124 259
143 222
295 254
171 125
331 296
266 74
319 305
284 143
304 182
102 60
41 127
75 222
207 191
199 320
26 25
179 282
266 14
202 293
167 120
98 158
241 166
72 37
254 5
315 32
240 302
175 15
79 103
273 327
117 198
154 159
107 148
79 16
225 318
306 247
186 275
134 48
235 272
239 227
205 295
148 164
226 174
107 219
185 294
138 74
16 174
80 268
166 101
70 309
301 72
271 62
215 258
13 64
306 181
125 210
195 290
240 327
173 47
266 272
125 107
186 107
253 171
176 154
328 49
118 82
276 52
121 208
99 182
19 271
164 307
255 200
115 135
44 41
94 183
216 290
327 86
165 33
126 332
90 26
38 118
329 105
218 267
96 243
197 62
230 250
10 12
220 179
77 70
176 148
311 8
168 201
177 108
105 61
320 193
168 230
333 37
155 228
296 141
153 311
84 232
223 196
139 318
252 25
214 226
69 26
58 218
146 308
312 48
192 47
52 251
25 269
267 318
269 157
61 2
142 299
3 235
164 293
285 156
95 17
207 49
142 78
329 325
136 166
42 308
43 197
106 75
200 122
254 208
290 64
329 225
260 171
4 330
266 114
54 158
177 54
46 319
91 184
251 114
230 219
208 76
58 168
133 72
62 117
162 310
202 106
55 23
316 129
54 68
308 189
272 111
270 207
270 184
87 157
113 216
253 114
239 315
152 193
33 78
19 93
108 212
292 133
295 231
134 132
195 3
50 315
184 241
122 175
19 209
80 112
334 307
27 277
301 106
12 209
102 130
251 75
77 187
256 171
330 61
192 66
3 43
149 280
325 248
126 258
117 326
92 55
146 230
323 82
87 153
70 68
230 175
321 323
56 115
281 250
295 118
178 135
210 283
141 91
28 154
279 193
326 153
71 226
292 50
220 283
39 283
302 291
181 219
110 55
222 62
218 183
53 191
115 297
193 288
155 217
318 244
334 181
107 46
290 34
264 184
120 266
192 183
281 32
60 164
331 334
300 31
130 202
96 16
161 163
318 165
5 134
234 316
5 243
175 25
246 84
216 136
91 18
330 191
96 125
295 22
311 149
173 82
29 242
111 73
97 131
310 245
194 96
34 141
261 25
106 234
56 291
295 285
107 63
245 186
171 331
313 94
15 191
305 27
316 287
287 161
66 67
140 211
167 104
48 257
193 269
210 118
154 188
50 101
99 104
133 270
52 246
97 27
268 301
217 219
74 258
217 31
107 250
216 123
285 311
271 189
232 253
289 215
229 217
4 243
104 223
41 193
187 145
138 38
62 76
39 8
98 295
218 303
16 189
2 62
297 38
277 94
201 172
63 296
321 177
298 238
207 105
49 307
208 267
42 285
90 298
65 154
311 109
35 160
325 196
216 199
112 78
67 134
139 206
100 94
259 252
290 254
32 206
314 156
8 89
322 305
267 227
87 173
34 76
65 193
210 234
322 140
260 49
160 84
233 37
95 12
125 229
232 18
5 81
322 65
289 119
7 333
33 268
120 201
306 212
92 113
255 240
281 181
131 64
156 211
162 319
109 326
222 117
252 193
308 74
255 189
253 94
275 297
24 245
96 120
3 45
220 110
271 142
202 61
238 47
309 18
68 161
228 71
146 108
142 5
21 31
213 264
152 308
251 252
277 134
237 51
232 55
264 222
193 82
232 59
168 220
3 27
95 138
261 116
229 222
277 214
127 213
63 67
16 141
210 229
293 24
201 11
290 112
49 102
102 147
185 31
49 149
82 286
4 118
194 151
278 144
125 292
86 159
238 261
61 260
229 271
277 46
290 65
307 41
62 126
72 20
162 133
133 161
313 122
113 179
154 201
107 31
37 58
318 38
34 6
192 150
229 120
327 222
279 207
150 312
153 164
255 205
44 199
160 315
119 157
277 89
200 74
253 14
286 237
315 156
116 298
134 190
271 159
288 252
111 208
213 73
249 67
231 105
79 163
324 86
30 43
264 198
71 26
212 199
330 268
61 89
38 248
56 201
228 34
158 48
325 107
87 211
9 215
22 317
275 95
157 270
315 47
183 251
117 178
241 306
104 161
285 172
182 227
45 293
282 228
66 123
321 16
252 90
78 241
198 250
155 246
210 245
51 250
183 199
275 327
100 110
186 325
255 167
30 297
299 233
14 222
52 255
272 258
319 69
75 306
294 332
280 234
88 295
185 66
177 298
270 170
157 158
176 324
265 43
55 244
91 104
281 123
258 266
182 235
184 118
67 156
50 217
298 10
56 141
157 166
133 5
30 134
102 234
253 254
202 56
3 293
13 115
61 331
266 261
139 236
153 207
288 271
23 60
334 143
7 28
60 269
314 234
106 259
195 171
298 69
158 95
41 151
57 74
134 224
48 173
308 62
54 248
17 111
161 175
320 257
37 274
108 321
202 137
248 116
285 9
186 149
219 291
29 315
90 184
242 212
59 326
5 55
132 168
51 98
183 59
25 42
72 65
91 133
254 112
253 125
285 296
43 184
221 77
225 325
226 57
306 168
151 115
226 108
105 107
311 160
265 49
134 71
267 118
43 117
156 87
276 250
105 110
207 67
149 212
43 248
235 226
80 273
197 268
218 211
216 16
100 271
281 279
295 112
82 217
148 266
183 295
87 158
178 61
95 297
57 93
165 41
292 254
73 238
126 154
333 78
112 137
42 71
273 304
254 249
230 320
183 219
261 312
93 281
127 163
64 267
234 181
170 326
253 304
28 289
191 198
11 187
268 219
132 329
123 62
59 90
289 17
137 3
21 196
94 224
181 58
13 199
275 243
224 53
207 255
212 23
252 91
120 51
267 158
69 166
196 315
206 177
1 177
175 301
276 199
320 277
314 295
334 169
248 324
66 122
297 304
301 41
53 205
92 127
81 128
69 331
79 105
241 106
273 223
54 128
258 254
213 255
174 208
294 118
152 215
283 303
166 201
328 102
90 13
145 98
190 252
139 26
135 166
90 296
280 213
55 138
294 146
37 119
233 79
116 174
251 279
161 329
134 165
58 110
38 24
245 160
18 229
42 256
331 329
257 258
308 128
308 171
30 49
186 110
30 4
198 211
298 100
257 238
94 118
326 233
163 252
171 126
252 173
211 200
82 238
195 154
130 219
302 210
35 248
330 74
223 127
89 253
316 301
81 2
329 315
46 64
63 122
133 312
237 114
178 12
41 285
140 58
167 237
53 160
190 160
52 134
293 280
44 133
299 24
181 229
114 92
191 60
35 266
77 162
180 77
238 272
320 12
162 40
17 42
246 131
256 46
75 192
264 79
305 220
253 88
153 134
125 120
105 320
88 218
313 102
76 115
81 266
307 211
88 34
261 260
92 247
208 162
225 66
280 110
106 101
89 104
316 80
175 276
318 286
60 236
70 223
4 69
248 105
227 217
208 273
209 274
22 109
324 197
248 235
178 51
62 58
103 327
248 300
160 143
231 158
159 331
161 125
303 155
108 235
162 112
284 207
202 332
177 132
304 67
48 276
235 28
322 159
185 71
35 281
172 5
19 92
201 210
267 273
62 307
138 51
220 280
88 97
278 15
160 21
217 179
202 24
130 200
181 152
250 196
232 331
87 204
273 121
312 15
32 75
216 190
133 246
123 268
163 329
34 316
248 285
34 174
71 289
107 193
216 49
150 315
11 188
67 316
71 116
291 211
111 300
171 81
58 276
237 275
29 260
269 306
73 180
123 180
210 243
67 59
256 182
70 132
245 212
198 285
47 88
32 14
15 293
141 159
120 210
126 334
229 190
278 317
315 33
113 320
59 150
95 197
20 104
3 80
111 56
160 198
106 198
120 331
46 301
33 284
185 177
104 111
105 240
165 273
62 73
157 99
159 252
293 290
156 289
332 34
100 35
274 29
95 250
200 38
247 223
197 113
27 214
80 165
57 12
37 225
286 236
104 220
195 332
256 127
139 202
326 51
245 73
5 206
177 52
71 55
288 111
61 326
244 95
213 86
196 58
248 100
101 29
37 147
331 202
125 112
53 155
200 261
327 82
238 327
138 260
14 303
284 153
54 309
236 204
72 209
185 171
321 303
15 80
29 237
200 257
189 263
183 216
78 18
23 46
8 261
14 289
230 156
72 87
133 303
238 85
332 110
225 16
148 17
205 262
282 332
26 180
250 181
280 174
239 18
52 183
245 198
221 252
79 244
264 333
132 61
98 112
250 117
51 68
127 188
144 218
129 45
122 36
297 130
282 245
60 174
142 226
74 235
68 104
121 135
74 85
124 163
240 324
290 57
159 211
290 203
24 251
88 267
314 23
192 142
226 127
323 310
172 277
100 236
207 116
140 183
150 319
197 20
316 277
217 233
208 7
132 210
264 303
310 267
243 63
262 114
101 37
285 194
92 131
183 14
280 316
257 189
274 271
150 49
29 145
142 150
304 323
44 52
127 107
86 55
38 17
68 258
232 274
279 223
201 85
56 16
12 203
166 302
293 137
97 246
230 62
121 265
124 26
331 161
139 85
21 149
242 21
180 42
40 10
18 270
94 272
77 55
12 71
89 72
122 210
334 7
310 148
115 189
121 320
172 257
250 223
313 134
243 165
46 167
150 242
107 306
219 261
143 9
212 255
324 221
212 81
160 120
36 232
223 293
66 282
73 193
168 324
82 200
75 206
116 280
17 261
100 119
256 319
158 165
159 43
306 290
192 69
130 112
96 71
98 103
262 331
195 176
120 198
61 216
110 208
313 87
173 319
108 236
89 170
186 4
325 131
16 169
146 128
155 124
111 294
210 40
55 251
298 60
276 65
96 30
120 121
304 188
92 250
181 35
69 246
221 10
213 187
104 8
334 237
319 325
215 31
326 280
260 99
129 292
334 159
316 244
147 271
57 286
213 300
236 313
254 88
221 258
155 52
150 115
255 211
262 288
189 193
32 273
136 261
330 288
216 171
183 44
278 70
300 128
205 141
244 54
292 284
123 245
178 105
214 204
280 97
18 134
18 181
308 170
238 12
113 124
72 323
99 232
70 221
307 184
110 295
269 121
197 308
250 40
135 270
282 145
92 269
164 331
109 71
32 142
134 160
189 25
286 92
196 33
44 193
147 65
41 72
79 154
263 291
135 48
84 222
256 233
170 125
267 265
9 108
94 312
225 6
125 49
25 88
136 174
107 237
88 226
297 116
157 265
67 264
130 150
145 115
273 139
53 235
104 218
147 41
207 199
69 145
62 252
258 276
33 240
282 190
324 278
22 280
322 182
267 137
18 188
251 212
276 57
248 318
225 307
272 322
40 53
258 152
55 43
110 66
128 50
157 211
270 48
40 1
216 60
23 34
123 313
177 38
32 275
240 153
237 68
119 225
263 175
67 80
303 90
45 254
229 188
83 222
41 156
181 216
159 316
191 40
132 74
32 150
14 43
330 192
311 69
260 302
144 77
240 122
104 186
202 254
16 88
160 290
105 212
328 192
7 203
221 30
7 174
216 159
75 115
101 250
154 115
90 288
38 36
186 180
28 267
144 156
46 127
50 258
223 261
47 278
326 180
212 272
208 135
174 88
159 32
110 276
2 51
301 83
49 287
72 39
223 200
138 44
256 264
38 156
167 235
256 129
218 270
50 108
250 127
253 240
167 69
133 142
188 171
318 272
112 316
305 139
135 220
178 261
295 208
318 27
246 216
260 1
252 229
271 152
252 13
308 330
14 305
329 302
15 7
303 176
316 232
106 323
181 231
303 131
177 263
54 93
224 262
73 106
248 175
101 321
102 83
312 144
184 213
169 229
36 217
14 251
276 82
331 121
30 288
301 58
60 177
102 208
265 305
95 122
206 72
95 212
35 128
159 126
320 165
51 223
38 146
194 13
173 289
219 180
234 118
112 124
85 313
129 94
176 239
114 315
179 311
175 193
300 54
120 74
156 1
210 48
64 128
14 33
224 310
49 286
217 77
128 132
292 240
280 167
128 207
289 139
44 184
28 294
250 259
304 252
67 259
310 300
308 44
105 250
219 69
124 56
125 25
105 185
292 27
196 124
177 212
8 44
299 84
109 244
33 192
289 309
313 52
88 65
191 133
258 316
191 51
308 41
48 189
144 220
41 99
297 90
238 285
201 183
313 157
243 132
176 279
131 180
19 231
223 244
306 304
134 60
300 236
201 284
69 218
139 56
92 104
202 115
174 130
15 49
6 287
103 19
112 202
260 320
279 224
211 96
293 99
326 60
210 218
35 145
166 323
207 46
56 174
327 10
225 201
32 263
125 188
321 14
89 47
77 72
197 42
34 275
221 46
11 27
308 311
12 138
22 56
77 97
64 32
43 38
111 260
250 41
241 314
46 156
158 274
45 174
253 64
266 200
157 240
57 298
99 79
129 272
217 249
111 66
166 200
141 254
219 45
26 35
92 40
118 262
102 288
286 291
178 83
159 122
238 258
207 250
18 295
228 238
238 189
193 114
210 334
68 281
142 249
99 7
277 257
80 200
184 228
82 258
201 253
203 294
216 126
208 69
331 181
146 97
66 284
33 182
10 155
65 318
237 329
189 240
150 284
172 297
259 192
238 318
147 171
6 298
319 158
189 63
145 27
155 183
295 241
72 176
283 159
8 86
203 75
312 270
74 56
89 102
65 233
4 115
222 333
136 267
141 202
236 333
293 115
112 100
71 50
80 144
93 31
213 162
120 186
69 61
251 226
20 125
30 51
33 246
199 42
259 271
76 57
150 270
255 8
171 264
22 184
310 78
278 185
103 221
254 62
306 24
240 303
41 51
231 183
31 243
114 145
88 290
267 256
82 5
117 39
211 244
238 250
220 126
192 246
263 283
328 271
309 48
72 242
102 123
248 108
88 281
239 198
10 51
112 59
298 188
257 74
53 150
169 71
99 44
75 199
257 175
168 272
5 152
1 116
89 297
112 116
61 192
102 246
171 204
83 207
296 59
174 137
253 134
161 237
34 226
284 318
152 190
306 320
149 235
41 170
254 105
138 201
294 300
197 9
107 41
308 129
178 94
107 163
213 82
135 293
255 45
133 61
227 85
283 140
6 281
125 190
125 105
296 76
248 137
74 171
22 110
126 271
109 90
270 116
260 148
242 145
311 80
103 37
112 64
318 199
308 114
44 106
15 273
162 301
108 74
2 307
132 220
254 16
121 314
241 311
319 141
106 209
93 327
197 180
177 17
137 231
113 170
257 41
84 205
260 212
118 9
50 106
64 331
73 197
255 83
292 256
192 34
105 169
147 300
96 233
255 275
119 66
62 232
328 21
176 305
133 319
117 147
262 256
6 151
16 118
61 311
244 108
332 112
164 182
115 160
9 242
59 72
16 110
272 97
195 210
205 155
106 163
155 251
139 304
27 23
81 53
113 215
19 73
125 128
156 311
253 275
243 42
24 311
26 289
163 175
237 188
222 218
1 279
290 141
9 324
98 318
292 157
13 218
47 54
216 134
242 272
85 287
94 66
256 10
176 157
272 78
135 267
205 320
46 188
30 318
326 41
61 36
187 169
164 174
243 67
76 98
152 60
79 29
65 22
283 174
11 235
144 203
321 141
106 114
112 57
289 230
283 314
140 80
100 8
118 247
52 330
159 180
240 73
175 307
10 46
104 229
52 157
194 166
7 291
163 196
260 238
160 210
16 29
334 190
27 235
59 236
326 86
52 112
181 160
243 301
321 278
322 68
115 280
273 97
165 280
85 202
316 108
66 37
209 35
136 179
310 79
62 224
257 206
7 148
156 19
260 317
149 157
302 176
128 183
153 61
176 10
286 264
294 16
12 116
88 283
268 241
91 219
136 290
141 115
141 17
33 133
56 236
91 32
196 176
140 181
51 196
334 228
308 287
79 123
257 110
86 107
31 76
134 332
255 260
203 235
187 136
207 192
88 95
142 329
105 31
130 281
333 97
168 232
272 205
253 278
69 97
104 51
139 297
201 108
287 28
252 277
37 144
285 186
205 222
124 203
52 179
301 321
22 258
279 150
261 252
229 291
111 312
53 109
300 309
10 308
197 193
258 240
288 49
195 39
208 74
271 181
284 90
210 93
51 86
106 285
192 130
118 315
37 237
334 278
52 207
90 333
74 333
52 288
36 192
275 198
300 203
270 173
133 286
240 118
159 121
249 48
272 37
82 305
163 229
105 102
243 322
130 83
332 201
140 179
172 263
133 65
71 276
139 12
83 182
59 61
190 79
282 312
275 116
296 151
70 204
11 120
223 167
272 263
29 72
289 186
8 221
70 246
307 291
231 1
160 333
187 66
12 221
25 48
71 102
187 197
85 294
194 68
174 265
32 236
43 116
153 71
321 300
47 247
125 18
310 89
233 219
27 25
293 288
52 27
84 189
147 246
71 149
136 130
180 51
90 150
295 126
165 224
179 203
36 290
152 208
322 97
334 3
73 234
153 1
59 315
186 112
203 226
264 200
271 188
108 66
164 277
296 258
263 164
52 269
294 181
323 240
172 246
118 45
102 306
324 76
284 240
28 322
245 119
226 282
289 67
241 305
182 214
326 62
50 158
193 225
320 259
225 199
190 126
116 290
256 153
220 208
228 181
249 164
103 248
313 212
325 174
250 66
20 22
132 267
258 145
88 280
174 112
278 72
125 61
225 114
25 266
281 183
331 18
101 72
216 262
111 318
285 298
21 162
173 190
161 38
250 13
215 242
178 82
150 210
329 186
143 187
127 311
216 120
8 54
238 130
179 15
313 311
52 192
67 28
247 180
63 127
297 294
38 187
130 82
316 324
98 328
156 66
239 88
262 212
191 108
53 27
304 220
252 78
294 288
324 238
211 267
225 278
220 107
141 125
46 264
225 74
207 269
213 284
180 189
190 306
29 3
237 62
35 303
307 88
118 241
238 200
82 121
89 143
190 153
104 320
294 119
286 93
197 251
209 30
2 295
17 237
7 274
14 142
282 11
142 282
106 213
301 1
187 279
273 77
29 201
103 29
189 258
115 304
303 52
154 21
310 102
74 263
190 188
45 173
325 200
261 237
38 54
138 207
146 161
43 190
41 131
33 124
56 188
162 157
293 10
250 301
228 52
123 48
109 112
197 138
260 194
23 22
74 172
53 65
30 246
310 221
162 116
209 5
99 285
272 182
9 7
227 60
283 141
111 102
54 4
328 124
326 201
176 284
90 64
96 195
83 189
22 239
221 161
73 243
185 164
179 212
37 153
257 1
107 223
292 227
179 153
91 162
322 169
113 196
68 90
282 266
147 129
289 179
157 94
194 88
249 11
143 183
267 45
331 154
131 330
78 148
111 237
242 283
161 207
189 200
77 201
132 170
242 254
330 176
285 71
81 300
122 42
185 155
153 133
210 305
121 271
110 135
107 124
46 111
295 334
147 61
255 258
23 50
266 106
51 289
53 234
170 195
315 171
156 119
193 127
19 304
324 241
70 2
12 119
334 323
325 135
57 25
44 213
17 238
229 48
45 16
194 179
313 270
5 87
41 288
43 242
327 276
71 19
73 183
239 189
7 14
40 225
110 221
185 191
184 52
146 109
79 120
73 52
211 302
223 238
69 28
320 175
131 176
270 117
251 117
318 169
231 251
26 151
285 10
92 304
12 175
247 237
268 291
205 284
220 290
91 52
62 135
174 290
159 118
318 325
257 72
239 225
269 314
146 186
241 282
102 53
12 112
21 88
133 31
283 139
274 169
79 125
181 188
190 108
86 236
35 108
35 118
264 287
226 261
94 165
288 311
333 210
160 233
253 195
32 246
334 111
115 288
189 266
306 207
6 278
10 156
319 156
239 284
255 158
78 240
145 253
43 31
182 120
17 309
42 200
317 93
291 313
55 309
169 233
271 61
245 301
37 172
292 87
132 331
168 131
164 229
18 10
282 128
28 249
140 57
44 16
75 58
165 323
192 140
265 96
116 104
72 165
110 256
256 32
119 89
116 88
94 70
118 331
332 23
17 130
91 251
197 44
42 77
279 32
284 75
12 279
234 193
235 202
154 67
218 244
245 205
275 76
206 217
248 232
112 94
28 268
172 143
11 284
227 273
65 267
325 111
291 194
324 79
257 282
55 53
142 65
302 7
239 45
307 330
306 186
4 34
89 278
156 182
159 313
128 96
15 208
208 192
244 124
164 301
224 258
146 78
331 153
311 102
185 199
126 210
236 54
175 184
281 109
115 45
133 330
286 160
1 239
297 127
59 301
1 197
145 294
261 255
230 188
46 252
327 202
254 13
7 214
66 15
15 211
187 74
106 152
229 68
305 98
145 304
60 196
129 223
46 68
303 244
274 180
36 309
36 247
173 121
42 299
316 178
82 98
303 206
208 48
237 158
107 281
282 213
20 58
168 213
4 203
14 167
208 133
15 68
65 76
145 230
251 290
317 17
117 225
164 22
135 211
17 258
24 198
324 138
33 306
255 74
207 315
51 105
186 207
92 238
237 310
118 124
126 6
300 191
140 264
30 304
27 297
243 35
291 41
58 250
293 119
3 65
303 20
249 168
316 139
263 298
14 155
7 128
248 212
288 58
284 131
2 184
152 113
265 315
1 19
327 267
299 313
198 73
294 33
9 103
259 111
170 171
217 61
133 119
206 143
49 52
136 194
266 327
258 63
285 97
155 132
292 166
322 192
16 31
181 121
328 4
121 78
122 11
279 75
105 141
293 191
107 313
248 125
98 128
137 208
108 269
331 65
237 228
265 98
151 261
69 134
230 187
183 264
323 51
77 300
4 63
11 177
33 175
135 200
297 25
60 26
20 289
145 75
172 71
130 74
141 1
66 118
259 19
279 323
148 320
156 324
159 120
195 191
7 269
188 331
222 80
190 181
32 7
66 124
130 189
281 131
99 226
82 74
85 203
76 295
145 20
124 253
106 260
162 146
67 50
227 109
290 208
201 38
241 320
191 245
170 310
179 170
176 251
323 93
32 24
108 148
116 202
107 334
291 14
154 250
17 35
71 326
269 77
46 84
230 297
238 255
115 140
127 60
59 201
124 207
258 232
21 304
115 295
118 259
118 290
81 194
136 197
192 284
120 139
295 101
125 126
138 294
62 14
112 45
120 132
5 122
106 84
51 84
200 224
129 293
18 305
321 47
166 198
196 231
129 268
325 124
163 185
247 58
3 28
26 313
110 34
271 307
46 55
85 234
328 57
152 2
144 292
293 16
18 189
307 177
45 279
237 86
268 136
85 299
276 163
323 224
13 219
268 232
44 32
28 292
239 13
265 201
138 221
199 297
248 48
33 45
35 40
40 108
286 251
115 290
317 136
169 232
321 317
289 2
133 284
156 234
43 261
210 320
270 324
316 180
99 33
186 63
111 329
206 330
195 202
281 229
204 203
23 33
275 246
241 216
313 129
58 188
139 82
133 183
328 309
324 212
57 134
51 19
239 118
3 138
16 263
334 326
19 193
151 193
76 283
237 265
238 91
183 33
252 153
109 28
243 276
204 86
330 110
91 262
273 74
138 83
29 197
215 319
51 137
250 182
243 80
170 228
165 66
7 165
25 200
155 142
44 300
238 118
212 121
282 35
17 172
154 149
37 81
186 109
234 213
180 232
282 29
14 328
195 181
105 257
270 134
256 22
224 110
32 143
332 178
230 253
60 121
34 118
221 225
317 218
256 55
259 161
36 108
165 97
146 201
86 30
91 33
138 40
279 33
183 58
334 149
218 243
171 292
334 121
317 203
255 5
140 71
66 325
311 242
86 200
122 25
163 139
195 153
229 130
162 78
302 270
44 212
236 18
25 239
300 242
82 255
237 173
264 154
325 127
163 51
141 288
74 25
157 58
227 29
328 207
312 184
251 209
175 327
134 37
235 222
189 82
234 189
222 319
102 245
34 160
276 238
183 305
133 121
141 22
234 41
33 142
298 157
46 66
32 54
150 184
208 3
16 64
131 49
109 93
175 82
12 87
173 298
160 153
156 147
325 274
244 155
62 74
231 141
146 181
267 231
327 17
14 292
15 60
146 110
9 62
249 331
260 258
294 227
277 315
82 240
113 325
121 126
47 306
280 188
153 81
279 37
98 267
178 210
118 227
110 95
210 326
60 229
320 107
190 295
55 108
134 152
98 118
169 131
44 329
154 266
196 127
131 155
188 216
327 88
320 155
121 86
56 109
75 98
324 23
148 99
60 189
101 149
76 280
17 314
276 247
182 180
305 179
43 73
45 177
288 315
259 251
242 45
36 199
229 154
202 98
313 125
295 218
112 251
97 70
84 334
33 212
323 146
87 185
59 13
103 233
78 243
166 300
79 181
271 300
329 259
286 300
230 158
150 88
214 165
307 258
196 134
331 73
123 297
183 239
83 45
288 129
147 135
320 220
54 97
255 276
112 322
310 326
217 137
274 277
142 330
105 41
112 183
12 168
228 134
51 118
103 298
126 152
254 56
173 98
222 292
240 121
131 323
135 285
251 33
239 208
68 315
303 177
138 14
316 55
166 327
178 299
3 122
126 272
151 253
103 195
22 282
295 70
19 61
318 66
217 112
46 102
301 197
151 103
204 328
259 205
302 304
27 165
98 137
259 58
171 6
156 235
66 17
296 154
17 257
18 16
57 224
138 97
152 161
45 137
62 16
295 287
267 190
181 21
166 298
293 22
93 65
254 24
148 214
41 34
192 144
115 306
12 29
115 137
160 142
223 163
205 7
193 314
206 276
99 317
82 33
282 182
95 8
271 216
176 177
248 233
89 209
110 56
186 152
93 263
12 282
112 67
79 61
280 283
134 326
118 76
187 333
177 248
79 159
44 200
137 282
98 182
297 256
150 206
237 137
230 232
277 264
174 193
272 123
210 8
115 40
118 273
223 92
320 149
199 210
204 169
160 239
288 298
217 301
179 3
155 255
57 28
128 264
2 277
310 171
202 65
266 319
255 283
235 273
12 22
304 181
7 226
14 57
13 292
275 311
313 83
170 282
31 321
172 204
200 69
126 170
319 188
170 284
117 30
102 81
43 192
64 223
89 273
331 77
250 260
233 131
221 137
189 122
56 267
206 7
250 287
4 120
49 218
227 70
169 194
116 250
167 52
139 122
287 223
275 129
325 7
136 276
270 232
55 106
105 69
13 257
90 241
311 249
98 239
202 17
264 199
281 310
330 32
240 317
110 254
226 187
173 72
190 170
63 22
52 236
331 278
181 293
216 18
155 102
238 48
160 60
123 72
306 131
267 3
190 195
64 86
143 253
136 307
66 249
228 152
140 77
22 174
33 68
132 18
323 177
217 46
134 300
209 10
48 122
245 296
220 174
284 282
207 133
35 328
144 66
166 158
3 102
270 188
231 321
20 117
202 233
281 182
109 115
233 287
195 134
327 197
129 39
127 157
331 160
159 66
310 21
149 306
309 137
87 161
219 250
283 275
253 9
35 284
185 95
89 43
48 87
112 247
111 302
202 278
122 257
100 137
69 67
332 135
298 152
218 65
45 148
123 67
118 332
65 197
103 126
305 30
268 91
331 195
185 10
131 142
96 316
163 104
330 279
110 88
43 178
83 298
246 284
254 104
77 128
323 311
169 218
258 289
285 324
50 278
16 115
10 246
333 294
246 75
275 7
204 229
170 210
138 176
225 26
184 289
303 312
231 313
179 141
16 135
126 5
198 322
265 78
78 293
315 11
134 86
287 122
127 38
303 73
277 59
217 300
11 219
79 232
144 71
102 99
27 242
79 134
82 182
148 130
159 18
192 184
307 206
107 289
227 211
123 319
65 135
85 44
31 197
234 247
145 295
37 77
164 64
33 188
189 56
302 66
242 89
236 329
292 93
280 34
326 126
126 87
191 197
283 267
192 279
280 332
206 122
318 205
218 302
212 55
308 61
76 334
72 33
302 56
257 249
57 162
10 174
325 81
85 223
316 113
98 285
239 33
213 321
132 125
52 176
198 323
291 53
18 133
270 320
269 104
276 62
146 197
317 147
321 83
200 285
191 201
280 51
197 245
55 11
226 15
142 265
32 176
22 16
269 163
246 301
246 150
50 209
74 223
333 69
60 14
152 153
240 297
300 28
238 51
113 290
121 79
150 46
211 168
32 192
28 175
203 161
37 145
173 303
122 97
65 45
137 43
63 204
58 22
283 177
104 102
274 49
148 128
273 320
96 89
79 24
106 115
316 315
56 220
73 280
51 255
3 148
132 190
41 128
36 163
215 247
285 245
201 153
41 229
13 298
111 170
224 191
318 257
225 216
243 32
19 116
116 118
164 333
18 79
167 228
54 258
117 264
116 187
99 34
227 140
98 315
275 197
39 80
6 164
73 242
44 195
13 125
22 116
240 137
308 292
180 223
160 36
94 106
142 313
135 118
71 23
164 118
76 88
3 118
132 63
217 263
220 115
131 120
53 66
160 186
229 175
30 2
170 79
113 26
109 39
124 214
334 216
159 44
256 311
107 244
293 332
87 94
198 1
109 273
286 169
301 232
126 324
204 79
237 186
319 105
313 166
77 236
222 176
121 153
134 226
312 148
30 12
126 141
253 66
38 316
176 319
82 62
79 171
281 226
242 240
194 197
76 130
176 153
55 322
215 107
90 200
318 154
12 94
161 226
237 240
332 65
171 131
242 97
48 282
39 184
112 92
61 141
89 35
148 166
5 257
121 326
39 133
332 95
225 61
54 143
128 201
243 130
331 50
24 207
251 246
320 97
101 155
120 326
309 217
91 286
203 32
313 137
330 270
149 25
329 100
71 37
104 141
222 321
303 330
31 139
55 318
189 320
23 221
323 294
316 163
314 86
269 250
115 219
215 205
302 298
165 245
211 1
63 121
320 100
123 126
144 199
282 62
148 153
310 303
167 208
15 285
34 45
149 182
223 52
125 201
229 295
271 59
110 258
168 197
159 63
120 115
232 131
215 47
128 40
234 201
125 87
243 280
298 139
280 295
45 332
138 240
201 70
24 296
66 81
54 136
192 115
22 332
114 213
149 292
58 80
201 266
257 334
4 97
4 59
60 105
291 328
181 61
284 16
239 137
259 287
273 299
229 112
227 261
272 157
204 28
312 91
271 334
261 263
49 156
157 214
271 287
243 246
309 155
70 280
208 227
280 3
209 297
259 234
184 131
74 137
193 244
203 252
309 77
253 119
300 280
58 52
300 135
47 103
176 183
48 130
246 11
326 18
63 69
171 91
319 300
195 125
153 84
58 104
59 199
15 309
156 44
156 127
269 192
35 167
192 312
75 150
95 310
205 278
323 28
324 329
182 330
101 205
326 63
61 126
57 266
119 192
209 152
332 254
3 239
151 156
148 331
91 155
175 258
84 225
14 223
46 228
143 311
19 6
323 148
190 308
261 272
133 99
45 56
30 226
39 143
247 3
178 164
64 49
63 314
161 266
208 22
92 63
197 128
67 78
228 16
305 224
76 149
195 140
158 256
119 182
262 136
88 276
285 60
148 83
1 186
286 151
113 274
255 35
8 212
12 206
216 79
76 290
266 62
1 195
251 270
144 47
322 2
92 325
76 94
261 264
137 76
250 71
52 322
107 328
89 234
255 154
244 83
270 52
186 305
243 115
160 68
275 24
188 44
236 299
180 45
146 173
293 47
27 316
310 240
269 196
277 40
67 130
324 308
49 230
65 289
249 179
332 116
237 172
214 315
193 255
22 137
45 42
158 120
275 145
97 252
134 13
21 278
324 69
40 307
75 34
291 249
51 158
301 88
118 85
8 151
40 304
147 285
22 275
87 249
29 211
312 309
44 73
304 156
6 30
185 39
214 323
328 123
249 52
98 141
179 229
323 277
310 99
234 108
29 42
304 119
244 125
39 269
310 178
250 242
95 247
139 174
125 121
114 296
239 153
90 62
97 175
92 51
19 192
5 127
53 15
302 17
65 254
136 51
292 319
23 65
121 216
276 84
203 117
70 131
274 77
262 151
208 312
117 226
334 88
276 318
113 120
2 119
204 259
278 232
135 202
58 83
114 205
27 182
96 317
269 68
266 238
266 300
14 314
214 106
144 277
179 94
272 83
177 207
18 190
289 152
9 140
219 165
313 112
106 40
156 11
126 195
253 140
235 283
124 254
105 34
91 297
261 319
227 266
268 74
161 261
104 172
302 84
59 165
252 106
146 236
59 57
297 7
323 215
5 327
20 222
224 257
269 303
47 81
43 285
275 307
327 205
59 312
51 209
87 276
145 127
108 78
287 103
106 161
97 15
324 41
313 173
27 125
130 232
130 169
129 141
196 214
20 128
164 112
289 50
27 181
274 110
55 189
214 75
19 12
201 196
254 280
292 252
157 56
298 59
23 37
294 242
56 108
249 12
116 183
197 291
254 137
308 2
170 80
60 170
239 253
283 34
56 332
297 273
280 157
25 120
248 184
92 79
135 137
144 265
289 32
182 36
130 261
94 150
268 221
293 56
196 105
217 129
118 56
71 10
127 108
131 192
226 323
141 37
15 35
222 294
75 270
31 101
187 298
145 143
38 273
152 302
236 206
23 5
215 314
163 324
108 230
240 276
181 154
212 19
188 121
265 69
295 141
254 25
175 260
88 112
284 305
15 19
330 251
191 303
124 8
146 178
263 206
38 299
129 327
235 244
111 229
212 30
229 184
283 157
45 225
78 119
33 225
75 169
315 320
11 321
205 39
82 257
29 181
5 229
199 247
3 79
288 9
11 322
59 55
77 233
38 27
44 296
188 126
207 92
31 80
296 12
288 33
309 126
238 302
308 261
323 7
140 217
105 269
69 44
16 267
249 99
304 62
150 133
28 231
280 208
154 190
329 104
290 35
262 227
275 288
66 132
289 314
64 93
99 116
245 153
276 204
82 3
304 325
40 93
161 186
109 26
4 208
282 144
141 116
122 74
160 132
279 270
151 153
157 40
276 262
149 299
285 261
161 149
295 239
126 202
167 12
126 69
281 73
137 81
224 78
201 236
35 50
39 19
226 158
121 301
156 58
287 230
43 26
28 226
80 275
122 72
275 322
216 240
89 216
173 123
181 132
282 261
273 113
116 220
141 76
211 192
166 149
238 236
56 290
164 19
283 114
200 17
159 84
190 63
179 83
158 37
123 45
216 253
15 277
303 130
37 169
94 151
254 95
16 137
185 152
333 5
151 234
165 36
299 328
5 104
65 33
241 206
250 104
8 66
169 266
103 11
182 306
334 130
122 24
146 21
271 294
15 149
138 262
258 243
110 76
25 35
128 194
183 168
319 33
291 13
232 139
120 14
204 297
212 292
85 179
107 71
110 47
65 112
222 57
181 284
7 162
15 257
140 96
109 301
11 234
65 252
319 239
56 71
17 313
276 172
170 153
100 202
50 133
310 119
4 275
72 125
188 234
308 276
267 171
211 139
91 206
97 128
309 38
194 30
256 242
77 155
30 172
69 43
59 239
168 61
142 120
119 45
305 91
201 19
241 312
302 169
92 189
115 317
35 193
9 174
71 244
287 100
154 142
332 290
105 325
236 272
11 76
275 107
11 141
261 82
4 136
61 154
279 125
46 15
236 83
314 171
146 256
321 30
15 26
260 154
70 128
246 330
295 259
16 220
1 203
286 85
15 136
327 135
49 168
304 313
13 135
330 150
329 185
326 79
60 195
230 112
155 118
189 285
54 86
34 267
108 38
243 159
245 274
192 194
256 166
54 22
213 151
157 44
175 220
13 329
3 261
2 215
128 190
274 102
310 301
159 181
107 206
38 237
294 163
140 246
24 135
321 94
209 260
327 260
117 312
265 317
234 104
111 124
263 276
259 147
222 44
225 172
102 132
113 112
285 27
274 132
309 236
68 128
223 182
135 199
161 63
91 176
66 283
168 56
213 197
313 105
131 251
326 76
150 155
118 242
202 153
154 247
260 150
251 184
182 66
134 61
170 159
182 211
16 3
69 142
103 190
58 57
70 169
141 287
97 236
2 247
249 62
8 205
134 171
298 327
258 60
151 195
295 258
165 175
171 326
125 181
135 295
299 59
92 317
210 196
99 82
33 144
121 104
76 124
189 243
196 197
62 118
110 281
315 278
119 331
148 274
30 243
95 163
146 145
66 291
86 115
4 250
260 206
231 117
188 70
280 31
259 54
224 298
11 54
330 281
76 103
251 296
38 13
303 281
166 272
271 282
199 217
291 204
228 137
25 190
10 243
106 206
244 257
109 144
69 272
268 334
131 107
42 324
249 105
278 168
220 185
323 19
252 49
204 260
243 119
154 171
91 194
260 200
153 278
302 157
265 24
302 48
330 196
309 187
151 72
161 92
125 271
155 330
19 178
23 108
30 211
33 206
31 129
186 131
239 29
178 222
66 100
201 90
67 236
325 110
154 326
135 312
182 307
242 111
25 276
279 284
14 127
45 138
59 235
95 23
259 236
129 172
238 65
199 7
293 141
329 196
213 193
165 87
204 257
113 186
125 207
250 331
130 210
272 165
256 159
31 175
72 25
83 112
15 141
204 35
199 157
142 91
36 201
174 3
50 9
185 198
208 225
324 229
19 78
307 262
141 27
24 121
41 273
6 192
270 246
150 91
35 21
11 15
295 290
331 19
241 196
131 15
241 30
151 164
266 67
91 327
182 277
135 138
149 294
79 272
38 253
192 272
293 25
251 275
84 185
141 234
168 314
128 56
254 34
107 258
291 276
90 37
327 293
16 36
121 177
320 214
4 116
40 242
230 7
51 99
51 22
13 33
206 142
155 281
143 325
80 4
212 124
65 205
245 132
102 69
133 25
309 255
92 262
272 28
5 258
40 323
120 288
22 157
217 100
289 276
107 119
211 167
221 287
196 141
179 109
143 330
127 240
281 184
233 274
18 32
255 36
292 313
135 91
263 131
37 98
305 191
56 283
88 15
153 184
48 180
160 188
151 205
217 75
209 210
245 156
111 176
155 203
234 202
116 137
334 80
28 155
324 189
275 317
248 291
62 295
120 324
141 100
205 40
69 194
48 110
249 199
67 23
219 151
256 306
116 34
201 282
163 82
48 82
285 76
106 9
4 72
132 265
276 74
308 302
20 44
151 245
23 326
260 90
181 295
32 257
123 248
210 138
218 106
33 247
238 122
70 101
113 153
186 105
330 263
168 155
162 30
231 73
149 256
53 219
187 81
297 269
12 270
334 175
18 321
274 99
114 122
64 234
321 24
171 86
74 5
200 96
330 50
14 260
59 154
204 54
12 239
315 67
272 149
285 65
188 195
264 240
207 212
309 267
11 291
283 135
279 147
192 239
60 315
282 297
181 321
310 243
109 176
151 32
251 274
96 206
330 10
292 318
141 208
277 310
259 216
178 68
331 280
171 271
36 43
272 237
136 198
309 231
208 57
156 205
255 327
24 26
69 46
311 333
121 190
32 201
104 325
199 118
60 167
310 214
167 222
231 143
329 92
13 260
286 30
90 164
147 267
87 216
215 196
226 285
282 202
62 91
184 69
214 305
186 250
181 85
89 137
43 118
211 64
15 272
266 21
136 113
293 54
75 286
113 111
41 262
270 46
119 180
59 101
129 100
220 157
232 231
137 300
300 36
313 306
35 203
98 290
114 151
319 195
15 107
91 14
140 213
245 72
209 319
50 97
255 50
270 323
260 82
278 313
289 47
74 128
318 94
256 207
104 124
326 320
158 171
103 80
204 136
42 44
269 12
305 102
302 18
184 296
100 82
59 164
41 292
42 298
302 87
146 134
273 153
239 254
38 217
305 123
15 51
223 259
287 300
152 11
137 266
209 190
163 116
307 288
229 308
14 71
10 305
227 49
217 97
74 182
139 94
304 83
213 133
248 128
324 298
203 332
176 265
130 240
280 98
270 284
127 164
80 248
203 188
182 14
208 115
84 97
316 182
77 135
314 230
290 139
111 293
61 188
131 78
331 30
107 232
330 302
35 66
293 206
276 284
323 183
88 9
270 318
316 75
76 22
36 87
2 99
293 205
134 35
30 66
75 131
65 171
324 106
290 202
223 208
262 291
313 229
328 26
246 88
276 17
105 103
129 274
123 46
60 241
8 26
60 290
206 255
260 226
1 148
220 293
152 229
302 324
66 272
31 284
268 306
127 198
316 60
92 3
163 287
327 50
142 4
212 280
333 96
285 137
187 172
197 234
248 67
141 135
133 74
283 132
316 28
107 160
323 228
52 289
323 190
109 34
304 269
56 195
147 75
276 321
56 320
195 61
109 65
126 153
176 244
170 215
69 275
215 199
278 197
14 312
211 274
66 9
105 237
191 76
201 206
299 28
25 62
133 110
318 35
127 43
307 31
152 260
322 259
22 5
328 19
180 1
142 246
6 92
31 242
242 205
261 318
202 45
52 318
213 37
278 155
282 150
281 75
326 42
133 104
133 155
26 250
14 276
130 267
263 240
165 103
229 212
88 293
238 303
167 23
34 31
14 53
28 107
197 296
118 114
131 43
16 260
248 180
190 249
215 282
207 150
155 326
91 192
309 149
70 236
130 28
185 203
192 8
204 223
142 49
118 208
123 256
225 87
32 27
84 85
78 173
221 38
275 50
19 89
95 76
56 116
295 3
299 322
154 310
327 323
154 265
202 267
142 334
249 38
13 116
155 99
159 91
228 74
66 246
124 51
128 38
67 88
183 135
199 224
78 86
17 128
194 156
149 62
146 287
208 326
272 135
260 240
265 239
