Vertices 275
249 "#168"
215 "#264"
207 "#95"
142 "#103"
53 "#224"
123 "#58"
188 "#208"
150 "#261"
247 "#37"
14 "#31"
131 "#213"
102 "#49"
144 "#78"
219 "#256"
63 "#222"
222 "#167"
47 "#217"
140 "#253"
265 "#62"
91 "#229"
224 "#160"
155 "#80"
171 "#152"
245 "#64"
253 "#228"
11 "#9"
31 "#140"
148 "#61"
182 "#177"
75 "#6"
92 "#84"
256 "#79"
138 "#216"
254 "#193"
6 "#45"
178 "#105"
251 "#30"
255 "#192"
223 "#88"
205 "#125"
208 "#157"
152 "#158"
72 "#210"
117 "#8"
186 "#215"
147 "#173"
262 "#127"
107 "#74"
10 "#86"
1 "#233"
239 "#18"
257 "#227"
179 "#115"
94 "#63"
49 "#34"
267 "#183"
227 "#161"
220 "#274"
225 "#52"
23 "#200"
272 "#187"
64 "#1"
101 "#59"
69 "#39"
163 "#43"
134 "#184"
73 "#21"
60 "#25"
124 "#218"
3 "#156"
65 "#22"
160 "#20"
172 "#65"
230 "#76"
192 "#126"
229 "#219"
235 "#16"
210 "#70"
236 "#121"
261 "#169"
196 "#246"
270 "#93"
77 "#33"
226 "#99"
30 "#53"
143 "#54"
185 "#91"
32 "#2"
50 "#141"
71 "#170"
241 "#57"
141 "#268"
54 "#128"
51 "#197"
198 "#72"
106 "#40"
98 "#175"
190 "#92"
17 "#136"
83 "#155"
41 "#265"
45 "#56"
76 "#69"
206 "#166"
169 "#26"
129 "#131"
146 "#87"
181 "#143"
259 "#118"
173 "#28"
115 "#109"
157 "#27"
246 "#195"
187 "#273"
18 "#81"
82 "#252"
132 "#181"
86 "#225"
104 "#266"
174 "#163"
33 "#13"
27 "#41"
55 "#231"
113 "#255"
26 "#124"
44 "#270"
62 "#148"
258 "#250"
194 "#138"
204 "#271"
271 "#234"
16 "#77"
177 "#117"
22 "#185"
133 "#130"
191 "#144"
21 "#36"
88 "#214"
39 "#239"
217 "#172"
164 "#55"
121 "#120"
15 "#89"
184 "#198"
201 "#38"
126 "#267"
110 "#260"
96 "#211"
162 "#204"
166 "#123"
244 "#139"
70 "#230"
137 "#108"
97 "#153"
127 "#191"
180 "#202"
112 "#113"
122 "#100"
200 "#104"
232 "#165"
90 "#97"
7 "#116"
269 "#44"
193 "#180"
93 "#257"
108 "#15"
183 "#67"
216 "#232"
153 "#17"
58 "#122"
203 "#101"
195 "#189"
66 "#243"
167 "#112"
28 "#262"
168 "#137"
176 "#114"
209 "#94"
170 "#14"
42 "#159"
12 "#238"
242 "#149"
59 "#258"
111 "#145"
268 "#249"
84 "#223"
159 "#110"
67 "#11"
25 "#245"
48 "#146"
266 "#23"
105 "#111"
275 "#133"
38 "#107"
19 "#119"
81 "#98"
213 "#178"
2 "#240"
135 "#179"
128 "#132"
234 "#129"
231 "#263"
228 "#247"
237 "#75"
68 "#7"
212 "#176"
78 "#151"
139 "#102"
189 "#190"
175 "#50"
4 "#196"
211 "#73"
109 "#5"
9 "#106"
263 "#66"
221 "#154"
100 "#85"
37 "#147"
202 "#220"
197 "#251"
151 "#199"
125 "#226"
99 "#221"
145 "#35"
158 "#83"
118 "#171"
233 "#46"
85 "#71"
35 "#135"
36 "#60"
243 "#201"
40 "#248"
52 "#209"
260 "#32"
218 "#254"
273 "#241"
240 "#162"
34 "#182"
238 "#236"
248 "#164"
80 "#82"
74 "#207"
24 "#47"
274 "#235"
103 "#237"
87 "#150"
154 "#142"
264 "#10"
165 "#269"
120 "#259"
156 "#12"
95 "#272"
199 "#242"
114 "#174"
57 "#194"
136 "#42"
116 "#212"
13 "#4"
214 "#19"
29 "#90"
250 "#203"
46 "#205"
8 "#24"
61 "#48"
79 "#186"
130 "#134"
20 "#188"
43 "#244"
161 "#96"
89 "#29"
5 "#0"
119 "#68"
252 "#206"
56 "#3"
149 "#51"
Edges
143 134
43 149
106 195
73 138
157 236
180 88
178 61
38 54
17 248
262 42
56 274
261 246
3 50
238 65
231 101
90 207
140 184
143 267
263 184
106 26
208 210
106 154
211 55
248 227
52 117
261 221
111 204
187 44
235 33
138 175
140 98
172 151
270 43
28 187
154 19
86 138
79 118
207 201
105 69
257 103
140 192
215 28
126 108
19 7
216 238
132 247
113 165
174 106
82 59
236 228
51 49
213 267
82 167
272 246
125 177
73 254
204 191
40 228
246 255
249 221
104 20
91 253
201 1
19 57
182 212
235 180
44 220
210 72
153 28
1 228
191 16
256 259
62 93
230 155
8 26
109 159
40 274
96 87
235 144
99 231
175 196
185 73
19 66
234 208
44 144
90 146
54 259
192 121
195 144
40 237
128 2
82 231
13 67
20 175
151 236
174 138
200 129
82 165
223 101
29 223
197 132
223 131
224 206
6 47
240 174
29 146
18 250
73 6
60 102
29 44
63 92
158 246
247 167
52 86
122 91
138 69
10 81
185 266
215 243
162 167
94 192
67 213
125 56
211 195
47 223
264 246
43 55
208 232
235 18
37 117
173 147
270 51
224 24
138 183
158 156
90 1
145 163
181 50
232 188
274 134
10 87
58 22
21 109
106 250
42 244
40 207
41 219
94 188
68 247
52 200
263 157
257 107
43 2
195 223
252 176
82 225
2 227
264 160
156 236
152 249
232 67
206 133
200 270
200 125
149 125
114 147
169 90
62 37
218 236
247 11
270 7
220 150
92 274
132 188
87 36
19 65
79 219
69 258
99 176
78 62
111 30
25 2
153 45
51 143
56 61
234 89
75 128
140 231
236 146
260 82
208 261
260 136
161 104
174 159
4 127
21 45
23 201
167 197
3 207
265 121
28 240
213 13
132 192
236 259
51 4
200 87
191 48
53 128
149 136
128 145
145 108
242 48
20 93
266 224
39 40
210 242
216 33
82 187
201 137
249 237
12 252
256 152
212 87
198 185
73 118
142 117
200 163
266 260
165 104
62 48
229 52
107 18
9 216
64 234
187 174
244 60
171 28
199 213
78 25
184 41
38 136
132 45
216 64
178 139
267 217
154 177
27 159
72 116
107 243
248 223
110 32
205 19
116 54
248 26
196 136
162 180
133 22
272 274
1 175
152 28
193 249
18 55
46 184
15 119
53 36
108 178
260 1
123 145
1 7
74 126
51 20
190 17
265 148
96 53
58 205
38 137
158 32
168 2
109 212
75 6
87 265
87 65
274 199
262 15
100 34
259 85
154 37
231 249
212 79
122 215
85 266
26 19
70 270
32 140
243 180
180 128
275 168
174 93
159 179
251 62
59 124
235 195
63 80
205 76
30 258
88 138
63 51
222 111
71 79
121 63
43 218
45 142
220 106
131 46
74 65
97 235
71 215
141 111
194 160
176 47
210 269
127 148
116 198
235 205
171 64
48 18
210 189
33 137
41 194
258 150
168 33
269 142
39 252
162 110
222 26
254 23
168 17
107 85
222 206
191 163
154 228
59 95
25 88
185 31
103 7
66 238
36 128
124 257
181 112
106 90
251 191
14 199
124 130
247 137
19 112
134 248
225 122
50 217
257 37
193 213
91 147
113 231
10 26
10 160
150 165
55 199
59 223
218 175
207 269
240 10
205 255
169 106
46 228
213 127
157 210
171 241
213 249
181 40
196 238
250 171
92 155
63 137
244 100
24 56
111 78
54 218
273 31
18 116
253 228
127 51
169 243
134 80
77 76
41 111
79 182
219 144
199 179
131 229
16 158
211 17
4 267
47 268
217 268
259 4
43 70
60 142
49 57
43 271
147 219
199 40
32 97
260 243
80 147
27 270
100 198
214 64
248 37
22 105
41 174
48 36
114 57
192 161
10 159
220 248
90 61
73 124
270 17
184 236
31 79
46 127
236 76
146 30
19 85
137 117
26 107
181 147
62 13
30 214
70 98
228 271
71 228
72 186
166 71
48 31
36 107
55 144
261 240
136 24
82 240
253 181
90 206
173 164
195 5
44 192
142 266
81 77
57 42
39 88
149 241
195 54
114 61
5 128
94 148
32 34
177 249
26 41
120 194
63 125
29 132
211 214
120 132
234 62
273 236
151 23
82 177
273 199
145 11
4 207
55 22
130 54
18 45
217 29
258 15
55 138
208 200
144 83
34 233
99 250
173 263
213 114
219 119
5 186
118 182
232 116
36 267
2 123
258 59
6 15
194 244
82 220
249 94
136 59
190 275
77 47
74 187
70 120
217 212
35 182
236 88
175 23
41 34
241 179
40 32
62 232
113 87
53 86
144 253
123 254
266 111
228 220
191 104
165 208
275 34
130 64
227 179
237 138
102 192
163 247
218 82
242 77
158 71
159 156
203 161
199 165
226 196
12 159
77 9
32 56
225 68
201 221
149 217
188 86
24 4
242 2
37 135
139 209
59 251
233 197
223 230
240 145
185 83
28 41
187 168
212 89
190 161
216 221
81 65
109 200
55 257
206 188
162 23
44 17
42 273
91 221
97 197
55 196
176 148
20 52
8 192
139 146
271 91
237 212
43 33
175 75
158 272
268 9
257 275
17 139
68 64
16 129
114 36
214 78
221 8
204 1
64 86
165 205
178 185
131 194
125 217
138 230
255 148
177 68
57 185
15 160
237 107
111 62
193 79
92 23
118 122
157 135
203 166
182 272
245 10
104 44
3 261
63 223
69 159
131 213
74 158
44 150
253 23
105 262
82 93
253 25
88 267
208 218
181 174
251 152
214 38
67 185
270 149
37 43
43 25
206 220
78 270
208 17
99 161
13 128
216 140
23 270
121 258
247 139
47 86
255 46
144 224
266 90
206 247
136 2
9 38
47 63
248 42
90 3
112 113
165 22
221 34
39 273
51 48
7 267
202 149
177 222
143 85
54 111
7 177
91 273
23 264
88 38
269 254
197 9
40 227
210 222
99 74
229 20
66 154
123 5
249 251
123 136
44 196
221 25
209 140
237 253
47 221
26 158
57 214
231 51
93 209
118 202
3 221
218 148
237 46
114 101
228 208
84 113
86 78
100 89
182 106
82 107
13 34
161 28
175 235
4 10
246 162
103 271
270 218
231 28
225 179
15 10
114 230
193 151
44 113
185 87
146 132
230 171
227 152
147 159
220 188
212 26
6 93
129 123
205 96
88 237
134 112
129 138
64 190
97 193
241 47
40 216
207 208
269 130
68 209
61 19
144 190
59 271
223 216
68 205
220 187
50 24
48 181
55 255
51 75
204 95
258 41
224 31
220 196
236 23
107 175
17 58
47 16
107 79
47 88
240 50
16 144
39 57
132 90
236 192
107 186
169 118
4 214
234 259
220 218
16 69
74 68
94 181
128 220
251 13
98 117
1 226
198 112
116 229
237 149
269 172
117 172
244 112
224 255
56 252
5 19
86 74
188 263
135 79
222 174
164 196
22 260
177 59
136 259
13 243
199 128
93 187
140 84
32 6
55 38
196 274
4 29
247 249
52 212
248 87
206 180
209 243
88 15
14 30
78 14
219 261
60 229
90 78
137 207
259 78
105 114
213 10
58 83
32 145
130 211
171 6
254 4
229 177
150 231
214 220
78 242
14 271
196 88
274 271
210 42
273 272
87 208
116 124
143 185
152 130
83 218
199 70
37 66
121 236
266 93
19 168
116 219
197 187
157 268
187 202
22 134
129 234
113 207
259 170
96 17
53 99
220 7
191 6
168 79
39 33
104 59
100 15
61 58
144 160
18 30
26 157
100 44
152 174
106 103
104 41
262 92
98 76
261 126
162 129
218 11
124 138
81 103
86 99
173 29
42 80
168 194
270 241
97 80
72 86
197 83
215 245
122 149
171 66
12 76
189 51
39 268
94 120
89 17
72 143
202 271
24 265
4 105
9 152
238 107
257 95
244 264
217 153
189 201
242 205
114 98
17 36
135 113
217 194
92 266
197 217
191 126
100 241
197 70
127 243
165 126
186 238
91 218
214 102
24 236
83 102
53 191
195 8
156 261
134 175
208 28
50 22
30 254
193 21
204 59
244 80
196 140
62 84
142 57
246 160
209 207
218 15
64 49
103 2
170 18
241 115
163 123
32 105
116 211
267 132
19 98
112 38
205 60
219 55
252 99
259 13
27 33
127 190
81 104
108 242
12 255
139 113
35 3
65 30
143 161
260 100
226 66
140 141
46 180
85 136
255 238
13 186
238 271
87 31
224 134
172 19
60 193
141 66
28 140
97 50
51 151
35 101
131 62
263 159
226 165
165 140
65 173
188 165
2 199
143 109
46 110
200 107
198 78
230 182
264 58
59 27
43 268
25 92
17 128
230 238
78 64
142 2
186 176
264 121
176 9
40 57
133 194
215 113
158 227
57 243
192 136
10 208
79 185
217 239
65 121
271 119
102 257
162 268
188 84
97 101
54 244
57 58
120 215
220 113
243 58
22 34
140 218
40 112
123 68
182 219
60 14
120 82
172 9
41 166
51 34
71 30
70 19
223 7
208 135
112 209
13 201
182 132
125 116
165 93
223 71
103 66
177 205
96 25
142 43
43 273
224 124
130 143
72 53
163 218
183 128
150 219
147 49
79 141
236 59
120 257
114 66
39 240
104 231
33 115
155 220
179 121
113 41
23 90
124 15
203 60
72 30
45 108
18 158
63 138
179 240
204 141
198 211
20 57
1 96
189 71
183 117
237 47
60 147
100 140
204 74
252 73
186 45
77 118
11 267
20 265
198 192
230 231
110 204
147 245
39 151
119 258
6 119
252 126
270 190
186 259
131 137
170 94
17 117
186 202
123 205
35 121
88 86
22 268
243 120
110 129
34 83
268 199
85 210
169 77
72 198
68 203
106 228
106 120
120 140
83 38
254 270
165 194
154 193
80 256
59 197
150 134
84 273
151 238
57 137
16 188
77 80
223 24
4 23
75 152
148 16
254 34
44 46
197 95
8 102
38 164
212 258
177 6
85 229
181 97
254 7
122 200
75 267
78 48
186 180
134 217
5 56
86 196
174 45
9 257
87 159
133 157
158 41
89 242
248 106
44 43
17 274
215 187
202 125
221 141
166 150
163 94
219 95
56 68
32 102
116 74
88 155
173 46
43 253
237 211
107 213
197 69
250 184
12 110
37 225
69 30
155 127
36 42
149 212
145 21
118 133
63 271
192 110
103 238
56 193
202 208
6 107
147 135
166 207
179 153
250 234
164 1
156 258
254 112
69 218
19 272
80 106
71 242
202 230
197 245
105 212
2 12
216 122
96 64
171 191
156 214
142 107
14 225
239 16
204 120
270 223
256 31
36 271
114 171
136 92
42 134
62 104
232 174
84 136
29 98
36 258
167 173
121 178
20 18
250 23
93 141
146 250
90 203
30 156
95 220
202 233
224 248
194 263
229 92
89 114
246 211
220 41
188 52
210 267
186 53
89 228
225 212
127 29
261 51
272 151
198 142
245 164
47 142
105 259
237 123
187 227
85 69
158 7
19 253
95 68
17 4
192 73
109 272
124 211
51 205
23 168
226 122
125 224
165 67
118 132
20 151
151 57
17 213
201 263
234 230
15 112
251 123
64 205
188 63
76 235
142 81
271 39
176 112
68 231
189 23
144 108
266 120
144 183
231 265
254 59
220 60
208 97
81 217
215 49
209 226
215 231
3 242
77 86
166 46
187 201
241 64
248 12
103 36
210 107
82 180
160 215
257 228
78 47
71 134
55 268
200 159
163 85
113 126
271 140
204 6
102 249
111 85
203 91
275 18
78 170
75 211
23 72
63 17
57 4
107 157
157 93
53 259
95 112
87 35
172 33
1 261
22 253
234 35
68 233
196 62
60 245
147 225
102 199
168 267
82 38
261 228
120 47
85 77
236 31
193 256
72 96
68 3
143 259
140 104
119 146
230 198
232 149
76 51
38 178
78 263
258 184
271 138
103 146
218 241
87 88
152 234
226 270
147 34
47 38
114 20
99 57
58 263
254 113
23 230
105 178
81 219
40 178
129 76
101 109
161 30
274 176
47 255
63 131
46 195
86 51
167 198
265 23
138 202
114 34
83 136
216 228
271 55
241 45
209 9
228 66
71 219
150 82
28 216
138 21
158 215
43 151
45 138
112 110
96 6
216 204
105 125
225 186
243 232
274 78
256 188
150 189
176 115
274 29
88 50
205 214
126 46
39 177
85 157
207 270
246 46
240 146
208 203
213 22
267 42
267 40
5 133
251 179
156 270
60 160
106 130
184 127
213 262
63 74
249 227
158 117
267 193
30 67
25 268
248 61
220 73
75 123
63 56
86 156
96 104
100 146
36 81
187 104
217 237
150 93
272 4
71 22
57 11
219 126
248 232
127 195
142 63
174 243
38 167
64 150
79 147
97 131
234 130
133 265
167 267
120 55
12 220
57 172
195 39
266 84
225 195
97 136
274 192
238 71
73 200
86 112
223 39
250 195
29 270
106 260
49 242
184 96
81 209
59 220
43 9
207 85
33 185
88 225
91 39
102 35
189 65
197 215
52 206
67 117
271 226
64 163
275 35
198 63
67 147
41 32
126 199
110 28
47 99
163 227
190 13
220 18
48 7
263 41
231 53
224 232
245 83
182 107
251 193
28 73
216 271
63 99
204 113
198 11
264 178
47 28
55 46
105 17
182 143
220 27
153 77
252 240
274 238
210 230
87 144
94 27
229 243
133 128
213 240
270 235
51 138
262 257
141 139
58 213
135 55
146 91
52 99
129 275
126 234
262 18
199 236
122 168
47 53
178 214
258 93
123 11
52 226
23 34
217 115
178 137
273 177
3 182
26 189
81 255
268 87
110 108
173 32
34 193
247 88
78 171
17 6
269 101
88 52
246 147
236 227
120 220
34 74
231 186
231 118
199 208
190 218
82 18
106 104
174 228
220 208
16 146
62 87
238 40
74 170
110 114
243 252
239 170
230 66
116 252
184 246
122 101
9 238
102 212
248 135
21 210
258 110
124 261
213 100
84 63
12 228
202 15
179 218
240 95
159 83
76 268
93 154
213 132
53 17
271 186
59 225
196 216
49 187
121 43
35 2
128 132
137 145
171 106
233 231
244 268
50 138
165 231
216 157
27 189
148 25
109 14
197 165
25 34
103 197
230 272
206 105
55 238
21 111
226 83
180 239
150 197
67 23
217 147
150 123
220 116
36 248
82 104
124 53
130 11
54 58
106 108
191 97
98 213
137 167
77 71
119 88
155 121
244 215
264 34
100 25
120 269
229 188
143 10
212 78
163 41
36 158
176 149
45 61
95 52
118 150
35 128
235 203
233 237
24 68
174 83
122 209
75 20
143 199
266 187
222 152
137 250
116 47
190 107
26 192
39 11
134 212
121 188
40 192
232 206
231 134
147 77
100 245
98 104
140 219
185 29
243 1
4 68
67 138
140 173
189 63
237 148
88 252
21 266
26 141
189 173
195 111
75 268
106 126
55 15
75 61
221 1
247 112
20 58
152 88
210 20
73 84
100 185
21 73
127 132
153 164
18 211
59 253
48 159
91 252
232 215
37 266
121 205
80 87
255 23
4 206
199 175
210 127
111 118
63 28
128 37
91 199
143 224
128 52
212 65
3 122
6 74
116 262
210 268
188 104
105 91
63 1
40 271
98 217
110 231
41 209
181 137
231 95
141 146
193 23
210 159
273 106
170 99
92 117
206 210
199 43
163 44
120 83
267 175
229 202
265 68
219 64
101 237
180 195
246 51
148 24
124 121
170 97
73 217
228 85
233 127
234 60
82 125
81 92
131 255
38 103
210 81
170 231
164 209
116 241
83 53
221 224
6 64
221 174
76 128
105 249
60 174
250 152
24 63
28 197
259 174
268 228
2 194
130 133
202 258
241 21
23 58
226 93
53 40
231 44
219 204
262 148
243 183
22 206
253 143
233 153
127 23
67 137
57 261
268 257
189 161
274 106
189 9
17 185
192 202
103 185
78 37
62 246
255 177
146 66
74 167
2 70
174 98
24 83
226 181
202 124
82 145
220 126
76 270
97 74
182 34
146 39
75 252
69 148
27 171
111 227
196 152
166 142
20 243
11 110
14 132
169 35
138 172
138 261
218 41
98 120
137 200
234 4
131 51
267 34
69 25
229 56
41 132
129 222
220 205
40 202
61 35
67 132
153 225
97 171
43 179
116 53
12 114
219 117
256 251
203 14
62 181
183 109
74 55
212 132
253 38
38 150
4 121
57 238
151 226
157 114
80 11
133 23
12 103
136 143
113 258
3 157
35 142
185 141
36 39
228 199
171 136
244 90
244 35
66 43
207 185
43 12
144 36
133 117
232 152
185 138
113 200
9 178
192 19
110 82
185 6
182 71
105 74
192 35
112 115
132 54
124 64
123 36
130 239
274 12
190 42
57 162
133 173
197 42
133 78
190 227
221 104
265 156
150 113
78 105
126 152
38 99
244 168
13 153
75 182
113 11
68 31
83 84
208 76
40 272
27 199
119 110
123 266
58 166
221 65
197 212
203 118
180 255
202 242
93 145
175 13
22 126
215 225
37 48
266 172
26 109
221 213
98 201
131 136
1 39
3 101
119 199
17 275
46 251
47 231
100 28
170 27
160 191
96 125
70 87
193 134
258 104
173 239
201 45
187 35
223 112
23 184
1 196
39 203
250 162
208 48
159 105
229 210
87 91
46 146
151 246
12 70
105 112
18 78
40 1
168 102
267 71
33 30
61 29
259 244
268 196
5 28
167 214
105 216
80 196
32 196
115 38
273 274
123 9
194 53
200 258
63 145
44 36
154 239
32 51
86 191
264 140
9 115
70 153
244 180
134 115
169 63
212 271
197 246
150 9
146 208
138 186
4 139
150 2
251 83
106 264
204 215
273 66
95 249
113 141
125 49
70 39
10 199
215 150
46 254
228 103
226 259
22 100
144 80
4 37
89 19
262 35
174 214
214 80
158 184
44 48
239 139
101 71
62 121
109 167
150 29
259 201
254 272
197 194
100 149
59 235
207 15
224 12
39 25
186 52
253 12
218 141
104 226
18 213
80 184
253 153
45 4
4 20
179 266
149 118
116 245
232 222
97 272
258 140
202 143
84 259
79 69
265 207
129 69
169 144
23 82
133 54
35 49
181 31
267 135
114 10
86 117
258 98
65 208
93 36
71 147
62 261
187 113
1 253
62 158
166 179
170 265
45 130
274 66
165 28
234 17
24 168
159 240
97 6
239 206
95 115
83 248
132 265
52 252
226 25
101 182
95 113
120 212
95 218
188 23
12 189
47 170
254 181
124 31
7 52
241 109
110 93
174 173
150 126
145 264
55 1
12 273
83 221
145 236
258 55
91 179
167 170
1 218
1 192
178 77
232 42
261 152
183 43
200 9
124 52
268 176
69 99
32 222
192 162
71 6
220 139
70 165
243 184
182 84
55 40
231 58
127 125
245 240
11 77
188 116
125 212
183 157
149 37
115 106
4 144
82 41
48 151
84 124
16 58
37 156
50 55
175 62
266 15
202 218
207 203
267 54
45 266
170 215
99 88
103 149
248 143
13 80
245 139
5 113
128 255
262 20
135 71
177 236
119 142
274 120
129 118
260 191
190 219
1 12
193 99
128 158
87 18
16 72
146 136
40 273
258 74
113 216
31 60
55 39
155 43
174 253
124 99
70 196
36 122
98 18
86 18
78 109
243 137
202 47
253 271
218 219
126 33
59 110
107 29
126 95
258 246
81 202
115 63
156 71
54 157
76 33
43 235
268 271
241 198
1 68
168 29
267 79
144 125
143 203
103 25
198 273
236 43
134 182
3 82
67 74
163 67
22 243
186 84
243 46
139 222
156 29
132 2
223 237
106 35
84 255
134 102
150 172
257 253
188 138
142 64
222 13
38 23
196 131
6 189
98 74
77 44
224 222
165 172
94 20
129 236
236 171
253 196
195 261
117 8
260 138
229 117
164 261
189 157
150 204
191 39
50 35
127 238
95 120
123 225
215 82
206 197
126 41
46 32
181 87
9 105
168 46
156 95
132 34
271 239
172 4
115 178
112 64
178 210
252 193
34 134
8 21
68 258
114 18
116 17
241 79
9 249
5 45
142 218
164 269
50 37
195 197
228 138
189 121
89 52
52 96
213 24
209 160
56 101
228 238
85 36
249 220
83 240
24 157
99 72
74 113
55 79
224 93
107 81
170 224
255 195
166 30
19 226
81 47
87 242
245 30
184 9
254 195
94 110
21 86
25 216
216 39
2 149
218 131
82 162
264 124
246 175
51 195
204 197
30 163
219 258
214 151
263 79
139 158
17 35
166 200
257 260
63 7
216 136
274 180
131 4
11 107
114 267
96 124
31 18
212 118
223 41
176 238
73 206
219 133
17 171
258 165
157 261
263 86
160 178
216 66
211 39
233 7
87 171
207 81
151 180
91 256
66 79
64 250
124 2
241 74
178 166
3 222
32 225
166 54
131 257
148 4
114 178
186 63
66 156
179 19
218 59
13 76
176 131
113 17
56 159
83 270
126 141
241 256
239 155
44 215
45 185
131 8
74 252
224 103
139 182
219 172
186 164
197 104
228 55
234 128
271 20
73 34
114 217
165 95
234 69
207 63
212 147
190 10
160 48
174 231
207 226
268 238
273 238
126 140
240 123
152 92
64 152
154 88
219 59
140 81
88 73
126 204
106 37
252 31
48 218
204 68
47 224
69 43
254 1
49 150
189 251
34 151
244 24
26 204
270 225
213 173
132 133
122 142
197 218
250 4
151 199
121 125
260 3
62 31
9 272
165 204
210 215
56 202
263 50
182 147
45 113
47 229
181 33
95 146
33 23
47 157
104 172
44 204
191 91
169 31
80 96
49 145
160 145
82 219
30 185
141 59
130 222
131 47
267 25
32 137
257 126
99 163
228 21
232 240
25 40
159 112
231 157
268 91
263 145
51 57
190 67
22 142
76 68
172 142
114 270
161 214
152 221
165 219
232 221
175 132
210 105
110 113
250 67
1 224
250 3
192 205
227 19
108 211
240 57
157 230
62 19
194 130
9 269
178 143
168 128
249 180
43 228
134 118
231 11
40 91
236 160
188 202
99 201
61 239
42 258
165 27
271 19
20 237
52 125
191 154
84 74
102 160
195 4
272 20
31 99
271 25
1 18
3 83
59 113
201 230
246 23
182 168
194 214
195 162
179 273
234 249
12 185
57 250
193 132
60 136
97 214
74 18
135 114
42 208
70 231
165 120
53 188
114 86
124 126
164 247
204 206
14 127
97 31
84 170
47 51
178 248
192 7
177 75
24 193
139 142
123 269
37 111
16 155
31 214
156 266
158 155
245 252
104 247
183 160
145 245
23 20
64 261
260 130
91 100
26 105
274 135
205 258
248 250
166 182
201 103
161 153
272 23
10 29
56 210
184 11
74 44
258 82
18 246
71 120
185 240
115 165
258 62
175 92
133 256
204 146
69 154
234 54
251 126
174 227
152 140
206 205
73 268
200 38
84 86
163 42
161 142
120 103
271 266
89 71
233 54
173 169
23 77
108 161
50 62
255 51
94 224
173 123
33 149
148 84
214 131
64 127
138 123
156 103
197 120
87 112
138 33
110 246
34 217
160 104
275 64
6 262
38 244
38 242
173 98
100 256
207 233
96 60
33 72
48 153
80 130
252 229
269 40
175 266
14 85
211 217
199 103
86 103
181 169
118 75
113 166
95 247
219 231
20 19
16 80
131 186
133 20
154 78
24 69
45 260
228 196
177 134
162 26
21 160
171 163
243 111
4 49
23 11
112 6
39 228
253 55
220 170
177 243
79 217
267 109
168 164
58 80
252 186
273 126
188 72
201 4
215 121
77 256
69 198
34 146
29 200
113 211
141 145
231 122
242 151
268 103
120 43
226 183
255 184
48 196
134 87
184 137
239 275
189 106
100 55
26 7
249 154
229 84
246 4
36 111
76 207
63 208
110 141
96 141
240 142
27 257
234 266
242 27
204 93
105 176
240 131
106 51
151 56
261 83
150 17
196 20
184 271
63 13
259 208
246 243
31 208
219 28
250 167
219 169
261 220
26 179
11 131
89 224
266 75
144 180
85 274
91 236
116 138
238 70
10 31
151 129
95 109
223 27
57 134
123 18
125 252
20 112
121 41
13 100
245 115
17 100
133 185
50 191
271 236
174 13
39 122
76 120
159 149
220 262
81 116
142 262
42 222
135 132
4 208
97 107
201 245
88 90
274 103
98 25
113 197
186 124
199 216
263 45
227 67
118 34
147 275
242 111
135 229
11 114
191 4
170 31
160 179
33 254
6 172
213 84
242 97
25 79
254 275
150 183
38 92
126 77
250 144
142 272
2 88
108 194
208 8
110 76
32 39
76 165
227 235
199 34
226 62
1 268
75 27
91 238
101 61
241 68
48 22
121 166
271 57
164 49
222 208
244 131
271 87
239 133
178 27
149 245
59 163
263 82
54 194
8 189
1 149
202 131
126 93
100 114
89 111
255 127
192 233
160 65
248 50
158 135
126 127
196 54
111 173
131 267
27 157
143 197
91 180
156 267
69 268
169 22
29 42
255 100
246 112
269 34
86 61
181 78
127 124
100 36
43 63
132 91
212 193
13 172
274 257
204 187
152 21
6 233
174 16
273 1
58 194
120 85
189 243
87 249
119 174
111 87
111 248
232 83
61 195
24 54
59 126
66 271
69 22
255 228
10 42
40 246
187 255
219 224
128 198
112 102
174 193
39 21
93 44
225 228
177 259
64 3
53 52
203 48
120 59
6 131
100 273
96 226
131 53
186 155
176 162
23 46
136 42
262 107
207 37
44 126
17 156
108 117
262 75
88 96
91 275
113 239
215 93
269 102
160 173
130 136
150 112
243 91
103 227
39 87
254 57
36 225
246 52
262 22
96 36
217 33
96 116
236 58
122 86
159 216
43 196
56 147
230 3
177 192
226 37
78 95
254 122
165 187
7 209
214 94
155 135
98 267
146 94
221 181
248 174
123 260
171 154
247 62
11 112
207 123
124 252
93 74
131 188
140 154
196 249
206 74
229 43
134 200
69 47
224 72
136 267
70 8
72 3
159 161
257 199
146 266
135 213
81 213
213 134
174 196
60 80
13 144
229 138
125 243
63 202
204 80
112 214
26 206
25 17
46 250
161 198
190 185
70 71
76 8
65 55
251 182
155 202
87 17
78 65
172 253
60 175
110 69
252 267
195 198
246 14
211 89
147 152
42 48
54 17
53 3
130 100
190 223
68 185
122 157
85 198
184 196
124 63
224 86
81 161
171 105
238 183
234 9
136 273
238 224
253 61
63 86
139 161
114 53
141 94
57 272
274 167
230 184
204 192
77 12
147 191
151 165
33 164
212 213
125 113
227 99
168 199
121 209
32 160
48 97
164 25
38 22
16 268
69 239
45 8
99 230
159 219
29 206
55 207
5 8
100 9
160 253
227 268
268 12
123 17
208 230
6 222
258 78
245 219
17 226
189 250
240 1
156 8
80 18
170 208
89 56
74 175
146 244
43 173
181 19
57 2
105 156
65 259
225 126
74 186
177 245
142 69
76 38
45 125
185 222
271 1
260 172
117 245
62 207
155 129
47 185
95 150
39 141
108 84
250 246
2 257
266 245
