Vertices 63
18 "#20"
10 "#43"
19 "#39"
44 "#34"
6 "#11"
41 "#45"
16 "#38"
29 "#37"
23 "#29"
59 "#47"
24 "#62"
9 "#24"
22 "#13"
60 "#49"
45 "#2"
47 "#21"
37 "#4"
28 "#56"
30 "#57"
56 "#22"
11 "#50"
39 "#55"
8 "#40"
27 "#5"
25 "#33"
55 "#3"
13 "#59"
50 "#60"
46 "#6"
48 "#30"
54 "#0"
34 "#27"
51 "#25"
3 "#15"
12 "#41"
38 "#54"
42 "#19"
2 "#42"
63 "#61"
35 "#31"
31 "#17"
4 "#44"
7 "#7"
53 "#18"
21 "#26"
36 "#51"
40 "#48"
33 "#46"
32 "#23"
17 "#16"
14 "#10"
20 "#12"
5 "#52"
49 "#32"
43 "#58"
58 "#53"
26 "#36"
15 "#28"
57 "#35"
61 "#1"
52 "#14"
62 "#8"
1 "#9"
Edges
12 36
40 50
46 43
30 42
61 62
28 27
44 39
11 5
25 38
24 36
37 58
6 5
59 39
3 58
51 40
23 2
60 50
42 58
15 22
12 61
24 28
43 20
58 29
19 5
42 63
36 58
43 30
4 38
52 58
28 45
18 1
5 21
9 36
49 36
7 41
63 19
28 10
52 50
55 24
29 1
13 1
39 5
59 23
19 13
7 43
4 36
24 61
63 31
21 40
27 11
63 9
32 24
38 7
28 62
5 14
11 43
36 5
57 58
13 6
2 63
23 28
42 36
39 22
11 37
53 42
51 5
43 21
30 22
28 8
60 26
51 11
50 54
22 63
39 36
11 8
28 15
63 16
4 6
13 56
47 41
62 8
3 59
50 28
36 62
50 35
39 55
23 18
44 35
13 60
36 55
2 62
5 34
13 33
34 11
13 42
24 43
24 52
61 5
20 5
3 44
49 5
63 43
39 62
2 16
60 58
23 13
50 7
63 27
9 28
17 2
56 45
51 1
28 43
54 13
25 59
61 38
19 37
15 5
45 57
30 7
50 29
60 11
11 58
5 46
5 50
30 9
26 16
57 11
25 31
48 54
50 63
29 30
10 11
36 1
57 63
30 24
28 39
36 2
26 49
36 61
20 28
28 22
38 39
55 30
61 28
20 34
61 11
10 50
42 28
44 49
52 43
5 55
28 56
43 44
35 11
58 5
11 32
37 20
3 11
6 30
55 48
28 13
28 37
59 35
59 36
34 58
5 54
47 63
43 49
38 13
3 56
23 58
38 19
39 53
33 58
50 43
11 53
24 19
30 36
63 7
63 28
63 59
62 58
11 38
18 60
5 43
8 30
37 42
57 28
31 50
27 43
33 30
50 33
20 11
10 33
22 24
43 58
50 13
8 39
43 29
45 63
41 13
31 39
42 38
5 17
7 47
30 63
37 51
2 22
5 31
32 59
28 30
49 38
38 28
11 19
36 6
5 2
34 27
15 11
39 35
58 39
23 29
38 58
50 30
60 40
22 38
38 47
36 40
17 11
24 9
9 32
21 37
23 6
7 15
44 25
59 12
18 37
56 58
36 38
11 13
38 10
36 8
29 10
59 38
28 33
32 28
46 59
7 11
35 28
13 35
24 50
11 36
24 44
32 58
52 13
22 5
51 43
15 39
47 58
39 17
63 24
45 7
36 44
49 58
48 13
11 12
32 30
63 33
24 13
18 17
38 33
37 26
39 14
24 20
30 15
46 11
40 28
30 44
5 1
29 38
63 1
50 15
43 13
56 24
8 48
11 45
13 30
42 52
14 13
50 26
1 16
48 43
2 39
32 41
43 6
14 1
11 21
10 39
13 5
59 4
44 63
15 38
1 38
11 39
43 4
5 38
