Vertices 56
32 "#31"
5 "#10"
34 "#19"
56 "#40"
33 "#0"
26 "#3"
16 "#51"
48 "#11"
7 "#34"
19 "#25"
10 "#49"
46 "#7"
13 "#55"
53 "#1"
55 "#30"
42 "#21"
27 "#37"
25 "#28"
30 "#45"
24 "#53"
2 "#18"
54 "#24"
8 "#12"
39 "#26"
18 "#6"
52 "#20"
22 "#42"
15 "#15"
43 "#16"
11 "#13"
1 "#8"
47 "#27"
20 "#39"
40 "#48"
41 "#35"
9 "#32"
12 "#52"
45 "#2"
50 "#36"
3 "#50"
51 "#22"
4 "#14"
44 "#46"
17 "#9"
35 "#54"
31 "#41"
23 "#5"
29 "#29"
49 "#23"
21 "#38"
28 "#47"
36 "#44"
14 "#43"
37 "#17"
6 "#4"
38 "#33"
Edges
22 11
24 15
6 8
1 24
27 24
35 20
53 31
16 3
43 22
12 22
42 46
17 5
48 16
35 28
46 45
22 21
24 6
12 16
35 14
25 46
56 3
3 14
3 24
28 38
3 13
29 22
35 24
35 12
53 35
13 7
12 11
46 3
12 33
40 39
9 24
14 13
38 37
13 24
13 37
16 35
1 53
12 17
28 32
53 3
56 16
54 49
12 47
34 4
34 2
25 3
26 13
24 29
22 1
3 8
20 12
34 24
44 14
3 47
36 35
44 35
15 3
20 3
15 7
31 28
12 53
2 13
16 26
29 48
43 13
25 12
40 16
9 7
25 35
25 13
16 54
10 3
6 3
3 41
12 3
3 19
47 23
3 45
42 30
41 45
50 6
48 12
55 26
16 24
1 56
36 48
13 12
50 10
18 28
43 3
42 24
50 21
19 12
26 12
16 36
16 13
5 13
18 12
42 35
34 35
19 40
34 6
9 12
44 24
47 24
6 39
20 6
12 24
38 35
12 39
16 53
27 14
24 41
35 27
27 29
28 16
52 17
28 13
9 16
1 13
24 4
52 6
7 32
55 56
45 51
16 34
11 13
35 11
28 36
17 35
31 16
16 7
31 3
3 49
43 12
38 7
12 37
24 51
35 46
1 16
28 15
35 3
55 33
35 13
17 21
18 3
3 2
16 17
27 17
24 49
23 3
32 3
56 13
9 35
13 22
52 29
22 16
